{
    "page": 3,
    "total_pages": 3,
    "total_items": 109,
    "items": [
        {
            "id": "FHZaUVSYSXQ",
            "title": "Thumbelina | English Full Movie | Animation Adventure Family",
            "url": "https://www.youtube.com/watch?v=FHZaUVSYSXQ",
            "duration": 4760.0,
            "view_count": 2168252,
            "uploader": "GEM: Film Library",
            "category": "cartoons",
            "thumbnail": "https://i.ytimg.com/vi/FHZaUVSYSXQ/hq720.jpg"
        },
        {
            "id": "pzKJ-yhg9JY",
            "title": "Curious George 🐵 A Monkey's Duckling 🐵 Kids Cartoon 🐵 Kids Movies | Videos for Kids",
            "url": "https://www.youtube.com/watch?v=pzKJ-yhg9JY",
            "duration": 2413.0,
            "view_count": 25201603,
            "uploader": "Curious George Official",
            "category": "cartoons",
            "thumbnail": "https://i.ytimg.com/vi/pzKJ-yhg9JY/hq720.jpg"
        },
        {
            "id": "rzEKtgn67wg",
            "title": "Unicorn Academy FULL MOVIE❗ | Unicorn Academy 🦄 | Kids Movies 🎥",
            "url": "https://www.youtube.com/watch?v=rzEKtgn67wg",
            "duration": 4319.0,
            "view_count": 10420983,
            "uploader": "Unicorn Academy - Official Channel",
            "category": "cartoons",
            "thumbnail": "https://i.ytimg.com/vi/rzEKtgn67wg/hq720.jpg"
        },
        {
            "id": "Ik_QP4oA_Hg",
            "title": "Curious George 🐵 Maple Monkey Madness 🥞 Pancake Day! 🐵Kids Cartoon 🐵",
            "url": "https://www.youtube.com/watch?v=Ik_QP4oA_Hg",
            "duration": 1472.0,
            "view_count": 30525160,
            "uploader": "Curious George Official",
            "category": "cartoons",
            "thumbnail": "https://i.ytimg.com/vi/Ik_QP4oA_Hg/hq720.jpg"
        },
        {
            "id": "UebFEH3CBI8",
            "title": "The BFG (1989) | Full Movie for Kids | English | Remastered",
            "url": "https://www.youtube.com/watch?v=UebFEH3CBI8",
            "duration": 5266.0,
            "view_count": 3225002,
            "uploader": "Little Boat",
            "category": "cartoons",
            "thumbnail": "https://i.ytimg.com/vi/UebFEH3CBI8/hq720.jpg"
        },
        {
            "id": "e3EtgCCBjJ8",
            "title": "The Little Alien | FULL MOVIE | Alien Animation Family Action Adventure",
            "url": "https://www.youtube.com/watch?v=e3EtgCCBjJ8",
            "duration": 4838.0,
            "view_count": 58629,
            "uploader": "Shout! Studios",
            "category": "cartoons",
            "thumbnail": "https://i.ytimg.com/vi/e3EtgCCBjJ8/hq720.jpg"
        },
        {
            "id": "Aqk-5gvyHCM",
            "title": "Joseph: Beloved Son, Rejected Slave, Exalted Ruler (2015) | Full Movie",
            "url": "https://www.youtube.com/watch?v=Aqk-5gvyHCM",
            "duration": 5456.0,
            "view_count": 18058293,
            "uploader": "Vision Video",
            "category": "cartoons",
            "thumbnail": "https://i.ytimg.com/vi/Aqk-5gvyHCM/hq720.jpg"
        },
        {
            "id": "NIxmzVli_aY",
            "title": "The Land Before Time Full Episodes | The Great Egg Adventure | Kids Cartoon | Videos For Kids",
            "url": "https://www.youtube.com/watch?v=NIxmzVli_aY",
            "duration": 4079.0,
            "view_count": 6568434,
            "uploader": "The Land Before Time",
            "category": "cartoons",
            "thumbnail": "https://i.ytimg.com/vi/NIxmzVli_aY/hq720.jpg"
        },
        {
            "id": "GQLvRuN6Vb0",
            "title": "The GREAT Ant Flu | Antiks 🐜 | Action Cartoons For Kids",
            "url": "https://www.youtube.com/watch?v=GQLvRuN6Vb0",
            "duration": 6938.0,
            "view_count": 14407024,
            "uploader": "School of Action",
            "category": "cartoons",
            "thumbnail": "https://i.ytimg.com/vi/GQLvRuN6Vb0/hq720.jpg"
        }
    ]
}