{
    "page": 2,
    "total_pages": 8,
    "total_items": 379,
    "items": [
        {
            "id": "0iW-9C1Of3E",
            "title": "Jethalal Sikhne Gaya Swimming! |FULL MOVIE| Fan Favourite | Part 2 | Taarak Mehta Ka Ooltah Chashmah",
            "url": "https://www.youtube.com/watch?v=0iW-9C1Of3E",
            "duration": 5909.0,
            "view_count": 896998,
            "uploader": "Taarak Mehta Ka Ooltah Chashmah",
            "category": "taarak_mehta",
            "thumbnail": "https://i.ytimg.com/vi/0iW-9C1Of3E/hq720.jpg"
        },
        {
            "id": "aQJCKXIwHSE",
            "title": "Bhide ऐसे क्यों घूर रहा है Popatlal को? | Taarak Mehta Ka Ooltah Chashmah | Diwali Ki Safai",
            "url": "https://www.youtube.com/watch?v=aQJCKXIwHSE",
            "duration": 2415.0,
            "view_count": 508922,
            "uploader": "Taarak Mehta Ka Ooltah Chashmah Episodes",
            "category": "taarak_mehta",
            "thumbnail": "https://i.ytimg.com/vi/aQJCKXIwHSE/hqdefault.jpg"
        },
        {
            "id": "A0Owixm1BCs",
            "title": "7 Variety का Breakfast देख Emotional हुआ Jethalal | Taarak Mehta Ka Ooltah Chashmah | New Year Jalsa",
            "url": "https://www.youtube.com/watch?v=A0Owixm1BCs",
            "duration": 3766.0,
            "view_count": 2581764,
            "uploader": "Taarak Mehta Ka Ooltah Chashmah Episodes",
            "category": "taarak_mehta",
            "thumbnail": "https://i.ytimg.com/vi/A0Owixm1BCs/hqdefault.jpg"
        },
        {
            "id": "O-QGMuXayQg",
            "title": "Tubelight Repair करते वक़्त Jetha को लगा Shock | Taarak Mehta Ka Ooltah Chashmah| Jetha Ko Laga Shock",
            "url": "https://www.youtube.com/watch?v=O-QGMuXayQg",
            "duration": 3439.0,
            "view_count": 42335,
            "uploader": "Taarak Mehta Ka Ooltah Chashmah Episodes",
            "category": "taarak_mehta",
            "thumbnail": "https://i.ytimg.com/vi/O-QGMuXayQg/hq720.jpg"
        },
        {
            "id": "c0ZKIpJAhkA",
            "title": "Daya और Jetha गए Terrace पर सोने! | Taarak Mehta Ka Ooltah Chashmah | Exam Results",
            "url": "https://www.youtube.com/watch?v=c0ZKIpJAhkA",
            "duration": 2293.0,
            "view_count": 120015,
            "uploader": "Taarak Mehta Ka Ooltah Chashmah Episodes",
            "category": "taarak_mehta",
            "thumbnail": "https://i.ytimg.com/vi/c0ZKIpJAhkA/hq720.jpg"
        },
        {
            "id": "cRaDLf0cRqs",
            "title": "Episode 891 - Taarak Mehta Ka Ooltah Chashmah - Full Episode | तारक मेहता का उल्टा चश्मा",
            "url": "https://www.youtube.com/watch?v=cRaDLf0cRqs",
            "duration": 1211.0,
            "view_count": 44805711,
            "uploader": "Taarak Mehta Ka Ooltah Chashmah",
            "category": "taarak_mehta",
            "thumbnail": "https://i.ytimg.com/vi/cRaDLf0cRqs/hq720.jpg"
        },
        {
            "id": "ppdd37TQJuI",
            "title": "Society वालों ने उठाए Tasty नाश्ते का लुत्फ़ |Taarak Mehta Ka Ooltah Chashmah |Sakharam Ki Adla Badli",
            "url": "https://www.youtube.com/watch?v=ppdd37TQJuI",
            "duration": 3741.0,
            "view_count": 93735,
            "uploader": "Taarak Mehta Ka Ooltah Chashmah Episodes",
            "category": "taarak_mehta",
            "thumbnail": "https://i.ytimg.com/vi/ppdd37TQJuI/hq720.jpg"
        },
        {
            "id": "gB0vsLp2xMk",
            "title": "Jetha's Intense Search | Taarak Mehta Ka Ooltah Chashmah | Full Ep 4655 | 11 Mar 2026 | New Episode",
            "url": "https://www.youtube.com/watch?v=gB0vsLp2xMk",
            "duration": 1306.0,
            "view_count": 850130,
            "uploader": "Taarak Mehta Ka Ooltah Chashmah Episodes",
            "category": "taarak_mehta",
            "thumbnail": "https://i.ytimg.com/vi/gB0vsLp2xMk/hq720.jpg"
        },
        {
            "id": "AdrPe0sV7c0",
            "title": "Holika Dahan Celebration | Taarak Mehta Ka Ooltah Chashmah | Full Ep 4650 | 5 Mar 2026 | New Episode",
            "url": "https://www.youtube.com/watch?v=AdrPe0sV7c0",
            "duration": 1335.0,
            "view_count": 750297,
            "uploader": "Taarak Mehta Ka Ooltah Chashmah Episodes",
            "category": "taarak_mehta",
            "thumbnail": "https://i.ytimg.com/vi/AdrPe0sV7c0/hq720.jpg"
        },
        {
            "id": "EyUns8wPZco",
            "title": "Jethalal ने क्यों बोला Popatlal को 'Patli Kamar'? | Taarak Mehta Ka Ooltah Chashmah | Bank Story",
            "url": "https://www.youtube.com/watch?v=EyUns8wPZco",
            "duration": 3617.0,
            "view_count": 637143,
            "uploader": "Taarak Mehta Ka Ooltah Chashmah Episodes",
            "category": "taarak_mehta",
            "thumbnail": "https://i.ytimg.com/vi/EyUns8wPZco/hq720.jpg"
        },
        {
            "id": "abOKjrBp9ck",
            "title": "कौन करना चाहता है Gokuldham का Garba Cancel? | Taarak Mehta Ka Ooltah Chashmah | Navratri Special",
            "url": "https://www.youtube.com/watch?v=abOKjrBp9ck",
            "duration": 3568.0,
            "view_count": 4460,
            "uploader": "Taarak Mehta Ka Ooltah Chashmah Episodes",
            "category": "taarak_mehta",
            "thumbnail": "https://i.ytimg.com/vi/abOKjrBp9ck/hq720.jpg"
        },
        {
            "id": "NgHHXvt32lI",
            "title": "Bapuji ne Maara Jethya ko Chaata ! | FULL MOVIE | Taarak Mehta Ka Ooltah Chashmah",
            "url": "https://www.youtube.com/watch?v=NgHHXvt32lI",
            "duration": 3173.0,
            "view_count": 7984,
            "uploader": "Taarak Mehta Ka Ooltah Chashmah",
            "category": "taarak_mehta",
            "thumbnail": "https://i.ytimg.com/vi/NgHHXvt32lI/hq720.jpg"
        },
        {
            "id": "WdJiv2W-u5g",
            "title": "NEW! Ep 4656 - Kaha Chupi thi Babita ji? | Taarak Mehta ka Ooltah  Chashmah",
            "url": "https://www.youtube.com/watch?v=WdJiv2W-u5g",
            "duration": 610.0,
            "view_count": 3229797,
            "uploader": "Taarak Mehta Ka Ooltah Chashmah",
            "category": "taarak_mehta",
            "thumbnail": "https://i.ytimg.com/vi/WdJiv2W-u5g/hq720.jpg"
        },
        {
            "id": "kYN7rVBehHA",
            "title": "NEW! Ep 4656 - Jethalal’s Crazy Hunt for Babita Ji! 🌈 | Taarak Mehta Ka Ooltah Chashmah",
            "url": "https://www.youtube.com/watch?v=kYN7rVBehHA",
            "duration": 610.0,
            "view_count": 68675,
            "uploader": "Taarak Mehta Ka Ooltah Chashmah Episodes",
            "category": "taarak_mehta",
            "thumbnail": "https://i.ytimg.com/vi/kYN7rVBehHA/hq720_custom_2.jpg"
        },
        {
            "id": "_4Iq8hxaSqo",
            "title": "क्या Bhide ने Jetha को कहा 'Mota'? | Taarak Mehta Ka Ooltah Chashmah | Iyer's laptop",
            "url": "https://www.youtube.com/watch?v=_4Iq8hxaSqo",
            "duration": 2506.0,
            "view_count": 253393,
            "uploader": "Taarak Mehta Ka Ooltah Chashmah Episodes",
            "category": "taarak_mehta",
            "thumbnail": "https://i.ytimg.com/vi/_4Iq8hxaSqo/hq720.jpg"
        },
        {
            "id": "z8e733jVv5c",
            "title": "किसकी बातों ने किया Taarak को Irritate? |Taarak Mehta Ka Ooltah Chashmah | Ganesh Utsav In Gokuldham",
            "url": "https://www.youtube.com/watch?v=z8e733jVv5c",
            "duration": 3575.0,
            "view_count": 12557,
            "uploader": "Taarak Mehta Ka Ooltah Chashmah Episodes",
            "category": "taarak_mehta",
            "thumbnail": "https://i.ytimg.com/vi/z8e733jVv5c/hq720.jpg"
        },
        {
            "id": "jMGj9mevGZg",
            "title": "Why Did Bhide Get Angry at Madhvi? 😳| FULL MOVIE | A Big Argument | Hindi Comedy",
            "url": "https://www.youtube.com/watch?v=jMGj9mevGZg",
            "duration": 3713.0,
            "view_count": 38336,
            "uploader": "Taarak Mehta Ka Ooltah Chashmah Episodes",
            "category": "taarak_mehta",
            "thumbnail": "https://i.ytimg.com/vi/jMGj9mevGZg/hq720.jpg"
        },
        {
            "id": "gzpdwYnLUfU",
            "title": "Will Team Jetha Win? | Taarak Mehta Ka Ooltah Chashmah | Full Ep 4656 | 12 Mar 2026 | New Episode",
            "url": "https://www.youtube.com/watch?v=gzpdwYnLUfU",
            "duration": 1312.0,
            "view_count": 902337,
            "uploader": "Taarak Mehta Ka Ooltah Chashmah Episodes",
            "category": "taarak_mehta",
            "thumbnail": "https://i.ytimg.com/vi/gzpdwYnLUfU/hq720.jpg"
        },
        {
            "id": "iDaf9JyA-ig",
            "title": "Jetha की Reaction देखकर डर गए Bhide और Iyer | Taarak Mehta Ka Ooltah Chashmah | Cricket Chaos",
            "url": "https://www.youtube.com/watch?v=iDaf9JyA-ig",
            "duration": 3633.0,
            "view_count": 14294,
            "uploader": "Taarak Mehta Ka Ooltah Chashmah Episodes",
            "category": "taarak_mehta",
            "thumbnail": "https://i.ytimg.com/vi/iDaf9JyA-ig/hq720.jpg"
        },
        {
            "id": "pVOZvrw-f2k",
            "title": "Iyer ko Kyu Marne Laga Jethalal! | FULL MOVIE | Taarak Mehta Ka Ooltah Chashmah",
            "url": "https://www.youtube.com/watch?v=pVOZvrw-f2k",
            "duration": 2301.0,
            "view_count": 21178,
            "uploader": "Taarak Mehta Ka Ooltah Chashmah",
            "category": "taarak_mehta",
            "thumbnail": "https://i.ytimg.com/vi/pVOZvrw-f2k/hq720.jpg"
        },
        {
            "id": "ZP9YHXQYWls",
            "title": "Bhide aur Jetha ne Milkar Banaya Soda | FULL MOVIE | Taarak Mehta Ka Ooltah Chashmah",
            "url": "https://www.youtube.com/watch?v=ZP9YHXQYWls",
            "duration": 2358.0,
            "view_count": 209304,
            "uploader": "Taarak Mehta Ka Ooltah Chashmah",
            "category": "taarak_mehta",
            "thumbnail": "https://i.ytimg.com/vi/ZP9YHXQYWls/hq720.jpg"
        },
        {
            "id": "pHvT56FuDSc",
            "title": "Gundo Ne Ki Bhide Ki Pitaai | FULL MOVIE | Taarak Mehta Ka Ooltah Chashmah",
            "url": "https://www.youtube.com/watch?v=pHvT56FuDSc",
            "duration": 2869.0,
            "view_count": 30924,
            "uploader": "Taarak Mehta Ka Ooltah Chashmah",
            "category": "taarak_mehta",
            "thumbnail": "https://i.ytimg.com/vi/pHvT56FuDSc/hq720.jpg"
        },
        {
            "id": "BFKTYKnPW-g",
            "title": "Popatlal Kyu Chada Ped par ! | FULL MOVIE | Taarak Mehta Ka Ooltah Chashmah",
            "url": "https://www.youtube.com/watch?v=BFKTYKnPW-g",
            "duration": 2884.0,
            "view_count": 1563,
            "uploader": "Taarak Mehta Ka Ooltah Chashmah",
            "category": "taarak_mehta",
            "thumbnail": "https://i.ytimg.com/vi/BFKTYKnPW-g/hq720.jpg"
        },
        {
            "id": "dmoLSZdT9LM",
            "title": "Why Did Bhide Do a Dangerous Stunt? 😱 | FULL MOVIE | Society in Big Trouble! | Hindi Movie",
            "url": "https://www.youtube.com/watch?v=dmoLSZdT9LM",
            "duration": 3460.0,
            "view_count": 6239,
            "uploader": "Taarak Mehta Ka Ooltah Chashmah Episodes",
            "category": "taarak_mehta",
            "thumbnail": "https://i.ytimg.com/vi/dmoLSZdT9LM/hq720.jpg"
        },
        {
            "id": "YifXkjlvDY8",
            "title": "Health Check Up In Gokuldham | Taarak Mehta Ka Ooltah Chashmah | Full Episode 135",
            "url": "https://www.youtube.com/watch?v=YifXkjlvDY8",
            "duration": 1152.0,
            "view_count": 17994,
            "uploader": "Taarak Mehta Ka Ooltah Chashmah Episodes",
            "category": "taarak_mehta",
            "thumbnail": "https://i.ytimg.com/vi/YifXkjlvDY8/hq720.jpg"
        },
        {
            "id": "LZMNTGgGGxc",
            "title": "Kaise Hui Society me Pani ki Problem ! | FULL MOVIE | Taarak Mehta Ka Ooltah Chashmah",
            "url": "https://www.youtube.com/watch?v=LZMNTGgGGxc",
            "duration": 3431.0,
            "view_count": 56652,
            "uploader": "Taarak Mehta Ka Ooltah Chashmah",
            "category": "taarak_mehta",
            "thumbnail": "https://i.ytimg.com/vi/LZMNTGgGGxc/hq720.jpg"
        },
        {
            "id": "hcoGqgCQJ-E",
            "title": "Bhide Aur Uska 5 Star Scooter!! | FULL MOVIE | Taarak Mehta Ka Ooltah Chashmah",
            "url": "https://www.youtube.com/watch?v=hcoGqgCQJ-E",
            "duration": 3139.0,
            "view_count": 32695,
            "uploader": "Taarak Mehta Ka Ooltah Chashmah",
            "category": "taarak_mehta",
            "thumbnail": "https://i.ytimg.com/vi/hcoGqgCQJ-E/hq720.jpg"
        },
        {
            "id": "7lVQc_lY_jI",
            "title": "What Promise Did Jethalal Make? 😳| FULLMOVIE | Jethalal’s Promise Leads to Chaos! Hindi Comedy",
            "url": "https://www.youtube.com/watch?v=7lVQc_lY_jI",
            "duration": 3499.0,
            "view_count": 3715,
            "uploader": "Taarak Mehta Ka Ooltah Chashmah Episodes",
            "category": "taarak_mehta",
            "thumbnail": "https://i.ytimg.com/vi/7lVQc_lY_jI/hq720.jpg"
        },
        {
            "id": "v3I7ZYkl92M",
            "title": "Range Hath Pakde Gaye Mehta Sahab! | FULL MOVIE | Taarak Mehta Ka Ooltah Chashmah",
            "url": "https://www.youtube.com/watch?v=v3I7ZYkl92M",
            "duration": 2754.0,
            "view_count": 241872,
            "uploader": "Taarak Mehta Ka Ooltah Chashmah",
            "category": "taarak_mehta",
            "thumbnail": "https://i.ytimg.com/vi/v3I7ZYkl92M/hq720.jpg"
        },
        {
            "id": "dXb2NayFmQw",
            "title": "Residents Play Holi | Taarak Mehta Ka Ooltah Chashmah | Full Ep 4657 | 13 Mar 2026 | New Episode",
            "url": "https://www.youtube.com/watch?v=dXb2NayFmQw",
            "duration": 1189.0,
            "view_count": 914633,
            "uploader": "Taarak Mehta Ka Ooltah Chashmah Episodes",
            "category": "taarak_mehta",
            "thumbnail": "https://i.ytimg.com/vi/dXb2NayFmQw/hq720.jpg"
        },
        {
            "id": "OhFJNWX4sis",
            "title": "गुस्से में Aakar Bapuji ne Utha Liya Heavy Cylinder ! | FULL MOVIE | Taarak Mehta Ka Ooltah Chashmah",
            "url": "https://www.youtube.com/watch?v=OhFJNWX4sis",
            "duration": 2343.0,
            "view_count": 30858,
            "uploader": "Taarak Mehta Ka Ooltah Chashmah",
            "category": "taarak_mehta",
            "thumbnail": "https://i.ytimg.com/vi/OhFJNWX4sis/hq720.jpg"
        },
        {
            "id": "n9v8VpEpm-w",
            "title": "Gokuldham Men Make A Secret Plan | Taarak Mehta Ka Ooltah Chashmah | Full Episode",
            "url": "https://www.youtube.com/watch?v=n9v8VpEpm-w",
            "duration": 1254.0,
            "view_count": 1165661,
            "uploader": "Taarak Mehta Ka Ooltah Chashmah Episodes",
            "category": "taarak_mehta",
            "thumbnail": "https://i.ytimg.com/vi/n9v8VpEpm-w/hq720.jpg"
        },
        {
            "id": "b9fd9E5fT-E",
            "title": "Beech Raste Me Gir Gaya Jethiya ! | FULL MOVIE | Taarak Mehta Ka Ooltah Chashmah",
            "url": "https://www.youtube.com/watch?v=b9fd9E5fT-E",
            "duration": 3249.0,
            "view_count": 36001,
            "uploader": "Taarak Mehta Ka Ooltah Chashmah",
            "category": "taarak_mehta",
            "thumbnail": "https://i.ytimg.com/vi/b9fd9E5fT-E/hq720.jpg"
        },
        {
            "id": "MvIA0hs84bM",
            "title": "Bagha के Look ने किया Daya & Jetha को Surprise | Taarak Mehta Ka Ooltah Chashmah | Cooker Story",
            "url": "https://www.youtube.com/watch?v=MvIA0hs84bM",
            "duration": 3507.0,
            "view_count": 98834,
            "uploader": "Taarak Mehta Ka Ooltah Chashmah Episodes",
            "category": "taarak_mehta",
            "thumbnail": "https://i.ytimg.com/vi/MvIA0hs84bM/hq720.jpg"
        },
        {
            "id": "yojUAi3PSl8",
            "title": "NEW! Ep 4658 - Colour Lagane ke Liye Kyu Ladne Lage Jetha aur Bhide|Taarak Mehta ka Ooltah  Chashmah",
            "url": "https://www.youtube.com/watch?v=yojUAi3PSl8",
            "duration": 602.0,
            "view_count": 547785,
            "uploader": "Taarak Mehta Ka Ooltah Chashmah",
            "category": "taarak_mehta",
            "thumbnail": "https://i.ytimg.com/vi/yojUAi3PSl8/hq720.jpg"
        },
        {
            "id": "aCBMvGXrm2w",
            "title": "किसकी जासूसी कर रही हैं Purush Mandali? | Taarak Mehta Ka Ooltah Chashmah | Khote Classes Scam",
            "url": "https://www.youtube.com/watch?v=aCBMvGXrm2w",
            "duration": 3373.0,
            "view_count": 189656,
            "uploader": "Taarak Mehta Ka Ooltah Chashmah Episodes",
            "category": "taarak_mehta",
            "thumbnail": "https://i.ytimg.com/vi/aCBMvGXrm2w/hq720.jpg"
        },
        {
            "id": "fVFIiYgxvBo",
            "title": "NEW! Ep 4658 - Why did Bapuji scold everyone? | Holi Continues! | Taarak Mehta Ka Ooltah Chashmah",
            "url": "https://www.youtube.com/watch?v=fVFIiYgxvBo",
            "duration": 602.0,
            "view_count": 12824,
            "uploader": "Taarak Mehta Ka Ooltah Chashmah Episodes",
            "category": "taarak_mehta",
            "thumbnail": "https://i.ytimg.com/vi/fVFIiYgxvBo/hqdefault.jpg"
        },
        {
            "id": "SjsZLh-sLQ0",
            "title": "Ky Iss Barr Hogi Purush Mandli ki party Successful! | FULL MOVIE | Taarak Mehta Ka Ooltah Chashmah",
            "url": "https://www.youtube.com/watch?v=SjsZLh-sLQ0",
            "duration": 3285.0,
            "view_count": 163804,
            "uploader": "Taarak Mehta Ka Ooltah Chashmah",
            "category": "taarak_mehta",
            "thumbnail": "https://i.ytimg.com/vi/SjsZLh-sLQ0/hq720.jpg"
        },
        {
            "id": "98rr4KeEJ20",
            "title": "Episode 16 - Taarak Mehta Ka Ooltah Chashmah | Full Episode | तारक मेहता का उल्टा चश्मा",
            "url": "https://www.youtube.com/watch?v=98rr4KeEJ20",
            "duration": 1217.0,
            "view_count": 33227179,
            "uploader": "Taarak Mehta Ka Ooltah Chashmah",
            "category": "taarak_mehta",
            "thumbnail": "https://i.ytimg.com/vi/98rr4KeEJ20/hq720.jpg"
        },
        {
            "id": "QDwRU-_StIw",
            "title": "Gokuldham Men Goes Out | Taarak Mehta Ka Ooltah Chashmah | Full Ep 4645 | 27 Feb 2026 | New Episode",
            "url": "https://www.youtube.com/watch?v=QDwRU-_StIw",
            "duration": 1321.0,
            "view_count": 1003974,
            "uploader": "Taarak Mehta Ka Ooltah Chashmah Episodes",
            "category": "taarak_mehta",
            "thumbnail": "https://i.ytimg.com/vi/QDwRU-_StIw/hqdefault.jpg"
        },
        {
            "id": "U64ZccDeC_Y",
            "title": "Kisko Yad Kar Popatlal ho Gaya Emotional! | FULL MOVIE | Taarak Mehta Ka Ooltah Chashmah",
            "url": "https://www.youtube.com/watch?v=U64ZccDeC_Y",
            "duration": 2792.0,
            "view_count": 830501,
            "uploader": "Taarak Mehta Ka Ooltah Chashmah",
            "category": "taarak_mehta",
            "thumbnail": "https://i.ytimg.com/vi/U64ZccDeC_Y/hq720.jpg"
        },
        {
            "id": "sa-lm8D1FSc",
            "title": "Residents Get A Surprise| Taarak Mehta Ka Ooltah Chashmah | Full Ep 4658 | 14 Mar 2026 | New Episode",
            "url": "https://www.youtube.com/watch?v=sa-lm8D1FSc",
            "duration": 1255.0,
            "view_count": 908777,
            "uploader": "Taarak Mehta Ka Ooltah Chashmah Episodes",
            "category": "taarak_mehta",
            "thumbnail": "https://i.ytimg.com/vi/sa-lm8D1FSc/hq720.jpg"
        },
        {
            "id": "QmaEQ12kdYE",
            "title": "Tapu Ne Kiya Sonu Ko Propose  ! | FULL MOVIE | Taarak Mehta Ka Ooltah Chashmah",
            "url": "https://www.youtube.com/watch?v=QmaEQ12kdYE",
            "duration": 3403.0,
            "view_count": 45802,
            "uploader": "Taarak Mehta Ka Ooltah Chashmah",
            "category": "taarak_mehta",
            "thumbnail": "https://i.ytimg.com/vi/QmaEQ12kdYE/hq720.jpg"
        },
        {
            "id": "VDgOfWpjVj0",
            "title": "Jethalal vs Bhide Face-Off! | FULL MOVIE | Jethalal vs Bhide Special | Hindi Movies",
            "url": "https://www.youtube.com/watch?v=VDgOfWpjVj0",
            "duration": 2879.0,
            "view_count": 46127,
            "uploader": "Taarak Mehta Ka Ooltah Chashmah Episodes",
            "category": "taarak_mehta",
            "thumbnail": "https://i.ytimg.com/vi/VDgOfWpjVj0/hq720.jpg"
        },
        {
            "id": "QjsdufkXvuM",
            "title": "समोसा खाते-खाते क्यों रुक गया Jetha? | Taarak Mehta Ka Ooltah Chashmah | Abdul's Cycle",
            "url": "https://www.youtube.com/watch?v=QjsdufkXvuM",
            "duration": 3721.0,
            "view_count": 149845,
            "uploader": "Taarak Mehta Ka Ooltah Chashmah Episodes",
            "category": "taarak_mehta",
            "thumbnail": "https://i.ytimg.com/vi/QjsdufkXvuM/hqdefault.jpg"
        },
        {
            "id": "Rq-Zt20nOEc",
            "title": "Bhide & Jetha को क्यों रोक रहा है Chalu Pandey? | Taarak Mehta Ka Ooltah Chashmah | Cricket Chaos",
            "url": "https://www.youtube.com/watch?v=Rq-Zt20nOEc",
            "duration": 3668.0,
            "view_count": 10953,
            "uploader": "Taarak Mehta Ka Ooltah Chashmah Episodes",
            "category": "taarak_mehta",
            "thumbnail": "https://i.ytimg.com/vi/Rq-Zt20nOEc/hq720.jpg"
        },
        {
            "id": "T0VwijWPsgo",
            "title": "Kisko dekh kar Dar rahe hai Bapuji! | FULL MOVIE | Taarak Mehta Ka Ooltah Chashmah",
            "url": "https://www.youtube.com/watch?v=T0VwijWPsgo",
            "duration": 2318.0,
            "view_count": 31016,
            "uploader": "Taarak Mehta Ka Ooltah Chashmah",
            "category": "taarak_mehta",
            "thumbnail": "https://i.ytimg.com/vi/T0VwijWPsgo/hq720.jpg"
        },
        {
            "id": "03RRH0XBrkI",
            "title": "Dr. Hathi ने क्यों लगाया Bhide को Injection? | Taarak Mehta Ka Ooltah Chashmah | Popatlal's Madness",
            "url": "https://www.youtube.com/watch?v=03RRH0XBrkI",
            "duration": 3424.0,
            "view_count": 62320,
            "uploader": "Taarak Mehta Ka Ooltah Chashmah Episodes",
            "category": "taarak_mehta",
            "thumbnail": "https://i.ytimg.com/vi/03RRH0XBrkI/hq720.jpg"
        },
        {
            "id": "jpGGM19sRZI",
            "title": "Kisko Dekh Kar Daar Rahe Hai Bapuji ! | FULL MOVIE | Taarak Mehta Ka Ooltah Chashmah",
            "url": "https://www.youtube.com/watch?v=jpGGM19sRZI",
            "duration": 2751.0,
            "view_count": 222557,
            "uploader": "Taarak Mehta Ka Ooltah Chashmah",
            "category": "taarak_mehta",
            "thumbnail": "https://i.ytimg.com/vi/jpGGM19sRZI/hq720.jpg"
        },
        {
            "id": "-pT9xczL3KQ",
            "title": "Bhide Kyu Mang Raha Hai Jethalal Se Phone? | FULL MOVIE | Taarak Mehta Ka Ooltah Chashmah",
            "url": "https://www.youtube.com/watch?v=-pT9xczL3KQ",
            "duration": 2502.0,
            "view_count": 8154927,
            "uploader": "Taarak Mehta Ka Ooltah Chashmah",
            "category": "taarak_mehta",
            "thumbnail": "https://i.ytimg.com/vi/-pT9xczL3KQ/hq720.jpg"
        }
    ]
}