{
    "page": 3,
    "total_pages": 8,
    "total_items": 379,
    "items": [
        {
            "id": "7MiG8w8eRM0",
            "title": "Hathi Bhai se Kya Chupa raha hai Jethalal😱| FULL MOVIE | Taarak Mehta Ka Ooltah Chashmah",
            "url": "https://www.youtube.com/watch?v=7MiG8w8eRM0",
            "duration": 2135.0,
            "view_count": 5176770,
            "uploader": "Taarak Mehta Ka Ooltah Chashmah",
            "category": "taarak_mehta",
            "thumbnail": "https://i.ytimg.com/vi/7MiG8w8eRM0/hq720.jpg"
        },
        {
            "id": "WJu91xw_IJs",
            "title": "Akhir Kya Dikhana Chahata Hai Jethiya?! | FULL MOVIE | Taarak Mehta Ka Ooltah Chashmah",
            "url": "https://www.youtube.com/watch?v=WJu91xw_IJs",
            "duration": 3327.0,
            "view_count": 4586547,
            "uploader": "Taarak Mehta Ka Ooltah Chashmah",
            "category": "taarak_mehta",
            "thumbnail": "https://i.ytimg.com/vi/WJu91xw_IJs/hq720.jpg"
        },
        {
            "id": "bQLOayDpkWI",
            "title": "Jethalal hogaya escalator se pareshan! | FULL MOVIE | Taarak Mehta Ka Ooltah Chashmah",
            "url": "https://www.youtube.com/watch?v=bQLOayDpkWI",
            "duration": 2251.0,
            "view_count": 5082838,
            "uploader": "Taarak Mehta Ka Ooltah Chashmah",
            "category": "taarak_mehta",
            "thumbnail": "https://i.ytimg.com/vi/bQLOayDpkWI/hq720.jpg"
        },
        {
            "id": "-5GNdzWxOMU",
            "title": "Popatlal ने Bhide से वापस मांगी अपनी Pen | Taarak Mehta Ka Ooltah Chashmah | Abdul's Cycle",
            "url": "https://www.youtube.com/watch?v=-5GNdzWxOMU",
            "duration": 3763.0,
            "view_count": 8972,
            "uploader": "Taarak Mehta Ka Ooltah Chashmah Episodes",
            "category": "taarak_mehta",
            "thumbnail": "https://i.ytimg.com/vi/-5GNdzWxOMU/hq720.jpg"
        },
        {
            "id": "LuSt1mRet2w",
            "title": "Bhide Attacked by Goons?! 😱 | FULL MOVIE | Trouble in Gokuldham Society",
            "url": "https://www.youtube.com/watch?v=LuSt1mRet2w",
            "duration": 2869.0,
            "view_count": 9445,
            "uploader": "Taarak Mehta Ka Ooltah Chashmah Episodes",
            "category": "taarak_mehta",
            "thumbnail": "https://i.ytimg.com/vi/LuSt1mRet2w/hq720.jpg"
        },
        {
            "id": "ObsmDN9xrhw",
            "title": "Jethya ne kyu kaha Bhide ko रिश्वतखोर ! | FULL MOVIE | Taarak Mehta Ka Ooltah Chashmah",
            "url": "https://www.youtube.com/watch?v=ObsmDN9xrhw",
            "duration": 3218.0,
            "view_count": 138320,
            "uploader": "Taarak Mehta Ka Ooltah Chashmah",
            "category": "taarak_mehta",
            "thumbnail": "https://i.ytimg.com/vi/ObsmDN9xrhw/hq720.jpg"
        },
        {
            "id": "ISEM8NQFhEE",
            "title": "Cycle के Secret ने किया Purush Mandali को परेशान | Taarak Mehta Ka Ooltah Chashmah | Abdul's Cycle",
            "url": "https://www.youtube.com/watch?v=ISEM8NQFhEE",
            "duration": 3600.0,
            "view_count": 1437,
            "uploader": "Taarak Mehta Ka Ooltah Chashmah Episodes",
            "category": "taarak_mehta",
            "thumbnail": "https://i.ytimg.com/vi/ISEM8NQFhEE/hq720.jpg"
        },
        {
            "id": "eZ_yiqgQ65o",
            "title": "Jethya ne Kiya Nattu Kaka ki Bolti Band😂! | FULL MOVIE | Taarak Mehta Ka Ooltah Chashmah",
            "url": "https://www.youtube.com/watch?v=eZ_yiqgQ65o",
            "duration": 2974.0,
            "view_count": 619055,
            "uploader": "Taarak Mehta Ka Ooltah Chashmah",
            "category": "taarak_mehta",
            "thumbnail": "https://i.ytimg.com/vi/eZ_yiqgQ65o/hq720.jpg"
        },
        {
            "id": "7ps_uOauA1k",
            "title": "Why Did Tapu Suddenly Faint? 😱 | FULL MOVIE | Jethalal in Big Trouble! | Hindi Comedy Movies",
            "url": "https://www.youtube.com/watch?v=7ps_uOauA1k",
            "duration": 3497.0,
            "view_count": 4766,
            "uploader": "Taarak Mehta Ka Ooltah Chashmah Episodes",
            "category": "taarak_mehta",
            "thumbnail": "https://i.ytimg.com/vi/7ps_uOauA1k/hq720.jpg"
        },
        {
            "id": "H1VN11CpctA",
            "title": "Bhide Brings A Surprise | Taarak Mehta Ka Ooltah Chashmah | Full Ep 4659 | 16 Mar 2026 | New Episode",
            "url": "https://www.youtube.com/watch?v=H1VN11CpctA",
            "duration": 1262.0,
            "view_count": 782645,
            "uploader": "Taarak Mehta Ka Ooltah Chashmah Episodes",
            "category": "taarak_mehta",
            "thumbnail": "https://i.ytimg.com/vi/H1VN11CpctA/hq720.jpg"
        },
        {
            "id": "KAtA6M3WAXg",
            "title": "रिश्तेदारों ke samne chali gayi Jethya ki ijjat | FULL MOVIE | Taarak Mehta Ka Ooltah Chashmah",
            "url": "https://www.youtube.com/watch?v=KAtA6M3WAXg",
            "duration": 3357.0,
            "view_count": 1730560,
            "uploader": "Taarak Mehta Ka Ooltah Chashmah",
            "category": "taarak_mehta",
            "thumbnail": "https://i.ytimg.com/vi/KAtA6M3WAXg/hq720.jpg"
        },
        {
            "id": "G6S9uI_k9vM",
            "title": "Bapuji Gets Furious at Jethalal & Bhide! 😡 | FULL MOVIE | Taarak Mehta Ka Ooltah Chashmah",
            "url": "https://www.youtube.com/watch?v=G6S9uI_k9vM",
            "duration": 3366.0,
            "view_count": 15370,
            "uploader": "Taarak Mehta Ka Ooltah Chashmah Episodes",
            "category": "taarak_mehta",
            "thumbnail": "https://i.ytimg.com/vi/G6S9uI_k9vM/hq720.jpg"
        },
        {
            "id": "CWLSF9t04N8",
            "title": "FULL EPISODE! 4630 - Kyu Khas hai Jethalal ke Liye Aaj ka Din! | Taarak Mehta Ka Ooltah Chashmah",
            "url": "https://www.youtube.com/watch?v=CWLSF9t04N8",
            "duration": 1336.0,
            "view_count": 9125,
            "uploader": "Taarak Mehta Ka Ooltah Chashmah",
            "category": "taarak_mehta",
            "thumbnail": "https://i.ytimg.com/vi/CWLSF9t04N8/hq720.jpg"
        },
        {
            "id": "EtQDesx98fI",
            "title": "Episode 202 - Taarak Mehta Ka Ooltah Chashmah | Rakshabandhan | Full Episode | तारक मेहता",
            "url": "https://www.youtube.com/watch?v=EtQDesx98fI",
            "duration": 1157.0,
            "view_count": 15130237,
            "uploader": "Taarak Mehta Ka Ooltah Chashmah",
            "category": "taarak_mehta",
            "thumbnail": "https://i.ytimg.com/vi/EtQDesx98fI/hq720.jpg"
        },
        {
            "id": "50PFCi_Fv08",
            "title": "Mobile Phone ने कैसे बढ़ाई Gents की मुसीबत? | Taarak Mehta Ka Ooltah Chashmah | Mobile Phone Madness",
            "url": "https://www.youtube.com/watch?v=50PFCi_Fv08",
            "duration": 2329.0,
            "view_count": 8639,
            "uploader": "Taarak Mehta Ka Ooltah Chashmah Episodes",
            "category": "taarak_mehta",
            "thumbnail": "https://i.ytimg.com/vi/50PFCi_Fv08/hq720.jpg"
        },
        {
            "id": "s-PUdP_hSKs",
            "title": "Daya Breaks Jethalal's Leg?! 😱😂 | Full Movie | Taarak Mehta Ka Ooltah Chashmah",
            "url": "https://www.youtube.com/watch?v=s-PUdP_hSKs",
            "duration": 2814.0,
            "view_count": 104980,
            "uploader": "Taarak Mehta Ka Ooltah Chashmah Episodes",
            "category": "taarak_mehta",
            "thumbnail": "https://i.ytimg.com/vi/s-PUdP_hSKs/hqdefault.jpg"
        },
        {
            "id": "zP-_F9zPaWE",
            "title": "छुप छुपकर Jethalal Sun Raha hai Kiski बातें ! | FULL MOVIE | Taarak Mehta Ka Ooltah Chashmah",
            "url": "https://www.youtube.com/watch?v=zP-_F9zPaWE",
            "duration": 2159.0,
            "view_count": 53237,
            "uploader": "Taarak Mehta Ka Ooltah Chashmah",
            "category": "taarak_mehta",
            "thumbnail": "https://i.ytimg.com/vi/zP-_F9zPaWE/hq720.jpg"
        },
        {
            "id": "VyKFqEQWgYg",
            "title": "Bhide Decides To Buy Gold | Taarak Mehta Ka Ooltah Chashmah| Full Ep 4660 | 17 Mar 2026| New Episode",
            "url": "https://www.youtube.com/watch?v=VyKFqEQWgYg",
            "duration": 1300.0,
            "view_count": 666822,
            "uploader": "Taarak Mehta Ka Ooltah Chashmah Episodes",
            "category": "taarak_mehta",
            "thumbnail": "https://i.ytimg.com/vi/VyKFqEQWgYg/hq720.jpg"
        },
        {
            "id": "UUjSvbXOP4o",
            "title": "किससे डर कर छिप रहा है Popatlal? | Taarak Mehta Ka Ooltah Chashmah | Popatlal's Madness",
            "url": "https://www.youtube.com/watch?v=UUjSvbXOP4o",
            "duration": 3413.0,
            "view_count": 6064,
            "uploader": "Taarak Mehta Ka Ooltah Chashmah Episodes",
            "category": "taarak_mehta",
            "thumbnail": "https://i.ytimg.com/vi/UUjSvbXOP4o/hq720.jpg"
        },
        {
            "id": "jhixks7-m8I",
            "title": "क्या Tapu Sena ढूँढ पाएगी Abdul की Cycle? | Taarak Mehta Ka Ooltah Chashmah | Abdul's Cycle",
            "url": "https://www.youtube.com/watch?v=jhixks7-m8I",
            "duration": 3765.0,
            "view_count": 3805,
            "uploader": "Taarak Mehta Ka Ooltah Chashmah Episodes",
            "category": "taarak_mehta",
            "thumbnail": "https://i.ytimg.com/vi/jhixks7-m8I/hq720.jpg"
        },
        {
            "id": "x7Tm0ky9SL8",
            "title": "Bhide Family Ne Sath Me Manya Gudi Padwa | FULL MOVIE | Taarak Mehta Ka Ooltah Chashmah",
            "url": "https://www.youtube.com/watch?v=x7Tm0ky9SL8",
            "duration": 2789.0,
            "view_count": 37027,
            "uploader": "Taarak Mehta Ka Ooltah Chashmah",
            "category": "taarak_mehta",
            "thumbnail": "https://i.ytimg.com/vi/x7Tm0ky9SL8/hq720.jpg"
        },
        {
            "id": "OUBp4I-6_mg",
            "title": "Jethya ki nind se pareshan hue Bapuji! | FULL MOVIE | Taarak Mehta Ka Ooltah Chashmah",
            "url": "https://www.youtube.com/watch?v=OUBp4I-6_mg",
            "duration": 2198.0,
            "view_count": 109126,
            "uploader": "Taarak Mehta Ka Ooltah Chashmah",
            "category": "taarak_mehta",
            "thumbnail": "https://i.ytimg.com/vi/OUBp4I-6_mg/hq720.jpg"
        },
        {
            "id": "1oWqq95OoGk",
            "title": "NEW! Ep 4661 - Society Walo se Bhide ne Kyu Liya Karz! | Taarak Mehta ka Ooltah  Chashmah",
            "url": "https://www.youtube.com/watch?v=1oWqq95OoGk",
            "duration": 617.0,
            "view_count": 1681326,
            "uploader": "Taarak Mehta Ka Ooltah Chashmah",
            "category": "taarak_mehta",
            "thumbnail": "https://i.ytimg.com/vi/1oWqq95OoGk/hq720.jpg"
        },
        {
            "id": "HaXiPaKQtX0",
            "title": "Society Compound Me Kyu Chillane Laga Jethya  | FULL MOVIE | Taarak Mehta Ka Ooltah Chashmah",
            "url": "https://www.youtube.com/watch?v=HaXiPaKQtX0",
            "duration": 2884.0,
            "view_count": 59140,
            "uploader": "Taarak Mehta Ka Ooltah Chashmah",
            "category": "taarak_mehta",
            "thumbnail": "https://i.ytimg.com/vi/HaXiPaKQtX0/hq720.jpg"
        },
        {
            "id": "n-YXgCMNSik",
            "title": "Mrs.Sharma ने माँगी Bhide और Madhavi से माफ़ी | Taarak Mehta Ka Ooltah Chashmah | Sonu's Business",
            "url": "https://www.youtube.com/watch?v=n-YXgCMNSik",
            "duration": 3425.0,
            "view_count": 2551,
            "uploader": "Taarak Mehta Ka Ooltah Chashmah Episodes",
            "category": "taarak_mehta",
            "thumbnail": "https://i.ytimg.com/vi/n-YXgCMNSik/hq720.jpg"
        },
        {
            "id": "rVDUBYLUoEM",
            "title": "Bhide ko Kyu Laga Abdul ka Soda Kadwa! | FULL MOVIE | Taarak Mehta Ka Ooltah Chashmah",
            "url": "https://www.youtube.com/watch?v=rVDUBYLUoEM",
            "duration": 3085.0,
            "view_count": 6962744,
            "uploader": "Taarak Mehta Ka Ooltah Chashmah",
            "category": "taarak_mehta",
            "thumbnail": "https://i.ytimg.com/vi/rVDUBYLUoEM/hq720.jpg"
        },
        {
            "id": "agIHxUEdtos",
            "title": "किसने किया Popat पर जादू? | Taarak Mehta Ka Ooltah Chashmah | Popat Ki Shadi",
            "url": "https://www.youtube.com/watch?v=agIHxUEdtos",
            "duration": 2219.0,
            "view_count": 101138,
            "uploader": "Taarak Mehta Ka Ooltah Chashmah Episodes",
            "category": "taarak_mehta",
            "thumbnail": "https://i.ytimg.com/vi/agIHxUEdtos/hq720.jpg"
        },
        {
            "id": "uPK2qz28wIE",
            "title": "Bhide & Madhvi's Surprise | Taarak Mehta Ka Ooltah Chashmah| Full Ep 4661 | 18 Mar 2026| New Episode",
            "url": "https://www.youtube.com/watch?v=uPK2qz28wIE",
            "duration": 1327.0,
            "view_count": 773033,
            "uploader": "Taarak Mehta Ka Ooltah Chashmah Episodes",
            "category": "taarak_mehta",
            "thumbnail": "https://i.ytimg.com/vi/uPK2qz28wIE/hq720.jpg"
        },
        {
            "id": "uGb8NQDy16o",
            "title": "Gokuldham Men Cannot Sleep | Taarak Mehta Ka Ooltah Chashmah| Full Ep 4644| 26 Feb 2026| New Episode",
            "url": "https://www.youtube.com/watch?v=uGb8NQDy16o",
            "duration": 1311.0,
            "view_count": 986159,
            "uploader": "Taarak Mehta Ka Ooltah Chashmah Episodes",
            "category": "taarak_mehta",
            "thumbnail": "https://i.ytimg.com/vi/uGb8NQDy16o/hq720.jpg"
        },
        {
            "id": "CV7sL-zmGng",
            "title": "Gents Ne Bhide Ko Pehnai Sade Hue Aam Ki Maala ! | FULL MOVIE | Taarak Mehta Ka Ooltah Chashmah",
            "url": "https://www.youtube.com/watch?v=CV7sL-zmGng",
            "duration": 2753.0,
            "view_count": 281852,
            "uploader": "Taarak Mehta Ka Ooltah Chashmah",
            "category": "taarak_mehta",
            "thumbnail": "https://i.ytimg.com/vi/CV7sL-zmGng/hq720.jpg"
        },
        {
            "id": "ky4R6uuJWIg",
            "title": "Newspaper Me Chapa Bhide Ka Articlle  ! | FULL MOVIE | Taarak Mehta Ka Ooltah Chashmah",
            "url": "https://www.youtube.com/watch?v=ky4R6uuJWIg",
            "duration": 2692.0,
            "view_count": 17254,
            "uploader": "Taarak Mehta Ka Ooltah Chashmah",
            "category": "taarak_mehta",
            "thumbnail": "https://i.ytimg.com/vi/ky4R6uuJWIg/hq720.jpg"
        },
        {
            "id": "8mARzX4ZKD4",
            "title": "Jethalal se kis Baat ka चंदा माँग रहा है Bagha! | FULL MOVIE | Taarak Mehta Ka Ooltah Chashmah",
            "url": "https://www.youtube.com/watch?v=8mARzX4ZKD4",
            "duration": 2151.0,
            "view_count": 68954,
            "uploader": "Taarak Mehta Ka Ooltah Chashmah",
            "category": "taarak_mehta",
            "thumbnail": "https://i.ytimg.com/vi/8mARzX4ZKD4/hq720.jpg"
        },
        {
            "id": "C3qrhYsuH1w",
            "title": "Jetha और Bhide Society में रखे घर का कचरा | Taarak Mehta Ka Ooltah Chashmah | Garba Night",
            "url": "https://www.youtube.com/watch?v=C3qrhYsuH1w",
            "duration": 3593.0,
            "view_count": 97964,
            "uploader": "Taarak Mehta Ka Ooltah Chashmah Episodes",
            "category": "taarak_mehta",
            "thumbnail": "https://i.ytimg.com/vi/C3qrhYsuH1w/hqdefault.jpg"
        },
        {
            "id": "SHYFhpBF43g",
            "title": "Daya ने यूज किया अपना Sense Of Humour | Taarak Mehta Ka Ooltah Chashmah | Jethalal’s Missing Cheque",
            "url": "https://www.youtube.com/watch?v=SHYFhpBF43g",
            "duration": 2338.0,
            "view_count": 140032,
            "uploader": "Taarak Mehta Ka Ooltah Chashmah Episodes",
            "category": "taarak_mehta",
            "thumbnail": "https://i.ytimg.com/vi/SHYFhpBF43g/hq720.jpg"
        },
        {
            "id": "9eORQ1iFgzI",
            "title": "चूरमे के Ladoo के लिए Jetha ने खोला अपना मुँह |Taarak Mehta Ka Ooltah Chashmah | Anjali Ka Diet Plan",
            "url": "https://www.youtube.com/watch?v=9eORQ1iFgzI",
            "duration": 3712.0,
            "view_count": 2048,
            "uploader": "Taarak Mehta Ka Ooltah Chashmah Episodes",
            "category": "taarak_mehta",
            "thumbnail": "https://i.ytimg.com/vi/9eORQ1iFgzI/hqdefault.jpg"
        },
        {
            "id": "RXXPzlM-rjI",
            "title": "Daya ke Hath ka Nashta laga Jethya ko Yummy! | FULL MOVIE | Taarak Mehta Ka Ooltah Chashmah",
            "url": "https://www.youtube.com/watch?v=RXXPzlM-rjI",
            "duration": 2249.0,
            "view_count": 1304424,
            "uploader": "Taarak Mehta Ka Ooltah Chashmah",
            "category": "taarak_mehta",
            "thumbnail": "https://i.ytimg.com/vi/RXXPzlM-rjI/hq720.jpg"
        },
        {
            "id": "s6fV5EQXal0",
            "title": "Episode 897 - Taarak Mehta Ka Ooltah Chashmah - Full Episode | तारक मेहता का उल्टा चश्मा",
            "url": "https://www.youtube.com/watch?v=s6fV5EQXal0",
            "duration": 1217.0,
            "view_count": 44444914,
            "uploader": "Taarak Mehta Ka Ooltah Chashmah",
            "category": "taarak_mehta",
            "thumbnail": "https://i.ytimg.com/vi/s6fV5EQXal0/hq720.jpg"
        },
        {
            "id": "Wal2_WpgMM8",
            "title": "Bhide Hides The Jewellery | Taarak Mehta Ka Ooltah Chashmah| Full Ep 4662 | 19 Mar 2026| New Episode",
            "url": "https://www.youtube.com/watch?v=Wal2_WpgMM8",
            "duration": 1295.0,
            "view_count": 802133,
            "uploader": "Taarak Mehta Ka Ooltah Chashmah Episodes",
            "category": "taarak_mehta",
            "thumbnail": "https://i.ytimg.com/vi/Wal2_WpgMM8/hq720.jpg"
        },
        {
            "id": "DjgEafp8Gks",
            "title": "Jethalal & Iyer Receive A Punishment | Taarak Mehta Ka Ooltah Chashmah | Full Episode",
            "url": "https://www.youtube.com/watch?v=DjgEafp8Gks",
            "duration": 884.0,
            "view_count": 7423,
            "uploader": "Taarak Mehta Ka Ooltah Chashmah Episodes",
            "category": "taarak_mehta",
            "thumbnail": "https://i.ytimg.com/vi/DjgEafp8Gks/hq720.jpg"
        },
        {
            "id": "p_bA-Fdgotg",
            "title": "Balcony की Grill में कैसे फस गया Bhide? | Taarak Mehta Ka Ooltah Chashmah | Bhide Bana Crorepati",
            "url": "https://www.youtube.com/watch?v=p_bA-Fdgotg",
            "duration": 3525.0,
            "view_count": 12914,
            "uploader": "Taarak Mehta Ka Ooltah Chashmah Episodes",
            "category": "taarak_mehta",
            "thumbnail": "https://i.ytimg.com/vi/p_bA-Fdgotg/hqdefault.jpg"
        },
        {
            "id": "sJm3VZ2f2R4",
            "title": "Daya Gokuldham Kab Laut Rahi Hain | Haste Raho Hasate Raho | Taarak Mehta ka Ooltah Chashmah",
            "url": "https://www.youtube.com/watch?v=sJm3VZ2f2R4",
            "duration": 625.0,
            "view_count": 6028,
            "uploader": "Taarak Mehta Ka Ooltah Chashmah",
            "category": "taarak_mehta",
            "thumbnail": "https://i.ytimg.com/vi/sJm3VZ2f2R4/hq720.jpg"
        },
        {
            "id": "lrBlN91UDMM",
            "title": "Garmi Ki Wajah Se Kyu Pareshan Hai Nattu Kaka!! | FULL MOVIE | Taarak Mehta Ka Ooltah Chashmah",
            "url": "https://www.youtube.com/watch?v=lrBlN91UDMM",
            "duration": 2822.0,
            "view_count": 125639,
            "uploader": "Taarak Mehta Ka Ooltah Chashmah",
            "category": "taarak_mehta",
            "thumbnail": "https://i.ytimg.com/vi/lrBlN91UDMM/hq720.jpg"
        },
        {
            "id": "erErh9UxnVc",
            "title": "Water Crisis में फंसी पूरी Gokuldham Society! | Taarak Mehta Ka Ooltah Chashmah | Water Crisis",
            "url": "https://www.youtube.com/watch?v=erErh9UxnVc",
            "duration": 2232.0,
            "view_count": 73701,
            "uploader": "Taarak Mehta Ka Ooltah Chashmah Episodes",
            "category": "taarak_mehta",
            "thumbnail": "https://i.ytimg.com/vi/erErh9UxnVc/hq720.jpg"
        },
        {
            "id": "LLJoALtnp_I",
            "title": "Bhide & Madhvi In Trouble | Taarak Mehta Ka Ooltah Chashmah| Full Ep 4663 | 20 Mar 2026| New Episode",
            "url": "https://www.youtube.com/watch?v=LLJoALtnp_I",
            "duration": 1267.0,
            "view_count": 845164,
            "uploader": "Taarak Mehta Ka Ooltah Chashmah Episodes",
            "category": "taarak_mehta",
            "thumbnail": "https://i.ytimg.com/vi/LLJoALtnp_I/hqdefault.jpg"
        },
        {
            "id": "qmopxgz1RzE",
            "title": "Kis Bat se Irritate Hua Jethalal ! | FULL MOVIE | Taarak Mehta Ka Ooltah Chashmah",
            "url": "https://www.youtube.com/watch?v=qmopxgz1RzE",
            "duration": 4744.0,
            "view_count": 69958,
            "uploader": "Taarak Mehta Ka Ooltah Chashmah",
            "category": "taarak_mehta",
            "thumbnail": "https://i.ytimg.com/vi/qmopxgz1RzE/hq720.jpg"
        },
        {
            "id": "Jj8Qtr5Sijw",
            "title": "Jail में Madhavi लेकर आई Bhide के लिए खाना | Taarak Mehta Ka Ooltah Chashmah | Bhide Bana Crorepati",
            "url": "https://www.youtube.com/watch?v=Jj8Qtr5Sijw",
            "duration": 3631.0,
            "view_count": 4845,
            "uploader": "Taarak Mehta Ka Ooltah Chashmah Episodes",
            "category": "taarak_mehta",
            "thumbnail": "https://i.ytimg.com/vi/Jj8Qtr5Sijw/hqdefault.jpg"
        },
        {
            "id": "m4xNgbQcB8A",
            "title": "Residents Make A Decision | Taarak Mehta Ka Ooltah Chashmah | Full Episode",
            "url": "https://www.youtube.com/watch?v=m4xNgbQcB8A",
            "duration": 1217.0,
            "view_count": 18015,
            "uploader": "Taarak Mehta Ka Ooltah Chashmah Episodes",
            "category": "taarak_mehta",
            "thumbnail": "https://i.ytimg.com/vi/m4xNgbQcB8A/hq720.jpg"
        },
        {
            "id": "pN6n2Ztprqk",
            "title": "Jethalal Bamboo Leke Kiske Piche Bhag Raha Hai!!! | FULL MOVIE | Taarak Mehta Ka Ooltah Chashmah",
            "url": "https://www.youtube.com/watch?v=pN6n2Ztprqk",
            "duration": 2771.0,
            "view_count": 17677,
            "uploader": "Taarak Mehta Ka Ooltah Chashmah",
            "category": "taarak_mehta",
            "thumbnail": "https://i.ytimg.com/vi/pN6n2Ztprqk/hq720.jpg"
        },
        {
            "id": "uhywt8AveGs",
            "title": "Soda Shop Par Jethalal Ne Kisko Kaha Chapli ! | FULL MOVIE | Taarak Mehta Ka Ooltah Chashmah",
            "url": "https://www.youtube.com/watch?v=uhywt8AveGs",
            "duration": 2983.0,
            "view_count": 1016982,
            "uploader": "Taarak Mehta Ka Ooltah Chashmah",
            "category": "taarak_mehta",
            "thumbnail": "https://i.ytimg.com/vi/uhywt8AveGs/hq720.jpg"
        },
        {
            "id": "27bu_w6SzIA",
            "title": "NEW! Ep 4664 - Chori ke Chakkar me Bhide Pohcha Jail! | Taarak Mehta ka Ooltah  Chashmah",
            "url": "https://www.youtube.com/watch?v=27bu_w6SzIA",
            "duration": 604.0,
            "view_count": 1791746,
            "uploader": "Taarak Mehta Ka Ooltah Chashmah",
            "category": "taarak_mehta",
            "thumbnail": "https://i.ytimg.com/vi/27bu_w6SzIA/hq720.jpg"
        }
    ]
}