{
    "page": 5,
    "total_pages": 8,
    "total_items": 379,
    "items": [
        {
            "id": "WaYMwZg6uuU",
            "title": "Kon Karega Ab Society Ko Colour | Taarak Mehta Ka Ooltah Chashmah | Full Movie",
            "url": "https://www.youtube.com/watch?v=WaYMwZg6uuU",
            "duration": 3192.0,
            "view_count": 33122,
            "uploader": "Taarak Mehta Ka Ooltah Chashmah Episodes",
            "category": "taarak_mehta",
            "thumbnail": "https://i.ytimg.com/vi/WaYMwZg6uuU/hq720.jpg"
        },
        {
            "id": "hLv_Dq8F9rc",
            "title": "Bhide के खाँसने से डर गया Jetha | Taarak Mehta Ka Ooltah Chashmah | Jetha Aur Sheru",
            "url": "https://www.youtube.com/watch?v=hLv_Dq8F9rc",
            "duration": 2369.0,
            "view_count": 73342,
            "uploader": "Taarak Mehta Ka Ooltah Chashmah Episodes",
            "category": "taarak_mehta",
            "thumbnail": "https://i.ytimg.com/vi/hLv_Dq8F9rc/hqdefault.jpg"
        },
        {
            "id": "NaKEKUPDIH0",
            "title": "Jethalal Ne Kiya Iyer Ko Statue | Taarak Mehta Ka Ooltah Chashmah | Full Movie",
            "url": "https://www.youtube.com/watch?v=NaKEKUPDIH0",
            "duration": 3421.0,
            "view_count": 8089,
            "uploader": "Taarak Mehta Ka Ooltah Chashmah Episodes",
            "category": "taarak_mehta",
            "thumbnail": "https://i.ytimg.com/vi/NaKEKUPDIH0/hq720.jpg"
        },
        {
            "id": "nVlbNoU7nHQ",
            "title": "Gokuldham Gets Decorated | Taarak Mehta Ka Ooltah Chashmah| Full Ep 4669 | 27 Mar 2026 | New Episode",
            "url": "https://www.youtube.com/watch?v=nVlbNoU7nHQ",
            "duration": 1138.0,
            "view_count": 736423,
            "uploader": "Taarak Mehta Ka Ooltah Chashmah Episodes",
            "category": "taarak_mehta",
            "thumbnail": "https://i.ytimg.com/vi/nVlbNoU7nHQ/hq720.jpg"
        },
        {
            "id": "xADF7SLZT2w",
            "title": "Kisne Kiya Ladies Ke Saath Scam | Taarak Mehta Ka Ooltah Chashmah | Full Movie",
            "url": "https://www.youtube.com/watch?v=xADF7SLZT2w",
            "duration": 3137.0,
            "view_count": 3026,
            "uploader": "Taarak Mehta Ka Ooltah Chashmah Episodes",
            "category": "taarak_mehta",
            "thumbnail": "https://i.ytimg.com/vi/xADF7SLZT2w/hq720.jpg"
        },
        {
            "id": "m0Fil6bTXZU",
            "title": "Kya Bapuji honge Jethalal ke Surprise se Impress ! | FULL MOVIE | Taarak Mehta Ka Ooltah Chashmah",
            "url": "https://www.youtube.com/watch?v=m0Fil6bTXZU",
            "duration": 3491.0,
            "view_count": 100992,
            "uploader": "Taarak Mehta Ka Ooltah Chashmah",
            "category": "taarak_mehta",
            "thumbnail": "https://i.ytimg.com/vi/m0Fil6bTXZU/hq720.jpg"
        },
        {
            "id": "iADktV1oSrw",
            "title": "Gokuldham Men Stand Against All-In-One Bhai | Taarak Mehta Ka Ooltah Chashmah | Full Episode",
            "url": "https://www.youtube.com/watch?v=iADktV1oSrw",
            "duration": 1253.0,
            "view_count": 20655,
            "uploader": "Taarak Mehta Ka Ooltah Chashmah Episodes",
            "category": "taarak_mehta",
            "thumbnail": "https://i.ytimg.com/vi/iADktV1oSrw/hq720.jpg"
        },
        {
            "id": "Z0m6K-n_Qkw",
            "title": "क्या Bapuji फेंक देंगे Party Sharty की Bottle? | Taarak Mehta Ka Ooltah Chashmah | Party Sharty",
            "url": "https://www.youtube.com/watch?v=Z0m6K-n_Qkw",
            "duration": 3355.0,
            "view_count": 26630,
            "uploader": "Taarak Mehta Ka Ooltah Chashmah Episodes",
            "category": "taarak_mehta",
            "thumbnail": "https://i.ytimg.com/vi/Z0m6K-n_Qkw/hqdefault.jpg"
        },
        {
            "id": "MZwalzRP1-8",
            "title": "NEW! Ep 4670 - Ram Navmi Ke Avsar Par Jethalal Pe Aayi Musibat! | Taarak Mehta ka Ooltah Chashmah",
            "url": "https://www.youtube.com/watch?v=MZwalzRP1-8",
            "duration": 607.0,
            "view_count": 439899,
            "uploader": "Taarak Mehta Ka Ooltah Chashmah",
            "category": "taarak_mehta",
            "thumbnail": "https://i.ytimg.com/vi/MZwalzRP1-8/hq720.jpg"
        },
        {
            "id": "odZfYoeoFQI",
            "title": "छिपकली को देखकर डर गए Jetha और Bapuji | Taarak Mehta Ka Ooltah Chashmah | Sundar's Election",
            "url": "https://www.youtube.com/watch?v=odZfYoeoFQI",
            "duration": 3630.0,
            "view_count": 214300,
            "uploader": "Taarak Mehta Ka Ooltah Chashmah Episodes",
            "category": "taarak_mehta",
            "thumbnail": "https://i.ytimg.com/vi/odZfYoeoFQI/hq720.jpg"
        },
        {
            "id": "X--dxJ5-RGg",
            "title": "Hathi bhai aur Goli ka Hua khane ka Competetion !! | FULL MOVIE | Taarak Mehta Ka Ooltah Chashmah",
            "url": "https://www.youtube.com/watch?v=X--dxJ5-RGg",
            "duration": 3534.0,
            "view_count": 237771,
            "uploader": "Taarak Mehta Ka Ooltah Chashmah",
            "category": "taarak_mehta",
            "thumbnail": "https://i.ytimg.com/vi/X--dxJ5-RGg/hq720.jpg"
        },
        {
            "id": "fK_fGNREgQ0",
            "title": "Quiz In Gokuldham | Taarak Mehta Ka Ooltah Chashmah | Full Ep 4670 | 28 Mar 2026 | New Episode",
            "url": "https://www.youtube.com/watch?v=fK_fGNREgQ0",
            "duration": 1257.0,
            "view_count": 674494,
            "uploader": "Taarak Mehta Ka Ooltah Chashmah Episodes",
            "category": "taarak_mehta",
            "thumbnail": "https://i.ytimg.com/vi/fK_fGNREgQ0/hqdefault.jpg"
        },
        {
            "id": "7PV9qG19xFk",
            "title": "NEW! Ep 4670 - Ram Navmi Ke Avsar Par Jethalal Pe Aayi Musibat! | Taarak Mehta ka Ooltah Chashmah",
            "url": "https://www.youtube.com/watch?v=7PV9qG19xFk",
            "duration": 607.0,
            "view_count": 6415,
            "uploader": "Taarak Mehta Ka Ooltah Chashmah Episodes",
            "category": "taarak_mehta",
            "thumbnail": "https://i.ytimg.com/vi/7PV9qG19xFk/hq720.jpg"
        },
        {
            "id": "eqV55JVdavM",
            "title": "Bhide Face Many Obstacles | Taarak Mehta Ka Ooltah Chashmah | Full Episode",
            "url": "https://www.youtube.com/watch?v=eqV55JVdavM",
            "duration": 1231.0,
            "view_count": 116651,
            "uploader": "Taarak Mehta Ka Ooltah Chashmah Episodes",
            "category": "taarak_mehta",
            "thumbnail": "https://i.ytimg.com/vi/eqV55JVdavM/hq720.jpg"
        },
        {
            "id": "P3crpfoqU4E",
            "title": "किसने गिराया Jetha के कुर्ते पर रंग? | Taarak Mehta Ka Ooltah Chashmah | Daya Ki Maa",
            "url": "https://www.youtube.com/watch?v=P3crpfoqU4E",
            "duration": 3426.0,
            "view_count": 5718,
            "uploader": "Taarak Mehta Ka Ooltah Chashmah Episodes",
            "category": "taarak_mehta",
            "thumbnail": "https://i.ytimg.com/vi/P3crpfoqU4E/hq720.jpg"
        },
        {
            "id": "ivLCNpgmqKk",
            "title": "किसने चुराई Jetha की Lucky Bangle? | Taarak Mehta Ka Ooltah Chashmah | Party Sharty",
            "url": "https://www.youtube.com/watch?v=ivLCNpgmqKk",
            "duration": 3667.0,
            "view_count": 7048,
            "uploader": "Taarak Mehta Ka Ooltah Chashmah Episodes",
            "category": "taarak_mehta",
            "thumbnail": "https://i.ytimg.com/vi/ivLCNpgmqKk/hq720.jpg"
        },
        {
            "id": "UKOwIK_NUJ4",
            "title": "Bapuji Girte Girte Bach Gaye! | FULL MOVIE | Taarak Mehta Ka Ooltah Chashmah",
            "url": "https://www.youtube.com/watch?v=UKOwIK_NUJ4",
            "duration": 4610.0,
            "view_count": 14947714,
            "uploader": "Taarak Mehta Ka Ooltah Chashmah",
            "category": "taarak_mehta",
            "thumbnail": "https://i.ytimg.com/vi/UKOwIK_NUJ4/hq720.jpg"
        },
        {
            "id": "-WHcBbpLKXY",
            "title": "Jetha Gives The Maintenance Cheque To Bhide | Taarak Mehta Ka Ooltah Chashmah | Full Episode",
            "url": "https://www.youtube.com/watch?v=-WHcBbpLKXY",
            "duration": 1280.0,
            "view_count": 61987,
            "uploader": "Taarak Mehta Ka Ooltah Chashmah Episodes",
            "category": "taarak_mehta",
            "thumbnail": "https://i.ytimg.com/vi/-WHcBbpLKXY/hq720.jpg"
        },
        {
            "id": "h5jIP2XjYvA",
            "title": "Kiske Darr Se Popatlal Ped Par Chadh Gaya ! | TMKOC Hungama | EP 1173 | MINISODES",
            "url": "https://www.youtube.com/watch?v=h5jIP2XjYvA",
            "duration": 615.0,
            "view_count": 59244,
            "uploader": "TMKOC - MINISODES",
            "category": "taarak_mehta",
            "thumbnail": "https://i.ytimg.com/vi/h5jIP2XjYvA/hq720.jpg"
        },
        {
            "id": "Dwrigm8jnuw",
            "title": "Purush Mandli Ne Kyu Ki Popat Ki Dhulai !! | FULL MOVIE | Taarak Mehta Ka Ooltah Chashmah",
            "url": "https://www.youtube.com/watch?v=Dwrigm8jnuw",
            "duration": 2384.0,
            "view_count": 359005,
            "uploader": "Taarak Mehta Ka Ooltah Chashmah",
            "category": "taarak_mehta",
            "thumbnail": "https://i.ytimg.com/vi/Dwrigm8jnuw/hq720.jpg"
        },
        {
            "id": "V1_XHnlWb_w",
            "title": "Gokuldham Me Aaye Anokhe Guest | FULL MOVIE | Taarak Mehta Ka Ooltah Chashmah",
            "url": "https://www.youtube.com/watch?v=V1_XHnlWb_w",
            "duration": 3475.0,
            "view_count": 53467,
            "uploader": "Taarak Mehta Ka Ooltah Chashmah",
            "category": "taarak_mehta",
            "thumbnail": "https://i.ytimg.com/vi/V1_XHnlWb_w/hq720.jpg"
        },
        {
            "id": "PQ7aIeA5EQ0",
            "title": "Cricket के Costume में Jetha पहुंचा Society | Taarak Mehta Ka Ooltah Chashmah | Dog Chase",
            "url": "https://www.youtube.com/watch?v=PQ7aIeA5EQ0",
            "duration": 2365.0,
            "view_count": 5931,
            "uploader": "Taarak Mehta Ka Ooltah Chashmah Episodes",
            "category": "taarak_mehta",
            "thumbnail": "https://i.ytimg.com/vi/PQ7aIeA5EQ0/hq720.jpg"
        },
        {
            "id": "4D5YEEIDlUc",
            "title": "Daya & Madhavi's Fight Worry Everyone | Taarak Mehta Ka Ooltah Chashmah | Full Episode 152",
            "url": "https://www.youtube.com/watch?v=4D5YEEIDlUc",
            "duration": 1167.0,
            "view_count": 3663,
            "uploader": "Taarak Mehta Ka Ooltah Chashmah Episodes",
            "category": "taarak_mehta",
            "thumbnail": "https://i.ytimg.com/vi/4D5YEEIDlUc/hq720.jpg"
        },
        {
            "id": "83pfVpb4wpI",
            "title": "Nimbu Ke Chakkar Mai Poche Sab Jail | Taarak Mehta Ka Ooltah Chashmah | Full Movie",
            "url": "https://www.youtube.com/watch?v=83pfVpb4wpI",
            "duration": 3483.0,
            "view_count": 25622,
            "uploader": "Taarak Mehta Ka Ooltah Chashmah Episodes",
            "category": "taarak_mehta",
            "thumbnail": "https://i.ytimg.com/vi/83pfVpb4wpI/hq720.jpg"
        },
        {
            "id": "nz2luVk5rLM",
            "title": "Jethya ne Kyu Maroda Bapuji ka hath ! | FULL MOVIE | Taarak Mehta Ka Ooltah Chashmah",
            "url": "https://www.youtube.com/watch?v=nz2luVk5rLM",
            "duration": 2168.0,
            "view_count": 308891,
            "uploader": "Taarak Mehta Ka Ooltah Chashmah",
            "category": "taarak_mehta",
            "thumbnail": "https://i.ytimg.com/vi/nz2luVk5rLM/hq720.jpg"
        },
        {
            "id": "leg49wagkjY",
            "title": "Mahila mandal Kharid payenge Crore ka Necklace | Taarak Mehta Ka Ooltah Chashmah | Full Movie",
            "url": "https://www.youtube.com/watch?v=leg49wagkjY",
            "duration": 3150.0,
            "view_count": 1046,
            "uploader": "Taarak Mehta Ka Ooltah Chashmah Episodes",
            "category": "taarak_mehta",
            "thumbnail": "https://i.ytimg.com/vi/leg49wagkjY/hq720.jpg"
        },
        {
            "id": "H2WRKaPClic",
            "title": "सूर्य नमस्कार में Jetha को दिखा Sheru | Taarak Mehta Ka Ooltah Chashmah | Dog Chase",
            "url": "https://www.youtube.com/watch?v=H2WRKaPClic",
            "duration": 2307.0,
            "view_count": 21587,
            "uploader": "Taarak Mehta Ka Ooltah Chashmah Episodes",
            "category": "taarak_mehta",
            "thumbnail": "https://i.ytimg.com/vi/H2WRKaPClic/hq720.jpg"
        },
        {
            "id": "iOCyPZPa5ZY",
            "title": "Residents Seek A Buyer For The Ruby | Taarak Mehta Ka Ooltah Chashmah| Jetha Bapuji Special",
            "url": "https://www.youtube.com/watch?v=iOCyPZPa5ZY",
            "duration": 1415.0,
            "view_count": 40900,
            "uploader": "Taarak Mehta Ka Ooltah Chashmah Episodes",
            "category": "taarak_mehta",
            "thumbnail": "https://i.ytimg.com/vi/iOCyPZPa5ZY/hq720.jpg"
        },
        {
            "id": "hwlGDsElHes",
            "title": "A Tough Quiz Session | Taarak Mehta Ka Ooltah Chashmah | Full Ep 4671 | 30 Mar 2026 | New Episode",
            "url": "https://www.youtube.com/watch?v=hwlGDsElHes",
            "duration": 1094.0,
            "view_count": 542952,
            "uploader": "Taarak Mehta Ka Ooltah Chashmah Episodes",
            "category": "taarak_mehta",
            "thumbnail": "https://i.ytimg.com/vi/hwlGDsElHes/hq720.jpg"
        },
        {
            "id": "jUzMAgHJz1w",
            "title": "Jethalal Ne Iyer Ko Banaya Fool ! | FULL MOVIE | Taarak Mehta Ka Ooltah Chashmah",
            "url": "https://www.youtube.com/watch?v=jUzMAgHJz1w",
            "duration": 2841.0,
            "view_count": 1009737,
            "uploader": "Taarak Mehta Ka Ooltah Chashmah",
            "category": "taarak_mehta",
            "thumbnail": "https://i.ytimg.com/vi/jUzMAgHJz1w/hq720.jpg"
        },
        {
            "id": "tYbsl7yWLjI",
            "title": "Gada Family Ne Manaya महावीर Jayanti ! | FULL MOVIE | Taarak Mehta Ka Ooltah Chashmah",
            "url": "https://www.youtube.com/watch?v=tYbsl7yWLjI",
            "duration": 2157.0,
            "view_count": 80029,
            "uploader": "Taarak Mehta Ka Ooltah Chashmah",
            "category": "taarak_mehta",
            "thumbnail": "https://i.ytimg.com/vi/tYbsl7yWLjI/hq720.jpg"
        },
        {
            "id": "3cDTxW_hf-I",
            "title": "NEW! Ep 4672 - Kiski Permission ke iye Bhide se Ladne Laga Popat! | Taarak Mehta ka Ooltah Chashmah",
            "url": "https://www.youtube.com/watch?v=3cDTxW_hf-I",
            "duration": 621.0,
            "view_count": 995302,
            "uploader": "Taarak Mehta Ka Ooltah Chashmah",
            "category": "taarak_mehta",
            "thumbnail": "https://i.ytimg.com/vi/3cDTxW_hf-I/hq720.jpg"
        },
        {
            "id": "D7sX5ms0a9U",
            "title": "Bhide Is Furious With Popatlal's Behaviour | Taarak Mehta Ka Ooltah Chashmah | Full Episode",
            "url": "https://www.youtube.com/watch?v=D7sX5ms0a9U",
            "duration": 1200.0,
            "view_count": 15686,
            "uploader": "Taarak Mehta Ka Ooltah Chashmah Episodes",
            "category": "taarak_mehta",
            "thumbnail": "https://i.ytimg.com/vi/D7sX5ms0a9U/hq720.jpg"
        },
        {
            "id": "H4RumiDM8m4",
            "title": "NEW! Ep 4672 - Kya Sonu ke इस सवाल का Jawab de पाएंगे Society वाले | Taarak Mehta ka Ooltah Chashmah",
            "url": "https://www.youtube.com/watch?v=H4RumiDM8m4",
            "duration": 621.0,
            "view_count": 8762,
            "uploader": "Taarak Mehta Ka Ooltah Chashmah Episodes",
            "category": "taarak_mehta",
            "thumbnail": "https://i.ytimg.com/vi/H4RumiDM8m4/hq720.jpg"
        },
        {
            "id": "y-6ijF6vCRY",
            "title": "FULL EPISODE! 4642 - Gada Electronic Me Kise देख चौंक गया Jetha! | Taarak Mehta Ka Ooltah Chashmah",
            "url": "https://www.youtube.com/watch?v=y-6ijF6vCRY",
            "duration": 1351.0,
            "view_count": 15424,
            "uploader": "Taarak Mehta Ka Ooltah Chashmah",
            "category": "taarak_mehta",
            "thumbnail": "https://i.ytimg.com/vi/y-6ijF6vCRY/hq720.jpg"
        },
        {
            "id": "gaRajkVxpeQ",
            "title": "Jetha Sleeps In His Shop | Taarak Mehta Ka Ooltah Chashmah| Full Ep 4642 | 24 Feb 2026 | New Episode",
            "url": "https://www.youtube.com/watch?v=gaRajkVxpeQ",
            "duration": 1356.0,
            "view_count": 1137447,
            "uploader": "Taarak Mehta Ka Ooltah Chashmah Episodes",
            "category": "taarak_mehta",
            "thumbnail": "https://i.ytimg.com/vi/gaRajkVxpeQ/hq720.jpg"
        },
        {
            "id": "rMUtQMZz_bE",
            "title": "Jetha पर क्यों हसने लगे Bhide और Abdul? | Taarak Mehta Ka Ooltah Chashmah | Sundar's Surprise",
            "url": "https://www.youtube.com/watch?v=rMUtQMZz_bE",
            "duration": 2066.0,
            "view_count": 43549,
            "uploader": "Taarak Mehta Ka Ooltah Chashmah Episodes",
            "category": "taarak_mehta",
            "thumbnail": "https://i.ytimg.com/vi/rMUtQMZz_bE/hq720.jpg"
        },
        {
            "id": "CM4CyrptZNM",
            "title": "Robbery In Gokuldham | Taarak Mehta Ka Ooltah Chashmah | Full Episode 153",
            "url": "https://www.youtube.com/watch?v=CM4CyrptZNM",
            "duration": 1194.0,
            "view_count": 3390,
            "uploader": "Taarak Mehta Ka Ooltah Chashmah Episodes",
            "category": "taarak_mehta",
            "thumbnail": "https://i.ytimg.com/vi/CM4CyrptZNM/hq720.jpg"
        },
        {
            "id": "V76C791BOgQ",
            "title": "Society's Rules & Regulations |Taarak Mehta Ka Ooltah Chashmah |Full Ep 4672|31 Mar 2026|New Episode",
            "url": "https://www.youtube.com/watch?v=V76C791BOgQ",
            "duration": 1373.0,
            "view_count": 804971,
            "uploader": "Taarak Mehta Ka Ooltah Chashmah Episodes",
            "category": "taarak_mehta",
            "thumbnail": "https://i.ytimg.com/vi/V76C791BOgQ/hq720.jpg"
        },
        {
            "id": "onz-TNCqiRw",
            "title": "Jethalal Ne Iyer Ko Banaya Fool | Taarak Mehta Ka Ooltah Chashmah | Full Movie",
            "url": "https://www.youtube.com/watch?v=onz-TNCqiRw",
            "duration": 2841.0,
            "view_count": 90282,
            "uploader": "Taarak Mehta Ka Ooltah Chashmah Episodes",
            "category": "taarak_mehta",
            "thumbnail": "https://i.ytimg.com/vi/onz-TNCqiRw/hq720.jpg"
        },
        {
            "id": "L9ZKJJhBE6Y",
            "title": "Jetha ने क्यों पकड़ा Sundar का हाथ? | Taarak Mehta Ka Ooltah Chashmah | Daya Ki Maa",
            "url": "https://www.youtube.com/watch?v=L9ZKJJhBE6Y",
            "duration": 3599.0,
            "view_count": 13551,
            "uploader": "Taarak Mehta Ka Ooltah Chashmah Episodes",
            "category": "taarak_mehta",
            "thumbnail": "https://i.ytimg.com/vi/L9ZKJJhBE6Y/hq720.jpg"
        },
        {
            "id": "0FpIJsK1k78",
            "title": "Roshan Ne Khatam kiya Gents ka Sharab! | FULL MOVIE | Taarak Mehta Ka Ooltah Chashmah",
            "url": "https://www.youtube.com/watch?v=0FpIJsK1k78",
            "duration": 2281.0,
            "view_count": 1450167,
            "uploader": "Taarak Mehta Ka Ooltah Chashmah",
            "category": "taarak_mehta",
            "thumbnail": "https://i.ytimg.com/vi/0FpIJsK1k78/hq720.jpg"
        },
        {
            "id": "soRPiZULwnM",
            "title": "NEW! Ep 4673 - Bhide ke Ankho ke Samne Ho Gayi Badi Anhoni! | Taarak Mehta ka Ooltah Chashmah",
            "url": "https://www.youtube.com/watch?v=soRPiZULwnM",
            "duration": 621.0,
            "view_count": 86967,
            "uploader": "Taarak Mehta Ka Ooltah Chashmah Episodes",
            "category": "taarak_mehta",
            "thumbnail": "https://i.ytimg.com/vi/soRPiZULwnM/hq720.jpg"
        },
        {
            "id": "Jz_1TZAOcT8",
            "title": "Cleaning The Terrace | Taarak Mehta Ka Ooltah Chashmah | Full Ep 4673 | 1 April 2026 | New Episode",
            "url": "https://www.youtube.com/watch?v=Jz_1TZAOcT8",
            "duration": 1268.0,
            "view_count": 847294,
            "uploader": "Taarak Mehta Ka Ooltah Chashmah Episodes",
            "category": "taarak_mehta",
            "thumbnail": "https://i.ytimg.com/vi/Jz_1TZAOcT8/hq720.jpg"
        },
        {
            "id": "PqYy0-aWqy8",
            "title": "Kya Bagha ne Kiya Hisab Me Gadbad! | FULL MOVIE | Taarak Mehta Ka Ooltah Chashmah",
            "url": "https://www.youtube.com/watch?v=PqYy0-aWqy8",
            "duration": 2208.0,
            "view_count": 81622,
            "uploader": "Taarak Mehta Ka Ooltah Chashmah",
            "category": "taarak_mehta",
            "thumbnail": "https://i.ytimg.com/vi/PqYy0-aWqy8/hq720.jpg"
        },
        {
            "id": "tI3I2uU8DaU",
            "title": "Ab tera Kya hoga Jethiyaa 😂🤣 | Taarak Mehta Ka Ooltah Chashmah | Full Movie",
            "url": "https://www.youtube.com/watch?v=tI3I2uU8DaU",
            "duration": 3640.0,
            "view_count": 16330,
            "uploader": "Taarak Mehta Ka Ooltah Chashmah Episodes",
            "category": "taarak_mehta",
            "thumbnail": "https://i.ytimg.com/vi/tI3I2uU8DaU/hq720.jpg"
        },
        {
            "id": "_XtbS4IQrok",
            "title": "Jethalal Kha gaya Goli ke Hisse ka Nashta! | FULL MOVIE | Taarak Mehta Ka Ooltah Chashmah",
            "url": "https://www.youtube.com/watch?v=_XtbS4IQrok",
            "duration": 3519.0,
            "view_count": 1679107,
            "uploader": "Taarak Mehta Ka Ooltah Chashmah",
            "category": "taarak_mehta",
            "thumbnail": "https://i.ytimg.com/vi/_XtbS4IQrok/hq720.jpg?sqp=-oaymwEcCNAFEJQDSFXyq4qpAw4IARUAAIhCGAFwAcABBg==&rs=AOn4CLAkr_1T4REeFURKK_657Vwrz9LMTQ",
            "added_date": "2026-04-16T07:31:40.768320Z",
            "source": "youtube"
        },
        {
            "id": "BgSXBoGQ_Z8",
            "title": "Iyer कैसे गिरा Bhide के सोफे पर? | Taarak Mehta Ka Ooltah Chashmah | Home Renovation",
            "url": "https://www.youtube.com/watch?v=BgSXBoGQ_Z8",
            "duration": 2430.0,
            "view_count": 5290,
            "uploader": "Taarak Mehta Ka Ooltah Chashmah Episodes",
            "category": "taarak_mehta",
            "thumbnail": "https://i.ytimg.com/vi/BgSXBoGQ_Z8/hq720.jpg"
        },
        {
            "id": "DO2KTYdyB8I",
            "title": "Jethiya Ko Jagane Mai Daya Kyu Hui Pareshan!!! | FULL MOVIE | Taarak Mehta Ka Ooltah Chashmah",
            "url": "https://www.youtube.com/watch?v=DO2KTYdyB8I",
            "duration": 2731.0,
            "view_count": 797503,
            "uploader": "Taarak Mehta Ka Ooltah Chashmah",
            "category": "taarak_mehta",
            "thumbnail": "https://i.ytimg.com/vi/DO2KTYdyB8I/hq720.jpg"
        },
        {
            "id": "GqIPQYSgxl4",
            "title": "NEW! Ep 4674 - Popatlal ke Sath ho Gaya Bada Apshagun! | Taarak Mehta ka Ooltah Chashmah",
            "url": "https://www.youtube.com/watch?v=GqIPQYSgxl4",
            "duration": 614.0,
            "view_count": 1361533,
            "uploader": "Taarak Mehta Ka Ooltah Chashmah",
            "category": "taarak_mehta",
            "thumbnail": "https://i.ytimg.com/vi/GqIPQYSgxl4/hq720_custom_2.jpg"
        }
    ]
}