{
    "page": 8,
    "total_pages": 8,
    "total_items": 379,
    "items": [
        {
            "id": "G_MN7iQpRkk",
            "title": "Bhide ne kyu rulaya Madhavi ko | Taarak Mehta Ka Ooltah Chashmah | Full Movie",
            "url": "https://www.youtube.com/watch?v=G_MN7iQpRkk",
            "duration": 2822.0,
            "view_count": 67156,
            "uploader": "Taarak Mehta Ka Ooltah Chashmah Episodes",
            "category": "taarak_mehta",
            "thumbnail": "https://i.ytimg.com/vi/G_MN7iQpRkk/hq720.jpg"
        },
        {
            "id": "e3bg0jsKHXY",
            "title": "Madhavi और Bhide की लड़ाई, क्या Solve होगा Issue? | Taarak Mehta Ka Ooltah Chashmah | Bhide Upset",
            "url": "https://www.youtube.com/watch?v=e3bg0jsKHXY",
            "duration": 4580.0,
            "view_count": 60425,
            "uploader": "Taarak Mehta Ka Ooltah Chashmah Episodes",
            "category": "taarak_mehta",
            "thumbnail": "https://i.ytimg.com/vi/e3bg0jsKHXY/hqdefault.jpg"
        },
        {
            "id": "qommdCE6nPc",
            "title": "Tanvi के लिए Madhavi और Bhide ने बदला भेष | Taarak Mehta Ka Ooltah Chashmah | Education",
            "url": "https://www.youtube.com/watch?v=qommdCE6nPc",
            "duration": 3661.0,
            "view_count": 289351,
            "uploader": "Taarak Mehta Ka Ooltah Chashmah Episodes",
            "category": "taarak_mehta",
            "thumbnail": "https://i.ytimg.com/vi/qommdCE6nPc/hq720.jpg"
        },
        {
            "id": "nOytmCym9_E",
            "title": "Kisne kiya Bhide ko Statue | Taarak Mehta Ka Ooltah Chashmah | Full Movie",
            "url": "https://www.youtube.com/watch?v=nOytmCym9_E",
            "duration": 3441.0,
            "view_count": 71821,
            "uploader": "Taarak Mehta Ka Ooltah Chashmah Episodes",
            "category": "taarak_mehta",
            "thumbnail": "https://i.ytimg.com/vi/nOytmCym9_E/hq720.jpg"
        },
        {
            "id": "HkMDCR7PGJ0",
            "title": "Weekly Reliv | Taarak Mehta Ka Ooltah Chashmah - 4677 To 4682 | 6 Apr 2026 To 11 Apr 2026",
            "url": "https://www.youtube.com/watch?v=HkMDCR7PGJ0",
            "duration": 6867.0,
            "view_count": 7501,
            "uploader": "Taarak Mehta Ka Ooltah Chashmah Episodes",
            "category": "taarak_mehta",
            "thumbnail": "https://i.ytimg.com/vi/HkMDCR7PGJ0/hq720.jpg"
        },
        {
            "id": "h_xeurN6uEY",
            "title": "Bhide aur Jethalal ne try kiye 5 alag alag dishes! | Taarak Mehta Ka Ooltah Chashamh | Ep. 685",
            "url": "https://www.youtube.com/watch?v=h_xeurN6uEY",
            "duration": 618.0,
            "view_count": 49351,
            "uploader": "Taarak Mehta Ka Ooltah Chashmah Episodes",
            "category": "taarak_mehta",
            "thumbnail": "https://i.ytimg.com/vi/h_xeurN6uEY/hq720.jpg"
        },
        {
            "id": "n0XkVllGP1Q",
            "title": "Akhir Kyu Mara Daya ne Jethalal Ke Pairo per😂 | FULL MOVIE | Taarak Mehta Ka Ooltah Chashmah",
            "url": "https://www.youtube.com/watch?v=n0XkVllGP1Q",
            "duration": 4126.0,
            "view_count": 1122769,
            "uploader": "Taarak Mehta Ka Ooltah Chashmah",
            "category": "taarak_mehta",
            "thumbnail": "https://i.ytimg.com/vi/n0XkVllGP1Q/hq720.jpg"
        },
        {
            "id": "hT2HPz4hYms",
            "title": "Goli ne Sikhaya Bhide ko Manners | Taarak Mehta Ka Ooltah Chashmah | Full Movie",
            "url": "https://www.youtube.com/watch?v=hT2HPz4hYms",
            "duration": 2884.0,
            "view_count": 7067,
            "uploader": "Taarak Mehta Ka Ooltah Chashmah Episodes",
            "category": "taarak_mehta",
            "thumbnail": "https://i.ytimg.com/vi/hT2HPz4hYms/hq720.jpg"
        },
        {
            "id": "HKF8y9FxqSI",
            "title": "Jetha के गाल क्यों खींचने लगा Bagha प्यार से? | Taarak Mehta Ka Ooltah Chashmah | Hide And Seek",
            "url": "https://www.youtube.com/watch?v=HKF8y9FxqSI",
            "duration": 3457.0,
            "view_count": 11123,
            "uploader": "Taarak Mehta Ka Ooltah Chashmah Episodes",
            "category": "taarak_mehta",
            "thumbnail": "https://i.ytimg.com/vi/HKF8y9FxqSI/hq720.jpg"
        },
        {
            "id": "hbhNobDR_HA",
            "title": "Auto me Bhid gaye Iyyer aur Jetha | Taarak Mehta Ka Ooltah Chashmah | Full Movie",
            "url": "https://www.youtube.com/watch?v=hbhNobDR_HA",
            "duration": 3471.0,
            "view_count": 72645,
            "uploader": "Taarak Mehta Ka Ooltah Chashmah Episodes",
            "category": "taarak_mehta",
            "thumbnail": "https://i.ytimg.com/vi/hbhNobDR_HA/hq720.jpg"
        },
        {
            "id": "8b4zMrhUptA",
            "title": "Jethalal Shares His Worry With Gokuldham Men | Taarak Mehta Ka Ooltah Chashmah | Full Episode",
            "url": "https://www.youtube.com/watch?v=8b4zMrhUptA",
            "duration": 1215.0,
            "view_count": 10452,
            "uploader": "Taarak Mehta Ka Ooltah Chashmah Episodes",
            "category": "taarak_mehta",
            "thumbnail": "https://i.ytimg.com/vi/8b4zMrhUptA/hq720.jpg"
        },
        {
            "id": "cUb5gVZKK8o",
            "title": "NEW! Ep 4683 - Kis Khushi me Mahila Mandal ne Kiya Nach Gaana! | Taarak Mehta ka Ooltah Chasmah",
            "url": "https://www.youtube.com/watch?v=cUb5gVZKK8o",
            "duration": 633.0,
            "view_count": 185068,
            "uploader": "Taarak Mehta Ka Ooltah Chashmah",
            "category": "taarak_mehta",
            "thumbnail": "https://i.ytimg.com/vi/cUb5gVZKK8o/hq720.jpg"
        },
        {
            "id": "rTK88nCNRVg",
            "title": "NEW! Ep 4683 - Kis Khushi me Mahila Mandal ne Kiya Nach Gaana! | Taarak Mehta ka Ooltah Chasmah",
            "url": "https://www.youtube.com/watch?v=rTK88nCNRVg",
            "duration": 633.0,
            "view_count": 138044,
            "uploader": "Taarak Mehta Ka Ooltah Chashmah Episodes",
            "category": "taarak_mehta",
            "thumbnail": "https://i.ytimg.com/vi/rTK88nCNRVg/hq720.jpg"
        },
        {
            "id": "TaMCaZYii-8",
            "title": "Sapne Ki Baat Cheet | Taarak Mehta Ka Ooltah Chashmah | Full Ep 4683 | 13 Apr 2026 | New Episode",
            "url": "https://www.youtube.com/watch?v=TaMCaZYii-8",
            "duration": 1281.0,
            "view_count": 653388,
            "uploader": "Taarak Mehta Ka Ooltah Chashmah Episodes",
            "category": "taarak_mehta",
            "thumbnail": "https://i.ytimg.com/vi/TaMCaZYii-8/hq720.jpg?sqp=-oaymwEcCNAFEJQDSFXyq4qpAw4IARUAAIhCGAFwAcABBg==&rs=AOn4CLAUgQJtgOvCMj_KzpMVhuTHxPiMJw",
            "added_date": "2026-04-16T07:31:41.770185Z",
            "source": "youtube"
        },
        {
            "id": "Hd-YaCuAK4A",
            "title": "Mandir me mili Daya ko Khushi 🥲👩‍🍼 | Taarak Mehta Ka Ooltah Chashmah | Full Movie",
            "url": "https://www.youtube.com/watch?v=Hd-YaCuAK4A",
            "duration": 3318.0,
            "view_count": 7047,
            "uploader": "Taarak Mehta Ka Ooltah Chashmah Episodes",
            "category": "taarak_mehta",
            "thumbnail": "https://i.ytimg.com/vi/Hd-YaCuAK4A/hq720.jpg"
        },
        {
            "id": "lV1_l369fzY",
            "title": "Gokuldham Family Helps People | Taarak Mehta Ka Ooltah Chashmah | Full Episode",
            "url": "https://www.youtube.com/watch?v=lV1_l369fzY",
            "duration": 1242.0,
            "view_count": 2937,
            "uploader": "Taarak Mehta Ka Ooltah Chashmah Episodes",
            "category": "taarak_mehta",
            "thumbnail": "https://i.ytimg.com/vi/lV1_l369fzY/hq720.jpg"
        },
        {
            "id": "mYIh46KBTSA",
            "title": "Bapuji ne Kar ke Dikhaya Jethya ki Nakal !  | FULL MOVIE | Taarak Mehta Ka Ooltah Chashmah",
            "url": "https://www.youtube.com/watch?v=mYIh46KBTSA",
            "duration": 2271.0,
            "view_count": 419345,
            "uploader": "Taarak Mehta Ka Ooltah Chashmah",
            "category": "taarak_mehta",
            "thumbnail": "https://i.ytimg.com/vi/mYIh46KBTSA/hq720.jpg"
        },
        {
            "id": "UB_lsv9h6Wc",
            "title": "Jethalal nahi darta kisise bhi | Taarak Mehta Ka Ooltah Chashmah | Full Movie",
            "url": "https://www.youtube.com/watch?v=UB_lsv9h6Wc",
            "duration": 2753.0,
            "view_count": 67277,
            "uploader": "Taarak Mehta Ka Ooltah Chashmah Episodes",
            "category": "taarak_mehta",
            "thumbnail": "https://i.ytimg.com/vi/UB_lsv9h6Wc/hq720.jpg"
        },
        {
            "id": "LstW08PXg54",
            "title": "Jetha ने क्यों डाला Bhide के Sakharam पर पानी? | Taarak Mehta Ka Ooltah Chashmah | Bhide Gets Lucky",
            "url": "https://www.youtube.com/watch?v=LstW08PXg54",
            "duration": 3327.0,
            "view_count": 51618,
            "uploader": "Taarak Mehta Ka Ooltah Chashmah Episodes",
            "category": "taarak_mehta",
            "thumbnail": "https://i.ytimg.com/vi/LstW08PXg54/hq720.jpg?sqp=-oaymwEcCNAFEJQDSFXyq4qpAw4IARUAAIhCGAFwAcABBg==&rs=AOn4CLDcOxAlZ80mK-WV70_MWGqTAoE2PA",
            "added_date": "2026-04-16T07:31:41.169067Z",
            "source": "youtube"
        },
        {
            "id": "SkOBW11XxbM",
            "title": "Society वालों ने क्यों माँगी Bapuji से माफ़ी? | Taarak Mehta Ka Ooltah Chashmah | Garbage Problem",
            "url": "https://www.youtube.com/watch?v=SkOBW11XxbM",
            "duration": 3338.0,
            "view_count": 12602,
            "uploader": "Taarak Mehta Ka Ooltah Chashmah Episodes",
            "category": "taarak_mehta",
            "thumbnail": "https://i.ytimg.com/vi/SkOBW11XxbM/hq720.jpg"
        },
        {
            "id": "OrvsrvG33xc",
            "title": "फँस गया Popatlal, एक साथ आए 2 2 रिश्ते !  | FULL MOVIE | Taarak Mehta Ka Ooltah Chashmah",
            "url": "https://www.youtube.com/watch?v=OrvsrvG33xc",
            "duration": 3534.0,
            "view_count": 524928,
            "uploader": "Taarak Mehta Ka Ooltah Chashmah",
            "category": "taarak_mehta",
            "thumbnail": "https://i.ytimg.com/vi/OrvsrvG33xc/hq720.jpg"
        },
        {
            "id": "EzCVnL0yOUI",
            "title": "Tapu ne kiya Sonu ko Propose | Taarak Mehta Ka Ooltah Chashmah | Full Movie",
            "url": "https://www.youtube.com/watch?v=EzCVnL0yOUI",
            "duration": 3403.0,
            "view_count": 1087,
            "uploader": "Taarak Mehta Ka Ooltah Chashmah Episodes",
            "category": "taarak_mehta",
            "thumbnail": "https://i.ytimg.com/vi/EzCVnL0yOUI/hq720.jpg"
        },
        {
            "id": "-3fGXEQ9u7A",
            "title": "NEW! Ep 4685 - Kis Wajah Se Jethalal Hua Nattu Kaka Pe Gussa ! | Taarak Mehta ka Ooltah Chasmah",
            "url": "https://www.youtube.com/watch?v=-3fGXEQ9u7A",
            "duration": 603.0,
            "view_count": 183149,
            "uploader": "Taarak Mehta Ka Ooltah Chashmah",
            "category": "taarak_mehta",
            "thumbnail": "https://i.ytimg.com/vi/-3fGXEQ9u7A/hq720.jpg"
        },
        {
            "id": "6iyFG_qxIUo",
            "title": "Komal ne pehna bhindi wala Neckless | Taarak Mehta Ka Ooltah Chashmah | Full Movie",
            "url": "https://www.youtube.com/watch?v=6iyFG_qxIUo",
            "duration": 2899.0,
            "view_count": 6719,
            "uploader": "Taarak Mehta Ka Ooltah Chashmah Episodes",
            "category": "taarak_mehta",
            "thumbnail": "https://i.ytimg.com/vi/6iyFG_qxIUo/hq720.jpg?sqp=-oaymwEcCNAFEJQDSFXyq4qpAw4IARUAAIhCGAFwAcABBg==&rs=AOn4CLCI02rV_8dSpd_uZ7pC-aBYQlVsNQ",
            "added_date": "2026-04-16T07:31:40.567937Z",
            "source": "youtube"
        },
        {
            "id": "ms9B7u5EtqY",
            "title": "NEW! Ep 4685 - Kis Wajah Se Jethalal Hua Nattu Kaka Pe Gussa! | Taarak Mehta ka Ooltah Chasmah",
            "url": "https://www.youtube.com/watch?v=ms9B7u5EtqY",
            "duration": 603.0,
            "view_count": 18938,
            "uploader": "Taarak Mehta Ka Ooltah Chashmah Episodes",
            "category": "taarak_mehta",
            "thumbnail": "https://i.ytimg.com/vi/ms9B7u5EtqY/hq720.jpg?sqp=-oaymwEcCNAFEJQDSFXyq4qpAw4IARUAAIhCGAFwAcABBg==&rs=AOn4CLAKniDtjqVHphDPA1IFrCYlH1Ldew",
            "added_date": "2026-04-16T07:31:40.968686Z",
            "source": "youtube"
        },
        {
            "id": "Ylu3SewJEcE",
            "title": "Gokuldham में Renovation का हंगामा | Taarak Mehta Ka Ooltah Chashmah | Renovation",
            "url": "https://www.youtube.com/watch?v=Ylu3SewJEcE",
            "duration": 2376.0,
            "view_count": 1666,
            "uploader": "Taarak Mehta Ka Ooltah Chashmah Episodes",
            "category": "taarak_mehta",
            "thumbnail": "https://i.ytimg.com/vi/Ylu3SewJEcE/hq720.jpg"
        },
        {
            "id": "m9deiDv8hik",
            "title": "Anniversary Preparations | Taarak Mehta Ka Ooltah Chashmah| Full Ep 4685 | 15 Apr 2026 | New Episode",
            "url": "https://www.youtube.com/watch?v=m9deiDv8hik",
            "duration": 1225.0,
            "view_count": 422904,
            "uploader": "Taarak Mehta Ka Ooltah Chashmah Episodes",
            "category": "taarak_mehta",
            "thumbnail": "https://i.ytimg.com/vi/m9deiDv8hik/hq720.jpg?sqp=-oaymwEcCNAFEJQDSFXyq4qpAw4IARUAAIhCGAFwAcABBg==&rs=AOn4CLBAR4sn3Gw8Zw82Ebmh_rReKwU8UQ",
            "added_date": "2026-04-16T07:31:40.167198Z",
            "source": "youtube"
        },
        {
            "id": "XxvRRlS1GXE",
            "title": "कविता लिखने के लिए Bhide डूबा गहरी सोच में | Taarak Mehta Ka Ooltah Chashmah | Pyar Ki Pariksha",
            "url": "https://www.youtube.com/watch?v=XxvRRlS1GXE",
            "duration": 3390.0,
            "view_count": 13513,
            "uploader": "Taarak Mehta Ka Ooltah Chashmah Episodes",
            "category": "taarak_mehta",
            "thumbnail": "https://i.ytimg.com/vi/XxvRRlS1GXE/hq720.jpg?sqp=-oaymwEcCNAFEJQDSFXyq4qpAw4IARUAAIhCGAFwAcABBg==&rs=AOn4CLBrHv6gg9HY4WGczvJpz3yTz2iNtA",
            "added_date": "2026-04-16T07:31:40.367498Z",
            "source": "youtube"
        },
        {
            "id": "eDHf35LPe5Q",
            "title": "Sodhi Calls For A Meeting | Taarak Mehta Ka Ooltah Chashmah | Full Episode",
            "url": "https://www.youtube.com/watch?v=eDHf35LPe5Q",
            "duration": 1208.0,
            "view_count": 1262,
            "uploader": "Taarak Mehta Ka Ooltah Chashmah Episodes",
            "category": "taarak_mehta",
            "thumbnail": "https://i.ytimg.com/vi/eDHf35LPe5Q/hq720.jpg?sqp=-oaymwEcCNAFEJQDSFXyq4qpAw4IARUAAIhCGAFwAcABBg==&rs=AOn4CLCq-CJfxqeVgfNDhU_L1iTnUsdWUQ",
            "added_date": "2026-04-16T07:31:42.571638Z",
            "source": "youtube"
        }
    ]
}