{
    "page": 1,
    "total_pages": 8,
    "total_items": 379,
    "items": [
        {
            "id": "Zqzq5Ri-2ko",
            "title": "Jetha ने मंगाया Taarak के लिए मसालेदार खाना | Taarak Mehta Ka Ooltah Chashmah | Taarak Ka Diet",
            "url": "https://www.youtube.com/watch?v=Zqzq5Ri-2ko",
            "duration": 3552.0,
            "view_count": 150166,
            "uploader": "Taarak Mehta Ka Ooltah Chashmah Episodes",
            "category": "taarak_mehta",
            "thumbnail": "https://i.ytimg.com/vi/Zqzq5Ri-2ko/hq720.jpg"
        },
        {
            "id": "5IJycI1VJMI",
            "title": "Bapuji ne Diya Dinner Party! | FULL MOVIE | Taarak Mehta Ka Ooltah Chashmah",
            "url": "https://www.youtube.com/watch?v=5IJycI1VJMI",
            "duration": 2173.0,
            "view_count": 12218082,
            "uploader": "Taarak Mehta Ka Ooltah Chashmah",
            "category": "taarak_mehta",
            "thumbnail": "https://i.ytimg.com/vi/5IJycI1VJMI/hq720.jpg?sqp=-oaymwEcCNAFEJQDSFXyq4qpAw4IARUAAIhCGAFwAcABBg==&rs=AOn4CLAKbedO0d3S1LYhh3iLfXVRdhZOwg",
            "added_date": "2026-04-16T07:31:42.371296Z",
            "source": "youtube"
        },
        {
            "id": "gCyEDpRSXIo",
            "title": "Jetha Finds Out The Truth | Taarak Mehta Ka Ooltah Chashmah | Jetha Bapuji Special",
            "url": "https://www.youtube.com/watch?v=gCyEDpRSXIo",
            "duration": 1226.0,
            "view_count": 138023,
            "uploader": "Taarak Mehta Ka Ooltah Chashmah Episodes",
            "category": "taarak_mehta",
            "thumbnail": "https://i.ytimg.com/vi/gCyEDpRSXIo/hq720.jpg"
        },
        {
            "id": "ovU1-a_Xt8U",
            "title": "Bhide Ignoring Jethalal?! | FULL MOVIE | Why Is Bhide Avoiding Jethalal? | Hindi Comedy Movie",
            "url": "https://www.youtube.com/watch?v=ovU1-a_Xt8U",
            "duration": 4445.0,
            "view_count": 52914,
            "uploader": "Taarak Mehta Ka Ooltah Chashmah Episodes",
            "category": "taarak_mehta",
            "thumbnail": "https://i.ytimg.com/vi/ovU1-a_Xt8U/hq720.jpg"
        },
        {
            "id": "F90V91_K7c4",
            "title": "The Challenge Begins | Taarak Mehta Ka Ooltah Chashmah | Full Ep 4652 | 7 Mar 2026 | New Episode",
            "url": "https://www.youtube.com/watch?v=F90V91_K7c4",
            "duration": 1293.0,
            "view_count": 973581,
            "uploader": "Taarak Mehta Ka Ooltah Chashmah Episodes",
            "category": "taarak_mehta",
            "thumbnail": "https://i.ytimg.com/vi/F90V91_K7c4/hqdefault.jpg"
        },
        {
            "id": "4U9-rJDLu08",
            "title": "Epic AC Repair Disaster 😂 | FULL MOVIE | When Jethalal Becomes an AC Mechanic | Hindi Movie",
            "url": "https://www.youtube.com/watch?v=4U9-rJDLu08",
            "duration": 5021.0,
            "view_count": 13776,
            "uploader": "Taarak Mehta Ka Ooltah Chashmah Episodes",
            "category": "taarak_mehta",
            "thumbnail": "https://i.ytimg.com/vi/4U9-rJDLu08/hq720.jpg"
        },
        {
            "id": "2G5eF2s_kNw",
            "title": "Why Police Arrests Bagha😳 | FULL MOVIE | 😱 Gokuldham in Shock | Hindi Comedy",
            "url": "https://www.youtube.com/watch?v=2G5eF2s_kNw",
            "duration": 3461.0,
            "view_count": 119655,
            "uploader": "Taarak Mehta Ka Ooltah Chashmah Episodes",
            "category": "taarak_mehta",
            "thumbnail": "https://i.ytimg.com/vi/2G5eF2s_kNw/hq720.jpg"
        },
        {
            "id": "VTd269aPkLQ",
            "title": "A Dream Come True for Jethya?! | FULL MOVIE | Huge Surprise for Jethalal | Hindi Comedy Movie",
            "url": "https://www.youtube.com/watch?v=VTd269aPkLQ",
            "duration": 3139.0,
            "view_count": 139143,
            "uploader": "Taarak Mehta Ka Ooltah Chashmah Episodes",
            "category": "taarak_mehta",
            "thumbnail": "https://i.ytimg.com/vi/VTd269aPkLQ/hq720.jpg"
        },
        {
            "id": "Cm9guUBS-Rw",
            "title": "Jetha Face A Challenge | Taarak Mehta Ka Ooltah Chashmah | Full Ep 4651 | 6 Mar 2026 | New Episode",
            "url": "https://www.youtube.com/watch?v=Cm9guUBS-Rw",
            "duration": 1332.0,
            "view_count": 856631,
            "uploader": "Taarak Mehta Ka Ooltah Chashmah Episodes",
            "category": "taarak_mehta",
            "thumbnail": "https://i.ytimg.com/vi/Cm9guUBS-Rw/hq720.jpg"
        },
        {
            "id": "aijeELfnadc",
            "title": "A Society Meeting Is Called In Gokuldham | Taarak Mehta Ka Ooltah Chashmah | Bhide Fun Files",
            "url": "https://www.youtube.com/watch?v=aijeELfnadc",
            "duration": 3515.0,
            "view_count": 3474423,
            "uploader": "Taarak Mehta Ka Ooltah Chashmah Episodes",
            "category": "taarak_mehta",
            "thumbnail": "https://i.ytimg.com/vi/aijeELfnadc/hq720.jpg"
        },
        {
            "id": "PVgNC2XNw_8",
            "title": "🎉Bagha’s Secret Party in the Godown! |  FULL MOVIE | What is happening inside? Hindi Comedy",
            "url": "https://www.youtube.com/watch?v=PVgNC2XNw_8",
            "duration": 3373.0,
            "view_count": 124542,
            "uploader": "Taarak Mehta Ka Ooltah Chashmah Episodes",
            "category": "taarak_mehta",
            "thumbnail": "https://i.ytimg.com/vi/PVgNC2XNw_8/hq720.jpg"
        },
        {
            "id": "jkt-CkYJ8-Q",
            "title": "NEW! Ep 4652 - Kya Hoga Ab Jethalal Ka Naya Plan? | Taarak Mehta ka Ooltah  Chashmah | तारक मेहता",
            "url": "https://www.youtube.com/watch?v=jkt-CkYJ8-Q",
            "duration": 607.0,
            "view_count": 2926982,
            "uploader": "Taarak Mehta Ka Ooltah Chashmah",
            "category": "taarak_mehta",
            "thumbnail": "https://i.ytimg.com/vi/jkt-CkYJ8-Q/hq720.jpg"
        },
        {
            "id": "XUqnLj3DgAA",
            "title": "Food Preparation Takes Place In Gokuldham Society | Taarak Mehta Ka Ooltah Chashmah | Full Episode",
            "url": "https://www.youtube.com/watch?v=XUqnLj3DgAA",
            "duration": 1192.0,
            "view_count": 1640748,
            "uploader": "Taarak Mehta Ka Ooltah Chashmah Episodes",
            "category": "taarak_mehta",
            "thumbnail": "https://i.ytimg.com/vi/XUqnLj3DgAA/hq720.jpg?sqp=-oaymwEcCNAFEJQDSFXyq4qpAw4IARUAAIhCGAFwAcABBg==&rs=AOn4CLBEtS59qrmlEPTQ6c-k9ehb9gcwYw",
            "added_date": "2026-04-16T07:31:42.772023Z",
            "source": "youtube"
        },
        {
            "id": "m3icsZbbqRQ",
            "title": "Gokuldham Society में घुसा चोर | Taarak Mehta Ka Ooltah Chashmah | Exam Results",
            "url": "https://www.youtube.com/watch?v=m3icsZbbqRQ",
            "duration": 2388.0,
            "view_count": 233421,
            "uploader": "Taarak Mehta Ka Ooltah Chashmah Episodes",
            "category": "taarak_mehta",
            "thumbnail": "https://i.ytimg.com/vi/m3icsZbbqRQ/hq720.jpg"
        },
        {
            "id": "F2ptAhvkYM0",
            "title": "Epic Face-Off in Gada Family | FULL MOVIE | Jethalal’s Hilarious Mimicry Madness 😂",
            "url": "https://www.youtube.com/watch?v=F2ptAhvkYM0",
            "duration": 3793.0,
            "view_count": 310150,
            "uploader": "Taarak Mehta Ka Ooltah Chashmah Episodes",
            "category": "taarak_mehta",
            "thumbnail": "https://i.ytimg.com/vi/F2ptAhvkYM0/hq720.jpg"
        },
        {
            "id": "wn6mPtTTDF0",
            "title": "Jethalal Gets VIP Passes For Mahila Mandal | Taarak Mehta Ka Ooltah Chashmah | Full Episode",
            "url": "https://www.youtube.com/watch?v=wn6mPtTTDF0",
            "duration": 1272.0,
            "view_count": 8502,
            "uploader": "Taarak Mehta Ka Ooltah Chashmah Episodes",
            "category": "taarak_mehta",
            "thumbnail": "https://i.ytimg.com/vi/wn6mPtTTDF0/hq720.jpg"
        },
        {
            "id": "2x_4ZMlclN4",
            "title": "Bhide के Joke पर क्यों नहीं हँसा Jethalal? | Taarak Mehta Ka Ooltah Chashmah | Romantic Talks",
            "url": "https://www.youtube.com/watch?v=2x_4ZMlclN4",
            "duration": 3338.0,
            "view_count": 198078,
            "uploader": "Taarak Mehta Ka Ooltah Chashmah Episodes",
            "category": "taarak_mehta",
            "thumbnail": "https://i.ytimg.com/vi/2x_4ZMlclN4/hq720.jpg"
        },
        {
            "id": "etUmJAz0RAU",
            "title": "Bhide ne Kiya Jail me Choro ke Sath Dinner! | FULL MOVIE | Taarak Mehta Ka Ooltah Chashmah",
            "url": "https://www.youtube.com/watch?v=etUmJAz0RAU",
            "duration": 3487.0,
            "view_count": 1220558,
            "uploader": "Taarak Mehta Ka Ooltah Chashmah",
            "category": "taarak_mehta",
            "thumbnail": "https://i.ytimg.com/vi/etUmJAz0RAU/hq720.jpg"
        },
        {
            "id": "tfi8nBvoQGI",
            "title": "Daya Is Upset With Jethalal | Taarak Mehta Ka Ooltah Chashmah | Full Episode",
            "url": "https://www.youtube.com/watch?v=tfi8nBvoQGI",
            "duration": 1224.0,
            "view_count": 10978,
            "uploader": "Taarak Mehta Ka Ooltah Chashmah Episodes",
            "category": "taarak_mehta",
            "thumbnail": "https://i.ytimg.com/vi/tfi8nBvoQGI/hq720.jpg"
        },
        {
            "id": "IqMpB9UvxNU",
            "title": "Mission मसालेदार में फांसी Purush Mandali | Taarak Mehta Ka Ooltah Chashmah | Diet Plan",
            "url": "https://www.youtube.com/watch?v=IqMpB9UvxNU",
            "duration": 3767.0,
            "view_count": 94201,
            "uploader": "Taarak Mehta Ka Ooltah Chashmah Episodes",
            "category": "taarak_mehta",
            "thumbnail": "https://i.ytimg.com/vi/IqMpB9UvxNU/hq720.jpg"
        },
        {
            "id": "_mRJx_o_lFA",
            "title": "Babita Decides To Leave Iyer | Taarak Mehta Ka Ooltah Chashmah | Full Episode 131",
            "url": "https://www.youtube.com/watch?v=_mRJx_o_lFA",
            "duration": 1141.0,
            "view_count": 1411,
            "uploader": "Taarak Mehta Ka Ooltah Chashmah Episodes",
            "category": "taarak_mehta",
            "thumbnail": "https://i.ytimg.com/vi/_mRJx_o_lFA/hq720.jpg"
        },
        {
            "id": "DTMfmSLG6OY",
            "title": "Tapu के Idea से क्यों नहीं हुई Bhide को खुशी? | Taarak Mehta Ka Ooltah Chashmah | Unknown Guest",
            "url": "https://www.youtube.com/watch?v=DTMfmSLG6OY",
            "duration": 3510.0,
            "view_count": 34706,
            "uploader": "Taarak Mehta Ka Ooltah Chashmah Episodes",
            "category": "taarak_mehta",
            "thumbnail": "https://i.ytimg.com/vi/DTMfmSLG6OY/hqdefault.jpg"
        },
        {
            "id": "97LSM7GqCiE",
            "title": "Kyu Udaya Gents Ne Popatlal Ka Majak?! | FULL MOVIE | Taarak Mehta Ka Ooltah Chashmah",
            "url": "https://www.youtube.com/watch?v=97LSM7GqCiE",
            "duration": 2184.0,
            "view_count": 876101,
            "uploader": "Taarak Mehta Ka Ooltah Chashmah",
            "category": "taarak_mehta",
            "thumbnail": "https://i.ytimg.com/vi/97LSM7GqCiE/hq720.jpg"
        },
        {
            "id": "DoeJxtTcXtU",
            "title": "Kis Ke karan Bapuji Gir gaye compound mai?  | FULL MOVIE | Taarak Mehta Ka Ooltah Chashmah",
            "url": "https://www.youtube.com/watch?v=DoeJxtTcXtU",
            "duration": 3960.0,
            "view_count": 2039838,
            "uploader": "Taarak Mehta Ka Ooltah Chashmah",
            "category": "taarak_mehta",
            "thumbnail": "https://i.ytimg.com/vi/DoeJxtTcXtU/hq720.jpg"
        },
        {
            "id": "p0nzpK9QsP4",
            "title": "Kon bachayega Goli ka favourite khana!| FULL MOVIE | Taarak Mehta Ka Ooltah Chashmah",
            "url": "https://www.youtube.com/watch?v=p0nzpK9QsP4",
            "duration": 3348.0,
            "view_count": 318027,
            "uploader": "Taarak Mehta Ka Ooltah Chashmah",
            "category": "taarak_mehta",
            "thumbnail": "https://i.ytimg.com/vi/p0nzpK9QsP4/hq720.jpg"
        },
        {
            "id": "ze_zTj8ADNo",
            "title": "Kisne diya bhide aur popatlal ka  challenge| FULL MOVIE | Taarak Mehta Ka Ooltah Chashmah",
            "url": "https://www.youtube.com/watch?v=ze_zTj8ADNo",
            "duration": 3413.0,
            "view_count": 1146933,
            "uploader": "Taarak Mehta Ka Ooltah Chashmah",
            "category": "taarak_mehta",
            "thumbnail": "https://i.ytimg.com/vi/ze_zTj8ADNo/hq720.jpg"
        },
        {
            "id": "IY5WbI0vFFU",
            "title": "Jethalal ke Sir me Dard! | FULL MOVIE | Taarak Mehta Ka Ooltah Chashmah",
            "url": "https://www.youtube.com/watch?v=IY5WbI0vFFU",
            "duration": 3677.0,
            "view_count": 5133340,
            "uploader": "Taarak Mehta Ka Ooltah Chashmah",
            "category": "taarak_mehta",
            "thumbnail": "https://i.ytimg.com/vi/IY5WbI0vFFU/hq720.jpg"
        },
        {
            "id": "6z4yEjm_NwE",
            "title": "खिड़की के बाहर देखकर क्यों चिल्लाने लगी Madhavi? | Taarak Mehta Ka Ooltah Chashmah | Patni Pariksha",
            "url": "https://www.youtube.com/watch?v=6z4yEjm_NwE",
            "duration": 3638.0,
            "view_count": 137913,
            "uploader": "Taarak Mehta Ka Ooltah Chashmah Episodes",
            "category": "taarak_mehta",
            "thumbnail": "https://i.ytimg.com/vi/6z4yEjm_NwE/hq720.jpg"
        },
        {
            "id": "8jc055lVh7I",
            "title": "Daya ne Mara Jethalal ke Face pe Dryer! | FULL MOVIE | Taarak Mehta Ka Ooltah Chashmah",
            "url": "https://www.youtube.com/watch?v=8jc055lVh7I",
            "duration": 3305.0,
            "view_count": 2297335,
            "uploader": "Taarak Mehta Ka Ooltah Chashmah",
            "category": "taarak_mehta",
            "thumbnail": "https://i.ytimg.com/vi/8jc055lVh7I/hq720.jpg"
        },
        {
            "id": "pggjHgz4O54",
            "title": "Team Jethalal's Search | Taarak Mehta Ka Ooltah Chashmah | Full Ep 4653 | 9 Mar 2026 | New Episode",
            "url": "https://www.youtube.com/watch?v=pggjHgz4O54",
            "duration": 1238.0,
            "view_count": 1065510,
            "uploader": "Taarak Mehta Ka Ooltah Chashmah Episodes",
            "category": "taarak_mehta",
            "thumbnail": "https://i.ytimg.com/vi/pggjHgz4O54/hq720.jpg"
        },
        {
            "id": "qnyCp518WQM",
            "title": "Popatlal Loses The Ring | Taarak Mehta Ka Ooltah Chashmah | Full Ep 4649 | 4 Mar 2026 | New Episode",
            "url": "https://www.youtube.com/watch?v=qnyCp518WQM",
            "duration": 1232.0,
            "view_count": 795601,
            "uploader": "Taarak Mehta Ka Ooltah Chashmah Episodes",
            "category": "taarak_mehta",
            "thumbnail": "https://i.ytimg.com/vi/qnyCp518WQM/hq720.jpg"
        },
        {
            "id": "1pKOjh82OUs",
            "title": "Meeting में Late आनेसे Jetha पर लगी Fine | Taarak Mehta Ka Ooltah Chashmah | Society Ki Samasya",
            "url": "https://www.youtube.com/watch?v=1pKOjh82OUs",
            "duration": 2408.0,
            "view_count": 422846,
            "uploader": "Taarak Mehta Ka Ooltah Chashmah Episodes",
            "category": "taarak_mehta",
            "thumbnail": "https://i.ytimg.com/vi/1pKOjh82OUs/hq720.jpg"
        },
        {
            "id": "Yiegne0_udc",
            "title": "Bhide’s Towel Falls at the Worst Moment! 😱 | FULL MOVIE | The Most Embarrassing Day for Bhide!",
            "url": "https://www.youtube.com/watch?v=Yiegne0_udc",
            "duration": 3429.0,
            "view_count": 25483,
            "uploader": "Taarak Mehta Ka Ooltah Chashmah Episodes",
            "category": "taarak_mehta",
            "thumbnail": "https://i.ytimg.com/vi/Yiegne0_udc/hq720.jpg"
        },
        {
            "id": "LrVTmIf9040",
            "title": "Cricket Practice In Gokuldham | Taarak Mehta Ka Ooltah Chashmah | Jetha Bapuji Special",
            "url": "https://www.youtube.com/watch?v=LrVTmIf9040",
            "duration": 1152.0,
            "view_count": 2084,
            "uploader": "Taarak Mehta Ka Ooltah Chashmah Episodes",
            "category": "taarak_mehta",
            "thumbnail": "https://i.ytimg.com/vi/LrVTmIf9040/hq720.jpg"
        },
        {
            "id": "sw0fCehdgXk",
            "title": "Purush mandli ne kiya popatal ka beijjati! | FULL MOVIE | Taarak Mehta Ka Ooltah Chashmah",
            "url": "https://www.youtube.com/watch?v=sw0fCehdgXk",
            "duration": 2230.0,
            "view_count": 27015,
            "uploader": "Taarak Mehta Ka Ooltah Chashmah",
            "category": "taarak_mehta",
            "thumbnail": "https://i.ytimg.com/vi/sw0fCehdgXk/hq720.jpg"
        },
        {
            "id": "xhZf8CFPmVM",
            "title": "Bhide Turns the House into Scrap?! 😱 | FULL MOVIE | Bhide’s Bhangar Chaos | Hindi Movies",
            "url": "https://www.youtube.com/watch?v=xhZf8CFPmVM",
            "duration": 2987.0,
            "view_count": 43792,
            "uploader": "Taarak Mehta Ka Ooltah Chashmah Episodes",
            "category": "taarak_mehta",
            "thumbnail": "https://i.ytimg.com/vi/xhZf8CFPmVM/hq720.jpg"
        },
        {
            "id": "T8lRv-rxFEc",
            "title": "'Dhokla' खाते पकड़े गए Jetha | Taarak Mehta Ka Ooltah Chashmah | Unknown Guest",
            "url": "https://www.youtube.com/watch?v=T8lRv-rxFEc",
            "duration": 2518.0,
            "view_count": 200245,
            "uploader": "Taarak Mehta Ka Ooltah Chashmah Episodes",
            "category": "taarak_mehta",
            "thumbnail": "https://i.ytimg.com/vi/T8lRv-rxFEc/hq720.jpg"
        },
        {
            "id": "e183wrShDQg",
            "title": "Chocolate Pack करते समय हुई Jetha-Iyer के बीच बहस | Taarak Mehta Ka Ooltah Chashmah| Sonu's Business",
            "url": "https://www.youtube.com/watch?v=e183wrShDQg",
            "duration": 3490.0,
            "view_count": 274245,
            "uploader": "Taarak Mehta Ka Ooltah Chashmah Episodes",
            "category": "taarak_mehta",
            "thumbnail": "https://i.ytimg.com/vi/e183wrShDQg/hq720.jpg"
        },
        {
            "id": "OeBOYFlUep4",
            "title": "Jethalal ne Diya Business Related Idea! | FULL MOVIE | Taarak Mehta Ka Ooltah Chashmah",
            "url": "https://www.youtube.com/watch?v=OeBOYFlUep4",
            "duration": 3425.0,
            "view_count": 2360495,
            "uploader": "Taarak Mehta Ka Ooltah Chashmah",
            "category": "taarak_mehta",
            "thumbnail": "https://i.ytimg.com/vi/OeBOYFlUep4/hq720.jpg"
        },
        {
            "id": "uR40NCdjS30",
            "title": "Kaise Jala Bhide ka Kurta?| FULL MOVIE | Taarak Mehta Ka Ooltah Chashmah | तारक मेहता का उल्टा चश्मा",
            "url": "https://www.youtube.com/watch?v=uR40NCdjS30",
            "duration": 3211.0,
            "view_count": 7944171,
            "uploader": "Taarak Mehta Ka Ooltah Chashmah",
            "category": "taarak_mehta",
            "thumbnail": "https://i.ytimg.com/vi/uR40NCdjS30/hq720.jpg"
        },
        {
            "id": "lEvkweQOzDQ",
            "title": "A Surprise For Gokuldham Members | Taarak Mehta Ka Ooltah Chashmah | Jetha Bapuji Special",
            "url": "https://www.youtube.com/watch?v=lEvkweQOzDQ",
            "duration": 1232.0,
            "view_count": 623,
            "uploader": "Taarak Mehta Ka Ooltah Chashmah Episodes",
            "category": "taarak_mehta",
            "thumbnail": "https://i.ytimg.com/vi/lEvkweQOzDQ/hq720.jpg"
        },
        {
            "id": "0izj5SdYskk",
            "title": "The Search For Babita | Taarak Mehta Ka Ooltah Chashmah | Full Ep 4654 | 10 Mar 2026 | New Episode",
            "url": "https://www.youtube.com/watch?v=0izj5SdYskk",
            "duration": 1282.0,
            "view_count": 975901,
            "uploader": "Taarak Mehta Ka Ooltah Chashmah Episodes",
            "category": "taarak_mehta",
            "thumbnail": "https://i.ytimg.com/vi/0izj5SdYskk/hq720.jpg"
        },
        {
            "id": "OYcsHXWUTYI",
            "title": "Jethalal Ne Liya Garam Garam Jalebi Fafda Ke Maje | FULL MOVIE | Taarak Mehta Ka Ooltah Chashmah",
            "url": "https://www.youtube.com/watch?v=OYcsHXWUTYI",
            "duration": 2227.0,
            "view_count": 9095469,
            "uploader": "Taarak Mehta Ka Ooltah Chashmah",
            "category": "taarak_mehta",
            "thumbnail": "https://i.ytimg.com/vi/OYcsHXWUTYI/hq720.jpg"
        },
        {
            "id": "7FbaeimP-Qg",
            "title": "Taarak Mehta Ka Ooltah Chashmah - Episode 932 - Full Episode",
            "url": "https://www.youtube.com/watch?v=7FbaeimP-Qg",
            "duration": 1306.0,
            "view_count": 1815595,
            "uploader": "Taarak Mehta Ka Ooltah Chashmah Episodes",
            "category": "taarak_mehta",
            "thumbnail": "https://i.ytimg.com/vi/7FbaeimP-Qg/hq720.jpg"
        },
        {
            "id": "w41o-kUknik",
            "title": "Anjali vs Babita Badminton Showdown! 🏸 | FULL MOVIE | Gokuldham Ladies Sports Challenge!",
            "url": "https://www.youtube.com/watch?v=w41o-kUknik",
            "duration": 2668.0,
            "view_count": 3496,
            "uploader": "Taarak Mehta Ka Ooltah Chashmah Episodes",
            "category": "taarak_mehta",
            "thumbnail": "https://i.ytimg.com/vi/w41o-kUknik/hq720.jpg"
        },
        {
            "id": "-sUFROpjtoQ",
            "title": "Bapuji in Big Trouble in Goa! 😱 | FULL MOVIE | Jethalal & Tapu Rush to Help Bapuji | Hindi Movies",
            "url": "https://www.youtube.com/watch?v=-sUFROpjtoQ",
            "duration": 5627.0,
            "view_count": 9736,
            "uploader": "Taarak Mehta Ka Ooltah Chashmah Episodes",
            "category": "taarak_mehta",
            "thumbnail": "https://i.ytimg.com/vi/-sUFROpjtoQ/hq720.jpg"
        },
        {
            "id": "Ro33nKVHd8c",
            "title": "Bhide को क्यों हुआ Tapu के ऊपर शक? | Taarak Mehta Ka Ooltah Chashmah | Sakharam Ki Adla Badli",
            "url": "https://www.youtube.com/watch?v=Ro33nKVHd8c",
            "duration": 3993.0,
            "view_count": 67139,
            "uploader": "Taarak Mehta Ka Ooltah Chashmah Episodes",
            "category": "taarak_mehta",
            "thumbnail": "https://i.ytimg.com/vi/Ro33nKVHd8c/hq720.jpg"
        },
        {
            "id": "69npLYsT-Gs",
            "title": "Society ने किसे देखकर Shock हुए Daya और Jetha? | Taarak Mehta Ka Ooltah Chashmah | Sonu's Business",
            "url": "https://www.youtube.com/watch?v=69npLYsT-Gs",
            "duration": 4657.0,
            "view_count": 12320,
            "uploader": "Taarak Mehta Ka Ooltah Chashmah Episodes",
            "category": "taarak_mehta",
            "thumbnail": "https://i.ytimg.com/vi/69npLYsT-Gs/hq720.jpg"
        },
        {
            "id": "KE_jS2sQHqE",
            "title": "Society Mein Hungama!! Jethalal vs Bhide  ! | FULL MOVIE | Taarak Mehta Ka Ooltah Chashmah",
            "url": "https://www.youtube.com/watch?v=KE_jS2sQHqE",
            "duration": 2879.0,
            "view_count": 2841605,
            "uploader": "Taarak Mehta Ka Ooltah Chashmah",
            "category": "taarak_mehta",
            "thumbnail": "https://i.ytimg.com/vi/KE_jS2sQHqE/hq720.jpg"
        },
        {
            "id": "tn6LhUwkhhs",
            "title": "Taarak Mehta Ka Ooltah Chashmah - Episode 297 - Full Episode",
            "url": "https://www.youtube.com/watch?v=tn6LhUwkhhs",
            "duration": 1256.0,
            "view_count": 4508171,
            "uploader": "Taarak Mehta Ka Ooltah Chashmah Episodes",
            "category": "taarak_mehta",
            "thumbnail": "https://i.ytimg.com/vi/tn6LhUwkhhs/hq720.jpg"
        }
    ]
}