{
    "page": 4,
    "total_pages": 8,
    "total_items": 379,
    "items": [
        {
            "id": "eBxWmS-r4t8",
            "title": "FULL EPISODE! 4634 - Gada Electronic me Party Sharty! | Taarak Mehta Ka Ooltah Chashmah",
            "url": "https://www.youtube.com/watch?v=eBxWmS-r4t8",
            "duration": 1260.0,
            "view_count": 8037,
            "uploader": "Taarak Mehta Ka Ooltah Chashmah",
            "category": "taarak_mehta",
            "thumbnail": "https://i.ytimg.com/vi/eBxWmS-r4t8/hq720.jpg"
        },
        {
            "id": "L8kQFqcPnPI",
            "title": "Jethalal Falls Asleep | Taarak Mehta Ka Ooltah Chashmah | Full Ep 4634 | 14 Feb 2026 | New Episode",
            "url": "https://www.youtube.com/watch?v=L8kQFqcPnPI",
            "duration": 1243.0,
            "view_count": 941424,
            "uploader": "Taarak Mehta Ka Ooltah Chashmah Episodes",
            "category": "taarak_mehta",
            "thumbnail": "https://i.ytimg.com/vi/L8kQFqcPnPI/hq720.jpg"
        },
        {
            "id": "BFCuA0iwozE",
            "title": "Bhide Gets Arrested | Taarak Mehta Ka Ooltah Chashmah | Full Ep 4664 | 21 Mar 2026 | New Episode",
            "url": "https://www.youtube.com/watch?v=BFCuA0iwozE",
            "duration": 1315.0,
            "view_count": 990619,
            "uploader": "Taarak Mehta Ka Ooltah Chashmah Episodes",
            "category": "taarak_mehta",
            "thumbnail": "https://i.ytimg.com/vi/BFCuA0iwozE/hq720.jpg"
        },
        {
            "id": "47OtHKq9GY4",
            "title": "Iyer Bhide Aur Sodhi Ne Kyu Pheni Hai Saadi  !!! | FULL MOVIE | Taarak Mehta Ka Ooltah Chashmah",
            "url": "https://www.youtube.com/watch?v=47OtHKq9GY4",
            "duration": 3304.0,
            "view_count": 24653,
            "uploader": "Taarak Mehta Ka Ooltah Chashmah",
            "category": "taarak_mehta",
            "thumbnail": "https://i.ytimg.com/vi/47OtHKq9GY4/hq720.jpg"
        },
        {
            "id": "t73FIJD_jTM",
            "title": "किसे Trap करने के लिए Popatlal बना Jeweller? | Taarak Mehta Ka Ooltah Chashmah| Bhide Bana Crorepati",
            "url": "https://www.youtube.com/watch?v=t73FIJD_jTM",
            "duration": 3631.0,
            "view_count": 172383,
            "uploader": "Taarak Mehta Ka Ooltah Chashmah Episodes",
            "category": "taarak_mehta",
            "thumbnail": "https://i.ytimg.com/vi/t73FIJD_jTM/hq720.jpg"
        },
        {
            "id": "Aj6xPy3BQRY",
            "title": "Gokuldham Men Lie To Their Wives | Taarak Mehta Ka Ooltah Chashmah | Full Episode",
            "url": "https://www.youtube.com/watch?v=Aj6xPy3BQRY",
            "duration": 1135.0,
            "view_count": 7707,
            "uploader": "Taarak Mehta Ka Ooltah Chashmah Episodes",
            "category": "taarak_mehta",
            "thumbnail": "https://i.ytimg.com/vi/Aj6xPy3BQRY/hq720.jpg"
        },
        {
            "id": "5DYsPHDcFR8",
            "title": "Weekly Reliv - Taarak Mehta Ka Ooltah Chashmah - 4659 To 4664 | 16 Mar 2026 To 21 Mar 2026",
            "url": "https://www.youtube.com/watch?v=5DYsPHDcFR8",
            "duration": 7328.0,
            "view_count": 13053,
            "uploader": "Taarak Mehta Ka Ooltah Chashmah Episodes",
            "category": "taarak_mehta",
            "thumbnail": "https://i.ytimg.com/vi/5DYsPHDcFR8/hq720.jpg"
        },
        {
            "id": "z_wbSjn-j0g",
            "title": "NEW! Ep 4664 -Kya Bhide kar Raha tha Police ki Gadi Chori! | Taarak Mehta ka Ooltah  Chashmah",
            "url": "https://www.youtube.com/watch?v=z_wbSjn-j0g",
            "duration": 604.0,
            "view_count": 193843,
            "uploader": "TMKOC - MINISODES",
            "category": "taarak_mehta",
            "thumbnail": "https://i.ytimg.com/vi/z_wbSjn-j0g/hq720.jpg"
        },
        {
            "id": "nIFc6tyBV7o",
            "title": "Aam Ras dekh Lalchaya Jethya ka mann !!! | FULL MOVIE | Taarak Mehta Ka Ooltah Chashmah",
            "url": "https://www.youtube.com/watch?v=nIFc6tyBV7o",
            "duration": 2319.0,
            "view_count": 86119,
            "uploader": "Taarak Mehta Ka Ooltah Chashmah",
            "category": "taarak_mehta",
            "thumbnail": "https://i.ytimg.com/vi/nIFc6tyBV7o/hq720.jpg"
        },
        {
            "id": "Qwg0c447yuA",
            "title": "Bapuji Kyu Hue Jethalal Pe ghussa?!| FULL MOVIE | Taarak Mehta Ka Ooltah Chashmah",
            "url": "https://www.youtube.com/watch?v=Qwg0c447yuA",
            "duration": 3097.0,
            "view_count": 3155980,
            "uploader": "Taarak Mehta Ka Ooltah Chashmah",
            "category": "taarak_mehta",
            "thumbnail": "https://i.ytimg.com/vi/Qwg0c447yuA/hq720.jpg"
        },
        {
            "id": "Oj5oNxt_LR0",
            "title": "Daya ने पी ली Jetha की चाय! | FULL MOVIE | Taarak Mehta Ka Ooltah Chashmah",
            "url": "https://www.youtube.com/watch?v=Oj5oNxt_LR0",
            "duration": 3372.0,
            "view_count": 2131476,
            "uploader": "Taarak Mehta Ka Ooltah Chashmah",
            "category": "taarak_mehta",
            "thumbnail": "https://i.ytimg.com/vi/Oj5oNxt_LR0/hq720.jpg"
        },
        {
            "id": "qTDgpWrMsi0",
            "title": "Jetha Babita Ko Saath Dekh Iyer Ko Hui Jalan  !!! | FULL MOVIE | Taarak Mehta Ka Ooltah Chashmah",
            "url": "https://www.youtube.com/watch?v=qTDgpWrMsi0",
            "duration": 3346.0,
            "view_count": 267930,
            "uploader": "Taarak Mehta Ka Ooltah Chashmah",
            "category": "taarak_mehta",
            "thumbnail": "https://i.ytimg.com/vi/qTDgpWrMsi0/hq720.jpg"
        },
        {
            "id": "SF8o-Pxcbcs",
            "title": "Kisne Di Bhide ko Kam Rukwane ki Dhamki !!! | FULL MOVIE | Taarak Mehta Ka Ooltah Chashmah",
            "url": "https://www.youtube.com/watch?v=SF8o-Pxcbcs",
            "duration": 3436.0,
            "view_count": 401338,
            "uploader": "Taarak Mehta Ka Ooltah Chashmah",
            "category": "taarak_mehta",
            "thumbnail": "https://i.ytimg.com/vi/SF8o-Pxcbcs/hq720.jpg"
        },
        {
            "id": "9S_BsKIHvn4",
            "title": "Mahila Mandal Takes Tapu Sena For A Picnic | Taarak Mehta Ka Ooltah Chashmah | Full Episode 145",
            "url": "https://www.youtube.com/watch?v=9S_BsKIHvn4",
            "duration": 1068.0,
            "view_count": 5771,
            "uploader": "Taarak Mehta Ka Ooltah Chashmah Episodes",
            "category": "taarak_mehta",
            "thumbnail": "https://i.ytimg.com/vi/9S_BsKIHvn4/hq720.jpg"
        },
        {
            "id": "omaSB7NyT3E",
            "title": "क्या Police करेगी Gents को Jail से Release? | Taarak Mehta Ka Ooltah Chashmah | Bhide Bana Crorepati",
            "url": "https://www.youtube.com/watch?v=omaSB7NyT3E",
            "duration": 2455.0,
            "view_count": 9327,
            "uploader": "Taarak Mehta Ka Ooltah Chashmah Episodes",
            "category": "taarak_mehta",
            "thumbnail": "https://i.ytimg.com/vi/omaSB7NyT3E/hqdefault.jpg"
        },
        {
            "id": "2WOwly5C8IQ",
            "title": "Gokuldham Men Test Their Wives | Taarak Mehta Ka Ooltah Chashmah | Full Episode",
            "url": "https://www.youtube.com/watch?v=2WOwly5C8IQ",
            "duration": 1233.0,
            "view_count": 10257,
            "uploader": "Taarak Mehta Ka Ooltah Chashmah Episodes",
            "category": "taarak_mehta",
            "thumbnail": "https://i.ytimg.com/vi/2WOwly5C8IQ/hq720.jpg"
        },
        {
            "id": "TuFJ5VzEAeM",
            "title": "Jethalal Ne Kyu Kiya Bhide Ko Statue !!! | FULL MOVIE | Taarak Mehta Ka Ooltah Chashmah",
            "url": "https://www.youtube.com/watch?v=TuFJ5VzEAeM",
            "duration": 3441.0,
            "view_count": 115264,
            "uploader": "Taarak Mehta Ka Ooltah Chashmah",
            "category": "taarak_mehta",
            "thumbnail": "https://i.ytimg.com/vi/TuFJ5VzEAeM/hq720.jpg"
        },
        {
            "id": "vZcp-ZRHAYQ",
            "title": "Justice For Bhide | Taarak Mehta Ka Ooltah Chashmah | Full Ep 4665 | 23 Mar 2026 | New Episode",
            "url": "https://www.youtube.com/watch?v=vZcp-ZRHAYQ",
            "duration": 1293.0,
            "view_count": 1039737,
            "uploader": "Taarak Mehta Ka Ooltah Chashmah Episodes",
            "category": "taarak_mehta",
            "thumbnail": "https://i.ytimg.com/vi/vZcp-ZRHAYQ/hq720.jpg"
        },
        {
            "id": "0Xr_nU6iC9c",
            "title": "Jethalal ne pheka Iyer par pani ! | FULL MOVIE | Taarak Mehta Ka Ooltah Chashmah",
            "url": "https://www.youtube.com/watch?v=0Xr_nU6iC9c",
            "duration": 3458.0,
            "view_count": 203845,
            "uploader": "Taarak Mehta Ka Ooltah Chashmah",
            "category": "taarak_mehta",
            "thumbnail": "https://i.ytimg.com/vi/0Xr_nU6iC9c/hq720.jpg"
        },
        {
            "id": "Li7AYyQ4Yt0",
            "title": "Sunita के Idea से Impress हुए Gokuldham वाले | Taarak Mehta Ka Ooltah Chashmah | Notebandi",
            "url": "https://www.youtube.com/watch?v=Li7AYyQ4Yt0",
            "duration": 3533.0,
            "view_count": 43671,
            "uploader": "Taarak Mehta Ka Ooltah Chashmah Episodes",
            "category": "taarak_mehta",
            "thumbnail": "https://i.ytimg.com/vi/Li7AYyQ4Yt0/hq720.jpg"
        },
        {
            "id": "Wul9YuCtP4U",
            "title": "Jetha ने क्यों लगाई Bagha और Nattu Kaka को डांट? | Taarak Mehta Ka Ooltah Chashmah |Bapuji Hue Gayab",
            "url": "https://www.youtube.com/watch?v=Wul9YuCtP4U",
            "duration": 3561.0,
            "view_count": 20123,
            "uploader": "Taarak Mehta Ka Ooltah Chashmah Episodes",
            "category": "taarak_mehta",
            "thumbnail": "https://i.ytimg.com/vi/Wul9YuCtP4U/hq720.jpg"
        },
        {
            "id": "FO9wFA0GM2E",
            "title": "Popatlal ने सुखाया Hair Dryer से अपना Phone | Taarak Mehta Ka Ooltah Chashmah | Popatlal's New Phone",
            "url": "https://www.youtube.com/watch?v=FO9wFA0GM2E",
            "duration": 3497.0,
            "view_count": 10907,
            "uploader": "Taarak Mehta Ka Ooltah Chashmah Episodes",
            "category": "taarak_mehta",
            "thumbnail": "https://i.ytimg.com/vi/FO9wFA0GM2E/hqdefault.jpg"
        },
        {
            "id": "LO_N2fbWTf4",
            "title": "Popatlal पर क्यों भड़के Purush Mandali? | Taarak Mehta Ka Ooltah Chashmah | Popatlal's New Phone",
            "url": "https://www.youtube.com/watch?v=LO_N2fbWTf4",
            "duration": 3379.0,
            "view_count": 24244,
            "uploader": "Taarak Mehta Ka Ooltah Chashmah Episodes",
            "category": "taarak_mehta",
            "thumbnail": "https://i.ytimg.com/vi/LO_N2fbWTf4/hq720.jpg"
        },
        {
            "id": "5HDDQMCgoDI",
            "title": "Bhide's Surprise Gift | Taarak Mehta Ka Ooltah Chashmah | Full Ep 4666 | 24 Mar 2026 | New Episode",
            "url": "https://www.youtube.com/watch?v=5HDDQMCgoDI",
            "duration": 1328.0,
            "view_count": 980300,
            "uploader": "Taarak Mehta Ka Ooltah Chashmah Episodes",
            "category": "taarak_mehta",
            "thumbnail": "https://i.ytimg.com/vi/5HDDQMCgoDI/hq720.jpg"
        },
        {
            "id": "9GAyG9eylQU",
            "title": "Jethalal Gets A Big Order | Taarak Mehta Ka Ooltah Chashmah | Jetha Bapuji Special",
            "url": "https://www.youtube.com/watch?v=9GAyG9eylQU",
            "duration": 1228.0,
            "view_count": 9252,
            "uploader": "Taarak Mehta Ka Ooltah Chashmah Episodes",
            "category": "taarak_mehta",
            "thumbnail": "https://i.ytimg.com/vi/9GAyG9eylQU/hq720.jpg"
        },
        {
            "id": "zBiob-ZrjUE",
            "title": "The Search For Gogi | Taarak Mehta Ka Ooltah Chashmah | Full Episode 147",
            "url": "https://www.youtube.com/watch?v=zBiob-ZrjUE",
            "duration": 1152.0,
            "view_count": 2141,
            "uploader": "Taarak Mehta Ka Ooltah Chashmah Episodes",
            "category": "taarak_mehta",
            "thumbnail": "https://i.ytimg.com/vi/zBiob-ZrjUE/hq720.jpg"
        },
        {
            "id": "MkU9Zq7Y3os",
            "title": "पेड़ पर चढ़कर फँस गए Bapuji | Taarak Mehta Ka Ooltah Chashmah | Bapuji Hue Gayab",
            "url": "https://www.youtube.com/watch?v=MkU9Zq7Y3os",
            "duration": 3762.0,
            "view_count": 3905,
            "uploader": "Taarak Mehta Ka Ooltah Chashmah Episodes",
            "category": "taarak_mehta",
            "thumbnail": "https://i.ytimg.com/vi/MkU9Zq7Y3os/hq720.jpg"
        },
        {
            "id": "eAvS2M8SXfk",
            "title": "NEW! Ep 4667- Bhide ke Homework ne Diya बच्चों को Ram Navmi ki सीख!|Taarak Mehta ka Ooltah  Chashmah",
            "url": "https://www.youtube.com/watch?v=eAvS2M8SXfk",
            "duration": 627.0,
            "view_count": 1381137,
            "uploader": "Taarak Mehta Ka Ooltah Chashmah",
            "category": "taarak_mehta",
            "thumbnail": "https://i.ytimg.com/vi/eAvS2M8SXfk/hq720.jpg"
        },
        {
            "id": "gU-wn0a5x5E",
            "title": "KYU PEHNI HE JETHA NE DAYA KI CHUDIYAN ! | FULL MOVIE | Taarak Mehta Ka Ooltah Chashmah",
            "url": "https://www.youtube.com/watch?v=gU-wn0a5x5E",
            "duration": 2223.0,
            "view_count": 1635054,
            "uploader": "Taarak Mehta Ka Ooltah Chashmah",
            "category": "taarak_mehta",
            "thumbnail": "https://i.ytimg.com/vi/gU-wn0a5x5E/hq720.jpg"
        },
        {
            "id": "MZWzMlVENPE",
            "title": "KAISE HOGI GOKULDHAM KI INNAUGRATION PARTY ! | FULL MOVIE | Taarak Mehta Ka Ooltah Chashmah",
            "url": "https://www.youtube.com/watch?v=MZWzMlVENPE",
            "duration": 3489.0,
            "view_count": 61479,
            "uploader": "Taarak Mehta Ka Ooltah Chashmah",
            "category": "taarak_mehta",
            "thumbnail": "https://i.ytimg.com/vi/MZWzMlVENPE/hq720.jpg"
        },
        {
            "id": "akpxc63JVcw",
            "title": "भूत उतारने के लिए Anjali ने दिया Taarak को Tasty खाना |Taarak Mehta Ka Ooltah Chashmah |Karela Story",
            "url": "https://www.youtube.com/watch?v=akpxc63JVcw",
            "duration": 3507.0,
            "view_count": 4588,
            "uploader": "Taarak Mehta Ka Ooltah Chashmah Episodes",
            "category": "taarak_mehta",
            "thumbnail": "https://i.ytimg.com/vi/akpxc63JVcw/hq720.jpg"
        },
        {
            "id": "dtapMAZ5-iE",
            "title": "A Gift For Bapuji | Taarak Mehta Ka Ooltah Chashmah | Full Ep 4667 | 25 Mar 2026 | New Episode",
            "url": "https://www.youtube.com/watch?v=dtapMAZ5-iE",
            "duration": 1326.0,
            "view_count": 955047,
            "uploader": "Taarak Mehta Ka Ooltah Chashmah Episodes",
            "category": "taarak_mehta",
            "thumbnail": "https://i.ytimg.com/vi/dtapMAZ5-iE/hq720.jpg"
        },
        {
            "id": "tThEIzUDYvE",
            "title": "Kisne Pheka Jethya ke Upar नींबू पानी😂 ! | FULL MOVIE | Taarak Mehta Ka Ooltah Chashmah",
            "url": "https://www.youtube.com/watch?v=tThEIzUDYvE",
            "duration": 2264.0,
            "view_count": 45567,
            "uploader": "Taarak Mehta Ka Ooltah Chashmah",
            "category": "taarak_mehta",
            "thumbnail": "https://i.ytimg.com/vi/tThEIzUDYvE/hq720.jpg"
        },
        {
            "id": "KnmLD4Dq_PY",
            "title": "Kyu Kiya Bagha Ne Jethalal Ko Hypnotize | Taarak Mehta Ka Ooltah Chashmah",
            "url": "https://www.youtube.com/watch?v=KnmLD4Dq_PY",
            "duration": 3461.0,
            "view_count": 39512,
            "uploader": "Taarak Mehta Ka Ooltah Chashmah Episodes",
            "category": "taarak_mehta",
            "thumbnail": "https://i.ytimg.com/vi/KnmLD4Dq_PY/hq720.jpg"
        },
        {
            "id": "fxPNTlWgYUQ",
            "title": "Gents कैसे करेगी Mission Permission का आरंभ? | Taarak Mehta Ka Ooltah Chashmah | Party Sharty",
            "url": "https://www.youtube.com/watch?v=fxPNTlWgYUQ",
            "duration": 3727.0,
            "view_count": 12916,
            "uploader": "Taarak Mehta Ka Ooltah Chashmah Episodes",
            "category": "taarak_mehta",
            "thumbnail": "https://i.ytimg.com/vi/fxPNTlWgYUQ/hq720.jpg"
        },
        {
            "id": "N0WL2JdIijg",
            "title": "Chalu Ji ने क्यों किया Jetha से पूछताछ? | Taarak Mehta Ka Ooltah Chashmah | Popatlal's New Phone",
            "url": "https://www.youtube.com/watch?v=N0WL2JdIijg",
            "duration": 3570.0,
            "view_count": 40785,
            "uploader": "Taarak Mehta Ka Ooltah Chashmah Episodes",
            "category": "taarak_mehta",
            "thumbnail": "https://i.ytimg.com/vi/N0WL2JdIijg/hq720.jpg"
        },
        {
            "id": "eFQt7zAmwSY",
            "title": "Bhide Comes Looking For All-In-One Bhai | Taarak Mehta Ka Ooltah Chashmah | Full Episode",
            "url": "https://www.youtube.com/watch?v=eFQt7zAmwSY",
            "duration": 1247.0,
            "view_count": 7422,
            "uploader": "Taarak Mehta Ka Ooltah Chashmah Episodes",
            "category": "taarak_mehta",
            "thumbnail": "https://i.ytimg.com/vi/eFQt7zAmwSY/hq720.jpg"
        },
        {
            "id": "gCfOP92IycA",
            "title": "Bapuji ke Samne Daya ne Kholi Jethalal ki Pol ! | FULL MOVIE | Taarak Mehta Ka Ooltah Chashmah",
            "url": "https://www.youtube.com/watch?v=gCfOP92IycA",
            "duration": 2316.0,
            "view_count": 240621,
            "uploader": "Taarak Mehta Ka Ooltah Chashmah",
            "category": "taarak_mehta",
            "thumbnail": "https://i.ytimg.com/vi/gCfOP92IycA/hq720.jpg"
        },
        {
            "id": "LhRS9EApkDY",
            "title": "Bhide Gets A Letter From All-In-One Bhai | Taarak Mehta Ka Ooltah Chashmah | Full Episode",
            "url": "https://www.youtube.com/watch?v=LhRS9EApkDY",
            "duration": 1183.0,
            "view_count": 12766,
            "uploader": "Taarak Mehta Ka Ooltah Chashmah Episodes",
            "category": "taarak_mehta",
            "thumbnail": "https://i.ytimg.com/vi/LhRS9EApkDY/hq720.jpg"
        },
        {
            "id": "LXJKW6Y_Y74",
            "title": "Pinku Ke Maa Baap Kyu Bane Indian Spy  ! | FULL MOVIE | Taarak Mehta Ka Ooltah Chashmah",
            "url": "https://www.youtube.com/watch?v=LXJKW6Y_Y74",
            "duration": 3412.0,
            "view_count": 61629,
            "uploader": "Taarak Mehta Ka Ooltah Chashmah",
            "category": "taarak_mehta",
            "thumbnail": "https://i.ytimg.com/vi/LXJKW6Y_Y74/hq720.jpg"
        },
        {
            "id": "fweQVlckybU",
            "title": "Jetha Catches Bawri | Taarak Mehta Ka Ooltah Chashmah | Full Ep 4668 | 26 Mar 2026 | New Episode",
            "url": "https://www.youtube.com/watch?v=fweQVlckybU",
            "duration": 1305.0,
            "view_count": 812149,
            "uploader": "Taarak Mehta Ka Ooltah Chashmah Episodes",
            "category": "taarak_mehta",
            "thumbnail": "https://i.ytimg.com/vi/fweQVlckybU/hq720.jpg"
        },
        {
            "id": "1HwucDUeM5E",
            "title": "NEW! Ep 4668 -Society ke Kis प्रोग्राम ke liye उत्साही है महिला मंडल|Taarak Mehta ka Ooltah Chashmah",
            "url": "https://www.youtube.com/watch?v=1HwucDUeM5E",
            "duration": 620.0,
            "view_count": 950558,
            "uploader": "Taarak Mehta Ka Ooltah Chashmah",
            "category": "taarak_mehta",
            "thumbnail": "https://i.ytimg.com/vi/1HwucDUeM5E/hq720.jpg"
        },
        {
            "id": "awBNEh9X8Xs",
            "title": "All-In-One Bhai Threatens Gokuldham Residents | Taarak Mehta Ka Ooltah Chashmah | Full Episode",
            "url": "https://www.youtube.com/watch?v=awBNEh9X8Xs",
            "duration": 1213.0,
            "view_count": 39978,
            "uploader": "Taarak Mehta Ka Ooltah Chashmah Episodes",
            "category": "taarak_mehta",
            "thumbnail": "https://i.ytimg.com/vi/awBNEh9X8Xs/hq720.jpg"
        },
        {
            "id": "eQ62b4ft5xs",
            "title": "Ladies Try To Convince All-In-One Bhai | Taarak Mehta Ka Ooltah Chashmah | Full Episode",
            "url": "https://www.youtube.com/watch?v=eQ62b4ft5xs",
            "duration": 1199.0,
            "view_count": 1173,
            "uploader": "Taarak Mehta Ka Ooltah Chashmah Episodes",
            "category": "taarak_mehta",
            "thumbnail": "https://i.ytimg.com/vi/eQ62b4ft5xs/hq720.jpg"
        },
        {
            "id": "-rbengSbLJk",
            "title": "क्या Bhide को मिलेगी Party की Permission? | Taarak Mehta Ka Ooltah Chashmah | Party Sharty",
            "url": "https://www.youtube.com/watch?v=-rbengSbLJk",
            "duration": 3586.0,
            "view_count": 8923,
            "uploader": "Taarak Mehta Ka Ooltah Chashmah Episodes",
            "category": "taarak_mehta",
            "thumbnail": "https://i.ytimg.com/vi/-rbengSbLJk/hq720.jpg"
        },
        {
            "id": "zRlfktFswQA",
            "title": "Jethya ne kyu Kati Bapuji ko चुपके से Chimti ! | FULL MOVIE | Taarak Mehta Ka Ooltah Chashmah",
            "url": "https://www.youtube.com/watch?v=zRlfktFswQA",
            "duration": 3640.0,
            "view_count": 302082,
            "uploader": "Taarak Mehta Ka Ooltah Chashmah",
            "category": "taarak_mehta",
            "thumbnail": "https://i.ytimg.com/vi/zRlfktFswQA/hq720.jpg"
        },
        {
            "id": "lZZ_EQx4M-o",
            "title": "NEW! Ep 4669 - Popatlal kis Wajah se Hua Bhide pe Gussa! | Taarak Mehta ka Ooltah  Chashmah",
            "url": "https://www.youtube.com/watch?v=lZZ_EQx4M-o",
            "duration": 625.0,
            "view_count": 145442,
            "uploader": "TMKOC - MINISODES",
            "category": "taarak_mehta",
            "thumbnail": "https://i.ytimg.com/vi/lZZ_EQx4M-o/hq720_custom_3.jpg"
        },
        {
            "id": "7-3GLSuiab4",
            "title": "Jethalal Is Shocked To See Nattu Kaka | Taarak Mehta Ka Ooltah Chashmah | Full Episode 149",
            "url": "https://www.youtube.com/watch?v=7-3GLSuiab4",
            "duration": 1171.0,
            "view_count": 8964,
            "uploader": "Taarak Mehta Ka Ooltah Chashmah Episodes",
            "category": "taarak_mehta",
            "thumbnail": "https://i.ytimg.com/vi/7-3GLSuiab4/hq720.jpg"
        },
        {
            "id": "IYlAsGgXegM",
            "title": "NEW! Ep 4669 - Ram Navmi ke Mauke Par Popat ne Khada Kiya Hungama! | Taarak Mehta ka Ooltah Chashmah",
            "url": "https://www.youtube.com/watch?v=IYlAsGgXegM",
            "duration": 625.0,
            "view_count": 5558,
            "uploader": "Taarak Mehta Ka Ooltah Chashmah Episodes",
            "category": "taarak_mehta",
            "thumbnail": "https://i.ytimg.com/vi/IYlAsGgXegM/hq720_custom_1.jpg"
        },
        {
            "id": "Zw9D16rYXls",
            "title": "NEW! Ep 4669 - Ram Navmi ke Mauke Par Popat ne Khada Kiya Hungama! | Taarak Mehta ka Ooltah Chashmah",
            "url": "https://www.youtube.com/watch?v=Zw9D16rYXls",
            "duration": 625.0,
            "view_count": 1016265,
            "uploader": "Taarak Mehta Ka Ooltah Chashmah",
            "category": "taarak_mehta",
            "thumbnail": "https://i.ytimg.com/vi/Zw9D16rYXls/hq720.jpg"
        }
    ]
}