{
    "page": 7,
    "total_pages": 8,
    "total_items": 379,
    "items": [
        {
            "id": "mIYzvhHxAGI",
            "title": "Bhide & Popatlal's Fight | Taarak Mehta Ka Ooltah Chashmah | Full Ep 4677 | 6 Apr 2026 | New Episode",
            "url": "https://www.youtube.com/watch?v=mIYzvhHxAGI",
            "duration": 1356.0,
            "view_count": 886756,
            "uploader": "Taarak Mehta Ka Ooltah Chashmah Episodes",
            "category": "taarak_mehta",
            "thumbnail": "https://i.ytimg.com/vi/mIYzvhHxAGI/hqdefault.jpg"
        },
        {
            "id": "id7yraRODzo",
            "title": "Jethalal और Popatlal क्यों बने कुल्फ़ी वाले? | Taarak Mehta Ka Ooltah Chashmah | Bhide In Tension",
            "url": "https://www.youtube.com/watch?v=id7yraRODzo",
            "duration": 3433.0,
            "view_count": 16582,
            "uploader": "Taarak Mehta Ka Ooltah Chashmah Episodes",
            "category": "taarak_mehta",
            "thumbnail": "https://i.ytimg.com/vi/id7yraRODzo/hq720.jpg"
        },
        {
            "id": "9jqdkHX7xBg",
            "title": "अपना Plan भूलकर Residents को हुई कचोरी की Craving | Taarak Mehta Ka Ooltah Chashmah | Abdul Missing",
            "url": "https://www.youtube.com/watch?v=9jqdkHX7xBg",
            "duration": 3658.0,
            "view_count": 87641,
            "uploader": "Taarak Mehta Ka Ooltah Chashmah Episodes",
            "category": "taarak_mehta",
            "thumbnail": "https://i.ytimg.com/vi/9jqdkHX7xBg/hq720.jpg"
        },
        {
            "id": "A9Wj5RPwWdM",
            "title": "Daya ने Jethalal को दिया ढेर सारा काम | Taarak Mehta Ka Ooltah Chashmah | Jethalal Hungry",
            "url": "https://www.youtube.com/watch?v=A9Wj5RPwWdM",
            "duration": 3414.0,
            "view_count": 5262,
            "uploader": "Taarak Mehta Ka Ooltah Chashmah Episodes",
            "category": "taarak_mehta",
            "thumbnail": "https://i.ytimg.com/vi/A9Wj5RPwWdM/hq720.jpg"
        },
        {
            "id": "WS94avQSfiQ",
            "title": "Kaise laga 440 Ka Jhatka? | Taarak Mehta Ka Ooltah Chashmah | Full Movie",
            "url": "https://www.youtube.com/watch?v=WS94avQSfiQ",
            "duration": 3389.0,
            "view_count": 15141,
            "uploader": "Taarak Mehta Ka Ooltah Chashmah Episodes",
            "category": "taarak_mehta",
            "thumbnail": "https://i.ytimg.com/vi/WS94avQSfiQ/hq720.jpg"
        },
        {
            "id": "yuY67Nls_kA",
            "title": "Episode 597 - Taarak Mehta Ka Ooltah Chashmah - Full Episode | तारक मेहता का उल्टा चश्मा",
            "url": "https://www.youtube.com/watch?v=yuY67Nls_kA",
            "duration": 1304.0,
            "view_count": 25583455,
            "uploader": "Taarak Mehta Ka Ooltah Chashmah",
            "category": "taarak_mehta",
            "thumbnail": "https://i.ytimg.com/vi/yuY67Nls_kA/hq720.jpg"
        },
        {
            "id": "AImXZRwtBC8",
            "title": "FULL EPISODE! 4648 किस सिलसिले me Chutki baba se Milne पहुचा Popat | Taarak Mehta Ka Ooltah Chashmah",
            "url": "https://www.youtube.com/watch?v=AImXZRwtBC8",
            "duration": 1347.0,
            "view_count": 17268,
            "uploader": "Taarak Mehta Ka Ooltah Chashmah",
            "category": "taarak_mehta",
            "thumbnail": "https://i.ytimg.com/vi/AImXZRwtBC8/hq720.jpg"
        },
        {
            "id": "oFTRgKMNBDc",
            "title": "Bapuji ne Kyu Bola Jethya ko Jyotishi! | FULL MOVIE | Taarak Mehta Ka Ooltah Chashmah",
            "url": "https://www.youtube.com/watch?v=oFTRgKMNBDc",
            "duration": 3501.0,
            "view_count": 5527527,
            "uploader": "Taarak Mehta Ka Ooltah Chashmah",
            "category": "taarak_mehta",
            "thumbnail": "https://i.ytimg.com/vi/oFTRgKMNBDc/hq720.jpg"
        },
        {
            "id": "KfXPRxM8zGo",
            "title": "Jetha aur Bapuji ko Pata Chali Bhide ki Problem ! | FULL MOVIE | Taarak Mehta Ka Ooltah Chashmah",
            "url": "https://www.youtube.com/watch?v=KfXPRxM8zGo",
            "duration": 3209.0,
            "view_count": 446599,
            "uploader": "Taarak Mehta Ka Ooltah Chashmah",
            "category": "taarak_mehta",
            "thumbnail": "https://i.ytimg.com/vi/KfXPRxM8zGo/hq720.jpg"
        },
        {
            "id": "wT_mZBMWl1I",
            "title": "Bhide's Resignation | Taarak Mehta Ka Ooltah Chashmah | Full Ep 4678 | 7 Apr 2026 | New Episode",
            "url": "https://www.youtube.com/watch?v=wT_mZBMWl1I",
            "duration": 1347.0,
            "view_count": 853037,
            "uploader": "Taarak Mehta Ka Ooltah Chashmah Episodes",
            "category": "taarak_mehta",
            "thumbnail": "https://i.ytimg.com/vi/wT_mZBMWl1I/hq720.jpg"
        },
        {
            "id": "Qr1DNji_CdI",
            "title": "Jetha & Bapuji Got Afraid | Taarak Mehta Ka Ooltah Chashmah | Jetha Bapuji Special",
            "url": "https://www.youtube.com/watch?v=Qr1DNji_CdI",
            "duration": 1178.0,
            "view_count": 2167,
            "uploader": "Taarak Mehta Ka Ooltah Chashmah Episodes",
            "category": "taarak_mehta",
            "thumbnail": "https://i.ytimg.com/vi/Qr1DNji_CdI/hq720.jpg"
        },
        {
            "id": "d3VghodRCDQ",
            "title": "Gunde ne Kyu Maroda Bhide ka Haath | Taarak Mehta Ka Ooltah Chashmah | Full Movie",
            "url": "https://www.youtube.com/watch?v=d3VghodRCDQ",
            "duration": 3385.0,
            "view_count": 11758,
            "uploader": "Taarak Mehta Ka Ooltah Chashmah Episodes",
            "category": "taarak_mehta",
            "thumbnail": "https://i.ytimg.com/vi/d3VghodRCDQ/hq720.jpg"
        },
        {
            "id": "mq2ugRvcE00",
            "title": "Bhide पर क्यों भड़के Bapuji? | Taarak Mehta Ka Ooltah Chashmah | Mission Hathoda",
            "url": "https://www.youtube.com/watch?v=mq2ugRvcE00",
            "duration": 3543.0,
            "view_count": 69103,
            "uploader": "Taarak Mehta Ka Ooltah Chashmah Episodes",
            "category": "taarak_mehta",
            "thumbnail": "https://i.ytimg.com/vi/mq2ugRvcE00/hq720.jpg"
        },
        {
            "id": "1Zn3DHEaX60",
            "title": "Sundar ne di Jethalal ko Dhamki | Taarak Mehta Ka Ooltah Chashmah | Full Movie",
            "url": "https://www.youtube.com/watch?v=1Zn3DHEaX60",
            "duration": 3390.0,
            "view_count": 39873,
            "uploader": "Taarak Mehta Ka Ooltah Chashmah Episodes",
            "category": "taarak_mehta",
            "thumbnail": "https://i.ytimg.com/vi/1Zn3DHEaX60/hq720.jpg"
        },
        {
            "id": "1oMHv1CK1xE",
            "title": "Jethalal ke Ghar चक्कर आके गिर गया Bhide 😮! | FULL MOVIE | Taarak Mehta Ka Ooltah Chashmah",
            "url": "https://www.youtube.com/watch?v=1oMHv1CK1xE",
            "duration": 3386.0,
            "view_count": 441913,
            "uploader": "Taarak Mehta Ka Ooltah Chashmah",
            "category": "taarak_mehta",
            "thumbnail": "https://i.ytimg.com/vi/1oMHv1CK1xE/hq720.jpg"
        },
        {
            "id": "YQQXx6lFLKs",
            "title": "Kisko Dekh kr Bhide Darr raha hai ! | FULL MOVIE | Taarak Mehta Ka Ooltah Chashmah",
            "url": "https://www.youtube.com/watch?v=YQQXx6lFLKs",
            "duration": 3523.0,
            "view_count": 23942,
            "uploader": "Taarak Mehta Ka Ooltah Chashmah",
            "category": "taarak_mehta",
            "thumbnail": "https://i.ytimg.com/vi/YQQXx6lFLKs/hq720.jpg"
        },
        {
            "id": "JRMUNeRZZW4",
            "title": "Popatlal kaise aaya Bhide ke scooter ke niche ? | FULL MOVIE | Taarak Mehta Ka Ooltah Chashmah",
            "url": "https://www.youtube.com/watch?v=JRMUNeRZZW4",
            "duration": 3604.0,
            "view_count": 111724,
            "uploader": "Taarak Mehta Ka Ooltah Chashmah",
            "category": "taarak_mehta",
            "thumbnail": "https://i.ytimg.com/vi/JRMUNeRZZW4/hq720.jpg"
        },
        {
            "id": "AcTZaGpXgfw",
            "title": "Bhide Blames Popatlal | Taarak Mehta Ka Ooltah Chashmah | Full Ep 4679 | 8 Apr 2026 | New Episode",
            "url": "https://www.youtube.com/watch?v=AcTZaGpXgfw",
            "duration": 1324.0,
            "view_count": 996294,
            "uploader": "Taarak Mehta Ka Ooltah Chashmah Episodes",
            "category": "taarak_mehta",
            "thumbnail": "https://i.ytimg.com/vi/AcTZaGpXgfw/hq720.jpg"
        },
        {
            "id": "CUoxpiDJeFw",
            "title": "Jethalal ne toda Nariyal | Taarak Mehta Ka Ooltah Chashmah | Full Movie",
            "url": "https://www.youtube.com/watch?v=CUoxpiDJeFw",
            "duration": 3106.0,
            "view_count": 37016,
            "uploader": "Taarak Mehta Ka Ooltah Chashmah Episodes",
            "category": "taarak_mehta",
            "thumbnail": "https://i.ytimg.com/vi/CUoxpiDJeFw/hq720.jpg"
        },
        {
            "id": "HdDamwjr2B4",
            "title": "Jethalal को पता चला Tapu का Secret Plan | Taarak Mehta Ka Ooltah Chashmah | Mission Hathoda",
            "url": "https://www.youtube.com/watch?v=HdDamwjr2B4",
            "duration": 3441.0,
            "view_count": 55307,
            "uploader": "Taarak Mehta Ka Ooltah Chashmah Episodes",
            "category": "taarak_mehta",
            "thumbnail": "https://i.ytimg.com/vi/HdDamwjr2B4/hq720.jpg"
        },
        {
            "id": "sN1QeOd4ZBM",
            "title": "Bhide को Don Baadal से वापस मिला Scooter | Taarak Mehta Ka Ooltah Chashmah | Bhide In Tension",
            "url": "https://www.youtube.com/watch?v=sN1QeOd4ZBM",
            "duration": 3094.0,
            "view_count": 14267,
            "uploader": "Taarak Mehta Ka Ooltah Chashmah Episodes",
            "category": "taarak_mehta",
            "thumbnail": "https://i.ytimg.com/vi/sN1QeOd4ZBM/hq720.jpg"
        },
        {
            "id": "R01WvKGiYiY",
            "title": "Jethalal Ke Bhaitne Par Tut Gaya Sofa ! | FULL MOVIE | Taarak Mehta Ka Ooltah Chashmah",
            "url": "https://www.youtube.com/watch?v=R01WvKGiYiY",
            "duration": 3303.0,
            "view_count": 739476,
            "uploader": "Taarak Mehta Ka Ooltah Chashmah",
            "category": "taarak_mehta",
            "thumbnail": "https://i.ytimg.com/vi/R01WvKGiYiY/hq720.jpg?sqp=-oaymwEcCNAFEJQDSFXyq4qpAw4IARUAAIhCGAFwAcABBg==&rs=AOn4CLAqt1YWrGp86s-wu70vqhe_jD6n2w",
            "added_date": "2026-04-16T07:31:41.970541Z",
            "source": "youtube"
        },
        {
            "id": "Pw08IJ70d-M",
            "title": "Kiska tiffin Jethalal chhin ke kha raha hai | Taarak Mehta Ka Ooltah Chashamh | Ep. 98",
            "url": "https://www.youtube.com/watch?v=Pw08IJ70d-M",
            "duration": 615.0,
            "view_count": 2251,
            "uploader": "Taarak Mehta Ka Ooltah Chashmah Episodes",
            "category": "taarak_mehta",
            "thumbnail": "https://i.ytimg.com/vi/Pw08IJ70d-M/hq720.jpg"
        },
        {
            "id": "wqIEnHfmio4",
            "title": "The Real Culprit Gets Arrested | Taarak Mehta Ka Ooltah Chashmah | Jetha Bapuji Special",
            "url": "https://www.youtube.com/watch?v=wqIEnHfmio4",
            "duration": 1094.0,
            "view_count": 2880,
            "uploader": "Taarak Mehta Ka Ooltah Chashmah Episodes",
            "category": "taarak_mehta",
            "thumbnail": "https://i.ytimg.com/vi/wqIEnHfmio4/hq720.jpg"
        },
        {
            "id": "2fv7Ofr_At8",
            "title": "Popat Apologizes To Bhide | Taarak Mehta Ka Ooltah Chashmah| Full Ep 4680 | 9 Apr 2026 | New Episode",
            "url": "https://www.youtube.com/watch?v=2fv7Ofr_At8",
            "duration": 1238.0,
            "view_count": 939857,
            "uploader": "Taarak Mehta Ka Ooltah Chashmah Episodes",
            "category": "taarak_mehta",
            "thumbnail": "https://i.ytimg.com/vi/2fv7Ofr_At8/hq720.jpg"
        },
        {
            "id": "pojjZfMqdPk",
            "title": "Bagha ne Jethalal ko Driving Seat se Kyu Utara | FULL MOVIE | Taarak Mehta Ka Ooltah Chashmah",
            "url": "https://www.youtube.com/watch?v=pojjZfMqdPk",
            "duration": 3336.0,
            "view_count": 9791,
            "uploader": "Taarak Mehta Ka Ooltah Chashmah",
            "category": "taarak_mehta",
            "thumbnail": "https://i.ytimg.com/vi/pojjZfMqdPk/hq720.jpg"
        },
        {
            "id": "eDMoFNK6LC8",
            "title": "Jethalal Gets Arrested | Taarak Mehta Ka Ooltah Chashmah | Full Episode",
            "url": "https://www.youtube.com/watch?v=eDMoFNK6LC8",
            "duration": 2314.0,
            "view_count": 12281,
            "uploader": "Taarak Mehta Ka Ooltah Chashmah Episodes",
            "category": "taarak_mehta",
            "thumbnail": "https://i.ytimg.com/vi/eDMoFNK6LC8/hq720.jpg"
        },
        {
            "id": "41QPnes59x0",
            "title": "Jethalal Konsi Scheme se hua Gussa ? | FULL MOVIE | Taarak Mehta Ka Ooltah Chashmah",
            "url": "https://www.youtube.com/watch?v=41QPnes59x0",
            "duration": 3349.0,
            "view_count": 49160,
            "uploader": "Taarak Mehta Ka Ooltah Chashmah",
            "category": "taarak_mehta",
            "thumbnail": "https://i.ytimg.com/vi/41QPnes59x0/hq720.jpg"
        },
        {
            "id": "5pSMzdti1Ag",
            "title": "Jethalal ke pass kaha se aaya ye अनमोल रत्न ? | FULL MOVIE | Taarak Mehta Ka Ooltah Chashmah",
            "url": "https://www.youtube.com/watch?v=5pSMzdti1Ag",
            "duration": 3538.0,
            "view_count": 86305,
            "uploader": "Taarak Mehta Ka Ooltah Chashmah",
            "category": "taarak_mehta",
            "thumbnail": "https://i.ytimg.com/vi/5pSMzdti1Ag/hq720.jpg"
        },
        {
            "id": "bwCG4V0kdv0",
            "title": "FULL EPISODE! 4651 -  Babita Ji Ko Dhoond Payega Jethalal? | Taarak Mehta Ka Ooltah Chashmah",
            "url": "https://www.youtube.com/watch?v=bwCG4V0kdv0",
            "duration": 1331.0,
            "view_count": 19127,
            "uploader": "Taarak Mehta Ka Ooltah Chashmah",
            "category": "taarak_mehta",
            "thumbnail": "https://i.ytimg.com/vi/bwCG4V0kdv0/hq720.jpg"
        },
        {
            "id": "UTErPkUVpIg",
            "title": "Haathi ne kiya Popat ka Ilaaj | Taarak Mehta Ka Ooltah Chashmah | Full Movie",
            "url": "https://www.youtube.com/watch?v=UTErPkUVpIg",
            "duration": 2892.0,
            "view_count": 30405,
            "uploader": "Taarak Mehta Ka Ooltah Chashmah Episodes",
            "category": "taarak_mehta",
            "thumbnail": "https://i.ytimg.com/vi/UTErPkUVpIg/hq720.jpg"
        },
        {
            "id": "iP1HrrIYhW4",
            "title": "Kisse marne Dauda Jethalal | Taarak Mehta Ka Ooltah Chashmah | Full Movie",
            "url": "https://www.youtube.com/watch?v=iP1HrrIYhW4",
            "duration": 2771.0,
            "view_count": 8868,
            "uploader": "Taarak Mehta Ka Ooltah Chashmah Episodes",
            "category": "taarak_mehta",
            "thumbnail": "https://i.ytimg.com/vi/iP1HrrIYhW4/hq720.jpg"
        },
        {
            "id": "QvKj7uYEMVk",
            "title": "Search For A Contractor | Taarak Mehta Ka Ooltah Chashmah | Full Ep 4681 | 10 Apr 2026 | New Episode",
            "url": "https://www.youtube.com/watch?v=QvKj7uYEMVk",
            "duration": 841.0,
            "view_count": 831881,
            "uploader": "Taarak Mehta Ka Ooltah Chashmah Episodes",
            "category": "taarak_mehta",
            "thumbnail": "https://i.ytimg.com/vi/QvKj7uYEMVk/hqdefault.jpg"
        },
        {
            "id": "OnzXJ9ubtwc",
            "title": "Tempo me बैठकर Kyu aaye Jetha aur Popatlal! | FULL MOVIE | Taarak Mehta Ka Ooltah Chashmah",
            "url": "https://www.youtube.com/watch?v=OnzXJ9ubtwc",
            "duration": 3359.0,
            "view_count": 155794,
            "uploader": "Taarak Mehta Ka Ooltah Chashmah",
            "category": "taarak_mehta",
            "thumbnail": "https://i.ytimg.com/vi/OnzXJ9ubtwc/hq720.jpg?sqp=-oaymwEcCNAFEJQDSFXyq4qpAw4IARUAAIhCGAFwAcABBg==&rs=AOn4CLCjzGWQHTw9nO-kV9MNkiL8aWqsaA",
            "added_date": "2026-04-16T07:31:42.170945Z",
            "source": "youtube"
        },
        {
            "id": "bBZy8s6Pl68",
            "title": "कैसी होगी Gokuldham वालों की Surprise Ice Cream Party? | Taarak Mehta Ka Ooltah Chashmah | Party",
            "url": "https://www.youtube.com/watch?v=bBZy8s6Pl68",
            "duration": 2424.0,
            "view_count": 87288,
            "uploader": "Taarak Mehta Ka Ooltah Chashmah Episodes",
            "category": "taarak_mehta",
            "thumbnail": "https://i.ytimg.com/vi/bBZy8s6Pl68/hq720.jpg"
        },
        {
            "id": "F6yvl9ksbEo",
            "title": "Bhide ने क्यों बुलाई Society की Urgent Meeting | Taarak Mehta Ka Ooltah Chashmah | Abdul Missing",
            "url": "https://www.youtube.com/watch?v=F6yvl9ksbEo",
            "duration": 3685.0,
            "view_count": 5837,
            "uploader": "Taarak Mehta Ka Ooltah Chashmah Episodes",
            "category": "taarak_mehta",
            "thumbnail": "https://i.ytimg.com/vi/F6yvl9ksbEo/hq720.jpg"
        },
        {
            "id": "aLmI7j0AM64",
            "title": "Jethalal Is Worried | Taarak Mehta Ka Ooltah Chashmah | Full Episode",
            "url": "https://www.youtube.com/watch?v=aLmI7j0AM64",
            "duration": 1224.0,
            "view_count": 4217,
            "uploader": "Taarak Mehta Ka Ooltah Chashmah Episodes",
            "category": "taarak_mehta",
            "thumbnail": "https://i.ytimg.com/vi/aLmI7j0AM64/hq720.jpg"
        },
        {
            "id": "t-3ULDykfsU",
            "title": "Bhide ने समझाया Ganpat को लड़कियों की पढ़ाई का महत्व | Taarak Mehta Ka Ooltah Chashmah | Education",
            "url": "https://www.youtube.com/watch?v=t-3ULDykfsU",
            "duration": 3595.0,
            "view_count": 11317,
            "uploader": "Taarak Mehta Ka Ooltah Chashmah Episodes",
            "category": "taarak_mehta",
            "thumbnail": "https://i.ytimg.com/vi/t-3ULDykfsU/hq720.jpg"
        },
        {
            "id": "tA6DtgtIIUw",
            "title": "Daya ne liya Jethalali ka Interview | Taarak Mehta Ka Ooltah Chashmah | Full Movie",
            "url": "https://www.youtube.com/watch?v=tA6DtgtIIUw",
            "duration": 3304.0,
            "view_count": 6665,
            "uploader": "Taarak Mehta Ka Ooltah Chashmah Episodes",
            "category": "taarak_mehta",
            "thumbnail": "https://i.ytimg.com/vi/tA6DtgtIIUw/hq720.jpg"
        },
        {
            "id": "R13_-qIIB30",
            "title": "Iyer ne maari Tapli | Taarak Mehta Ka Ooltah Chashmah | Full Movie",
            "url": "https://www.youtube.com/watch?v=R13_-qIIB30",
            "duration": 3346.0,
            "view_count": 20928,
            "uploader": "Taarak Mehta Ka Ooltah Chashmah Episodes",
            "category": "taarak_mehta",
            "thumbnail": "https://i.ytimg.com/vi/R13_-qIIB30/hq720.jpg"
        },
        {
            "id": "GpTXjoTjmbU",
            "title": "Tapu Sena को ढूँढने निकली Purush Mandali | Taarak Mehta Ka Ooltah Chashmah | Mission Hathoda",
            "url": "https://www.youtube.com/watch?v=GpTXjoTjmbU",
            "duration": 2481.0,
            "view_count": 20002,
            "uploader": "Taarak Mehta Ka Ooltah Chashmah Episodes",
            "category": "taarak_mehta",
            "thumbnail": "https://i.ytimg.com/vi/GpTXjoTjmbU/hq720.jpg"
        },
        {
            "id": "vyiQcvmqsx8",
            "title": "Morning Walk Bolkar kaha Ja rahe hai Purush Mandli ? | FULL MOVIE | Taarak Mehta Ka Ooltah Chashmah",
            "url": "https://www.youtube.com/watch?v=vyiQcvmqsx8",
            "duration": 3518.0,
            "view_count": 338916,
            "uploader": "Taarak Mehta Ka Ooltah Chashmah",
            "category": "taarak_mehta",
            "thumbnail": "https://i.ytimg.com/vi/vyiQcvmqsx8/hq720.jpg"
        },
        {
            "id": "Xg7WkxRvQA4",
            "title": "Kyu kiya Tapu ne sir Ganjaa | Taarak Mehta Ka Ooltah Chashmah | Full Movie",
            "url": "https://www.youtube.com/watch?v=Xg7WkxRvQA4",
            "duration": 2948.0,
            "view_count": 3218,
            "uploader": "Taarak Mehta Ka Ooltah Chashmah Episodes",
            "category": "taarak_mehta",
            "thumbnail": "https://i.ytimg.com/vi/Xg7WkxRvQA4/hq720.jpg"
        },
        {
            "id": "lUKWBDZ_9Ms",
            "title": "Sodhi और Roshan की हुई लड़ाई, पूरी Colony परेशान | Taarak Mehta Ka Ooltah Chashmah | Bhide's Advice",
            "url": "https://www.youtube.com/watch?v=lUKWBDZ_9Ms",
            "duration": 3615.0,
            "view_count": 9100,
            "uploader": "Taarak Mehta Ka Ooltah Chashmah Episodes",
            "category": "taarak_mehta",
            "thumbnail": "https://i.ytimg.com/vi/lUKWBDZ_9Ms/hq720.jpg"
        },
        {
            "id": "hfBS8dTYYyg",
            "title": "Jetha ने दिखाई Bapuji को कैसी Advertisement? | Taarak Mehta Ka Ooltah Chashmah | Renovation Chaos",
            "url": "https://www.youtube.com/watch?v=hfBS8dTYYyg",
            "duration": 2287.0,
            "view_count": 1865,
            "uploader": "Taarak Mehta Ka Ooltah Chashmah Episodes",
            "category": "taarak_mehta",
            "thumbnail": "https://i.ytimg.com/vi/hfBS8dTYYyg/hq720.jpg"
        },
        {
            "id": "f6rTbn6vXPA",
            "title": "Bhide की नसीब चमकी, मिले एक लाख | Taarak Mehta Ka Ooltah Chashmah | Bhide Gets Lucky",
            "url": "https://www.youtube.com/watch?v=f6rTbn6vXPA",
            "duration": 3664.0,
            "view_count": 38306,
            "uploader": "Taarak Mehta Ka Ooltah Chashmah Episodes",
            "category": "taarak_mehta",
            "thumbnail": "https://i.ytimg.com/vi/f6rTbn6vXPA/hq720.jpg"
        },
        {
            "id": "oEJMpznpbUU",
            "title": "Kaise Hui Goli ke ye halat ? | FULL MOVIE | Taarak Mehta Ka Ooltah Chashmah",
            "url": "https://www.youtube.com/watch?v=oEJMpznpbUU",
            "duration": 3042.0,
            "view_count": 293291,
            "uploader": "Taarak Mehta Ka Ooltah Chashmah",
            "category": "taarak_mehta",
            "thumbnail": "https://i.ytimg.com/vi/oEJMpznpbUU/hq720.jpg"
        },
        {
            "id": "gYnCGk_lKLk",
            "title": "Society Maintenance | Taarak Mehta Ka Ooltah Chashmah | Full Ep 4682 | 11 Apr 2026 | New Episode",
            "url": "https://www.youtube.com/watch?v=gYnCGk_lKLk",
            "duration": 1106.0,
            "view_count": 983077,
            "uploader": "Taarak Mehta Ka Ooltah Chashmah Episodes",
            "category": "taarak_mehta",
            "thumbnail": "https://i.ytimg.com/vi/gYnCGk_lKLk/hq720.jpg"
        },
        {
            "id": "3fWg28dc35A",
            "title": "Undercover Police | Taarak Mehta Ka Ooltah Chashmah | Full Movie",
            "url": "https://www.youtube.com/watch?v=3fWg28dc35A",
            "duration": 3415.0,
            "view_count": 61262,
            "uploader": "Taarak Mehta Ka Ooltah Chashmah Episodes",
            "category": "taarak_mehta",
            "thumbnail": "https://i.ytimg.com/vi/3fWg28dc35A/hq720.jpg"
        },
        {
            "id": "EFKvP_4Y0TA",
            "title": "Bapuji ne Kyu Pehnaya Jethalal ko Medal ! | FULL MOVIE | Taarak Mehta Ka Ooltah Chashmah",
            "url": "https://www.youtube.com/watch?v=EFKvP_4Y0TA",
            "duration": 2248.0,
            "view_count": 199668,
            "uploader": "Taarak Mehta Ka Ooltah Chashmah",
            "category": "taarak_mehta",
            "thumbnail": "https://i.ytimg.com/vi/EFKvP_4Y0TA/hq720.jpg"
        }
    ]
}