{
    "page": 6,
    "total_pages": 8,
    "total_items": 379,
    "items": [
        {
            "id": "OMJlNFq9jLg",
            "title": "NEW! Ep 4673 - Kya Sunkar उड़ गए Jethalal ke Hosh! | Taarak Mehta ka Ooltah  Chashmah",
            "url": "https://www.youtube.com/watch?v=OMJlNFq9jLg",
            "duration": 621.0,
            "view_count": 621557,
            "uploader": "TMKOC - MINISODES",
            "category": "taarak_mehta",
            "thumbnail": "https://i.ytimg.com/vi/OMJlNFq9jLg/hq720.jpg"
        },
        {
            "id": "IWJF6E6RnK0",
            "title": "NEW! Ep 4674 - Bhide ke Ankho ke Samne Ho Gayi Badi Anhoni! | Taarak Mehta ka Ooltah Chashmah",
            "url": "https://www.youtube.com/watch?v=IWJF6E6RnK0",
            "duration": 614.0,
            "view_count": 15477,
            "uploader": "Taarak Mehta Ka Ooltah Chashmah Episodes",
            "category": "taarak_mehta",
            "thumbnail": "https://i.ytimg.com/vi/IWJF6E6RnK0/hq720.jpg"
        },
        {
            "id": "hOO8V2uhgCg",
            "title": "Kisne Karwa Diya Iyer ko उठक-बैठक ! | FULL MOVIE | Taarak Mehta Ka Ooltah Chashmah",
            "url": "https://www.youtube.com/watch?v=hOO8V2uhgCg",
            "duration": 2223.0,
            "view_count": 429609,
            "uploader": "Taarak Mehta Ka Ooltah Chashmah",
            "category": "taarak_mehta",
            "thumbnail": "https://i.ytimg.com/vi/hOO8V2uhgCg/hq720.jpg"
        },
        {
            "id": "9q0YOqVlUvY",
            "title": "Chutki Bajakar Kisko Challenge kar raha hai Jethya ! | FULL MOVIE | Taarak Mehta Ka Ooltah Chashmah",
            "url": "https://www.youtube.com/watch?v=9q0YOqVlUvY",
            "duration": 2263.0,
            "view_count": 6178268,
            "uploader": "Taarak Mehta Ka Ooltah Chashmah",
            "category": "taarak_mehta",
            "thumbnail": "https://i.ytimg.com/vi/9q0YOqVlUvY/hq720.jpg?sqp=-oaymwEcCNAFEJQDSFXyq4qpAw4IARUAAIhCGAFwAcABBg==&rs=AOn4CLBtxWzXW9JaC4kYpsZwGRDyjrg1ew",
            "added_date": "2026-04-16T07:31:41.569813Z",
            "source": "youtube"
        },
        {
            "id": "JL3qzeZiIvM",
            "title": "A Delay In The Plan | Taarak Mehta Ka Ooltah Chashmah | Full Ep 4674 | 2 Apr 2026 | New Episode",
            "url": "https://www.youtube.com/watch?v=JL3qzeZiIvM",
            "duration": 1287.0,
            "view_count": 804445,
            "uploader": "Taarak Mehta Ka Ooltah Chashmah Episodes",
            "category": "taarak_mehta",
            "thumbnail": "https://i.ytimg.com/vi/JL3qzeZiIvM/hqdefault.jpg"
        },
        {
            "id": "N4wZwU-1mrw",
            "title": "Jethalal ne uthaya Iyyer se gale milne ka Fayda | Taarak Mehta Ka Ooltah Chashmah | Full Movie",
            "url": "https://www.youtube.com/watch?v=N4wZwU-1mrw",
            "duration": 3765.0,
            "view_count": 77564,
            "uploader": "Taarak Mehta Ka Ooltah Chashmah Episodes",
            "category": "taarak_mehta",
            "thumbnail": "https://i.ytimg.com/vi/N4wZwU-1mrw/hq720.jpg"
        },
        {
            "id": "-iw2K3NQXpg",
            "title": "Daya ne kiske khilaf Bhadkaya Jethalal ko | Taarak Mehta Ka Ooltah Chashmah | Full Movie",
            "url": "https://www.youtube.com/watch?v=-iw2K3NQXpg",
            "duration": 3747.0,
            "view_count": 20901,
            "uploader": "Taarak Mehta Ka Ooltah Chashmah Episodes",
            "category": "taarak_mehta",
            "thumbnail": "https://i.ytimg.com/vi/-iw2K3NQXpg/hq720.jpg"
        },
        {
            "id": "yXMaIYXqEgI",
            "title": "Bagha ne Chupa Ke Rakha Jethalal ka Secret  ! | FULL MOVIE | Taarak Mehta Ka Ooltah Chashmah",
            "url": "https://www.youtube.com/watch?v=yXMaIYXqEgI",
            "duration": 2208.0,
            "view_count": 20173,
            "uploader": "Taarak Mehta Ka Ooltah Chashmah",
            "category": "taarak_mehta",
            "thumbnail": "https://i.ytimg.com/vi/yXMaIYXqEgI/hq720.jpg"
        },
        {
            "id": "QrkfN_P80IA",
            "title": "Bhide aur Jethalal ka Bhaichara! | Taarak Mehta Ka Ooltah Chashmah | Full Movie",
            "url": "https://www.youtube.com/watch?v=QrkfN_P80IA",
            "duration": 2945.0,
            "view_count": 56587,
            "uploader": "Taarak Mehta Ka Ooltah Chashmah Episodes",
            "category": "taarak_mehta",
            "thumbnail": "https://i.ytimg.com/vi/QrkfN_P80IA/hq720.jpg"
        },
        {
            "id": "mfJHm1FkzRE",
            "title": "Bhide Ki नई Car का Celebration | Taarak Mehta Ka Ooltah Chashmah | Bhide Ki Car",
            "url": "https://www.youtube.com/watch?v=mfJHm1FkzRE",
            "duration": 3611.0,
            "view_count": 20749,
            "uploader": "Taarak Mehta Ka Ooltah Chashmah Episodes",
            "category": "taarak_mehta",
            "thumbnail": "https://i.ytimg.com/vi/mfJHm1FkzRE/hq720.jpg"
        },
        {
            "id": "Rd3PZ0DWhZk",
            "title": "NEW! Ep 4675 - Kaise hua Popatlal ke Ghar me Itna Saara Leakage! | Taarak Mehta ka Ooltah Chashmah",
            "url": "https://www.youtube.com/watch?v=Rd3PZ0DWhZk",
            "duration": 658.0,
            "view_count": 1575250,
            "uploader": "Taarak Mehta Ka Ooltah Chashmah",
            "category": "taarak_mehta",
            "thumbnail": "https://i.ytimg.com/vi/Rd3PZ0DWhZk/hq720.jpg"
        },
        {
            "id": "VJfkvEkPovs",
            "title": "Bhide ne Rakha Bapuji ke कंधे पर हाथ ! | FULL MOVIE | Taarak Mehta Ka Ooltah Chashmah",
            "url": "https://www.youtube.com/watch?v=VJfkvEkPovs",
            "duration": 3407.0,
            "view_count": 140090,
            "uploader": "Taarak Mehta Ka Ooltah Chashmah",
            "category": "taarak_mehta",
            "thumbnail": "https://i.ytimg.com/vi/VJfkvEkPovs/hq720.jpg"
        },
        {
            "id": "g_MWM4kL1Ko",
            "title": "Taarak Mehta Ka Ooltah Chashmah - Episode 1110 - Full Episode",
            "url": "https://www.youtube.com/watch?v=g_MWM4kL1Ko",
            "duration": 1157.0,
            "view_count": 3956903,
            "uploader": "Taarak Mehta Ka Ooltah Chashmah Episodes",
            "category": "taarak_mehta",
            "thumbnail": "https://i.ytimg.com/vi/g_MWM4kL1Ko/hq720.jpg"
        },
        {
            "id": "utmrd8WQwyk",
            "title": "Popatlal ne kyu diye Bhide ko Paise | Taarak Mehta Ka Ooltah Chashmah | Full Movie",
            "url": "https://www.youtube.com/watch?v=utmrd8WQwyk",
            "duration": 3508.0,
            "view_count": 5021,
            "uploader": "Taarak Mehta Ka Ooltah Chashmah Episodes",
            "category": "taarak_mehta",
            "thumbnail": "https://i.ytimg.com/vi/utmrd8WQwyk/hq720.jpg"
        },
        {
            "id": "8txjcZlEIqM",
            "title": "किसने तोड़ा दिया Bhide का Sakharam? | Taarak Mehta Ka Ooltah Chashmah | Bhide Ka Sakharam",
            "url": "https://www.youtube.com/watch?v=8txjcZlEIqM",
            "duration": 3578.0,
            "view_count": 3792,
            "uploader": "Taarak Mehta Ka Ooltah Chashmah Episodes",
            "category": "taarak_mehta",
            "thumbnail": "https://i.ytimg.com/vi/8txjcZlEIqM/hq720.jpg"
        },
        {
            "id": "8lSBSfajrv0",
            "title": "NEW! Ep 4675 - Kaise hua Popatlal ke Ghar me Itna Saara Leakage! | Taarak Mehta ka Ooltah Chashmah",
            "url": "https://www.youtube.com/watch?v=8lSBSfajrv0",
            "duration": 658.0,
            "view_count": 7365,
            "uploader": "Taarak Mehta Ka Ooltah Chashmah Episodes",
            "category": "taarak_mehta",
            "thumbnail": "https://i.ytimg.com/vi/8lSBSfajrv0/hq720.jpg"
        },
        {
            "id": "zLUcU46Gz7A",
            "title": "Popatlal Gets Hurt | Taarak Mehta Ka Ooltah Chashmah | Full Ep 4675 | 3 Apr 2026 | New Episode",
            "url": "https://www.youtube.com/watch?v=zLUcU46Gz7A",
            "duration": 1361.0,
            "view_count": 770893,
            "uploader": "Taarak Mehta Ka Ooltah Chashmah Episodes",
            "category": "taarak_mehta",
            "thumbnail": "https://i.ytimg.com/vi/zLUcU46Gz7A/hqdefault.jpg"
        },
        {
            "id": "JDNt8qS3n0M",
            "title": "Can The Bhide Family Sell All The Chocolates? | Taarak Mehta Ka Ooltah Chashmah | Full Episode",
            "url": "https://www.youtube.com/watch?v=JDNt8qS3n0M",
            "duration": 1219.0,
            "view_count": 26558,
            "uploader": "Taarak Mehta Ka Ooltah Chashmah Episodes",
            "category": "taarak_mehta",
            "thumbnail": "https://i.ytimg.com/vi/JDNt8qS3n0M/hq720.jpg"
        },
        {
            "id": "m3RhUHJxfPA",
            "title": "Bhide Ko Kyu Chahiye Itne Sare Tamatar ! | FULL MOVIE | Taarak Mehta Ka Ooltah Chashmah",
            "url": "https://www.youtube.com/watch?v=m3RhUHJxfPA",
            "duration": 3148.0,
            "view_count": 2440267,
            "uploader": "Taarak Mehta Ka Ooltah Chashmah",
            "category": "taarak_mehta",
            "thumbnail": "https://i.ytimg.com/vi/m3RhUHJxfPA/hq720.jpg"
        },
        {
            "id": "TC2Tm0PHzwI",
            "title": "मंजन गिराने की गलती Bhide को पड़ेगी महंगी! | Taarak Mehta Ka Ooltah Chashmah | Bhide's Door",
            "url": "https://www.youtube.com/watch?v=TC2Tm0PHzwI",
            "duration": 3656.0,
            "view_count": 13038,
            "uploader": "Taarak Mehta Ka Ooltah Chashmah Episodes",
            "category": "taarak_mehta",
            "thumbnail": "https://i.ytimg.com/vi/TC2Tm0PHzwI/hq720.jpg"
        },
        {
            "id": "roj2lKtXt8E",
            "title": "Jethalal aur Mehta Suitcase leke kaha ja rahe hai  ! | FULL MOVIE | Taarak Mehta Ka Ooltah Chashmah",
            "url": "https://www.youtube.com/watch?v=roj2lKtXt8E",
            "duration": 3393.0,
            "view_count": 246016,
            "uploader": "Taarak Mehta Ka Ooltah Chashmah",
            "category": "taarak_mehta",
            "thumbnail": "https://i.ytimg.com/vi/roj2lKtXt8E/hq720.jpg"
        },
        {
            "id": "C0N3Vym-8gE",
            "title": "Anjali ne Khilaya Jetha ko Diet Food! | FULL MOVIE | Taarak Mehta Ka Ooltah Chashmah",
            "url": "https://www.youtube.com/watch?v=C0N3Vym-8gE",
            "duration": 2286.0,
            "view_count": 517059,
            "uploader": "Taarak Mehta Ka Ooltah Chashmah",
            "category": "taarak_mehta",
            "thumbnail": "https://i.ytimg.com/vi/C0N3Vym-8gE/hq720.jpg"
        },
        {
            "id": "4iq46eKs8cg",
            "title": "FULL EPISODE! 4646 - Anjali Se Kya Chupa Raha Hai Tarak! | Taarak Mehta Ka Ooltah Chashmah",
            "url": "https://www.youtube.com/watch?v=4iq46eKs8cg",
            "duration": 1304.0,
            "view_count": 25135,
            "uploader": "Taarak Mehta Ka Ooltah Chashmah",
            "category": "taarak_mehta",
            "thumbnail": "https://i.ytimg.com/vi/4iq46eKs8cg/hq720.jpg"
        },
        {
            "id": "oqlNx0TDSy8",
            "title": "Ep 1548 - Taarak Mehta Ka Ooltah Chashmah | Full Episode | तारक मेहता का उल्टा चश्मा",
            "url": "https://www.youtube.com/watch?v=oqlNx0TDSy8",
            "duration": 1320.0,
            "view_count": 8948261,
            "uploader": "Taarak Mehta Ka Ooltah Chashmah",
            "category": "taarak_mehta",
            "thumbnail": "https://i.ytimg.com/vi/oqlNx0TDSy8/hq720.jpg"
        },
        {
            "id": "Q-9m_oTycRk",
            "title": "Mahila Mandal ने Society में लगाई Race | Taarak Mehta Ka Ooltah Chashmah | Bhide's Door",
            "url": "https://www.youtube.com/watch?v=Q-9m_oTycRk",
            "duration": 2214.0,
            "view_count": 60018,
            "uploader": "Taarak Mehta Ka Ooltah Chashmah Episodes",
            "category": "taarak_mehta",
            "thumbnail": "https://i.ytimg.com/vi/Q-9m_oTycRk/hq720.jpg"
        },
        {
            "id": "ygydo2zmmF4",
            "title": "April Fool Banana Pad Gaya Bhari !  | FULL MOVIE | Taarak Mehta Ka Ooltah Chashmah",
            "url": "https://www.youtube.com/watch?v=ygydo2zmmF4",
            "duration": 2384.0,
            "view_count": 1007213,
            "uploader": "Taarak Mehta Ka Ooltah Chashmah",
            "category": "taarak_mehta",
            "thumbnail": "https://i.ytimg.com/vi/ygydo2zmmF4/hq720.jpg"
        },
        {
            "id": "rbh8zj9ZM64",
            "title": "Bhide Decides To Mortgage His Gold | Taarak Mehta Ka Ooltah Chashmah | Full Episode",
            "url": "https://www.youtube.com/watch?v=rbh8zj9ZM64",
            "duration": 1176.0,
            "view_count": 18317,
            "uploader": "Taarak Mehta Ka Ooltah Chashmah Episodes",
            "category": "taarak_mehta",
            "thumbnail": "https://i.ytimg.com/vi/rbh8zj9ZM64/hq720.jpg"
        },
        {
            "id": "7478fTj6iJ8",
            "title": "Paani जेठालाल Ke सिर Ke ऊपर | Taarak Mehta Ka Ooltah Chashmah | Jethalal In Trouble",
            "url": "https://www.youtube.com/watch?v=7478fTj6iJ8",
            "duration": 2427.0,
            "view_count": 2759,
            "uploader": "Taarak Mehta Ka Ooltah Chashmah Episodes",
            "category": "taarak_mehta",
            "thumbnail": "https://i.ytimg.com/vi/7478fTj6iJ8/hq720.jpg"
        },
        {
            "id": "7BB5EXjecBE",
            "title": "Jethalal को लगी जम के भूख | Taarak Mehta Ka Ooltah Chashmah | Jethalal Hungry",
            "url": "https://www.youtube.com/watch?v=7BB5EXjecBE",
            "duration": 3528.0,
            "view_count": 8667,
            "uploader": "Taarak Mehta Ka Ooltah Chashmah Episodes",
            "category": "taarak_mehta",
            "thumbnail": "https://i.ytimg.com/vi/7BB5EXjecBE/hq720.jpg"
        },
        {
            "id": "nzHeefLcxv8",
            "title": "Popat Lashes Out At Bhide | Taarak Mehta Ka Ooltah Chashmah| Full Ep 4676 | 4 Apr 2026 | New Episode",
            "url": "https://www.youtube.com/watch?v=nzHeefLcxv8",
            "duration": 1347.0,
            "view_count": 834657,
            "uploader": "Taarak Mehta Ka Ooltah Chashmah Episodes",
            "category": "taarak_mehta",
            "thumbnail": "https://i.ytimg.com/vi/nzHeefLcxv8/hq720.jpg"
        },
        {
            "id": "Vjw4U4Q_QrI",
            "title": "Bhide ko mili Punishment | Taarak Mehta Ka Ooltah Chashmah | Full Movie",
            "url": "https://www.youtube.com/watch?v=Vjw4U4Q_QrI",
            "duration": 3564.0,
            "view_count": 9733,
            "uploader": "Taarak Mehta Ka Ooltah Chashmah Episodes",
            "category": "taarak_mehta",
            "thumbnail": "https://i.ytimg.com/vi/Vjw4U4Q_QrI/hq720.jpg"
        },
        {
            "id": "_yFANVL2T_8",
            "title": "Jethalal Hai Pyar Ka Dushman ! | FULL MOVIE | Taarak Mehta Ka Ooltah Chashmah",
            "url": "https://www.youtube.com/watch?v=_yFANVL2T_8",
            "duration": 3586.0,
            "view_count": 31125,
            "uploader": "Taarak Mehta Ka Ooltah Chashmah",
            "category": "taarak_mehta",
            "thumbnail": "https://i.ytimg.com/vi/_yFANVL2T_8/hq720.jpg"
        },
        {
            "id": "Zgh9YKDiUA8",
            "title": "Who Will Help Gokuldham Members? | Taarak Mehta Ka Ooltah Chashmah | Full Episode",
            "url": "https://www.youtube.com/watch?v=Zgh9YKDiUA8",
            "duration": 1169.0,
            "view_count": 4362,
            "uploader": "Taarak Mehta Ka Ooltah Chashmah Episodes",
            "category": "taarak_mehta",
            "thumbnail": "https://i.ytimg.com/vi/Zgh9YKDiUA8/hq720.jpg"
        },
        {
            "id": "FWQiMPG7-Rc",
            "title": "Daya Ho gayi Out of Control | Taarak Mehta Ka Ooltah Chashmah | Full Movie",
            "url": "https://www.youtube.com/watch?v=FWQiMPG7-Rc",
            "duration": 3219.0,
            "view_count": 10322,
            "uploader": "Taarak Mehta Ka Ooltah Chashmah Episodes",
            "category": "taarak_mehta",
            "thumbnail": "https://i.ytimg.com/vi/FWQiMPG7-Rc/hq720.jpg"
        },
        {
            "id": "9qijQf_x6_g",
            "title": "Bhide पर क्यों हंस रही है Tapu Sena? | Taarak Mehta Ka Ooltah Chashmah | Renovation",
            "url": "https://www.youtube.com/watch?v=9qijQf_x6_g",
            "duration": 2407.0,
            "view_count": 57814,
            "uploader": "Taarak Mehta Ka Ooltah Chashmah Episodes",
            "category": "taarak_mehta",
            "thumbnail": "https://i.ytimg.com/vi/9qijQf_x6_g/hq720.jpg"
        },
        {
            "id": "8ei5n2gId54",
            "title": "Jethalal ne Phad Diya Bhide ka Kurta ! | FULL MOVIE | Taarak Mehta Ka Ooltah Chashmah",
            "url": "https://www.youtube.com/watch?v=8ei5n2gId54",
            "duration": 2167.0,
            "view_count": 1622377,
            "uploader": "Taarak Mehta Ka Ooltah Chashmah",
            "category": "taarak_mehta",
            "thumbnail": "https://i.ytimg.com/vi/8ei5n2gId54/hq720.jpg?sqp=-oaymwEcCNAFEJQDSFXyq4qpAw4IARUAAIhCGAFwAcABBg==&rs=AOn4CLBOJskpXix_SFmeP_Z4KENn-EEgUA",
            "added_date": "2026-04-16T07:31:41.369426Z",
            "source": "youtube"
        },
        {
            "id": "qvyvpuy1urE",
            "title": "Jetha And Daya Distribute Sweets | Taarak Mehta Ka Ooltah Chashmah | Full Episode",
            "url": "https://www.youtube.com/watch?v=qvyvpuy1urE",
            "duration": 1232.0,
            "view_count": 13763,
            "uploader": "Taarak Mehta Ka Ooltah Chashmah Episodes",
            "category": "taarak_mehta",
            "thumbnail": "https://i.ytimg.com/vi/qvyvpuy1urE/hq720.jpg"
        },
        {
            "id": "LxhwgjCuVK4",
            "title": "Kaun kar raha hai Madhavi ka Picha? | Taarak Mehta Ka Ooltah Chashmah | Full Movie",
            "url": "https://www.youtube.com/watch?v=LxhwgjCuVK4",
            "duration": 3145.0,
            "view_count": 208628,
            "uploader": "Taarak Mehta Ka Ooltah Chashmah Episodes",
            "category": "taarak_mehta",
            "thumbnail": "https://i.ytimg.com/vi/LxhwgjCuVK4/hq720.jpg"
        },
        {
            "id": "DhtPgBhMZ0k",
            "title": "Daya kaise hui Behosh? | Taarak Mehta Ka Ooltah Chashmah | Full Movie",
            "url": "https://www.youtube.com/watch?v=DhtPgBhMZ0k",
            "duration": 3812.0,
            "view_count": 115718,
            "uploader": "Taarak Mehta Ka Ooltah Chashmah Episodes",
            "category": "taarak_mehta",
            "thumbnail": "https://i.ytimg.com/vi/DhtPgBhMZ0k/hq720.jpg"
        },
        {
            "id": "ilsfiEcPhdk",
            "title": "Bagha Ke Karan Cancel Hui Deal ! | FULL MOVIE | Taarak Mehta Ka Ooltah Chashmah",
            "url": "https://www.youtube.com/watch?v=ilsfiEcPhdk",
            "duration": 2411.0,
            "view_count": 120962,
            "uploader": "Taarak Mehta Ka Ooltah Chashmah",
            "category": "taarak_mehta",
            "thumbnail": "https://i.ytimg.com/vi/ilsfiEcPhdk/hq720.jpg"
        },
        {
            "id": "JjoXQA8hrNA",
            "title": "क्यों की Jetha ने Meeting Cancel? | Taarak Mehta Ka Ooltah Chashmah | Godown Ki Chabi",
            "url": "https://www.youtube.com/watch?v=JjoXQA8hrNA",
            "duration": 2494.0,
            "view_count": 114823,
            "uploader": "Taarak Mehta Ka Ooltah Chashmah Episodes",
            "category": "taarak_mehta",
            "thumbnail": "https://i.ytimg.com/vi/JjoXQA8hrNA/hq720.jpg"
        },
        {
            "id": "unnZRiCBF6E",
            "title": "Daya ke khilaf hui Sajhish Shuru | Taarak Mehta Ka Ooltah Chashmah | Full Movie",
            "url": "https://www.youtube.com/watch?v=unnZRiCBF6E",
            "duration": 3498.0,
            "view_count": 5979,
            "uploader": "Taarak Mehta Ka Ooltah Chashmah Episodes",
            "category": "taarak_mehta",
            "thumbnail": "https://i.ytimg.com/vi/unnZRiCBF6E/hq720.jpg"
        },
        {
            "id": "mMzDYkiVvnU",
            "title": "Can Residents Save Babita And Iyer? | Taarak Mehta Ka Ooltah Chashmah | Jetha Bapuji Special",
            "url": "https://www.youtube.com/watch?v=mMzDYkiVvnU",
            "duration": 1190.0,
            "view_count": 1709,
            "uploader": "Taarak Mehta Ka Ooltah Chashmah Episodes",
            "category": "taarak_mehta",
            "thumbnail": "https://i.ytimg.com/vi/mMzDYkiVvnU/hq720.jpg"
        },
        {
            "id": "ibDvv51oels",
            "title": "NEW! Ep 4677 - Bhide ne Kyun Bulayi Apatkal Meeting! | Taarak Mehta ka Ooltah Chashmah",
            "url": "https://www.youtube.com/watch?v=ibDvv51oels",
            "duration": 609.0,
            "view_count": 1207035,
            "uploader": "Taarak Mehta Ka Ooltah Chashmah",
            "category": "taarak_mehta",
            "thumbnail": "https://i.ytimg.com/vi/ibDvv51oels/hq720.jpg"
        },
        {
            "id": "Bx-vWeOfzAA",
            "title": "Bhide के घर पहुँचे गुंडे ! | FULL MOVIE | Taarak Mehta Ka Ooltah Chashmah",
            "url": "https://www.youtube.com/watch?v=Bx-vWeOfzAA",
            "duration": 3528.0,
            "view_count": 53109,
            "uploader": "Taarak Mehta Ka Ooltah Chashmah",
            "category": "taarak_mehta",
            "thumbnail": "https://i.ytimg.com/vi/Bx-vWeOfzAA/hq720.jpg"
        },
        {
            "id": "_Bp5u9a_mRA",
            "title": "NEW! Ep 4677 - Bhide ne Kyun Bulayi Apatkal Meeting! | Taarak Mehta ka Ooltah Chashmah",
            "url": "https://www.youtube.com/watch?v=_Bp5u9a_mRA",
            "duration": 609.0,
            "view_count": 29356,
            "uploader": "Taarak Mehta Ka Ooltah Chashmah Episodes",
            "category": "taarak_mehta",
            "thumbnail": "https://i.ytimg.com/vi/_Bp5u9a_mRA/hq720.jpg"
        },
        {
            "id": "BHn-VgsbzVs",
            "title": "Bathroom से भागते हुए Balcony में क्यों आया Popatlal?| Taarak Mehta Ka Ooltah Chashmah|Abdul Missing",
            "url": "https://www.youtube.com/watch?v=BHn-VgsbzVs",
            "duration": 3521.0,
            "view_count": 17310,
            "uploader": "Taarak Mehta Ka Ooltah Chashmah Episodes",
            "category": "taarak_mehta",
            "thumbnail": "https://i.ytimg.com/vi/BHn-VgsbzVs/hq720.jpg"
        },
        {
            "id": "jD1ieerm5mE",
            "title": "Purush Mandali ने की Secret Party की Planning | Taarak Mehta Ka Ooltah Chashmah | New Year Party",
            "url": "https://www.youtube.com/watch?v=jD1ieerm5mE",
            "duration": 3123.0,
            "view_count": 4442,
            "uploader": "Taarak Mehta Ka Ooltah Chashmah Episodes",
            "category": "taarak_mehta",
            "thumbnail": "https://i.ytimg.com/vi/jD1ieerm5mE/hq720.jpg"
        },
        {
            "id": "KXlokx-hkl8",
            "title": "Taarak aur Iyer ki Naukri Khatre Mein! ! | FULL MOVIE | Taarak Mehta Ka Ooltah Chashmah",
            "url": "https://www.youtube.com/watch?v=KXlokx-hkl8",
            "duration": 2323.0,
            "view_count": 383387,
            "uploader": "Taarak Mehta Ka Ooltah Chashmah",
            "category": "taarak_mehta",
            "thumbnail": "https://i.ytimg.com/vi/KXlokx-hkl8/hq720.jpg"
        },
        {
            "id": "93lJflH6v_E",
            "title": "Mehta Ne Kyun Ki Boss Ke Sath Hatapayi  ! | FULL MOVIE | Taarak Mehta Ka Ooltah Chashmah",
            "url": "https://www.youtube.com/watch?v=93lJflH6v_E",
            "duration": 3544.0,
            "view_count": 120146,
            "uploader": "Taarak Mehta Ka Ooltah Chashmah",
            "category": "taarak_mehta",
            "thumbnail": "https://i.ytimg.com/vi/93lJflH6v_E/hq720.jpg"
        }
    ]
}