{
    "page": 4,
    "total_pages": 4,
    "total_items": 180,
    "items": [
        {
            "id": "IRafrFwSb-s",
            "title": "मंडळी तुमच्यासाठी काय पण (4K) Mandali Tumchyasati Kay Pan Full 4K Movie - Bharat Jadhav, Prasad Oak",
            "url": "https://www.youtube.com/watch?v=IRafrFwSb-s",
            "duration": 6243.0,
            "view_count": 6672267,
            "uploader": "Ultra Marathi",
            "category": "marathi",
            "thumbnail": "https://i.ytimg.com/vi/IRafrFwSb-s/hq720.jpg"
        },
        {
            "id": "FauxfGhn8dQ",
            "title": "(सत्ता) Satta - खुर्चीसाठी काहीही! | New Marathi Movie | Tejashri Pradhan, Mohan Agashe | Full Movie",
            "url": "https://www.youtube.com/watch?v=FauxfGhn8dQ",
            "duration": 8016.0,
            "view_count": 175791,
            "uploader": "Marathi Filmy Duniya",
            "category": "marathi",
            "thumbnail": "https://i.ytimg.com/vi/FauxfGhn8dQ/hq720.jpg"
        },
        {
            "id": "SRhuXVuhpT0",
            "title": "Sher Shivraj 2022 full marathi movie 1080p free marathi new movie",
            "url": "https://www.youtube.com/watch?v=SRhuXVuhpT0",
            "duration": 9176.0,
            "view_count": 2637333,
            "uploader": "Sen5ie football",
            "category": "marathi",
            "thumbnail": "https://i.ytimg.com/vi/SRhuXVuhpT0/hq720.jpg"
        },
        {
            "id": "OZncO3WqYt4",
            "title": "आत्मपॅम्फलेट Aatmapamphlet | Manas Tondwalkar, Khushi Hajare & Bhimrao Mude | New Full Movie",
            "url": "https://www.youtube.com/watch?v=OZncO3WqYt4",
            "duration": 5502.0,
            "view_count": 1422735,
            "uploader": "Zee Music Marathi",
            "category": "marathi",
            "thumbnail": "https://i.ytimg.com/vi/OZncO3WqYt4/hq720.jpg"
        },
        {
            "id": "N0mh-Wxc0gc",
            "title": "Ashok Saraf, Laxmikant Berde & Nivedita Saraf-Full Marathi Classic Comedy Movie-मराठी कॉमेडी चित्रपट",
            "url": "https://www.youtube.com/watch?v=N0mh-Wxc0gc",
            "duration": 7757.0,
            "view_count": 366172,
            "uploader": "NH Marathi",
            "category": "marathi",
            "thumbnail": "https://i.ytimg.com/vi/N0mh-Wxc0gc/hq720.jpg"
        },
        {
            "id": "c9jD833T0SU",
            "title": "Sanjparva - Full Movie (HD) | Arun Nalawade, Jyoti Chandekar, Uday Sabnis | New Marathi Movie (2014)",
            "url": "https://www.youtube.com/watch?v=c9jD833T0SU",
            "duration": 6412.0,
            "view_count": 386200,
            "uploader": "Zee Music Marathi",
            "category": "marathi",
            "thumbnail": "https://i.ytimg.com/vi/c9jD833T0SU/hq720.jpg"
        },
        {
            "id": "FtnnrB0l7EA",
            "title": "Dashakriya ( दशक्रिया ) - Marathi Movie - Best Scenes Compilation - Dilip Prabhavalkar, Manoj Joshi",
            "url": "https://www.youtube.com/watch?v=FtnnrB0l7EA",
            "duration": 6346.0,
            "view_count": 172041,
            "uploader": "Zee Movies Marathi",
            "category": "marathi",
            "thumbnail": "https://i.ytimg.com/vi/FtnnrB0l7EA/hq720.jpg"
        },
        {
            "id": "bY2L0gEMGPo",
            "title": "(काळी रात्र) Kaali Ratra - Full Marathi Movie | Makarand Anaspure, Tejaswini Pandit | Action Drama",
            "url": "https://www.youtube.com/watch?v=bY2L0gEMGPo",
            "duration": 6171.0,
            "view_count": 42937,
            "uploader": "Ultra Marathi",
            "category": "marathi",
            "thumbnail": "https://i.ytimg.com/vi/bY2L0gEMGPo/hq720.jpg"
        },
        {
            "id": "1vmK0DQ_VGg",
            "title": "Ramdev Aala Re (रामदेव आला रे!) | Superhit Marathi Comedy Movie | Mohan Joshi, Sharad Ponkshe",
            "url": "https://www.youtube.com/watch?v=1vmK0DQ_VGg",
            "duration": 8768.0,
            "view_count": 778,
            "uploader": "Ultra Talkies",
            "category": "marathi",
            "thumbnail": "https://i.ytimg.com/vi/1vmK0DQ_VGg/hq720.jpg"
        },
        {
            "id": "AYrw0dcs-OU",
            "title": "April may 99. Marathi movie , kokan",
            "url": "https://www.youtube.com/watch?v=AYrw0dcs-OU",
            "duration": 7606.0,
            "view_count": 425,
            "uploader": "Nehal Bhavar ",
            "category": "marathi",
            "thumbnail": "https://i.ytimg.com/vi/AYrw0dcs-OU/hqdefault.jpg"
        },
        {
            "id": "W4FCHhXdK9o",
            "title": "Asha Full movie in Marathi ",
            "url": "https://www.youtube.com/watch?v=W4FCHhXdK9o",
            "duration": 6996.0,
            "view_count": 27,
            "uploader": "Tuj Ved Bal Movies ",
            "category": "marathi",
            "thumbnail": "https://i.ytimg.com/vi/W4FCHhXdK9o/hqdefault.jpg"
        },
        {
            "id": "YcRDWzjDDhY",
            "title": "मानिनी Manini | Marathi Full Movie | Girija Oak, Swapnil Joshi | Superhit Marathi Chitrapat",
            "url": "https://www.youtube.com/watch?v=YcRDWzjDDhY",
            "duration": 8319.0,
            "view_count": 268952,
            "uploader": "MarathiTalkies and 4 more",
            "category": "marathi",
            "thumbnail": "https://i.ytimg.com/vi/YcRDWzjDDhY/hq720.jpg"
        },
        {
            "id": "urRZUY6dVAk",
            "title": "Nishani Dava Angtha - निशाणी डावा अंगठा - 2009",
            "url": "https://www.youtube.com/watch?v=urRZUY6dVAk",
            "duration": 7698.0,
            "view_count": 423248,
            "uploader": "Random videos",
            "category": "marathi",
            "thumbnail": "https://i.ytimg.com/vi/urRZUY6dVAk/hqdefault.jpg"
        },
        {
            "id": "11hXeL2MJy8",
            "title": "Bhakticha Mala Full Movie (Colour Version) | भक्तीचा मळा | Marathi Movie | Old Classic Movie",
            "url": "https://www.youtube.com/watch?v=11hXeL2MJy8",
            "duration": 6793.0,
            "view_count": 745583,
            "uploader": "NH Marathi",
            "category": "marathi",
            "thumbnail": "https://i.ytimg.com/vi/11hXeL2MJy8/hq720.jpg"
        },
        {
            "id": "HEMaMKjV4Bw",
            "title": "सातच्या आत घरात Saatchya Aat Gharat | Marathi Full Movie | Best Marathi Suspense Thriller Movie",
            "url": "https://www.youtube.com/watch?v=HEMaMKjV4Bw",
            "duration": 8684.0,
            "view_count": 6308,
            "uploader": "MarathiTalkies and 4 more",
            "category": "marathi",
            "thumbnail": "https://i.ytimg.com/vi/HEMaMKjV4Bw/hq720.jpg"
        },
        {
            "id": "ZvWRD9V4QEc",
            "title": "Nay Varan Bhat Loncha Kon Nay Koncha Marathi Movie | Latest Marathi Blockbuster | Marathi Movies",
            "url": "https://www.youtube.com/watch?v=ZvWRD9V4QEc",
            "duration": 5305.0,
            "view_count": 6119576,
            "uploader": "B-Town Blockbuster",
            "category": "marathi",
            "thumbnail": "https://i.ytimg.com/vi/ZvWRD9V4QEc/hq720.jpg"
        },
        {
            "id": "wipT95yo2So",
            "title": "Nay Varan Bhat Loncha Kon Nay Koncha | Super Hit Marathi Movie | Mahesh Manjrekar",
            "url": "https://www.youtube.com/watch?v=wipT95yo2So",
            "duration": 5098.0,
            "view_count": 4036540,
            "uploader": "NH Marathi",
            "category": "marathi",
            "thumbnail": "https://i.ytimg.com/vi/wipT95yo2So/hq720.jpg"
        },
        {
            "id": "yqP3kBPvwJM",
            "title": "बजरंगाची कमाल (१९९४) | Bajrangachi Kamal Full Movie | Laxmikant Berde, Ajinkya Deo | Comedy Movie",
            "url": "https://www.youtube.com/watch?v=yqP3kBPvwJM",
            "duration": 7727.0,
            "view_count": 32461,
            "uploader": "Maharashtracha Crorepati",
            "category": "marathi",
            "thumbnail": "https://i.ytimg.com/vi/yqP3kBPvwJM/hq720.jpg"
        },
        {
            "id": "B238wwttHUg",
            "title": "LAGAN l लगन l Marathi Romantic movie l Smita tambe l Anil nagarkar l Sujit l Shweta I Arjun gujar",
            "url": "https://www.youtube.com/watch?v=B238wwttHUg",
            "duration": 8121.0,
            "view_count": 47165,
            "uploader": "Gujar Brothers Entertainment official",
            "category": "marathi",
            "thumbnail": "https://i.ytimg.com/vi/B238wwttHUg/hq720.jpg"
        },
        {
            "id": "qB9CadwsL1o",
            "title": "Mee Man Ani Dhruv (मी मन आणि ध्रुव) | Long - Distance marriage | New Superhit Marathi Full Movie HD",
            "url": "https://www.youtube.com/watch?v=qB9CadwsL1o",
            "duration": 7124.0,
            "view_count": 16377,
            "uploader": "Marathi MoviePlex and 3 more",
            "category": "marathi",
            "thumbnail": "https://i.ytimg.com/vi/qB9CadwsL1o/hq720.jpg"
        },
        {
            "id": "Rz1NPJH8QfM",
            "title": "कोकणची मुलगी आणि अमेरिकन मुलगा-कोकणच्या मातीतल प्रेम-लेक लाडकी-उमेश प्रियंका मिलिंद गुणाजी-FullMovie",
            "url": "https://www.youtube.com/watch?v=Rz1NPJH8QfM",
            "duration": 6683.0,
            "view_count": 338091,
            "uploader": "Shemaroo MarathiBana",
            "category": "marathi",
            "thumbnail": "https://i.ytimg.com/vi/Rz1NPJH8QfM/hq720.jpg"
        },
        {
            "id": "LrbY9LQLPbs",
            "title": "Thackeray | Marathi Full Movie | Nawazuddin Siddiqui, Amrita Rao",
            "url": "https://www.youtube.com/watch?v=LrbY9LQLPbs",
            "duration": 7851.0,
            "view_count": 2370547,
            "uploader": "Viacom18 Studios",
            "category": "marathi",
            "thumbnail": "https://i.ytimg.com/vi/LrbY9LQLPbs/hq720.jpg"
        },
        {
            "id": "hxxYA9FSAHc",
            "title": "मोगरा फुलला | Mogra Phulaalaa | Official Full Marathi Movie | Emotional Family Drama | Watch FREE",
            "url": "https://www.youtube.com/watch?v=hxxYA9FSAHc",
            "duration": 7741.0,
            "view_count": 768686,
            "uploader": "Gseams",
            "category": "marathi",
            "thumbnail": "https://i.ytimg.com/vi/hxxYA9FSAHc/hq720.jpg?sqp=-oaymwEcCNAFEJQDSFXyq4qpAw4IARUAAIhCGAFwAcABBg==&rs=AOn4CLDMehP5iOv1vTH5s5OuG8LrYYVMJA",
            "added_date": "2026-04-16T07:31:28.238002Z",
            "source": "youtube"
        },
        {
            "id": "f1Ri0bIFxqQ",
            "title": "POWER GAME (पॉवर गेम ) | NEW RELEASED MARATHI MOVIE 2025 | Mohan Agashe,Tejashree Pradhan",
            "url": "https://www.youtube.com/watch?v=f1Ri0bIFxqQ",
            "duration": 7956.0,
            "view_count": 69410,
            "uploader": "Marathi Cinema",
            "category": "marathi",
            "thumbnail": "https://i.ytimg.com/vi/f1Ri0bIFxqQ/hq720.jpg"
        },
        {
            "id": "_v08CBsKijk",
            "title": "Mahesh Manjrekar Special - Nay Varan Bhat Loncha Kon Nay Koncha Full Movie | 2022 Hit Marathi Movie",
            "url": "https://www.youtube.com/watch?v=_v08CBsKijk",
            "duration": 5439.0,
            "view_count": 322113,
            "uploader": "NH Marathi",
            "category": "marathi",
            "thumbnail": "https://i.ytimg.com/vi/_v08CBsKijk/hq720.jpg"
        },
        {
            "id": "7HaeOWI7Yl4",
            "title": "Garbh (गर्भ) | NEW RELEASE MARATHI FULL MOVIE | Siyaa Patil,Sushant Shelar, Nishigandha Wad",
            "url": "https://www.youtube.com/watch?v=7HaeOWI7Yl4",
            "duration": 8516.0,
            "view_count": 215439,
            "uploader": "Marathi Cinema and 3 more",
            "category": "marathi",
            "thumbnail": "https://i.ytimg.com/vi/7HaeOWI7Yl4/hq720.jpg"
        },
        {
            "id": "MqqMKAYe4rA",
            "title": "हक्क - Full Marathi Movie | Prajakta Mali New Marathi Movie | Rutuja Bagve | Superhit Marathi Movie",
            "url": "https://www.youtube.com/watch?v=MqqMKAYe4rA",
            "duration": 8799.0,
            "view_count": 1875,
            "uploader": "Marathi Filmy Duniya",
            "category": "marathi",
            "thumbnail": "https://i.ytimg.com/vi/MqqMKAYe4rA/hq720.jpg"
        },
        {
            "id": "88lsYZiQ5Fo",
            "title": "नाय वरणभात लोन्चा कोण नाय कोन्चा Full Movie | Mahesh Manjrekar Movies | Latest Marathi Action Movie",
            "url": "https://www.youtube.com/watch?v=88lsYZiQ5Fo",
            "duration": 5305.0,
            "view_count": 211186,
            "uploader": "Maharashtracha Crorepati",
            "category": "marathi",
            "thumbnail": "https://i.ytimg.com/vi/88lsYZiQ5Fo/hq720.jpg"
        },
        {
            "id": "3u5hYtUTw1U",
            "title": "मकरंद अनासपुरे सयाजी शिंदे तेजस्वी लोणारीचा सुपरहिट मराठी मूवी \"बायको माझी एक नंबर\"",
            "url": "https://www.youtube.com/watch?v=3u5hYtUTw1U",
            "duration": 7347.0,
            "view_count": 610243,
            "uploader": "Dhamaal Marathi",
            "category": "marathi",
            "thumbnail": "https://i.ytimg.com/vi/3u5hYtUTw1U/hq720.jpg"
        },
        {
            "id": "MKOj6nHOC0I",
            "title": "प्रिया बापट अभय महाजन सुपरहिट रोमँटिक मराठी मूवी \"लक-पती\" | New Marathi Romantic Movie",
            "url": "https://www.youtube.com/watch?v=MKOj6nHOC0I",
            "duration": 5649.0,
            "view_count": 46927,
            "uploader": "Dhamaal Marathi",
            "category": "marathi",
            "thumbnail": "https://i.ytimg.com/vi/MKOj6nHOC0I/hq720.jpg?sqp=-oaymwEcCNAFEJQDSFXyq4qpAw4IARUAAIhCGAFwAcABBg==&rs=AOn4CLBNwrENK8Ltl1M0CoF3aqtAwcoBbQ",
            "added_date": "2026-04-16T07:31:28.037633Z",
            "source": "youtube"
        }
    ]
}