{
    "page": 3,
    "total_pages": 4,
    "total_items": 180,
    "items": [
        {
            "id": "828Pf4-Zy0Y",
            "title": "Zombivli - Marathi Full Movie - Amey Wagh, Vaidehi Parashurami, Lalit Prabhakar",
            "url": "https://www.youtube.com/watch?v=828Pf4-Zy0Y",
            "duration": 7702.0,
            "view_count": 2958054,
            "uploader": "Zee Movies Marathi",
            "category": "marathi",
            "thumbnail": "https://i.ytimg.com/vi/828Pf4-Zy0Y/hqdefault.jpg"
        },
        {
            "id": "AGGmmTfr26g",
            "title": "सर्व लाईन व्यस्त आहेत (Sarva Line Vyasta Ahet) Superhit Comedy Marathi Movie | Siddhartha Jadhav",
            "url": "https://www.youtube.com/watch?v=AGGmmTfr26g",
            "duration": 7931.0,
            "view_count": 2957722,
            "uploader": "Ultra Chitranagari",
            "category": "marathi",
            "thumbnail": "https://i.ytimg.com/vi/AGGmmTfr26g/hq720.jpg"
        },
        {
            "id": "4if6Oqphqdc",
            "title": "Aai | आई चित्रपट | मराठी चित्रपट | Full Movie | Shivaji Satam, Nina Kulkarni, Prashant Subhedar",
            "url": "https://www.youtube.com/watch?v=4if6Oqphqdc",
            "duration": 8316.0,
            "view_count": 1340175,
            "uploader": "Fakt Marathi Tv",
            "category": "marathi",
            "thumbnail": "https://i.ytimg.com/vi/4if6Oqphqdc/hq720.jpg"
        },
        {
            "id": "-9-wkcbtrr4",
            "title": "मस्का Maska Full Movie | Suspense Thriller Movie | प्रार्थना बेहेरे, अनिकेत विश्वासराव, शशांक शेंडे",
            "url": "https://www.youtube.com/watch?v=-9-wkcbtrr4",
            "duration": 7521.0,
            "view_count": 264615,
            "uploader": "EverestTalkies and 3 more",
            "category": "marathi",
            "thumbnail": "https://i.ytimg.com/vi/-9-wkcbtrr4/hq720.jpg"
        },
        {
            "id": "K4zzKFmnnwE",
            "title": "Ti Saddhya Kay Karte (2017) Full Marathi Movie HD | Ankush Chaudhari | Tejashri Pradhan | Superhit ",
            "url": "https://www.youtube.com/watch?v=K4zzKFmnnwE",
            "duration": 5918.0,
            "view_count": 120420,
            "uploader": "Marathi Movie World",
            "category": "marathi",
            "thumbnail": "https://i.ytimg.com/vi/K4zzKFmnnwE/hq720.jpg?sqp=-oaymwEcCNAFEJQDSFXyq4qpAw4IARUAAIhCGAFwAcABBg==&rs=AOn4CLAoj6BVsH7HiFiw11LRyo400H7hNA",
            "added_date": "2026-04-16T07:31:26.635036Z",
            "source": "youtube"
        },
        {
            "id": "2vFFw0z1_xc",
            "title": "Halad Rusli Kunku Hasla Full Movie HD | Ashwini Bhave Suoer Hit Marathi Drama Movie | Marathi Movie",
            "url": "https://www.youtube.com/watch?v=2vFFw0z1_xc",
            "duration": 6768.0,
            "view_count": 3120,
            "uploader": "NH Marathi",
            "category": "marathi",
            "thumbnail": "https://i.ytimg.com/vi/2vFFw0z1_xc/hq720.jpg"
        },
        {
            "id": "LsUJJ66bkas",
            "title": "चार घटना, एक रहस्य! | 1234 (१२३४) | New Marathi Movie | Bhushan Pradhan, Priya, Sanjay Narevekar",
            "url": "https://www.youtube.com/watch?v=LsUJJ66bkas",
            "duration": 6836.0,
            "view_count": 60953,
            "uploader": "Ultra Talkies",
            "category": "marathi",
            "thumbnail": "https://i.ytimg.com/vi/LsUJJ66bkas/hq720.jpg"
        },
        {
            "id": "DlN6OFOY1Fc",
            "title": "Punha Ekda Sade Made Teen (2026) | Full Marathi Movie | New Marathi Movie |Full HD #newmarathimovie",
            "url": "https://www.youtube.com/watch?v=DlN6OFOY1Fc",
            "duration": 8550.0,
            "view_count": 156506,
            "uploader": "Karu movie mh",
            "category": "marathi",
            "thumbnail": "https://i.ytimg.com/vi/DlN6OFOY1Fc/hqdefault.jpg"
        },
        {
            "id": "N_gNXleZ6iI",
            "title": "दोस्तीगिरी - मराठी सुपरहिट मूवी - Dostigiri Full Movie - Vijay Gite, Pooja Malekar - Sunday Movie",
            "url": "https://www.youtube.com/watch?v=N_gNXleZ6iI",
            "duration": 7813.0,
            "view_count": 613003,
            "uploader": "Shemaroo MarathiBana",
            "category": "marathi",
            "thumbnail": "https://i.ytimg.com/vi/N_gNXleZ6iI/hq720.jpg"
        },
        {
            "id": "Avb-MWX2by0",
            "title": "'ती' परत आलीये... New Marathi Horror Thriller Movie | Sharad Ponkshe, Smita Shewale & Amol Kagne",
            "url": "https://www.youtube.com/watch?v=Avb-MWX2by0",
            "duration": 6737.0,
            "view_count": 72158,
            "uploader": "Ultra Marathi",
            "category": "marathi",
            "thumbnail": "https://i.ytimg.com/vi/Avb-MWX2by0/hq720.jpg"
        },
        {
            "id": "YCRVcTj_SN0",
            "title": "April may 99 full marathi movie in HD | #marathimovie",
            "url": "https://www.youtube.com/watch?v=YCRVcTj_SN0",
            "duration": 6635.0,
            "view_count": 26546,
            "uploader": "Total Movies",
            "category": "marathi",
            "thumbnail": "https://i.ytimg.com/vi/YCRVcTj_SN0/hq720.jpg"
        },
        {
            "id": "O5WvNQR9njU",
            "title": "Satya Savitri Ani Satyavan (सत्य सावित्री आणि सत्यवान) | New Marathi Movie | Sachit, Shruti, Amruta",
            "url": "https://www.youtube.com/watch?v=O5WvNQR9njU",
            "duration": 8491.0,
            "view_count": 75737,
            "uploader": "Ultra Talkies and Ultra Manoranjan",
            "category": "marathi",
            "thumbnail": "https://i.ytimg.com/vi/O5WvNQR9njU/hq720.jpg"
        },
        {
            "id": "i9mzykzAypc",
            "title": "New Marathi Movie | Tu Bol Na | Superhit Marathi Movie | #marathimovie ",
            "url": "https://www.youtube.com/watch?v=i9mzykzAypc",
            "duration": 6352.0,
            "view_count": 27632,
            "uploader": "S.B Fun club",
            "category": "marathi",
            "thumbnail": "https://i.ytimg.com/vi/i9mzykzAypc/hqdefault.jpg"
        },
        {
            "id": "eVD87REXgNg",
            "title": "(श्रीमंतीचा खेळ) - New Marathi Comedy Movie - Makarand Anaspure & Tejaswini Lonari - Full Movie",
            "url": "https://www.youtube.com/watch?v=eVD87REXgNg",
            "duration": 9000.0,
            "view_count": 360561,
            "uploader": "Marathi Filmy Duniya",
            "category": "marathi",
            "thumbnail": "https://i.ytimg.com/vi/eVD87REXgNg/hq720.jpg"
        },
        {
            "id": "DprDv8kCv8U",
            "title": "Shubh Bol Narya | शुभ बोल नाऱ्या  (1990) | Full Marathi Comedy Movie | Laxmikant Berde, Alka Kubal",
            "url": "https://www.youtube.com/watch?v=DprDv8kCv8U",
            "duration": 7545.0,
            "view_count": 152383,
            "uploader": "Marathi Shorts Katta ",
            "category": "marathi",
            "thumbnail": "https://i.ytimg.com/vi/DprDv8kCv8U/hq720.jpg"
        },
        {
            "id": "SWWzbTvqxP0",
            "title": "Andya Cha Funda (अंड्या चा फंडा) | मित्र परत आला भूत बनून 👻 | New Superhit Marathi Comedy Full Movie",
            "url": "https://www.youtube.com/watch?v=SWWzbTvqxP0",
            "duration": 8300.0,
            "view_count": 219868,
            "uploader": "Marathi MoviePlex and 3 more",
            "category": "marathi",
            "thumbnail": "https://i.ytimg.com/vi/SWWzbTvqxP0/hq720.jpg"
        },
        {
            "id": "ao3_7DOfeDI",
            "title": "Olakh My Identity | Marathi Movie | Alka Athalye, Arun Nalavade, Khushboo | New Marathi Movie 2026",
            "url": "https://www.youtube.com/watch?v=ao3_7DOfeDI",
            "duration": 7011.0,
            "view_count": 7918,
            "uploader": "Venus Marathi",
            "category": "marathi",
            "thumbnail": "https://i.ytimg.com/vi/ao3_7DOfeDI/hq720.jpg"
        },
        {
            "id": "zmk8FjFjHMg",
            "title": "शाळा नं. 13 | New Superhit Marathi Horror Comedy Movie | Bhushan Kadu | Johnny Rawat | Full Movie",
            "url": "https://www.youtube.com/watch?v=zmk8FjFjHMg",
            "duration": 6301.0,
            "view_count": 101869,
            "uploader": "Ultra Marathi",
            "category": "marathi",
            "thumbnail": "https://i.ytimg.com/vi/zmk8FjFjHMg/hq720.jpg"
        },
        {
            "id": "XnCPxjxf1ec",
            "title": "Ticha Chukla Tari Kay तिचं चुकलं तरी काय | Full Marathi Drama Movie | Rupali Bhosle | Mohan Joshi",
            "url": "https://www.youtube.com/watch?v=XnCPxjxf1ec",
            "duration": 6198.0,
            "view_count": 13461,
            "uploader": "Marathi Shorts Katta ",
            "category": "marathi",
            "thumbnail": "https://i.ytimg.com/vi/XnCPxjxf1ec/hq720.jpg"
        },
        {
            "id": "7fF51ZcG9yM",
            "title": "Ek Radha Ek Meera (2025) | Marathi Movie | Mrunmayi Deshpande, Surbhi Bhosale, Mahesh Manjrekar |",
            "url": "https://www.youtube.com/watch?v=7fF51ZcG9yM",
            "duration": 7954.0,
            "view_count": 103451,
            "uploader": "ALL in ONE Videos ",
            "category": "marathi",
            "thumbnail": "https://i.ytimg.com/vi/7fF51ZcG9yM/hqdefault.jpg"
        },
        {
            "id": "RAGuDV-suFQ",
            "title": "Kesari (केसरी) | New Marathi Full Movie | Mahesh Manjrekar, Vikram Gokhale, Virat Madake",
            "url": "https://www.youtube.com/watch?v=RAGuDV-suFQ",
            "duration": 7747.0,
            "view_count": 63644,
            "uploader": "Eros Universe Marathi ",
            "category": "marathi",
            "thumbnail": "https://i.ytimg.com/vi/RAGuDV-suFQ/hq720.jpg"
        },
        {
            "id": "Vs5aelfiuAk",
            "title": "Kesari (केसरी) | New Marathi Full Movie | Mahesh Manjrekar | Vikram Gokhale | Virat Madake",
            "url": "https://www.youtube.com/watch?v=Vs5aelfiuAk",
            "duration": 7737.0,
            "view_count": 4732141,
            "uploader": "Mzaalo Marathi Movies",
            "category": "marathi",
            "thumbnail": "https://i.ytimg.com/vi/Vs5aelfiuAk/hq720.jpg"
        },
        {
            "id": "QmUUNv5Gqrs",
            "title": "Cycle | Full Marathi Movie | Hrishikesh Joshi, Priyadarshan Jadhav | Heartwarming Comedy Drama",
            "url": "https://www.youtube.com/watch?v=QmUUNv5Gqrs",
            "duration": 5758.0,
            "view_count": 765310,
            "uploader": "Viacom18 Studios",
            "category": "marathi",
            "thumbnail": "https://i.ytimg.com/vi/QmUUNv5Gqrs/hq720.jpg"
        },
        {
            "id": "qy3pVL6wtH8",
            "title": "Ata Vel Zaali (आता वेळ झाली) | New Marathi Movie | Dilip Prabhavalkar, Rohini Hattangadi,Bhagyashree",
            "url": "https://www.youtube.com/watch?v=qy3pVL6wtH8",
            "duration": 5719.0,
            "view_count": 78313,
            "uploader": "Ultra Talkies and 3 more",
            "category": "marathi",
            "thumbnail": "https://i.ytimg.com/vi/qy3pVL6wtH8/hq720.jpg"
        },
        {
            "id": "tpGEbNF-cFY",
            "title": "Arjun (अर्जुन) | New Marathi Romantic Love Story | Amruta Khanvilkar, Sachit Patil | Full Movie 2011",
            "url": "https://www.youtube.com/watch?v=tpGEbNF-cFY",
            "duration": 8247.0,
            "view_count": 201705,
            "uploader": "Ultra Talkies",
            "category": "marathi",
            "thumbnail": "https://i.ytimg.com/vi/tpGEbNF-cFY/hq720.jpg"
        },
        {
            "id": "EQbd1oDNW0o",
            "title": "Ek Daav Bhootacha! (2025) | New Release Marathi Comedy Movie | Makarand Anaspure, Siddharth Jadhav",
            "url": "https://www.youtube.com/watch?v=EQbd1oDNW0o",
            "duration": 9086.0,
            "view_count": 10612769,
            "uploader": "Ultra Talkies",
            "category": "marathi",
            "thumbnail": "https://i.ytimg.com/vi/EQbd1oDNW0o/hq720.jpg"
        },
        {
            "id": "yvor2HnqOIc",
            "title": "SANSHAY (संशय ) | New Marathi Suspense Thriller Marathi Movie | Nithya Shri, Sudha Rani",
            "url": "https://www.youtube.com/watch?v=yvor2HnqOIc",
            "duration": 6916.0,
            "view_count": 100462,
            "uploader": "Marathi Cinema",
            "category": "marathi",
            "thumbnail": "https://i.ytimg.com/vi/yvor2HnqOIc/hq720.jpg"
        },
        {
            "id": "PMd5jNN0JuA",
            "title": "Ti Ani Mi (ती आणि मी) | प्रेम, वेदना आणि नात्यांची हृदयस्पर्शी कहाणी | Marathi Love Story Full Movie",
            "url": "https://www.youtube.com/watch?v=PMd5jNN0JuA",
            "duration": 8799.0,
            "view_count": 13054,
            "uploader": "Ultra Talkies",
            "category": "marathi",
            "thumbnail": "https://i.ytimg.com/vi/PMd5jNN0JuA/hq720.jpg"
        },
        {
            "id": "ou4v3uNmD1M",
            "title": "गोलमाल | Golmaal | Superhit Comedy Movie | Full Marathi Movie HD | Bharat Jadhav, Amruta Khanvilkar",
            "url": "https://www.youtube.com/watch?v=ou4v3uNmD1M",
            "duration": 8303.0,
            "view_count": 566146,
            "uploader": "Video Palace Movies",
            "category": "marathi",
            "thumbnail": "https://i.ytimg.com/vi/ou4v3uNmD1M/hq720.jpg"
        },
        {
            "id": "6q_1yqDTRQ4",
            "title": "Nashibvaan || Full HD Movie || Watch Now ||",
            "url": "https://www.youtube.com/watch?v=6q_1yqDTRQ4",
            "duration": 7189.0,
            "view_count": 430592,
            "uploader": "AR NEWS",
            "category": "marathi",
            "thumbnail": "https://i.ytimg.com/vi/6q_1yqDTRQ4/hq720.jpg"
        },
        {
            "id": "LW6HjrjNaSc",
            "title": "यंदा कर्तव्य आहे | Yanda Kartavya Aahe Full Movie | अंकुश चौधरी, स्मिता शेवाळे | Superhit Movie",
            "url": "https://www.youtube.com/watch?v=LW6HjrjNaSc",
            "duration": 9008.0,
            "view_count": 624962,
            "uploader": "EverestTalkies and 2 more",
            "category": "marathi",
            "thumbnail": "https://i.ytimg.com/vi/LW6HjrjNaSc/hq720.jpg?sqp=-oaymwEcCNAFEJQDSFXyq4qpAw4IARUAAIhCGAFwAcABBg==&rs=AOn4CLARTZHodD9tCosi4uEJOaU3E6re9A",
            "added_date": "2026-04-16T07:31:27.035868Z",
            "source": "youtube"
        },
        {
            "id": "TkZbaEOUM80",
            "title": "बापजन्म Baapjanma | Marathi Full Movie | Sachin Khedekar, Pushkaraj Chirputkar, Nipun Dharmadhikari",
            "url": "https://www.youtube.com/watch?v=TkZbaEOUM80",
            "duration": 7281.0,
            "view_count": 419339,
            "uploader": "EverestTalkies and 4 more",
            "category": "marathi",
            "thumbnail": "https://i.ytimg.com/vi/TkZbaEOUM80/hq720.jpg"
        },
        {
            "id": "P-rSkda_Nmw",
            "title": "MI SHIVAJI PARK {Full Movie}HD | Ashok Saraf | Marathi Suspense Thriller | Five Friends, One Mystery",
            "url": "https://www.youtube.com/watch?v=P-rSkda_Nmw",
            "duration": 7241.0,
            "view_count": 299,
            "uploader": "Maharashtracha Crorepati",
            "category": "marathi",
            "thumbnail": "https://i.ytimg.com/vi/P-rSkda_Nmw/hq720.jpg"
        },
        {
            "id": "gQo6-7aJIt0",
            "title": "नवीन मराठी कॉमेडी चित्रपट - Latest Marathi Movie 2023 - Jhangadgutta (2018) - Full Movie HD",
            "url": "https://www.youtube.com/watch?v=gQo6-7aJIt0",
            "duration": 6759.0,
            "view_count": 2338901,
            "uploader": "Marathi Movie Talkies",
            "category": "marathi",
            "thumbnail": "https://i.ytimg.com/vi/gQo6-7aJIt0/hq720.jpg"
        },
        {
            "id": "r2yNUli0qQk",
            "title": "Ti Saddhya Kay Karte (2017) Full Marathi Movie HD | Ankush Chaudhari | Tejashri Pradhan | Superhit ",
            "url": "https://www.youtube.com/watch?v=r2yNUli0qQk",
            "duration": 5918.0,
            "view_count": 78,
            "uploader": "S.B Fun club",
            "category": "marathi",
            "thumbnail": "https://i.ytimg.com/vi/r2yNUli0qQk/hqdefault.jpg"
        },
        {
            "id": "nwqogq57cw0",
            "title": "Dhum Dhadaka - Marathi Movie - Mahesh Kothare, Ashok Saraf, L Berde, Nivedita Saraf, Sharad T",
            "url": "https://www.youtube.com/watch?v=nwqogq57cw0",
            "duration": 8791.0,
            "view_count": 2588291,
            "uploader": "Zee Talkies",
            "category": "marathi",
            "thumbnail": "https://i.ytimg.com/vi/nwqogq57cw0/hqdefault.jpg"
        },
        {
            "id": "lzDS0Pv0a9Q",
            "title": "chintoo 2 full marathi movie #ZeeTalkies  @Mitron Gaming  20M #Zeemarathi #movie  #marathimovies",
            "url": "https://www.youtube.com/watch?v=lzDS0Pv0a9Q",
            "duration": 6580.0,
            "view_count": 1182854,
            "uploader": "Aao Instagram Sikho",
            "category": "marathi",
            "thumbnail": "https://i.ytimg.com/vi/lzDS0Pv0a9Q/hqdefault.jpg?sqp=-oaymwEcCOADEI4CSFXyq4qpAw4IARUAAIhCGAFwAcABBg==&rs=AOn4CLDr-YbsvP_Nq01fj2KWWW55mPl59Q",
            "added_date": "2026-04-16T07:31:28.839090Z",
            "source": "youtube"
        },
        {
            "id": "2S1lP0-4Nfw",
            "title": "चकवा | Chakwa | Full Marathi Movie HD | Atul Kulkarni, Mukta Barve, Deepa Parab, Suhas Palashikar",
            "url": "https://www.youtube.com/watch?v=2S1lP0-4Nfw",
            "duration": 7847.0,
            "view_count": 879843,
            "uploader": "Video Palace Movies",
            "category": "marathi",
            "thumbnail": "https://i.ytimg.com/vi/2S1lP0-4Nfw/hq720.jpg"
        },
        {
            "id": "8JN87_ESr6k",
            "title": "4 इडियट्स Full Movie - स्वप्निल जोशी, सिद्धार्थ जाधव, भरत जाधव - 4 Idiots-Comedy Marathi Movies (HD)",
            "url": "https://www.youtube.com/watch?v=8JN87_ESr6k",
            "duration": 7235.0,
            "view_count": 4561985,
            "uploader": "Shemaroo MarathiBana",
            "category": "marathi",
            "thumbnail": "https://i.ytimg.com/vi/8JN87_ESr6k/hq720.jpg"
        },
        {
            "id": "I5JNCqdCiww",
            "title": "Sukhant (सुखांत) | आईची शेवटची इच्छा 😢| New Superhit Marathi Emotional Full Movie | Nagesh Bhonsle",
            "url": "https://www.youtube.com/watch?v=I5JNCqdCiww",
            "duration": 6178.0,
            "view_count": 111726,
            "uploader": "Marathi MoviePlex and 3 more",
            "category": "marathi",
            "thumbnail": "https://i.ytimg.com/vi/I5JNCqdCiww/hq720.jpg"
        },
        {
            "id": "GYI10f5bBrM",
            "title": "Mast Chalalay Aamcha 2011 Full HD Movie",
            "url": "https://www.youtube.com/watch?v=GYI10f5bBrM",
            "duration": 7185.0,
            "view_count": 642854,
            "uploader": "As You Wish",
            "category": "marathi",
            "thumbnail": "https://i.ytimg.com/vi/GYI10f5bBrM/hq720.jpg"
        },
        {
            "id": "DsVtmFOvc9o",
            "title": "मुंबई पुणे मुंबई Mumbai Pune Mumbai Full Movie | Swapnil Joshi & Mukta Barve | Best Romantic Movie",
            "url": "https://www.youtube.com/watch?v=DsVtmFOvc9o",
            "duration": 6387.0,
            "view_count": 1575834,
            "uploader": "MarathiTalkies and 2 more",
            "category": "marathi",
            "thumbnail": "https://i.ytimg.com/vi/DsVtmFOvc9o/hq720.jpg"
        },
        {
            "id": "0WST5mM-ug4",
            "title": "Deool Band - Marathi Full Movie - Mohan Joshi, Nivedita Saraf, Gashmeer Mahajani, Girija Joshi",
            "url": "https://www.youtube.com/watch?v=0WST5mM-ug4",
            "duration": 9496.0,
            "view_count": 15707209,
            "uploader": "Zee Movies Marathi",
            "category": "marathi",
            "thumbnail": "https://i.ytimg.com/vi/0WST5mM-ug4/hqdefault.jpg"
        },
        {
            "id": "2HjKuJZ64gM",
            "title": "तुला कळणार नाही | Full Marathi Movie FREE  | Sonalee Kulkarni, Subodh Bhave | Love, Marriage Drama",
            "url": "https://www.youtube.com/watch?v=2HjKuJZ64gM",
            "duration": 6854.0,
            "view_count": 128974,
            "uploader": "Gseams",
            "category": "marathi",
            "thumbnail": "https://i.ytimg.com/vi/2HjKuJZ64gM/hq720.jpg"
        },
        {
            "id": "DHBv2XB-LSs",
            "title": "Divsen Divas  (दिवसें दिवस) | Full Marathi Movie HD | Sunil Barve, Aditi Sharanghdar, Mohan Joshi",
            "url": "https://www.youtube.com/watch?v=DHBv2XB-LSs",
            "duration": 6616.0,
            "view_count": 460651,
            "uploader": "Video Palace Movies",
            "category": "marathi",
            "thumbnail": "https://i.ytimg.com/vi/DHBv2XB-LSs/hq720.jpg"
        },
        {
            "id": "jMNYuoBu5Q8",
            "title": "मातीच्या चुली Matichya Chuli | Marathi Full Movie |Ankush Chaudhari, Madhura Velankar, Vandana Gupte",
            "url": "https://www.youtube.com/watch?v=jMNYuoBu5Q8",
            "duration": 7957.0,
            "view_count": 509956,
            "uploader": "MarathiTalkies and 4 more",
            "category": "marathi",
            "thumbnail": "https://i.ytimg.com/vi/jMNYuoBu5Q8/hq720.jpg?sqp=-oaymwEcCNAFEJQDSFXyq4qpAw4IARUAAIhCGAFwAcABBg==&rs=AOn4CLDGVKtd9qUN0bKiBvz7p97_mhQKAQ",
            "added_date": "2026-04-16T07:31:26.234280Z",
            "source": "youtube"
        },
        {
            "id": "qwSIsdIHreQ",
            "title": "Pranada (प्राणदा) | New Romantic Marathi Love Story Movie | Sayali Sanjeev,Abhijit Amkar,Mohan Joshi",
            "url": "https://www.youtube.com/watch?v=qwSIsdIHreQ",
            "duration": 6715.0,
            "view_count": 113981,
            "uploader": "Ultra Talkies and 3 more",
            "category": "marathi",
            "thumbnail": "https://i.ytimg.com/vi/qwSIsdIHreQ/hq720.jpg"
        },
        {
            "id": "hijfe__WQSY",
            "title": "PENSION (पेन्शन) Marathi Full Movie | Sonali Kulkarni, Sumit Gutte, Nilambari Khamkar",
            "url": "https://www.youtube.com/watch?v=hijfe__WQSY",
            "duration": 5231.0,
            "view_count": 2228242,
            "uploader": "Mzaalo Marathi Movies",
            "category": "marathi",
            "thumbnail": "https://i.ytimg.com/vi/hijfe__WQSY/hq720.jpg"
        },
        {
            "id": "-x0CjfojOlE",
            "title": "MANUS EK MATI - Full Marathi Movie | Siddharth Jadhav, Ruchita Jadhav, Heena Panchal | माणूस एक माती",
            "url": "https://www.youtube.com/watch?v=-x0CjfojOlE",
            "duration": 7769.0,
            "view_count": 101116,
            "uploader": "Fakt Marathi Tv",
            "category": "marathi",
            "thumbnail": "https://i.ytimg.com/vi/-x0CjfojOlE/hq720.jpg"
        },
        {
            "id": "hCftg8_K3og",
            "title": "Ashi Hi Banwa Banwi | अशी हि बनवा बनवी | Dhamaal Comedy Marathi Movie | Ashok Saraf | Laxmikant",
            "url": "https://www.youtube.com/watch?v=hCftg8_K3og",
            "duration": 8209.0,
            "view_count": 4337180,
            "uploader": "NH Golden Plaza ",
            "category": "marathi",
            "thumbnail": "https://i.ytimg.com/vi/hCftg8_K3og/hq720.jpg"
        }
    ]
}