{
    "page": 2,
    "total_pages": 4,
    "total_items": 180,
    "items": [
        {
            "id": "XIYUOPy6QmE",
            "title": "Lagna Kallol (2024) | New Marathi Romantic Comedy Movie | Siddharth Jadhav, Bhushan Pradhan, Mayuri",
            "url": "https://www.youtube.com/watch?v=XIYUOPy6QmE",
            "duration": 7879.0,
            "view_count": 4108184,
            "uploader": "Ultra Talkies",
            "category": "marathi",
            "thumbnail": "https://i.ytimg.com/vi/XIYUOPy6QmE/hq720.jpg"
        },
        {
            "id": "07QqNQf-xjk",
            "title": "One Way Ticket | Marathi Movie HD | Mystery | Sachit Patil | Amruta Khanvilkar | Shashank Ketkar",
            "url": "https://www.youtube.com/watch?v=07QqNQf-xjk",
            "duration": 5625.0,
            "view_count": 1193559,
            "uploader": "Video Palace Movies",
            "category": "marathi",
            "thumbnail": "https://i.ytimg.com/vi/07QqNQf-xjk/hq720.jpg"
        },
        {
            "id": "-ecwj_2pY2I",
            "title": "ओली की सुकी - Oli Ki Suki | Full HD | Marathi Film / Movie | Subodh Bhave | Tejashri Pradhan",
            "url": "https://www.youtube.com/watch?v=-ecwj_2pY2I",
            "duration": 6227.0,
            "view_count": 701959,
            "uploader": "Sumeet Music",
            "category": "marathi",
            "thumbnail": "https://i.ytimg.com/vi/-ecwj_2pY2I/hq720.jpg"
        },
        {
            "id": "Q8952bUeJXo",
            "title": "पोपट Popat | Marathi Full Comedy Movie | Satish Rajwade, Amey Wagh, Atul Kulkarni, Siddharth Menon",
            "url": "https://www.youtube.com/watch?v=Q8952bUeJXo",
            "duration": 9201.0,
            "view_count": 100549,
            "uploader": "EverestTalkies and 4 more",
            "category": "marathi",
            "thumbnail": "https://i.ytimg.com/vi/Q8952bUeJXo/hq720.jpg"
        },
        {
            "id": "sYSaOC8xz6Y",
            "title": "Gola Berij ( गोळा बेरीज ) | New Released Comedy Marathi Movie | Mukta Barve,Dilip Prabhavalkar",
            "url": "https://www.youtube.com/watch?v=sYSaOC8xz6Y",
            "duration": 8401.0,
            "view_count": 110328,
            "uploader": "Marathi Cinema and Marathi MoviePlex",
            "category": "marathi",
            "thumbnail": "https://i.ytimg.com/vi/sYSaOC8xz6Y/hq720.jpg"
        },
        {
            "id": "jzK3OALRIXs",
            "title": "Punha Ekda Sade Made Teen (2026) | Full Marathi Movie | New Marathi Movie |Full HD #newmarathimovie",
            "url": "https://www.youtube.com/watch?v=jzK3OALRIXs",
            "duration": 8550.0,
            "view_count": 38708,
            "uploader": "Everest Marathi Movies ",
            "category": "marathi",
            "thumbnail": "https://i.ytimg.com/vi/jzK3OALRIXs/hq720.jpg"
        },
        {
            "id": "5M-A8ANuD_Y",
            "title": "Chowk Full Movie |Kiran Gaikwad |Sanskruti Balgude |Pravin Tarde |SnehalTarde #chowk #newmovie #new",
            "url": "https://www.youtube.com/watch?v=5M-A8ANuD_Y",
            "duration": 8056.0,
            "view_count": 2722851,
            "uploader": "movies",
            "category": "marathi",
            "thumbnail": "https://i.ytimg.com/vi/5M-A8ANuD_Y/hq720.jpg"
        },
        {
            "id": "APkwbnlgJ50",
            "title": "Ashok Saraf & Laxmikant Berde’s Superhit Comedy Movie! 😂 Than Than Gopal (1992) Full HD Movie",
            "url": "https://www.youtube.com/watch?v=APkwbnlgJ50",
            "duration": 8339.0,
            "view_count": 174268,
            "uploader": "Marathi Shorts Katta ",
            "category": "marathi",
            "thumbnail": "https://i.ytimg.com/vi/APkwbnlgJ50/hq720.jpg"
        },
        {
            "id": "lIGdV5k670k",
            "title": "UNAAD | FULL MARATHI MOVIE | #unaad #marathimovie #fullmovie",
            "url": "https://www.youtube.com/watch?v=lIGdV5k670k",
            "duration": 6293.0,
            "view_count": 65744,
            "uploader": "Deepak Matere",
            "category": "marathi",
            "thumbnail": "https://i.ytimg.com/vi/lIGdV5k670k/hqdefault.jpg"
        },
        {
            "id": "vJHpsetoyno",
            "title": "वहिनीची माया | Vahinichi Maya (1998) | Superhit Marathi Movie | | Full HD | Alka Kubal, Ajinkya Deo",
            "url": "https://www.youtube.com/watch?v=vJHpsetoyno",
            "duration": 8872.0,
            "view_count": 975132,
            "uploader": "NH Golden Plaza ",
            "category": "marathi",
            "thumbnail": "https://i.ytimg.com/vi/vJHpsetoyno/hq720.jpg"
        },
        {
            "id": "TRot-54oYII",
            "title": "(सुंदरी) SUNDARI | NEW MARATHI SUSPENSE THRILLER FULL MOVIE 2026 | Mrinal Kulkarni, Subodh Bhave",
            "url": "https://www.youtube.com/watch?v=TRot-54oYII",
            "duration": 5802.0,
            "view_count": 94622,
            "uploader": "Marathi Cinema",
            "category": "marathi",
            "thumbnail": "https://i.ytimg.com/vi/TRot-54oYII/hq720.jpg"
        },
        {
            "id": "elvHJgtOuBM",
            "title": "ANAAN (Ardhnaari Natheshwer)Official Full Movie #prarthanabehere & #sukhadakhandkekar #1million ",
            "url": "https://www.youtube.com/watch?v=elvHJgtOuBM",
            "duration": 7479.0,
            "view_count": 293634,
            "uploader": "WS&V VIZIPLEX",
            "category": "marathi",
            "thumbnail": "https://i.ytimg.com/vi/elvHJgtOuBM/hq720.jpg"
        },
        {
            "id": "F6FffQ2Ugh4",
            "title": "Zindagi Virat (जिंदगी विराट) | Full Marathi Movie | Bhau Kadam | Atul Parchure | Om Bhutkar",
            "url": "https://www.youtube.com/watch?v=F6FffQ2Ugh4",
            "duration": 8126.0,
            "view_count": 156404,
            "uploader": "Eros Universe Marathi ",
            "category": "marathi",
            "thumbnail": "https://i.ytimg.com/vi/F6FffQ2Ugh4/hq720.jpg"
        },
        {
            "id": "wlgzoi-4GPs",
            "title": "Zombivli - Marathi Full Movie - Amey Wagh, Vaidehi Parashurami, Lalit Prabhakar",
            "url": "https://www.youtube.com/watch?v=wlgzoi-4GPs",
            "duration": 7702.0,
            "view_count": 1186219,
            "uploader": "Zee Talkies",
            "category": "marathi",
            "thumbnail": "https://i.ytimg.com/vi/wlgzoi-4GPs/hqdefault.jpg"
        },
        {
            "id": "4BYChE5lrUk",
            "title": "🔥 Kunku Zala Vairi (Full Film) | Family Drama + Action | Pallavi Subhash, Sayaji Shinde | HD Movie",
            "url": "https://www.youtube.com/watch?v=4BYChE5lrUk",
            "duration": 9037.0,
            "view_count": 9392145,
            "uploader": "Rajshri Marathi",
            "category": "marathi",
            "thumbnail": "https://i.ytimg.com/vi/4BYChE5lrUk/hq720.jpg"
        },
        {
            "id": "hqvSCRrL0sI",
            "title": "Kalavri (कलवरी) | Super Hit Marathi Full Marathi Movie | Rajeshwari Kharat, Rahul D, Ankita R,",
            "url": "https://www.youtube.com/watch?v=hqvSCRrL0sI",
            "duration": 8055.0,
            "view_count": 2366556,
            "uploader": "RAA Films pure Entertainment ",
            "category": "marathi",
            "thumbnail": "https://i.ytimg.com/vi/hqvSCRrL0sI/hq720.jpg"
        },
        {
            "id": "m8nH4TmehTU",
            "title": "Ubuntu Marathi Movie. #ubuntuMarathimovie #marathimovie #LastestMarathimovie #BhagyshreeMilindMovies",
            "url": "https://www.youtube.com/watch?v=m8nH4TmehTU",
            "duration": 6419.0,
            "view_count": 1337063,
            "uploader": "KUNAL SALUNKHE",
            "category": "marathi",
            "thumbnail": "https://i.ytimg.com/vi/m8nH4TmehTU/hqdefault.jpg"
        },
        {
            "id": "OqQWTXv7rVo",
            "title": "Asehi Ekada Vhave (असेही एकदा व्हावे) Full Marathi Movie | Umesh Kamat, Tejashree Pradhan | Mzaalo",
            "url": "https://www.youtube.com/watch?v=OqQWTXv7rVo",
            "duration": 6869.0,
            "view_count": 6140941,
            "uploader": "Mzaalo Marathi Movies",
            "category": "marathi",
            "thumbnail": "https://i.ytimg.com/vi/OqQWTXv7rVo/hq720.jpg"
        },
        {
            "id": "k0lq1KkHXd0",
            "title": "Marathi new release movie 2025 | marathi new full movie 2025 #movie #marathi #newmovie ",
            "url": "https://www.youtube.com/watch?v=k0lq1KkHXd0",
            "duration": 4573.0,
            "view_count": 74882,
            "uploader": "Movies Tube",
            "category": "marathi",
            "thumbnail": "https://i.ytimg.com/vi/k0lq1KkHXd0/hq720.jpg"
        },
        {
            "id": "ejj4w-FZpP4",
            "title": "(आश्रय) Aashray - New Released Marathi Movie - Nishigandha Wad, Shweta Pagar - Full Movie",
            "url": "https://www.youtube.com/watch?v=ejj4w-FZpP4",
            "duration": 7503.0,
            "view_count": 122400,
            "uploader": "Marathi Filmy Duniya",
            "category": "marathi",
            "thumbnail": "https://i.ytimg.com/vi/ejj4w-FZpP4/hq720.jpg"
        },
        {
            "id": "Zi2_qdtKvOg",
            "title": "April may 99 2025 movie ",
            "url": "https://www.youtube.com/watch?v=Zi2_qdtKvOg",
            "duration": 7606.0,
            "view_count": 2692,
            "uploader": "Rupesh Ghadshi",
            "category": "marathi",
            "thumbnail": "https://i.ytimg.com/vi/Zi2_qdtKvOg/hq720.jpg"
        },
        {
            "id": "d7G1mG6QYZU",
            "title": "Devmanus full movie marathi #youtube #devmanus",
            "url": "https://www.youtube.com/watch?v=d7G1mG6QYZU",
            "duration": 6241.0,
            "view_count": 367226,
            "uploader": "sk new movie",
            "category": "marathi",
            "thumbnail": "https://i.ytimg.com/vi/d7G1mG6QYZU/hq720.jpg"
        },
        {
            "id": "WKk5yPwnDl0",
            "title": "Balak Palak Marathi Movie Full HD | बालक पालक |  | 2013",
            "url": "https://www.youtube.com/watch?v=WKk5yPwnDl0",
            "duration": 5947.0,
            "view_count": 485403,
            "uploader": "AbhiJiet Digital",
            "category": "marathi",
            "thumbnail": "https://i.ytimg.com/vi/WKk5yPwnDl0/hqdefault.jpg"
        },
        {
            "id": "8tcWQ38xolQ",
            "title": "Ashok Saraf & Laxmikant Berde Marathi Comedy Full HD Movie - Than Than Gopal | मराठी कॉमेडी चित्रपट",
            "url": "https://www.youtube.com/watch?v=8tcWQ38xolQ",
            "duration": 8339.0,
            "view_count": 364758,
            "uploader": "NH Golden Plaza ",
            "category": "marathi",
            "thumbnail": "https://i.ytimg.com/vi/8tcWQ38xolQ/hq720.jpg"
        },
        {
            "id": "WtymLog9eGY",
            "title": "mulshi pattern full Marathi movie #mulshipattern #movie ",
            "url": "https://www.youtube.com/watch?v=WtymLog9eGY",
            "duration": 3806.0,
            "view_count": 26713,
            "uploader": "YouTube lover...•1 million views •24 hours",
            "category": "marathi",
            "thumbnail": "https://i.ytimg.com/vi/WtymLog9eGY/hqdefault.jpg"
        },
        {
            "id": "JJcJG4vz9VE",
            "title": "दमलेल्या बाबाची कहाणी - Full Movie - Latest Marathi Movie - Damlelya Babachi Kahani - Full Movie HD",
            "url": "https://www.youtube.com/watch?v=JJcJG4vz9VE",
            "duration": 6889.0,
            "view_count": 536918,
            "uploader": "Shemaroo MarathiBana",
            "category": "marathi",
            "thumbnail": "https://i.ytimg.com/vi/JJcJG4vz9VE/hq720.jpg"
        },
        {
            "id": "XCAQB4EYMLw",
            "title": "(फुलराणी) FULRANI | Romantic Marathi Full Movie | Bhushan Pradhan,Shivani Surve | Ultra Chitranagari",
            "url": "https://www.youtube.com/watch?v=XCAQB4EYMLw",
            "duration": 6683.0,
            "view_count": 196899,
            "uploader": "Ultra Chitranagari",
            "category": "marathi",
            "thumbnail": "https://i.ytimg.com/vi/XCAQB4EYMLw/hq720.jpg?sqp=-oaymwEcCNAFEJQDSFXyq4qpAw4IARUAAIhCGAFwAcABBg==&rs=AOn4CLCYUs_v4Y1zOYPRCn7Xf-MnaRQh2g",
            "added_date": "2026-04-16T07:31:28.438371Z",
            "source": "youtube"
        },
        {
            "id": "b0t3St8KYZc",
            "title": "Copy (कॉपी )Official Marathi Full Movie| New Release |Anshuman Vichare,Milind Shinde| 1st Time on YT",
            "url": "https://www.youtube.com/watch?v=b0t3St8KYZc",
            "duration": 6604.0,
            "view_count": 2448145,
            "uploader": "Ultra Chitranagari",
            "category": "marathi",
            "thumbnail": "https://i.ytimg.com/vi/b0t3St8KYZc/hq720.jpg"
        },
        {
            "id": "Ze_q_XYwhQI",
            "title": "Bayko Pan Kunachi (बायको… पण कुणाची) | New Marathi Romantic Suspense Movie | Sai Tamhankar, Ajinkya",
            "url": "https://www.youtube.com/watch?v=Ze_q_XYwhQI",
            "duration": 6051.0,
            "view_count": 253733,
            "uploader": "Ultra Talkies",
            "category": "marathi",
            "thumbnail": "https://i.ytimg.com/vi/Ze_q_XYwhQI/hq720.jpg"
        },
        {
            "id": "TgKICdOfD-k",
            "title": "अगं बाई अरेच्चा | Aga Bai Arechya | Full Movie | Best Comedy Film | Sanjay Narvekar, Bharat Jadhav",
            "url": "https://www.youtube.com/watch?v=TgKICdOfD-k",
            "duration": 8624.0,
            "view_count": 4638919,
            "uploader": "Video Palace Movies",
            "category": "marathi",
            "thumbnail": "https://i.ytimg.com/vi/TgKICdOfD-k/hq720.jpg"
        },
        {
            "id": "5-o8c9kb8to",
            "title": "Respect \"सात फेऱ्या, दोन मुली–एक प्रेमकथा!\" |New Released Romantic Marathi Full Movie |Prajakta Mali",
            "url": "https://www.youtube.com/watch?v=5-o8c9kb8to",
            "duration": 8799.0,
            "view_count": 987148,
            "uploader": "Marathi Cinema",
            "category": "marathi",
            "thumbnail": "https://i.ytimg.com/vi/5-o8c9kb8to/hq720.jpg"
        },
        {
            "id": "JPkVMqPL1MA",
            "title": "Ashok Saraf & Ranjana Deshmukh Khichdi Full Marathi Classic Comedy Movie -  मराठी कॉमेडी चित्रपट",
            "url": "https://www.youtube.com/watch?v=JPkVMqPL1MA",
            "duration": 8159.0,
            "view_count": 434569,
            "uploader": "NH Marathi",
            "category": "marathi",
            "thumbnail": "https://i.ytimg.com/vi/JPkVMqPL1MA/hq720.jpg"
        },
        {
            "id": "BSfhoZG-Fa8",
            "title": "Aflatoon (अफलातून) - Full Movie HD - Best Marathi Comedy Movie - Laxmikant Berde, Ashok Saraf",
            "url": "https://www.youtube.com/watch?v=BSfhoZG-Fa8",
            "duration": 7384.0,
            "view_count": 2546224,
            "uploader": "Shemaroo MarathiBana",
            "category": "marathi",
            "thumbnail": "https://i.ytimg.com/vi/BSfhoZG-Fa8/hq720.jpg"
        },
        {
            "id": "R3x1aV0jx78",
            "title": "(मुक्काम पोस्ट मुंबई) Mukkam Post Mumbai | New Marathi Movie | Subodh Bhave, Madhura Velankar",
            "url": "https://www.youtube.com/watch?v=R3x1aV0jx78",
            "duration": 8290.0,
            "view_count": 11987,
            "uploader": "Ultra Marathi",
            "category": "marathi",
            "thumbnail": "https://i.ytimg.com/vi/R3x1aV0jx78/hq720.jpg"
        },
        {
            "id": "EP9Z2KjpxhA",
            "title": "DagaLa Lagli Kal - Superhit Maarthi Comedy Full Movie | Nilu Phule, Ratnamala, Kuldeep Pawar",
            "url": "https://www.youtube.com/watch?v=EP9Z2KjpxhA",
            "duration": 7967.0,
            "view_count": 30847,
            "uploader": "GoldminesMarathi",
            "category": "marathi",
            "thumbnail": "https://i.ytimg.com/vi/EP9Z2KjpxhA/hq720.jpg"
        },
        {
            "id": "eU-nPZ-EgSc",
            "title": "Rubaab (रुबाब) full movie | marathi movie | full hd | use headphones for better sound ",
            "url": "https://www.youtube.com/watch?v=eU-nPZ-EgSc",
            "duration": 8839.0,
            "view_count": 522,
            "uploader": "kedar chavan",
            "category": "marathi",
            "thumbnail": "https://i.ytimg.com/vi/eU-nPZ-EgSc/hqdefault.jpg"
        },
        {
            "id": "PCKXFOTyBqk",
            "title": "Sau Shashi Deodhar (सौ शशी देवधर) - Sai Tamhankar Superhit Suspense Thriller Movie - Ajinkya Deo",
            "url": "https://www.youtube.com/watch?v=PCKXFOTyBqk",
            "duration": 6051.0,
            "view_count": 450586,
            "uploader": "Ultra Marathi",
            "category": "marathi",
            "thumbnail": "https://i.ytimg.com/vi/PCKXFOTyBqk/hq720.jpg"
        },
        {
            "id": "tMjeA94HMls",
            "title": "Kaccha Limbu (कच्चा लिंबू) | New Marathi Family Drama Movie | Sonali Kulkarni, Ravi Jadhav",
            "url": "https://www.youtube.com/watch?v=tMjeA94HMls",
            "duration": 7012.0,
            "view_count": 57855,
            "uploader": "Ultra Marathi and Marathi Filmy Duniya",
            "category": "marathi",
            "thumbnail": "https://i.ytimg.com/vi/tMjeA94HMls/hq720.jpg"
        },
        {
            "id": "9QHhkDL2bfs",
            "title": "Checkmate - Marathi Movie - Ankush C, Sonali K, Sanjay N, Swapnil Joshi, Anand A, Smita T, Vinay A",
            "url": "https://www.youtube.com/watch?v=9QHhkDL2bfs",
            "duration": 7609.0,
            "view_count": 1370389,
            "uploader": "Zee Movies Marathi",
            "category": "marathi",
            "thumbnail": "https://i.ytimg.com/vi/9QHhkDL2bfs/hqdefault.jpg"
        },
        {
            "id": "iUJBn9hHZPk",
            "title": "Gavthi (गावठी) Full Marathi Movie | Kushal Badrike, Nagesh Bhonsle, Yogita Chavan, Kishore Chougule",
            "url": "https://www.youtube.com/watch?v=iUJBn9hHZPk",
            "duration": 8085.0,
            "view_count": 83141,
            "uploader": "Mzaalo Marathi Movies",
            "category": "marathi",
            "thumbnail": "https://i.ytimg.com/vi/iUJBn9hHZPk/hq720.jpg"
        },
        {
            "id": "RMAFTQKUHp4",
            "title": "जित्राब | Jitraab Marathi comedy movie | Suhas Palshikar | Parth Bhalerao | Shivali Parab | Bharat G",
            "url": "https://www.youtube.com/watch?v=RMAFTQKUHp4",
            "duration": 6284.0,
            "view_count": 561561,
            "uploader": "SGMF Music",
            "category": "marathi",
            "thumbnail": "https://i.ytimg.com/vi/RMAFTQKUHp4/hq720.jpg"
        },
        {
            "id": "9NP7R5qTRVc",
            "title": "Kay Ga Sakhu - Blockbuster Marathi Movie l Arun Sarnaik, Padma Chowhan, Raj Shekhar",
            "url": "https://www.youtube.com/watch?v=9NP7R5qTRVc",
            "duration": 6617.0,
            "view_count": 4921,
            "uploader": "GoldminesMarathi",
            "category": "marathi",
            "thumbnail": "https://i.ytimg.com/vi/9NP7R5qTRVc/hq720.jpg"
        },
        {
            "id": "nuUTouvLRKY",
            "title": "Manjha (मांजा) - Marathi Full Movie - Rohit Phalke, Sumedh Mudgalkar, Ashwini Bhave",
            "url": "https://www.youtube.com/watch?v=nuUTouvLRKY",
            "duration": 7176.0,
            "view_count": 1056531,
            "uploader": "Zee Movies Marathi",
            "category": "marathi",
            "thumbnail": "https://i.ytimg.com/vi/nuUTouvLRKY/hqdefault.jpg"
        },
        {
            "id": "a9REOXihurE",
            "title": "बालगंधर्व Balgandharva | Marathi Full Movie | सुबोध भावे, विभावरी देशपांडे | Marathi Biopic Movie",
            "url": "https://www.youtube.com/watch?v=a9REOXihurE",
            "duration": 7478.0,
            "view_count": 321232,
            "uploader": "MarathiTalkies and 4 more",
            "category": "marathi",
            "thumbnail": "https://i.ytimg.com/vi/a9REOXihurE/hq720.jpg"
        },
        {
            "id": "YZQZpIbEdxg",
            "title": "Panhala (पन्हाळा) | एक रहस्यमय प्रवास | New Superhit Marathi Movie | Makrand Deshpande,Nagesh Bhosle",
            "url": "https://www.youtube.com/watch?v=YZQZpIbEdxg",
            "duration": 6509.0,
            "view_count": 91064,
            "uploader": "Ultra Talkies",
            "category": "marathi",
            "thumbnail": "https://i.ytimg.com/vi/YZQZpIbEdxg/hq720.jpg"
        },
        {
            "id": "GFUzclVjnFo",
            "title": "नारबाची वाडी | Narbachi Wadi | Full Marathi Movie HD | Dilip Prabhavalkar, Kishori Shahane",
            "url": "https://www.youtube.com/watch?v=GFUzclVjnFo",
            "duration": 7184.0,
            "view_count": 1253368,
            "uploader": "Video Palace Movies",
            "category": "marathi",
            "thumbnail": "https://i.ytimg.com/vi/GFUzclVjnFo/hq720.jpg"
        },
        {
            "id": "CxX4I-JNlT8",
            "title": "Ti Ani Itar (ती आणि इतर) | New Marathi Romantic Love Story | Subodh Bhave, Sonali Kulkarni, Bhushan",
            "url": "https://www.youtube.com/watch?v=CxX4I-JNlT8",
            "duration": 6273.0,
            "view_count": 137331,
            "uploader": "Ultra Talkies and Ultra Manoranjan",
            "category": "marathi",
            "thumbnail": "https://i.ytimg.com/vi/CxX4I-JNlT8/hq720.jpg"
        },
        {
            "id": "7p_PBgKEMvE",
            "title": "KALAKAAR - Full Marathi Movie | Bhushan Pradhan, Amruta Deshmukh | कलाकार मराठी चित्रपट",
            "url": "https://www.youtube.com/watch?v=7p_PBgKEMvE",
            "duration": 5085.0,
            "view_count": 7997,
            "uploader": "Fakt Marathi Tv",
            "category": "marathi",
            "thumbnail": "https://i.ytimg.com/vi/7p_PBgKEMvE/hq720.jpg"
        },
        {
            "id": "ks9D0D5k5zs",
            "title": "Taptapadi (तप्तपदी) | Full Marathi Movie HD | (2014) Kashyap Parulekar, Veena Jamkar, Shruti Marathe",
            "url": "https://www.youtube.com/watch?v=ks9D0D5k5zs",
            "duration": 7617.0,
            "view_count": 333453,
            "uploader": "Unrrated Movies",
            "category": "marathi",
            "thumbnail": "https://i.ytimg.com/vi/ks9D0D5k5zs/hqdefault.jpg"
        },
        {
            "id": "DCeGyq-Ff3M",
            "title": "लालबाग परळ: झाली मुंबई सोन्याची Lalbaug Parel | Superhit Marathi Movie | City Of Gold - Full Movie",
            "url": "https://www.youtube.com/watch?v=DCeGyq-Ff3M",
            "duration": 8794.0,
            "view_count": 489081,
            "uploader": "MarathiTalkies and 4 more",
            "category": "marathi",
            "thumbnail": "https://i.ytimg.com/vi/DCeGyq-Ff3M/hq720.jpg?sqp=-oaymwEcCNAFEJQDSFXyq4qpAw4IARUAAIhCGAFwAcABBg==&rs=AOn4CLCbuQ9Y-Q3kFQ1gvtuJtMrywACC9g",
            "added_date": "2026-04-16T07:31:27.436588Z",
            "source": "youtube"
        }
    ]
}