{
    "page": 4,
    "total_pages": 5,
    "total_items": 238,
    "items": [
        {
            "id": "BL9Fm8BgeqY",
            "title": "Vandi - வண்டி (2018) | Tamil Full Movie | Vidharth, Chandini Tamilarasan | Comedy Drama (HD)",
            "url": "https://www.youtube.com/watch?v=BL9Fm8BgeqY",
            "duration": 7910.0,
            "view_count": 96093,
            "uploader": "Eros Universe South",
            "category": "tamil",
            "thumbnail": "https://i.ytimg.com/vi/BL9Fm8BgeqY/hq720.jpg"
        },
        {
            "id": "5Oc4RZhnFy4",
            "title": "santhosh subramaniam full movie tamil |Jayam Ravi |Genelia | Prakash Raj, Geetha |Sayaji Shinde|",
            "url": "https://www.youtube.com/watch?v=5Oc4RZhnFy4",
            "duration": 10600.0,
            "view_count": 89785,
            "uploader": "_.tess__",
            "category": "tamil",
            "thumbnail": "https://i.ytimg.com/vi/5Oc4RZhnFy4/hq720.jpg"
        },
        {
            "id": "OhNDoZLPW-I",
            "title": "Mozhi | Tamil Full Movie | Prithviraj | Jyothika | Prakash Raj",
            "url": "https://www.youtube.com/watch?v=OhNDoZLPW-I",
            "duration": 9081.0,
            "view_count": 8103062,
            "uploader": "KalaignarTV Movies",
            "category": "tamil",
            "thumbnail": "https://i.ytimg.com/vi/OhNDoZLPW-I/hq720.jpg"
        },
        {
            "id": "JNScvqeB544",
            "title": "Nibunan Tamil Full Movie | Arjun | Prasanna | Varalaxmi Sarathkumar | Sruthi Hariharan | Vaibhav",
            "url": "https://www.youtube.com/watch?v=JNScvqeB544",
            "duration": 7478.0,
            "view_count": 315438,
            "uploader": "Tamil New Movies",
            "category": "tamil",
            "thumbnail": "https://i.ytimg.com/vi/JNScvqeB544/hq720.jpg"
        },
        {
            "id": "DY-h79xXLys",
            "title": "Andhagan(2024) Tamil Full Movie HD| Crime Thriller Movie| Prasanth, Simran, Priya Anand #tamilmovie",
            "url": "https://www.youtube.com/watch?v=DY-h79xXLys",
            "duration": 6684.0,
            "view_count": 2901,
            "uploader": "TamilRockers",
            "category": "tamil",
            "thumbnail": "https://i.ytimg.com/vi/DY-h79xXLys/hqdefault.jpg"
        },
        {
            "id": "Z0RgZA4t7o8",
            "title": "Surya Vamsam - Tamil Full Movie | Sarathkumar, Devayani | Tamil Evergreen Movie | Full HD",
            "url": "https://www.youtube.com/watch?v=Z0RgZA4t7o8",
            "duration": 8941.0,
            "view_count": 20139869,
            "uploader": "Super Good Films",
            "category": "tamil",
            "thumbnail": "https://i.ytimg.com/vi/Z0RgZA4t7o8/hq720.jpg"
        },
        {
            "id": "nf3_agYYhyc",
            "title": "Nithiin & Samantha, Anupama Parameswaran Blockbuster Tamil Dubbed Comedy Movie || Tamil Full Movies",
            "url": "https://www.youtube.com/watch?v=nf3_agYYhyc",
            "duration": 8527.0,
            "view_count": 1506864,
            "uploader": "Comedy One",
            "category": "tamil",
            "thumbnail": "https://i.ytimg.com/vi/nf3_agYYhyc/hq720.jpg"
        },
        {
            "id": "TlT8MhK7bAM",
            "title": "Dada | Tamil Full Movie | Full HD | 1080p |",
            "url": "https://www.youtube.com/watch?v=TlT8MhK7bAM",
            "duration": 8005.0,
            "view_count": 3527,
            "uploader": "AK Movies",
            "category": "tamil",
            "thumbnail": "https://i.ytimg.com/vi/TlT8MhK7bAM/hq720.jpg"
        },
        {
            "id": "ETMw6oNJxSQ",
            "title": "தமிழன் Tamil Full Movie 4K HD | Action Drama | Vijay | Priyanka Chopra | Thamizhan Movie #TVK #Vijay",
            "url": "https://www.youtube.com/watch?v=ETMw6oNJxSQ",
            "duration": 9312.0,
            "view_count": 172068,
            "uploader": "Grand Cinemas",
            "category": "tamil",
            "thumbnail": "https://i.ytimg.com/vi/ETMw6oNJxSQ/hq720.jpg"
        },
        {
            "id": "zefTVw8dOkk",
            "title": "Endrendrum Punnagai (4K Full Movie) : Jiiva | Vinay | Santhanam | Trisha | Blockbuster Comedy Movie",
            "url": "https://www.youtube.com/watch?v=zefTVw8dOkk",
            "duration": 8498.0,
            "view_count": 64571,
            "uploader": "United India Exporters",
            "category": "tamil",
            "thumbnail": "https://i.ytimg.com/vi/zefTVw8dOkk/hq720.jpg"
        },
        {
            "id": "xky7UOIm1bc",
            "title": "சிங்கம் புலி Tamil Full Movie 4K HD | Jiiva | Ramya | Honey Rose | Mani Sharma | Singam Puli",
            "url": "https://www.youtube.com/watch?v=xky7UOIm1bc",
            "duration": 9092.0,
            "view_count": 23772,
            "uploader": "RJS Screens",
            "category": "tamil",
            "thumbnail": "https://i.ytimg.com/vi/xky7UOIm1bc/hq720.jpg"
        },
        {
            "id": "3z-UDLZ4hgw",
            "title": "Bhaskar Oru Rascal (2018) Tamil Full Movie HD | 4K | Arvind Swamy| Amala Paul | Soori| Vicky Cinemas",
            "url": "https://www.youtube.com/watch?v=3z-UDLZ4hgw",
            "duration": 8724.0,
            "view_count": 99620,
            "uploader": "Vicky Cinemas HD",
            "category": "tamil",
            "thumbnail": "https://i.ytimg.com/vi/3z-UDLZ4hgw/hq720.jpg"
        },
        {
            "id": "60hL8Q2qVnU",
            "title": "Aathi - 4K Action Full Movie | ஆதி | Thalapathy | Vijay | Trisha | Prakash Raj | Nassar | Ayngaran",
            "url": "https://www.youtube.com/watch?v=60hL8Q2qVnU",
            "duration": 10026.0,
            "view_count": 135662,
            "uploader": "Ayngaran",
            "category": "tamil",
            "thumbnail": "https://i.ytimg.com/vi/60hL8Q2qVnU/hq720.jpg"
        },
        {
            "id": "1jdx7VuK8Y0",
            "title": "Palakkattu Madhavan 4k Full Movie | Vivek | Sonia Agarwal | Aarthi | Rajendran | Super Hit Film",
            "url": "https://www.youtube.com/watch?v=1jdx7VuK8Y0",
            "duration": 7381.0,
            "view_count": 163164,
            "uploader": "United India Exporters",
            "category": "tamil",
            "thumbnail": "https://i.ytimg.com/vi/1jdx7VuK8Y0/hq720.jpg"
        },
        {
            "id": "DILID2HGDkM",
            "title": "Mathil Mel Poonai Full Movie Tamil [HD] | Vijay Vasanth | Vibha | SPS Cinemas",
            "url": "https://www.youtube.com/watch?v=DILID2HGDkM",
            "duration": 7992.0,
            "view_count": 19129,
            "uploader": "SPS Cinemas",
            "category": "tamil",
            "thumbnail": "https://i.ytimg.com/vi/DILID2HGDkM/hq720.jpg"
        },
        {
            "id": "zk9EQGDrUzw",
            "title": "Kanmani Papa Full Movie | Thaman Kumar | Manasvi Kottachi | maskstudios",
            "url": "https://www.youtube.com/watch?v=zk9EQGDrUzw",
            "duration": 7838.0,
            "view_count": 30951,
            "uploader": "MASK STUDIOS",
            "category": "tamil",
            "thumbnail": "https://i.ytimg.com/vi/zk9EQGDrUzw/hq720.jpg"
        },
        {
            "id": "4TqZZrLD6jI",
            "title": "Thalapathy Vijay's Tamil Full Movie Jilla | Remastered | Vijay, Kajal Aggarwal, Mohanlal | Full HD",
            "url": "https://www.youtube.com/watch?v=4TqZZrLD6jI",
            "duration": 10165.0,
            "view_count": 21203532,
            "uploader": "Super Good Films",
            "category": "tamil",
            "thumbnail": "https://i.ytimg.com/vi/4TqZZrLD6jI/hq720.jpg"
        },
        {
            "id": "lctbdc0AJDI",
            "title": "Vedalam 4K - Exclusive -  BlockBuster Full Movie | வேதாளம் | Ajith Kumar | Lakshmi Menon | Siva",
            "url": "https://www.youtube.com/watch?v=lctbdc0AJDI",
            "duration": 9284.0,
            "view_count": 3452796,
            "uploader": "Ayngaran",
            "category": "tamil",
            "thumbnail": "https://i.ytimg.com/vi/lctbdc0AJDI/hq720.jpg"
        },
        {
            "id": "XgJ2GWWX6q0",
            "title": "ASURAN - Dhanush Full Movie HD Tamil",
            "url": "https://www.youtube.com/watch?v=XgJ2GWWX6q0",
            "duration": 8355.0,
            "view_count": 1133623,
            "uploader": "GlobalCine Tamil ",
            "category": "tamil",
            "thumbnail": "https://i.ytimg.com/vi/XgJ2GWWX6q0/hq720.jpg"
        },
        {
            "id": "1mlqL6ODKO4",
            "title": "Darbar Full Movie (Tamil) | Rajinikanth | Nayanthara | AR Murugadoss | Anirudh | Lyca Productions",
            "url": "https://www.youtube.com/watch?v=1mlqL6ODKO4",
            "duration": 8867.0,
            "view_count": 2801662,
            "uploader": "Lyca Productions",
            "category": "tamil",
            "thumbnail": "https://i.ytimg.com/vi/1mlqL6ODKO4/hq720.jpg"
        },
        {
            "id": "L4NlEekkc4Q",
            "title": "Granny - Tamil Full Movie I Vadivukkarasi I Dileepan I Singampuli I Ananth Nag I Telivision Box",
            "url": "https://www.youtube.com/watch?v=L4NlEekkc4Q",
            "duration": 7432.0,
            "view_count": 22786,
            "uploader": "Telivision Box",
            "category": "tamil",
            "thumbnail": "https://i.ytimg.com/vi/L4NlEekkc4Q/hq720.jpg"
        },
        {
            "id": "B49z6f7UvG0",
            "title": "Sevagan Full Movie HD | Arjun | Khusbu | Captain Raju | Nassar",
            "url": "https://www.youtube.com/watch?v=B49z6f7UvG0",
            "duration": 8168.0,
            "view_count": 1284784,
            "uploader": "Ruby Tamil Beats",
            "category": "tamil",
            "thumbnail": "https://i.ytimg.com/vi/B49z6f7UvG0/hq720.jpg"
        },
        {
            "id": "Sg6lUOOXNuQ",
            "title": "Saravana Tamil Full Movie HD | #str #jyothika #vivek | Silambarasan Super Hit Blockbuster Movie",
            "url": "https://www.youtube.com/watch?v=Sg6lUOOXNuQ",
            "duration": 9586.0,
            "view_count": 5498239,
            "uploader": "RJS Cinemas",
            "category": "tamil",
            "thumbnail": "https://i.ytimg.com/vi/Sg6lUOOXNuQ/hq720.jpg"
        },
        {
            "id": "JkQ9iXaKNFw",
            "title": "Sivakasi - சிவகாசி (2005) | Vijay, Asin, Prakash Raj | Action Family Drama | Tamil Full Movie (HD)",
            "url": "https://www.youtube.com/watch?v=JkQ9iXaKNFw",
            "duration": 10535.0,
            "view_count": 53786,
            "uploader": "Eros Universe South",
            "category": "tamil",
            "thumbnail": "https://i.ytimg.com/vi/JkQ9iXaKNFw/hq720.jpg?sqp=-oaymwEcCNAFEJQDSFXyq4qpAw4IARUAAIhCGAFwAcABBg==&rs=AOn4CLAewR2tVrCCfJ0eluW5V1nCciWm4A",
            "added_date": "2026-04-16T07:31:09.972095Z",
            "source": "youtube"
        },
        {
            "id": "Xk8PqQQwZjA",
            "title": "Vetri KodiKattu HD Tamil Full Movie | Remastered | Murali, Parthiban, Meena, Malavika , Vadivelu..",
            "url": "https://www.youtube.com/watch?v=Xk8PqQQwZjA",
            "duration": 9523.0,
            "view_count": 2239210,
            "uploader": "Grand Cinemas",
            "category": "tamil",
            "thumbnail": "https://i.ytimg.com/vi/Xk8PqQQwZjA/hq720.jpg"
        },
        {
            "id": "gylhjBdd6m4",
            "title": "Dawood - Tamil 4K Full Movie | Datho Radharavi, Linga, Saraa | Prashanth Raman | Rakesh Ambigapathy",
            "url": "https://www.youtube.com/watch?v=gylhjBdd6m4",
            "duration": 6951.0,
            "view_count": 135124,
            "uploader": "United India Exporters",
            "category": "tamil",
            "thumbnail": "https://i.ytimg.com/vi/gylhjBdd6m4/hq720.jpg"
        },
        {
            "id": "jrMtiWoXTpI",
            "title": "Villu - வில்லு (2009) | Vijay, Nayanthara & Prakash Raj | Action & Comedy | Tamil Full Movie (HD)",
            "url": "https://www.youtube.com/watch?v=jrMtiWoXTpI",
            "duration": 8767.0,
            "view_count": 57774,
            "uploader": "Eros Universe Tamil",
            "category": "tamil",
            "thumbnail": "https://i.ytimg.com/vi/jrMtiWoXTpI/hq720.jpg"
        },
        {
            "id": "CJKSEeQ61pY",
            "title": "DHURANDHAR (2026) Full Movie Bangla Dubbed Tamil Action Movie Bangla New South Indian Movie 2026 HD",
            "url": "https://www.youtube.com/watch?v=CJKSEeQ61pY",
            "duration": 10522.0,
            "view_count": 355,
            "uploader": "Siyam Hossen",
            "category": "tamil",
            "thumbnail": "https://i.ytimg.com/vi/CJKSEeQ61pY/hqdefault.jpg"
        },
        {
            "id": "RllpOnKHdfY",
            "title": "DD Returns Tamil Comedy Horror Full Length HD Movie | Santhanam | Surbhi | Movie Collection |",
            "url": "https://www.youtube.com/watch?v=RllpOnKHdfY",
            "duration": 7202.0,
            "view_count": 8288247,
            "uploader": "Movie Collection",
            "category": "tamil",
            "thumbnail": "https://i.ytimg.com/vi/RllpOnKHdfY/hq720.jpg"
        },
        {
            "id": "6X71cxf8o7Q",
            "title": "Maattrraan Tamil Full Movie | Suriya Double Action Movie | மாற்றான் | Suriya, Kajal Aggarwal",
            "url": "https://www.youtube.com/watch?v=6X71cxf8o7Q",
            "duration": 9092.0,
            "view_count": 2813019,
            "uploader": "Rajshri Tamil",
            "category": "tamil",
            "thumbnail": "https://i.ytimg.com/vi/6X71cxf8o7Q/hq720.jpg"
        },
        {
            "id": "ziPZ1NhWMmw",
            "title": "Thaai Kizhavi tamil full movie 2026 | Radhika | Aruldoss | Singampuli | Full Reaction & Storyline",
            "url": "https://www.youtube.com/watch?v=ziPZ1NhWMmw",
            "duration": 8338.0,
            "view_count": 1827,
            "uploader": "XpTV",
            "category": "tamil",
            "thumbnail": "https://i.ytimg.com/vi/ziPZ1NhWMmw/hq720.jpg"
        },
        {
            "id": "xb5seZeFNVo",
            "title": "Aranamanai ( 2014 ) | Tamil Full Movie HD | Sundar C | Hansika | Vinay | Santhanam |  Mishri Movies",
            "url": "https://www.youtube.com/watch?v=xb5seZeFNVo",
            "duration": 9052.0,
            "view_count": 138582,
            "uploader": "MISHRI MOVIES",
            "category": "tamil",
            "thumbnail": "https://i.ytimg.com/vi/xb5seZeFNVo/hq720.jpg"
        },
        {
            "id": "jnWSoavJX04",
            "title": "Manaivi Solle Manthiram Tamil Full Movie HD | Mohan, Nalini, Pandiyan  மனைவி சொல்லே மந்திரம் HD",
            "url": "https://www.youtube.com/watch?v=jnWSoavJX04",
            "duration": 8163.0,
            "view_count": 112341,
            "uploader": "Grand Cinemas",
            "category": "tamil",
            "thumbnail": "https://i.ytimg.com/vi/jnWSoavJX04/hq720.jpg"
        },
        {
            "id": "su5LXCwWp64",
            "title": "Unakkum Enakkum - Tamil Full Movie | Jayam Ravi | Trisha | Devi Sri Prasad",
            "url": "https://www.youtube.com/watch?v=su5LXCwWp64",
            "duration": 10361.0,
            "view_count": 10388000,
            "uploader": "United India Exporters",
            "category": "tamil",
            "thumbnail": "https://i.ytimg.com/vi/su5LXCwWp64/hq720.jpg"
        },
        {
            "id": "-3SNkkZW8Sc",
            "title": "MY LORD TAMIL FULL MOVIE ",
            "url": "https://www.youtube.com/watch?v=-3SNkkZW8Sc",
            "duration": 7679.0,
            "view_count": 98590,
            "uploader": "TREND TOP MOVIE ",
            "category": "tamil",
            "thumbnail": "https://i.ytimg.com/vi/-3SNkkZW8Sc/hqdefault.jpg"
        },
        {
            "id": "EJgnS2yLAs0",
            "title": "Arundhati (2009) Tamil Full Movie HD | 4K | Anushka Shetty | Sonu Sood | Manorama | Vicky Cinemas",
            "url": "https://www.youtube.com/watch?v=EJgnS2yLAs0",
            "duration": 7456.0,
            "view_count": 9286610,
            "uploader": "Vicky Cinemas HD",
            "category": "tamil",
            "thumbnail": "https://i.ytimg.com/vi/EJgnS2yLAs0/hq720.jpg"
        },
        {
            "id": "mZwrwII758g",
            "title": "Ponniyin Selvan 1 Full Movie (Tamil) | Mani Ratnam | AR Rahman | Subaskaran | Lyca Productions",
            "url": "https://www.youtube.com/watch?v=mZwrwII758g",
            "duration": 10011.0,
            "view_count": 5424946,
            "uploader": "Lyca Productions",
            "category": "tamil",
            "thumbnail": "https://i.ytimg.com/vi/mZwrwII758g/hq720.jpg"
        },
        {
            "id": "5BNuYSpzPvA",
            "title": "ஈரம் Tamil Full Movie HD | Aadhi | Horror Thriller | Shankar Production | Eeram Super Hit Movie HD",
            "url": "https://www.youtube.com/watch?v=5BNuYSpzPvA",
            "duration": 8462.0,
            "view_count": 378164,
            "uploader": "RJS Movies",
            "category": "tamil",
            "thumbnail": "https://i.ytimg.com/vi/5BNuYSpzPvA/hq720.jpg"
        },
        {
            "id": "0OCJPMka8yY",
            "title": "Jeans (ஜீன்ஸ்) Tamil Super Hit Movie 1998 HD I Prasanth I Aishwarya rai I A.R Rahman",
            "url": "https://www.youtube.com/watch?v=0OCJPMka8yY",
            "duration": 9981.0,
            "view_count": 431581,
            "uploader": "Rio Movie",
            "category": "tamil",
            "thumbnail": "https://i.ytimg.com/vi/0OCJPMka8yY/hqdefault.jpg"
        },
        {
            "id": "yRug2RyKJKs",
            "title": "Irul - Tamil Full movie | Fahadh Faasil | Soubin Shahir | Darshana Rajendran | Divo Movies",
            "url": "https://www.youtube.com/watch?v=yRug2RyKJKs",
            "duration": 5500.0,
            "view_count": 990358,
            "uploader": "Divo Movies",
            "category": "tamil",
            "thumbnail": "https://i.ytimg.com/vi/yRug2RyKJKs/hq720.jpg"
        },
        {
            "id": "JZbkDXQthv8",
            "title": "Puthiya Niyamam (2016) Tamil Full Movie HD | 4K | Mammootty | Nayanthara | Vicky Cinemas",
            "url": "https://www.youtube.com/watch?v=JZbkDXQthv8",
            "duration": 7788.0,
            "view_count": 23547,
            "uploader": "Vicky Cinemas HD",
            "category": "tamil",
            "thumbnail": "https://i.ytimg.com/vi/JZbkDXQthv8/hq720.jpg"
        },
        {
            "id": "DIOd9qwNyck",
            "title": "Aranmanai Tamil Full Movie HD 4K | Super Hit Comedy Thriller Movie HD | SundharC | Best Tamil Horror",
            "url": "https://www.youtube.com/watch?v=DIOd9qwNyck",
            "duration": 9082.0,
            "view_count": 1528550,
            "uploader": "RFF Media",
            "category": "tamil",
            "thumbnail": "https://i.ytimg.com/vi/DIOd9qwNyck/hq720.jpg"
        },
        {
            "id": "mpXJ-uIj2AU",
            "title": "Mudhal Idam - முதல் இடம் (2011) | Vidaarth, Kavitha Nair | Tamil Romantic Drama Full Movie (HD)",
            "url": "https://www.youtube.com/watch?v=mpXJ-uIj2AU",
            "duration": 8765.0,
            "view_count": 5332,
            "uploader": "Eros Universe South",
            "category": "tamil",
            "thumbnail": "https://i.ytimg.com/vi/mpXJ-uIj2AU/hq720.jpg"
        },
        {
            "id": "9aSytxwEzR0",
            "title": "Sathuranga Vettai Tamil Full Movie HD | Natraj, Ishara Nair, Ponvannan, Ilavarasu | சதுரங்க வேட்டை",
            "url": "https://www.youtube.com/watch?v=9aSytxwEzR0",
            "duration": 8941.0,
            "view_count": 1170038,
            "uploader": "RJS Movies",
            "category": "tamil",
            "thumbnail": "https://i.ytimg.com/vi/9aSytxwEzR0/hq720.jpg"
        },
        {
            "id": "EJQHYCOv0k4",
            "title": "Pudhupettai Tamil Blockbuster Action Full Movie || Dhanush, Sonia Agarwal, Sneha || Selvaraghavan",
            "url": "https://www.youtube.com/watch?v=EJQHYCOv0k4",
            "duration": 10252.0,
            "view_count": 322859,
            "uploader": "Metro Music",
            "category": "tamil",
            "thumbnail": "https://i.ytimg.com/vi/EJQHYCOv0k4/hq720.jpg"
        },
        {
            "id": "Mq1uZ8mZvtg",
            "title": "Couple Friendly (2026) Tamil Full Movie | Romantic Love Story #couplefriendly #lovestory",
            "url": "https://www.youtube.com/watch?v=Mq1uZ8mZvtg",
            "duration": 5439.0,
            "view_count": 60080,
            "uploader": "Tamil Couple Cinema",
            "category": "tamil",
            "thumbnail": "https://i.ytimg.com/vi/Mq1uZ8mZvtg/hq720.jpg?sqp=-oaymwEcCNAFEJQDSFXyq4qpAw4IARUAAIhCGAFwAcABBg==&rs=AOn4CLDZoJSpAOuxQb_3xNG6oc85Jy4izA",
            "added_date": "2026-04-16T07:31:10.172458Z",
            "source": "youtube"
        },
        {
            "id": "x_0NUHaanyo",
            "title": "Sweet & Salt – Full Movie - Part 1 | FilterCopy Enga Area | Ft. Vishwamithran & Sushmitha",
            "url": "https://www.youtube.com/watch?v=x_0NUHaanyo",
            "duration": 4706.0,
            "view_count": 281334,
            "uploader": "FilterCopy Enga Area",
            "category": "tamil",
            "thumbnail": "https://i.ytimg.com/vi/x_0NUHaanyo/hq720.jpg"
        },
        {
            "id": "fOUNJ9jUw-8",
            "title": "Kuttram 23 Full Movie Tamil [HD] | Arun Vijay | Mahima Nambiar | 2kstudios",
            "url": "https://www.youtube.com/watch?v=fOUNJ9jUw-8",
            "duration": 7696.0,
            "view_count": 36544,
            "uploader": "2K Studios Movies",
            "category": "tamil",
            "thumbnail": "https://i.ytimg.com/vi/fOUNJ9jUw-8/hq720.jpg"
        },
        {
            "id": "VOoxgxM8HG0",
            "title": "Ponniyin Selvan 2 Full Movie (Tamil) | Vikram | Jayam Ravi | Aishwarya Rai | Trisha | Lyca",
            "url": "https://www.youtube.com/watch?v=VOoxgxM8HG0",
            "duration": 9902.0,
            "view_count": 5369041,
            "uploader": "Lyca Productions",
            "category": "tamil",
            "thumbnail": "https://i.ytimg.com/vi/VOoxgxM8HG0/hq720.jpg"
        },
        {
            "id": "RwzfXMs5WtM",
            "title": "Eeram | Tamil Thriller Movie | Aadhi, Nandha, Sindhu Menon | Tamil Full Movie | Super Good Films",
            "url": "https://www.youtube.com/watch?v=RwzfXMs5WtM",
            "duration": 8363.0,
            "view_count": 1650593,
            "uploader": "Super Good Films",
            "category": "tamil",
            "thumbnail": "https://i.ytimg.com/vi/RwzfXMs5WtM/hq720.jpg"
        }
    ]
}