{
    "page": 3,
    "total_pages": 5,
    "total_items": 238,
    "items": [
        {
            "id": "yKFDMISyqJs",
            "title": "குஷி | Kushi Full Movie | Kushi Vijay Movie | Vijay | Jyothika | Mumtaj | Vivek Comedy | S. J. Surya",
            "url": "https://www.youtube.com/watch?v=yKFDMISyqJs",
            "duration": 10198.0,
            "view_count": 4613763,
            "uploader": "Ayngaran",
            "category": "tamil",
            "thumbnail": "https://i.ytimg.com/vi/yKFDMISyqJs/hq720.jpg"
        },
        {
            "id": "ebnigieLac4",
            "title": "Nanban Tamil Full Movie | நண்பன் | Thalapathy Vijay, Jiiva, Srikanth, Illeana Sathyaraj, Sathyan",
            "url": "https://www.youtube.com/watch?v=ebnigieLac4",
            "duration": 11287.0,
            "view_count": 5468527,
            "uploader": "Rajshri Tamil",
            "category": "tamil",
            "thumbnail": "https://i.ytimg.com/vi/ebnigieLac4/hq720.jpg"
        },
        {
            "id": "5C1-jsw-jQ8",
            "title": "Aval Oru Puthir | Tamil Thriller Movie | Nikhila Vimal, Biju Menon | Full Movie | Super Good Studios",
            "url": "https://www.youtube.com/watch?v=5C1-jsw-jQ8",
            "duration": 7204.0,
            "view_count": 425640,
            "uploader": "Super Good Studios",
            "category": "tamil",
            "thumbnail": "https://i.ytimg.com/vi/5C1-jsw-jQ8/hq720.jpg"
        },
        {
            "id": "ogcXt-LeXXQ",
            "title": "Love Marriage (2025) – Tamil Family Drama Full Movie | Vikram Prabhu, Sushmitha Bhat | MSK Movies",
            "url": "https://www.youtube.com/watch?v=ogcXt-LeXXQ",
            "duration": 7525.0,
            "view_count": 1442189,
            "uploader": "MSK Movies",
            "category": "tamil",
            "thumbnail": "https://i.ytimg.com/vi/ogcXt-LeXXQ/hq720.jpg"
        },
        {
            "id": "g_FeSdSHvog",
            "title": "Arav & Varalaxmi Sarathkumar Blockbuster Tamil Crime Thriller Full Movie || Tamil Full Movies || HD",
            "url": "https://www.youtube.com/watch?v=g_FeSdSHvog",
            "duration": 6932.0,
            "view_count": 4549811,
            "uploader": "Comedy One",
            "category": "tamil",
            "thumbnail": "https://i.ytimg.com/vi/g_FeSdSHvog/hq720.jpg"
        },
        {
            "id": "FiuJz6qBk6E",
            "title": "Thuppakki  | துப்பாக்கி  | Full Movie | Blockbuster Movie | Vijay | Jayaram |",
            "url": "https://www.youtube.com/watch?v=FiuJz6qBk6E",
            "duration": 9835.0,
            "view_count": 798526,
            "uploader": "Rajshri Tamil",
            "category": "tamil",
            "thumbnail": "https://i.ytimg.com/vi/FiuJz6qBk6E/hq720.jpg"
        },
        {
            "id": "vK69WgEFdeQ",
            "title": "Aayirathil Oruvan Blockbuster HD Full Movie | ஆயிரத்தில் ஒருவன் | Karthi | ReemaSen |R. Parthiepan",
            "url": "https://www.youtube.com/watch?v=vK69WgEFdeQ",
            "duration": 8813.0,
            "view_count": 2968739,
            "uploader": "Ayngaran",
            "category": "tamil",
            "thumbnail": "https://i.ytimg.com/vi/vK69WgEFdeQ/hq720.jpg"
        },
        {
            "id": "0xzWb7txnBg",
            "title": "Shivangi (Lioness) | New Tamil Suspense Thriller Movie | Anandhi | Varalaxmi Sarathkumar |John Vijay",
            "url": "https://www.youtube.com/watch?v=0xzWb7txnBg",
            "duration": 7372.0,
            "view_count": 1542746,
            "uploader": "BhavaniHD Movies",
            "category": "tamil",
            "thumbnail": "https://i.ytimg.com/vi/0xzWb7txnBg/hq720.jpg"
        },
        {
            "id": "HichqxiqdIk",
            "title": "Thaai Kizhavi tamil full movie 2026 | Radhika | Aruldoss | Singampuli | Total Movie Recap and Review",
            "url": "https://www.youtube.com/watch?v=HichqxiqdIk",
            "duration": 8683.0,
            "view_count": 545923,
            "uploader": "CINE Stellar ",
            "category": "tamil",
            "thumbnail": "https://i.ytimg.com/vi/HichqxiqdIk/hq720.jpg"
        },
        {
            "id": "PY7SwX3yZj0",
            "title": "Thandakaaranyam - 4K Full Movie | தண்டகாரண்யம் | Dinesh | Kalaiyarasan | Pa. Ranjith | Ayngaran",
            "url": "https://www.youtube.com/watch?v=PY7SwX3yZj0",
            "duration": 7528.0,
            "view_count": 188917,
            "uploader": "Ayngaran",
            "category": "tamil",
            "thumbnail": "https://i.ytimg.com/vi/PY7SwX3yZj0/hq720.jpg"
        },
        {
            "id": "yT8PhvAOkdc",
            "title": "Agilan | Jayam Ravi, Priya Bhavani Shankar, Tanya Ravichandran | Tamil Full Movie HD 2023",
            "url": "https://www.youtube.com/watch?v=yT8PhvAOkdc",
            "duration": 7930.0,
            "view_count": 19164609,
            "uploader": "Zee Music South",
            "category": "tamil",
            "thumbnail": "https://i.ytimg.com/vi/yT8PhvAOkdc/hq720.jpg"
        },
        {
            "id": "bXzHe0SQWpA",
            "title": "Gandhi Kannadi Full HD Movie | Tamil Comedy Drama | Bala, Namita, Balaji Sakthivel | MSK Movies",
            "url": "https://www.youtube.com/watch?v=bXzHe0SQWpA",
            "duration": 7702.0,
            "view_count": 257179,
            "uploader": "MSK Movies",
            "category": "tamil",
            "thumbnail": "https://i.ytimg.com/vi/bXzHe0SQWpA/hq720.jpg"
        },
        {
            "id": "cOzgc-k4Vdc",
            "title": "Oru Kathai Sollava | Tamil Full Movie | Thandav Ram | Priyanka Mohan | Girish G | Shakthi Somanna",
            "url": "https://www.youtube.com/watch?v=cOzgc-k4Vdc",
            "duration": 7417.0,
            "view_count": 26809,
            "uploader": "VS Tamil Cinemas",
            "category": "tamil",
            "thumbnail": "https://i.ytimg.com/vi/cOzgc-k4Vdc/hq720.jpg"
        },
        {
            "id": "TZypbZoGhNk",
            "title": "Dhurandher Prem Yudh (2026) Roopika New Full Movie | 2026 South Latest Hindi Dubbed Movie In 4K",
            "url": "https://www.youtube.com/watch?v=TZypbZoGhNk",
            "duration": 6101.0,
            "view_count": 45058,
            "uploader": "Sur Movies Exclusive and 2 more",
            "category": "tamil",
            "thumbnail": "https://i.ytimg.com/vi/TZypbZoGhNk/hq720.jpg"
        },
        {
            "id": "dZm0S7AEkC8",
            "title": "Ragalaipuram | Tamil Full Movie | Karunas | Angana Roy | Sanjana Singh | Suara Cinemas",
            "url": "https://www.youtube.com/watch?v=dZm0S7AEkC8",
            "duration": 7306.0,
            "view_count": 465592,
            "uploader": "Suara Cinemas",
            "category": "tamil",
            "thumbnail": "https://i.ytimg.com/vi/dZm0S7AEkC8/hq720.jpg"
        },
        {
            "id": "b19i7uqC0SM",
            "title": "Gandhi Kannadi Full Movie [HD] | Bala, Balaji Sakthivel | Yuvan | Manimozhiyan Ramadurai | 2kstudios",
            "url": "https://www.youtube.com/watch?v=b19i7uqC0SM",
            "duration": 7358.0,
            "view_count": 110473,
            "uploader": "2K Studios Movies",
            "category": "tamil",
            "thumbnail": "https://i.ytimg.com/vi/b19i7uqC0SM/hq720.jpg"
        },
        {
            "id": "CVEGgWO4pqU",
            "title": "Pokkiri - போக்கிரி (2007) | Vijay, Asin & Prabhu Deva | Superhit Tamil Action Full Movie (HD)",
            "url": "https://www.youtube.com/watch?v=CVEGgWO4pqU",
            "duration": 9604.0,
            "view_count": 49113,
            "uploader": "Eros Universe Tamil",
            "category": "tamil",
            "thumbnail": "https://i.ytimg.com/vi/CVEGgWO4pqU/hq720.jpg"
        },
        {
            "id": "bOjs4VRLDQQ",
            "title": "Vendhu Thanidhadhu Kaadu - 4K Full Movie | Silambarasan | Siddhi Idnani | GVM | Action Thriller Film",
            "url": "https://www.youtube.com/watch?v=bOjs4VRLDQQ",
            "duration": 9793.0,
            "view_count": 495816,
            "uploader": "United India Exporters",
            "category": "tamil",
            "thumbnail": "https://i.ytimg.com/vi/bOjs4VRLDQQ/hq720.jpg"
        },
        {
            "id": "CO1FaKE5bgg",
            "title": "Michael Madana Kama Rajan (1990) Tamil Full Movie HD | 4K | Kamal Haasan | Khushbu | Vicky Cinemas",
            "url": "https://www.youtube.com/watch?v=CO1FaKE5bgg",
            "duration": 9668.0,
            "view_count": 473459,
            "uploader": "Vicky Cinemas HD",
            "category": "tamil",
            "thumbnail": "https://i.ytimg.com/vi/CO1FaKE5bgg/hq720.jpg"
        },
        {
            "id": "FHwK9zeSwPs",
            "title": "Uthamaputhiran - 4K Full Movie | உத்தமபுத்திரன் | Dhanush | Genelia | Vivek | Bhagyaraj | Ayngaran",
            "url": "https://www.youtube.com/watch?v=FHwK9zeSwPs",
            "duration": 10261.0,
            "view_count": 92002,
            "uploader": "Ayngaran",
            "category": "tamil",
            "thumbnail": "https://i.ytimg.com/vi/FHwK9zeSwPs/hq720.jpg"
        },
        {
            "id": "RlUp9AMwLB4",
            "title": "Thaai Kizhavi Tamil Full Movie 2026 In-Depth Review | Radhika, George | Complete Story Explanation",
            "url": "https://www.youtube.com/watch?v=RlUp9AMwLB4",
            "duration": 9020.0,
            "view_count": 31291,
            "uploader": "C Max",
            "category": "tamil",
            "thumbnail": "https://i.ytimg.com/vi/RlUp9AMwLB4/hq720.jpg"
        },
        {
            "id": "sa-c-keafbQ",
            "title": "Nenjam Marappathillai | Tamil Full Movie | S. J. Suryah | Regina Cassandra | Nandita Swetha",
            "url": "https://www.youtube.com/watch?v=sa-c-keafbQ",
            "duration": 7923.0,
            "view_count": 1450640,
            "uploader": "United India Exporters",
            "category": "tamil",
            "thumbnail": "https://i.ytimg.com/vi/sa-c-keafbQ/hq720.jpg"
        },
        {
            "id": "36o-3irqIm0",
            "title": "The Taj Story (Full Tamil Dubbed Movie) Paresh Rawal | Zakir Hussain, Amruta K | தமிழ் திரைப்படம்",
            "url": "https://www.youtube.com/watch?v=36o-3irqIm0",
            "duration": 9419.0,
            "view_count": 39601,
            "uploader": "Lionsgate Play - Tamil ",
            "category": "tamil",
            "thumbnail": "https://i.ytimg.com/vi/36o-3irqIm0/hq720.jpg"
        },
        {
            "id": "cEMMjGfykA0",
            "title": "YOGIDA FULL MOVIE [2026]is a Tamil action-thriller starring Sai Dhanshika",
            "url": "https://www.youtube.com/watch?v=cEMMjGfykA0",
            "duration": 7051.0,
            "view_count": 827,
            "uploader": "Loops Movies",
            "category": "tamil",
            "thumbnail": "https://i.ytimg.com/vi/cEMMjGfykA0/hq720.jpg"
        },
        {
            "id": "Y_3XeEMN_NM",
            "title": "Lubber Pandhu - Tamil Full HD Film / Harish Kalyan / Attakathi Dinesh",
            "url": "https://www.youtube.com/watch?v=Y_3XeEMN_NM",
            "duration": 8688.0,
            "view_count": 1171409,
            "uploader": "Isai mini Tamil HD movies",
            "category": "tamil",
            "thumbnail": "https://i.ytimg.com/vi/Y_3XeEMN_NM/hqdefault.jpg"
        },
        {
            "id": "FHvRsr457Eg",
            "title": "குத்து Tamil Full Movie HD | Silambarasan | Ramya | Kalabhavan Mani | Srikanth Deva | Kuthu Movie",
            "url": "https://www.youtube.com/watch?v=FHvRsr457Eg",
            "duration": 8777.0,
            "view_count": 1796752,
            "uploader": "RJS Movies",
            "category": "tamil",
            "thumbnail": "https://i.ytimg.com/vi/FHvRsr457Eg/hq720.jpg"
        },
        {
            "id": "mO1ObN8vLbA",
            "title": "BLACK & WHITE | Tamil Dubbed Crime Thriller Full Movie | Prithviraj, Nivin Pauly, Bhavana",
            "url": "https://www.youtube.com/watch?v=mO1ObN8vLbA",
            "duration": 8605.0,
            "view_count": 469857,
            "uploader": "Tamil Movieplex",
            "category": "tamil",
            "thumbnail": "https://i.ytimg.com/vi/mO1ObN8vLbA/hqdefault.jpg"
        },
        {
            "id": "yJCr5eSEujU",
            "title": "Vettaiyan Reloaded (2026) | Latest Tamil Crime Thriller Movie | Riya | Sarkar Sahill | Kinaya | 4k",
            "url": "https://www.youtube.com/watch?v=yJCr5eSEujU",
            "duration": 6647.0,
            "view_count": 1891,
            "uploader": "Haris Cinemas",
            "category": "tamil",
            "thumbnail": "https://i.ytimg.com/vi/yJCr5eSEujU/hq720.jpg"
        },
        {
            "id": "j9he5LYTcmg",
            "title": "Vishal & Shraddha Srinath, Regina Cassandra Tamil Action Thriller Full HD Movie || Tamil Full Movies",
            "url": "https://www.youtube.com/watch?v=j9he5LYTcmg",
            "duration": 7485.0,
            "view_count": 4839948,
            "uploader": "Comedy One",
            "category": "tamil",
            "thumbnail": "https://i.ytimg.com/vi/j9he5LYTcmg/hq720.jpg"
        },
        {
            "id": "aU9bKlNevl8",
            "title": "Ghilli (2004) Full Movie Remastered | 1080p HD | Thalapathy Vijay | Trisha | Prakash Raj |Ashish Vdt",
            "url": "https://www.youtube.com/watch?v=aU9bKlNevl8",
            "duration": 9946.0,
            "view_count": 121907,
            "uploader": "ULTRAREMASTEREDMOVIES ",
            "category": "tamil",
            "thumbnail": "https://i.ytimg.com/vi/aU9bKlNevl8/hq720.jpg"
        },
        {
            "id": "vQAy_ISJZK4",
            "title": "Vetri & Shilpa Manjunath Tamil Super Hit Action/Thriller Full HD Movie | Latest Tamil Full Movie",
            "url": "https://www.youtube.com/watch?v=vQAy_ISJZK4",
            "duration": 6596.0,
            "view_count": 175957,
            "uploader": "Comedy One",
            "category": "tamil",
            "thumbnail": "https://i.ytimg.com/vi/vQAy_ISJZK4/hq720.jpg"
        },
        {
            "id": "0gVi1wGVPHY",
            "title": "Bharath Ennum Naan Tamil Full HD Movie with English Subtitles | Mahesh Babu, Kiara Advani",
            "url": "https://www.youtube.com/watch?v=0gVi1wGVPHY",
            "duration": 8781.0,
            "view_count": 22685124,
            "uploader": "MSK Movies",
            "category": "tamil",
            "thumbnail": "https://i.ytimg.com/vi/0gVi1wGVPHY/hq720.jpg"
        },
        {
            "id": "5I65mxTxAYc",
            "title": "Youth movie 🍿|| Ken & Anishma ♥️|| full movie tamil || #youth #new movie ",
            "url": "https://www.youtube.com/watch?v=5I65mxTxAYc",
            "duration": 8376.0,
            "view_count": 564,
            "uploader": "abi_edits_2003",
            "category": "tamil",
            "thumbnail": "https://i.ytimg.com/vi/5I65mxTxAYc/hqdefault.jpg"
        },
        {
            "id": "cI9avyHusa0",
            "title": "M Kumaran S/O Mahalakshmi Full Movie | Jayam Ravi | Asin | Vivek | Nadhiya | Prakash Raj | M. Raja",
            "url": "https://www.youtube.com/watch?v=cI9avyHusa0",
            "duration": 10108.0,
            "view_count": 4621350,
            "uploader": "Ayngaran",
            "category": "tamil",
            "thumbnail": "https://i.ytimg.com/vi/cI9avyHusa0/hq720.jpg"
        },
        {
            "id": "fK51s-IQz_o",
            "title": "Fourth floor latest tamil horror movie in 2026",
            "url": "https://www.youtube.com/watch?v=fK51s-IQz_o",
            "duration": 7988.0,
            "view_count": 7135,
            "uploader": "Dhana_Vlogger",
            "category": "tamil",
            "thumbnail": "https://i.ytimg.com/vi/fK51s-IQz_o/hqdefault.jpg"
        },
        {
            "id": "DRKmmceDZ3c",
            "title": "Right Tamil Full movie | Natty | Arun Pandian | Akshara reddy | Thangadurai | Yuvina",
            "url": "https://www.youtube.com/watch?v=DRKmmceDZ3c",
            "duration": 7079.0,
            "view_count": 112966,
            "uploader": "AandP Groups",
            "category": "tamil",
            "thumbnail": "https://i.ytimg.com/vi/DRKmmceDZ3c/hq720.jpg"
        },
        {
            "id": "Ps80TFhkyD0",
            "title": "Kaththi Sandai (2016) Tamil Full Movie HD | 4K | Vishal | Tamannaah | Vadivelu |Soori |Vicky Cinemas",
            "url": "https://www.youtube.com/watch?v=Ps80TFhkyD0",
            "duration": 8922.0,
            "view_count": 3862813,
            "uploader": "Vicky Cinemas HD",
            "category": "tamil",
            "thumbnail": "https://i.ytimg.com/vi/Ps80TFhkyD0/hq720.jpg"
        },
        {
            "id": "_eMJ0RzSP_M",
            "title": "Seetharaam Benoy : Case No.18 Full Movie Tamil | Vijay Raghavendra | Sathwik Hebbar [4K Ultra HD]",
            "url": "https://www.youtube.com/watch?v=_eMJ0RzSP_M",
            "duration": 7365.0,
            "view_count": 4737373,
            "uploader": "Divo Movies",
            "category": "tamil",
            "thumbnail": "https://i.ytimg.com/vi/_eMJ0RzSP_M/hq720.jpg"
        },
        {
            "id": "9Yf1CnqLzTU",
            "title": "Ippadai Vellum Full Movie Tamil - HD | Udhayanidhi | Manjima Mohan | Gaurav Narayanan | D Imman",
            "url": "https://www.youtube.com/watch?v=9Yf1CnqLzTU",
            "duration": 8341.0,
            "view_count": 398364,
            "uploader": "Lyca Productions",
            "category": "tamil",
            "thumbnail": "https://i.ytimg.com/vi/9Yf1CnqLzTU/hq720.jpg"
        },
        {
            "id": "Hq3mcWdlRtA",
            "title": "Park - Tamil Horror Thriller Full Movie (4K) | Thamankumar, Swetha Dorathy | Nox Movies",
            "url": "https://www.youtube.com/watch?v=Hq3mcWdlRtA",
            "duration": 6944.0,
            "view_count": 196866,
            "uploader": "Nox Movies",
            "category": "tamil",
            "thumbnail": "https://i.ytimg.com/vi/Hq3mcWdlRtA/hq720.jpg"
        },
        {
            "id": "_nU7p1hzcJU",
            "title": "நான் பெத்த மகனே Full Movie 4K HD | Naan Petha Maganae Full Movie HD | #Vadivelu #Goundamani V.Sekhar",
            "url": "https://www.youtube.com/watch?v=_nU7p1hzcJU",
            "duration": 9125.0,
            "view_count": 1946,
            "uploader": "RJS Movies",
            "category": "tamil",
            "thumbnail": "https://i.ytimg.com/vi/_nU7p1hzcJU/hq720.jpg"
        },
        {
            "id": "55YVZhOwshQ",
            "title": "Asal - அசல் (2010) | Ajith Kumar, Sameera Reddy & Bhavana | Tamil Full Movie (HD)",
            "url": "https://www.youtube.com/watch?v=55YVZhOwshQ",
            "duration": 7863.0,
            "view_count": 28794,
            "uploader": "Eros Universe Tamil",
            "category": "tamil",
            "thumbnail": "https://i.ytimg.com/vi/55YVZhOwshQ/hq720.jpg"
        },
        {
            "id": "g_fAPyIw8aY",
            "title": "Ambikapathy - அம்பிகாபதி | Raanjhanaa Tamil Dubbed | Dhanush, Sonam Kapoor | Superhit Full Movie(HD)",
            "url": "https://www.youtube.com/watch?v=g_fAPyIw8aY",
            "duration": 8317.0,
            "view_count": 16464,
            "uploader": "Eros Universe South",
            "category": "tamil",
            "thumbnail": "https://i.ytimg.com/vi/g_fAPyIw8aY/hq720.jpg"
        },
        {
            "id": "wkY8RfZ5FVo",
            "title": "ஆணை Tamil Full Movie 4K HD | Action Drama | Arjun | Namitha | KeerthiChawla | Vadivelu | Aanai  2005",
            "url": "https://www.youtube.com/watch?v=wkY8RfZ5FVo",
            "duration": 8368.0,
            "view_count": 48226,
            "uploader": "RJS Screens",
            "category": "tamil",
            "thumbnail": "https://i.ytimg.com/vi/wkY8RfZ5FVo/hq720.jpg"
        },
        {
            "id": "RMD6Zy9u8x0",
            "title": "வல்லவன் Vallavan Super Hit Full Movie Silambarasan | Nayanthara | Reema Sen | Yuvan Shankar Raja",
            "url": "https://www.youtube.com/watch?v=RMD6Zy9u8x0",
            "duration": 10846.0,
            "view_count": 1946098,
            "uploader": "Ayngaran",
            "category": "tamil",
            "thumbnail": "https://i.ytimg.com/vi/RMD6Zy9u8x0/hq720.jpg"
        },
        {
            "id": "hO7HqpGy03Y",
            "title": "Vishwaroopam 2 Tamil Full HD Movie with English Subtitles | Kamal Haasan, Pooja Kumar, Andrea",
            "url": "https://www.youtube.com/watch?v=hO7HqpGy03Y",
            "duration": 7302.0,
            "view_count": 3334135,
            "uploader": "MSK Movies",
            "category": "tamil",
            "thumbnail": "https://i.ytimg.com/vi/hO7HqpGy03Y/hq720.jpg"
        },
        {
            "id": "zj_DbjIl8tw",
            "title": "KING OF MADHUREY (Madhura Raja) | Latest Action Hit Full Movie in Tamil | Mammootty, Jagapathi Babu",
            "url": "https://www.youtube.com/watch?v=zj_DbjIl8tw",
            "duration": 8434.0,
            "view_count": 370494,
            "uploader": "Ultra Kollywood Talkies",
            "category": "tamil",
            "thumbnail": "https://i.ytimg.com/vi/zj_DbjIl8tw/hq720.jpg"
        },
        {
            "id": "bomXyVvPAps",
            "title": "EMI (Madhathavanai) 2025 - 4K Tamil Full Movie | Sadasivam, Saidhanya, Aadhavan, Srinath Pitchai",
            "url": "https://www.youtube.com/watch?v=bomXyVvPAps",
            "duration": 7496.0,
            "view_count": 21143,
            "uploader": "Thenappan P - Shree Raajalakshmi Films",
            "category": "tamil",
            "thumbnail": "https://i.ytimg.com/vi/bomXyVvPAps/hq720.jpg"
        },
        {
            "id": "1GhM0inzwCo",
            "title": "Bigil | Blockbuster Tamil Full Movie | Vijay | Nayanthara | A. R. Rahman | 4K (English Subtitles)",
            "url": "https://www.youtube.com/watch?v=1GhM0inzwCo",
            "duration": 10601.0,
            "view_count": 98093318,
            "uploader": "United India Exporters",
            "category": "tamil",
            "thumbnail": "https://i.ytimg.com/vi/1GhM0inzwCo/hq720.jpg"
        },
        {
            "id": "YFg2hyVvJKs",
            "title": "Irumugan 4K Full Movie (Tamil) | Vikram | Nayanthara | Nithya Menon | Blockbuster Movie",
            "url": "https://www.youtube.com/watch?v=YFg2hyVvJKs",
            "duration": 8679.0,
            "view_count": 179528,
            "uploader": "United India Exporters",
            "category": "tamil",
            "thumbnail": "https://i.ytimg.com/vi/YFg2hyVvJKs/hq720.jpg"
        }
    ]
}