{
    "page": 2,
    "total_pages": 5,
    "total_items": 238,
    "items": [
        {
            "id": "Tl_5tHclIAo",
            "title": "Kaithi (2019) - Tamil Full Action Movie | Karthi, Narain, Sam CS, Lokesh Kanagaraj, Arjun Das",
            "url": "https://www.youtube.com/watch?v=Tl_5tHclIAo",
            "duration": 8694.0,
            "view_count": 12330,
            "uploader": "This is Absolute Cinema",
            "category": "tamil",
            "thumbnail": "https://i.ytimg.com/vi/Tl_5tHclIAo/hqdefault.jpg"
        },
        {
            "id": "uOeXPbyhChc",
            "title": "Veetula Raman Veliyila Krishnan - Tamil Full Movie HD | Sivakumar | Radhika |Manivannan",
            "url": "https://www.youtube.com/watch?v=uOeXPbyhChc",
            "duration": 8376.0,
            "view_count": 250112,
            "uploader": "Thenappan P - Shree Raajalakshmi Films",
            "category": "tamil",
            "thumbnail": "https://i.ytimg.com/vi/uOeXPbyhChc/hq720.jpg"
        },
        {
            "id": "mmPvs5IM5vs",
            "title": "Family Entertaining Tamil Full Movie | Anandham Vilayadum Veedu | Gautham Karthik, Shivathmika",
            "url": "https://www.youtube.com/watch?v=mmPvs5IM5vs",
            "duration": 8827.0,
            "view_count": 1080999,
            "uploader": "Tamil Movieplex",
            "category": "tamil",
            "thumbnail": "https://i.ytimg.com/vi/mmPvs5IM5vs/hq720.jpg"
        },
        {
            "id": "sLf3KWtWa_8",
            "title": "Panni Kutty - Tamil Full Movie HD | Yogi Babu | Karunakaran | Anucharan | Lyca",
            "url": "https://www.youtube.com/watch?v=sLf3KWtWa_8",
            "duration": 7196.0,
            "view_count": 640009,
            "uploader": "Lyca Productions",
            "category": "tamil",
            "thumbnail": "https://i.ytimg.com/vi/sLf3KWtWa_8/hq720.jpg"
        },
        {
            "id": "BKvBZUEbq7c",
            "title": "Ayan tamil 2009 action thriller full movie ",
            "url": "https://www.youtube.com/watch?v=BKvBZUEbq7c",
            "duration": 9743.0,
            "view_count": 4376,
            "uploader": "_MR_LUTTAPPII_X_",
            "category": "tamil",
            "thumbnail": "https://i.ytimg.com/vi/BKvBZUEbq7c/hqdefault.jpg"
        },
        {
            "id": "rQ7hXvzOp5E",
            "title": "Singam 3 (4K- Tamil Full Movie) : Suriya | Anushka Shetty | Shruti Haasan | Thakur Anoop | Soori",
            "url": "https://www.youtube.com/watch?v=rQ7hXvzOp5E",
            "duration": 8656.0,
            "view_count": 1044860,
            "uploader": "United India Exporters",
            "category": "tamil",
            "thumbnail": "https://i.ytimg.com/vi/rQ7hXvzOp5E/hq720.jpg"
        },
        {
            "id": "QElFu_yqToM",
            "title": "Regina Cassandra Tamil Blockbuster Romantic/Comedy Full Movie || Latest Tamil Full Movie || HD",
            "url": "https://www.youtube.com/watch?v=QElFu_yqToM",
            "duration": 7169.0,
            "view_count": 232188,
            "uploader": "Metro Music and Picture Singh",
            "category": "tamil",
            "thumbnail": "https://i.ytimg.com/vi/QElFu_yqToM/hq720.jpg"
        },
        {
            "id": "iJMPmOtbXyk",
            "title": "Vijay Sethupathi Full Movie | Sethupathi | Ramya Nambeesan |  SU Arunkumar | SPS",
            "url": "https://www.youtube.com/watch?v=iJMPmOtbXyk",
            "duration": 6782.0,
            "view_count": 1967084,
            "uploader": "SPS Cinemas",
            "category": "tamil",
            "thumbnail": "https://i.ytimg.com/vi/iJMPmOtbXyk/hq720.jpg"
        },
        {
            "id": "4Q8sD2i_qzU",
            "title": "ஒற்றன் Tamil Action Full Movie Ottran Movie Tamil Full Movie | Arjun | Simran | Vadivelu | Ayngaran",
            "url": "https://www.youtube.com/watch?v=4Q8sD2i_qzU",
            "duration": 9418.0,
            "view_count": 2053695,
            "uploader": "Ayngaran",
            "category": "tamil",
            "thumbnail": "https://i.ytimg.com/vi/4Q8sD2i_qzU/hq720.jpg"
        },
        {
            "id": "Tan-xcClQCY",
            "title": "Pirivom Santhippom - பிரிவோம் சந்திப்போம் | Cheran, Sneha | Family Drama | Tamil Full Movie (HD)",
            "url": "https://www.youtube.com/watch?v=Tan-xcClQCY",
            "duration": 9103.0,
            "view_count": 375595,
            "uploader": "Eros Universe South",
            "category": "tamil",
            "thumbnail": "https://i.ytimg.com/vi/Tan-xcClQCY/hq720.jpg"
        },
        {
            "id": "LgYbaxYl9Vk",
            "title": "🔴LIVE: ஈரான் மறுப்பு? - இந்தியாவுக்கு வந்த பேரிடி செய்தி | IndiaIran | IranUSWar",
            "url": "https://www.youtube.com/watch?v=LgYbaxYl9Vk",
            "duration": 0,
            "view_count": 0,
            "uploader": "NewsTamil 24X7",
            "category": "tamil",
            "thumbnail": "https://i.ytimg.com/vi/LgYbaxYl9Vk/hq720.jpg"
        },
        {
            "id": "JD8x1Bt25RA",
            "title": "Thalaiyatti Bommaigal Full Movie | Tamil Comedy Movie | Goundamani, Senthil, Ilavarasi & Radha Ravi",
            "url": "https://www.youtube.com/watch?v=JD8x1Bt25RA",
            "duration": 7265.0,
            "view_count": 49927,
            "uploader": "Tick Movies - Tamil",
            "category": "tamil",
            "thumbnail": "https://i.ytimg.com/vi/JD8x1Bt25RA/hq720.jpg"
        },
        {
            "id": "_DRz1vkCdXA",
            "title": "Thondan Full Movie 4K | Samuthirakani | Vikranth | Sunaina Yella | Tamil Blockbuster Movie",
            "url": "https://www.youtube.com/watch?v=_DRz1vkCdXA",
            "duration": 7917.0,
            "view_count": 155694,
            "uploader": "United India Exporters",
            "category": "tamil",
            "thumbnail": "https://i.ytimg.com/vi/_DRz1vkCdXA/hq720.jpg"
        },
        {
            "id": "zxG3XSmli6g",
            "title": "🔴LIVE: இந்தியாவிற்கு அனுமதி இல்லை? - குண்டை தூக்கி வீசிய ஈரான்| India | IranIsraelWar",
            "url": "https://www.youtube.com/watch?v=zxG3XSmli6g",
            "duration": 0,
            "view_count": 0,
            "uploader": "NewsTamil 24X7",
            "category": "tamil",
            "thumbnail": "https://i.ytimg.com/vi/zxG3XSmli6g/hq720.jpg"
        },
        {
            "id": "eRyd2U59wIk",
            "title": "Karthi Tamil Super Hit Full Movie || Tamannaah || Santhanam || Tamil Movies || Kollywood Films",
            "url": "https://www.youtube.com/watch?v=eRyd2U59wIk",
            "duration": 8395.0,
            "view_count": 1554196,
            "uploader": "Kollywood Films",
            "category": "tamil",
            "thumbnail": "https://i.ytimg.com/vi/eRyd2U59wIk/hq720.jpg"
        },
        {
            "id": "zTWmSqHCKA4",
            "title": "LATEST Tamil Action Thriller Full Movie | Lock Up | Vaibhav, Venkat Prabhu, Vani Bhojan, Poorna",
            "url": "https://www.youtube.com/watch?v=zTWmSqHCKA4",
            "duration": 7041.0,
            "view_count": 3168222,
            "uploader": "Tamil Movieplex",
            "category": "tamil",
            "thumbnail": "https://i.ytimg.com/vi/zTWmSqHCKA4/hq720.jpg"
        },
        {
            "id": "1cRnnBvrpXk",
            "title": "Indru Netru Naalai (2015) Tamil Full Movie HD | 4K | Vishnu Vishal | Miya George | Vicky Cinemas",
            "url": "https://www.youtube.com/watch?v=1cRnnBvrpXk",
            "duration": 8357.0,
            "view_count": 2603978,
            "uploader": "Vicky Cinemas HD",
            "category": "tamil",
            "thumbnail": "https://i.ytimg.com/vi/1cRnnBvrpXk/hq720.jpg"
        },
        {
            "id": "rJgmp0JOLxM",
            "title": "Irunda Nilalin Ragasiyam Latest Tamil Full Movie 4K UHD | Crime Thriller Movie | Video Park Tamil",
            "url": "https://www.youtube.com/watch?v=rJgmp0JOLxM",
            "duration": 5554.0,
            "view_count": 73650,
            "uploader": "Video Park Tamil",
            "category": "tamil",
            "thumbnail": "https://i.ytimg.com/vi/rJgmp0JOLxM/hq720.jpg"
        },
        {
            "id": "KUedjT8MvG8",
            "title": "Kombuseevi - Full Movie | Shanmuga Pandiyan | Sarath Kumar | Ponram | Yuvan Shankar Raja | tentkotta",
            "url": "https://www.youtube.com/watch?v=KUedjT8MvG8",
            "duration": 8091.0,
            "view_count": 350087,
            "uploader": "Tentkotta",
            "category": "tamil",
            "thumbnail": "https://i.ytimg.com/vi/KUedjT8MvG8/hq720.jpg"
        },
        {
            "id": "ZbzzN1tyL0g",
            "title": "Lingaa (2014) | Rajinikanth, Anushka Shetty | K S Ravikumar | Best Tamil Full Movie (HD)",
            "url": "https://www.youtube.com/watch?v=ZbzzN1tyL0g",
            "duration": 10017.0,
            "view_count": 316599,
            "uploader": "Eros Universe South",
            "category": "tamil",
            "thumbnail": "https://i.ytimg.com/vi/ZbzzN1tyL0g/hq720.jpg"
        },
        {
            "id": "cf5fLX02-bY",
            "title": "Poojai Full movieTamil - Vishal,Shruti Haasan,Soori,Jayaprakash,Imman Annachi",
            "url": "https://www.youtube.com/watch?v=cf5fLX02-bY",
            "duration": 8986.0,
            "view_count": 576026,
            "uploader": "MOVIE ENTERTAINMENT🎭💥",
            "category": "tamil",
            "thumbnail": "https://i.ytimg.com/vi/cf5fLX02-bY/hqdefault.jpg"
        },
        {
            "id": "n2HlVbA1r78",
            "title": "BAAHUBALI THE BEGINNING FULL MOVIE IN TAMIL AUDIO RE -EDITED UPTO 1080P CINEMATIC EXPERIENCE 4K ",
            "url": "https://www.youtube.com/watch?v=n2HlVbA1r78",
            "duration": 9563.0,
            "view_count": 837698,
            "uploader": "Sri Kumaran ",
            "category": "tamil",
            "thumbnail": "https://i.ytimg.com/vi/n2HlVbA1r78/hqdefault.jpg"
        },
        {
            "id": "kGRhTR99MD4",
            "title": "Aaru Full Movie HD Remastered (2005) ஆறு Tamil Action Thriller Movie | Surya, Trisha | RJS Cinemas",
            "url": "https://www.youtube.com/watch?v=kGRhTR99MD4",
            "duration": 9148.0,
            "view_count": 1823248,
            "uploader": "RJS Cinemas",
            "category": "tamil",
            "thumbnail": "https://i.ytimg.com/vi/kGRhTR99MD4/hq720.jpg"
        },
        {
            "id": "LjOzbucf1oY",
            "title": "Pattipulam - பட்டிப்புலம் (2019) | Veerasamar, Yogi Babu & Amitha Rao | Tamil Comedy Full Movie (HD)",
            "url": "https://www.youtube.com/watch?v=LjOzbucf1oY",
            "duration": 6252.0,
            "view_count": 17987,
            "uploader": "Eros Universe South",
            "category": "tamil",
            "thumbnail": "https://i.ytimg.com/vi/LjOzbucf1oY/hq720.jpg"
        },
        {
            "id": "8mxPIRjFI8Y",
            "title": "Kaala Full Movie (Tamil) | Rajinikanth | Nana Patekar | Huma Qureshi | Pa Ranjith | Lyca Productions",
            "url": "https://www.youtube.com/watch?v=8mxPIRjFI8Y",
            "duration": 9292.0,
            "view_count": 3410954,
            "uploader": "Lyca Productions",
            "category": "tamil",
            "thumbnail": "https://i.ytimg.com/vi/8mxPIRjFI8Y/hq720.jpg"
        },
        {
            "id": "Ci98NfYi8pQ",
            "title": "Magabali (2026) | Latest Tamil Suspense Thriller Movie 4k | Aijay | Sakshi | Teena | Haris Movie",
            "url": "https://www.youtube.com/watch?v=Ci98NfYi8pQ",
            "duration": 6516.0,
            "view_count": 16795,
            "uploader": "Haris Movies",
            "category": "tamil",
            "thumbnail": "https://i.ytimg.com/vi/Ci98NfYi8pQ/hq720.jpg"
        },
        {
            "id": "GLCc7vy2lOQ",
            "title": "Mark Antony | 4K Exclusive Full Movie | மார்க் ஆண்டனி | Vishal | SJ Suryah | Sunil | Ritu Varma",
            "url": "https://www.youtube.com/watch?v=GLCc7vy2lOQ",
            "duration": 8528.0,
            "view_count": 3148559,
            "uploader": "Ayngaran",
            "category": "tamil",
            "thumbnail": "https://i.ytimg.com/vi/GLCc7vy2lOQ/hq720.jpg"
        },
        {
            "id": "0yjrgOLfB28",
            "title": "Kathi full movie in Tamil Full Movie | 4K Ultra HD | Vijay | Action Thriller 🔥",
            "url": "https://www.youtube.com/watch?v=0yjrgOLfB28",
            "duration": 9389.0,
            "view_count": 40384,
            "uploader": "Forza Movies",
            "category": "tamil",
            "thumbnail": "https://i.ytimg.com/vi/0yjrgOLfB28/hqdefault.jpg"
        },
        {
            "id": "WcZpjieSiM8",
            "title": "Thadayam tamil full movie 2026 | Samuthirakani | Shivada | Hari | 2Hour+ Reaction & Breakdown HD",
            "url": "https://www.youtube.com/watch?v=WcZpjieSiM8",
            "duration": 7978.0,
            "view_count": 20345,
            "uploader": "XpTV",
            "category": "tamil",
            "thumbnail": "https://i.ytimg.com/vi/WcZpjieSiM8/hq720.jpg"
        },
        {
            "id": "lyYXazpbhr0",
            "title": "HotSpot Tamil Full Movie [HD] | Kalaiyarasan | Sandy | Adithya B | Ammu Abhirami | Gouri Kishan",
            "url": "https://www.youtube.com/watch?v=lyYXazpbhr0",
            "duration": 6874.0,
            "view_count": 92116,
            "uploader": "Tentkotta",
            "category": "tamil",
            "thumbnail": "https://i.ytimg.com/vi/lyYXazpbhr0/hq720.jpg"
        },
        {
            "id": "FCEbwMW8mb0",
            "title": "Unnai Ninaithu - Tamil full movie | Suriya | Sneha | Laila | Sirpy | Vikraman | Pyramid Comedy Clips",
            "url": "https://www.youtube.com/watch?v=FCEbwMW8mb0",
            "duration": 9403.0,
            "view_count": 240304,
            "uploader": "Pyramid Comedy Clips",
            "category": "tamil",
            "thumbnail": "https://i.ytimg.com/vi/FCEbwMW8mb0/hq720.jpg"
        },
        {
            "id": "qHovGz4Vjwo",
            "title": "Ravi Teja & Shruti Haasan Tamil Blockbuster Action/Thriller Full HD Movie | Samuthirakani, Varalaxmi",
            "url": "https://www.youtube.com/watch?v=qHovGz4Vjwo",
            "duration": 8033.0,
            "view_count": 215839,
            "uploader": "Comedy One",
            "category": "tamil",
            "thumbnail": "https://i.ytimg.com/vi/qHovGz4Vjwo/hq720.jpg"
        },
        {
            "id": "BWXZ8PIg0Hw",
            "title": "🟢LIVE: Iran vs Israel War Latest Updates | Middle East Crisis Tamil | Kharg Island | Trump | N18G",
            "url": "https://www.youtube.com/watch?v=BWXZ8PIg0Hw",
            "duration": 0,
            "view_count": 0,
            "uploader": "News18 Tamil Nadu",
            "category": "tamil",
            "thumbnail": "https://i.ytimg.com/vi/BWXZ8PIg0Hw/hq720.jpg"
        },
        {
            "id": "1HlA6E3sekg",
            "title": "Engeyum Kadhal Tamil Full Movie 1080p HD",
            "url": "https://www.youtube.com/watch?v=1HlA6E3sekg",
            "duration": 7533.0,
            "view_count": 862,
            "uploader": "ScreenWave Studio",
            "category": "tamil",
            "thumbnail": "https://i.ytimg.com/vi/1HlA6E3sekg/hq720.jpg"
        },
        {
            "id": "Kx8ggtJMTE8",
            "title": "சந்தோஷ் சுப்ரமணியம் | Santosh Subramaniam | Tamil Romantic Comedy Movie | Jayam Ravi , Genelia",
            "url": "https://www.youtube.com/watch?v=Kx8ggtJMTE8",
            "duration": 10621.0,
            "view_count": 2211845,
            "uploader": "Eros Universe Tamil",
            "category": "tamil",
            "thumbnail": "https://i.ytimg.com/vi/Kx8ggtJMTE8/hq720.jpg"
        },
        {
            "id": "uDTspJzLKCY",
            "title": "Thupparivaalan Tamil Action Thriller Full Length HD Movie | Vishal | Anu Emmanuel | Andrea Jeremiah",
            "url": "https://www.youtube.com/watch?v=uDTspJzLKCY",
            "duration": 8998.0,
            "view_count": 1829909,
            "uploader": "TRP Entertainments",
            "category": "tamil",
            "thumbnail": "https://i.ytimg.com/vi/uDTspJzLKCY/hq720.jpg"
        },
        {
            "id": "0b1VYcH83QM",
            "title": "Kathukkutty Tamil Full Movie | Narain | Srushti Dange | Soori | Superhit Comedy Full Movie HD",
            "url": "https://www.youtube.com/watch?v=0b1VYcH83QM",
            "duration": 7992.0,
            "view_count": 467062,
            "uploader": "Tick Movies - Tamil",
            "category": "tamil",
            "thumbnail": "https://i.ytimg.com/vi/0b1VYcH83QM/hq720.jpg"
        },
        {
            "id": "zTPZHeXorjs",
            "title": "Dada - 4K Full Tamil Blockbuster Movie | டாடா | Kavin | Aparna Das | K.Bhagyaraj | Aishwarya |Harish",
            "url": "https://www.youtube.com/watch?v=zTPZHeXorjs",
            "duration": 7932.0,
            "view_count": 11317575,
            "uploader": "Ayngaran",
            "category": "tamil",
            "thumbnail": "https://i.ytimg.com/vi/zTPZHeXorjs/hq720.jpg"
        },
        {
            "id": "H9zVmpDDKMM",
            "title": "Bangalore Naatkal Latest Tamil Full Movie 4K | Arya | Sri Divya | Bobby Simha | Rana | Indian Films",
            "url": "https://www.youtube.com/watch?v=H9zVmpDDKMM",
            "duration": 9260.0,
            "view_count": 785461,
            "uploader": "Mango Indian Films",
            "category": "tamil",
            "thumbnail": "https://i.ytimg.com/vi/H9zVmpDDKMM/hq720.jpg"
        },
        {
            "id": "7LppF2Expj8",
            "title": "Naalu Policeum Nalla Irundha Oorum - Tamil full movie [HD] | Arulnithi | Remya Nambeesan",
            "url": "https://www.youtube.com/watch?v=7LppF2Expj8",
            "duration": 8142.0,
            "view_count": 118250,
            "uploader": "JSK Prime Media",
            "category": "tamil",
            "thumbnail": "https://i.ytimg.com/vi/7LppF2Expj8/hq720.jpg"
        },
        {
            "id": "n9LIptMaLaI",
            "title": "Thaai Kizhavi Full Movie in Tamil | Radhika Sarathakumar | Sivakumar Murugesan | Review & Facts",
            "url": "https://www.youtube.com/watch?v=n9LIptMaLaI",
            "duration": 8292.0,
            "view_count": 20448,
            "uploader": "Oyster Zone",
            "category": "tamil",
            "thumbnail": "https://i.ytimg.com/vi/n9LIptMaLaI/hq720.jpg"
        },
        {
            "id": "HGbG0tyT9tE",
            "title": "Thalaikanam Tamil Dubbed Full Movie 4K UHD | Rahul Vijay, Shivani Rajashekar | Video Park Tamil",
            "url": "https://www.youtube.com/watch?v=HGbG0tyT9tE",
            "duration": 6160.0,
            "view_count": 538548,
            "uploader": "Video Park Tamil",
            "category": "tamil",
            "thumbnail": "https://i.ytimg.com/vi/HGbG0tyT9tE/hq720.jpg"
        },
        {
            "id": "c6fWekf3fA4",
            "title": "Mapla Singam 4K - Full Movie (Tamil) | Vimal | Soori | Anjali | Superhit Comedy Film",
            "url": "https://www.youtube.com/watch?v=c6fWekf3fA4",
            "duration": 7335.0,
            "view_count": 123694,
            "uploader": "United India Exporters",
            "category": "tamil",
            "thumbnail": "https://i.ytimg.com/vi/c6fWekf3fA4/hq720.jpg"
        },
        {
            "id": "2WWNaEn1QV4",
            "title": "Lock down full movie tamil 2026",
            "url": "https://www.youtube.com/watch?v=2WWNaEn1QV4",
            "duration": 7127.0,
            "view_count": 220,
            "uploader": "CINE-ANIME",
            "category": "tamil",
            "thumbnail": "https://i.ytimg.com/vi/2WWNaEn1QV4/hqdefault.jpg"
        },
        {
            "id": "QoaQTdqq3Ho",
            "title": "Kalank (2026) Full Action Movie | Hrithik Roshan | Rashmika Mandanna | Latest Bollywood Blockbuster",
            "url": "https://www.youtube.com/watch?v=QoaQTdqq3Ho",
            "duration": 6878.0,
            "view_count": 185791,
            "uploader": "Ankita Bhawsar",
            "category": "tamil",
            "thumbnail": "https://i.ytimg.com/vi/QoaQTdqq3Ho/hq720.jpg"
        },
        {
            "id": "j8nDHes-L7I",
            "title": "Velaiyilla Pattathari - Tamil Full Movie | Dhanush | Amala Paul | Velraj | Anirudh Ravichander",
            "url": "https://www.youtube.com/watch?v=j8nDHes-L7I",
            "duration": 7960.0,
            "view_count": 14730473,
            "uploader": "United India Exporters",
            "category": "tamil",
            "thumbnail": "https://i.ytimg.com/vi/j8nDHes-L7I/hq720.jpg"
        },
        {
            "id": "5Q40IoPcUQo",
            "title": "Master (Full Movie) : Vijay | Vijay Sethupathi | Malavika Mohan | Arjun Das | Shanthanu | Andrea",
            "url": "https://www.youtube.com/watch?v=5Q40IoPcUQo",
            "duration": 10247.0,
            "view_count": 1428127,
            "uploader": "United India Exporters",
            "category": "tamil",
            "thumbnail": "https://i.ytimg.com/vi/5Q40IoPcUQo/hq720.jpg"
        },
        {
            "id": "knA2PyN1tDo",
            "title": "Enthiran 2.O 2018 Tamil Full Movie l 720P HD l Rajinikanth l Amy Jackson l Akshay Kumar l",
            "url": "https://www.youtube.com/watch?v=knA2PyN1tDo",
            "duration": 8446.0,
            "view_count": 958005,
            "uploader": "STS Movies",
            "category": "tamil",
            "thumbnail": "https://i.ytimg.com/vi/knA2PyN1tDo/hq720.jpg"
        },
        {
            "id": "7vvQw1d2Ohs",
            "title": "Soodhu Kavvum 2 Full Movie | Shiva | Radha Ravi #jananayagan #trending #tamilcinema #suncomedy",
            "url": "https://www.youtube.com/watch?v=7vvQw1d2Ohs",
            "duration": 7800.0,
            "view_count": 118561,
            "uploader": "AandP Groups",
            "category": "tamil",
            "thumbnail": "https://i.ytimg.com/vi/7vvQw1d2Ohs/hq720.jpg"
        },
        {
            "id": "TUkU9B_H5lI",
            "title": "Good Day - 4K Full Movie | குட் டே | Prithiviraj |Myna Nandhini |Murugadoss | Kaali Venkat| Ayngaran",
            "url": "https://www.youtube.com/watch?v=TUkU9B_H5lI",
            "duration": 6880.0,
            "view_count": 241753,
            "uploader": "Ayngaran",
            "category": "tamil",
            "thumbnail": "https://i.ytimg.com/vi/TUkU9B_H5lI/hq720.jpg"
        }
    ]
}