{
    "page": 5,
    "total_pages": 5,
    "total_items": 238,
    "items": [
        {
            "id": "CjymCBZZ0Yc",
            "title": "Kullanari Koottam ( குள்ளநரி கூட்டம் ) Tamil Full Movie HD - Vishnu Vishal, Remya Nambeesan",
            "url": "https://www.youtube.com/watch?v=CjymCBZZ0Yc",
            "duration": 7952.0,
            "view_count": 8891831,
            "uploader": "MSK Movies",
            "category": "tamil",
            "thumbnail": "https://i.ytimg.com/vi/CjymCBZZ0Yc/hq720.jpg"
        },
        {
            "id": "8Wm-2orAQRg",
            "title": "Kambi Katna Kathai Full Movie [4K] | Singampuli | Sreerranjini | Natty Natraj | Ravi | 2kstudios",
            "url": "https://www.youtube.com/watch?v=8Wm-2orAQRg",
            "duration": 7376.0,
            "view_count": 335947,
            "uploader": "2K Studios Movies",
            "category": "tamil",
            "thumbnail": "https://i.ytimg.com/vi/8Wm-2orAQRg/hq720.jpg"
        },
        {
            "id": "LLpFBd17P-0",
            "title": "Kaakaa Full Movie - Tamil | Theni K Paraman | Inigo Prabhakar | Kevin | Sendrayan | Munishkanth",
            "url": "https://www.youtube.com/watch?v=LLpFBd17P-0",
            "duration": 7405.0,
            "view_count": 110052,
            "uploader": "United India Exporters",
            "category": "tamil",
            "thumbnail": "https://i.ytimg.com/vi/LLpFBd17P-0/hq720.jpg"
        },
        {
            "id": "oJStPfFpALw",
            "title": "Sotta Sotta Nanaiyuthu - Tamil Comedy Full Movie | Nishanth | Shaalini | Varshini | MSK Movies",
            "url": "https://www.youtube.com/watch?v=oJStPfFpALw",
            "duration": 7582.0,
            "view_count": 10585,
            "uploader": "MSK Movies",
            "category": "tamil",
            "thumbnail": "https://i.ytimg.com/vi/oJStPfFpALw/hq720.jpg"
        },
        {
            "id": "bmmwgiHF3AE",
            "title": "Madha Yaanai Koottam (2013) Tamil Full Movie HD | 4K | Kathir | Oviya | Kalaiyarasan | Vicky Cinemas",
            "url": "https://www.youtube.com/watch?v=bmmwgiHF3AE",
            "duration": 8284.0,
            "view_count": 1304019,
            "uploader": "Vicky Cinemas HD",
            "category": "tamil",
            "thumbnail": "https://i.ytimg.com/vi/bmmwgiHF3AE/hq720.jpg"
        },
        {
            "id": "v1Xoii5SK2g",
            "title": "Jana Nayagan Full Movie In Tamil | Thalapathy Vijay | Pooja Hegde | Mamitha Baiju | Reviews & Facts",
            "url": "https://www.youtube.com/watch?v=v1Xoii5SK2g",
            "duration": 9173.0,
            "view_count": 1044820,
            "uploader": "Cine Drift",
            "category": "tamil",
            "thumbnail": "https://i.ytimg.com/vi/v1Xoii5SK2g/hq720.jpg"
        },
        {
            "id": "wfeFQ1-4w4Q",
            "title": "THE100 FULL MOVIE | TAMIL | RK Sagar | Misha | Raghav Omkar Sasidhar |Harshavardhan Rameshwar",
            "url": "https://www.youtube.com/watch?v=wfeFQ1-4w4Q",
            "duration": 8005.0,
            "view_count": 115993,
            "uploader": "KRIA FILM CORP",
            "category": "tamil",
            "thumbnail": "https://i.ytimg.com/vi/wfeFQ1-4w4Q/hq720.jpg"
        },
        {
            "id": "HtR1LPRyV2I",
            "title": "Romeo Juliet - Tamil Full Movie HD | Ravi Mohan | Hansika |  Poonam Bajwa | VTV Ganesh",
            "url": "https://www.youtube.com/watch?v=HtR1LPRyV2I",
            "duration": 8274.0,
            "view_count": 59813,
            "uploader": "Lyca Productions",
            "category": "tamil",
            "thumbnail": "https://i.ytimg.com/vi/HtR1LPRyV2I/hq720.jpg?sqp=-oaymwEcCNAFEJQDSFXyq4qpAw4IARUAAIhCGAFwAcABBg==&rs=AOn4CLCjKnnq73k09ST5YgDY4yExo127fg",
            "added_date": "2026-04-16T07:31:09.771723Z",
            "source": "youtube"
        },
        {
            "id": "ol5tx6j5230",
            "title": "Vandi (2018) | Superhit Tamil Movie | Vidaarth | Comedy Drama |  Full Movie Tamil (HD)",
            "url": "https://www.youtube.com/watch?v=ol5tx6j5230",
            "duration": 7910.0,
            "view_count": 5681,
            "uploader": "Eros Universe Tamil",
            "category": "tamil",
            "thumbnail": "https://i.ytimg.com/vi/ol5tx6j5230/hq720.jpg"
        },
        {
            "id": "ZkGFJJSjwGE",
            "title": "Thuppakki Tamil Full Movie | Thalapathy Vijay, Kajal Aggarwal, Vidyut | துப்பாக்கி | AR Murugadoss",
            "url": "https://www.youtube.com/watch?v=ZkGFJJSjwGE",
            "duration": 10190.0,
            "view_count": 10240661,
            "uploader": "Rajshri Tamil",
            "category": "tamil",
            "thumbnail": "https://i.ytimg.com/vi/ZkGFJJSjwGE/hq720.jpg"
        },
        {
            "id": "t_5FlX_sRuA",
            "title": "Theeya Velai Seiyyanum Kumaru Tamil Full Movie",
            "url": "https://www.youtube.com/watch?v=t_5FlX_sRuA",
            "duration": 8291.0,
            "view_count": 4178154,
            "uploader": "United India Exporters",
            "category": "tamil",
            "thumbnail": "https://i.ytimg.com/vi/t_5FlX_sRuA/hq720.jpg"
        },
        {
            "id": "0BLS_QSCnM4",
            "title": "Baahubali 2 - The Conclusion Tamil Full Movie 1080p HD | Prabhas | Anushka | Tamannaah | Rana",
            "url": "https://www.youtube.com/watch?v=0BLS_QSCnM4",
            "duration": 10059.0,
            "view_count": 289652,
            "uploader": "Baahubali The Movie",
            "category": "tamil",
            "thumbnail": "https://i.ytimg.com/vi/0BLS_QSCnM4/hq720.jpg"
        },
        {
            "id": "6k-JbDiksME",
            "title": "Lingaa | Rajinikanths Superhit Tamil Movie | Rajinikanth, Anushka Shetty, Sonakshi Sinha",
            "url": "https://www.youtube.com/watch?v=6k-JbDiksME",
            "duration": 10008.0,
            "view_count": 471795,
            "uploader": "Eros Universe Tamil",
            "category": "tamil",
            "thumbnail": "https://i.ytimg.com/vi/6k-JbDiksME/hq720.jpg"
        },
        {
            "id": "IYG317Dj3do",
            "title": "Darbar - Tamil full movie (HD) | Rajinikanth | Nayanthara | AR Murugadoss | Anirudh | Lyca",
            "url": "https://www.youtube.com/watch?v=IYG317Dj3do",
            "duration": 9143.0,
            "view_count": 223581,
            "uploader": "Lyca Productions",
            "category": "tamil",
            "thumbnail": "https://i.ytimg.com/vi/IYG317Dj3do/hq720.jpg"
        },
        {
            "id": "8-8mgpgYNIs",
            "title": "Jana Nayagan Full Movie In Tamil 2026 | Thalapathy Vijay | Pooja Hegde | Bobby Deol | Review & Facts",
            "url": "https://www.youtube.com/watch?v=8-8mgpgYNIs",
            "duration": 9604.0,
            "view_count": 47920,
            "uploader": "Drama Adda Serial",
            "category": "tamil",
            "thumbnail": "https://i.ytimg.com/vi/8-8mgpgYNIs/hq720.jpg"
        },
        {
            "id": "Dk-FzgEYgWk",
            "title": "தமிழ் Tamil Full Movie HD | Prashanth | Simran | Vadivelu | Directed by Hari Thamizh 2002 HD Movie",
            "url": "https://www.youtube.com/watch?v=Dk-FzgEYgWk",
            "duration": 9274.0,
            "view_count": 199948,
            "uploader": "RJS Movies",
            "category": "tamil",
            "thumbnail": "https://i.ytimg.com/vi/Dk-FzgEYgWk/hq720.jpg"
        },
        {
            "id": "A5mJ6QnlevY",
            "title": "🔴LIVE : jananayagan piracy | Arrest | Vijay | ஜனநாயகன் லீக் - அதிரடியாக கைது",
            "url": "https://www.youtube.com/watch?v=A5mJ6QnlevY",
            "duration": 0,
            "view_count": 0,
            "uploader": "Thanthi TV",
            "category": "tamil",
            "thumbnail": "https://i.ytimg.com/vi/A5mJ6QnlevY/hq720.jpg"
        },
        {
            "id": "kyuMeBDMlJM",
            "title": "Thaai Kizhavi Full Movie In Tamil 2026 | Radikaa Sarathkumar | Singampuli | HD Reviews & Facts",
            "url": "https://www.youtube.com/watch?v=kyuMeBDMlJM",
            "duration": 8501.0,
            "view_count": 34022,
            "uploader": "Cine Drift",
            "category": "tamil",
            "thumbnail": "https://i.ytimg.com/vi/kyuMeBDMlJM/hq720.jpg"
        },
        {
            "id": "_89_ZDW7EFE",
            "title": "THALLUMAALA | Tamil Action Full Movie | Tovino Thomas, Kalyani Priyadarshan",
            "url": "https://www.youtube.com/watch?v=_89_ZDW7EFE",
            "duration": 8906.0,
            "view_count": 10869,
            "uploader": "Tamil Movieplex",
            "category": "tamil",
            "thumbnail": "https://i.ytimg.com/vi/_89_ZDW7EFE/hq720.jpg"
        },
        {
            "id": "JzxLH_ojV_U",
            "title": "Allu Arjun & Pooja Hegde Tamil Super Hit Full Movie || Devi Sri Prasad || Kollywood Multiplex",
            "url": "https://www.youtube.com/watch?v=JzxLH_ojV_U",
            "duration": 7051.0,
            "view_count": 2557909,
            "uploader": "Kollywood Multiplex",
            "category": "tamil",
            "thumbnail": "https://i.ytimg.com/vi/JzxLH_ojV_U/hq720.jpg"
        },
        {
            "id": "DT6IVMgoAYQ",
            "title": "The Door | Full Movie | Bhavana | Ganesh Venkataraman | Jaiiddev | Varun Unni | Naveen Rajan",
            "url": "https://www.youtube.com/watch?v=DT6IVMgoAYQ",
            "duration": 7658.0,
            "view_count": 361683,
            "uploader": "VS Malayalam Cinema",
            "category": "tamil",
            "thumbnail": "https://i.ytimg.com/vi/DT6IVMgoAYQ/hq720.jpg"
        },
        {
            "id": "fvDmrx9Xm-I",
            "title": "Em Magan - எம் மகன் (2006) | Bharath, Gopika | Family Drama | Tamil Full Movie (HD)",
            "url": "https://www.youtube.com/watch?v=fvDmrx9Xm-I",
            "duration": 9260.0,
            "view_count": 115628,
            "uploader": "Eros Universe South",
            "category": "tamil",
            "thumbnail": "https://i.ytimg.com/vi/fvDmrx9Xm-I/hq720.jpg"
        },
        {
            "id": "w3AGOknWQs0",
            "title": "PULI Tamil Full Super Hit Movie | Vijay | Sridhavi | Brabu | Hansika | Sruthi Hasan |..",
            "url": "https://www.youtube.com/watch?v=w3AGOknWQs0",
            "duration": 9247.0,
            "view_count": 190287,
            "uploader": "TR Status Official ",
            "category": "tamil",
            "thumbnail": "https://i.ytimg.com/vi/w3AGOknWQs0/hqdefault.jpg?sqp=-oaymwEcCOADEI4CSFXyq4qpAw4IARUAAIhCGAFwAcABBg==&rs=AOn4CLBuIcKZ7lA6lBd7S8NtJG2y6CATeA",
            "added_date": "2026-04-16T07:31:10.573200Z",
            "source": "youtube"
        },
        {
            "id": "ZIZVQePVL88",
            "title": "Nari (Roudram) | Tamil Dubbed Action Movie 4k | Mammootty | Sai Kumar | Manju | Haris Cinemas",
            "url": "https://www.youtube.com/watch?v=ZIZVQePVL88",
            "duration": 7338.0,
            "view_count": 179436,
            "uploader": "Haris Cinemas",
            "category": "tamil",
            "thumbnail": "https://i.ytimg.com/vi/ZIZVQePVL88/hq720.jpg"
        },
        {
            "id": "ul6RTcNaesQ",
            "title": "Nimir 4K Full Tamil Movie | Udhayanidhi Stalin | Namitha Pramod | Blockbuster Film",
            "url": "https://www.youtube.com/watch?v=ul6RTcNaesQ",
            "duration": 7174.0,
            "view_count": 38349,
            "uploader": "United India Exporters",
            "category": "tamil",
            "thumbnail": "https://i.ytimg.com/vi/ul6RTcNaesQ/hq720.jpg"
        },
        {
            "id": "oRHIIOVR3pM",
            "title": "Ayan Full Movie HD Surya Blockbuster Movie Tamil Action Movie",
            "url": "https://www.youtube.com/watch?v=oRHIIOVR3pM",
            "duration": 9743.0,
            "view_count": 67952,
            "uploader": "Tamil Entertainment 1",
            "category": "tamil",
            "thumbnail": "https://i.ytimg.com/vi/oRHIIOVR3pM/hq720.jpg?sqp=-oaymwEcCNAFEJQDSFXyq4qpAw4IARUAAIhCGAFwAcABBg==&rs=AOn4CLBCwq9huUAqxxg1Lk2Mmpsek_lByA",
            "added_date": "2026-04-16T07:31:10.372847Z",
            "source": "youtube"
        },
        {
            "id": "6tLQtsPZNvQ",
            "title": "கண்ணெதிரே தோன்றினாள் Tamil Full Movie 4K HD | Prashanth | Simran | Deva | Kannedhirey Thondrinal",
            "url": "https://www.youtube.com/watch?v=6tLQtsPZNvQ",
            "duration": 9745.0,
            "view_count": 83789,
            "uploader": "RJS Screens",
            "category": "tamil",
            "thumbnail": "https://i.ytimg.com/vi/6tLQtsPZNvQ/hq720.jpg"
        },
        {
            "id": "e1Mq2wg9WlQ",
            "title": "Vanamagan  4K Full Movie | Ravi Mohan | Sayeesha | Prakash Raj | Harris Jayaraj | Adventure Film",
            "url": "https://www.youtube.com/watch?v=e1Mq2wg9WlQ",
            "duration": 7826.0,
            "view_count": 67555,
            "uploader": "United India Exporters",
            "category": "tamil",
            "thumbnail": "https://i.ytimg.com/vi/e1Mq2wg9WlQ/hq720.jpg"
        },
        {
            "id": "mTj9Y0qAM10",
            "title": "Naga Chaitanya & Pooja Hegde || Tamil Movie || Full HD",
            "url": "https://www.youtube.com/watch?v=mTj9Y0qAM10",
            "duration": 6975.0,
            "view_count": 31186,
            "uploader": "Vee Tamil",
            "category": "tamil",
            "thumbnail": "https://i.ytimg.com/vi/mTj9Y0qAM10/hq720.jpg"
        },
        {
            "id": "VT9dPu6tOM4",
            "title": "Thaai Kizhavi Full Tamil Movie 2026 | Radikaa Sarathkumar | Ilavarasu | Aruldoss | HD Review & Facts",
            "url": "https://www.youtube.com/watch?v=VT9dPu6tOM4",
            "duration": 8576.0,
            "view_count": 56171,
            "uploader": "Zyrox Cinema and 2 more",
            "category": "tamil",
            "thumbnail": "https://i.ytimg.com/vi/VT9dPu6tOM4/hq720.jpg"
        },
        {
            "id": "LZPnrCAzCs8",
            "title": "Sarkar full movie [Tamil] | Thalapathy Vijay | Sun Pictures | A.R Murugadoss | A.R. Rahman",
            "url": "https://www.youtube.com/watch?v=LZPnrCAzCs8",
            "duration": 9737.0,
            "view_count": 1235,
            "uploader": "MM Movies",
            "category": "tamil",
            "thumbnail": "https://i.ytimg.com/vi/LZPnrCAzCs8/hqdefault.jpg"
        },
        {
            "id": "ReeiZ-JtRTM",
            "title": "Vanakkam Chennai Tamil Full Movie",
            "url": "https://www.youtube.com/watch?v=ReeiZ-JtRTM",
            "duration": 8341.0,
            "view_count": 3915667,
            "uploader": "United India Exporters",
            "category": "tamil",
            "thumbnail": "https://i.ytimg.com/vi/ReeiZ-JtRTM/hq720.jpg"
        },
        {
            "id": "GmbaGDHKkxc",
            "title": "THANAL - 4K  Full Action Movie | தணல் | Atharvaa | Ashwin Kakumanu | Lavanya Tripathi | Ayngaran",
            "url": "https://www.youtube.com/watch?v=GmbaGDHKkxc",
            "duration": 7533.0,
            "view_count": 965937,
            "uploader": "Ayngaran",
            "category": "tamil",
            "thumbnail": "https://i.ytimg.com/vi/GmbaGDHKkxc/hq720.jpg"
        },
        {
            "id": "Lxjdaub3Gx4",
            "title": "Maragadha Naanayam ( 2017 ) | Tamil Full Movie HD | Aadhi | Nikki Galrani | Mishri Movies",
            "url": "https://www.youtube.com/watch?v=Lxjdaub3Gx4",
            "duration": 7541.0,
            "view_count": 14147,
            "uploader": "MISHRI MOVIES",
            "category": "tamil",
            "thumbnail": "https://i.ytimg.com/vi/Lxjdaub3Gx4/hq720.jpg"
        },
        {
            "id": "hLVAAMAdKLI",
            "title": "NEW RELEASE | இராமானுசன் FULL MOVIE HD | Ramanujan Tamil MOVIE",
            "url": "https://www.youtube.com/watch?v=hLVAAMAdKLI",
            "duration": 9635.0,
            "view_count": 1365458,
            "uploader": "Ultra Cinema",
            "category": "tamil",
            "thumbnail": "https://i.ytimg.com/vi/hLVAAMAdKLI/hq720.jpg"
        },
        {
            "id": "mkgpdiFihPU",
            "title": "Love Insurance Kompany Full Movie In Tamil | Pradeep Ranganathan | Krithi Shetty | Reviews & Facts",
            "url": "https://www.youtube.com/watch?v=mkgpdiFihPU",
            "duration": 8885.0,
            "view_count": 21363,
            "uploader": "Cine Drift",
            "category": "tamil",
            "thumbnail": "https://i.ytimg.com/vi/mkgpdiFihPU/hq720.jpg"
        },
        {
            "id": "gMFyMSPT8nU",
            "title": "Thirunaal 4K Full Movie Tamil | Jiiva | Nayanthara | Karunas | Super Hit Blockbuster",
            "url": "https://www.youtube.com/watch?v=gMFyMSPT8nU",
            "duration": 7837.0,
            "view_count": 79442,
            "uploader": "United India Exporters",
            "category": "tamil",
            "thumbnail": "https://i.ytimg.com/vi/gMFyMSPT8nU/hq720.jpg?sqp=-oaymwEcCNAFEJQDSFXyq4qpAw4IARUAAIhCGAFwAcABBg==&rs=AOn4CLA8lOsvxe42DSvg_XHBQ9t_TkZePA",
            "added_date": "2026-04-16T07:31:09.571371Z",
            "source": "youtube"
        },
        {
            "id": "nZZKs6UBg7w",
            "title": "Shahjahan | Tamil Full Movie | Vijay, Richa Pallod | Mani Sharma | Super Good Films | Full HD",
            "url": "https://www.youtube.com/watch?v=nZZKs6UBg7w",
            "duration": 9374.0,
            "view_count": 2704173,
            "uploader": "Super Good Films",
            "category": "tamil",
            "thumbnail": "https://i.ytimg.com/vi/nZZKs6UBg7w/hq720.jpg"
        }
    ]
}