{
    "page": 4,
    "total_pages": 9,
    "total_items": 439,
    "items": [
        {
            "id": "0rZvsOlYOHk",
            "title": "The Boy She Met Online 2025 | A Thriller Movies 2025 New Releases | Based On True Story 2025",
            "url": "https://www.youtube.com/watch?v=0rZvsOlYOHk",
            "duration": 6931.0,
            "view_count": 869558,
            "uploader": "9 Studio",
            "category": "english",
            "thumbnail": "https://i.ytimg.com/vi/0rZvsOlYOHk/hq720.jpg"
        },
        {
            "id": "M6gZVsumTDA",
            "title": "Dangerous Dogs (2026) Donnie Yen | Full Action Movie - Thriller - Adventure | 4K HDR #actionmovies",
            "url": "https://www.youtube.com/watch?v=M6gZVsumTDA",
            "duration": 6700.0,
            "view_count": 30872,
            "uploader": "ZED Drama",
            "category": "english",
            "thumbnail": "https://i.ytimg.com/vi/M6gZVsumTDA/hq720.jpg"
        },
        {
            "id": "KBlq4Y480Yc",
            "title": "Jack The Ripper: The London Slasher FULL MOVIE | Thriller Movies | The Midnight Screening",
            "url": "https://www.youtube.com/watch?v=KBlq4Y480Yc",
            "duration": 6055.0,
            "view_count": 696161,
            "uploader": "The Midnight Screening",
            "category": "english",
            "thumbnail": "https://i.ytimg.com/vi/KBlq4Y480Yc/hq720.jpg"
        },
        {
            "id": "-IZ9CbADOqA",
            "title": "🎬 HIGHLY RECOMMENDED TO WATCH THIS MOVIE! High-Rated Action Horror Film | Watch Now",
            "url": "https://www.youtube.com/watch?v=-IZ9CbADOqA",
            "duration": 4795.0,
            "view_count": 2445576,
            "uploader": "FILMDOMINION",
            "category": "english",
            "thumbnail": "https://i.ytimg.com/vi/-IZ9CbADOqA/hq720.jpg"
        },
        {
            "id": "0FWdKqL5fnU",
            "title": "The Mythic Quest | FAMILY, TEEN | Full Movie in English",
            "url": "https://www.youtube.com/watch?v=0FWdKqL5fnU",
            "duration": 5545.0,
            "view_count": 883063,
            "uploader": "MyMovies",
            "category": "english",
            "thumbnail": "https://i.ytimg.com/vi/0FWdKqL5fnU/hq720.jpg"
        },
        {
            "id": "-7JAqk7UqiY",
            "title": "Among the Infected | SCIFI | Full Movie in English",
            "url": "https://www.youtube.com/watch?v=-7JAqk7UqiY",
            "duration": 15835.0,
            "view_count": 7560,
            "uploader": "Boxoffice | SCI-FI | Full Movies",
            "category": "english",
            "thumbnail": "https://i.ytimg.com/vi/-7JAqk7UqiY/hq720.jpg"
        },
        {
            "id": "hVNFHKHs50E",
            "title": "Summer Forever | ROMANCE | Full Movie in English",
            "url": "https://www.youtube.com/watch?v=hVNFHKHs50E",
            "duration": 4891.0,
            "view_count": 63242,
            "uploader": "Boxoffice | ROMANCE | Full Movies",
            "category": "english",
            "thumbnail": "https://i.ytimg.com/vi/hVNFHKHs50E/hq720.jpg"
        },
        {
            "id": "tSIiSgKigNs",
            "title": "NYDENION 🎬 Exclusive Full Sci-Fi Movie 🎬 English HD",
            "url": "https://www.youtube.com/watch?v=tSIiSgKigNs",
            "duration": 5406.0,
            "view_count": 318715,
            "uploader": "WATCH NOW - SCI-FI & FANTASY",
            "category": "english",
            "thumbnail": "https://i.ytimg.com/vi/tSIiSgKigNs/hq720.jpg"
        },
        {
            "id": "31X9vjPfy4A",
            "title": "🎬 Everyone Recommends This Movie! Don’t Miss It — Watch Full Film Free Now 👆",
            "url": "https://www.youtube.com/watch?v=31X9vjPfy4A",
            "duration": 5336.0,
            "view_count": 98284,
            "uploader": "FilmVaultX",
            "category": "english",
            "thumbnail": "https://i.ytimg.com/vi/31X9vjPfy4A/hq720.jpg"
        },
        {
            "id": "hqwqOmtz0gA",
            "title": "[FULL HD] She Married a Homeless CEO?! | Full Mini Drama HD | Romantic Comedy Series",
            "url": "https://www.youtube.com/watch?v=hqwqOmtz0gA",
            "duration": 5346.0,
            "view_count": 867472,
            "uploader": "Circuit Dramas",
            "category": "english",
            "thumbnail": "https://i.ytimg.com/vi/hqwqOmtz0gA/hq720.jpg"
        },
        {
            "id": "QMddIawTOrI",
            "title": "KUNG FU (2026) Donnie Yen | Full Action Movie - Thriller - Adventure | 4K HDR #actionmovies",
            "url": "https://www.youtube.com/watch?v=QMddIawTOrI",
            "duration": 5709.0,
            "view_count": 1687,
            "uploader": "ZED Drama",
            "category": "english",
            "thumbnail": "https://i.ytimg.com/vi/QMddIawTOrI/hq720.jpg"
        },
        {
            "id": "8Ser7R8PUy8",
            "title": "This Film’s Story Deserves an Oscar! Watch This Thriller Free | Full Movie",
            "url": "https://www.youtube.com/watch?v=8Ser7R8PUy8",
            "duration": 5421.0,
            "view_count": 612113,
            "uploader": "FilmVaultX",
            "category": "english",
            "thumbnail": "https://i.ytimg.com/vi/8Ser7R8PUy8/hq720.jpg"
        },
        {
            "id": "RW6v5IEuUBE",
            "title": "Full Intense Mafia Movie | The rise of a new mafia generation | Crime Movies",
            "url": "https://www.youtube.com/watch?v=RW6v5IEuUBE",
            "duration": 5476.0,
            "view_count": 1185693,
            "uploader": "More Movies in English",
            "category": "english",
            "thumbnail": "https://i.ytimg.com/vi/RW6v5IEuUBE/hq720.jpg"
        },
        {
            "id": "IK2E8DePJIM",
            "title": "THE INN 🎬 Full Horror Movie 🎬 English HD",
            "url": "https://www.youtube.com/watch?v=IK2E8DePJIM",
            "duration": 3952.0,
            "view_count": 7080,
            "uploader": "Watch Movies Now!",
            "category": "english",
            "thumbnail": "https://i.ytimg.com/vi/IK2E8DePJIM/hq720.jpg"
        },
        {
            "id": "QDnBspYTah8",
            "title": "Flood FULL MOVIE | Disaster Movies | Tom Hardy | The Midnight Screening",
            "url": "https://www.youtube.com/watch?v=QDnBspYTah8",
            "duration": 11018.0,
            "view_count": 1559189,
            "uploader": "The Midnight Screening",
            "category": "english",
            "thumbnail": "https://i.ytimg.com/vi/QDnBspYTah8/hq720.jpg"
        },
        {
            "id": "DTNaOoFtFLU",
            "title": "Root Letter | English Full Movie | Drama Mystery Thriller",
            "url": "https://www.youtube.com/watch?v=DTNaOoFtFLU",
            "duration": 5076.0,
            "view_count": 224,
            "uploader": "GEM: Film Library",
            "category": "english",
            "thumbnail": "https://i.ytimg.com/vi/DTNaOoFtFLU/hq720.jpg"
        },
        {
            "id": "FC4OuuW5Uzs",
            "title": "THE MAD PIRATES (2026) Donnie Yen | Full Action Movie - Thriller - Adventure | 4K HDR #actionmovies",
            "url": "https://www.youtube.com/watch?v=FC4OuuW5Uzs",
            "duration": 5834.0,
            "view_count": 96704,
            "uploader": "ZED Drama",
            "category": "english",
            "thumbnail": "https://i.ytimg.com/vi/FC4OuuW5Uzs/hq720.jpg"
        },
        {
            "id": "rPJLGDea1NU",
            "title": "THE MANDALORIAN Full Movie 2025:Star Wars | sci fi Action Movies 2025 English (Game Movie)",
            "url": "https://www.youtube.com/watch?v=rPJLGDea1NU",
            "duration": 6419.0,
            "view_count": 469606,
            "uploader": "Ghetto The NPC",
            "category": "english",
            "thumbnail": "https://i.ytimg.com/vi/rPJLGDea1NU/hq720.jpg"
        },
        {
            "id": "IA5jHllkpks",
            "title": "DEATH WARRANT  | Jason Statham | New Action Movie 2025 | Full Movie | 4K Ultra #actionmovies",
            "url": "https://www.youtube.com/watch?v=IA5jHllkpks",
            "duration": 5896.0,
            "view_count": 237708,
            "uploader": "Romántica Canción",
            "category": "english",
            "thumbnail": "https://i.ytimg.com/vi/IA5jHllkpks/hq720.jpg"
        },
        {
            "id": "r1RpPczbmg0",
            "title": "This movie is UNIQUE, and if you haven't seen it… YOU'RE MISSING OUT. Action movie in English...",
            "url": "https://www.youtube.com/watch?v=r1RpPczbmg0",
            "duration": 5058.0,
            "view_count": 1042207,
            "uploader": "MOVRION",
            "category": "english",
            "thumbnail": "https://i.ytimg.com/vi/r1RpPczbmg0/hq720.jpg"
        },
        {
            "id": "JPI4A2gb7rI",
            "title": "Romantic story you will never forget | THE HEALER | Full movie in English",
            "url": "https://www.youtube.com/watch?v=JPI4A2gb7rI",
            "duration": 6487.0,
            "view_count": 714895,
            "uploader": "Kinopower",
            "category": "english",
            "thumbnail": "https://i.ytimg.com/vi/JPI4A2gb7rI/hq720.jpg"
        },
        {
            "id": "IZMzPE8mbf8",
            "title": "ICE AGE 2 Full Movie 2025 | THE MELTDOWN | Full Movie in ENGLISH (Game Movie)",
            "url": "https://www.youtube.com/watch?v=IZMzPE8mbf8",
            "duration": 6331.0,
            "view_count": 275878,
            "uploader": "CineMavrix",
            "category": "english",
            "thumbnail": "https://i.ytimg.com/vi/IZMzPE8mbf8/hq720.jpg"
        },
        {
            "id": "uQhjMBcZIBE",
            "title": "He Was Hired to Protect the President | Full Action Movie",
            "url": "https://www.youtube.com/watch?v=uQhjMBcZIBE",
            "duration": 6173.0,
            "view_count": 1218364,
            "uploader": "Prime Action Films",
            "category": "english",
            "thumbnail": "https://i.ytimg.com/vi/uQhjMBcZIBE/hq720.jpg"
        },
        {
            "id": "Kr8S0sWom3Q",
            "title": "PLANETARIUM | Natalie Portman, Lily-Rose Depp | DRAMA | Full Movie in English",
            "url": "https://www.youtube.com/watch?v=Kr8S0sWom3Q",
            "duration": 6381.0,
            "view_count": 87830,
            "uploader": "Boxoffice | NEW Full Movies in English",
            "category": "english",
            "thumbnail": "https://i.ytimg.com/vi/Kr8S0sWom3Q/hq720.jpg"
        },
        {
            "id": "7wsZpt6SgRk",
            "title": "This Soldier Spy Action Movie Will Hook You till the end | Action Thriller Movie | English",
            "url": "https://www.youtube.com/watch?v=7wsZpt6SgRk",
            "duration": 5704.0,
            "view_count": 33935,
            "uploader": "VHS Vengeance",
            "category": "english",
            "thumbnail": "https://i.ytimg.com/vi/7wsZpt6SgRk/hq720.jpg"
        },
        {
            "id": "TaWThMILnTU",
            "title": "Painted Feelings | ROMANCE, DRAMA | Full Movie in English",
            "url": "https://www.youtube.com/watch?v=TaWThMILnTU",
            "duration": 6158.0,
            "view_count": 492,
            "uploader": "MyMovies",
            "category": "english",
            "thumbnail": "https://i.ytimg.com/vi/TaWThMILnTU/hq720.jpg"
        },
        {
            "id": "I4fzqx22RbY",
            "title": "😱This movie will make you shiver! 😮 Watch NOW | Full English Dubbed Movies",
            "url": "https://www.youtube.com/watch?v=I4fzqx22RbY",
            "duration": 5510.0,
            "view_count": 87108,
            "uploader": "North Point",
            "category": "english",
            "thumbnail": "https://i.ytimg.com/vi/I4fzqx22RbY/hq720.jpg"
        },
        {
            "id": "AQcAI5UhOeA",
            "title": "😱 A Powerful Story You Won’t Be Able To Look Away From! Highly Recommended To Watch Right Now!",
            "url": "https://www.youtube.com/watch?v=AQcAI5UhOeA",
            "duration": 5900.0,
            "view_count": 21576,
            "uploader": "FILMDOMINION",
            "category": "english",
            "thumbnail": "https://i.ytimg.com/vi/AQcAI5UhOeA/hq720.jpg"
        },
        {
            "id": "d2DyW7lHpoM",
            "title": "Dragon Hunter: Monster Slayer List  | Fantasy Action Movie English Sub, Full Movie HD",
            "url": "https://www.youtube.com/watch?v=d2DyW7lHpoM",
            "duration": 4343.0,
            "view_count": 1213,
            "uploader": "Moxi Action Movies English",
            "category": "english",
            "thumbnail": "https://i.ytimg.com/vi/d2DyW7lHpoM/hq720.jpg"
        },
        {
            "id": "0fLlwxIahcM",
            "title": "They Should Have Never Entered The Woods | Full Horror Movie in English",
            "url": "https://www.youtube.com/watch?v=0fLlwxIahcM",
            "duration": 5903.0,
            "view_count": 1655828,
            "uploader": "Cinema Zone HD",
            "category": "english",
            "thumbnail": "https://i.ytimg.com/vi/0fLlwxIahcM/hq720.jpg"
        },
        {
            "id": "_uL--PP0y1Q",
            "title": "BLOODY TRIP: RISE OF THE DEAD 🎬 Full Horror Movie 🎬 English HD",
            "url": "https://www.youtube.com/watch?v=_uL--PP0y1Q",
            "duration": 3777.0,
            "view_count": 1179,
            "uploader": "Watch Movies Now!",
            "category": "english",
            "thumbnail": "https://i.ytimg.com/vi/_uL--PP0y1Q/hq720.jpg"
        },
        {
            "id": "9gzwD54mZyQ",
            "title": "SWEPT AWAY: The Island Between Us | 2026 Full Movie | Action | Survival | English  | 4K Ultra HD",
            "url": "https://www.youtube.com/watch?v=9gzwD54mZyQ",
            "duration": 4174.0,
            "view_count": 530016,
            "uploader": "Solus AI Cinema",
            "category": "english",
            "thumbnail": "https://i.ytimg.com/vi/9gzwD54mZyQ/hq720.jpg"
        },
        {
            "id": "zcNXyLHQHsg",
            "title": "PUNCHER (2026) Scott Adkins | Full Action Movie - Thriller | 4K #actionmovies",
            "url": "https://www.youtube.com/watch?v=zcNXyLHQHsg",
            "duration": 5358.0,
            "view_count": 15310,
            "uploader": "ZED Drama",
            "category": "english",
            "thumbnail": "https://i.ytimg.com/vi/zcNXyLHQHsg/hq720.jpg"
        },
        {
            "id": "BkjykblvfwY",
            "title": "The Stranger's Game | THRILLER | Full Movie in English",
            "url": "https://www.youtube.com/watch?v=BkjykblvfwY",
            "duration": 5212.0,
            "view_count": 479,
            "uploader": "Boxoffice | THRILLERS | Full Movies",
            "category": "english",
            "thumbnail": "https://i.ytimg.com/vi/BkjykblvfwY/hq720.jpg"
        },
        {
            "id": "wcSpAcUP_1A",
            "title": "They Shouldn’t Have Known The Truth | Full Horror Movie",
            "url": "https://www.youtube.com/watch?v=wcSpAcUP_1A",
            "duration": 5321.0,
            "view_count": 11691,
            "uploader": "International Film Universe",
            "category": "english",
            "thumbnail": "https://i.ytimg.com/vi/wcSpAcUP_1A/hq720_custom_2.jpg"
        },
        {
            "id": "LAy3-g2XCtg",
            "title": "DON’T MISS IT! | Action in the Heart of the Wild | Full Movie",
            "url": "https://www.youtube.com/watch?v=LAy3-g2XCtg",
            "duration": 6085.0,
            "view_count": 1701117,
            "uploader": "Brothers Films",
            "category": "english",
            "thumbnail": "https://i.ytimg.com/vi/LAy3-g2XCtg/hq720.jpg"
        },
        {
            "id": "0danzfHLNmw",
            "title": "Dark Visitor | HORROR, THRILLER | Full Movie in English",
            "url": "https://www.youtube.com/watch?v=0danzfHLNmw",
            "duration": 5550.0,
            "view_count": 11779,
            "uploader": "Boxoffice | NEW Full Movies in English",
            "category": "english",
            "thumbnail": "https://i.ytimg.com/vi/0danzfHLNmw/hq720.jpg"
        },
        {
            "id": "qsHG9LahLvQ",
            "title": "SALT 2 ||  2026 Denzel Washington x Angelina Jolie New Action Movie | Movie In English Full HD 1080p",
            "url": "https://www.youtube.com/watch?v=qsHG9LahLvQ",
            "duration": 7652.0,
            "view_count": 1187484,
            "uploader": "ScreenBuzz",
            "category": "english",
            "thumbnail": "https://i.ytimg.com/vi/qsHG9LahLvQ/hq720.jpg"
        },
        {
            "id": "o6EHuQk2jPk",
            "title": "Colombiana 2  - New Action Movie 2026 | Jason Statham | Full Movie | 4K Ultra #actionmovies",
            "url": "https://www.youtube.com/watch?v=o6EHuQk2jPk",
            "duration": 5526.0,
            "view_count": 1456158,
            "uploader": "REGGAETV",
            "category": "english",
            "thumbnail": "https://i.ytimg.com/vi/o6EHuQk2jPk/hq720.jpg?sqp=-oaymwEcCNAFEJQDSFXyq4qpAw4IARUAAIhCGAFwAcABBg==&rs=AOn4CLDGSk60La5P04WbPqqQbBz02zy7Xw",
            "added_date": "2026-04-16T07:31:02.033196Z",
            "source": "youtube"
        },
        {
            "id": "oOD_SzCreLY",
            "title": "ALIEN BATTLEFIELD 🎬 Full Sci-Fi Movie 🎬 English HD",
            "url": "https://www.youtube.com/watch?v=oOD_SzCreLY",
            "duration": 5289.0,
            "view_count": 5302,
            "uploader": "WATCH NOW - SCI-FI & FANTASY",
            "category": "english",
            "thumbnail": "https://i.ytimg.com/vi/oOD_SzCreLY/hq720.jpg"
        },
        {
            "id": "jExGWFXuzpU",
            "title": "LETHAL DUO (2026) Jason Statham - Jackie Chan | Full Action Movie - Thriller | 4K HDR #actionmovies",
            "url": "https://www.youtube.com/watch?v=jExGWFXuzpU",
            "duration": 5545.0,
            "view_count": 5133,
            "uploader": "ZED Drama",
            "category": "english",
            "thumbnail": "https://i.ytimg.com/vi/jExGWFXuzpU/hq720.jpg"
        },
        {
            "id": "LihjWeh9xIs",
            "title": "Apocalypto part 2 Full Movie (2026) #apocalypse",
            "url": "https://www.youtube.com/watch?v=LihjWeh9xIs",
            "duration": 6452.0,
            "view_count": 53100,
            "uploader": "Luna Teris",
            "category": "english",
            "thumbnail": "https://i.ytimg.com/vi/LihjWeh9xIs/hqdefault.jpg"
        },
        {
            "id": "SsD-_oykv30",
            "title": "THE EXPAT Full Hollywood Action Movie | English Movie | Free Movies",
            "url": "https://www.youtube.com/watch?v=SsD-_oykv30",
            "duration": 5452.0,
            "view_count": 3573235,
            "uploader": "Majestic Movies",
            "category": "english",
            "thumbnail": "https://i.ytimg.com/vi/SsD-_oykv30/hq720.jpg"
        },
        {
            "id": "e4aZpA2x7cQ",
            "title": "🎬 A psychological thriller you can’t look away from! | THE PERCEPTION | English Full Movie",
            "url": "https://www.youtube.com/watch?v=e4aZpA2x7cQ",
            "duration": 4825.0,
            "view_count": 485597,
            "uploader": "MOVIETOWN media",
            "category": "english",
            "thumbnail": "https://i.ytimg.com/vi/e4aZpA2x7cQ/hq720.jpg"
        },
        {
            "id": "SoSkCAHxO0k",
            "title": "Danger Man : New Action Movie 2025 | Jason Statham | Full Movie | 4K Ultra #actionmovies",
            "url": "https://www.youtube.com/watch?v=SoSkCAHxO0k",
            "duration": 6824.0,
            "view_count": 291132,
            "uploader": " Red Moon Drama",
            "category": "english",
            "thumbnail": "https://i.ytimg.com/vi/SoSkCAHxO0k/hq720.jpg"
        },
        {
            "id": "bFWRHrjyTUA",
            "title": "🎬 A movie that keeps you on edge until the last second! | Bunker Project 12 | Full movie",
            "url": "https://www.youtube.com/watch?v=bFWRHrjyTUA",
            "duration": 5831.0,
            "view_count": 1087720,
            "uploader": "Red MovieLand",
            "category": "english",
            "thumbnail": "https://i.ytimg.com/vi/bFWRHrjyTUA/hq720.jpg"
        },
        {
            "id": "77iJTnmILrw",
            "title": "The millionaire’s daughter inherits a farm that will change her life | Full Drama Movie to Watch 🎥",
            "url": "https://www.youtube.com/watch?v=77iJTnmILrw",
            "duration": 5786.0,
            "view_count": 892843,
            "uploader": "Cinematic Vault",
            "category": "english",
            "thumbnail": "https://i.ytimg.com/vi/77iJTnmILrw/hq720.jpg"
        },
        {
            "id": "qBczncM0ntk",
            "title": "Beauty And The Billionaire (2022) | Full Movie | Sashleigha Hightower | Chris Reid",
            "url": "https://www.youtube.com/watch?v=qBczncM0ntk",
            "duration": 5603.0,
            "view_count": 20410439,
            "uploader": "SparkTV",
            "category": "english",
            "thumbnail": "https://i.ytimg.com/vi/qBczncM0ntk/hq720.jpg"
        },
        {
            "id": "cyW_aC8-qBc",
            "title": "The Hungry Ones | HORROR | Full Movie en English",
            "url": "https://www.youtube.com/watch?v=cyW_aC8-qBc",
            "duration": 4810.0,
            "view_count": 60268,
            "uploader": "Boxoffice | B Movies | Full Movies",
            "category": "english",
            "thumbnail": "https://i.ytimg.com/vi/cyW_aC8-qBc/hq720.jpg"
        },
        {
            "id": "BjRNW33mGZQ",
            "title": "DON’T TRUST THESE SISTERS | FULL MOVIE | HORROR",
            "url": "https://www.youtube.com/watch?v=BjRNW33mGZQ",
            "duration": 4838.0,
            "view_count": 1550,
            "uploader": "International Film Universe",
            "category": "english",
            "thumbnail": "https://i.ytimg.com/vi/BjRNW33mGZQ/hq720_custom_2.jpg"
        }
    ]
}