{
    "page": 8,
    "total_pages": 9,
    "total_items": 439,
    "items": [
        {
            "id": "tF7X3aGmDvs",
            "title": "Once Upon A Princess (2025) | Full Movie | Fantasy",
            "url": "https://www.youtube.com/watch?v=tF7X3aGmDvs",
            "duration": 4734.0,
            "view_count": 1234568,
            "uploader": "Indie Rights Movies For Free",
            "category": "english",
            "thumbnail": "https://i.ytimg.com/vi/tF7X3aGmDvs/hq720.jpg"
        },
        {
            "id": "i0iSe1m-iJ4",
            "title": "Full Action Movie | He escaped from prison and unleashed chaos in the city! | Crime, Thriller",
            "url": "https://www.youtube.com/watch?v=i0iSe1m-iJ4",
            "duration": 5872.0,
            "view_count": 115161,
            "uploader": "Movie union",
            "category": "english",
            "thumbnail": "https://i.ytimg.com/vi/i0iSe1m-iJ4/hq720.jpg"
        },
        {
            "id": "NW6zSV70u2E",
            "title": "Jurassic World: Rebirth 🎬 Premiere Film 2026 🍿 Full Action Film 🔥 New Hollywood Movie | Chris Pratt",
            "url": "https://www.youtube.com/watch?v=NW6zSV70u2E",
            "duration": 11360.0,
            "view_count": 47465,
            "uploader": "ENJOYFOG",
            "category": "english",
            "thumbnail": "https://i.ytimg.com/vi/NW6zSV70u2E/hq720.jpg"
        },
        {
            "id": "X6axPYBhDiI",
            "title": "Titanic II | HD | Action (2010) | Full movie in English",
            "url": "https://www.youtube.com/watch?v=X6axPYBhDiI",
            "duration": 5390.0,
            "view_count": 5912348,
            "uploader": "Film&Clips in English",
            "category": "english",
            "thumbnail": "https://i.ytimg.com/vi/X6axPYBhDiI/hq720.jpg"
        },
        {
            "id": "FenvCSTsyB8",
            "title": "AVATAR 3 Full Movie 2026: The Ash | Superhero FXL Action Sci Fi Movies 2026 in English (Game Movie)",
            "url": "https://www.youtube.com/watch?v=FenvCSTsyB8",
            "duration": 7264.0,
            "view_count": 5903826,
            "uploader": "Superhero FXL Games",
            "category": "english",
            "thumbnail": "https://i.ytimg.com/vi/FenvCSTsyB8/hq720.jpg"
        },
        {
            "id": "5rNObxnpR0o",
            "title": "A Teen Behind Bars | PRISON DRAMA | Full Movie in English 💎",
            "url": "https://www.youtube.com/watch?v=5rNObxnpR0o",
            "duration": 6145.0,
            "view_count": 923,
            "uploader": "Boxoffice | DRAMA | Full Movies",
            "category": "english",
            "thumbnail": "https://i.ytimg.com/vi/5rNObxnpR0o/hqdefault.jpg"
        },
        {
            "id": "5hrbrakke64",
            "title": "Warden of Revenge | ACTION | Full Movie in English",
            "url": "https://www.youtube.com/watch?v=5hrbrakke64",
            "duration": 5301.0,
            "view_count": 23502,
            "uploader": "Full Movies in English HD",
            "category": "english",
            "thumbnail": "https://i.ytimg.com/vi/5hrbrakke64/hq720.jpg"
        },
        {
            "id": "CmvbUiBQmo8",
            "title": "King of Chaos | COMEDY | Full Movie in English",
            "url": "https://www.youtube.com/watch?v=CmvbUiBQmo8",
            "duration": 5802.0,
            "view_count": 3286,
            "uploader": "Boxoffice | NEW Full Movies in English",
            "category": "english",
            "thumbnail": "https://i.ytimg.com/vi/CmvbUiBQmo8/hq720.jpg"
        },
        {
            "id": "zIQtxXSD1Ss",
            "title": "Life 2 🎬 Premiere Movie 2026 🍿 Full Action Movie HD 🔥 New Hollywood Movie | Jake Gyllenhaal",
            "url": "https://www.youtube.com/watch?v=zIQtxXSD1Ss",
            "duration": 11715.0,
            "view_count": 11949,
            "uploader": "ENJOYFOG",
            "category": "english",
            "thumbnail": "https://i.ytimg.com/vi/zIQtxXSD1Ss/hq720.jpg"
        },
        {
            "id": "PxfhHHoIZ54",
            "title": "Lone Hero FULL MOVIE | Action Movies | Lou Diamond Phillips | The Midnight Screening",
            "url": "https://www.youtube.com/watch?v=PxfhHHoIZ54",
            "duration": 5411.0,
            "view_count": 32635,
            "uploader": "The Midnight Screening",
            "category": "english",
            "thumbnail": "https://i.ytimg.com/vi/PxfhHHoIZ54/hq720.jpg"
        },
        {
            "id": "_7ZLkRRzf-Q",
            "title": "The Homeless Veteran | DRAMA | Full Movie in English",
            "url": "https://www.youtube.com/watch?v=_7ZLkRRzf-Q",
            "duration": 4907.0,
            "view_count": 10532,
            "uploader": "Boxoffice | DRAMA | Full Movies",
            "category": "english",
            "thumbnail": "https://i.ytimg.com/vi/_7ZLkRRzf-Q/hq720.jpg"
        },
        {
            "id": "x_NgFbJXvss",
            "title": "Lost Bullet Full Movie | Alban Lenoir, Stéfi Celma | Action Thriller HD",
            "url": "https://www.youtube.com/watch?v=x_NgFbJXvss",
            "duration": 5550.0,
            "view_count": 1285334,
            "uploader": "LuxeFlix Studios",
            "category": "english",
            "thumbnail": "https://i.ytimg.com/vi/x_NgFbJXvss/hq720.jpg"
        },
        {
            "id": "OlOYV6R-Vug",
            "title": "Ultimate Sniper Action 🔥 Action Shooter Full Movie English | War & Survival HD",
            "url": "https://www.youtube.com/watch?v=OlOYV6R-Vug",
            "duration": 7268.0,
            "view_count": 674,
            "uploader": "Movie Nation Global",
            "category": "english",
            "thumbnail": "https://i.ytimg.com/vi/OlOYV6R-Vug/hq720.jpg"
        },
        {
            "id": "1UGsnfI7BH4",
            "title": "Spider Man No Way Home(2026) Full Movie English Original | New Hollywood Movies | Marvel Full Movies",
            "url": "https://www.youtube.com/watch?v=1UGsnfI7BH4",
            "duration": 7525.0,
            "view_count": 1281,
            "uploader": "RR CHAMPION",
            "category": "english",
            "thumbnail": "https://i.ytimg.com/vi/1UGsnfI7BH4/hq720.jpg"
        },
        {
            "id": "9vypHNHf5Bk",
            "title": "🔥New 2026 Action Movie Full Movie English Hollywood Action Movies 2026",
            "url": "https://www.youtube.com/watch?v=9vypHNHf5Bk",
            "duration": 5572.0,
            "view_count": 264971,
            "uploader": "Apex Action",
            "category": "english",
            "thumbnail": "https://i.ytimg.com/vi/9vypHNHf5Bk/hq720.jpg"
        },
        {
            "id": "6lUQ37rceGw",
            "title": "Hybrid Uprising | SCIFI | Full Movie in English",
            "url": "https://www.youtube.com/watch?v=6lUQ37rceGw",
            "duration": 5824.0,
            "view_count": 206,
            "uploader": "Boxoffice | 4K Full Movies",
            "category": "english",
            "thumbnail": "https://i.ytimg.com/vi/6lUQ37rceGw/hq720.jpg"
        },
        {
            "id": "Wj975ViQUvE",
            "title": "Sox : A Familys Best Friend | FAMILY | Full Movie in English",
            "url": "https://www.youtube.com/watch?v=Wj975ViQUvE",
            "duration": 4976.0,
            "view_count": 75,
            "uploader": "Boxoffice | FAMILY | Full Movies",
            "category": "english",
            "thumbnail": "https://i.ytimg.com/vi/Wj975ViQUvE/hq720.jpg"
        },
        {
            "id": "ONU18iHVzwE",
            "title": "BASED on a TRUE EVENTS | A Story That Touches Every Heart | Full Movie [NEW] 2026",
            "url": "https://www.youtube.com/watch?v=ONU18iHVzwE",
            "duration": 5129.0,
            "view_count": 233607,
            "uploader": "The Dawn Movie",
            "category": "english",
            "thumbnail": "https://i.ytimg.com/vi/ONU18iHVzwE/hq720.jpg"
        },
        {
            "id": "mv4eZIuxsJM",
            "title": "Sick Friend | SCI-FI, HORROR | Full Movie en English",
            "url": "https://www.youtube.com/watch?v=mv4eZIuxsJM",
            "duration": 4753.0,
            "view_count": 3909,
            "uploader": "Boxoffice | B Movies | Full Movies",
            "category": "english",
            "thumbnail": "https://i.ytimg.com/vi/mv4eZIuxsJM/hq720.jpg"
        },
        {
            "id": "B-nP2zzX5s8",
            "title": "20 Days Later | SCIFI, HORROR | Full Movie in English",
            "url": "https://www.youtube.com/watch?v=B-nP2zzX5s8",
            "duration": 6290.0,
            "view_count": 13399,
            "uploader": "Boxoffice | SCI-FI | Full Movies",
            "category": "english",
            "thumbnail": "https://i.ytimg.com/vi/B-nP2zzX5s8/hq720.jpg"
        },
        {
            "id": "0Bx1fz7ho24",
            "title": "Your Heart Will Be Broken Full Movie | Veronika Zhuravleva | Daniel Vegas | HD Reviews & Facts ",
            "url": "https://www.youtube.com/watch?v=0Bx1fz7ho24",
            "duration": 7520.0,
            "view_count": 40420,
            "uploader": "The Cinema Rise",
            "category": "english",
            "thumbnail": "https://i.ytimg.com/vi/0Bx1fz7ho24/hq720.jpg"
        },
        {
            "id": "yP5ZS-s1Cmw",
            "title": "A Sunday Kind of Love | ROMANCE | Full Movie in English",
            "url": "https://www.youtube.com/watch?v=yP5ZS-s1Cmw",
            "duration": 5582.0,
            "view_count": 2281,
            "uploader": "Boxoffice | ROMANCE | Full Movies",
            "category": "english",
            "thumbnail": "https://i.ytimg.com/vi/yP5ZS-s1Cmw/hq720.jpg"
        },
        {
            "id": "CBc0TWZrNiw",
            "title": "THE JOGGER 🎬 Full Horror Movie 🎬 English HD",
            "url": "https://www.youtube.com/watch?v=CBc0TWZrNiw",
            "duration": 4042.0,
            "view_count": 11978,
            "uploader": "Watch Movies Now!",
            "category": "english",
            "thumbnail": "https://i.ytimg.com/vi/CBc0TWZrNiw/hq720.jpg"
        },
        {
            "id": "x2_7X0RSfYk",
            "title": "Fallen Empire (2026) Full English Movie | Rise of the Last Warrior | Epic Action Adventure Fantasy",
            "url": "https://www.youtube.com/watch?v=x2_7X0RSfYk",
            "duration": 8273.0,
            "view_count": 2028480,
            "uploader": "Ind Express ",
            "category": "english",
            "thumbnail": "https://i.ytimg.com/vi/x2_7X0RSfYk/hq720.jpg"
        },
        {
            "id": "Bl8rnbz6VE8",
            "title": "Final Prey | Tobin Bell (SAW) | HORROR | Full Movie in English",
            "url": "https://www.youtube.com/watch?v=Bl8rnbz6VE8",
            "duration": 5095.0,
            "view_count": 643,
            "uploader": "Boxoffice | HORROR | Full Movies",
            "category": "english",
            "thumbnail": "https://i.ytimg.com/vi/Bl8rnbz6VE8/hq720.jpg"
        },
        {
            "id": "lt1kl-8kZiU",
            "title": "THE HARD WAY : Angelina Jolie | New Action Movie 2026 | Full Movie 4K #actionmovies",
            "url": "https://www.youtube.com/watch?v=lt1kl-8kZiU",
            "duration": 6023.0,
            "view_count": 196847,
            "uploader": "Joy Drama",
            "category": "english",
            "thumbnail": "https://i.ytimg.com/vi/lt1kl-8kZiU/hq720.jpg"
        },
        {
            "id": "OkGBWbBoOSc",
            "title": "BASED ON TRUE STORY! She Smiled Through Tears While Living With Abuser! | Full Movie in English",
            "url": "https://www.youtube.com/watch?v=OkGBWbBoOSc",
            "duration": 5154.0,
            "view_count": 1650072,
            "uploader": "Epic Movie Chronicles",
            "category": "english",
            "thumbnail": "https://i.ytimg.com/vi/OkGBWbBoOSc/hq720.jpg"
        },
        {
            "id": "L6hsPKySYTo",
            "title": "SIREN'S TOMB The Cursed Temple Beneath the Sea | 2026 Full Movie | Dark Fantasy | Horror Thriller 4K",
            "url": "https://www.youtube.com/watch?v=L6hsPKySYTo",
            "duration": 3640.0,
            "view_count": 28530,
            "uploader": "Future Frame Movies",
            "category": "english",
            "thumbnail": "https://i.ytimg.com/vi/L6hsPKySYTo/hq720_custom_1.jpg"
        },
        {
            "id": "PVcMYRv38dI",
            "title": "CONCEALED | THRILLER | Full Movie in English",
            "url": "https://www.youtube.com/watch?v=PVcMYRv38dI",
            "duration": 5131.0,
            "view_count": 12396,
            "uploader": "Boxoffice | NEW Full Movies in English",
            "category": "english",
            "thumbnail": "https://i.ytimg.com/vi/PVcMYRv38dI/hq720.jpg"
        },
        {
            "id": "fky4KbKHCtY",
            "title": "🔥New 2026 Action Movie Full Movie English Hollywood Action Movies 2026",
            "url": "https://www.youtube.com/watch?v=fky4KbKHCtY",
            "duration": 5575.0,
            "view_count": 181339,
            "uploader": "Apex Action",
            "category": "english",
            "thumbnail": "https://i.ytimg.com/vi/fky4KbKHCtY/hq720.jpg"
        },
        {
            "id": "qwQN-xROdWo",
            "title": "Man of Vengeance | Eric Roberts (The Dark Knight) | THRILLER | Full Movie in English",
            "url": "https://www.youtube.com/watch?v=qwQN-xROdWo",
            "duration": 5418.0,
            "view_count": 6746,
            "uploader": "Boxoffice | TV Movies in English",
            "category": "english",
            "thumbnail": "https://i.ytimg.com/vi/qwQN-xROdWo/hq720.jpg"
        },
        {
            "id": "AnZQuZC6hps",
            "title": "Tears of the Sun (2026) | Bruce Willis × Monica Bellucci | Full Action Movie",
            "url": "https://www.youtube.com/watch?v=AnZQuZC6hps",
            "duration": 7111.0,
            "view_count": 1881556,
            "uploader": "Voltage Syndicate",
            "category": "english",
            "thumbnail": "https://i.ytimg.com/vi/AnZQuZC6hps/hq720.jpg"
        },
        {
            "id": "GDLmQ6UAYwA",
            "title": "PLANET OF THE BEASTS - Hollywood Action Adventure Movie | English Movie | Steve, Laura | Free Movies",
            "url": "https://www.youtube.com/watch?v=GDLmQ6UAYwA",
            "duration": 4906.0,
            "view_count": 491514,
            "uploader": "Majestic Movies",
            "category": "english",
            "thumbnail": "https://i.ytimg.com/vi/GDLmQ6UAYwA/hq720.jpg"
        },
        {
            "id": "iuUt3Ja9Dfc",
            "title": "THE LEGEND :: (2026) Donnie Yen | Full Action Movie - Thriller - Adventure | 4K HDR #actionmovies",
            "url": "https://www.youtube.com/watch?v=iuUt3Ja9Dfc",
            "duration": 6077.0,
            "view_count": 103046,
            "uploader": "ZED Drama",
            "category": "english",
            "thumbnail": "https://i.ytimg.com/vi/iuUt3Ja9Dfc/hq720.jpg"
        },
        {
            "id": "kLW5vHggXDs",
            "title": "JAGUAR : Angelina Jolie | New Action Movie 2026 | Full Movie 4K #actionmovies",
            "url": "https://www.youtube.com/watch?v=kLW5vHggXDs",
            "duration": 6023.0,
            "view_count": 415681,
            "uploader": "Joy Drama",
            "category": "english",
            "thumbnail": "https://i.ytimg.com/vi/kLW5vHggXDs/hq720.jpg"
        },
        {
            "id": "fYY5Y573W6k",
            "title": "🔥New 2026 Action Movie Full Movie English Hollywood Action Movies 2026",
            "url": "https://www.youtube.com/watch?v=fYY5Y573W6k",
            "duration": 6486.0,
            "view_count": 3279,
            "uploader": "Apex Action",
            "category": "english",
            "thumbnail": "https://i.ytimg.com/vi/fYY5Y573W6k/hq720.jpg"
        },
        {
            "id": "ZZCWbl4m6CU",
            "title": "A Match In Manhattan (2024) Full Movie | Romantic Comedy",
            "url": "https://www.youtube.com/watch?v=ZZCWbl4m6CU",
            "duration": 5365.0,
            "view_count": 416334,
            "uploader": "Movie Vault",
            "category": "english",
            "thumbnail": "https://i.ytimg.com/vi/ZZCWbl4m6CU/hq720.jpg"
        },
        {
            "id": "nT5HdJap26s",
            "title": "SHADOW FIGHT (2026) Jackie Chan | New Action Movie | 4K HDR #actionmovies",
            "url": "https://www.youtube.com/watch?v=nT5HdJap26s",
            "duration": 6700.0,
            "view_count": 14681,
            "uploader": "ZED Drama",
            "category": "english",
            "thumbnail": "https://i.ytimg.com/vi/nT5HdJap26s/hq720.jpg"
        },
        {
            "id": "1glT-58dMaY",
            "title": "BONES - New Action Movie 2026 | Jason Statham | Full Movie | 4K Ultra #actionmovies",
            "url": "https://www.youtube.com/watch?v=1glT-58dMaY",
            "duration": 4817.0,
            "view_count": 320224,
            "uploader": "Romántica Canción",
            "category": "english",
            "thumbnail": "https://i.ytimg.com/vi/1glT-58dMaY/hq720.jpg"
        },
        {
            "id": "dGH3Y2SLUSU",
            "title": "September 30, 1955 | English Full Movie | Drama",
            "url": "https://www.youtube.com/watch?v=dGH3Y2SLUSU",
            "duration": 5884.0,
            "view_count": 828,
            "uploader": "GEM: Film Library",
            "category": "english",
            "thumbnail": "https://i.ytimg.com/vi/dGH3Y2SLUSU/hq720.jpg"
        },
        {
            "id": "x4d6iyYrWZA",
            "title": "We highly recommend everyone watch this film! | Animation | Full Movie to Watch 🎬",
            "url": "https://www.youtube.com/watch?v=x4d6iyYrWZA",
            "duration": 6539.0,
            "view_count": 594047,
            "uploader": "Finetime media",
            "category": "english",
            "thumbnail": "https://i.ytimg.com/vi/x4d6iyYrWZA/hq720.jpg"
        },
        {
            "id": "0Sm7Xv6D4KU",
            "title": "Hollywood 2026 Latest Full Action Movie | Hollywood Blockbuster Action Thriller Trending Movie 2026",
            "url": "https://www.youtube.com/watch?v=0Sm7Xv6D4KU",
            "duration": 8392.0,
            "view_count": 411163,
            "uploader": " Roy Cinema and 3 more",
            "category": "english",
            "thumbnail": "https://i.ytimg.com/vi/0Sm7Xv6D4KU/hqdefault.jpg?sqp=-oaymwEcCOADEI4CSFXyq4qpAw4IARUAAIhCGAFwAcABBg==&rs=AOn4CLBeSbh059ob6lp5indfTFhtG0FsUg",
            "added_date": "2026-04-16T07:31:02.233561Z",
            "source": "youtube"
        },
        {
            "id": "RUhfTpUQ8eo",
            "title": "The Sharks Return to Finish | Best horror movie | Free full movies on youtube in English 4K",
            "url": "https://www.youtube.com/watch?v=RUhfTpUQ8eo",
            "duration": 4552.0,
            "view_count": 18557039,
            "uploader": "Deep Direct Dive",
            "category": "english",
            "thumbnail": "https://i.ytimg.com/vi/RUhfTpUQ8eo/hq720.jpg"
        },
        {
            "id": "BPQOf-aPa0A",
            "title": "The Choice That Changed His Life Forever - Born Again - Free Full Movies in English",
            "url": "https://www.youtube.com/watch?v=BPQOf-aPa0A",
            "duration": 6088.0,
            "view_count": 1927087,
            "uploader": "Lightright group",
            "category": "english",
            "thumbnail": "https://i.ytimg.com/vi/BPQOf-aPa0A/hq720.jpg"
        },
        {
            "id": "N1AoOMVEt00",
            "title": "TRANSPORTER 7 || New Released Jason Statham x Angelina Jolie Action Movie 2026 | English Movies HD",
            "url": "https://www.youtube.com/watch?v=N1AoOMVEt00",
            "duration": 5258.0,
            "view_count": 92216,
            "uploader": "CineVerse",
            "category": "english",
            "thumbnail": "https://i.ytimg.com/vi/N1AoOMVEt00/hq720.jpg"
        },
        {
            "id": "vEMId4GUEVQ",
            "title": "Beauty & the Billionaire: Bali | Full Movie | Charlotte Hemmings | Samuel Whitten",
            "url": "https://www.youtube.com/watch?v=vEMId4GUEVQ",
            "duration": 5386.0,
            "view_count": 13088099,
            "uploader": "SparkTV",
            "category": "english",
            "thumbnail": "https://i.ytimg.com/vi/vEMId4GUEVQ/hq720.jpg?sqp=-oaymwEcCNAFEJQDSFXyq4qpAw4IARUAAIhCGAFwAcABBg==&rs=AOn4CLCDyy1RiZIoazDZ3i_Mr_zD9qLeOQ",
            "added_date": "2026-04-16T07:31:02.634283Z",
            "source": "youtube"
        },
        {
            "id": "35VTbozkY-o",
            "title": "The Substitute | THRILLER | Full Movie",
            "url": "https://www.youtube.com/watch?v=35VTbozkY-o",
            "duration": 6646.0,
            "view_count": 4010649,
            "uploader": "Boxoffice | NEW Full Movies in English",
            "category": "english",
            "thumbnail": "https://i.ytimg.com/vi/35VTbozkY-o/hq720.jpg"
        },
        {
            "id": "xHgL6eEF_rU",
            "title": "Delusion Island | HORROR | Full Movie in English",
            "url": "https://www.youtube.com/watch?v=xHgL6eEF_rU",
            "duration": 4969.0,
            "view_count": 731,
            "uploader": "Boxoffice | HORROR | Full Movies",
            "category": "english",
            "thumbnail": "https://i.ytimg.com/vi/xHgL6eEF_rU/hq720.jpg"
        },
        {
            "id": "JIWARBvn8qU",
            "title": "Jason Statham Is THE OPERATOR - Fast Action Free English Movie | Hollywood Blockbuster English Movie",
            "url": "https://www.youtube.com/watch?v=JIWARBvn8qU",
            "duration": 4948.0,
            "view_count": 10530318,
            "uploader": "Hollywood Action",
            "category": "english",
            "thumbnail": "https://i.ytimg.com/vi/JIWARBvn8qU/hq720.jpg"
        },
        {
            "id": "_CoDAFSNeTc",
            "title": "Bangkok Dangerous | Nicolas Cage (Ghost Rider) | ACTION, THRILLER | Full Movie in English",
            "url": "https://www.youtube.com/watch?v=_CoDAFSNeTc",
            "duration": 5935.0,
            "view_count": 5127183,
            "uploader": "Boxoffice | NEW Full Movies in English",
            "category": "english",
            "thumbnail": "https://i.ytimg.com/vi/_CoDAFSNeTc/hq720.jpg"
        }
    ]
}