{
    "page": 5,
    "total_pages": 9,
    "total_items": 439,
    "items": [
        {
            "id": "ZtYHKQC4QbU",
            "title": "A MOVIE WORTH EVERY MINUTE OF YOUR TIME! Watch ADVENTURE Movies in English...",
            "url": "https://www.youtube.com/watch?v=ZtYHKQC4QbU",
            "duration": 5663.0,
            "view_count": 11261,
            "uploader": "MOOVIMIND",
            "category": "english",
            "thumbnail": "https://i.ytimg.com/vi/ZtYHKQC4QbU/hq720.jpg"
        },
        {
            "id": "-27-brznC68",
            "title": "For lovers of DANGER and Adventure, this movie is PERFECT! Action movies in English...",
            "url": "https://www.youtube.com/watch?v=-27-brznC68",
            "duration": 5678.0,
            "view_count": 26383,
            "uploader": "Cinematic pearls",
            "category": "english",
            "thumbnail": "https://i.ytimg.com/vi/-27-brznC68/hq720.jpg"
        },
        {
            "id": "lrMozVg5xY0",
            "title": "Seducing a Rebel | ACTION | Full Movie in English💎",
            "url": "https://www.youtube.com/watch?v=lrMozVg5xY0",
            "duration": 5874.0,
            "view_count": 2094726,
            "uploader": "Full Movies in English HD",
            "category": "english",
            "thumbnail": "https://i.ytimg.com/vi/lrMozVg5xY0/hq720.jpg"
        },
        {
            "id": "3TbJK2KLkRk",
            "title": "Danger Man : New Action Movie 2025 | Jason Statham | Full Movie | 4K Ultra #actionmovies",
            "url": "https://www.youtube.com/watch?v=3TbJK2KLkRk",
            "duration": 6824.0,
            "view_count": 39104,
            "uploader": " Red Moon Drama",
            "category": "english",
            "thumbnail": "https://i.ytimg.com/vi/3TbJK2KLkRk/hq720.jpg"
        },
        {
            "id": "pmeJZz6JtBU",
            "title": "Mirror of Death | HORROR | Full Movie in English",
            "url": "https://www.youtube.com/watch?v=pmeJZz6JtBU",
            "duration": 5869.0,
            "view_count": 35647,
            "uploader": "Boxoffice | HORROR | Full Movies",
            "category": "english",
            "thumbnail": "https://i.ytimg.com/vi/pmeJZz6JtBU/hq720.jpg"
        },
        {
            "id": "tarAjKWr094",
            "title": "Blood Bone -  New Action Movie 2025 -  Michael Jai White -  Full Movie -  4K Ultra #actionmovies",
            "url": "https://www.youtube.com/watch?v=tarAjKWr094",
            "duration": 5617.0,
            "view_count": 472654,
            "uploader": "Cinema TV ",
            "category": "english",
            "thumbnail": "https://i.ytimg.com/vi/tarAjKWr094/hq720.jpg"
        },
        {
            "id": "wccy827vBQ8",
            "title": "ACTION, CRIME MOVIE 🎬 He Witnessed the Heist. Now He’s Next 🎬 Full Movies in English",
            "url": "https://www.youtube.com/watch?v=wccy827vBQ8",
            "duration": 4694.0,
            "view_count": 5031,
            "uploader": "Movie Marathon",
            "category": "english",
            "thumbnail": "https://i.ytimg.com/vi/wccy827vBQ8/hq720.jpg"
        },
        {
            "id": "jBhRZ2KmaZ4",
            "title": "ROMEO AND JULIET GET MARRIED 🎬 Full Romance Drama Movie 🎬 English HD",
            "url": "https://www.youtube.com/watch?v=jBhRZ2KmaZ4",
            "duration": 6787.0,
            "view_count": 1798064,
            "uploader": "WATCH DRAMA MOVIES NOW",
            "category": "english",
            "thumbnail": "https://i.ytimg.com/vi/jBhRZ2KmaZ4/hq720.jpg"
        },
        {
            "id": "E6ZC4qkG4zk",
            "title": "Son of Bigfoot Animated Film | Watch the Full Movie for Free in English",
            "url": "https://www.youtube.com/watch?v=E6ZC4qkG4zk",
            "duration": 5516.0,
            "view_count": 1081517,
            "uploader": "Viva Kids Films",
            "category": "english",
            "thumbnail": "https://i.ytimg.com/vi/E6ZC4qkG4zk/hq720.jpg"
        },
        {
            "id": "4wBGOWHTwjY",
            "title": "SPECIAL AGENT - Jackie Chan Sci Fi Action Blockbuster English Full Movie | Hollywood English Movies",
            "url": "https://www.youtube.com/watch?v=4wBGOWHTwjY",
            "duration": 5952.0,
            "view_count": 10292921,
            "uploader": "Blockbuster English Movies",
            "category": "english",
            "thumbnail": "https://i.ytimg.com/vi/4wBGOWHTwjY/hq720.jpg"
        },
        {
            "id": "06TOsyG4HlM",
            "title": "Kabir Singh (2019) Full Movie UHD | Shahid Kapoor, Kiara Advani | Biggest Bollywood Blockbuster",
            "url": "https://www.youtube.com/watch?v=06TOsyG4HlM",
            "duration": 9629.0,
            "view_count": 16227,
            "uploader": "NH BOLLY FLIX",
            "category": "english",
            "thumbnail": "https://i.ytimg.com/vi/06TOsyG4HlM/hq720_custom_3.jpg"
        },
        {
            "id": "G-G51TQBHzE",
            "title": "LEGION: Dawn of Empire | 2026 Full Movie | English | Sci-Fi | Action | 4K",
            "url": "https://www.youtube.com/watch?v=G-G51TQBHzE",
            "duration": 3704.0,
            "view_count": 304770,
            "uploader": "Epic AI Films",
            "category": "english",
            "thumbnail": "https://i.ytimg.com/vi/G-G51TQBHzE/hq720.jpg"
        },
        {
            "id": "0ljC2kQto8c",
            "title": "URBAN VENGEANCE 🎬 Full Action Movie 🎬 English HD",
            "url": "https://www.youtube.com/watch?v=0ljC2kQto8c",
            "duration": 4392.0,
            "view_count": 1482,
            "uploader": "WATCH ACTION MOVIES NOW",
            "category": "english",
            "thumbnail": "https://i.ytimg.com/vi/0ljC2kQto8c/hq720.jpg"
        },
        {
            "id": "gTs_gedpGUs",
            "title": "Zootopia - Frostline | Full Fan Film",
            "url": "https://www.youtube.com/watch?v=gTs_gedpGUs",
            "duration": 4796.0,
            "view_count": 3493726,
            "uploader": "TwosAnimations",
            "category": "english",
            "thumbnail": "https://i.ytimg.com/vi/gTs_gedpGUs/hq720.jpg"
        },
        {
            "id": "oP4yguMj8dY",
            "title": "Mission Into Fire | ACTION | Full Movie in English",
            "url": "https://www.youtube.com/watch?v=oP4yguMj8dY",
            "duration": 5293.0,
            "view_count": 16060,
            "uploader": "Boxoffice | 4K Full Movies",
            "category": "english",
            "thumbnail": "https://i.ytimg.com/vi/oP4yguMj8dY/hq720.jpg"
        },
        {
            "id": "KtqQtYSIJWE",
            "title": "MISSION HONG KONG - Jackie Chan English Movie | Hollywood Action Comedy Full Movie In English HD",
            "url": "https://www.youtube.com/watch?v=KtqQtYSIJWE",
            "duration": 6032.0,
            "view_count": 5995411,
            "uploader": "Hollywood English Collection",
            "category": "english",
            "thumbnail": "https://i.ytimg.com/vi/KtqQtYSIJWE/hq720.jpg"
        },
        {
            "id": "BkZNkdbVcN8",
            "title": "MEG: ABYSSAL THREAT | Full Movie 2026 | Action | English | 4K #movie #film",
            "url": "https://www.youtube.com/watch?v=BkZNkdbVcN8",
            "duration": 3899.0,
            "view_count": 6253,
            "uploader": "Entertainment Paradise",
            "category": "english",
            "thumbnail": "https://i.ytimg.com/vi/BkZNkdbVcN8/hq720.jpg"
        },
        {
            "id": "Oa0amTG0Jtc",
            "title": "SIMON SAYS 1 🎬 Full Horror Movie 🎬 English HD",
            "url": "https://www.youtube.com/watch?v=Oa0amTG0Jtc",
            "duration": 5289.0,
            "view_count": 44983,
            "uploader": "Watch Movies Now!",
            "category": "english",
            "thumbnail": "https://i.ytimg.com/vi/Oa0amTG0Jtc/hq720.jpg"
        },
        {
            "id": "lj_CJeio31k",
            "title": "Ian McKellen: Priest of Love (1981) FULL MOVIE | The D.H. Lawrence Story",
            "url": "https://www.youtube.com/watch?v=lj_CJeio31k",
            "duration": 5930.0,
            "view_count": 34547,
            "uploader": "Cult Cinema Classics",
            "category": "english",
            "thumbnail": "https://i.ytimg.com/vi/lj_CJeio31k/hq720.jpg"
        },
        {
            "id": "0MggR19t9pA",
            "title": "They Kidnapped the Wrong Girl… and Started a War | Hollywood action movie",
            "url": "https://www.youtube.com/watch?v=0MggR19t9pA",
            "duration": 4727.0,
            "view_count": 487705,
            "uploader": "ActionVault",
            "category": "english",
            "thumbnail": "https://i.ytimg.com/vi/0MggR19t9pA/hq720.jpg"
        },
        {
            "id": "4wihbYopspQ",
            "title": "Pursued (2025) | Full Movie | Thriller | Horror | Madison Lawlor | Sam Trammell | Molly Ringwald",
            "url": "https://www.youtube.com/watch?v=4wihbYopspQ",
            "duration": 6365.0,
            "view_count": 141384,
            "uploader": "Indie Rights Movies For Free",
            "category": "english",
            "thumbnail": "https://i.ytimg.com/vi/4wihbYopspQ/hq720.jpg"
        },
        {
            "id": "2wNamDcUx0U",
            "title": "HARD TARGET : Angelina Jolie | New Action Movie 2026 | Full Movie 4K #actionmovies",
            "url": "https://www.youtube.com/watch?v=2wNamDcUx0U",
            "duration": 5709.0,
            "view_count": 1448,
            "uploader": "Joy Drama",
            "category": "english",
            "thumbnail": "https://i.ytimg.com/vi/2wNamDcUx0U/hq720.jpg"
        },
        {
            "id": "yhzXaf9KWvw",
            "title": "A movie so POWERFUL you'll regret missing it! Watch Action Movies in English...",
            "url": "https://www.youtube.com/watch?v=yhzXaf9KWvw",
            "duration": 4554.0,
            "view_count": 50823,
            "uploader": "MOVRION",
            "category": "english",
            "thumbnail": "https://i.ytimg.com/vi/yhzXaf9KWvw/hq720.jpg"
        },
        {
            "id": "evcu3e3wAeM",
            "title": "Dead Body | Full Horror Movie in English",
            "url": "https://www.youtube.com/watch?v=evcu3e3wAeM",
            "duration": 4788.0,
            "view_count": 11132,
            "uploader": "V Horror",
            "category": "english",
            "thumbnail": "https://i.ytimg.com/vi/evcu3e3wAeM/hq720.jpg"
        },
        {
            "id": "qxfyJ62yP1A",
            "title": "ROSE'S LAST SESSION 🎬 Full Horror Movie 🎬 English HD",
            "url": "https://www.youtube.com/watch?v=qxfyJ62yP1A",
            "duration": 3959.0,
            "view_count": 6952,
            "uploader": "Watch Movies Now!",
            "category": "english",
            "thumbnail": "https://i.ytimg.com/vi/qxfyJ62yP1A/hq720.jpg"
        },
        {
            "id": "vmMnN93GTEw",
            "title": "Together Forever Tea | Romantic Love Story | Full Movie",
            "url": "https://www.youtube.com/watch?v=vmMnN93GTEw",
            "duration": 5367.0,
            "view_count": 38388,
            "uploader": "First Comes Love",
            "category": "english",
            "thumbnail": "https://i.ytimg.com/vi/vmMnN93GTEw/hq720.jpg"
        },
        {
            "id": "L6FBrfgdo9Y",
            "title": "A Remote Tower Deep in the Forest Hides Something Terrifying | THRILLER | Free English Movies in 4K",
            "url": "https://www.youtube.com/watch?v=L6FBrfgdo9Y",
            "duration": 4795.0,
            "view_count": 494792,
            "uploader": "MovieThreeX",
            "category": "english",
            "thumbnail": "https://i.ytimg.com/vi/L6FBrfgdo9Y/hq720.jpg"
        },
        {
            "id": "93861G-57DA",
            "title": "A Fire Friendship | Paul Hogan (Crocodile Dundee) | COMEDY | Full Movie in English",
            "url": "https://www.youtube.com/watch?v=93861G-57DA",
            "duration": 5975.0,
            "view_count": 2707,
            "uploader": "Full Movies in English HD",
            "category": "english",
            "thumbnail": "https://i.ytimg.com/vi/93861G-57DA/hq720.jpg"
        },
        {
            "id": "joetso9OIVA",
            "title": "She’s Not Human… She’s Something Evil | Full Horror Movie",
            "url": "https://www.youtube.com/watch?v=joetso9OIVA",
            "duration": 5316.0,
            "view_count": 16011,
            "uploader": "FilmIsNow Horror Movies",
            "category": "english",
            "thumbnail": "https://i.ytimg.com/vi/joetso9OIVA/hq720.jpg"
        },
        {
            "id": "KdtB0AjSFZk",
            "title": "Mission Retribution | ACTION | Full Movie in English",
            "url": "https://www.youtube.com/watch?v=KdtB0AjSFZk",
            "duration": 5617.0,
            "view_count": 14060,
            "uploader": "Boxoffice | ACTION | Full Movies",
            "category": "english",
            "thumbnail": "https://i.ytimg.com/vi/KdtB0AjSFZk/hq720.jpg"
        },
        {
            "id": "1e3nKEwTDQs",
            "title": "Prom Rivalry | TEEN | Full Movie in English💎",
            "url": "https://www.youtube.com/watch?v=1e3nKEwTDQs",
            "duration": 5527.0,
            "view_count": 1022,
            "uploader": "Boxoffice | TEENS | Full Movies",
            "category": "english",
            "thumbnail": "https://i.ytimg.com/vi/1e3nKEwTDQs/hq720.jpg"
        },
        {
            "id": "YL91DnkyLFg",
            "title": "IRRESISTIBLE | ROMANCE | Full Movie in English",
            "url": "https://www.youtube.com/watch?v=YL91DnkyLFg",
            "duration": 4965.0,
            "view_count": 1396,
            "uploader": "Boxoffice | ROMANCE | Full Movies",
            "category": "english",
            "thumbnail": "https://i.ytimg.com/vi/YL91DnkyLFg/hq720.jpg"
        },
        {
            "id": "JC6lMRhUsJw",
            "title": "ONE WRONG STEP | A Soldier Standing on a Landmine – Survival | 2026 Full Movie | Action | English",
            "url": "https://www.youtube.com/watch?v=JC6lMRhUsJw",
            "duration": 3685.0,
            "view_count": 139046,
            "uploader": "AI Trailer Cinema",
            "category": "english",
            "thumbnail": "https://i.ytimg.com/vi/JC6lMRhUsJw/hq720.jpg"
        },
        {
            "id": "ECem3yo7Ocw",
            "title": "Life is a Battle | ROMANCE, DRAMA | Full Movie in English",
            "url": "https://www.youtube.com/watch?v=ECem3yo7Ocw",
            "duration": 6676.0,
            "view_count": 868,
            "uploader": "MyMovies",
            "category": "english",
            "thumbnail": "https://i.ytimg.com/vi/ECem3yo7Ocw/hq720.jpg"
        },
        {
            "id": "DR_xQd-rWM4",
            "title": "IMMORTAL MAN (2026) Donnie Yen | Full Action Movie - Thriller - Adventure | 4K HDR #actionmovies",
            "url": "https://www.youtube.com/watch?v=DR_xQd-rWM4",
            "duration": 6023.0,
            "view_count": 4362,
            "uploader": "ZED Drama",
            "category": "english",
            "thumbnail": "https://i.ytimg.com/vi/DR_xQd-rWM4/hq720.jpg"
        },
        {
            "id": "3KQ-Q0P03KU",
            "title": "Wind Runner | Full Movie HD",
            "url": "https://www.youtube.com/watch?v=3KQ-Q0P03KU",
            "duration": 5837.0,
            "view_count": 123344,
            "uploader": "Exploration Films",
            "category": "english",
            "thumbnail": "https://i.ytimg.com/vi/3KQ-Q0P03KU/hq720.jpg"
        },
        {
            "id": "6-BRgA0pt90",
            "title": "BLACK LAKE (2026) Vin Diesel, Scarlett Johansson | Action Movie | 4K #actionmovies",
            "url": "https://www.youtube.com/watch?v=6-BRgA0pt90",
            "duration": 6023.0,
            "view_count": 2879294,
            "uploader": "ZED Drama",
            "category": "english",
            "thumbnail": "https://i.ytimg.com/vi/6-BRgA0pt90/hq720.jpg"
        },
        {
            "id": "f3ffbw8mOK8",
            "title": "Run for Him | English Full Movie",
            "url": "https://www.youtube.com/watch?v=f3ffbw8mOK8",
            "duration": 5022.0,
            "view_count": 946,
            "uploader": "Cinematic Euphoria",
            "category": "english",
            "thumbnail": "https://i.ytimg.com/vi/f3ffbw8mOK8/hq720.jpg"
        },
        {
            "id": "qND3s6OoRzY",
            "title": "Summer Camp Massacre | Full Horror Movie in English",
            "url": "https://www.youtube.com/watch?v=qND3s6OoRzY",
            "duration": 4486.0,
            "view_count": 2572,
            "uploader": "V Horror",
            "category": "english",
            "thumbnail": "https://i.ytimg.com/vi/qND3s6OoRzY/hq720.jpg"
        },
        {
            "id": "s487IXwshkA",
            "title": "👉 One of the Most Violent Zombie Action Movies 🧟‍♂️ Transit 17 | Sci-Fi Horror Movie",
            "url": "https://www.youtube.com/watch?v=s487IXwshkA",
            "duration": 5110.0,
            "view_count": 87240,
            "uploader": "FILMOHOUSE",
            "category": "english",
            "thumbnail": "https://i.ytimg.com/vi/s487IXwshkA/hq720.jpg"
        },
        {
            "id": "qhS1R1tzdAA",
            "title": "THE BEAST (2026) Scott Adkins | NEW ACTION MOVIE #actionmovies 4K QUALITY",
            "url": "https://www.youtube.com/watch?v=qhS1R1tzdAA",
            "duration": 5139.0,
            "view_count": 200113,
            "uploader": "X Drama",
            "category": "english",
            "thumbnail": "https://i.ytimg.com/vi/qhS1R1tzdAA/hq720.jpg"
        },
        {
            "id": "ULiW1WRLRMM",
            "title": "This MOVIE Is Worth Watching Twice!  She Started a Secret Investigation Against Her Own Husband",
            "url": "https://www.youtube.com/watch?v=ULiW1WRLRMM",
            "duration": 5955.0,
            "view_count": 4041705,
            "uploader": "Pink Rhino",
            "category": "english",
            "thumbnail": "https://i.ytimg.com/vi/ULiW1WRLRMM/hq720.jpg"
        },
        {
            "id": "xPIilXBP3qg",
            "title": "BOAT BUILDER 🎬 Full Sci-Fi Movie 🎬 English HD",
            "url": "https://www.youtube.com/watch?v=xPIilXBP3qg",
            "duration": 5328.0,
            "view_count": 4659,
            "uploader": "ZENTHARI - THE SCI-FI MOVIE CHANNEL",
            "category": "english",
            "thumbnail": "https://i.ytimg.com/vi/xPIilXBP3qg/hq720.jpg"
        },
        {
            "id": "KYcH63a6M6o",
            "title": "【HD FULL】💔She Escaped a Billionaire Wedding and Marries a Stranger… Until Love Found Her#engsub#full",
            "url": "https://www.youtube.com/watch?v=KYcH63a6M6o",
            "duration": 3660.0,
            "view_count": 1056223,
            "uploader": "DreamcoreDrama",
            "category": "english",
            "thumbnail": "https://i.ytimg.com/vi/KYcH63a6M6o/hq720.jpg"
        },
        {
            "id": "jajptePnnw4",
            "title": "Remission Days | DRAMA | Full Movie in English",
            "url": "https://www.youtube.com/watch?v=jajptePnnw4",
            "duration": 5223.0,
            "view_count": 878,
            "uploader": "Boxoffice | DRAMA | Full Movies",
            "category": "english",
            "thumbnail": "https://i.ytimg.com/vi/jajptePnnw4/hq720.jpg"
        },
        {
            "id": "hcoToW0tdlY",
            "title": "JUNGLE CAGE (2025) | Jason Statham × Scott Adkins × Tony Jaa | Full Action Movie",
            "url": "https://www.youtube.com/watch?v=hcoToW0tdlY",
            "duration": 5103.0,
            "view_count": 9987046,
            "uploader": "5 stars Entertainment",
            "category": "english",
            "thumbnail": "https://i.ytimg.com/vi/hcoToW0tdlY/hq720.jpg"
        },
        {
            "id": "o0Tx6-eVYmo",
            "title": "JUNGLE CAGE (2025) | Jason Statham × Scott Adkins × Tony Jaa | Full Action Movie",
            "url": "https://www.youtube.com/watch?v=o0Tx6-eVYmo",
            "duration": 5103.0,
            "view_count": 628407,
            "uploader": "5 stars Entertainment",
            "category": "english",
            "thumbnail": "https://i.ytimg.com/vi/o0Tx6-eVYmo/hq720.jpg"
        },
        {
            "id": "z0ZZOVXn4Mw",
            "title": "Jackie Chan In SUPER GUARD - Hollywood Free English Movie | Superhit Full Action Thriller Movie HD",
            "url": "https://www.youtube.com/watch?v=z0ZZOVXn4Mw",
            "duration": 6059.0,
            "view_count": 4769231,
            "uploader": "Blockbuster English Movies",
            "category": "english",
            "thumbnail": "https://i.ytimg.com/vi/z0ZZOVXn4Mw/hq720.jpg"
        },
        {
            "id": "sO19JjK4qWs",
            "title": "The Cheater Wife | DRAMA | Full Movie in English",
            "url": "https://www.youtube.com/watch?v=sO19JjK4qWs",
            "duration": 5699.0,
            "view_count": 88597,
            "uploader": "Boxoffice | TV Movies in English",
            "category": "english",
            "thumbnail": "https://i.ytimg.com/vi/sO19JjK4qWs/hq720.jpg"
        },
        {
            "id": "Kfhz4BQn2EE",
            "title": "This MOVIE Is So Captivating That You'll Want To Watch It Again! / Full Thriller in English",
            "url": "https://www.youtube.com/watch?v=Kfhz4BQn2EE",
            "duration": 5371.0,
            "view_count": 70189,
            "uploader": "PlayFlicks",
            "category": "english",
            "thumbnail": "https://i.ytimg.com/vi/Kfhz4BQn2EE/hq720.jpg"
        }
    ]
}