{
    "page": 3,
    "total_pages": 9,
    "total_items": 439,
    "items": [
        {
            "id": "s2od7VuasiE",
            "title": "Dangerous Dogs (2026) Donnie Yen | Full Action Movie - Thriller - Adventure | 4K HDR #actionmovies",
            "url": "https://www.youtube.com/watch?v=s2od7VuasiE",
            "duration": 5545.0,
            "view_count": 149112,
            "uploader": "ZED Drama",
            "category": "english",
            "thumbnail": "https://i.ytimg.com/vi/s2od7VuasiE/hq720.jpg"
        },
        {
            "id": "TMHklEuXAaI",
            "title": "NO DEAL! (2026) Vin Diesel, Scarlett Johansson | Action Movie | 4K #actionmovies",
            "url": "https://www.youtube.com/watch?v=TMHklEuXAaI",
            "duration": 5709.0,
            "view_count": 10414,
            "uploader": "ZED Drama",
            "category": "english",
            "thumbnail": "https://i.ytimg.com/vi/TMHklEuXAaI/hq720.jpg"
        },
        {
            "id": "Vm4NI_6mo80",
            "title": "WAR MACHINE (2026) Full movie English | Movie Alan Ritchson, Built Different | Facts & Reviews Movie",
            "url": "https://www.youtube.com/watch?v=Vm4NI_6mo80",
            "duration": 6878.0,
            "view_count": 67874,
            "uploader": "MB MISTERI ",
            "category": "english",
            "thumbnail": "https://i.ytimg.com/vi/Vm4NI_6mo80/hqdefault.jpg"
        },
        {
            "id": "phA0SuowcW4",
            "title": "The Last Witch of Salem Returns for Blood | Full Horror Movie",
            "url": "https://www.youtube.com/watch?v=phA0SuowcW4",
            "duration": 5542.0,
            "view_count": 33606,
            "uploader": "Horror Central",
            "category": "english",
            "thumbnail": "https://i.ytimg.com/vi/phA0SuowcW4/hq720.jpg"
        },
        {
            "id": "XEqTsYzxlnk",
            "title": "Sniper Women || Best Hollywood Action Adventures Movie in English ll",
            "url": "https://www.youtube.com/watch?v=XEqTsYzxlnk",
            "duration": 5431.0,
            "view_count": 3307966,
            "uploader": "Collection Studio",
            "category": "english",
            "thumbnail": "https://i.ytimg.com/vi/XEqTsYzxlnk/hq720.jpg"
        },
        {
            "id": "JnQ9EEshnZA",
            "title": "Final Descent (2026) | Jason Statham Action Thriller | Full Movie in 4K Ultra HD",
            "url": "https://www.youtube.com/watch?v=JnQ9EEshnZA",
            "duration": 4914.0,
            "view_count": 1573420,
            "uploader": "Helen Official",
            "category": "english",
            "thumbnail": "https://i.ytimg.com/vi/JnQ9EEshnZA/hq720.jpg"
        },
        {
            "id": "tT6pL-kzuVc",
            "title": "Powerful movie based on a True Story! | Crime, Thriller | Full Movies",
            "url": "https://www.youtube.com/watch?v=tT6pL-kzuVc",
            "duration": 4639.0,
            "view_count": 959401,
            "uploader": "Filmaxia",
            "category": "english",
            "thumbnail": "https://i.ytimg.com/vi/tT6pL-kzuVc/hq720.jpg"
        },
        {
            "id": "bpXCyAy08jo",
            "title": "THE TRACER - 2 | New Action Movie 2026 | Dwayne Johnson & Tom Cruise | Full Movie | 4K #actionmovies",
            "url": "https://www.youtube.com/watch?v=bpXCyAy08jo",
            "duration": 5643.0,
            "view_count": 45661,
            "uploader": "Legend Shadows",
            "category": "english",
            "thumbnail": "https://i.ytimg.com/vi/bpXCyAy08jo/hq720.jpg"
        },
        {
            "id": "qbd1Ax5vbi8",
            "title": "💥 THE  Sci-Fi MOVIE TO ENJOY TODAY! 💥Watch Sci-Fi Movies in English | 4K",
            "url": "https://www.youtube.com/watch?v=qbd1Ax5vbi8",
            "duration": 6925.0,
            "view_count": 232889,
            "uploader": "MOVRION",
            "category": "english",
            "thumbnail": "https://i.ytimg.com/vi/qbd1Ax5vbi8/hq720.jpg"
        },
        {
            "id": "Na-69pJAfWo",
            "title": "HARD TARGET : Angelina Jolie | New Action Movie 2026 | Full Movie 4K #actionmovies",
            "url": "https://www.youtube.com/watch?v=Na-69pJAfWo",
            "duration": 5400.0,
            "view_count": 1207847,
            "uploader": "Joy Drama",
            "category": "english",
            "thumbnail": "https://i.ytimg.com/vi/Na-69pJAfWo/hq720.jpg"
        },
        {
            "id": "0JW_cW_ZtC4",
            "title": "Most dangerous criminals contained in this secret prison | Sci-fi Action Thriller | Full Movie",
            "url": "https://www.youtube.com/watch?v=0JW_cW_ZtC4",
            "duration": 5180.0,
            "view_count": 508485,
            "uploader": "NeoMovies Cinema",
            "category": "english",
            "thumbnail": "https://i.ytimg.com/vi/0JW_cW_ZtC4/hqdefault.jpg"
        },
        {
            "id": "thoGWMmw7Fk",
            "title": "TRUST NO ONE 🎬  Full Thriller Movie 🎬 English HD",
            "url": "https://www.youtube.com/watch?v=thoGWMmw7Fk",
            "duration": 5347.0,
            "view_count": 3175048,
            "uploader": "FullFlicks Central",
            "category": "english",
            "thumbnail": "https://i.ytimg.com/vi/thoGWMmw7Fk/hq720.jpg"
        },
        {
            "id": "2GUDxhDKlKw",
            "title": "Genius (2016) | Full Movie | Colin Firth, Jude Law, Nicole Kidman, Laura Linney, Guy Pearce",
            "url": "https://www.youtube.com/watch?v=2GUDxhDKlKw",
            "duration": 6230.0,
            "view_count": 331096,
            "uploader": "Lionsgate Movies",
            "category": "english",
            "thumbnail": "https://i.ytimg.com/vi/2GUDxhDKlKw/hq720.jpg"
        },
        {
            "id": "YlzDcLWJj-Q",
            "title": "The Last Witness | English Full Movie | Crime Drama History",
            "url": "https://www.youtube.com/watch?v=YlzDcLWJj-Q",
            "duration": 5252.0,
            "view_count": 143175,
            "uploader": "TrueVision Cinema",
            "category": "english",
            "thumbnail": "https://i.ytimg.com/vi/YlzDcLWJj-Q/hq720.jpg"
        },
        {
            "id": "1Ax4Zr0a_Cs",
            "title": "Ransom of the Heart | ACTION, TV MOVIE | Full Movie in English",
            "url": "https://www.youtube.com/watch?v=1Ax4Zr0a_Cs",
            "duration": 5667.0,
            "view_count": 393,
            "uploader": "Boxoffice | TV Movies in English",
            "category": "english",
            "thumbnail": "https://i.ytimg.com/vi/1Ax4Zr0a_Cs/hq720.jpg"
        },
        {
            "id": "isMhGcLAvfQ",
            "title": "Action Sci Fi Movies 2024-The Martian 2015 Full Movie HD -Best Matt Damon Action Movies Full English",
            "url": "https://www.youtube.com/watch?v=isMhGcLAvfQ",
            "duration": 8494.0,
            "view_count": 2271598,
            "uploader": "IMAWinner9196",
            "category": "english",
            "thumbnail": "https://i.ytimg.com/vi/isMhGcLAvfQ/hq720.jpg"
        },
        {
            "id": "Acnc-zFgpHA",
            "title": "THE DEAD WALL : Angelina Jolie | New Action Movie 2026 | Full Movie 4K #actionmovies",
            "url": "https://www.youtube.com/watch?v=Acnc-zFgpHA",
            "duration": 5545.0,
            "view_count": 214772,
            "uploader": "Joy Drama",
            "category": "english",
            "thumbnail": "https://i.ytimg.com/vi/Acnc-zFgpHA/hq720.jpg"
        },
        {
            "id": "vflGKEFG5zw",
            "title": "In The Army Now | English Full Movie | Comedy War",
            "url": "https://www.youtube.com/watch?v=vflGKEFG5zw",
            "duration": 5262.0,
            "view_count": 283485,
            "uploader": "Mirage Vision",
            "category": "english",
            "thumbnail": "https://i.ytimg.com/vi/vflGKEFG5zw/hq720.jpg"
        },
        {
            "id": "1LRKWIOJHDs",
            "title": "RATATOUILLE ENGLISH FULL MOVIE (the movie of the game with Remy the Master Chef Rat)",
            "url": "https://www.youtube.com/watch?v=1LRKWIOJHDs",
            "duration": 6781.0,
            "view_count": 26816351,
            "uploader": "Only McQueen",
            "category": "english",
            "thumbnail": "https://i.ytimg.com/vi/1LRKWIOJHDs/hq720.jpg"
        },
        {
            "id": "vbMdrYgvWCw",
            "title": "🔥A MOVIE WORTH EVERY MINUTE OF YOUR TIME! Thrilling Adventure Action | Watch Online Today",
            "url": "https://www.youtube.com/watch?v=vbMdrYgvWCw",
            "duration": 5590.0,
            "view_count": 392430,
            "uploader": "7 Movie",
            "category": "english",
            "thumbnail": "https://i.ytimg.com/vi/vbMdrYgvWCw/hq720.jpg"
        },
        {
            "id": "O7oBvGS8wj0",
            "title": "BLACK TUNNEL: Soldier Trapped Underground | Survival Action Full Movie 2026 | English",
            "url": "https://www.youtube.com/watch?v=O7oBvGS8wj0",
            "duration": 3759.0,
            "view_count": 32783,
            "uploader": "AI Trailer Cinema",
            "category": "english",
            "thumbnail": "https://i.ytimg.com/vi/O7oBvGS8wj0/hq720_custom_2.jpg"
        },
        {
            "id": "vuHkig0AslQ",
            "title": "ACTION CRIME | Gangs Are After Him for Filming a Murder | Full Movie in English, 4K",
            "url": "https://www.youtube.com/watch?v=vuHkig0AslQ",
            "duration": 4403.0,
            "view_count": 15305,
            "uploader": "Golden Lens",
            "category": "english",
            "thumbnail": "https://i.ytimg.com/vi/vuHkig0AslQ/hq720.jpg"
        },
        {
            "id": "HDeTXkaLU9U",
            "title": "Don’t Miss This Haunted Childhood Nightmare | Full Movie",
            "url": "https://www.youtube.com/watch?v=HDeTXkaLU9U",
            "duration": 5407.0,
            "view_count": 4575,
            "uploader": "FilmIsNow Horror Movies",
            "category": "english",
            "thumbnail": "https://i.ytimg.com/vi/HDeTXkaLU9U/hq720.jpg"
        },
        {
            "id": "g2LB2CsxrGo",
            "title": "Mother of Death | HORROR | Full Movie in English",
            "url": "https://www.youtube.com/watch?v=g2LB2CsxrGo",
            "duration": 4619.0,
            "view_count": 67123,
            "uploader": "Boxoffice | NEW Full Movies in English",
            "category": "english",
            "thumbnail": "https://i.ytimg.com/vi/g2LB2CsxrGo/hq720.jpg"
        },
        {
            "id": "KJYLXDD7UwM",
            "title": "TRAIN HUNT (2026) | Jason Statham & Iko Uwais | Full Action Movie",
            "url": "https://www.youtube.com/watch?v=KJYLXDD7UwM",
            "duration": 5093.0,
            "view_count": 61787,
            "uploader": "5 stars Entertainment",
            "category": "english",
            "thumbnail": "https://i.ytimg.com/vi/KJYLXDD7UwM/hq720.jpg"
        },
        {
            "id": "mge-NQSX9Wk",
            "title": "Baby Bedlam FULL MOVIE | Family Movies | Joe Piscopo & Julie Hagerty | Girls Night In Movies",
            "url": "https://www.youtube.com/watch?v=mge-NQSX9Wk",
            "duration": 4972.0,
            "view_count": 248052,
            "uploader": "Girls Night In ",
            "category": "english",
            "thumbnail": "https://i.ytimg.com/vi/mge-NQSX9Wk/hq720.jpg"
        },
        {
            "id": "DQQFYGS-S8s",
            "title": "The Wrong Guy | English Full Movie | Comedy Thriller",
            "url": "https://www.youtube.com/watch?v=DQQFYGS-S8s",
            "duration": 5203.0,
            "view_count": 336272,
            "uploader": "Frame by Frame",
            "category": "english",
            "thumbnail": "https://i.ytimg.com/vi/DQQFYGS-S8s/hq720.jpg"
        },
        {
            "id": "L0st0a7WcFg",
            "title": "Repo Chick | English Full Movie | Comedy Crime",
            "url": "https://www.youtube.com/watch?v=L0st0a7WcFg",
            "duration": 4933.0,
            "view_count": 5624,
            "uploader": "GEM: Film Library",
            "category": "english",
            "thumbnail": "https://i.ytimg.com/vi/L0st0a7WcFg/hq720.jpg"
        },
        {
            "id": "_Am_hsi9hvQ",
            "title": "The Man in the Hat | English Full Movie | Comedy Drama",
            "url": "https://www.youtube.com/watch?v=_Am_hsi9hvQ",
            "duration": 5314.0,
            "view_count": 12426,
            "uploader": "GEM: Film Library",
            "category": "english",
            "thumbnail": "https://i.ytimg.com/vi/_Am_hsi9hvQ/hq720.jpg"
        },
        {
            "id": "PMeHdc25BGE",
            "title": "Lost in Love | Full Romance Movie | Sara Fletcher | Nick Ferry",
            "url": "https://www.youtube.com/watch?v=PMeHdc25BGE",
            "duration": 5207.0,
            "view_count": 19859235,
            "uploader": "SparkTV",
            "category": "english",
            "thumbnail": "https://i.ytimg.com/vi/PMeHdc25BGE/hq720.jpg"
        },
        {
            "id": "HvzGbG2wRGo",
            "title": "Single and Ready to Mingle | ROMANCE | Full Movie in English",
            "url": "https://www.youtube.com/watch?v=HvzGbG2wRGo",
            "duration": 5025.0,
            "view_count": 1063,
            "uploader": "Boxoffice | TV Movies in English",
            "category": "english",
            "thumbnail": "https://i.ytimg.com/vi/HvzGbG2wRGo/hq720_custom_2.jpg"
        },
        {
            "id": "TXf_t14R0-s",
            "title": "Triumph of Love | Episode - 5 | (English Dubbed) Mexican Novela Series",
            "url": "https://www.youtube.com/watch?v=TXf_t14R0-s",
            "duration": 2887.0,
            "view_count": 10341,
            "uploader": "Novelas Kingdom",
            "category": "english",
            "thumbnail": "https://i.ytimg.com/vi/TXf_t14R0-s/hq720_custom_2.jpg"
        },
        {
            "id": "wh2bM9NNkV0",
            "title": "Trials of a Teenager | TEEN | Full Movie in English💎",
            "url": "https://www.youtube.com/watch?v=wh2bM9NNkV0",
            "duration": 4615.0,
            "view_count": 10372,
            "uploader": "Boxoffice | TEENS | Full Movies",
            "category": "english",
            "thumbnail": "https://i.ytimg.com/vi/wh2bM9NNkV0/hq720.jpg"
        },
        {
            "id": "P7JtJVhhNdA",
            "title": "🎬 Psychological thriller that keeps you tense until the very last second! | Full Movie in English",
            "url": "https://www.youtube.com/watch?v=P7JtJVhhNdA",
            "duration": 5994.0,
            "view_count": 93367,
            "uploader": "MOVIETOWN media",
            "category": "english",
            "thumbnail": "https://i.ytimg.com/vi/P7JtJVhhNdA/hq720.jpg"
        },
        {
            "id": "GroVSNjVybs",
            "title": "OUTER WORLD - English Movie | Hollywood Blockbuster Action - Adventure Movie Full HD | Bruce Willis",
            "url": "https://www.youtube.com/watch?v=GroVSNjVybs",
            "duration": 7146.0,
            "view_count": 5242010,
            "uploader": "Hollywood English Collection",
            "category": "english",
            "thumbnail": "https://i.ytimg.com/vi/GroVSNjVybs/hqdefault.jpg"
        },
        {
            "id": "aiREm-2JrNM",
            "title": "THE PUNISHER - Jackie Chan Full Action English Movie | Hollywood Movies In English | Pierce Brosnan",
            "url": "https://www.youtube.com/watch?v=aiREm-2JrNM",
            "duration": 6017.0,
            "view_count": 9387902,
            "uploader": "Hollywood English Collection",
            "category": "english",
            "thumbnail": "https://i.ytimg.com/vi/aiREm-2JrNM/hq720.jpg"
        },
        {
            "id": "JTsGcjA0S24",
            "title": "A movie so POWERFUL that you will regret missing it! Watch Action Movies in English...",
            "url": "https://www.youtube.com/watch?v=JTsGcjA0S24",
            "duration": 6365.0,
            "view_count": 504265,
            "uploader": "MOVRION",
            "category": "english",
            "thumbnail": "https://i.ytimg.com/vi/JTsGcjA0S24/hq720.jpg"
        },
        {
            "id": "jESVPjKbKcE",
            "title": "SECRET AGENT : Angelina Jolie | New Action Movie 2026 | Full Movie 4K #actionmovies",
            "url": "https://www.youtube.com/watch?v=jESVPjKbKcE",
            "duration": 5400.0,
            "view_count": 13023,
            "uploader": "Joy Drama",
            "category": "english",
            "thumbnail": "https://i.ytimg.com/vi/jESVPjKbKcE/hq720.jpg"
        },
        {
            "id": "eL12cHgcyb4",
            "title": "THE MAD PIRATES (2026) Donnie Yen | Full Action Movie - Thriller - Adventure | 4K HDR #actionmovies",
            "url": "https://www.youtube.com/watch?v=eL12cHgcyb4",
            "duration": 5400.0,
            "view_count": 1178740,
            "uploader": "ZED Drama",
            "category": "english",
            "thumbnail": "https://i.ytimg.com/vi/eL12cHgcyb4/hq720.jpg"
        },
        {
            "id": "aQXR7RthBuc",
            "title": "Cinderella | Full Movie | Epic Romantic Drama | Complete Mini Series | Cenerentola",
            "url": "https://www.youtube.com/watch?v=aQXR7RthBuc",
            "duration": 12551.0,
            "view_count": 25373613,
            "uploader": "Movie Central",
            "category": "english",
            "thumbnail": "https://i.ytimg.com/vi/aQXR7RthBuc/hq720.jpg"
        },
        {
            "id": "0RiBQmt3roI",
            "title": "Triumph of Love | Episode - 7 | (English Dubbed) Mexican Novela Series",
            "url": "https://www.youtube.com/watch?v=0RiBQmt3roI",
            "duration": 2550.0,
            "view_count": 2299,
            "uploader": "Novelas Kingdom",
            "category": "english",
            "thumbnail": "https://i.ytimg.com/vi/0RiBQmt3roI/hq720_custom_2.jpg"
        },
        {
            "id": "YnTA37GvMaU",
            "title": "Amityville Witches | HORROR | Full Movie in English",
            "url": "https://www.youtube.com/watch?v=YnTA37GvMaU",
            "duration": 5405.0,
            "view_count": 422793,
            "uploader": "Scary Movies",
            "category": "english",
            "thumbnail": "https://i.ytimg.com/vi/YnTA37GvMaU/hq720.jpg"
        },
        {
            "id": "SE7C8E0EC74",
            "title": "END OF THE WORLD: 2026 | Full Movie | English | Disaster | Thriller | 4K",
            "url": "https://www.youtube.com/watch?v=SE7C8E0EC74",
            "duration": 3884.0,
            "view_count": 1766432,
            "uploader": "Epic AI Films",
            "category": "english",
            "thumbnail": "https://i.ytimg.com/vi/SE7C8E0EC74/hq720.jpg"
        },
        {
            "id": "kXRTlTBr7lE",
            "title": "English Vinglish (2012) | Telugu Dubbed Full Movie | Sridevi, Adil Hussain | Emotional, Drama (HD)",
            "url": "https://www.youtube.com/watch?v=kXRTlTBr7lE",
            "duration": 7694.0,
            "view_count": 868671,
            "uploader": "Eros Universe South",
            "category": "english",
            "thumbnail": "https://i.ytimg.com/vi/kXRTlTBr7lE/hq720.jpg"
        },
        {
            "id": "_qGNW7VyigQ",
            "title": "Everyone Must See This Movie! Based on Real Events | Watch Now 🎬",
            "url": "https://www.youtube.com/watch?v=_qGNW7VyigQ",
            "duration": 5827.0,
            "view_count": 586357,
            "uploader": "Kinopower",
            "category": "english",
            "thumbnail": "https://i.ytimg.com/vi/_qGNW7VyigQ/hq720.jpg"
        },
        {
            "id": "0s8ry-22gjA",
            "title": "MAFIA BOSS BEHIND BARS Becomes a Mentor — the Action Movie in English",
            "url": "https://www.youtube.com/watch?v=0s8ry-22gjA",
            "duration": 4984.0,
            "view_count": 33997269,
            "uploader": "MILLIANOFILM",
            "category": "english",
            "thumbnail": "https://i.ytimg.com/vi/0s8ry-22gjA/hq720.jpg"
        },
        {
            "id": "EFrXN0zLv9o",
            "title": "The Homeless Man Became a Boxing Champion! | Full Movie in English",
            "url": "https://www.youtube.com/watch?v=EFrXN0zLv9o",
            "duration": 5920.0,
            "view_count": 2114260,
            "uploader": "MOVIEBAND production",
            "category": "english",
            "thumbnail": "https://i.ytimg.com/vi/EFrXN0zLv9o/hq720.jpg"
        },
        {
            "id": "p6Iq4nT_CHM",
            "title": "English Vinglish (2012) | Tamil Dubbed Full Movie | Sridevi, Adil Hussain | Emotional Drama (HD)",
            "url": "https://www.youtube.com/watch?v=p6Iq4nT_CHM",
            "duration": 7694.0,
            "view_count": 441463,
            "uploader": "Eros Universe Tamil",
            "category": "english",
            "thumbnail": "https://i.ytimg.com/vi/p6Iq4nT_CHM/hq720.jpg?sqp=-oaymwEcCNAFEJQDSFXyq4qpAw4IARUAAIhCGAFwAcABBg==&rs=AOn4CLAYbxEaKAEC-0G7ObKJheYlxvRmuQ",
            "added_date": "2026-04-16T07:31:04.437607Z",
            "source": "youtube"
        },
        {
            "id": "xjO_1TOzmc0",
            "title": "ARMOUR OF GOD 3 - Hollywood English Movie | Blockbuster Jackie Chan Action Full Movies In English HD",
            "url": "https://www.youtube.com/watch?v=xjO_1TOzmc0",
            "duration": 5971.0,
            "view_count": 26911805,
            "uploader": "Blockbuster English Movies",
            "category": "english",
            "thumbnail": "https://i.ytimg.com/vi/xjO_1TOzmc0/hq720.jpg"
        },
        {
            "id": "YTltMPQAeG0",
            "title": "Tape | English Full Movie | Drama Thriller",
            "url": "https://www.youtube.com/watch?v=YTltMPQAeG0",
            "duration": 5634.0,
            "view_count": 1472,
            "uploader": "Drama Vision",
            "category": "english",
            "thumbnail": "https://i.ytimg.com/vi/YTltMPQAeG0/hq720.jpg"
        }
    ]
}