{
    "page": 1,
    "total_pages": 9,
    "total_items": 439,
    "items": [
        {
            "id": "D2NnL3iSJhI",
            "title": "AURORA : Angelina Jolie | New Action Movie 2025 | Full Movie 4K #actionmovies",
            "url": "https://www.youtube.com/watch?v=D2NnL3iSJhI",
            "duration": 5639.0,
            "view_count": 4599698,
            "uploader": "Joy Drama",
            "category": "english",
            "thumbnail": "https://i.ytimg.com/vi/D2NnL3iSJhI/hq720.jpg"
        },
        {
            "id": "gcOWPOmOR-s",
            "title": "🎬THIS MOVIE WILL SHATTER your perception of reality! Watch the full version for free",
            "url": "https://www.youtube.com/watch?v=gcOWPOmOR-s",
            "duration": 5747.0,
            "view_count": 569035,
            "uploader": "FILMDOMINION",
            "category": "english",
            "thumbnail": "https://i.ytimg.com/vi/gcOWPOmOR-s/hq720.jpg"
        },
        {
            "id": "D_FX3vbk5oM",
            "title": "Ryan Gosling In THE DISAPPEARANCE - Hollywood Mystery Thriller Full Movie In English | Kristen Dunst",
            "url": "https://www.youtube.com/watch?v=D_FX3vbk5oM",
            "duration": 5565.0,
            "view_count": 1724667,
            "uploader": "Blockbuster English Movies",
            "category": "english",
            "thumbnail": "https://i.ytimg.com/vi/D_FX3vbk5oM/hq720.jpg"
        },
        {
            "id": "JeH1i8PDS4o",
            "title": "A TRUE STORY movie that captured millions of hearts | Full Movie 4K",
            "url": "https://www.youtube.com/watch?v=JeH1i8PDS4o",
            "duration": 6214.0,
            "view_count": 4521478,
            "uploader": "FilmVaultX",
            "category": "english",
            "thumbnail": "https://i.ytimg.com/vi/JeH1i8PDS4o/hq720.jpg"
        },
        {
            "id": "wtg7Rnbfy-M",
            "title": "Who Lured Them Into the Asylum? | Full Horror Movie",
            "url": "https://www.youtube.com/watch?v=wtg7Rnbfy-M",
            "duration": 5161.0,
            "view_count": 29086,
            "uploader": "FilmIsNow Horror Movies",
            "category": "english",
            "thumbnail": "https://i.ytimg.com/vi/wtg7Rnbfy-M/hq720.jpg"
        },
        {
            "id": "WIwUXd0ONa4",
            "title": "This Movie Broke the Internet! Be the First to Watch | Full Movie",
            "url": "https://www.youtube.com/watch?v=WIwUXd0ONa4",
            "duration": 5542.0,
            "view_count": 835779,
            "uploader": "PrimeGo",
            "category": "english",
            "thumbnail": "https://i.ytimg.com/vi/WIwUXd0ONa4/hq720.jpg"
        },
        {
            "id": "MNv2SG9rwTs",
            "title": "THE PORTAL - New Hollywood Sci-fi Action English Movie | Stranger Things In Multiverse Of Madness",
            "url": "https://www.youtube.com/watch?v=MNv2SG9rwTs",
            "duration": 7297.0,
            "view_count": 725943,
            "uploader": "Hollywood Action",
            "category": "english",
            "thumbnail": "https://i.ytimg.com/vi/MNv2SG9rwTs/hq720.jpg"
        },
        {
            "id": "pW5CtTsayUA",
            "title": "LOST: Beyond Horizon | 2026 Full Movie | English | Adventure | Action | 4K",
            "url": "https://www.youtube.com/watch?v=pW5CtTsayUA",
            "duration": 3878.0,
            "view_count": 500310,
            "uploader": "Epic AI Films",
            "category": "english",
            "thumbnail": "https://i.ytimg.com/vi/pW5CtTsayUA/hq720.jpg"
        },
        {
            "id": "Ouu9uny2Ztg",
            "title": "THE GREAT WALL (2026) Angelina Jolie - Jackie Chan | New Action Movie | 4K HDR #actionmovies",
            "url": "https://www.youtube.com/watch?v=Ouu9uny2Ztg",
            "duration": 5639.0,
            "view_count": 1310022,
            "uploader": "ZED Drama",
            "category": "english",
            "thumbnail": "https://i.ytimg.com/vi/Ouu9uny2Ztg/hq720.jpg"
        },
        {
            "id": "fl9c0X8_0mA",
            "title": "Trust Fund | Thriller Drama | Full Movie",
            "url": "https://www.youtube.com/watch?v=fl9c0X8_0mA",
            "duration": 5784.0,
            "view_count": 1425206,
            "uploader": "FILMDOMINION",
            "category": "english",
            "thumbnail": "https://i.ytimg.com/vi/fl9c0X8_0mA/hq720.jpg"
        },
        {
            "id": "BoxWnPvUFtI",
            "title": "NEW Action Movie 2024 JASON STATHAM Full Movie English Action Movies 2024",
            "url": "https://www.youtube.com/watch?v=BoxWnPvUFtI",
            "duration": 5712.0,
            "view_count": 1943195,
            "uploader": "Secret Cinema",
            "category": "english",
            "thumbnail": "https://i.ytimg.com/vi/BoxWnPvUFtI/hq720.jpg?sqp=-oaymwEcCNAFEJQDSFXyq4qpAw4IARUAAIhCGAFwAcABBg==&rs=AOn4CLDpjETkeW4VA8ip1E-YqxY22ojdXg",
            "added_date": "2026-04-16T07:31:02.834650Z",
            "source": "youtube"
        },
        {
            "id": "31F1CKB6AcM",
            "title": "Journey to the Forbidden Valley | FAMILY | Full Movie in English",
            "url": "https://www.youtube.com/watch?v=31F1CKB6AcM",
            "duration": 5551.0,
            "view_count": 258308,
            "uploader": "Boxoffice | NEW Full Movies in English",
            "category": "english",
            "thumbnail": "https://i.ytimg.com/vi/31F1CKB6AcM/hq720.jpg"
        },
        {
            "id": "reXn6Lc4Rek",
            "title": "Inferno FULL MOVIE | Ray Liotta | Action Movies Thriller Movies | The Midnight Screening",
            "url": "https://www.youtube.com/watch?v=reXn6Lc4Rek",
            "duration": 5668.0,
            "view_count": 44865,
            "uploader": "The Midnight Screening",
            "category": "english",
            "thumbnail": "https://i.ytimg.com/vi/reXn6Lc4Rek/hq720.jpg"
        },
        {
            "id": "mi18OjpCBW8",
            "title": "Underground - Action Movie | Full Movie In English | Hollywood Action Movies",
            "url": "https://www.youtube.com/watch?v=mi18OjpCBW8",
            "duration": 5712.0,
            "view_count": 3723980,
            "uploader": "Hollywood Movies Collections",
            "category": "english",
            "thumbnail": "https://i.ytimg.com/vi/mi18OjpCBW8/hq720.jpg"
        },
        {
            "id": "9ZbCG_Awg1o",
            "title": "MRS & THE DOG : Angelina Jolie | New Action Movie 2026 | Full Movie 4K #actionmovies",
            "url": "https://www.youtube.com/watch?v=9ZbCG_Awg1o",
            "duration": 5834.0,
            "view_count": 175002,
            "uploader": "Joy Drama",
            "category": "english",
            "thumbnail": "https://i.ytimg.com/vi/9ZbCG_Awg1o/hq720.jpg"
        },
        {
            "id": "L3KpYPzRNso",
            "title": "Bruce Willis In DIE INSIDE - Full Action Thriller English Movie | Hollywood Free Movies In English",
            "url": "https://www.youtube.com/watch?v=L3KpYPzRNso",
            "duration": 6174.0,
            "view_count": 1206357,
            "uploader": "Blockbuster English Movies",
            "category": "english",
            "thumbnail": "https://i.ytimg.com/vi/L3KpYPzRNso/hq720.jpg"
        },
        {
            "id": "t0hDMHnkhjo",
            "title": "They Witnessed a Crime | Full Movie English Thriller",
            "url": "https://www.youtube.com/watch?v=t0hDMHnkhjo",
            "duration": 5016.0,
            "view_count": 611463,
            "uploader": "MOVIEMIR and Movieiceberg",
            "category": "english",
            "thumbnail": "https://i.ytimg.com/vi/t0hDMHnkhjo/hq720.jpg"
        },
        {
            "id": "nHpzQ9JR-E0",
            "title": "A Mob King Forced to Fight for His Family | Full Movie English Action Thriller",
            "url": "https://www.youtube.com/watch?v=nHpzQ9JR-E0",
            "duration": 6404.0,
            "view_count": 504665,
            "uploader": "Movieiceberg",
            "category": "english",
            "thumbnail": "https://i.ytimg.com/vi/nHpzQ9JR-E0/hq720.jpg"
        },
        {
            "id": "yPLYvUOZYg0",
            "title": "RECOMMENDED BY THOUSANDS – NOW IT’S YOUR TURN! A KNIGHT'S WAR It's worth watching full in English...",
            "url": "https://www.youtube.com/watch?v=yPLYvUOZYg0",
            "duration": 6206.0,
            "view_count": 285489,
            "uploader": "MOVRION",
            "category": "english",
            "thumbnail": "https://i.ytimg.com/vi/yPLYvUOZYg0/hq720.jpg"
        },
        {
            "id": "HccXDZMD-Js",
            "title": "Anywhere But Here | English Full Movie | Comedy Drama",
            "url": "https://www.youtube.com/watch?v=HccXDZMD-Js",
            "duration": 6479.0,
            "view_count": 654677,
            "uploader": "Drama Vision",
            "category": "english",
            "thumbnail": "https://i.ytimg.com/vi/HccXDZMD-Js/hq720.jpg"
        },
        {
            "id": "X4WD2Y-x9us",
            "title": "🎬 This FILM will appeal to all fans of BRUTAL SURVIVAL THRILLERS! 😱 Watch in English 👆",
            "url": "https://www.youtube.com/watch?v=X4WD2Y-x9us",
            "duration": 4948.0,
            "view_count": 154057,
            "uploader": "FILMDOMINION",
            "category": "english",
            "thumbnail": "https://i.ytimg.com/vi/X4WD2Y-x9us/hq720.jpg"
        },
        {
            "id": "WbV4bE75FbM",
            "title": "They Came Without Warning… | Sci-Fi Action Thriller | Full Movie",
            "url": "https://www.youtube.com/watch?v=WbV4bE75FbM",
            "duration": 4969.0,
            "view_count": 1382091,
            "uploader": "Movie union",
            "category": "english",
            "thumbnail": "https://i.ytimg.com/vi/WbV4bE75FbM/hq720.jpg"
        },
        {
            "id": "ptrCBlS6cw4",
            "title": "The Substitute | THRILLER | Full Movie",
            "url": "https://www.youtube.com/watch?v=ptrCBlS6cw4",
            "duration": 6646.0,
            "view_count": 4749029,
            "uploader": "Boxoffice | 4K Full Movies",
            "category": "english",
            "thumbnail": "https://i.ytimg.com/vi/ptrCBlS6cw4/hq720.jpg"
        },
        {
            "id": "nHNBA2AHMLo",
            "title": "The New Girl's Secret | TEEN | Full Movie in English",
            "url": "https://www.youtube.com/watch?v=nHNBA2AHMLo",
            "duration": 5545.0,
            "view_count": 1930193,
            "uploader": "Boxoffice | TEENS | Full Movies",
            "category": "english",
            "thumbnail": "https://i.ytimg.com/vi/nHNBA2AHMLo/hq720.jpg"
        },
        {
            "id": "5qYgILod8u8",
            "title": "🎬 We Guarantee This Adventure Movie Will Definitely Win You Over! 🔥 Watch Online 👆",
            "url": "https://www.youtube.com/watch?v=5qYgILod8u8",
            "duration": 5471.0,
            "view_count": 57476,
            "uploader": "FILMDOMINION",
            "category": "english",
            "thumbnail": "https://i.ytimg.com/vi/5qYgILod8u8/hq720.jpg"
        },
        {
            "id": "sU6wC6FC72U",
            "title": "THE GANGSTER - Hollywood Movie | Jason Statham & Mark Strong | Blockbuster Full Action English Movie",
            "url": "https://www.youtube.com/watch?v=sU6wC6FC72U",
            "duration": 5401.0,
            "view_count": 42938401,
            "uploader": "Hollywood Action",
            "category": "english",
            "thumbnail": "https://i.ytimg.com/vi/sU6wC6FC72U/hq720.jpg"
        },
        {
            "id": "R4TZ6r_af8A",
            "title": "Family Heist | Terry Crews (Brooklyn 99), Retta (Good GIrls) | COMEDY | Full Movie in English",
            "url": "https://www.youtube.com/watch?v=R4TZ6r_af8A",
            "duration": 5015.0,
            "view_count": 21587805,
            "uploader": "Boxoffice | COMEDIES | Full Movies",
            "category": "english",
            "thumbnail": "https://i.ytimg.com/vi/R4TZ6r_af8A/hq720.jpg"
        },
        {
            "id": "AOLSfr7fucU",
            "title": "He got out of prison and became the king of the streets! | Action, Crime | Full Movie",
            "url": "https://www.youtube.com/watch?v=AOLSfr7fucU",
            "duration": 4391.0,
            "view_count": 2142676,
            "uploader": "Movie union",
            "category": "english",
            "thumbnail": "https://i.ytimg.com/vi/AOLSfr7fucU/hq720.jpg"
        },
        {
            "id": "EBkg3Uigbeo",
            "title": "THE ROBBERY - Ryan Reynolds In Hollywood English Movie | Blockbuster Heist Action English Full Movie",
            "url": "https://www.youtube.com/watch?v=EBkg3Uigbeo",
            "duration": 5197.0,
            "view_count": 6907140,
            "uploader": "Hollywood Action",
            "category": "english",
            "thumbnail": "https://i.ytimg.com/vi/EBkg3Uigbeo/hq720.jpg"
        },
        {
            "id": "-MWJprv1mhg",
            "title": "Pacific Predator | Sci-Fi Action | Full movie in English",
            "url": "https://www.youtube.com/watch?v=-MWJprv1mhg",
            "duration": 5112.0,
            "view_count": 733803,
            "uploader": "Movies Stability",
            "category": "english",
            "thumbnail": "https://i.ytimg.com/vi/-MWJprv1mhg/hqdefault.jpg"
        },
        {
            "id": "At22J0U4bGU",
            "title": "HOSTAGE NIGHT: THE WRONG MAN ANSWERED THE CALL | Full Action Movie | English",
            "url": "https://www.youtube.com/watch?v=At22J0U4bGU",
            "duration": 5334.0,
            "view_count": 84229,
            "uploader": "ActionVault",
            "category": "english",
            "thumbnail": "https://i.ytimg.com/vi/At22J0U4bGU/hq720.jpg"
        },
        {
            "id": "37mDWZJXuuY",
            "title": "Liam Neeson In TAKEN IDENTITY - Hollywood Movie | Superhit Action Thriller Full Movie In English HD",
            "url": "https://www.youtube.com/watch?v=37mDWZJXuuY",
            "duration": 6226.0,
            "view_count": 3376232,
            "uploader": "Blockbuster English Movies",
            "category": "english",
            "thumbnail": "https://i.ytimg.com/vi/37mDWZJXuuY/hq720.jpg"
        },
        {
            "id": "iI3MxONFtYI",
            "title": "A Shocking Survival Story! | SNAKE CREEK | Full Movie in English",
            "url": "https://www.youtube.com/watch?v=iI3MxONFtYI",
            "duration": 4571.0,
            "view_count": 5878554,
            "uploader": "Dark Frame",
            "category": "english",
            "thumbnail": "https://i.ytimg.com/vi/iI3MxONFtYI/hq720.jpg?sqp=-oaymwEcCNAFEJQDSFXyq4qpAw4IARUAAIhCGAFwAcABBg==&rs=AOn4CLBnWNDgYfth3suLCdkuyMDBeHQqWg",
            "added_date": "2026-04-16T07:31:04.237245Z",
            "source": "youtube"
        },
        {
            "id": "1r1q4p-QLqQ",
            "title": "Crime Action Movie | The Killer Who Lost Control! | Full Movie in English",
            "url": "https://www.youtube.com/watch?v=1r1q4p-QLqQ",
            "duration": 4725.0,
            "view_count": 1097113,
            "uploader": "Movie union",
            "category": "english",
            "thumbnail": "https://i.ytimg.com/vi/1r1q4p-QLqQ/hq720.jpg"
        },
        {
            "id": "4D9Au64Mp6o",
            "title": "Drunken Master - English Dubbed | Chinese Kung Fu Martial Arts Action Movie, Full Movie HD",
            "url": "https://www.youtube.com/watch?v=4D9Au64Mp6o",
            "duration": 4252.0,
            "view_count": 1588945,
            "uploader": "Moxi Movie English Official",
            "category": "english",
            "thumbnail": "https://i.ytimg.com/vi/4D9Au64Mp6o/hq720.jpg"
        },
        {
            "id": "5WkLqmClrDY",
            "title": "Don’t watch this movie at night — you won’t be able to handle it! | Horror Full Movie, Mystery 🎬",
            "url": "https://www.youtube.com/watch?v=5WkLqmClrDY",
            "duration": 6422.0,
            "view_count": 206119,
            "uploader": "Off Screen Lab",
            "category": "english",
            "thumbnail": "https://i.ytimg.com/vi/5WkLqmClrDY/hq720.jpg"
        },
        {
            "id": "RiBHutZ1-XM",
            "title": "The Magical Kingdom | FAMILY | Full Movie in English",
            "url": "https://www.youtube.com/watch?v=RiBHutZ1-XM",
            "duration": 5028.0,
            "view_count": 636357,
            "uploader": "MyMovies",
            "category": "english",
            "thumbnail": "https://i.ytimg.com/vi/RiBHutZ1-XM/hq720.jpg"
        },
        {
            "id": "XzveczHzMF4",
            "title": "Apocalypto part 2 Full Movie (2026) #apocalypse",
            "url": "https://www.youtube.com/watch?v=XzveczHzMF4",
            "duration": 6369.0,
            "view_count": 41740,
            "uploader": "Kabba Beauty",
            "category": "english",
            "thumbnail": "https://i.ytimg.com/vi/XzveczHzMF4/hqdefault.jpg"
        },
        {
            "id": "KsrALI7Pxc8",
            "title": "No Rules. No Fear. Just Action | Full Action Movie HD",
            "url": "https://www.youtube.com/watch?v=KsrALI7Pxc8",
            "duration": 5512.0,
            "view_count": 3252853,
            "uploader": "Ag Qara HD",
            "category": "english",
            "thumbnail": "https://i.ytimg.com/vi/KsrALI7Pxc8/hq720.jpg"
        },
        {
            "id": "Y5WncJVdbzQ",
            "title": "Mission SPY: New Action Movie | Jason Statham | Full Movie | 4K Ultra #actionmovies",
            "url": "https://www.youtube.com/watch?v=Y5WncJVdbzQ",
            "duration": 5004.0,
            "view_count": 3169899,
            "uploader": "Zero Hour",
            "category": "english",
            "thumbnail": "https://i.ytimg.com/vi/Y5WncJVdbzQ/hq720.jpg"
        },
        {
            "id": "GRrDPVK1SNE",
            "title": "IP MAN 5 - Full Hollywood Action English Movie | Chinese Movies In English | Samo Hung | Free Movies",
            "url": "https://www.youtube.com/watch?v=GRrDPVK1SNE",
            "duration": 5788.0,
            "view_count": 1934028,
            "uploader": "Telugu Hollywood Movies",
            "category": "english",
            "thumbnail": "https://i.ytimg.com/vi/GRrDPVK1SNE/hq720.jpg"
        },
        {
            "id": "p-c-aJS7CnQ",
            "title": "THE GLASS SHIELD | Ice Cube | Full movie in English HD | CRIME/THRILLER",
            "url": "https://www.youtube.com/watch?v=p-c-aJS7CnQ",
            "duration": 6253.0,
            "view_count": 515790,
            "uploader": "100% Movies - Full Movies in English",
            "category": "english",
            "thumbnail": "https://i.ytimg.com/vi/p-c-aJS7CnQ/hq720.jpg?sqp=-oaymwEcCNAFEJQDSFXyq4qpAw4IARUAAIhCGAFwAcABBg==&rs=AOn4CLD-LToG_wW_a6peIKXgD3ER3UdBfA",
            "added_date": "2026-04-16T07:31:03.235414Z",
            "source": "youtube"
        },
        {
            "id": "jaKvU3A28vY",
            "title": "English Vinglish | Superhit Full Hindi Movie | Sridevi, Adil Hussain, Mehdi Nebbou (HD)",
            "url": "https://www.youtube.com/watch?v=jaKvU3A28vY",
            "duration": 7700.0,
            "view_count": 4283154,
            "uploader": "Eros Universe Big Picture",
            "category": "english",
            "thumbnail": "https://i.ytimg.com/vi/jaKvU3A28vY/hq720.jpg"
        },
        {
            "id": "iUcZxcwaKQo",
            "title": "The Bounty Hunter - New Action Movie 2025 full movie english Action Movies 2025",
            "url": "https://www.youtube.com/watch?v=iUcZxcwaKQo",
            "duration": 5186.0,
            "view_count": 2202238,
            "uploader": "Mido HuSsein",
            "category": "english",
            "thumbnail": "https://i.ytimg.com/vi/iUcZxcwaKQo/hq720.jpg"
        },
        {
            "id": "L_IEXRVQAKg",
            "title": "Fathers & Daughters | Russell Crowe, Amanda Seyfried | DRAMA, ROMANCE | Full Movie in English",
            "url": "https://www.youtube.com/watch?v=L_IEXRVQAKg",
            "duration": 6773.0,
            "view_count": 954447,
            "uploader": "Boxoffice | NEW Full Movies in English",
            "category": "english",
            "thumbnail": "https://i.ytimg.com/vi/L_IEXRVQAKg/hq720.jpg"
        },
        {
            "id": "NUR14DCXUZk",
            "title": "Escape the Jungle Hell | ACTION | Full Movie in English",
            "url": "https://www.youtube.com/watch?v=NUR14DCXUZk",
            "duration": 4731.0,
            "view_count": 31799,
            "uploader": "Boxoffice | ACTION | Full Movies",
            "category": "english",
            "thumbnail": "https://i.ytimg.com/vi/NUR14DCXUZk/hq720.jpg"
        },
        {
            "id": "TmrloFLnaio",
            "title": "English Vinglish (HD) | Sridevi, Adil Hussain, Mehdi Nebbou | Full Hindi Movie",
            "url": "https://www.youtube.com/watch?v=TmrloFLnaio",
            "duration": 7700.0,
            "view_count": 11419227,
            "uploader": "Eros Universe Super Cinema",
            "category": "english",
            "thumbnail": "https://i.ytimg.com/vi/TmrloFLnaio/hq720.jpg?sqp=-oaymwEcCNAFEJQDSFXyq4qpAw4IARUAAIhCGAFwAcABBg==&rs=AOn4CLDgXZ-7K7FA63k2rgGNC6Sb6-VHIg",
            "added_date": "2026-04-16T07:31:03.435763Z",
            "source": "youtube"
        },
        {
            "id": "sx8pViXxZQg",
            "title": "Big Stan FULL MOVIE | Comedy Movies | Rob Schneider | The Midnight Screening",
            "url": "https://www.youtube.com/watch?v=sx8pViXxZQg",
            "duration": 5914.0,
            "view_count": 9188984,
            "uploader": "The Midnight Screening",
            "category": "english",
            "thumbnail": "https://i.ytimg.com/vi/sx8pViXxZQg/hq720.jpg"
        },
        {
            "id": "NYBjfZKKccI",
            "title": "THOR - Chris Hemsworth Is US MARINE | Hollywood Free English Movie | Full War Action English Movie",
            "url": "https://www.youtube.com/watch?v=NYBjfZKKccI",
            "duration": 5039.0,
            "view_count": 5392447,
            "uploader": "Hollywood English Collection",
            "category": "english",
            "thumbnail": "https://i.ytimg.com/vi/NYBjfZKKccI/hq720.jpg"
        },
        {
            "id": "kCVc4DWE1BM",
            "title": "War Machine (2026) Sci-Fi Action Thriller Movie in English HD | Full Movie Explained",
            "url": "https://www.youtube.com/watch?v=kCVc4DWE1BM",
            "duration": 6269.0,
            "view_count": 11348,
            "uploader": "The Flim Box",
            "category": "english",
            "thumbnail": "https://i.ytimg.com/vi/kCVc4DWE1BM/hq720.jpg"
        }
    ]
}