{
    "page": 9,
    "total_pages": 9,
    "total_items": 439,
    "items": [
        {
            "id": "CkCDehO2xtg",
            "title": "DIABLO Full Movie 2025: Dragon | Action Movies 2025 in English (Game Movie)",
            "url": "https://www.youtube.com/watch?v=CkCDehO2xtg",
            "duration": 5776.0,
            "view_count": 5677450,
            "uploader": "Ghetto The NPC",
            "category": "english",
            "thumbnail": "https://i.ytimg.com/vi/CkCDehO2xtg/hq720.jpg"
        },
        {
            "id": "Bi8cS_0fkU8",
            "title": "This Movie Will Take Your Breath Away! An Incredible Drama Western | Full Movie",
            "url": "https://www.youtube.com/watch?v=Bi8cS_0fkU8",
            "duration": 5462.0,
            "view_count": 353329,
            "uploader": "PlayFlicks",
            "category": "english",
            "thumbnail": "https://i.ytimg.com/vi/Bi8cS_0fkU8/hqdefault.jpg"
        },
        {
            "id": "fV2UpPbS0og",
            "title": "CREEPER IN THE WOODS 🎬 Full Horror Movie 🎬 English HD",
            "url": "https://www.youtube.com/watch?v=fV2UpPbS0og",
            "duration": 4228.0,
            "view_count": 2012,
            "uploader": "Watch Movies Now!",
            "category": "english",
            "thumbnail": "https://i.ytimg.com/vi/fV2UpPbS0og/hq720.jpg"
        },
        {
            "id": "EDApCIF19wE",
            "title": "👉 A HORROR Movie That Stunned Everyone | Viewers Were Shaken | Full English Movies",
            "url": "https://www.youtube.com/watch?v=EDApCIF19wE",
            "duration": 5685.0,
            "view_count": 12089,
            "uploader": "Epic Movie Nexus",
            "category": "english",
            "thumbnail": "https://i.ytimg.com/vi/EDApCIF19wE/hq720.jpg"
        },
        {
            "id": "OoDcbOG07RQ",
            "title": "Forgotten City FULL MOVIE | Robert Patrick | Action Adventure Movies | The Midnight Screening",
            "url": "https://www.youtube.com/watch?v=OoDcbOG07RQ",
            "duration": 5720.0,
            "view_count": 99326,
            "uploader": "The Midnight Screening",
            "category": "english",
            "thumbnail": "https://i.ytimg.com/vi/OoDcbOG07RQ/hq720.jpg"
        },
        {
            "id": "Yh39A9Xij-I",
            "title": "🔥New 2026 Action Movie Full Movie English Hollywood Action Movies 2026",
            "url": "https://www.youtube.com/watch?v=Yh39A9Xij-I",
            "duration": 5575.0,
            "view_count": 2404,
            "uploader": "Action Empire",
            "category": "english",
            "thumbnail": "https://i.ytimg.com/vi/Yh39A9Xij-I/hq720.jpg"
        },
        {
            "id": "uGk5ZN7u6S0",
            "title": "Comedy romantic movies Best Romantic Movies Full Movie English Comedy For Free Full",
            "url": "https://www.youtube.com/watch?v=uGk5ZN7u6S0",
            "duration": 7235.0,
            "view_count": 14860,
            "uploader": "Henrietta J. Andrews",
            "category": "english",
            "thumbnail": "https://i.ytimg.com/vi/uGk5ZN7u6S0/hq720.jpg"
        },
        {
            "id": "iDW_W6993v4",
            "title": "A One Man Army |New Hollywood Action Movie 2025 || Full Movie English Action Movies 2025",
            "url": "https://www.youtube.com/watch?v=iDW_W6993v4",
            "duration": 4523.0,
            "view_count": 6514339,
            "uploader": "ZƏFƏR 44 MUSIC",
            "category": "english",
            "thumbnail": "https://i.ytimg.com/vi/iDW_W6993v4/hq720.jpg"
        },
        {
            "id": "DonnYp4SEbw",
            "title": "A missing girl returns... changed 🎬 Full Horror Movie 🎬 English 4K",
            "url": "https://www.youtube.com/watch?v=DonnYp4SEbw",
            "duration": 5004.0,
            "view_count": 2990416,
            "uploader": "FullFlicks Central",
            "category": "english",
            "thumbnail": "https://i.ytimg.com/vi/DonnYp4SEbw/hq720.jpg"
        },
        {
            "id": "P00CVJ4NCO4",
            "title": "🔥New 2026 Action Movie Full Movie English Hollywood Action Movies 2026",
            "url": "https://www.youtube.com/watch?v=P00CVJ4NCO4",
            "duration": 5361.0,
            "view_count": 1574281,
            "uploader": "Apex Action",
            "category": "english",
            "thumbnail": "https://i.ytimg.com/vi/P00CVJ4NCO4/hq720.jpg"
        },
        {
            "id": "sFXyzHohgFQ",
            "title": "Helpless | ACTION | Full Movie in English",
            "url": "https://www.youtube.com/watch?v=sFXyzHohgFQ",
            "duration": 5334.0,
            "view_count": 2162032,
            "uploader": "Full Movies in English HD",
            "category": "english",
            "thumbnail": "https://i.ytimg.com/vi/sFXyzHohgFQ/hq720.jpg"
        },
        {
            "id": "W35Wj64O1K4",
            "title": "A True Story That Shocked Millions of Viewers | A Secret Life | Watch Online",
            "url": "https://www.youtube.com/watch?v=W35Wj64O1K4",
            "duration": 4898.0,
            "view_count": 3993259,
            "uploader": "FILMDOMINION",
            "category": "english",
            "thumbnail": "https://i.ytimg.com/vi/W35Wj64O1K4/hq720.jpg"
        },
        {
            "id": "mKWfEmYYV9g",
            "title": "ADVENTURES OF ALADDIN | ACTION ADVENTURE MOVIE | FULL FREE THRILLER FILM IN ENGLISH | REVO MOVIES",
            "url": "https://www.youtube.com/watch?v=mKWfEmYYV9g",
            "duration": 5260.0,
            "view_count": 6438813,
            "uploader": "V Wild West",
            "category": "english",
            "thumbnail": "https://i.ytimg.com/vi/mKWfEmYYV9g/hq720.jpg"
        },
        {
            "id": "U7NXSP2W-jE",
            "title": "Clive Boomer's Success FULL MOVIE | Thriller Movies | Lili Simmons | The Midnight Screening",
            "url": "https://www.youtube.com/watch?v=U7NXSP2W-jE",
            "duration": 6380.0,
            "view_count": 1946,
            "uploader": "The Midnight Screening",
            "category": "english",
            "thumbnail": "https://i.ytimg.com/vi/U7NXSP2W-jE/hq720.jpg"
        },
        {
            "id": "9LlMCV_bssk",
            "title": "🔥New 2026 Action Movie Full Movie English Hollywood Action Movies 2026",
            "url": "https://www.youtube.com/watch?v=9LlMCV_bssk",
            "duration": 5361.0,
            "view_count": 3743,
            "uploader": "Apex Action",
            "category": "english",
            "thumbnail": "https://i.ytimg.com/vi/9LlMCV_bssk/hq720.jpg"
        },
        {
            "id": "inF5vSTBRo0",
            "title": "INVASION: WRATH OF GOD | Full Movie | English | Sci-Fi | Disaster |  Horror Thriller | 4K",
            "url": "https://www.youtube.com/watch?v=inF5vSTBRo0",
            "duration": 3688.0,
            "view_count": 99545,
            "uploader": "Epic AI Films",
            "category": "english",
            "thumbnail": "https://i.ytimg.com/vi/inF5vSTBRo0/hq720.jpg"
        },
        {
            "id": "8bDw4MX7RAA",
            "title": "THE LORD OF THE RINGS Full Movie 2026: Gollum | Superhero FXL Movies 2026 in English (Game Movie)",
            "url": "https://www.youtube.com/watch?v=8bDw4MX7RAA",
            "duration": 7264.0,
            "view_count": 47094,
            "uploader": "Superhero FXL Games",
            "category": "english",
            "thumbnail": "https://i.ytimg.com/vi/8bDw4MX7RAA/hq720.jpg"
        },
        {
            "id": "rO87JqnZshQ",
            "title": "⚡ After This Movie, You’ll Never Trust People Again! 🚨 A Tense Thriller to See | Full Movie HD",
            "url": "https://www.youtube.com/watch?v=rO87JqnZshQ",
            "duration": 5269.0,
            "view_count": 1711970,
            "uploader": "Movies Anytime",
            "category": "english",
            "thumbnail": "https://i.ytimg.com/vi/rO87JqnZshQ/hq720.jpg"
        },
        {
            "id": "kES9siE84Og",
            "title": "HECTOR :: (2026) Dwayne Johnson | NEW Action Movie - Fantasy - Adventure | 4K HDR #actionmovies",
            "url": "https://www.youtube.com/watch?v=kES9siE84Og",
            "duration": 6077.0,
            "view_count": 262097,
            "uploader": "ZED Drama",
            "category": "english",
            "thumbnail": "https://i.ytimg.com/vi/kES9siE84Og/hq720.jpg?sqp=-oaymwEcCNAFEJQDSFXyq4qpAw4IARUAAIhCGAFwAcABBg==&rs=AOn4CLAu8OatJ1nq4U23CmCU-vNt_mR9bA",
            "added_date": "2026-04-16T07:31:03.836484Z",
            "source": "youtube"
        },
        {
            "id": "4oKlLrwrznA",
            "title": "Apocalypto part 2 Full Movie (2026) #apocalypse",
            "url": "https://www.youtube.com/watch?v=4oKlLrwrznA",
            "duration": 6198.0,
            "view_count": 40077,
            "uploader": "Madina vibes",
            "category": "english",
            "thumbnail": "https://i.ytimg.com/vi/4oKlLrwrznA/hqdefault.jpg"
        },
        {
            "id": "yuUctOkwUMI",
            "title": "The Beekeeper 2 | Jason Statham | Full Hollywood Action Movie In English | HD 2025",
            "url": "https://www.youtube.com/watch?v=yuUctOkwUMI",
            "duration": 6432.0,
            "view_count": 1592602,
            "uploader": "PrimeScreen Cinema",
            "category": "english",
            "thumbnail": "https://i.ytimg.com/vi/yuUctOkwUMI/hq720.jpg"
        },
        {
            "id": "gt15IMB2pSY",
            "title": "🔥New 2026 Action Movie Full Movie English Hollywood Action Movies 2026",
            "url": "https://www.youtube.com/watch?v=gt15IMB2pSY",
            "duration": 4355.0,
            "view_count": 26652,
            "uploader": "Infinity Action Studios",
            "category": "english",
            "thumbnail": "https://i.ytimg.com/vi/gt15IMB2pSY/hq720.jpg"
        },
        {
            "id": "nW4VEXiD_68",
            "title": "The Mafiosi's Daughter | SUSPENSE | Full Movie in English",
            "url": "https://www.youtube.com/watch?v=nW4VEXiD_68",
            "duration": 5471.0,
            "view_count": 288900,
            "uploader": "Full Movies in English HD",
            "category": "english",
            "thumbnail": "https://i.ytimg.com/vi/nW4VEXiD_68/hq720.jpg"
        },
        {
            "id": "-0maCs3KHZc",
            "title": "Dangers on Live | THRILLER | Full Movie in English",
            "url": "https://www.youtube.com/watch?v=-0maCs3KHZc",
            "duration": 4319.0,
            "view_count": 230730,
            "uploader": "Full Movies in English HD",
            "category": "english",
            "thumbnail": "https://i.ytimg.com/vi/-0maCs3KHZc/hq720.jpg"
        },
        {
            "id": "Ta81TCS6_aQ",
            "title": "Shadow of the Lotus | ACTION | Full Movie in English",
            "url": "https://www.youtube.com/watch?v=Ta81TCS6_aQ",
            "duration": 7316.0,
            "view_count": 317,
            "uploader": "Boxoffice | ACTION | Full Movies",
            "category": "english",
            "thumbnail": "https://i.ytimg.com/vi/Ta81TCS6_aQ/hq720.jpg"
        },
        {
            "id": "VRqkrCADD9M",
            "title": "The Odd Ones | COMEDY | Full Movie in English💎",
            "url": "https://www.youtube.com/watch?v=VRqkrCADD9M",
            "duration": 5061.0,
            "view_count": 295,
            "uploader": "Boxoffice | COMEDIES | Full Movies",
            "category": "english",
            "thumbnail": "https://i.ytimg.com/vi/VRqkrCADD9M/hq720_custom_1.jpg"
        },
        {
            "id": "f7SF17xaGbs",
            "title": "Princess for a Day | COMEDY, ROMANCE | Full Movie in English",
            "url": "https://www.youtube.com/watch?v=f7SF17xaGbs",
            "duration": 7110.0,
            "view_count": 11925,
            "uploader": "Boxoffice | FAMILY | Full Movies",
            "category": "english",
            "thumbnail": "https://i.ytimg.com/vi/f7SF17xaGbs/hq720.jpg"
        },
        {
            "id": "Avp2JeSRQmk",
            "title": "Senior Love | ROMANCE | Full Movie in English",
            "url": "https://www.youtube.com/watch?v=Avp2JeSRQmk",
            "duration": 5025.0,
            "view_count": 5128,
            "uploader": "Boxoffice | ROMANCE | Full Movies",
            "category": "english",
            "thumbnail": "https://i.ytimg.com/vi/Avp2JeSRQmk/hq720.jpg"
        },
        {
            "id": "GBrUja9ILD4",
            "title": "🔥New 2026 Action Movie Full Movie English Hollywood Action Movies 2026",
            "url": "https://www.youtube.com/watch?v=GBrUja9ILD4",
            "duration": 5741.0,
            "view_count": 1383,
            "uploader": "Infinity Action Studios",
            "category": "english",
            "thumbnail": "https://i.ytimg.com/vi/GBrUja9ILD4/hq720.jpg"
        },
        {
            "id": "CJnD4h6MUAc",
            "title": "NEW 2026 ACTION MOVIE… ONE MAN DESTROYED A WHOLE CARTEL | MOVIE USA",
            "url": "https://www.youtube.com/watch?v=CJnD4h6MUAc",
            "duration": 4731.0,
            "view_count": 21634,
            "uploader": "ActionVault",
            "category": "english",
            "thumbnail": "https://i.ytimg.com/vi/CJnD4h6MUAc/hq720.jpg"
        },
        {
            "id": "dgqjlOb6MZM",
            "title": "Don’t Watch This Horror Movie Alone | Island of the Dead | Full Movie",
            "url": "https://www.youtube.com/watch?v=dgqjlOb6MZM",
            "duration": 5151.0,
            "view_count": 609341,
            "uploader": "Movie Time English",
            "category": "english",
            "thumbnail": "https://i.ytimg.com/vi/dgqjlOb6MZM/hq720.jpg"
        },
        {
            "id": "RWGtm1ttaOI",
            "title": "RELIC | Vin Diesel | Angelina Jolie | Full Hollywood Movie In English | HD",
            "url": "https://www.youtube.com/watch?v=RWGtm1ttaOI",
            "duration": 7843.0,
            "view_count": 9496,
            "uploader": "VelvetFrame Cinema",
            "category": "english",
            "thumbnail": "https://i.ytimg.com/vi/RWGtm1ttaOI/hq720.jpg"
        },
        {
            "id": "IzfLo1w5PLc",
            "title": "Businessman (2026) Full Movie | Matt Damon, Liam Neeson | Action Thriller in English HD",
            "url": "https://www.youtube.com/watch?v=IzfLo1w5PLc",
            "duration": 6871.0,
            "view_count": 529173,
            "uploader": "Movie Nation Global",
            "category": "english",
            "thumbnail": "https://i.ytimg.com/vi/IzfLo1w5PLc/hq720.jpg"
        },
        {
            "id": "Iv3uFdG6eFg",
            "title": "Legend Full Movie | Jason Statham | Jennifer Lopez | Hollywood Action Thriller | HD",
            "url": "https://www.youtube.com/watch?v=Iv3uFdG6eFg",
            "duration": 8319.0,
            "view_count": 115601,
            "uploader": "SilverAxis Cinemas",
            "category": "english",
            "thumbnail": "https://i.ytimg.com/vi/Iv3uFdG6eFg/hq720.jpg?sqp=-oaymwEcCNAFEJQDSFXyq4qpAw4IARUAAIhCGAFwAcABBg==&rs=AOn4CLDpSc6yne2UkiLlAxM0liRXGucT4g",
            "added_date": "2026-04-16T07:31:03.035038Z",
            "source": "youtube"
        },
        {
            "id": "3hfh6zRHhTA",
            "title": "🔥New 2026 Action Movie Full Movie English Hollywood Action Movies 2026",
            "url": "https://www.youtube.com/watch?v=3hfh6zRHhTA",
            "duration": 5307.0,
            "view_count": 101483,
            "uploader": "Apex Action",
            "category": "english",
            "thumbnail": "https://i.ytimg.com/vi/3hfh6zRHhTA/hq720.jpg"
        },
        {
            "id": "jLSElL0UAaQ",
            "title": "COLOMBIANA 2 | Jason Statham | Zoe Saldana | Full Hollywood Movie In English | HD",
            "url": "https://www.youtube.com/watch?v=jLSElL0UAaQ",
            "duration": 6705.0,
            "view_count": 53681,
            "uploader": "EclipseFrame Studios",
            "category": "english",
            "thumbnail": "https://i.ytimg.com/vi/jLSElL0UAaQ/hq720.jpg?sqp=-oaymwEcCNAFEJQDSFXyq4qpAw4IARUAAIhCGAFwAcABBg==&rs=AOn4CLBGcNCNq1QwxYxoiajS5OPCr1-lPQ",
            "added_date": "2026-04-16T07:31:01.832887Z",
            "source": "youtube"
        },
        {
            "id": "PJktmd98XOc",
            "title": "The Night of the Killer | THRILLER | Full Movie in English",
            "url": "https://www.youtube.com/watch?v=PJktmd98XOc",
            "duration": 6421.0,
            "view_count": 4900,
            "uploader": "Boxoffice | THRILLERS | Full Movies",
            "category": "english",
            "thumbnail": "https://i.ytimg.com/vi/PJktmd98XOc/hq720.jpg"
        },
        {
            "id": "JlKin2CN5E4",
            "title": "BANK HEIST - Hollywood English Movie | Sylvester Stallone Blockbuster Action Full Movie In English",
            "url": "https://www.youtube.com/watch?v=JlKin2CN5E4",
            "duration": 4783.0,
            "view_count": 7632098,
            "uploader": "Hollywood English Collection",
            "category": "english",
            "thumbnail": "https://i.ytimg.com/vi/JlKin2CN5E4/hq720.jpg"
        },
        {
            "id": "1zbzox-53xM",
            "title": "New Hollywood English Full Movie 2026 | BLACK ROOM English Movie | New Hollywood Action Movie Full",
            "url": "https://www.youtube.com/watch?v=1zbzox-53xM",
            "duration": 6203.0,
            "view_count": 61338,
            "uploader": " Roy Cinema and 2 more",
            "category": "english",
            "thumbnail": "https://i.ytimg.com/vi/1zbzox-53xM/hqdefault.jpg?sqp=-oaymwEcCOADEI4CSFXyq4qpAw4IARUAAIhCGAFwAcABBg==&rs=AOn4CLC45hejSuRnb58GtwX31fKZGAYooQ",
            "added_date": "2026-04-16T07:31:02.433898Z",
            "source": "youtube"
        }
    ]
}