{
    "page": 6,
    "total_pages": 9,
    "total_items": 439,
    "items": [
        {
            "id": "BV-Euf9nitA",
            "title": "Only the Strong Survive This Desert | Full Action Movie 2026 | Statham & Stallone | HD ",
            "url": "https://www.youtube.com/watch?v=BV-Euf9nitA",
            "duration": 6619.0,
            "view_count": 218515,
            "uploader": "Voltage Syndicate",
            "category": "english",
            "thumbnail": "https://i.ytimg.com/vi/BV-Euf9nitA/hq720.jpg"
        },
        {
            "id": "HsO9293768c",
            "title": "THE MARTIAN 3 – FIRST GIRL ON MARS | Free Movie | Full Film",
            "url": "https://www.youtube.com/watch?v=HsO9293768c",
            "duration": 4482.0,
            "view_count": 22571,
            "uploader": "Red Horizon",
            "category": "english",
            "thumbnail": "https://i.ytimg.com/vi/HsO9293768c/hq720.jpg"
        },
        {
            "id": "iG8LyKABaug",
            "title": "Puncher :  New Action Movie 2026 | Scott Adkins | Full Movie | 4K Ultra #actionmovies",
            "url": "https://www.youtube.com/watch?v=iG8LyKABaug",
            "duration": 5285.0,
            "view_count": 27350,
            "uploader": "F.M Production",
            "category": "english",
            "thumbnail": "https://i.ytimg.com/vi/iG8LyKABaug/hq720.jpg"
        },
        {
            "id": "9lrS0Ropjik",
            "title": "😮 A Movie That Will Captivate You Until The Very End! Emotional Drama | Watch Online",
            "url": "https://www.youtube.com/watch?v=9lrS0Ropjik",
            "duration": 5491.0,
            "view_count": 45682,
            "uploader": "FILMDOMINION",
            "category": "english",
            "thumbnail": "https://i.ytimg.com/vi/9lrS0Ropjik/hq720.jpg"
        },
        {
            "id": "QUQSkR6Afko",
            "title": "🎬 WE HIGHLY RECOMMEND THIS MOVIE! A Film That Keeps You On Edge Until The End | Watch Online",
            "url": "https://www.youtube.com/watch?v=QUQSkR6Afko",
            "duration": 6423.0,
            "view_count": 66507,
            "uploader": "FILMDOMINION",
            "category": "english",
            "thumbnail": "https://i.ytimg.com/vi/QUQSkR6Afko/hq720.jpg"
        },
        {
            "id": "Hcnv97919UM",
            "title": "THE DEAD WALL : Angelina Jolie | New Action Movie 2026 | Full Movie 4K #actionmovies",
            "url": "https://www.youtube.com/watch?v=Hcnv97919UM",
            "duration": 5709.0,
            "view_count": 6834,
            "uploader": "Joy Drama",
            "category": "english",
            "thumbnail": "https://i.ytimg.com/vi/Hcnv97919UM/hq720.jpg"
        },
        {
            "id": "iVTqG3tiX-U",
            "title": "The Jar | English Full Movie | Horror",
            "url": "https://www.youtube.com/watch?v=iVTqG3tiX-U",
            "duration": 5126.0,
            "view_count": 333,
            "uploader": "GEM: Film Library",
            "category": "english",
            "thumbnail": "https://i.ytimg.com/vi/iVTqG3tiX-U/hq720.jpg"
        },
        {
            "id": "anQwuFP9BsM",
            "title": "Last Prisoner - New Action Movie 2026  | Jason Statham | Full Movie | 4K Ultra #actionmovies",
            "url": "https://www.youtube.com/watch?v=anQwuFP9BsM",
            "duration": 5589.0,
            "view_count": 2152698,
            "uploader": "musicmusictop",
            "category": "english",
            "thumbnail": "https://i.ytimg.com/vi/anQwuFP9BsM/hq720.jpg"
        },
        {
            "id": "lIaDXLR5fhA",
            "title": "🔥 New 2026 Action Movie Full Movie English Zombie Thriller Hollywood | Infinity Action Studios",
            "url": "https://www.youtube.com/watch?v=lIaDXLR5fhA",
            "duration": 5409.0,
            "view_count": 404367,
            "uploader": "Infinity Action Studios",
            "category": "english",
            "thumbnail": "https://i.ytimg.com/vi/lIaDXLR5fhA/hq720.jpg?sqp=-oaymwEcCNAFEJQDSFXyq4qpAw4IARUAAIhCGAFwAcABBg==&rs=AOn4CLBKT5ZaLtnV2ozGnZjp9EM7qM81Hw",
            "added_date": "2026-04-16T07:31:04.638006Z",
            "source": "youtube"
        },
        {
            "id": "ZpYODQG-QEk",
            "title": "The Last Refuge | ACTION | Full Movie in English",
            "url": "https://www.youtube.com/watch?v=ZpYODQG-QEk",
            "duration": 5075.0,
            "view_count": 81444,
            "uploader": "Full Movies in English HD",
            "category": "english",
            "thumbnail": "https://i.ytimg.com/vi/ZpYODQG-QEk/hq720.jpg"
        },
        {
            "id": "Ulns8C2bp8U",
            "title": "I Witness FULL MOVIE | James Spader & Jeff Daniels | Action Movies | The Midnight Screening",
            "url": "https://www.youtube.com/watch?v=Ulns8C2bp8U",
            "duration": 5697.0,
            "view_count": 157369,
            "uploader": "The Midnight Screening",
            "category": "english",
            "thumbnail": "https://i.ytimg.com/vi/Ulns8C2bp8U/hq720.jpg"
        },
        {
            "id": "yV5g63f5rNc",
            "title": "2025 Action Movie | WARCRAFT: The Ultimate Battle | Epic Verse Full Movies (English) | (GAME MOVIE)",
            "url": "https://www.youtube.com/watch?v=yV5g63f5rNc",
            "duration": 4505.0,
            "view_count": 602156,
            "uploader": "Epic Verse",
            "category": "english",
            "thumbnail": "https://i.ytimg.com/vi/yV5g63f5rNc/hq720.jpg"
        },
        {
            "id": "O20qG9legZA",
            "title": "THE LOST ISLAND | 2026 Full Movie | Disaster & Survival | English | 4K",
            "url": "https://www.youtube.com/watch?v=O20qG9legZA",
            "duration": 3661.0,
            "view_count": 25512,
            "uploader": "Epic AI Films",
            "category": "english",
            "thumbnail": "https://i.ytimg.com/vi/O20qG9legZA/hq720.jpg"
        },
        {
            "id": "T6KNBDjS_Xk",
            "title": "😱 Highly Recommended Movie With A Powerful Story And A 9/10 Rating! Watch In English Online",
            "url": "https://www.youtube.com/watch?v=T6KNBDjS_Xk",
            "duration": 5603.0,
            "view_count": 716403,
            "uploader": "FILMDOMINION",
            "category": "english",
            "thumbnail": "https://i.ytimg.com/vi/T6KNBDjS_Xk/hq720.jpg"
        },
        {
            "id": "zha3TbkQZrE",
            "title": "Dead Zone Command | Mark Dacascos (John Wick 4) | ACTION | Full Movie in English 💎",
            "url": "https://www.youtube.com/watch?v=zha3TbkQZrE",
            "duration": 5639.0,
            "view_count": 10506,
            "uploader": "Boxoffice | ACTION | Full Movies",
            "category": "english",
            "thumbnail": "https://i.ytimg.com/vi/zha3TbkQZrE/hq720_custom_1.jpg"
        },
        {
            "id": "QO5Z7Q-J2XA",
            "title": "NO RULES. NO MERCY. 💀 | Full Military Action Film",
            "url": "https://www.youtube.com/watch?v=QO5Z7Q-J2XA",
            "duration": 5643.0,
            "view_count": 1421630,
            "uploader": "MOVIESE",
            "category": "english",
            "thumbnail": "https://i.ytimg.com/vi/QO5Z7Q-J2XA/hq720.jpg"
        },
        {
            "id": "rKbtYUHW5w4",
            "title": "🔥New Action Movie 2026 English | Kong Unleashed | Full Action Monster vs Humans | Adventure Thriller",
            "url": "https://www.youtube.com/watch?v=rKbtYUHW5w4",
            "duration": 5409.0,
            "view_count": 210219,
            "uploader": "Infinity Action Studios",
            "category": "english",
            "thumbnail": "https://i.ytimg.com/vi/rKbtYUHW5w4/hq720.jpg?sqp=-oaymwEcCNAFEJQDSFXyq4qpAw4IARUAAIhCGAFwAcABBg==&rs=AOn4CLCqfbI_QO2Ve2HrwncwtG0Mcdc0fA",
            "added_date": "2026-04-16T07:31:03.636112Z",
            "source": "youtube"
        },
        {
            "id": "MPi_toWiBn0",
            "title": "MAD PRISONER : Angelina Jolie | New Action Movie 2026 | Full Movie 4K #actionmovies",
            "url": "https://www.youtube.com/watch?v=MPi_toWiBn0",
            "duration": 5400.0,
            "view_count": 55891,
            "uploader": "Joy Drama",
            "category": "english",
            "thumbnail": "https://i.ytimg.com/vi/MPi_toWiBn0/hq720.jpg"
        },
        {
            "id": "ZkfvE00mOV0",
            "title": "A Former Marine Was Sent to Prison — Now He Must Survive the Dogs | Action Movie",
            "url": "https://www.youtube.com/watch?v=ZkfvE00mOV0",
            "duration": 5283.0,
            "view_count": 1560020,
            "uploader": "Prime Action Films",
            "category": "english",
            "thumbnail": "https://i.ytimg.com/vi/ZkfvE00mOV0/hq720.jpg"
        },
        {
            "id": "1EoE0-j1unw",
            "title": "Popularity Contest | COMEDY, TEEN | Full Movie in English 💎",
            "url": "https://www.youtube.com/watch?v=1EoE0-j1unw",
            "duration": 5413.0,
            "view_count": 17078,
            "uploader": "Boxoffice | TEENS | Full Movies",
            "category": "english",
            "thumbnail": "https://i.ytimg.com/vi/1EoE0-j1unw/hq720.jpg"
        },
        {
            "id": "o1sVJvP_yuU",
            "title": "VAMPIRES | FANTASY, HORROR | Full Movie in English",
            "url": "https://www.youtube.com/watch?v=o1sVJvP_yuU",
            "duration": 5523.0,
            "view_count": 150574,
            "uploader": "Boxoffice | NEW Full Movies in English",
            "category": "english",
            "thumbnail": "https://i.ytimg.com/vi/o1sVJvP_yuU/hq720.jpg"
        },
        {
            "id": "apbkMnDtG_I",
            "title": "My Sister from Another Universe | TEEN, ADVENTURE | Full Movie in English",
            "url": "https://www.youtube.com/watch?v=apbkMnDtG_I",
            "duration": 4309.0,
            "view_count": 10366,
            "uploader": "Boxoffice | TEENS | Full Movies",
            "category": "english",
            "thumbnail": "https://i.ytimg.com/vi/apbkMnDtG_I/hq720.jpg"
        },
        {
            "id": "HCU4cQAlp5Q",
            "title": "Ruthless Mercenaries | ACTION | Full Movie in English",
            "url": "https://www.youtube.com/watch?v=HCU4cQAlp5Q",
            "duration": 5092.0,
            "view_count": 28754,
            "uploader": "Boxoffice | ACTION | Full Movies",
            "category": "english",
            "thumbnail": "https://i.ytimg.com/vi/HCU4cQAlp5Q/hq720.jpg"
        },
        {
            "id": "c1Hwd5O3RwA",
            "title": "Colombiana 2  - New Action Movie 2026 | Jason Statham | Full Movie | 4K Ultra #actionmovies",
            "url": "https://www.youtube.com/watch?v=c1Hwd5O3RwA",
            "duration": 5617.0,
            "view_count": 252448,
            "uploader": "Jo work",
            "category": "english",
            "thumbnail": "https://i.ytimg.com/vi/c1Hwd5O3RwA/hq720.jpg"
        },
        {
            "id": "hBZ31dJ96H0",
            "title": "Dragon Ball Z: Trunks Returns | Full Movie",
            "url": "https://www.youtube.com/watch?v=hBZ31dJ96H0",
            "duration": 2714.0,
            "view_count": 77865,
            "uploader": "JumpCut Film",
            "category": "english",
            "thumbnail": "https://i.ytimg.com/vi/hBZ31dJ96H0/hq720.jpg"
        },
        {
            "id": "UzCiqgVzGyA",
            "title": "Shadow of the Lotus | Action Thriller | Full Movie",
            "url": "https://www.youtube.com/watch?v=UzCiqgVzGyA",
            "duration": 7511.0,
            "view_count": 3609053,
            "uploader": "FILMDOMINION",
            "category": "english",
            "thumbnail": "https://i.ytimg.com/vi/UzCiqgVzGyA/hq720.jpg"
        },
        {
            "id": "3N2-jveVv2U",
            "title": "Revenge Bites Hard | THRILLER | Full Movie in English",
            "url": "https://www.youtube.com/watch?v=3N2-jveVv2U",
            "duration": 5606.0,
            "view_count": 11849,
            "uploader": "Boxoffice | THRILLERS | Full Movies",
            "category": "english",
            "thumbnail": "https://i.ytimg.com/vi/3N2-jveVv2U/hq720.jpg"
        },
        {
            "id": "nfK9sODTT98",
            "title": "Preys of the Woods | THRILLER | Full Movie in English",
            "url": "https://www.youtube.com/watch?v=nfK9sODTT98",
            "duration": 5558.0,
            "view_count": 2966,
            "uploader": "Full Movies in English HD",
            "category": "english",
            "thumbnail": "https://i.ytimg.com/vi/nfK9sODTT98/hq720.jpg"
        },
        {
            "id": "Gfgv6xl1CPE",
            "title": "Black Lake (2026) Vin Diesel, Scarlett Johansson | Action Movie | 4K #actionmovies",
            "url": "https://www.youtube.com/watch?v=Gfgv6xl1CPE",
            "duration": 5139.0,
            "view_count": 198289,
            "uploader": "ZED Drama",
            "category": "english",
            "thumbnail": "https://i.ytimg.com/vi/Gfgv6xl1CPE/hq720.jpg"
        },
        {
            "id": "MrwT4GwSCLE",
            "title": "Sam Worthington In ROGUE (Crocodile) - Hollywood Free English Movie | Action Thriller English Movie",
            "url": "https://www.youtube.com/watch?v=MrwT4GwSCLE",
            "duration": 5381.0,
            "view_count": 17303,
            "uploader": "Hollywood Action",
            "category": "english",
            "thumbnail": "https://i.ytimg.com/vi/MrwT4GwSCLE/hqdefault.jpg"
        },
        {
            "id": "zTLsfyLSETk",
            "title": "BAD WOMEN : Angelina Jolie | New Action Movie 2026 | Full Movie 4K #actionmovies",
            "url": "https://www.youtube.com/watch?v=zTLsfyLSETk",
            "duration": 5557.0,
            "view_count": 21947,
            "uploader": "Joy Drama",
            "category": "english",
            "thumbnail": "https://i.ytimg.com/vi/zTLsfyLSETk/hq720.jpg"
        },
        {
            "id": "PjKbI9baTt8",
            "title": "🔥New Action Movie 2026 English | Trapped 💀Full Movie | Surrounded by Enemies | Action Crime Thriller",
            "url": "https://www.youtube.com/watch?v=PjKbI9baTt8",
            "duration": 6184.0,
            "view_count": 13045,
            "uploader": "Infinity Action Studios",
            "category": "english",
            "thumbnail": "https://i.ytimg.com/vi/PjKbI9baTt8/hq720.jpg"
        },
        {
            "id": "xlpTaHBqZJ8",
            "title": "👉 If you love INTENSE CRIME MOVIES — This ONE Will SHOCK You! 😱 | Till Proven Innocent",
            "url": "https://www.youtube.com/watch?v=xlpTaHBqZJ8",
            "duration": 5312.0,
            "view_count": 5266,
            "uploader": "FILMSTREET factory",
            "category": "english",
            "thumbnail": "https://i.ytimg.com/vi/xlpTaHBqZJ8/hq720.jpg"
        },
        {
            "id": "mGMRhIvVL6g",
            "title": "The Predator | Ben Mendelsohn (Animal Kingdom) | DRAMA | Full Movie in English",
            "url": "https://www.youtube.com/watch?v=mGMRhIvVL6g",
            "duration": 5444.0,
            "view_count": 21072,
            "uploader": "Boxoffice | DRAMA | Full Movies",
            "category": "english",
            "thumbnail": "https://i.ytimg.com/vi/mGMRhIvVL6g/hq720.jpg"
        },
        {
            "id": "42tJ5KKcyCM",
            "title": "Timebot's Adventures | ANIMATION | Full Movie in English",
            "url": "https://www.youtube.com/watch?v=42tJ5KKcyCM",
            "duration": 5880.0,
            "view_count": 35124,
            "uploader": "Boxoffice | ANIMATION | Full Movies",
            "category": "english",
            "thumbnail": "https://i.ytimg.com/vi/42tJ5KKcyCM/hq720.jpg"
        },
        {
            "id": "y97D-Ixgya0",
            "title": "Korean Horror Movie | DEAD AGAIN (Full Movie) | Cursed Diary Thriller",
            "url": "https://www.youtube.com/watch?v=y97D-Ixgya0",
            "duration": 5472.0,
            "view_count": 2688,
            "uploader": "Cinema Epoch",
            "category": "english",
            "thumbnail": "https://i.ytimg.com/vi/y97D-Ixgya0/hq720.jpg"
        },
        {
            "id": "4h1Bhasbxtg",
            "title": "One Move God Mode Full Movie [2026 English Sub] | Review and Story Explanation",
            "url": "https://www.youtube.com/watch?v=4h1Bhasbxtg",
            "duration": 3845.0,
            "view_count": 2856,
            "uploader": "Devandra Bird",
            "category": "english",
            "thumbnail": "https://i.ytimg.com/vi/4h1Bhasbxtg/hq720.jpg"
        },
        {
            "id": "RQxpwt0EU1M",
            "title": "STONE COLD : Angelina Jolie | New Action Movie 2026 | Full Movie 4K #actionmovies",
            "url": "https://www.youtube.com/watch?v=RQxpwt0EU1M",
            "duration": 6023.0,
            "view_count": 81340,
            "uploader": "Joy Drama",
            "category": "english",
            "thumbnail": "https://i.ytimg.com/vi/RQxpwt0EU1M/hq720.jpg"
        },
        {
            "id": "fMxqR1LT7Hs",
            "title": "LUCIFER | HORROR | Full Movie in English",
            "url": "https://www.youtube.com/watch?v=fMxqR1LT7Hs",
            "duration": 5267.0,
            "view_count": 6560,
            "uploader": "Boxoffice | HORROR | Full Movies",
            "category": "english",
            "thumbnail": "https://i.ytimg.com/vi/fMxqR1LT7Hs/hq720.jpg"
        },
        {
            "id": "Rcc7KjLlx0s",
            "title": "SHADOW FIGHT (2026) Jackie Chan | New Action Movie | 4K HDR #actionmovies",
            "url": "https://www.youtube.com/watch?v=Rcc7KjLlx0s",
            "duration": 6700.0,
            "view_count": 139890,
            "uploader": "ZED Drama",
            "category": "english",
            "thumbnail": "https://i.ytimg.com/vi/Rcc7KjLlx0s/hq720.jpg"
        },
        {
            "id": "PzJRXcc6kYQ",
            "title": "THE HARD WAY :: (2026) Donnie Yen | Full Action Movie - Thriller - Adventure | 4K HDR #actionmovies",
            "url": "https://www.youtube.com/watch?v=PzJRXcc6kYQ",
            "duration": 5557.0,
            "view_count": 73564,
            "uploader": "ZED Drama",
            "category": "english",
            "thumbnail": "https://i.ytimg.com/vi/PzJRXcc6kYQ/hq720.jpg"
        },
        {
            "id": "ssv7P9pI3-o",
            "title": "WRATH OF THE PHARAOH KING | JACKIE CHAN - DWAYNE JOHNSON -  ANJLENA JULE | Full Action Movie 2026 🔥",
            "url": "https://www.youtube.com/watch?v=ssv7P9pI3-o",
            "duration": 6675.0,
            "view_count": 1492998,
            "uploader": "دراما توداي - Drama today",
            "category": "english",
            "thumbnail": "https://i.ytimg.com/vi/ssv7P9pI3-o/hqdefault.jpg"
        },
        {
            "id": "HipOsodwwrY",
            "title": "CLEANER (2026) 🔥 Jason Statham 🔥 New Released Action Hollywood English Movie HD🔥NO ZOOM",
            "url": "https://www.youtube.com/watch?v=HipOsodwwrY",
            "duration": 5702.0,
            "view_count": 2832402,
            "uploader": "angelbozzola",
            "category": "english",
            "thumbnail": "https://i.ytimg.com/vi/HipOsodwwrY/hq720.jpg"
        },
        {
            "id": "40yTXr6JHh8",
            "title": "HAIL MARY : Angelina Jolie | New Action Movie 2026 | Full Movie 4K #actionmovies",
            "url": "https://www.youtube.com/watch?v=40yTXr6JHh8",
            "duration": 5139.0,
            "view_count": 1623,
            "uploader": "Joy Drama",
            "category": "english",
            "thumbnail": "https://i.ytimg.com/vi/40yTXr6JHh8/hq720.jpg"
        },
        {
            "id": "FXBwAtp2u0w",
            "title": "Sky Dog | FAMILY | Full Movie in English",
            "url": "https://www.youtube.com/watch?v=FXBwAtp2u0w",
            "duration": 6528.0,
            "view_count": 3779,
            "uploader": "Boxoffice | FAMILY | Full Movies",
            "category": "english",
            "thumbnail": "https://i.ytimg.com/vi/FXBwAtp2u0w/hq720.jpg"
        },
        {
            "id": "zCGCJ_eOU1A",
            "title": "A detective investigates a brutal double murder! Full Movie | Crime Thriller | Watch Free Now!",
            "url": "https://www.youtube.com/watch?v=zCGCJ_eOU1A",
            "duration": 5308.0,
            "view_count": 10807,
            "uploader": "Entertainment Residence",
            "category": "english",
            "thumbnail": "https://i.ytimg.com/vi/zCGCJ_eOU1A/hq720.jpg"
        },
        {
            "id": "tIni6S1TuRA",
            "title": "He Was Thrown Into a Death Prison — Then He Hunted Them Back | Action Movie",
            "url": "https://www.youtube.com/watch?v=tIni6S1TuRA",
            "duration": 5268.0,
            "view_count": 142664,
            "uploader": "Steel Pulse Films",
            "category": "english",
            "thumbnail": "https://i.ytimg.com/vi/tIni6S1TuRA/hq720.jpg"
        },
        {
            "id": "D62yiWSutsw",
            "title": "END OF THE WORLD: 2026 Mega Tsunami & Global Earthquake | Full Movie | English | Disaster | Thriller",
            "url": "https://www.youtube.com/watch?v=D62yiWSutsw",
            "duration": 3621.0,
            "view_count": 4669,
            "uploader": "AI Trailer Cinema",
            "category": "english",
            "thumbnail": "https://i.ytimg.com/vi/D62yiWSutsw/hq720_custom_1.jpg"
        },
        {
            "id": "YyMEA_FMy2E",
            "title": "Recommended to Watch! A Thriller Story You’ll Watch in One Breath | Full Movie",
            "url": "https://www.youtube.com/watch?v=YyMEA_FMy2E",
            "duration": 5364.0,
            "view_count": 86583,
            "uploader": "Finetime media",
            "category": "english",
            "thumbnail": "https://i.ytimg.com/vi/YyMEA_FMy2E/hq720.jpg"
        },
        {
            "id": "EYVTyrbD6Ds",
            "title": "The Great Land Of Small (1987) LMN Full Movie HD | Magical Fantasy Adventure Family Movie",
            "url": "https://www.youtube.com/watch?v=EYVTyrbD6Ds",
            "duration": 5488.0,
            "view_count": 200923,
            "uploader": "Elif Yılmaz ",
            "category": "english",
            "thumbnail": "https://i.ytimg.com/vi/EYVTyrbD6Ds/hq720.jpg"
        }
    ]
}