{
    "page": 2,
    "total_pages": 9,
    "total_items": 439,
    "items": [
        {
            "id": "0YrxiyAl18M",
            "title": "The White Orchid | English Full Movie | Drama Mystery Thriller",
            "url": "https://www.youtube.com/watch?v=0YrxiyAl18M",
            "duration": 5073.0,
            "view_count": 478219,
            "uploader": "GEM: Film Library",
            "category": "english",
            "thumbnail": "https://i.ytimg.com/vi/0YrxiyAl18M/hq720.jpg"
        },
        {
            "id": "8__BLsrw3oQ",
            "title": "TRAZON : Angelina Jolie | New Action Movie 2026 | Full Movie 4K #actionmovies",
            "url": "https://www.youtube.com/watch?v=8__BLsrw3oQ",
            "duration": 6023.0,
            "view_count": 46043,
            "uploader": "Joy Drama",
            "category": "english",
            "thumbnail": "https://i.ytimg.com/vi/8__BLsrw3oQ/hq720.jpg"
        },
        {
            "id": "rKTaf-D7UhE",
            "title": "Relative Stranger | English Full Movie | Drama",
            "url": "https://www.youtube.com/watch?v=rKTaf-D7UhE",
            "duration": 5115.0,
            "view_count": 474366,
            "uploader": "Mirage Vision",
            "category": "english",
            "thumbnail": "https://i.ytimg.com/vi/rKTaf-D7UhE/hq720.jpg"
        },
        {
            "id": "pPrlLPVU7HQ",
            "title": "Leprechaun : Little Evil | HORROR | Full Movie",
            "url": "https://www.youtube.com/watch?v=pPrlLPVU7HQ",
            "duration": 4999.0,
            "view_count": 2774119,
            "uploader": "Boxoffice | NEW Full Movies in English",
            "category": "english",
            "thumbnail": "https://i.ytimg.com/vi/pPrlLPVU7HQ/hq720.jpg"
        },
        {
            "id": "7fztfSLT6uY",
            "title": "HONG KONG (2026) Donnie Yen | Full Action Movie - Thriller - Adventure | 4K HDR #actionmovies",
            "url": "https://www.youtube.com/watch?v=7fztfSLT6uY",
            "duration": 6700.0,
            "view_count": 13715,
            "uploader": "ZED Drama",
            "category": "english",
            "thumbnail": "https://i.ytimg.com/vi/7fztfSLT6uY/hq720.jpg"
        },
        {
            "id": "07uZfiI9gKg",
            "title": "FUTURE EARTH - Sylvester Stallone In Blockbuster Action Full Movie In English HD | Hollywood Movies",
            "url": "https://www.youtube.com/watch?v=07uZfiI9gKg",
            "duration": 4696.0,
            "view_count": 5039168,
            "uploader": "Blockbuster English Movies",
            "category": "english",
            "thumbnail": "https://i.ytimg.com/vi/07uZfiI9gKg/hq720.jpg"
        },
        {
            "id": "R6OPiACpA-Y",
            "title": "JAGUAR : Angelina Jolie | New Action Movie 2026 | Full Movie 4K #actionmovies",
            "url": "https://www.youtube.com/watch?v=R6OPiACpA-Y",
            "duration": 5834.0,
            "view_count": 795484,
            "uploader": "Joy Drama",
            "category": "english",
            "thumbnail": "https://i.ytimg.com/vi/R6OPiACpA-Y/hq720.jpg"
        },
        {
            "id": "F6CzDCFmqSw",
            "title": "The Devil Who Loved Her | HORROR | Full Movie in English",
            "url": "https://www.youtube.com/watch?v=F6CzDCFmqSw",
            "duration": 4893.0,
            "view_count": 20940,
            "uploader": "Boxoffice | HORROR | Full Movies",
            "category": "english",
            "thumbnail": "https://i.ytimg.com/vi/F6CzDCFmqSw/hq720.jpg"
        },
        {
            "id": "mN9Ei-txWnA",
            "title": "Born for Revenge | This Explosive Action Thriller Will Make Your Heart Race | Action English",
            "url": "https://www.youtube.com/watch?v=mN9Ei-txWnA",
            "duration": 5078.0,
            "view_count": 148375,
            "uploader": "FBX Films",
            "category": "english",
            "thumbnail": "https://i.ytimg.com/vi/mN9Ei-txWnA/hq720.jpg"
        },
        {
            "id": "qwMdE6qp1dk",
            "title": "DEGENERATES | COMEDY | Full Movie in English",
            "url": "https://www.youtube.com/watch?v=qwMdE6qp1dk",
            "duration": 6131.0,
            "view_count": 1997,
            "uploader": "Boxoffice | COMEDIES | Full Movies",
            "category": "english",
            "thumbnail": "https://i.ytimg.com/vi/qwMdE6qp1dk/hq720.jpg"
        },
        {
            "id": "qkiNFzP5A2o",
            "title": "Jason Statham In DOUBLE CROSS - Hollywood Movie | Free Movie | Blockbuster Full Action English Movie",
            "url": "https://www.youtube.com/watch?v=qkiNFzP5A2o",
            "duration": 6332.0,
            "view_count": 11070341,
            "uploader": "Hollywood English Collection",
            "category": "english",
            "thumbnail": "https://i.ytimg.com/vi/qkiNFzP5A2o/hq720.jpg"
        },
        {
            "id": "Yq2E8-ayC-0",
            "title": "The Brotherhood | FULL MOVIE | Vampire Teen Horror | Sam Page",
            "url": "https://www.youtube.com/watch?v=Yq2E8-ayC-0",
            "duration": 5101.0,
            "view_count": 7185,
            "uploader": "GREAT! Free Movies & Shows and Chroma",
            "category": "english",
            "thumbnail": "https://i.ytimg.com/vi/Yq2E8-ayC-0/hq720.jpg"
        },
        {
            "id": "2rKtEYpCye4",
            "title": "⚡ A movie that won’t let you sleep! 💥 Action-adventure, goosebumps guaranteed | Full Movie HD",
            "url": "https://www.youtube.com/watch?v=2rKtEYpCye4",
            "duration": 5894.0,
            "view_count": 4285210,
            "uploader": "Movies Anytime",
            "category": "english",
            "thumbnail": "https://i.ytimg.com/vi/2rKtEYpCye4/hq720.jpg"
        },
        {
            "id": "3DylQJD2pjc",
            "title": "Containment | Horror Thriller Sci-Fi | Full Movie",
            "url": "https://www.youtube.com/watch?v=3DylQJD2pjc",
            "duration": 4585.0,
            "view_count": 2547896,
            "uploader": "Plushollywood",
            "category": "english",
            "thumbnail": "https://i.ytimg.com/vi/3DylQJD2pjc/hq720.jpg"
        },
        {
            "id": "WCj0Wi3f8II",
            "title": "1408 (2007) | Full Movie | John Cusack, Samuel L. Jackson, Mary McCormack, Tony Shalhoub",
            "url": "https://www.youtube.com/watch?v=WCj0Wi3f8II",
            "duration": 6752.0,
            "view_count": 322316,
            "uploader": "Lionsgate Movies",
            "category": "english",
            "thumbnail": "https://i.ytimg.com/vi/WCj0Wi3f8II/hq720.jpg"
        },
        {
            "id": "dH6NAYLLXuk",
            "title": "The best true story film that inspired thousands of people! | Full movie in English",
            "url": "https://www.youtube.com/watch?v=dH6NAYLLXuk",
            "duration": 6169.0,
            "view_count": 2929460,
            "uploader": "Movie union",
            "category": "english",
            "thumbnail": "https://i.ytimg.com/vi/dH6NAYLLXuk/hq720.jpg"
        },
        {
            "id": "MNr4UzKCUgQ",
            "title": "THE LAST TOMB | Morgan Freeman- JASON STATHAM | Full Action Movie 2025 | New Movie | 🔥🔥",
            "url": "https://www.youtube.com/watch?v=MNr4UzKCUgQ",
            "duration": 8127.0,
            "view_count": 1594826,
            "uploader": "دراما توداي - Drama today",
            "category": "english",
            "thumbnail": "https://i.ytimg.com/vi/MNr4UzKCUgQ/hqdefault.jpg"
        },
        {
            "id": "STB0BquJy8k",
            "title": "The Raven Protocol | Burt Reynolds (Deliverance) | ACTION | Full Movie in English 💎",
            "url": "https://www.youtube.com/watch?v=STB0BquJy8k",
            "duration": 5600.0,
            "view_count": 3216,
            "uploader": "Boxoffice | ACTION | Full Movies",
            "category": "english",
            "thumbnail": "https://i.ytimg.com/vi/STB0BquJy8k/hq720_custom_2.jpg"
        },
        {
            "id": "nekbXOLO3Ao",
            "title": "Justice has a new feathered ally | Raven | Full Action Movie",
            "url": "https://www.youtube.com/watch?v=nekbXOLO3Ao",
            "duration": 5541.0,
            "view_count": 614040,
            "uploader": "V Movies",
            "category": "english",
            "thumbnail": "https://i.ytimg.com/vi/nekbXOLO3Ao/hq720.jpg"
        },
        {
            "id": "9vaAYTXTxbA",
            "title": "Endless Love | ROMANCE | Full Movie in English",
            "url": "https://www.youtube.com/watch?v=9vaAYTXTxbA",
            "duration": 6196.0,
            "view_count": 913257,
            "uploader": "Boxoffice | ROMANCE | Full Movies",
            "category": "english",
            "thumbnail": "https://i.ytimg.com/vi/9vaAYTXTxbA/hq720.jpg"
        },
        {
            "id": "85aKbSselPM",
            "title": "NOIR AGENT : Angelina Jolie | New Action Movie 2026 | Full Movie 4K #actionmovies",
            "url": "https://www.youtube.com/watch?v=85aKbSselPM",
            "duration": 5358.0,
            "view_count": 8807,
            "uploader": "Joy Drama",
            "category": "english",
            "thumbnail": "https://i.ytimg.com/vi/85aKbSselPM/hq720.jpg"
        },
        {
            "id": "3V6JvHba_C0",
            "title": "🎬HIGHLY RECOMMENDED TO WATCH THIS MOVIE! High-Rated Adventure Action Film | Watch Now",
            "url": "https://www.youtube.com/watch?v=3V6JvHba_C0",
            "duration": 6083.0,
            "view_count": 4327170,
            "uploader": "FILMDOMINION",
            "category": "english",
            "thumbnail": "https://i.ytimg.com/vi/3V6JvHba_C0/hq720.jpg"
        },
        {
            "id": "BDPfG26lYgA",
            "title": "LIAM NEESON : CABIN 10 | New Action Movie | Full Movie | Movie Concept AI 2025 | 4K ULTRA",
            "url": "https://www.youtube.com/watch?v=BDPfG26lYgA",
            "duration": 5639.0,
            "view_count": 967004,
            "uploader": "X Drama",
            "category": "english",
            "thumbnail": "https://i.ytimg.com/vi/BDPfG26lYgA/hq720.jpg"
        },
        {
            "id": "7QCw_PHffr0",
            "title": "Broken Home | DRAMA | Full Movie in English",
            "url": "https://www.youtube.com/watch?v=7QCw_PHffr0",
            "duration": 5940.0,
            "view_count": 764,
            "uploader": "Boxoffice | DRAMA | Full Movies",
            "category": "english",
            "thumbnail": "https://i.ytimg.com/vi/7QCw_PHffr0/hq720.jpg"
        },
        {
            "id": "9P0jrGPfLNw",
            "title": "Hoppers (2026) Comedy/Sci-fi Full English Movie | Piper Curda | Bobby Moynihan | Review And React ",
            "url": "https://www.youtube.com/watch?v=9P0jrGPfLNw",
            "duration": 6601.0,
            "view_count": 28249,
            "uploader": "AB Drama Talk ",
            "category": "english",
            "thumbnail": "https://i.ytimg.com/vi/9P0jrGPfLNw/hq720.jpg"
        },
        {
            "id": "3oukK9Cz32s",
            "title": "OLIVER, STONED. | Hilarious Stoner Comedy | Full Movie HD",
            "url": "https://www.youtube.com/watch?v=3oukK9Cz32s",
            "duration": 5358.0,
            "view_count": 539280,
            "uploader": "FFF Banana | Full Free Super Funny Comedy Films",
            "category": "english",
            "thumbnail": "https://i.ytimg.com/vi/3oukK9Cz32s/hq720.jpg"
        },
        {
            "id": "Qqu2NASymfM",
            "title": "Vengeance: A Love Story | Full Movie",
            "url": "https://www.youtube.com/watch?v=Qqu2NASymfM",
            "duration": 5930.0,
            "view_count": 381822,
            "uploader": "FilmRise Movies",
            "category": "english",
            "thumbnail": "https://i.ytimg.com/vi/Qqu2NASymfM/hq720.jpg"
        },
        {
            "id": "HgZh_tu0acw",
            "title": "Watch Today Only! A True Story That Will Touch You Deeply | Full Movie",
            "url": "https://www.youtube.com/watch?v=HgZh_tu0acw",
            "duration": 5836.0,
            "view_count": 1418026,
            "uploader": "FilmVaultX",
            "category": "english",
            "thumbnail": "https://i.ytimg.com/vi/HgZh_tu0acw/hq720.jpg"
        },
        {
            "id": "gnMXPz58WQ4",
            "title": "2035 BATTLESHIP - Full Hollywood Sci-Fi Action Movie | English Movie | Carl W, Nikki M | Free Movies",
            "url": "https://www.youtube.com/watch?v=gnMXPz58WQ4",
            "duration": 5024.0,
            "view_count": 598614,
            "uploader": "Rising Nova English",
            "category": "english",
            "thumbnail": "https://i.ytimg.com/vi/gnMXPz58WQ4/hq720.jpg"
        },
        {
            "id": "LF07MlChBMs",
            "title": "Bilal: A New Breed of Hero | Full English Movie  | True Story of Freedom & Equality",
            "url": "https://www.youtube.com/watch?v=LF07MlChBMs",
            "duration": 6576.0,
            "view_count": 3463461,
            "uploader": "Movie World",
            "category": "english",
            "thumbnail": "https://i.ytimg.com/vi/LF07MlChBMs/hq720.jpg?sqp=-oaymwEcCNAFEJQDSFXyq4qpAw4IARUAAIhCGAFwAcABBg==&rs=AOn4CLALMStbNEPVxzvzrrsJOQjsQZRuiA",
            "added_date": "2026-04-16T07:31:04.036869Z",
            "source": "youtube"
        },
        {
            "id": "OlnZ_0qkbfU",
            "title": "THE GREAT WALL : Angelina Jolie | New Action Movie 2026 | Full Movie 4K #actionmovies",
            "url": "https://www.youtube.com/watch?v=OlnZ_0qkbfU",
            "duration": 5139.0,
            "view_count": 488505,
            "uploader": "Joy Drama",
            "category": "english",
            "thumbnail": "https://i.ytimg.com/vi/OlnZ_0qkbfU/hq720.jpg"
        },
        {
            "id": "0U76IPSfn7k",
            "title": "PRISON IN HELL : Angelina Jolie | New Action Movie 2026 | Full Movie 4K #actionmovies",
            "url": "https://www.youtube.com/watch?v=0U76IPSfn7k",
            "duration": 5139.0,
            "view_count": 1314845,
            "uploader": "Joy Drama",
            "category": "english",
            "thumbnail": "https://i.ytimg.com/vi/0U76IPSfn7k/hq720.jpg"
        },
        {
            "id": "q7ucHi_gILY",
            "title": "THE HARD TARGET : Angelina Jolie | New Action Movie 2026 | Full Movie 4K #actionmovies",
            "url": "https://www.youtube.com/watch?v=q7ucHi_gILY",
            "duration": 5400.0,
            "view_count": 262269,
            "uploader": "Joy Drama",
            "category": "english",
            "thumbnail": "https://i.ytimg.com/vi/q7ucHi_gILY/hq720.jpg"
        },
        {
            "id": "W1D0puderfs",
            "title": "CHASE - Hollywood Action Full Movie | Free Movies | English Movie",
            "url": "https://www.youtube.com/watch?v=W1D0puderfs",
            "duration": 5950.0,
            "view_count": 7993684,
            "uploader": "Majestic Movies",
            "category": "english",
            "thumbnail": "https://i.ytimg.com/vi/W1D0puderfs/hq720.jpg"
        },
        {
            "id": "WlKCMdmvbOk",
            "title": "BLACK SCRAB : Angelina Jolie | New Action Movie 2026 | Full Movie 4K #actionmovies",
            "url": "https://www.youtube.com/watch?v=WlKCMdmvbOk",
            "duration": 5400.0,
            "view_count": 981681,
            "uploader": "Joy Drama",
            "category": "english",
            "thumbnail": "https://i.ytimg.com/vi/WlKCMdmvbOk/hq720.jpg"
        },
        {
            "id": "VuMuz5jdK7w",
            "title": "Tentacle 8 | Spy Thriller | Full Movie | Secret Missions",
            "url": "https://www.youtube.com/watch?v=VuMuz5jdK7w",
            "duration": 7481.0,
            "view_count": 851864,
            "uploader": "Stash Movies & TV",
            "category": "english",
            "thumbnail": "https://i.ytimg.com/vi/VuMuz5jdK7w/hq720.jpg"
        },
        {
            "id": "wV4iVKRd3qA",
            "title": "They robbed a bank on Christmas Eve! | Action, Crime | Full Movie",
            "url": "https://www.youtube.com/watch?v=wV4iVKRd3qA",
            "duration": 4439.0,
            "view_count": 1207640,
            "uploader": "Movie union",
            "category": "english",
            "thumbnail": "https://i.ytimg.com/vi/wV4iVKRd3qA/hq720.jpg"
        },
        {
            "id": "n6PN62ua5Cc",
            "title": "KUNG FU PANDA Full Movie 2026: ACTION FANTASY MOVIE IN ENGLISH 2026 (Game Movie)",
            "url": "https://www.youtube.com/watch?v=n6PN62ua5Cc",
            "duration": 5488.0,
            "view_count": 3183,
            "uploader": "El Sacruz",
            "category": "english",
            "thumbnail": "https://i.ytimg.com/vi/n6PN62ua5Cc/hq720_custom_2.jpg"
        },
        {
            "id": "jWW4NGqgEgg",
            "title": "ADVENTURES OF JACKIE CHAN - English Movie | Superhit Hollywood Action Comedy Full Movie In English",
            "url": "https://www.youtube.com/watch?v=jWW4NGqgEgg",
            "duration": 6519.0,
            "view_count": 6388688,
            "uploader": "Blockbuster English Movies",
            "category": "english",
            "thumbnail": "https://i.ytimg.com/vi/jWW4NGqgEgg/hq720.jpg"
        },
        {
            "id": "cKKIOqKInf0",
            "title": "Krait 2 || New Action Movie 2026 | Chris Hemsworth & Margot Robbie | Full Movie | 4K #actionmovies",
            "url": "https://www.youtube.com/watch?v=cKKIOqKInf0",
            "duration": 7083.0,
            "view_count": 86836,
            "uploader": "Legend Shadows",
            "category": "english",
            "thumbnail": "https://i.ytimg.com/vi/cKKIOqKInf0/hq720.jpg"
        },
        {
            "id": "bx7dyln8-hA",
            "title": "Excellent Cadavers | English Full Movie | Crime Drama Thriller",
            "url": "https://www.youtube.com/watch?v=bx7dyln8-hA",
            "duration": 5923.0,
            "view_count": 9861,
            "uploader": "Drama Vision",
            "category": "english",
            "thumbnail": "https://i.ytimg.com/vi/bx7dyln8-hA/hq720.jpg"
        },
        {
            "id": "GhlVcwE0ULM",
            "title": "TRANSFER STUDENT - Brain Jotter Nigerian Movies 2026 Latest Full Movies",
            "url": "https://www.youtube.com/watch?v=GhlVcwE0ULM",
            "duration": 3358.0,
            "view_count": 34980,
            "uploader": "Brain Jotter",
            "category": "english",
            "thumbnail": "https://i.ytimg.com/vi/GhlVcwE0ULM/hq720.jpg"
        },
        {
            "id": "-B4tGTXYA10",
            "title": "LAST IMPACT (2025) VIN DIESEL | Full Action Movie - Thriller - Adventure | 4K HDR #actionmovies",
            "url": "https://www.youtube.com/watch?v=-B4tGTXYA10",
            "duration": 6700.0,
            "view_count": 1094062,
            "uploader": "ZED Drama",
            "category": "english",
            "thumbnail": "https://i.ytimg.com/vi/-B4tGTXYA10/hq720.jpg"
        },
        {
            "id": "S1VAyhrzTcQ",
            "title": "Girl From Nowhere (2018) | Full Movie | Thriller Movie",
            "url": "https://www.youtube.com/watch?v=S1VAyhrzTcQ",
            "duration": 5128.0,
            "view_count": 466453,
            "uploader": "Indie Rights Movies For Free",
            "category": "english",
            "thumbnail": "https://i.ytimg.com/vi/S1VAyhrzTcQ/hq720.jpg"
        },
        {
            "id": "qWj3rH3Vl_M",
            "title": "LAST MAN RUNNING: THEY HUNTED HIM… HE HUNTED BACK | Full Action Movie | English",
            "url": "https://www.youtube.com/watch?v=qWj3rH3Vl_M",
            "duration": 5302.0,
            "view_count": 57190,
            "uploader": "ActionVault",
            "category": "english",
            "thumbnail": "https://i.ytimg.com/vi/qWj3rH3Vl_M/hq720.jpg"
        },
        {
            "id": "W5cVDDod5lE",
            "title": "POPEYE (2026) Dwayne Johnson | New Action Movie  | 4K HDR #actionmovies",
            "url": "https://www.youtube.com/watch?v=W5cVDDod5lE",
            "duration": 5400.0,
            "view_count": 782381,
            "uploader": "ZED Drama",
            "category": "english",
            "thumbnail": "https://i.ytimg.com/vi/W5cVDDod5lE/hq720.jpg"
        },
        {
            "id": "YFbNIx3ppGk",
            "title": "Magical adventure movie for the whole family | The Magician's Raincoat | New English fantasy movies",
            "url": "https://www.youtube.com/watch?v=YFbNIx3ppGk",
            "duration": 5360.0,
            "view_count": 4523303,
            "uploader": "TimeLensTV",
            "category": "english",
            "thumbnail": "https://i.ytimg.com/vi/YFbNIx3ppGk/hq720.jpg"
        },
        {
            "id": "sSLdscHLvow",
            "title": "Apocalypto part 2 Full Movie (2026) #apocalypse",
            "url": "https://www.youtube.com/watch?v=sSLdscHLvow",
            "duration": 6239.0,
            "view_count": 24448,
            "uploader": "Kronis Nera",
            "category": "english",
            "thumbnail": "https://i.ytimg.com/vi/sSLdscHLvow/hqdefault.jpg"
        },
        {
            "id": "C1Ur1bet1Lg",
            "title": "BONDERS (2026) Scott Adkins, Donnie Yen | Action - Thriller - Adventure Movie | 4K #actionmovies",
            "url": "https://www.youtube.com/watch?v=C1Ur1bet1Lg",
            "duration": 5545.0,
            "view_count": 46215,
            "uploader": "ZED Drama",
            "category": "english",
            "thumbnail": "https://i.ytimg.com/vi/C1Ur1bet1Lg/hq720.jpg"
        },
        {
            "id": "WTTLHWKguqE",
            "title": "MRS DOG : Angelina Jolie | New Action Movie 2026 | Full Movie 4K #actionmovies",
            "url": "https://www.youtube.com/watch?v=WTTLHWKguqE",
            "duration": 5545.0,
            "view_count": 350957,
            "uploader": "Joy Drama",
            "category": "english",
            "thumbnail": "https://i.ytimg.com/vi/WTTLHWKguqE/hq720.jpg"
        }
    ]
}