{
    "page": 1,
    "total_pages": 12,
    "total_items": 558,
    "items": [
        {
            "id": "7B29XrScy38",
            "title": "#AA23 Full Movie Hindi Dubbed | Allu Arjun | Irfan Pathan | Latest South Indian Action Movie 2026",
            "url": "https://www.youtube.com/watch?v=7B29XrScy38",
            "duration": 8672.0,
            "view_count": 923181,
            "uploader": "Moviewood Cinema",
            "category": "hindi",
            "thumbnail": "https://i.ytimg.com/vi/7B29XrScy38/hq720.jpg"
        },
        {
            "id": "66KGDoSGxKY",
            "title": "BHIKHARI Full Movie 2025 Hrithik Roshan’s Billionaire Transformation With Kajol &  Blockbusterd",
            "url": "https://www.youtube.com/watch?v=66KGDoSGxKY",
            "duration": 9374.0,
            "view_count": 4567717,
            "uploader": "Hindi Movies ",
            "category": "hindi",
            "thumbnail": "https://i.ytimg.com/vi/66KGDoSGxKY/hqdefault.jpg"
        },
        {
            "id": "6Q3DY0Ln50A",
            "title": "LAALACH Full Movie Hindi 🔥 | Akshay Kumar | Deepika Padukone | New Blockbuster",
            "url": "https://www.youtube.com/watch?v=6Q3DY0Ln50A",
            "duration": 8330.0,
            "view_count": 2143789,
            "uploader": "Tanvi Rao",
            "category": "hindi",
            "thumbnail": "https://i.ytimg.com/vi/6Q3DY0Ln50A/hqdefault.jpg"
        },
        {
            "id": "Qxq9zauCVAI",
            "title": "Mastiii 4 (2025) Hindi Full Movie | Starring Riteish Deshmukh, Vivek Oberoi, Aftab Shivdasani",
            "url": "https://www.youtube.com/watch?v=Qxq9zauCVAI",
            "duration": 6861.0,
            "view_count": 5380000,
            "uploader": "RG Entertainment",
            "category": "hindi",
            "thumbnail": "https://i.ytimg.com/vi/Qxq9zauCVAI/hq720.jpg"
        },
        {
            "id": "gyOFdkWx7j0",
            "title": "Mera Intkam Dekhegi - Shaadi Mein Zaroor Aana Full Movie With English Subtitle - Rajkumar Rao, Kriti",
            "url": "https://www.youtube.com/watch?v=gyOFdkWx7j0",
            "duration": 7837.0,
            "view_count": 50381317,
            "uploader": "Movies with Subtitle",
            "category": "hindi",
            "thumbnail": "https://i.ytimg.com/vi/gyOFdkWx7j0/hq720.jpg?sqp=-oaymwEcCNAFEJQDSFXyq4qpAw4IARUAAIhCGAFwAcABBg==&rs=AOn4CLD-Ny6f8C7AcPCpGNAgYmB1edAncw",
            "added_date": "2026-04-16T07:30:57.002160Z",
            "source": "youtube",
            "subtitles": "english"
        },
        {
            "id": "QnZkfDjBZFg",
            "title": "Housefull 5 (Full Movie) | Akshay Kumar, Riteish Deshmukh | New Hindi Comedy Film 2025",
            "url": "https://www.youtube.com/watch?v=QnZkfDjBZFg",
            "duration": 8135.0,
            "view_count": 19293735,
            "uploader": "CineVerse Entertainment",
            "category": "hindi",
            "thumbnail": "https://i.ytimg.com/vi/QnZkfDjBZFg/hq720.jpg?sqp=-oaymwEcCNAFEJQDSFXyq4qpAw4IARUAAIhCGAFwAcABBg==&rs=AOn4CLB20xnjQ2dlg0jqeiaEB95WwcWRYQ",
            "added_date": "2026-04-16T07:30:55.799882Z",
            "source": "youtube"
        },
        {
            "id": "FEQ2Ek_ef6I",
            "title": "Hum Do Hamare Do Full Movie | Rajkummar Rao | Kriti Sanon | Paresh Rawal",
            "url": "https://www.youtube.com/watch?v=FEQ2Ek_ef6I",
            "duration": 4365.0,
            "view_count": 7582981,
            "uploader": "Tanvi Rao",
            "category": "hindi",
            "thumbnail": "https://i.ytimg.com/vi/FEQ2Ek_ef6I/hq720.jpg"
        },
        {
            "id": "T9W742IKCHg",
            "title": "Blackmail (Full Movie) | Irrfan Khan | Kirti Kulhari, Divya Dutta, Arunoday Singh, Omi Vaidya",
            "url": "https://www.youtube.com/watch?v=T9W742IKCHg",
            "duration": 8250.0,
            "view_count": 11674731,
            "uploader": "T-Series",
            "category": "hindi",
            "thumbnail": "https://i.ytimg.com/vi/T9W742IKCHg/hq720.jpg"
        },
        {
            "id": "wjVLnrdoP2o",
            "title": "Vijaybhava: The Rise of Kingdom (2026) New Released Full Hindi Dubbed Movie | Vijay Deverakonda",
            "url": "https://www.youtube.com/watch?v=wjVLnrdoP2o",
            "duration": 8606.0,
            "view_count": 4921333,
            "uploader": "SDE Movieplex",
            "category": "hindi",
            "thumbnail": "https://i.ytimg.com/vi/wjVLnrdoP2o/hq720.jpg"
        },
        {
            "id": "hy5SGZ_dnVk",
            "title": "Wanted Full Movie Hindi HD | Salman Khan | Ayesha Takia | Prakash Raj | Action Thriller",
            "url": "https://www.youtube.com/watch?v=hy5SGZ_dnVk",
            "duration": 7658.0,
            "view_count": 4512992,
            "uploader": "Prince Yuvraj Sen 09",
            "category": "hindi",
            "thumbnail": "https://i.ytimg.com/vi/hy5SGZ_dnVk/hq720.jpg"
        },
        {
            "id": "cD-TLEshy5g",
            "title": "Cocktail | Full Hindi Movie | Saif Ali Khan, Deepika Padukone, Diana Penty | Romantic Drama",
            "url": "https://www.youtube.com/watch?v=cD-TLEshy5g",
            "duration": 8689.0,
            "view_count": 2554072,
            "uploader": "Eros Universe Big Picture",
            "category": "hindi",
            "thumbnail": "https://i.ytimg.com/vi/cD-TLEshy5g/hq720.jpg?sqp=-oaymwEcCNAFEJQDSFXyq4qpAw4IARUAAIhCGAFwAcABBg==&rs=AOn4CLCGzP9CV1K5pldWkhoxfJN9FAA7-A",
            "added_date": "2026-04-16T07:30:55.599515Z",
            "source": "youtube"
        },
        {
            "id": "IHGfZGEI17U",
            "title": "EXPERIMENT Full Movie Hindi Dubbed | Prabhas & Arjun Rampal | Latest South Indian Action Movie 2026",
            "url": "https://www.youtube.com/watch?v=IHGfZGEI17U",
            "duration": 7644.0,
            "view_count": 4872,
            "uploader": "Moviewood Cinema",
            "category": "hindi",
            "thumbnail": "https://i.ytimg.com/vi/IHGfZGEI17U/hq720.jpg"
        },
        {
            "id": "-V6tMjTlow0",
            "title": "MR WHITE MR BLACK Full Movie | New (2025) Released Bollywood Hindi Movie | Bollywood Comedy Movie",
            "url": "https://www.youtube.com/watch?v=-V6tMjTlow0",
            "duration": 7243.0,
            "view_count": 6929400,
            "uploader": "Netplex Movies 2026",
            "category": "hindi",
            "thumbnail": "https://i.ytimg.com/vi/-V6tMjTlow0/hq720.jpg"
        },
        {
            "id": "KIBoyg_BEmo",
            "title": "‎laapataa ladies full movie | laapataa ladies | laapataa ladies full movie in Hindi‎",
            "url": "https://www.youtube.com/watch?v=KIBoyg_BEmo",
            "duration": 6653.0,
            "view_count": 561449,
            "uploader": "SOFT WAVE",
            "category": "hindi",
            "thumbnail": "https://i.ytimg.com/vi/KIBoyg_BEmo/hqdefault.jpg"
        },
        {
            "id": "3z6ceeN0k_c",
            "title": "BHIKHARI | New Hindi Movie 2026 - Hrithik Roshan & Kajol Devgan | New Bollywood Full Action Movies",
            "url": "https://www.youtube.com/watch?v=3z6ceeN0k_c",
            "duration": 8773.0,
            "view_count": 14209488,
            "uploader": "Plastic Cinema",
            "category": "hindi",
            "thumbnail": "https://i.ytimg.com/vi/3z6ceeN0k_c/hq720.jpg"
        },
        {
            "id": "QI_GAkSKI8s",
            "title": "Vinaya Vidheya Rama (2025) | Ram Charan, Kiara Advani Hindi Dubbed Action Movie | Full HD",
            "url": "https://www.youtube.com/watch?v=QI_GAkSKI8s",
            "duration": 7453.0,
            "view_count": 9017,
            "uploader": "PlayNation",
            "category": "hindi",
            "thumbnail": "https://i.ytimg.com/vi/QI_GAkSKI8s/hq720.jpg"
        },
        {
            "id": "JxVENjUzYbU",
            "title": "Suraj Pe Mangal Bhari - Hindi Full Movie - Manoj Bajpayee, Diljit Dosanjh, Fatima Sana Shaikh",
            "url": "https://www.youtube.com/watch?v=JxVENjUzYbU",
            "duration": 8024.0,
            "view_count": 7302624,
            "uploader": "Zee Movies Hindi",
            "category": "hindi",
            "thumbnail": "https://i.ytimg.com/vi/JxVENjUzYbU/hqdefault.jpg"
        },
        {
            "id": "DVJeBl83Tdw",
            "title": "14 Phere - Hindi Full Movie - Vikrant Massey, Kriti Kharbanda, Gauahar Khan,",
            "url": "https://www.youtube.com/watch?v=DVJeBl83Tdw",
            "duration": 6709.0,
            "view_count": 3726416,
            "uploader": "Zee Movies Hindi",
            "category": "hindi",
            "thumbnail": "https://i.ytimg.com/vi/DVJeBl83Tdw/hq720.jpg"
        },
        {
            "id": "ZOOofT_rRz8",
            "title": "OG: Gangster (2026) | Pawan Kalyan, Emran Hashmi Hindi Dubbed Action Crime Movie | Full HD Movie",
            "url": "https://www.youtube.com/watch?v=ZOOofT_rRz8",
            "duration": 9063.0,
            "view_count": 4142989,
            "uploader": "THE MOVIE WORLD",
            "category": "hindi",
            "thumbnail": "https://i.ytimg.com/vi/ZOOofT_rRz8/hq720.jpg"
        },
        {
            "id": "qyNeS_hFyxk",
            "title": "Chhaavaa (2025) Rashmika mandanna Hindi Dubbed Full Action Movie | South Blockbuster | Full HD Movie",
            "url": "https://www.youtube.com/watch?v=qyNeS_hFyxk",
            "duration": 8633.0,
            "view_count": 4152043,
            "uploader": "XYZ Movie Cinema and 2 more",
            "category": "hindi",
            "thumbnail": "https://i.ytimg.com/vi/qyNeS_hFyxk/hqdefault.jpg"
        },
        {
            "id": "ei1iMMtrRmk",
            "title": "AJGAR Full Movie Hindi Dubbed | Thalapathy Vijay, Pooja Hegde | Latest South Indian Snake Movie 2026",
            "url": "https://www.youtube.com/watch?v=ei1iMMtrRmk",
            "duration": 6524.0,
            "view_count": 124607,
            "uploader": "Moviewood Cinema",
            "category": "hindi",
            "thumbnail": "https://i.ytimg.com/vi/ei1iMMtrRmk/hq720.jpg"
        },
        {
            "id": "nVsdY07_2Tk",
            "title": "YODHA NO.1 - Prabhas & Sreeleela New Full Action Movie 2025 | South Indian Hindi Dubbed Latest Movie",
            "url": "https://www.youtube.com/watch?v=nVsdY07_2Tk",
            "duration": 8424.0,
            "view_count": 6456650,
            "uploader": "Pital Picture",
            "category": "hindi",
            "thumbnail": "https://i.ytimg.com/vi/nVsdY07_2Tk/hq720.jpg"
        },
        {
            "id": "2YmQ7rU8faA",
            "title": "Thalapathy Vijay & Pooja Hegde Full Action Movie \"IRAAN\" Latest South Indian Hindi Dubbed Movie 2026",
            "url": "https://www.youtube.com/watch?v=2YmQ7rU8faA",
            "duration": 8582.0,
            "view_count": 107360,
            "uploader": "Moviewood Cinema",
            "category": "hindi",
            "thumbnail": "https://i.ytimg.com/vi/2YmQ7rU8faA/hq720.jpg"
        },
        {
            "id": "eswW2BoFAUs",
            "title": "Rockstar - Full Movie 8K/4K | Ranbir Kapoor | Nargis Fakhri | A.R. Rahman | Hindi Romantic Movie",
            "url": "https://www.youtube.com/watch?v=eswW2BoFAUs",
            "duration": 9467.0,
            "view_count": 812661,
            "uploader": "Eros Universe",
            "category": "hindi",
            "thumbnail": "https://i.ytimg.com/vi/eswW2BoFAUs/hq720.jpg"
        },
        {
            "id": "WlbP32Kf2NQ",
            "title": "Love Aaj Kal (2009) Full Movie HD | Saif Ali Khan | Deepika Padukone | Superhit Romantic Film",
            "url": "https://www.youtube.com/watch?v=WlbP32Kf2NQ",
            "duration": 7393.0,
            "view_count": 1200561,
            "uploader": "Eros Universe",
            "category": "hindi",
            "thumbnail": "https://i.ytimg.com/vi/WlbP32Kf2NQ/hq720.jpg"
        },
        {
            "id": "Gf8uOxGy9Zw",
            "title": "Thalapathy Vijay & Anushka Shetty Full Action Movie \"Daheshat\" Latest South Indian Hindi Dubb Movie",
            "url": "https://www.youtube.com/watch?v=Gf8uOxGy9Zw",
            "duration": 8506.0,
            "view_count": 12361684,
            "uploader": "Movie Forever",
            "category": "hindi",
            "thumbnail": "https://i.ytimg.com/vi/Gf8uOxGy9Zw/hq720.jpg"
        },
        {
            "id": "CFacnB_kcpU",
            "title": "Prabhas New Released Full Action Movie 2026 | The Ultimate Fighter | Latest South Indian Hindi Movie",
            "url": "https://www.youtube.com/watch?v=CFacnB_kcpU",
            "duration": 8808.0,
            "view_count": 1456076,
            "uploader": "Super High Pictures",
            "category": "hindi",
            "thumbnail": "https://i.ytimg.com/vi/CFacnB_kcpU/hq720.jpg"
        },
        {
            "id": "_QY8bzgqIlw",
            "title": "PHANTOM HD FULL MOVIE 2015 SAIF ALI KHAN KATRINA KAIF",
            "url": "https://www.youtube.com/watch?v=_QY8bzgqIlw",
            "duration": 8048.0,
            "view_count": 398895,
            "uploader": "ANIKET JOY",
            "category": "hindi",
            "thumbnail": "https://i.ytimg.com/vi/_QY8bzgqIlw/hqdefault.jpg"
        },
        {
            "id": "tOaWXaRXGUg",
            "title": "Pushpa 2 reloaded full movie 4k 2160p Hindi  ‎  No clickbait",
            "url": "https://www.youtube.com/watch?v=tOaWXaRXGUg",
            "duration": 12983.0,
            "view_count": 20259154,
            "uploader": "SHIVAM CREATIONS SY",
            "category": "hindi",
            "thumbnail": "https://i.ytimg.com/vi/tOaWXaRXGUg/hq720.jpg"
        },
        {
            "id": "zzhfvt5vZHI",
            "title": "Dear Comrade (2020) New Released Hindi Dubbed Full Movie | Vijay Devarakonda, Rashmika, Shruti",
            "url": "https://www.youtube.com/watch?v=zzhfvt5vZHI",
            "duration": 9055.0,
            "view_count": 447917838,
            "uploader": "Goldmines",
            "category": "hindi",
            "thumbnail": "https://i.ytimg.com/vi/zzhfvt5vZHI/hq720.jpg"
        },
        {
            "id": "fns58UegE_A",
            "title": "ASSI Full Movie Hindi | Taapsee Pannu | Psychological Thriller Drama | New Release South movie Hindi",
            "url": "https://www.youtube.com/watch?v=fns58UegE_A",
            "duration": 7966.0,
            "view_count": 552894,
            "uploader": "Cinema Dunniya",
            "category": "hindi",
            "thumbnail": "https://i.ytimg.com/vi/fns58UegE_A/hq720.jpg"
        },
        {
            "id": "aNHRW48e1No",
            "title": "BHIKHARI Full Movie 2026 | Hrithik Roshan & Kajol Devgan | New Bollywood Full Action Movie 2026",
            "url": "https://www.youtube.com/watch?v=aNHRW48e1No",
            "duration": 8652.0,
            "view_count": 1858636,
            "uploader": "Bollwood Cinema Hindi",
            "category": "hindi",
            "thumbnail": "https://i.ytimg.com/vi/aNHRW48e1No/hq720.jpg"
        },
        {
            "id": "D-84ec24FZg",
            "title": "PREM VIVAH Full Comedy Movie 2026 | Rajkumar Rao, Vijay Raaz, Kangana Ranaut |Latest Bollywood Movie",
            "url": "https://www.youtube.com/watch?v=D-84ec24FZg",
            "duration": 5321.0,
            "view_count": 201642,
            "uploader": "Entertainment Hub",
            "category": "hindi",
            "thumbnail": "https://i.ytimg.com/vi/D-84ec24FZg/hq720.jpg"
        },
        {
            "id": "dEAzbjMBBQ0",
            "title": "BHIKHARI | New Hindi Movie 2026 - Hrithik Roshan & Kajol Devgan | New Bollywood Full Action Movies",
            "url": "https://www.youtube.com/watch?v=dEAzbjMBBQ0",
            "duration": 8652.0,
            "view_count": 1040044,
            "uploader": "Entertainment Hub",
            "category": "hindi",
            "thumbnail": "https://i.ytimg.com/vi/dEAzbjMBBQ0/hq720.jpg"
        },
        {
            "id": "Vh3D3Syk7yc",
            "title": "Bahubali The Epic Full Movie In Hindi | Prabhas | S.S Rajamouli | Movie Zone ",
            "url": "https://www.youtube.com/watch?v=Vh3D3Syk7yc",
            "duration": 13434.0,
            "view_count": 7093936,
            "uploader": "Movie Zone",
            "category": "hindi",
            "thumbnail": "https://i.ytimg.com/vi/Vh3D3Syk7yc/hq720.jpg"
        },
        {
            "id": "Ny3dlom0ZW4",
            "title": "Geetha Govindam Full Movie In Hindi Dubbed Vijay Devarakonda & Rashmika Mandanna | Facts And Review",
            "url": "https://www.youtube.com/watch?v=Ny3dlom0ZW4",
            "duration": 7651.0,
            "view_count": 3843047,
            "uploader": "MANNU GMR",
            "category": "hindi",
            "thumbnail": "https://i.ytimg.com/vi/Ny3dlom0ZW4/hqdefault.jpg"
        },
        {
            "id": "IH50AozQNXE",
            "title": "Border 2 full movie, BORDER 2 original full hindi movie ",
            "url": "https://www.youtube.com/watch?v=IH50AozQNXE",
            "duration": 7465.0,
            "view_count": 3848845,
            "uploader": "SOUTH CENEMA ",
            "category": "hindi",
            "thumbnail": "https://i.ytimg.com/vi/IH50AozQNXE/hqdefault.jpg"
        },
        {
            "id": "89yF66bL97Q",
            "title": "DADDY Hindi Dubbed Full Movie | Ravi Teja Powerful Action Drama | South Indian Movie | Full HD 2026",
            "url": "https://www.youtube.com/watch?v=89yF66bL97Q",
            "duration": 7208.0,
            "view_count": 4815358,
            "uploader": "Duroflex Action",
            "category": "hindi",
            "thumbnail": "https://i.ytimg.com/vi/89yF66bL97Q/hq720.jpg"
        },
        {
            "id": "PCPttT1ALmc",
            "title": "PAATHSHAALA\" (Comedy Movie) Full HD Hindi Movie | Shahid Kapoor & Ayesha Takia New Bollywood Movie",
            "url": "https://www.youtube.com/watch?v=PCPttT1ALmc",
            "duration": 6240.0,
            "view_count": 3521484,
            "uploader": "RDC Bollywood Buzz",
            "category": "hindi",
            "thumbnail": "https://i.ytimg.com/vi/PCPttT1ALmc/hq720.jpg"
        },
        {
            "id": "xlpR1TMSt5o",
            "title": "Cocktail - Full Movie (HD)| Saif Ali Khan, Deepika Padukone, Diana Penty | Superhit Romantic Movie",
            "url": "https://www.youtube.com/watch?v=xlpR1TMSt5o",
            "duration": 8689.0,
            "view_count": 5193915,
            "uploader": "Eros Universe",
            "category": "hindi",
            "thumbnail": "https://i.ytimg.com/vi/xlpR1TMSt5o/hq720.jpg?sqp=-oaymwEcCNAFEJQDSFXyq4qpAw4IARUAAIhCGAFwAcABBg==&rs=AOn4CLAGuGl3Hy8aniIkpStLwVJPPDI3RA",
            "added_date": "2026-04-16T07:30:56.601385Z",
            "source": "youtube"
        },
        {
            "id": "YgDsb6p-h3c",
            "title": "Desi Boyz (2011) - Full Movie 8K/4K | Akshay K, John A, Deepika P, Chitangada S | Rohit Dhawan",
            "url": "https://www.youtube.com/watch?v=YgDsb6p-h3c",
            "duration": 7315.0,
            "view_count": 1018318,
            "uploader": "Eros Universe",
            "category": "hindi",
            "thumbnail": "https://i.ytimg.com/vi/YgDsb6p-h3c/hq720.jpg"
        },
        {
            "id": "rgBQ_q7PmJw",
            "title": "KAAL 2 Full Movie In Hindi Dubbed | Prabhas, Rashmika Mandanna | New South Indian Hindi Dubbed Movie",
            "url": "https://www.youtube.com/watch?v=rgBQ_q7PmJw",
            "duration": 8424.0,
            "view_count": 1807881,
            "uploader": "Movie Record South",
            "category": "hindi",
            "thumbnail": "https://i.ytimg.com/vi/rgBQ_q7PmJw/hq720.jpg"
        },
        {
            "id": "Iy-6jmQCcrI",
            "title": "Raabta (Full Movie): Sushant Singh Rajput | Kriti Sanon | Rajkummar Rao | Jim Sarbh | Varun Sharma",
            "url": "https://www.youtube.com/watch?v=Iy-6jmQCcrI",
            "duration": 8686.0,
            "view_count": 34780778,
            "uploader": "T-Series",
            "category": "hindi",
            "thumbnail": "https://i.ytimg.com/vi/Iy-6jmQCcrI/hq720.jpg"
        },
        {
            "id": "4AqmyKfHYp4",
            "title": "UDAIPUR FILES | KANHAIYA LAL TAILOR MURDER | FULL MOVIE | BHARAT S. SHRINATE | AMIT JANI| VIJAY RAAZ",
            "url": "https://www.youtube.com/watch?v=4AqmyKfHYp4",
            "duration": 5613.0,
            "view_count": 5412,
            "uploader": "Jani Firefox Films",
            "category": "hindi",
            "thumbnail": "https://i.ytimg.com/vi/4AqmyKfHYp4/hq720.jpg"
        },
        {
            "id": "ZX5dS3VDqgY",
            "title": "Govinda Superhit Hero No.1 (1997) Hindi Full Movie 4K | 90s Karisma Kapoor, Kader Khan, Paresh Rawal",
            "url": "https://www.youtube.com/watch?v=ZX5dS3VDqgY",
            "duration": 8257.0,
            "view_count": 2094851,
            "uploader": "Ultra 4K Movies",
            "category": "hindi",
            "thumbnail": "https://i.ytimg.com/vi/ZX5dS3VDqgY/hq720.jpg"
        },
        {
            "id": "VDFys9V9poQ",
            "title": "Extra Ordinary Man Hindi Dubbed Full Movie 2025 | Nithiin | Sreeleela | Rajasekhar | South New Movie",
            "url": "https://www.youtube.com/watch?v=VDFys9V9poQ",
            "duration": 8721.0,
            "view_count": 101023633,
            "uploader": "Aditya Movies and Aditya Dumdaar Dubbed Movies",
            "category": "hindi",
            "thumbnail": "https://i.ytimg.com/vi/VDFys9V9poQ/hq720.jpg"
        },
        {
            "id": "EbmpoWkA4N4",
            "title": "Manikarnika: The Queen of Jhansi - Kangana Ranaut - Superhit Hindi Action Full Movie",
            "url": "https://www.youtube.com/watch?v=EbmpoWkA4N4",
            "duration": 7799.0,
            "view_count": 12277833,
            "uploader": "Bollywood Premium",
            "category": "hindi",
            "thumbnail": "https://i.ytimg.com/vi/EbmpoWkA4N4/hq720.jpg"
        },
        {
            "id": "XMNsp5cpZEg",
            "title": "Mom (2017) - Superhit Hindi Movie With English Subtitles | Sridevi, Sajal Ali & Nawazuddin",
            "url": "https://www.youtube.com/watch?v=XMNsp5cpZEg",
            "duration": 8804.0,
            "view_count": 10217218,
            "uploader": "Bollywood Premium",
            "category": "hindi",
            "thumbnail": "https://i.ytimg.com/vi/XMNsp5cpZEg/hq720.jpg"
        },
        {
            "id": "IHod3HPfYVw",
            "title": "INDIAN IN PAKISTAN (Full Movie) Shahid Kapoor | Deepika Padukone | New Bollywood Action Movie 2026",
            "url": "https://www.youtube.com/watch?v=IHod3HPfYVw",
            "duration": 7978.0,
            "view_count": 3316670,
            "uploader": "Moviewood Cinema",
            "category": "hindi",
            "thumbnail": "https://i.ytimg.com/vi/IHod3HPfYVw/hq720.jpg"
        },
        {
            "id": "PCs4ArcEYpA",
            "title": "Doctor G | Full Movie 2022 | 1080p full HD New Hindi Bollywood movie | Ayushman Khurrana",
            "url": "https://www.youtube.com/watch?v=PCs4ArcEYpA",
            "duration": 7278.0,
            "view_count": 1367224,
            "uploader": "Tanvi Rao",
            "category": "hindi",
            "thumbnail": "https://i.ytimg.com/vi/PCs4ArcEYpA/hq720.jpg"
        }
    ]
}