{
    "page": 9,
    "total_pages": 12,
    "total_items": 558,
    "items": [
        {
            "id": "KNKlg2G2yu4",
            "title": "Dhurandhar 2 The Revenge (2026) Full Hindi Dubbed Movie | Powerful Action Thriller HD ",
            "url": "https://www.youtube.com/watch?v=KNKlg2G2yu4",
            "duration": 13493.0,
            "view_count": 6151,
            "uploader": "Kartik jerry ",
            "category": "hindi",
            "thumbnail": "https://i.ytimg.com/vi/KNKlg2G2yu4/hq720.jpg"
        },
        {
            "id": "MzzVRjptphE",
            "title": "Salam-E-Ishq (HD) Full Movie | Salman Khan, Priyanka Chopra, Anil Kapoor, Juhi Chawla, John Abraham",
            "url": "https://www.youtube.com/watch?v=MzzVRjptphE",
            "duration": 12465.0,
            "view_count": 7878993,
            "uploader": "Eros Universe Big Picture",
            "category": "hindi",
            "thumbnail": "https://i.ytimg.com/vi/MzzVRjptphE/hq720.jpg"
        },
        {
            "id": "XG9U_elK3Cw",
            "title": "Devdas (2002) Full Movie in 8K/4K Ultra HD | SRK, Aishwarya & Madhuri | Most Tragic Love Story",
            "url": "https://www.youtube.com/watch?v=XG9U_elK3Cw",
            "duration": 10996.0,
            "view_count": 13641155,
            "uploader": "Eros Universe",
            "category": "hindi",
            "thumbnail": "https://i.ytimg.com/vi/XG9U_elK3Cw/hq720.jpg"
        },
        {
            "id": "zloKjQXmwhE",
            "title": "Bhagam Bhag 2006 (HD) - Full Movie - Superhit Comedy Movie - Akshay Kumar - Govinda -  Paresh Rawal",
            "url": "https://www.youtube.com/watch?v=zloKjQXmwhE",
            "duration": 9510.0,
            "view_count": 119498154,
            "uploader": "Shemaroo Comedy",
            "category": "hindi",
            "thumbnail": "https://i.ytimg.com/vi/zloKjQXmwhE/hqdefault.jpg"
        },
        {
            "id": "XlqyAJ1iWkw",
            "title": "Allu Arjun | New (2026) Released South Indian Movie Dubbed In Hindi | Action Hindi Dubbed Movie",
            "url": "https://www.youtube.com/watch?v=XlqyAJ1iWkw",
            "duration": 6459.0,
            "view_count": 8986,
            "uploader": "South Ki Movie",
            "category": "hindi",
            "thumbnail": "https://i.ytimg.com/vi/XlqyAJ1iWkw/hq720.jpg"
        },
        {
            "id": "CD8G8DlLFhk",
            "title": "Dhurandhar 2 (2026) Movie Hindi | Ranveer Singh | Sara Ali Khan 🔥",
            "url": "https://www.youtube.com/watch?v=CD8G8DlLFhk",
            "duration": 13513.0,
            "view_count": 1320,
            "uploader": "Filmy Kida  and 3D Animation176",
            "category": "hindi",
            "thumbnail": "https://i.ytimg.com/vi/CD8G8DlLFhk/hqdefault.jpg"
        },
        {
            "id": "3l7hYrvXKYA",
            "title": "Kabhi Khushi Kabhie Gham | Full Movie | Shah Rukh Khan, Kajol, Hrithik | K3G | Karan Johar Film",
            "url": "https://www.youtube.com/watch?v=3l7hYrvXKYA",
            "duration": 7047.0,
            "view_count": 16496,
            "uploader": "Saira Anis Official",
            "category": "hindi",
            "thumbnail": "https://i.ytimg.com/vi/3l7hYrvXKYA/hqdefault.jpg"
        },
        {
            "id": "4CqU55m5cRo",
            "title": "Ek Seedha Doctor Bana Khatarnaak 😱 SALIM | Full Movie Hindi Dubbed | Must Watch Movie",
            "url": "https://www.youtube.com/watch?v=4CqU55m5cRo",
            "duration": 7431.0,
            "view_count": 124177,
            "uploader": "Romantic Films",
            "category": "hindi",
            "thumbnail": "https://i.ytimg.com/vi/4CqU55m5cRo/hq720.jpg"
        },
        {
            "id": "cC6lgZesvbI",
            "title": "HATE STORY 4 (4K Full Movie): Urvashi Rautela, Vivan, Karan Wahi, Ihana Dhillon, Gulshan Grover",
            "url": "https://www.youtube.com/watch?v=cC6lgZesvbI",
            "duration": 7718.0,
            "view_count": 204637,
            "uploader": "T-Series",
            "category": "hindi",
            "thumbnail": "https://i.ytimg.com/vi/cC6lgZesvbI/hq720.jpg"
        },
        {
            "id": "2XVTycmEBuE",
            "title": "MAALKIN 2 Full Movie | Ajay Devgan | Kareena Kapoor | Sushmita Sen | Latest Bollywood Movie 2026",
            "url": "https://www.youtube.com/watch?v=2XVTycmEBuE",
            "duration": 8954.0,
            "view_count": 535566,
            "uploader": "4x Cinema",
            "category": "hindi",
            "thumbnail": "https://i.ytimg.com/vi/2XVTycmEBuE/hq720.jpg"
        },
        {
            "id": "ixEg9LQIBAM",
            "title": "Jamai Raja (1990) Full Movie HD | Anil Kapoor | Madhuri Dixit | Hema Malini | Hindi Movie",
            "url": "https://www.youtube.com/watch?v=ixEg9LQIBAM",
            "duration": 8636.0,
            "view_count": 8752,
            "uploader": "Hindi Movies",
            "category": "hindi",
            "thumbnail": "https://i.ytimg.com/vi/ixEg9LQIBAM/hq720.jpg"
        },
        {
            "id": "O2rkMPfxNaw",
            "title": "OPERATION KARACHI: THE UNDERCOVER AGENT - Hindi Dubbed Full Movie | Gopichand, Zareen | Action Movie",
            "url": "https://www.youtube.com/watch?v=O2rkMPfxNaw",
            "duration": 7596.0,
            "view_count": 42473,
            "uploader": "Action Movies Digiplex",
            "category": "hindi",
            "thumbnail": "https://i.ytimg.com/vi/O2rkMPfxNaw/hq720.jpg"
        },
        {
            "id": "CYzbkosUPoQ",
            "title": "Dhurandhar 2 full movie Hindi dubbed. Please like . This is real movie . Please watch ",
            "url": "https://www.youtube.com/watch?v=CYzbkosUPoQ",
            "duration": 13251.0,
            "view_count": 255,
            "uploader": "NOOB_GAMERZ",
            "category": "hindi",
            "thumbnail": "https://i.ytimg.com/vi/CYzbkosUPoQ/hq720.jpg"
        },
        {
            "id": "pFaI-pK0D70",
            "title": "#AK65 Full Movie Hindi Dubbed | Ajith Kumar | Jagapathi Babu | Latest South Indian Action Movie 2026",
            "url": "https://www.youtube.com/watch?v=pFaI-pK0D70",
            "duration": 7342.0,
            "view_count": 1357,
            "uploader": "FullOn Blockbuster",
            "category": "hindi",
            "thumbnail": "https://i.ytimg.com/vi/pFaI-pK0D70/hq720.jpg"
        },
        {
            "id": "nojHypcGzgQ",
            "title": "Wanted Hindi Full Movie | Salman Khan, Ayesha Takia | Full HD Bollywood Movie",
            "url": "https://www.youtube.com/watch?v=nojHypcGzgQ",
            "duration": 7658.0,
            "view_count": 90832,
            "uploader": "Gulshan kalra official",
            "category": "hindi",
            "thumbnail": "https://i.ytimg.com/vi/nojHypcGzgQ/hq720.jpg"
        },
        {
            "id": "3pOGISIUg54",
            "title": "Mastiii 4 Hindi Full Movie | Riteish Deshmukh, Vivek Oberoi | Fun Action Comedy HD",
            "url": "https://www.youtube.com/watch?v=3pOGISIUg54",
            "duration": 7248.0,
            "view_count": 697,
            "uploader": "Azhan5star",
            "category": "hindi",
            "thumbnail": "https://i.ytimg.com/vi/3pOGISIUg54/hq720.jpg"
        },
        {
            "id": "rzaxbBJdSCY",
            "title": "Love Aaj Kal (2009) | Saif Ali Khan, Deepika Padukone | Romantic Blockbuster | Hindi Full Movie (HD)",
            "url": "https://www.youtube.com/watch?v=rzaxbBJdSCY",
            "duration": 7393.0,
            "view_count": 113285,
            "uploader": "Eros Universe Cineplex",
            "category": "hindi",
            "thumbnail": "https://i.ytimg.com/vi/rzaxbBJdSCY/hq720.jpg"
        },
        {
            "id": "fUpmW5XwTvE",
            "title": "Businessman 2 | New (2026) Released South Indian Movie Dubbed In Hindi | Ram Pothineni Action Movie",
            "url": "https://www.youtube.com/watch?v=fUpmW5XwTvE",
            "duration": 9080.0,
            "view_count": 29700,
            "uploader": "Netplex Movies 2026",
            "category": "hindi",
            "thumbnail": "https://i.ytimg.com/vi/fUpmW5XwTvE/hq720.jpg"
        },
        {
            "id": "BuXC_GJ5ZFA",
            "title": "\"Golimaar\" New Released Hindi Dubbed Full  Movie |New Hindi Dubbed Movie 2022 |Gopichand, Priyamani",
            "url": "https://www.youtube.com/watch?v=BuXC_GJ5ZFA",
            "duration": 7926.0,
            "view_count": 47306427,
            "uploader": "Aditya Movies",
            "category": "hindi",
            "thumbnail": "https://i.ytimg.com/vi/BuXC_GJ5ZFA/hq720.jpg"
        },
        {
            "id": "jaKvU3A28vY",
            "title": "English Vinglish | Superhit Full Hindi Movie | Sridevi, Adil Hussain, Mehdi Nebbou (HD)",
            "url": "https://www.youtube.com/watch?v=jaKvU3A28vY",
            "duration": 7700.0,
            "view_count": 4276771,
            "uploader": "Eros Universe Big Picture",
            "category": "hindi",
            "thumbnail": "https://i.ytimg.com/vi/jaKvU3A28vY/hq720.jpg"
        },
        {
            "id": "ZKaGh16uiuI",
            "title": "Dhurandhar The Revenge 2026 Uncensored Hindi Movie 1080p HDTC Full Movie [with ads]",
            "url": "https://www.youtube.com/watch?v=ZKaGh16uiuI",
            "duration": 13933.0,
            "view_count": 360,
            "uploader": "Gold Cinema Studios",
            "category": "hindi",
            "thumbnail": "https://i.ytimg.com/vi/ZKaGh16uiuI/hqdefault.jpg"
        },
        {
            "id": "tEmQGkyorXw",
            "title": "DQ41 Hindi Dubbed Full Movie | Dulquer Salmaan Action South Blockbuster HD Film",
            "url": "https://www.youtube.com/watch?v=tEmQGkyorXw",
            "duration": 9600.0,
            "view_count": 2722817,
            "uploader": "Monk Movies",
            "category": "hindi",
            "thumbnail": "https://i.ytimg.com/vi/tEmQGkyorXw/hq720.jpg"
        },
        {
            "id": "gELNZpmyqAI",
            "title": "Vadh (Official Full Movie) | Sanjay Mishra | Neena Gupta | Saurabh Sachdeva | Manav Vij | Luv Films",
            "url": "https://www.youtube.com/watch?v=gELNZpmyqAI",
            "duration": 6598.0,
            "view_count": 17000689,
            "uploader": "Luv Films",
            "category": "hindi",
            "thumbnail": "https://i.ytimg.com/vi/gELNZpmyqAI/hq720.jpg"
        },
        {
            "id": "dAApza3D4uA",
            "title": "Superhit New (2026) South Indian Action Movie | Hindi Dubbed Film | Blockbuster Full HD Mass Action",
            "url": "https://www.youtube.com/watch?v=dAApza3D4uA",
            "duration": 9869.0,
            "view_count": 60400,
            "uploader": "Chauhan Films",
            "category": "hindi",
            "thumbnail": "https://i.ytimg.com/vi/dAApza3D4uA/hq720.jpg"
        },
        {
            "id": "Ba97yuMu-aY",
            "title": "Pardes Full Movie 4K - परदेस (1997) - Shah Rukh Khan - Mahima Chaudhry - Amrish Puri",
            "url": "https://www.youtube.com/watch?v=Ba97yuMu-aY",
            "duration": 10782.0,
            "view_count": 30704448,
            "uploader": "PlayMovies",
            "category": "hindi",
            "thumbnail": "https://i.ytimg.com/vi/Ba97yuMu-aY/hq720.jpg"
        },
        {
            "id": "9xaxH4-H7qM",
            "title": "Laapataa ladies hindi full movie HD 1080 p",
            "url": "https://www.youtube.com/watch?v=9xaxH4-H7qM",
            "duration": 7422.0,
            "view_count": 925852,
            "uploader": "SM INDIAN",
            "category": "hindi",
            "thumbnail": "https://i.ytimg.com/vi/9xaxH4-H7qM/hqdefault.jpg"
        },
        {
            "id": "MoNhL6UGAzM",
            "title": "Ghajini Hindi Full Movie - Amir Khan - Asin - Pradeep Rawat - Ultimate Action Blockbuster Film",
            "url": "https://www.youtube.com/watch?v=MoNhL6UGAzM",
            "duration": 10686.0,
            "view_count": 16309606,
            "uploader": "Filmy Deewane",
            "category": "hindi",
            "thumbnail": "https://i.ytimg.com/vi/MoNhL6UGAzM/hq720.jpg"
        },
        {
            "id": "Xu1_5o-EE8s",
            "title": "DHURANDHAR 2 FULL MOVIE IN HINDI DUBBED (2026) 🔥Starring Ranveer Singh & Akshay Khanna #DHURANDHAR ",
            "url": "https://www.youtube.com/watch?v=Xu1_5o-EE8s",
            "duration": 13738.0,
            "view_count": 1787,
            "uploader": "Traffic  smasher",
            "category": "hindi",
            "thumbnail": "https://i.ytimg.com/vi/Xu1_5o-EE8s/hqdefault.jpg"
        },
        {
            "id": "OHKJVY4pDTQ",
            "title": "Maaya Full Movie | Thalapathy Vijay | Sai Pallavi | New Released South Indian Action Hd Movies 2026",
            "url": "https://www.youtube.com/watch?v=OHKJVY4pDTQ",
            "duration": 8841.0,
            "view_count": 6697,
            "uploader": "Bolly Pictures Point",
            "category": "hindi",
            "thumbnail": "https://i.ytimg.com/vi/OHKJVY4pDTQ/hq720.jpg"
        },
        {
            "id": "NXVyi4r2p3Y",
            "title": "Maaya 2 - Full Movie | Thalapathy Vijay | Sai Pallavi | New Released South Indian Action Movies 2026",
            "url": "https://www.youtube.com/watch?v=NXVyi4r2p3Y",
            "duration": 9228.0,
            "view_count": 12129,
            "uploader": "Ranita Studio",
            "category": "hindi",
            "thumbnail": "https://i.ytimg.com/vi/NXVyi4r2p3Y/hq720.jpg"
        },
        {
            "id": "tY2wmCYwGRQ",
            "title": "ASSI Full Movie Hindi Dubbed | Taapsee Pannu | New Psychological Thriller Drama 2026",
            "url": "https://www.youtube.com/watch?v=tY2wmCYwGRQ",
            "duration": 7890.0,
            "view_count": 982951,
            "uploader": "Anjali Dhariwal and Sultan Khan",
            "category": "hindi",
            "thumbnail": "https://i.ytimg.com/vi/tY2wmCYwGRQ/hq720.jpg?sqp=-oaymwEcCNAFEJQDSFXyq4qpAw4IARUAAIhCGAFwAcABBg==&rs=AOn4CLCZEI7mjSThYgP8CPmv90XfjFmVoQ",
            "added_date": "2026-04-16T07:30:57.402861Z",
            "source": "youtube",
            "dubbed": "hindi"
        },
        {
            "id": "qlITBmPNz_4",
            "title": "Chalo Dilli - Full Movie (HD) | Akshay Kumar | Lara Dutta | Vinay Pathak | Superhit Romantic Movie",
            "url": "https://www.youtube.com/watch?v=qlITBmPNz_4",
            "duration": 6972.0,
            "view_count": 427578,
            "uploader": "Eros Universe",
            "category": "hindi",
            "thumbnail": "https://i.ytimg.com/vi/qlITBmPNz_4/hq720.jpg"
        },
        {
            "id": "rAR9BoLC_64",
            "title": "Raanjhanaa (रांझणा)- Full Movie HD | Dhanush | Sonam Kapoor | Abhay Deol | Superhit Romantic Movie",
            "url": "https://www.youtube.com/watch?v=rAR9BoLC_64",
            "duration": 8307.0,
            "view_count": 1152616,
            "uploader": "Eros Universe",
            "category": "hindi",
            "thumbnail": "https://i.ytimg.com/vi/rAR9BoLC_64/hq720.jpg"
        },
        {
            "id": "0YshbWn1WIk",
            "title": "Vijay Thalapathy Hindi Dubbed Blockbuster Action Movie Full HD 1080p | Kajal Agarwal | New Movie",
            "url": "https://www.youtube.com/watch?v=0YshbWn1WIk",
            "duration": 8926.0,
            "view_count": 238954,
            "uploader": "Super Movies Dhamaka",
            "category": "hindi",
            "thumbnail": "https://i.ytimg.com/vi/0YshbWn1WIk/hq720.jpg"
        },
        {
            "id": "xgIe4aD4YJc",
            "title": "UNSTOPPABLE | Vidyut Jammwal, Pooja Hegde | Hindi Dubbed Action Thriller Movie | Full HD Movie",
            "url": "https://www.youtube.com/watch?v=xgIe4aD4YJc",
            "duration": 5881.0,
            "view_count": 12526866,
            "uploader": "PlayNation",
            "category": "hindi",
            "thumbnail": "https://i.ytimg.com/vi/xgIe4aD4YJc/hq720.jpg"
        },
        {
            "id": "gvWDJZbKwB8",
            "title": "3 Lover | South Hindi Dubbed Action Romantic Movie Full Love Story | Naga Shourya,Regina | New movie",
            "url": "https://www.youtube.com/watch?v=gvWDJZbKwB8",
            "duration": 6863.0,
            "view_count": 8957,
            "uploader": "Action Cinemax",
            "category": "hindi",
            "thumbnail": "https://i.ytimg.com/vi/gvWDJZbKwB8/hq720.jpg"
        },
        {
            "id": "Nu4a6GWFwMY",
            "title": "Vishnu Vishal Gatti Kushti Full Length Hindi Movie | #Southdubbedmovies",
            "url": "https://www.youtube.com/watch?v=Nu4a6GWFwMY",
            "duration": 7464.0,
            "view_count": 19452554,
            "uploader": "Bollywood Events",
            "category": "hindi",
            "thumbnail": "https://i.ytimg.com/vi/Nu4a6GWFwMY/hq720.jpg"
        },
        {
            "id": "HVNEjk623EU",
            "title": "Dhurandhar 2 The Revenge (2026) | Full Hindi Movie | Ranveer Singh | Aditya Dhar",
            "url": "https://www.youtube.com/watch?v=HVNEjk623EU",
            "duration": 13569.0,
            "view_count": 1845,
            "uploader": "MoviesHub15",
            "category": "hindi",
            "thumbnail": "https://i.ytimg.com/vi/HVNEjk623EU/hqdefault.jpg"
        },
        {
            "id": "V5P8RO0e2nM",
            "title": "Suhaag सुहाग Full Movie | Akshay Kumar, Karishma Kapoor, Ajay Devgan | Superhit Hindi Movie",
            "url": "https://www.youtube.com/watch?v=V5P8RO0e2nM",
            "duration": 8593.0,
            "view_count": 51767708,
            "uploader": "NH Prime",
            "category": "hindi",
            "thumbnail": "https://i.ytimg.com/vi/V5P8RO0e2nM/hq720.jpg"
        },
        {
            "id": "4boawyb3m8o",
            "title": "#AK47 Full Movie Hindi Dubbed | Ajith Kumar | Jagapathi Babu | Latest South Indian Action Movie 2026",
            "url": "https://www.youtube.com/watch?v=4boawyb3m8o",
            "duration": 7568.0,
            "view_count": 79595,
            "uploader": "21 Pictures",
            "category": "hindi",
            "thumbnail": "https://i.ytimg.com/vi/4boawyb3m8o/hq720.jpg"
        },
        {
            "id": "8EcCoihwQRw",
            "title": "DHURANDHAR 2 (2026) New Released Full Hindi Dubbed Movie | South Indian Action Movie 2026",
            "url": "https://www.youtube.com/watch?v=8EcCoihwQRw",
            "duration": 13149.0,
            "view_count": 2557,
            "uploader": "filltheinfinite",
            "category": "hindi",
            "thumbnail": "https://i.ytimg.com/vi/8EcCoihwQRw/hq720.jpg"
        },
        {
            "id": "0IliRw-CmwM",
            "title": "Pushpa 3 (Hindi Dubbed) Full Movie | Allu Arjun, Rashmika Mandanna | Action Thriller 2025",
            "url": "https://www.youtube.com/watch?v=0IliRw-CmwM",
            "duration": 9698.0,
            "view_count": 6701,
            "uploader": "PlayNation",
            "category": "hindi",
            "thumbnail": "https://i.ytimg.com/vi/0IliRw-CmwM/hq720.jpg"
        },
        {
            "id": "NvDJ8xIIkh4",
            "title": "Vinaya Vidheya Rama Full Movie 2026 | Ram Charan | Vivek Oberoi | Kiara Advani | New South HD Movies",
            "url": "https://www.youtube.com/watch?v=NvDJ8xIIkh4",
            "duration": 7041.0,
            "view_count": 41906,
            "uploader": "21 Pictures",
            "category": "hindi",
            "thumbnail": "https://i.ytimg.com/vi/NvDJ8xIIkh4/hq720.jpg"
        },
        {
            "id": "PPc2Y6UZx-g",
            "title": "Holiday - A Soldier is Never Off Duty (2014) Full Movie | Akshay Kumar, Sonakshi Sinha | Patriotic",
            "url": "https://www.youtube.com/watch?v=PPc2Y6UZx-g",
            "duration": 9252.0,
            "view_count": 52408024,
            "uploader": "2000s Ki Filmein",
            "category": "hindi",
            "thumbnail": "https://i.ytimg.com/vi/PPc2Y6UZx-g/hq720.jpg"
        },
        {
            "id": "4dEKzbvht7g",
            "title": "NA TUM JAANO NA HUM Full Bollywood Movie | Hrithik Roshan, Saif Ali Khan, Esha Deol | Hindi Movie",
            "url": "https://www.youtube.com/watch?v=4dEKzbvht7g",
            "duration": 8938.0,
            "view_count": 8809778,
            "uploader": "Grand Master Movies",
            "category": "hindi",
            "thumbnail": "https://i.ytimg.com/vi/4dEKzbvht7g/hq720.jpg"
        },
        {
            "id": "B0xxY-LqWRc",
            "title": "Dhurandhar The Revenge Full Movie Hindi HD #blockbusteraction #indiancinema #dhurandhar #action",
            "url": "https://www.youtube.com/watch?v=B0xxY-LqWRc",
            "duration": 13538.0,
            "view_count": 779,
            "uploader": "Deadlox Movies",
            "category": "hindi",
            "thumbnail": "https://i.ytimg.com/vi/B0xxY-LqWRc/hqdefault.jpg"
        },
        {
            "id": "MisvMx6LN00",
            "title": "Dhurandar:the revenge  full movie  in hd ( hindi )  #dhurandhar2 #dhurandhar #ranveersingh #movie ",
            "url": "https://www.youtube.com/watch?v=MisvMx6LN00",
            "duration": 13216.0,
            "view_count": 1211,
            "uploader": "THE RAHUL SHOW",
            "category": "hindi",
            "thumbnail": "https://i.ytimg.com/vi/MisvMx6LN00/hqdefault.jpg"
        },
        {
            "id": "uSLTbvZ9EMM",
            "title": "Vijay Thalapathy Hindi Dubbed Action Romantic Movie Full HD 1080p | Kajal Agarwal | New Movie",
            "url": "https://www.youtube.com/watch?v=uSLTbvZ9EMM",
            "duration": 8926.0,
            "view_count": 82003,
            "uploader": "Super Movies Dhamaka",
            "category": "hindi",
            "thumbnail": "https://i.ytimg.com/vi/uSLTbvZ9EMM/hqdefault.jpg"
        },
        {
            "id": "n6t25G9hRqw",
            "title": "🔥 DHURANDHAR FULL MOVIE HINDI DUBBED 2026 HD ACTION THRILLER 🔥 ",
            "url": "https://www.youtube.com/watch?v=n6t25G9hRqw",
            "duration": 13738.0,
            "view_count": 402,
            "uploader": "Prajapati Dhaval",
            "category": "hindi",
            "thumbnail": "https://i.ytimg.com/vi/n6t25G9hRqw/hq720.jpg"
        },
        {
            "id": "kLfInIl0RTc",
            "title": "INTERCEPT | Akshay Kumar, Shriya Saran | New (2026) Hindi Action Crime Thriller Movie | Full HD",
            "url": "https://www.youtube.com/watch?v=kLfInIl0RTc",
            "duration": 6689.0,
            "view_count": 2037770,
            "uploader": "PlayNation",
            "category": "hindi",
            "thumbnail": "https://i.ytimg.com/vi/kLfInIl0RTc/hq720.jpg"
        }
    ]
}