{
    "page": 6,
    "total_pages": 12,
    "total_items": 558,
    "items": [
        {
            "id": "lZSt2qGAzFI",
            "title": "Dhurandhar 2 The Revenge Full Movie | Ranveer Singh | Arjun | R Madhavan | Sanjay | Facts and Review",
            "url": "https://www.youtube.com/watch?v=lZSt2qGAzFI",
            "duration": 13557.0,
            "view_count": 6763,
            "uploader": "Mr L_S_C UP84",
            "category": "hindi",
            "thumbnail": "https://i.ytimg.com/vi/lZSt2qGAzFI/hq720.jpg"
        },
        {
            "id": "59SP4ZRrQHE",
            "title": "Tees Maar Khan 2 (2025) Full Hindi Movie | Akshay Kumar Latest Bollywood Comedy | HD #Bollywood",
            "url": "https://www.youtube.com/watch?v=59SP4ZRrQHE",
            "duration": 7483.0,
            "view_count": 1715454,
            "uploader": "Ankita Bhawsar",
            "category": "hindi",
            "thumbnail": "https://i.ytimg.com/vi/59SP4ZRrQHE/hq720.jpg"
        },
        {
            "id": "R6WzTUaf4-0",
            "title": "The Kerala Story 2 Goes Beyond | Ulka Gupta, Aditi Bhatia, Aishwarya | Latest Thriller Movie 2026",
            "url": "https://www.youtube.com/watch?v=R6WzTUaf4-0",
            "duration": 6716.0,
            "view_count": 231634,
            "uploader": "Ranita Studio",
            "category": "hindi",
            "thumbnail": "https://i.ytimg.com/vi/R6WzTUaf4-0/hq720.jpg"
        },
        {
            "id": "XmFHxzgNIPs",
            "title": "Marshal (2026) Vijay Thalapathy South New Full Movie | 2026 South Latest Hindi Dubbed Movie In 4K",
            "url": "https://www.youtube.com/watch?v=XmFHxzgNIPs",
            "duration": 8926.0,
            "view_count": 4518,
            "uploader": "Super Movies Dhamaka",
            "category": "hindi",
            "thumbnail": "https://i.ytimg.com/vi/XmFHxzgNIPs/hq720.jpg"
        },
        {
            "id": "28V8ISd-KTI",
            "title": "Happy Phirr Bhag Jayegi | Full Movie | Sonakshi Sinha, Jimmy Shergill, Diana Penty, Ali Fazal",
            "url": "https://www.youtube.com/watch?v=28V8ISd-KTI",
            "duration": 7789.0,
            "view_count": 564,
            "uploader": "Eros Universe Big Picture",
            "category": "hindi",
            "thumbnail": "https://i.ytimg.com/vi/28V8ISd-KTI/hq720.jpg"
        },
        {
            "id": "NAXWpwQEqdw",
            "title": "Dhurandhar 2 The Revenge (2026) Full Hindi Dubbed Movie | Powerful Action Thriller HD",
            "url": "https://www.youtube.com/watch?v=NAXWpwQEqdw",
            "duration": 13411.0,
            "view_count": 3904,
            "uploader": "The Dhurandhar Dushyant",
            "category": "hindi",
            "thumbnail": "https://i.ytimg.com/vi/NAXWpwQEqdw/hq720.jpg"
        },
        {
            "id": "Qz_LJNxVUcI",
            "title": "REVENGE | Ram Charan, Samantha | New (2026) Released Hindi Action Crime Thriller Movie | Full HD",
            "url": "https://www.youtube.com/watch?v=Qz_LJNxVUcI",
            "duration": 8559.0,
            "view_count": 67542,
            "uploader": "PlayNation",
            "category": "hindi",
            "thumbnail": "https://i.ytimg.com/vi/Qz_LJNxVUcI/hq720.jpg"
        },
        {
            "id": "sfZSh5Wunt0",
            "title": "Prabhas South Blockbuster | Rajasaab | New Action Full Movie 2026 | Hindi Dubbed HD",
            "url": "https://www.youtube.com/watch?v=sfZSh5Wunt0",
            "duration": 9573.0,
            "view_count": 61672,
            "uploader": "Vibe Atlas",
            "category": "hindi",
            "thumbnail": "https://i.ytimg.com/vi/sfZSh5Wunt0/hq720.jpg"
        },
        {
            "id": "YZxEAdRRr7I",
            "title": "RAAYAN | Dhanush, S.J. Suryah | New (2026) Released Hindi Action Crime Thriller Movie | Full HD",
            "url": "https://www.youtube.com/watch?v=YZxEAdRRr7I",
            "duration": 8518.0,
            "view_count": 41022,
            "uploader": "PlayNation",
            "category": "hindi",
            "thumbnail": "https://i.ytimg.com/vi/YZxEAdRRr7I/hq720.jpg"
        },
        {
            "id": "s1niu5RZZME",
            "title": "Dhurandhar 2 Full Movie In Hindi 2026 Box|Office Collection | Ranveer Singh New MovieLatest Movie",
            "url": "https://www.youtube.com/watch?v=s1niu5RZZME",
            "duration": 13411.0,
            "view_count": 15094,
            "uploader": "The Dhurandhar Dushyant",
            "category": "hindi",
            "thumbnail": "https://i.ytimg.com/vi/s1niu5RZZME/hqdefault.jpg"
        },
        {
            "id": "QzKTKRyniPA",
            "title": "ODELA 3 Full Movie in Hindi Dubbed | Tamannaah Bhatia & Vasishta | Latest South Indian Movie 2026",
            "url": "https://www.youtube.com/watch?v=QzKTKRyniPA",
            "duration": 8760.0,
            "view_count": 16625,
            "uploader": "Ranita Studio",
            "category": "hindi",
            "thumbnail": "https://i.ytimg.com/vi/QzKTKRyniPA/hq720.jpg"
        },
        {
            "id": "CO97V-jpZtk",
            "title": "Sarfarosh (1999) Full Movie (4K) | Aamir Khan | Naseeruddin Shah | Sonali Bendre | Full Hindi Movie",
            "url": "https://www.youtube.com/watch?v=CO97V-jpZtk",
            "duration": 9576.0,
            "view_count": 11350816,
            "uploader": "Ultra Movie Parlour",
            "category": "hindi",
            "thumbnail": "https://i.ytimg.com/vi/CO97V-jpZtk/hq720.jpg"
        },
        {
            "id": "a5Zpo0zY8sg",
            "title": "Ek Hasina Thi (2004) - Superhit Hindi Movie | Urmila Matondkar, Saif Ali Khan, Seema Biswas",
            "url": "https://www.youtube.com/watch?v=a5Zpo0zY8sg",
            "duration": 8512.0,
            "view_count": 998843,
            "uploader": "Superhit Hindi Movies",
            "category": "hindi",
            "thumbnail": "https://i.ytimg.com/vi/a5Zpo0zY8sg/hq720.jpg"
        },
        {
            "id": "U5whWF50ifo",
            "title": "Mardaani 3 (2026) | Full Action Thriller Movie | Rani Mukerji, Nawazuddin Siddiqui | HD",
            "url": "https://www.youtube.com/watch?v=U5whWF50ifo",
            "duration": 6414.0,
            "view_count": 2537676,
            "uploader": "Ankita Bhawsar",
            "category": "hindi",
            "thumbnail": "https://i.ytimg.com/vi/U5whWF50ifo/hq720.jpg"
        },
        {
            "id": "Epw23k46VtI",
            "title": "Tumhari Sulu (Full Movie): Vidya Balan, Manav Kaul, Neha Dhupia | | Hindi Movie | T-Series",
            "url": "https://www.youtube.com/watch?v=Epw23k46VtI",
            "duration": 8389.0,
            "view_count": 7295023,
            "uploader": "T-Series",
            "category": "hindi",
            "thumbnail": "https://i.ytimg.com/vi/Epw23k46VtI/hq720.jpg"
        },
        {
            "id": "8CJAuzLyGJM",
            "title": "#AK65 Full Movie Hindi Dubbed | Ajith Kumar | Jagapathi Babu | Latest South Indian Action Movie 2026",
            "url": "https://www.youtube.com/watch?v=8CJAuzLyGJM",
            "duration": 7734.0,
            "view_count": 100335,
            "uploader": "Bolly Pictures Point",
            "category": "hindi",
            "thumbnail": "https://i.ytimg.com/vi/8CJAuzLyGJM/hq720.jpg"
        },
        {
            "id": "TQtV-oTYNE4",
            "title": "CHHICHHORE FULL MOVIE 🎥❤️#sushantsinghrajput #shraddhakapoor #movie #bollywood #hindi",
            "url": "https://www.youtube.com/watch?v=TQtV-oTYNE4",
            "duration": 8608.0,
            "view_count": 5339894,
            "uploader": "ll_Raj Shorts_ll",
            "category": "hindi",
            "thumbnail": "https://i.ytimg.com/vi/TQtV-oTYNE4/hqdefault.jpg"
        },
        {
            "id": "xxlvasXlQtM",
            "title": "Rockstar (2011) Full Movie HD | Blockbuster Bollywood Movie | Ranbir Kapoor, Nargis Fakhri (HD)",
            "url": "https://www.youtube.com/watch?v=xxlvasXlQtM",
            "duration": 9109.0,
            "view_count": 320844,
            "uploader": "Eros Universe Super Cinema",
            "category": "hindi",
            "thumbnail": "https://i.ytimg.com/vi/xxlvasXlQtM/hq720.jpg"
        },
        {
            "id": "jzYxbnHHhY4",
            "title": "Bhool Bhulaiyaa (Full Movie) Akshay Kumar, Vidya Balan, Shiney A, Paresh R, Priyadarshan | Bhushan K",
            "url": "https://www.youtube.com/watch?v=jzYxbnHHhY4",
            "duration": 8905.0,
            "view_count": 307177215,
            "uploader": "T-Series",
            "category": "hindi",
            "thumbnail": "https://i.ytimg.com/vi/jzYxbnHHhY4/hq720.jpg"
        },
        {
            "id": "sOgnAw3W-D0",
            "title": "Marsal (2026) Vijay Thalapathy South New Full Movie | 2026 South Latest Hindi Dubbed Movie In 4K",
            "url": "https://www.youtube.com/watch?v=sOgnAw3W-D0",
            "duration": 8926.0,
            "view_count": 76188,
            "uploader": "Super Movies Dhamaka",
            "category": "hindi",
            "thumbnail": "https://i.ytimg.com/vi/sOgnAw3W-D0/hq720.jpg"
        },
        {
            "id": "rGccuHGZ158",
            "title": "RAAYAN | Dhanush, S.J. Suryah | New (2026) Released Hindi Action Crime Thriller Movie | Full HD",
            "url": "https://www.youtube.com/watch?v=rGccuHGZ158",
            "duration": 8518.0,
            "view_count": 17773,
            "uploader": "PlayNation",
            "category": "hindi",
            "thumbnail": "https://i.ytimg.com/vi/rGccuHGZ158/hq720.jpg"
        },
        {
            "id": "ASLoJwbUtz8",
            "title": "Dhurandhar (The Revenge) || Full Hindi Movie|| Part 2 ||1080HD",
            "url": "https://www.youtube.com/watch?v=ASLoJwbUtz8",
            "duration": 13411.0,
            "view_count": 5080,
            "uploader": "Naresh kumar ",
            "category": "hindi",
            "thumbnail": "https://i.ytimg.com/vi/ASLoJwbUtz8/hq720.jpg"
        },
        {
            "id": "FDj-zrPmqTs",
            "title": "Dhurandhar 2 (The Revenge) Full Movie 2026 | Ranveer Singh, Sanjay Dutt, Deepika | Latest Movie 2026",
            "url": "https://www.youtube.com/watch?v=FDj-zrPmqTs",
            "duration": 7779.0,
            "view_count": 1299520,
            "uploader": "Ranita Studio",
            "category": "hindi",
            "thumbnail": "https://i.ytimg.com/vi/FDj-zrPmqTs/hq720.jpg"
        },
        {
            "id": "WHWZDzNd1-g",
            "title": "Dhurandhar 2 The Revenge (2026) Full Hindi Dubbed Movie | Powerful Action Thriller HD",
            "url": "https://www.youtube.com/watch?v=WHWZDzNd1-g",
            "duration": 8197.0,
            "view_count": 375808,
            "uploader": "Hindi Movie Cinema",
            "category": "hindi",
            "thumbnail": "https://i.ytimg.com/vi/WHWZDzNd1-g/hq720.jpg"
        },
        {
            "id": "wHnIXynV4_g",
            "title": "Dhurandhar 2 Full Movie 2026 | Ranveer Singh | Sanjay Dutt | Sara Arjun | Arjun R | Reviews & Facts",
            "url": "https://www.youtube.com/watch?v=wHnIXynV4_g",
            "duration": 8941.0,
            "view_count": 2620,
            "uploader": "Ftx movies ",
            "category": "hindi",
            "thumbnail": "https://i.ytimg.com/vi/wHnIXynV4_g/hqdefault.jpg"
        },
        {
            "id": "Zt2SuE2IZrU",
            "title": "Dhurandhar 2 The Revenge (2026) Full Hindi Dubbed Movie | Powerful Action Thriller HD",
            "url": "https://www.youtube.com/watch?v=Zt2SuE2IZrU",
            "duration": 13411.0,
            "view_count": 4373,
            "uploader": "The Dhurandhar Dushyant",
            "category": "hindi",
            "thumbnail": "https://i.ytimg.com/vi/Zt2SuE2IZrU/hqdefault.jpg"
        },
        {
            "id": "pBOhycqMYFo",
            "title": "NH10 Full Movie 8K/4K Ultra HD | Anushka Sharma, Darshan Kumaar | Hindi Thriller Movie",
            "url": "https://www.youtube.com/watch?v=pBOhycqMYFo",
            "duration": 6705.0,
            "view_count": 536246,
            "uploader": "Eros Universe Super Cinema",
            "category": "hindi",
            "thumbnail": "https://i.ytimg.com/vi/pBOhycqMYFo/hq720.jpg"
        },
        {
            "id": "g4fsBrAS4PQ",
            "title": "Hrithik Roshan - Kareen Kapoor की अनदेखी मूवी | Jackie Shroff | Hindi Movie | Bollywood Full Movie",
            "url": "https://www.youtube.com/watch?v=g4fsBrAS4PQ",
            "duration": 10638.0,
            "view_count": 706732,
            "uploader": "Ultra Bollywood",
            "category": "hindi",
            "thumbnail": "https://i.ytimg.com/vi/g4fsBrAS4PQ/hq720.jpg"
        },
        {
            "id": "ko7ApfGCwlo",
            "title": "Ramcharan's ROASTER Full Hindi Dubbed Action Movie - South Indian Hindi Dubbed Full HD Movie 2026",
            "url": "https://www.youtube.com/watch?v=ko7ApfGCwlo",
            "duration": 7372.0,
            "view_count": 14492306,
            "uploader": "KK Telefilms",
            "category": "hindi",
            "thumbnail": "https://i.ytimg.com/vi/ko7ApfGCwlo/hq720.jpg"
        },
        {
            "id": "hakrZpNQgdA",
            "title": "Ranveer Singh new movies Hindi ||  the revenge full movie 2026",
            "url": "https://www.youtube.com/watch?v=hakrZpNQgdA",
            "duration": 13411.0,
            "view_count": 2049,
            "uploader": "SM Music Studio Official 🚩",
            "category": "hindi",
            "thumbnail": "https://i.ytimg.com/vi/hakrZpNQgdA/hqdefault.jpg"
        },
        {
            "id": "QkoCGY_XpAg",
            "title": "King Cobra (2026) 🔥 Mahesh Babu & Kajal | 2026 South Blockbuster Action Full Movie Hindi",
            "url": "https://www.youtube.com/watch?v=QkoCGY_XpAg",
            "duration": 6178.0,
            "view_count": 2541,
            "uploader": "Duroflex Action",
            "category": "hindi",
            "thumbnail": "https://i.ytimg.com/vi/QkoCGY_XpAg/hq720.jpg"
        },
        {
            "id": "HQ-cX4wMhNU",
            "title": "#AA26 Full Movie Hindi Dubbed | Allu Arjun | Prashanth Neel | Latest South Indian Action Movie 2026",
            "url": "https://www.youtube.com/watch?v=HQ-cX4wMhNU",
            "duration": 7580.0,
            "view_count": 155922,
            "uploader": "Bollywood World",
            "category": "hindi",
            "thumbnail": "https://i.ytimg.com/vi/HQ-cX4wMhNU/hq720.jpg"
        },
        {
            "id": "w0rFlZO4ejM",
            "title": "Dhurandhar 2 The Revenge (2026) Ranveer Singh | Arjun | R Madhavan | Sanjay  Full Hindi Dubbed Movie",
            "url": "https://www.youtube.com/watch?v=w0rFlZO4ejM",
            "duration": 6520.0,
            "view_count": 6594,
            "uploader": "Hindi Movie Cinema",
            "category": "hindi",
            "thumbnail": "https://i.ytimg.com/vi/w0rFlZO4ejM/hq720_custom_2.jpg"
        },
        {
            "id": "2d1_1qDLty0",
            "title": "OMKARA (Full Movie) Hindi -  Ajay Devgan, Saif Ali Khan, Pankaj Tripathi, Kareena Kapoor Khan",
            "url": "https://www.youtube.com/watch?v=2d1_1qDLty0",
            "duration": 9130.0,
            "view_count": 8946926,
            "uploader": "Eros Universe Big Picture",
            "category": "hindi",
            "thumbnail": "https://i.ytimg.com/vi/2d1_1qDLty0/hq720.jpg"
        },
        {
            "id": "jSTUAnamRDE",
            "title": "VIKRAM | Kamal Haasan, Vijay Sethupathi | New Released Hindi Action Crime Thriller Movie | Full HD",
            "url": "https://www.youtube.com/watch?v=jSTUAnamRDE",
            "duration": 10375.0,
            "view_count": 44912,
            "uploader": "PlayNation",
            "category": "hindi",
            "thumbnail": "https://i.ytimg.com/vi/jSTUAnamRDE/hq720.jpg"
        },
        {
            "id": "9AMdZ_wRgr8",
            "title": "llu Arjun & Samantha ⚡ 2026 South Blockbuster Action | Full Movie Hindi Dubbed",
            "url": "https://www.youtube.com/watch?v=9AMdZ_wRgr8",
            "duration": 9534.0,
            "view_count": 8419,
            "uploader": "Mixx Media Music",
            "category": "hindi",
            "thumbnail": "https://i.ytimg.com/vi/9AMdZ_wRgr8/hq720.jpg"
        },
        {
            "id": "veWbIdLK7Q4",
            "title": "All the Best: Fun Begins (2009) Full Movie Hindi HD | Ajay Devgn, Sanjay Dutt | Full Comedy Film 😂",
            "url": "https://www.youtube.com/watch?v=veWbIdLK7Q4",
            "duration": 8130.0,
            "view_count": 134476,
            "uploader": "Bollywood Comedy ",
            "category": "hindi",
            "thumbnail": "https://i.ytimg.com/vi/veWbIdLK7Q4/hq720.jpg"
        },
        {
            "id": "42z2Lk-ZNLc",
            "title": "Rowdy Janardhana Full Movie Hindi Dubbed 2026 | Vijay Devarakonda | New South Indian Movies 2026",
            "url": "https://www.youtube.com/watch?v=42z2Lk-ZNLc",
            "duration": 7217.0,
            "view_count": 34178,
            "uploader": "21 Pictures",
            "category": "hindi",
            "thumbnail": "https://i.ytimg.com/vi/42z2Lk-ZNLc/hq720.jpg"
        },
        {
            "id": "G9AJRsicbxs",
            "title": "ACTION JACKSON Full Hindi Movie (4K) | Bollywood Blockbuster | Ajay Devgn, Sonakshi Sinha",
            "url": "https://www.youtube.com/watch?v=G9AJRsicbxs",
            "duration": 7971.0,
            "view_count": 938945,
            "uploader": "4K Movies Hub",
            "category": "hindi",
            "thumbnail": "https://i.ytimg.com/vi/G9AJRsicbxs/hq720.jpg"
        },
        {
            "id": "Plrg0XP6gZg",
            "title": "Naam Shabana 2017 Action Full Movie 4K | Akshay Kumar, Taapsee Pannu, Manoj Bajpayee, Prithviraj",
            "url": "https://www.youtube.com/watch?v=Plrg0XP6gZg",
            "duration": 8871.0,
            "view_count": 7096791,
            "uploader": "Ultra 4K Movies",
            "category": "hindi",
            "thumbnail": "https://i.ytimg.com/vi/Plrg0XP6gZg/hq720.jpg"
        },
        {
            "id": "dRXHDFB6sfY",
            "title": "Vijay Antony’s Powerful Action Thriller | Tamilarasan Hindi Dubbed Full Movie | Sonu Sood",
            "url": "https://www.youtube.com/watch?v=dRXHDFB6sfY",
            "duration": 7497.0,
            "view_count": 2335,
            "uploader": "Hindi Movies",
            "category": "hindi",
            "thumbnail": "https://i.ytimg.com/vi/dRXHDFB6sfY/hq720.jpg"
        },
        {
            "id": "SYKMOzelekg",
            "title": "CARTEL | Suriya, Kajal Agarwal | New (2026) Released Hindi Action Crime Thriller Movie | Full HD",
            "url": "https://www.youtube.com/watch?v=SYKMOzelekg",
            "duration": 8664.0,
            "view_count": 5535891,
            "uploader": "PlayNation",
            "category": "hindi",
            "thumbnail": "https://i.ytimg.com/vi/SYKMOzelekg/hq720.jpg"
        },
        {
            "id": "Y4_3Hu6jP5A",
            "title": "🎬 Jab We Met (2007) | Full Movie | Kareena Kapoor | Shahid Kapoor | Bollywood Movie 💖✨",
            "url": "https://www.youtube.com/watch?v=Y4_3Hu6jP5A",
            "duration": 8208.0,
            "view_count": 347966,
            "uploader": "Babel Bollywood",
            "category": "hindi",
            "thumbnail": "https://i.ytimg.com/vi/Y4_3Hu6jP5A/hq720.jpg"
        },
        {
            "id": "X_5Q9-GZYq0",
            "title": "Rustom Full Hindi Movie | Akshay Kumar, Ileana D'Cruz, Esha Gupta | Bollywood Crime Thriller HD",
            "url": "https://www.youtube.com/watch?v=X_5Q9-GZYq0",
            "duration": 7884.0,
            "view_count": 2073290,
            "uploader": "BollywoodWala Adda",
            "category": "hindi",
            "thumbnail": "https://i.ytimg.com/vi/X_5Q9-GZYq0/hq720.jpg"
        },
        {
            "id": "A2R0Ggvda3U",
            "title": "Tanu Weds Manu Returns - Full Movie HD | Kangana Ranaut | R. Madhavan | Bollywood Romantic Comedy",
            "url": "https://www.youtube.com/watch?v=A2R0Ggvda3U",
            "duration": 7343.0,
            "view_count": 3185906,
            "uploader": "Eros Universe",
            "category": "hindi",
            "thumbnail": "https://i.ytimg.com/vi/A2R0Ggvda3U/hq720.jpg?sqp=-oaymwEcCNAFEJQDSFXyq4qpAw4IARUAAIhCGAFwAcABBg==&rs=AOn4CLBKACCaE7DQWh21_h2KmIQUuRewgg",
            "added_date": "2026-04-16T07:30:56.801775Z",
            "source": "youtube"
        },
        {
            "id": "ZM2svdjWbVw",
            "title": "Gunda Gardi - Hindi Dubbed Full Movie | Saran Shakthi, Ayra, Kishore D.S. | Action Romantic Movie",
            "url": "https://www.youtube.com/watch?v=ZM2svdjWbVw",
            "duration": 5983.0,
            "view_count": 17151,
            "uploader": "Primetime Action Movies",
            "category": "hindi",
            "thumbnail": "https://i.ytimg.com/vi/ZM2svdjWbVw/hq720.jpg"
        },
        {
            "id": "-tsakh_u-Uo",
            "title": "#AK47 Full Movie Hindi Dubbed | Ajith Kumar | Jagapathi Babu | Latest South Indian Action Movie 2026",
            "url": "https://www.youtube.com/watch?v=-tsakh_u-Uo",
            "duration": 7568.0,
            "view_count": 572444,
            "uploader": "Bolly Pictures Point",
            "category": "hindi",
            "thumbnail": "https://i.ytimg.com/vi/-tsakh_u-Uo/hq720.jpg"
        },
        {
            "id": "VYOvFsftR98",
            "title": "Pushpa 3 (Hindi Dubbed) Full Movie | Allu Arjun, Rashmika Mandanna | Action Thriller 2025",
            "url": "https://www.youtube.com/watch?v=VYOvFsftR98",
            "duration": 9698.0,
            "view_count": 5954,
            "uploader": "PlayNation",
            "category": "hindi",
            "thumbnail": "https://i.ytimg.com/vi/VYOvFsftR98/hq720.jpg"
        },
        {
            "id": "FFpSMHnKzO4",
            "title": "Nayanthara POLICE Full Movie Hindi Dubbed 2026 | New Released Full Hindi Dubbed Action Movie 2026",
            "url": "https://www.youtube.com/watch?v=FFpSMHnKzO4",
            "duration": 7460.0,
            "view_count": 6197720,
            "uploader": "FilmyJunction",
            "category": "hindi",
            "thumbnail": "https://i.ytimg.com/vi/FFpSMHnKzO4/hq720.jpg"
        },
        {
            "id": "ga1PMLM0Op4",
            "title": "Uri : The Surgical Strike - Hindi Patriotic Full Movie - Vicky Kaushal, Yami Gautam, Paresh Rawal",
            "url": "https://www.youtube.com/watch?v=ga1PMLM0Op4",
            "duration": 7956.0,
            "view_count": 37145628,
            "uploader": "Zee Studios",
            "category": "hindi",
            "thumbnail": "https://i.ytimg.com/vi/ga1PMLM0Op4/hqdefault.jpg"
        }
    ]
}