{
    "page": 4,
    "total_pages": 12,
    "total_items": 558,
    "items": [
        {
            "id": "nQYYgGL4JyE",
            "title": "U ME AUR HUM - Hindi Comedy Romantic Full HD Movie | Ajay Devgn, Kajol | Latest Bollywood Movies",
            "url": "https://www.youtube.com/watch?v=nQYYgGL4JyE",
            "duration": 7986.0,
            "view_count": 308232,
            "uploader": "Big Screen Entertainment",
            "category": "hindi",
            "thumbnail": "https://i.ytimg.com/vi/nQYYgGL4JyE/hq720.jpg"
        },
        {
            "id": "cO8CZlZUM2I",
            "title": "Paanch Minar 2026 Latest Hindi Crime Thriller Full Movie | Raj Tarun | New South Dubbed Movies",
            "url": "https://www.youtube.com/watch?v=cO8CZlZUM2I",
            "duration": 7758.0,
            "view_count": 1390774,
            "uploader": "Sri Balaji Hindi Movies",
            "category": "hindi",
            "thumbnail": "https://i.ytimg.com/vi/cO8CZlZUM2I/hq720.jpg"
        },
        {
            "id": "7u-6OIlS5wY",
            "title": "Ek Villain (2014) - Hindi Movie With English Subtitles | Sidharth Malhotra, Shraddha & Riteish",
            "url": "https://www.youtube.com/watch?v=7u-6OIlS5wY",
            "duration": 7840.0,
            "view_count": 1606201,
            "uploader": "Bollywood Premium",
            "category": "hindi",
            "thumbnail": "https://i.ytimg.com/vi/7u-6OIlS5wY/hq720.jpg"
        },
        {
            "id": "F7kX1Gbkirc",
            "title": "#TT60 POWERFUL K - Hindi Dubbed Full Movie | Tovino Thomas, Samyuktha | Action Thriller Movie",
            "url": "https://www.youtube.com/watch?v=F7kX1Gbkirc",
            "duration": 7273.0,
            "view_count": 716,
            "uploader": "दमदार साउथ मूव्हीस",
            "category": "hindi",
            "thumbnail": "https://i.ytimg.com/vi/F7kX1Gbkirc/hq720.jpg"
        },
        {
            "id": "LmNZodLh0eo",
            "title": "Ajith Kumar South Hindi Full Hd Movie | South Action Movie",
            "url": "https://www.youtube.com/watch?v=LmNZodLh0eo",
            "duration": 8045.0,
            "view_count": 3307443,
            "uploader": "Regular Movies",
            "category": "hindi",
            "thumbnail": "https://i.ytimg.com/vi/LmNZodLh0eo/hq720.jpg"
        },
        {
            "id": "puWAGtVCFAU",
            "title": "AGNI FORCE  |  Surya | South Hindi Dubbed Full Movie | Action Blockbuster",
            "url": "https://www.youtube.com/watch?v=puWAGtVCFAU",
            "duration": 8619.0,
            "view_count": 556709,
            "uploader": "Screen Movies",
            "category": "hindi",
            "thumbnail": "https://i.ytimg.com/vi/puWAGtVCFAU/hq720.jpg"
        },
        {
            "id": "JVVjv7V3HnY",
            "title": "Sardar Hindi Dubbed Full Movie #Sardar #Karthi",
            "url": "https://www.youtube.com/watch?v=JVVjv7V3HnY",
            "duration": 9859.0,
            "view_count": 4239,
            "uploader": "TraVeLlinG DiAriEs",
            "category": "hindi",
            "thumbnail": "https://i.ytimg.com/vi/JVVjv7V3HnY/hq720.jpg"
        },
        {
            "id": "rDUOyskVN04",
            "title": "Superhit (Comedy Movie) Full HD Hindi Movie | Ajay Devgn & Kajol New Bollywood Love Story Movie",
            "url": "https://www.youtube.com/watch?v=rDUOyskVN04",
            "duration": 7753.0,
            "view_count": 976987,
            "uploader": "RDC Bollywood Buzz",
            "category": "hindi",
            "thumbnail": "https://i.ytimg.com/vi/rDUOyskVN04/hq720.jpg"
        },
        {
            "id": "WPYPgHMO_O0",
            "title": "Partner (2007) Full Movie in 8K/4K Ultra HD | Salman Khan | Govinda | Katrina Kaif | Comedy Movie",
            "url": "https://www.youtube.com/watch?v=WPYPgHMO_O0",
            "duration": 8566.0,
            "view_count": 2192443,
            "uploader": "Eros Universe and Eros Universe Bioscope",
            "category": "hindi",
            "thumbnail": "https://i.ytimg.com/vi/WPYPgHMO_O0/hq720.jpg"
        },
        {
            "id": "yPwmul8GfRg",
            "title": "The Kerala Story 2 Full Movie Hindi Dubbed 2026 | New Bollywood Movie | New Movie 2026",
            "url": "https://www.youtube.com/watch?v=yPwmul8GfRg",
            "duration": 7234.0,
            "view_count": 37654,
            "uploader": "Plastic Cinema",
            "category": "hindi",
            "thumbnail": "https://i.ytimg.com/vi/yPwmul8GfRg/hq720.jpg"
        },
        {
            "id": "SqxoQVKwrug",
            "title": "Stuart Little 2 | Full Hindi-Dubbed Movie | Starring Michael J. Fox, Geena Davis",
            "url": "https://www.youtube.com/watch?v=SqxoQVKwrug",
            "duration": 4660.0,
            "view_count": 1339577,
            "uploader": "Sony Pictures Entertainment India",
            "category": "hindi",
            "thumbnail": "https://i.ytimg.com/vi/SqxoQVKwrug/hq720.jpg"
        },
        {
            "id": "HtTuBMospf8",
            "title": "Banjo (2016) Bollywood Full Hindi Movie | बैंजो | Riteish Deshmukh | Nargis Fakhri | Dharmesh",
            "url": "https://www.youtube.com/watch?v=HtTuBMospf8",
            "duration": 6173.0,
            "view_count": 438512,
            "uploader": "Big Screen Entertainment",
            "category": "hindi",
            "thumbnail": "https://i.ytimg.com/vi/HtTuBMospf8/hq720.jpg"
        },
        {
            "id": "-hsJlra8_KU",
            "title": "BRAHMASTRA Full Horror Movie | Prabhas | Rashi Khanna | Garuda Ram | Latest South Indian Movie 2026",
            "url": "https://www.youtube.com/watch?v=-hsJlra8_KU",
            "duration": 8592.0,
            "view_count": 75140,
            "uploader": "Moviewood Cinema",
            "category": "hindi",
            "thumbnail": "https://i.ytimg.com/vi/-hsJlra8_KU/hq720.jpg"
        },
        {
            "id": "QCFPjkTARkM",
            "title": "The TAJ Story Official Hindi Movie 2026 | Paresh Rawal, Zakir Hussain, Amruta | New Bollywood Movie",
            "url": "https://www.youtube.com/watch?v=QCFPjkTARkM",
            "duration": 6207.0,
            "view_count": 3430681,
            "uploader": "Bollwood Cinema Hindi",
            "category": "hindi",
            "thumbnail": "https://i.ytimg.com/vi/QCFPjkTARkM/hq720.jpg"
        },
        {
            "id": "lAWeM7MnhH8",
            "title": "DRISHYAM 3 Full Thriller Movie | Ajay Devgn | Tabu | Akshaye Khanna | New Bollywood Hindi Movie 2025",
            "url": "https://www.youtube.com/watch?v=lAWeM7MnhH8",
            "duration": 8860.0,
            "view_count": 1725995,
            "uploader": "Bollywood World",
            "category": "hindi",
            "thumbnail": "https://i.ytimg.com/vi/lAWeM7MnhH8/hq720.jpg"
        },
        {
            "id": "_NhqjtkdJ2Y",
            "title": "Maaya Full Movie | Thalapathy Vijay | Sai Pallavi | New Released South Indian Action Hd Movies 2026",
            "url": "https://www.youtube.com/watch?v=_NhqjtkdJ2Y",
            "duration": 8845.0,
            "view_count": 7289,
            "uploader": "Movies University",
            "category": "hindi",
            "thumbnail": "https://i.ytimg.com/vi/_NhqjtkdJ2Y/hq720.jpg"
        },
        {
            "id": "9lcGB0bdpCY",
            "title": "BHIKHARI | New Hindi Movie 2026 - Hrithik Roshan & Kajol Devgan | New Bollywood Full Action Movies",
            "url": "https://www.youtube.com/watch?v=9lcGB0bdpCY",
            "duration": 8773.0,
            "view_count": 801402,
            "uploader": "South Tube Pictures",
            "category": "hindi",
            "thumbnail": "https://i.ytimg.com/vi/9lcGB0bdpCY/hq720.jpg"
        },
        {
            "id": "3dtZsC5LZYg",
            "title": "The Kerala Story 2 Full Movie Hindi Dubbed 2026 | New Bollywood Movie | New Movie 2026",
            "url": "https://www.youtube.com/watch?v=3dtZsC5LZYg",
            "duration": 8860.0,
            "view_count": 503869,
            "uploader": "21 Pictures",
            "category": "hindi",
            "thumbnail": "https://i.ytimg.com/vi/3dtZsC5LZYg/hq720.jpg"
        },
        {
            "id": "tbJhoOU5XRQ",
            "title": "Qarib Qarib Singlle (2017) Full Hindi Movie 4K | Irrfan Khan | Parvathy Thiruvothu | Bollywood Movie",
            "url": "https://www.youtube.com/watch?v=tbJhoOU5XRQ",
            "duration": 7229.0,
            "view_count": 3398159,
            "uploader": "Ultra Bollywood",
            "category": "hindi",
            "thumbnail": "https://i.ytimg.com/vi/tbJhoOU5XRQ/hq720.jpg"
        },
        {
            "id": "9OhM9Tox-5s",
            "title": "Mahesh Babu New Action Movie 2026 | Saaheb | South Indian Blockbuster | Hindi Dubbed HD",
            "url": "https://www.youtube.com/watch?v=9OhM9Tox-5s",
            "duration": 6178.0,
            "view_count": 27809,
            "uploader": "MovieMindset",
            "category": "hindi",
            "thumbnail": "https://i.ytimg.com/vi/9OhM9Tox-5s/hq720.jpg"
        },
        {
            "id": "FRIk-YyB3m4",
            "title": "Rudraksh (2026) Full Movie Hindi Dubbed | Dhanush & Rashmika New Action Thriller | South Movie",
            "url": "https://www.youtube.com/watch?v=FRIk-YyB3m4",
            "duration": 7084.0,
            "view_count": 207373,
            "uploader": "Movie Record South",
            "category": "hindi",
            "thumbnail": "https://i.ytimg.com/vi/FRIk-YyB3m4/hq720.jpg"
        },
        {
            "id": "PBD9BiG3TsM",
            "title": "APMAAN - Full Movie 2026 | Shahid Kapoor | Kriti Sanon | New Bollywood Hindi Action Full Movie 2026",
            "url": "https://www.youtube.com/watch?v=PBD9BiG3TsM",
            "duration": 6448.0,
            "view_count": 3483,
            "uploader": "Santra Cinema",
            "category": "hindi",
            "thumbnail": "https://i.ytimg.com/vi/PBD9BiG3TsM/hq720.jpg"
        },
        {
            "id": "7LLW0Qs5HwA",
            "title": "TAARZAN 2: The Wonder Car | Shahid Kapoor | Sanjay Dutt | Kriti Sanon | Latest Bollywood Movie",
            "url": "https://www.youtube.com/watch?v=7LLW0Qs5HwA",
            "duration": 6277.0,
            "view_count": 2161593,
            "uploader": "Bilo New Movies",
            "category": "hindi",
            "thumbnail": "https://i.ytimg.com/vi/7LLW0Qs5HwA/hq720.jpg"
        },
        {
            "id": "LtJl49qZULo",
            "title": "BHIKHARI Full HD Movie | Hrithik Roshan, Kajol Devgn | Bollywood Latest Superhit Action Movies 2026",
            "url": "https://www.youtube.com/watch?v=LtJl49qZULo",
            "duration": 8700.0,
            "view_count": 1520618,
            "uploader": "Santra Cinema",
            "category": "hindi",
            "thumbnail": "https://i.ytimg.com/vi/LtJl49qZULo/hq720.jpg"
        },
        {
            "id": "2rimJYGU5iI",
            "title": "HINDU MUSLIM Full Movie | Akshay Kumar | Paresh Rawal | Latest Bollywood Religious Movie 2026",
            "url": "https://www.youtube.com/watch?v=2rimJYGU5iI",
            "duration": 6207.0,
            "view_count": 2140545,
            "uploader": "Cine South Cinema",
            "category": "hindi",
            "thumbnail": "https://i.ytimg.com/vi/2rimJYGU5iI/hq720.jpg"
        },
        {
            "id": "0oW1pxGk3G4",
            "title": "Tanu Weds Manu - Full Movie | R. Madhavan | Kangana Ranaut | Aanand L. Rai | 8K/4K Ultra HD",
            "url": "https://www.youtube.com/watch?v=0oW1pxGk3G4",
            "duration": 6882.0,
            "view_count": 406451,
            "uploader": "Eros Universe",
            "category": "hindi",
            "thumbnail": "https://i.ytimg.com/vi/0oW1pxGk3G4/hq720.jpg"
        },
        {
            "id": "NiEkmLG9kLo",
            "title": "The Kerala Story 2 Full Movie Hindi Dubbed 2026 | New Bollywood Movie | New Movie 2026",
            "url": "https://www.youtube.com/watch?v=NiEkmLG9kLo",
            "duration": 8907.0,
            "view_count": 1810,
            "uploader": "Cinezaar Cinema",
            "category": "hindi",
            "thumbnail": "https://i.ytimg.com/vi/NiEkmLG9kLo/hq720.jpg"
        },
        {
            "id": "aMqfyM2SfaM",
            "title": "#DQ41 Full Movie Hindi Dubbed | Dulquer Salmaan | Sreeleela | Latest South Indian Action Movie 2026",
            "url": "https://www.youtube.com/watch?v=aMqfyM2SfaM",
            "duration": 8120.0,
            "view_count": 132919,
            "uploader": "Moviewood Cinema",
            "category": "hindi",
            "thumbnail": "https://i.ytimg.com/vi/aMqfyM2SfaM/hq720.jpg"
        },
        {
            "id": "qlOCMrcOchY",
            "title": "Rolex (2026) Full Hindi Dubbed Movie | Suriya, Vijay Sethupathi, Kamal Haasan | South Action HD",
            "url": "https://www.youtube.com/watch?v=qlOCMrcOchY",
            "duration": 9630.0,
            "view_count": 60929,
            "uploader": "PlayNation",
            "category": "hindi",
            "thumbnail": "https://i.ytimg.com/vi/qlOCMrcOchY/hq720.jpg"
        },
        {
            "id": "sCkc0Tv9BMg",
            "title": "The Kerala Story 2 Full Movie Hindi Dubbed 2026 | New Bollywood Movie | New Movie 2026",
            "url": "https://www.youtube.com/watch?v=sCkc0Tv9BMg",
            "duration": 6690.0,
            "view_count": 13727,
            "uploader": "Movietel",
            "category": "hindi",
            "thumbnail": "https://i.ytimg.com/vi/sCkc0Tv9BMg/hq720.jpg"
        },
        {
            "id": "kxAbTN2Afr4",
            "title": "The Kerala Story 2 Full Movie Hindi Dubbed 2026 | New Bollywood Movie | New Movie 2026",
            "url": "https://www.youtube.com/watch?v=kxAbTN2Afr4",
            "duration": 6690.0,
            "view_count": 5210,
            "uploader": "Entertainment Hub",
            "category": "hindi",
            "thumbnail": "https://i.ytimg.com/vi/kxAbTN2Afr4/hq720.jpg"
        },
        {
            "id": "mia1QUf9DHg",
            "title": "NANDINI Full Movie | Akshay Kumar, Rani Mukerji | Mother & Doughter Movie | New Bollywood Movie 2026",
            "url": "https://www.youtube.com/watch?v=mia1QUf9DHg",
            "duration": 6910.0,
            "view_count": 1113408,
            "uploader": "Moviewood Cinema",
            "category": "hindi",
            "thumbnail": "https://i.ytimg.com/vi/mia1QUf9DHg/hq720.jpg"
        },
        {
            "id": "-XjFUFRyfl8",
            "title": "DADDY (2026) Nagarjuna, Samantha, Keerthy New South Full Hd Movie | Latest South Hindi Dubbed Movie",
            "url": "https://www.youtube.com/watch?v=-XjFUFRyfl8",
            "duration": 8249.0,
            "view_count": 2319686,
            "uploader": "Trending Movies World",
            "category": "hindi",
            "thumbnail": "https://i.ytimg.com/vi/-XjFUFRyfl8/hqdefault.jpg"
        },
        {
            "id": "fmkS85mNZWA",
            "title": "Oxygen (2026) New Released Hindi Dubbed Movie | Gopichand, Raashii Khanna, Anu Emmanuel, Jagapathi",
            "url": "https://www.youtube.com/watch?v=fmkS85mNZWA",
            "duration": 7604.0,
            "view_count": 5644279,
            "uploader": "Goldmines",
            "category": "hindi",
            "thumbnail": "https://i.ytimg.com/vi/fmkS85mNZWA/hq720.jpg"
        },
        {
            "id": "-ZEUL81Z0A0",
            "title": "Rekha & Karisma Kapoor's ZUBEIDAA Full Movie | Manoj Bajpayee | Bollywood Romantic Movie",
            "url": "https://www.youtube.com/watch?v=-ZEUL81Z0A0",
            "duration": 8967.0,
            "view_count": 1765652,
            "uploader": "Grand Master Movies",
            "category": "hindi",
            "thumbnail": "https://i.ytimg.com/vi/-ZEUL81Z0A0/hq720.jpg"
        },
        {
            "id": "Yin1FH7C554",
            "title": "Pushpa 3 (2026) | Allu Arjun, Rashmika Mandanna Hindi Dubbed Action Thriller Movie | New Movie 2026",
            "url": "https://www.youtube.com/watch?v=Yin1FH7C554",
            "duration": 11171.0,
            "view_count": 12723,
            "uploader": "Noor Islamic AI",
            "category": "hindi",
            "thumbnail": "https://i.ytimg.com/vi/Yin1FH7C554/hqdefault.jpg"
        },
        {
            "id": "092gBCZztq8",
            "title": "MISSING Full Movie | Thalapathy Vijay | Nayanthara | New South Indian Hindi Dubbed Action Movie 2026",
            "url": "https://www.youtube.com/watch?v=092gBCZztq8",
            "duration": 8845.0,
            "view_count": 7212,
            "uploader": "Movies University",
            "category": "hindi",
            "thumbnail": "https://i.ytimg.com/vi/092gBCZztq8/hq720.jpg"
        },
        {
            "id": "i_21aCCgz1M",
            "title": "Hanuman 2 Full Movie Hindi Dubbed 2026 | Teja Sajja | Rishabh Shetty | New South Hindi Movie 2026",
            "url": "https://www.youtube.com/watch?v=i_21aCCgz1M",
            "duration": 7417.0,
            "view_count": 101753,
            "uploader": "Movies University",
            "category": "hindi",
            "thumbnail": "https://i.ytimg.com/vi/i_21aCCgz1M/hq720.jpg"
        },
        {
            "id": "Q2e3mLmS4HA",
            "title": "Tanu Weds Manu Returns | Madhavan, Kangana Ranaut | Superhit Bollywood Full Movie (HD)",
            "url": "https://www.youtube.com/watch?v=Q2e3mLmS4HA",
            "duration": 7343.0,
            "view_count": 222022,
            "uploader": "Eros Universe Showtime",
            "category": "hindi",
            "thumbnail": "https://i.ytimg.com/vi/Q2e3mLmS4HA/hq720.jpg"
        },
        {
            "id": "-kW7qCbsqEw",
            "title": "Vikram (2026) Full Movie | Kamal Haasan, Vijay Sethupathi | South Indian Action Thriller HD",
            "url": "https://www.youtube.com/watch?v=-kW7qCbsqEw",
            "duration": 10375.0,
            "view_count": 18968,
            "uploader": "PlayNation",
            "category": "hindi",
            "thumbnail": "https://i.ytimg.com/vi/-kW7qCbsqEw/hq720.jpg"
        },
        {
            "id": "jTiPJTTr744",
            "title": "MANIPULATOR | Akshay Kumar, Rakul Preet | New (2026) Hindi Action Crime Thriller Movie | Full HD",
            "url": "https://www.youtube.com/watch?v=jTiPJTTr744",
            "duration": 7505.0,
            "view_count": 20041938,
            "uploader": "PlayNation",
            "category": "hindi",
            "thumbnail": "https://i.ytimg.com/vi/jTiPJTTr744/hq720.jpg"
        },
        {
            "id": "DGZEajIVCxk",
            "title": "PARTNER | Superhit Comedy HD Movie | Full Movie | Salman Khan, Govinda, Katrina Kaif, Lara Dutta",
            "url": "https://www.youtube.com/watch?v=DGZEajIVCxk",
            "duration": 8209.0,
            "view_count": 4652397,
            "uploader": "Eros Universe Bioscope",
            "category": "hindi",
            "thumbnail": "https://i.ytimg.com/vi/DGZEajIVCxk/hq720.jpg"
        },
        {
            "id": "G-JiSDdhWuM",
            "title": "RUDHRA Mahesh Babu New South Indian Hindi Dubbed Full HD Movie | South Latest Release Hindi Movie",
            "url": "https://www.youtube.com/watch?v=G-JiSDdhWuM",
            "duration": 8487.0,
            "view_count": 308828,
            "uploader": "Trending Movies World",
            "category": "hindi",
            "thumbnail": "https://i.ytimg.com/vi/G-JiSDdhWuM/hq720.jpg"
        },
        {
            "id": "PnjFV4wyWTk",
            "title": "Kashi Full Movie | Mahesh Babu | New South Indian Hindi Dubbed Full Action Blockbuster Movies 2026",
            "url": "https://www.youtube.com/watch?v=PnjFV4wyWTk",
            "duration": 8216.0,
            "view_count": 12397948,
            "uploader": "Bollywood World",
            "category": "hindi",
            "thumbnail": "https://i.ytimg.com/vi/PnjFV4wyWTk/hq720.jpg"
        },
        {
            "id": "PW59JRTld6o",
            "title": "VARANASI to the WORLD - Mahesh Babu (Full Movie) | New South Indian Movies Dubbed In Hindi 2025 Full",
            "url": "https://www.youtube.com/watch?v=PW59JRTld6o",
            "duration": 8087.0,
            "view_count": 8950124,
            "uploader": "Duroflex Action",
            "category": "hindi",
            "thumbnail": "https://i.ytimg.com/vi/PW59JRTld6o/hq720.jpg"
        },
        {
            "id": "VyXCddv8ON8",
            "title": "#DS41 Full Hindi Movie | Dulquer Salmaan | Pooja Hegde | Bobby Deol | Latest South Indian Movie 2026",
            "url": "https://www.youtube.com/watch?v=VyXCddv8ON8",
            "duration": 8090.0,
            "view_count": 531937,
            "uploader": "Moviewood Cinema",
            "category": "hindi",
            "thumbnail": "https://i.ytimg.com/vi/VyXCddv8ON8/hq720.jpg"
        },
        {
            "id": "ibih8qNtC-k",
            "title": "#RSP26 Full Movie Hindi Dubbed | Prabhas | Samantha | Latest South Indian Full Action Movie 2026",
            "url": "https://www.youtube.com/watch?v=ibih8qNtC-k",
            "duration": 7841.0,
            "view_count": 96486,
            "uploader": "Bollwood Cinema Hindi",
            "category": "hindi",
            "thumbnail": "https://i.ytimg.com/vi/ibih8qNtC-k/hq720.jpg"
        },
        {
            "id": "IK73uPKOgHg",
            "title": "Subedaar Full Movie 2026 | Anil Kapoor | Radhika Madan | Nana Patekar | Mona Singh | Reviews & Facts",
            "url": "https://www.youtube.com/watch?v=IK73uPKOgHg",
            "duration": 8768.0,
            "view_count": 12463,
            "uploader": "Dil Se Stories",
            "category": "hindi",
            "thumbnail": "https://i.ytimg.com/vi/IK73uPKOgHg/hq720.jpg"
        },
        {
            "id": "YnZ1EkXoPJY",
            "title": "Sardar (2026 film) Full Movie Hindi Dubbed | Karthi | Uncut Web-DL HD | Action Thriller 2026 #sardar",
            "url": "https://www.youtube.com/watch?v=YnZ1EkXoPJY",
            "duration": 10392.0,
            "view_count": 6618,
            "uploader": "potterhead26",
            "category": "hindi",
            "thumbnail": "https://i.ytimg.com/vi/YnZ1EkXoPJY/hqdefault.jpg"
        },
        {
            "id": "TZypbZoGhNk",
            "title": "Dhurandher Prem Yudh (2026) Roopika New Full Movie | 2026 South Latest Hindi Dubbed Movie In 4K",
            "url": "https://www.youtube.com/watch?v=TZypbZoGhNk",
            "duration": 6101.0,
            "view_count": 72496,
            "uploader": "Sur Movies Exclusive and 2 more",
            "category": "hindi",
            "thumbnail": "https://i.ytimg.com/vi/TZypbZoGhNk/hq720.jpg"
        }
    ]
}