{
    "page": 7,
    "total_pages": 12,
    "total_items": 558,
    "items": [
        {
            "id": "Cwy90fDOTBc",
            "title": "Dhurandhar 2 - The Revenge | Full Action Movie | New Hindi Dubbed Movie 2026",
            "url": "https://www.youtube.com/watch?v=Cwy90fDOTBc",
            "duration": 13411.0,
            "view_count": 768,
            "uploader": "Himanshu Aggarwal Raw",
            "category": "hindi",
            "thumbnail": "https://i.ytimg.com/vi/Cwy90fDOTBc/hq720.jpg"
        },
        {
            "id": "BKCQhfTmfSw",
            "title": "#AK65 Full Movie Hindi Dubbed | Ajith Kumar | Jagapathi Babu | Latest South Indian Action Movie 2026",
            "url": "https://www.youtube.com/watch?v=BKCQhfTmfSw",
            "duration": 7568.0,
            "view_count": 465733,
            "uploader": "Power Star Pictures",
            "category": "hindi",
            "thumbnail": "https://i.ytimg.com/vi/BKCQhfTmfSw/hq720.jpg"
        },
        {
            "id": "bPbd6oeESxM",
            "title": "Gambler (1995) Hindi Full Movie - Action Comedy Movie - Govinda, Shilpa Shetty, Aditya Pancholi",
            "url": "https://www.youtube.com/watch?v=bPbd6oeESxM",
            "duration": 10166.0,
            "view_count": 84058,
            "uploader": "90s Ki Heroine",
            "category": "hindi",
            "thumbnail": "https://i.ytimg.com/vi/bPbd6oeESxM/hq720.jpg"
        },
        {
            "id": "ar7i0kLxvLo",
            "title": "New Blockbuster Hindi Dubbed Action Movie _ New South Indian Movies Dubbed In Hindi 2026 Full",
            "url": "https://www.youtube.com/watch?v=ar7i0kLxvLo",
            "duration": 8490.0,
            "view_count": 289208,
            "uploader": "Super Movies Dhamaka",
            "category": "hindi",
            "thumbnail": "https://i.ytimg.com/vi/ar7i0kLxvLo/hq720.jpg"
        },
        {
            "id": "2mMwAvBRPsk",
            "title": "Aaj Ka Brahma  (HD) Superhit Indian Blockbuster Hindi Dubbed Action Movie | Sunil, Sushma Raj, Richa",
            "url": "https://www.youtube.com/watch?v=2mMwAvBRPsk",
            "duration": 7467.0,
            "view_count": 512858,
            "uploader": "Dumdar HD Movies",
            "category": "hindi",
            "thumbnail": "https://i.ytimg.com/vi/2mMwAvBRPsk/hq720.jpg"
        },
        {
            "id": "GCW0lWerCd8",
            "title": "Fortuner\" (HD) Telugu Released Hindi Dubbed Movies | South Indian Movies | Naga Shourya, Sonarika",
            "url": "https://www.youtube.com/watch?v=GCW0lWerCd8",
            "duration": 7183.0,
            "view_count": 26049,
            "uploader": "RDC Express",
            "category": "hindi",
            "thumbnail": "https://i.ytimg.com/vi/GCW0lWerCd8/hq720.jpg"
        },
        {
            "id": "JPGP9Xetm1s",
            "title": "PUSHPA 3 The Rampage : Full Movie | Allu Arjun | Rashmika Mandana | Latest Full Action Movie 2026",
            "url": "https://www.youtube.com/watch?v=JPGP9Xetm1s",
            "duration": 9116.0,
            "view_count": 4107,
            "uploader": "Ranita Studio",
            "category": "hindi",
            "thumbnail": "https://i.ytimg.com/vi/JPGP9Xetm1s/hq720.jpg"
        },
        {
            "id": "LRJvXaPA5u4",
            "title": "#AK65 Full Movie Hindi Dubbed | Ajith Kumar | Jagapathi Babu | Latest South Indian Action Movie 2026",
            "url": "https://www.youtube.com/watch?v=LRJvXaPA5u4",
            "duration": 7568.0,
            "view_count": 445728,
            "uploader": "D Action Pictures",
            "category": "hindi",
            "thumbnail": "https://i.ytimg.com/vi/LRJvXaPA5u4/hq720.jpg"
        },
        {
            "id": "JFTKDz_hD_4",
            "title": "Vijay Thalapathy Hindi Dubbed Movie Full Love Story-  Kajal Agarwal | New Movie 2026",
            "url": "https://www.youtube.com/watch?v=JFTKDz_hD_4",
            "duration": 8926.0,
            "view_count": 164350,
            "uploader": "Super Movies Dhamaka",
            "category": "hindi",
            "thumbnail": "https://i.ytimg.com/vi/JFTKDz_hD_4/hq720.jpg"
        },
        {
            "id": "F-3msnf5m04",
            "title": "Rockstar (HD) | Ranbir Kapoor, Nargis Fakhri | Imtiaz Ali | A. R. Rahman Musical Hit Full Movie",
            "url": "https://www.youtube.com/watch?v=F-3msnf5m04",
            "duration": 9109.0,
            "view_count": 3533429,
            "uploader": "Eros Universe",
            "category": "hindi",
            "thumbnail": "https://i.ytimg.com/vi/F-3msnf5m04/hq720.jpg"
        },
        {
            "id": "232DJWzedT0",
            "title": "New Movie 2026 Superhit (HD) Blockbuster South Indian Hindi Dubbed Action Movie || Achamindri",
            "url": "https://www.youtube.com/watch?v=232DJWzedT0",
            "duration": 6119.0,
            "view_count": 5717,
            "uploader": "CINE MAGIC",
            "category": "hindi",
            "thumbnail": "https://i.ytimg.com/vi/232DJWzedT0/hq720.jpg"
        },
        {
            "id": "ysII1LtqV4o",
            "title": "2026 Thalapathy Vijay Hindi Dubbed Blockbuster Action Movie Full HD 1080p | Kajal Agarwal | Action",
            "url": "https://www.youtube.com/watch?v=ysII1LtqV4o",
            "duration": 8926.0,
            "view_count": 216473,
            "uploader": "Super Movies Dhamaka",
            "category": "hindi",
            "thumbnail": "https://i.ytimg.com/vi/ysII1LtqV4o/hq720.jpg"
        },
        {
            "id": "Ugx5N__5lNM",
            "title": "LOVE EXPRESS | South Hindi Dubbed Action Romantic Movie Full HD 1080p | Naga Shaurya, Sana New Movie",
            "url": "https://www.youtube.com/watch?v=Ugx5N__5lNM",
            "duration": 7621.0,
            "view_count": 46533,
            "uploader": "MIX Movies Entertainment",
            "category": "hindi",
            "thumbnail": "https://i.ytimg.com/vi/Ugx5N__5lNM/hq720.jpg"
        },
        {
            "id": "nzpyeINh2xI",
            "title": "RAAYAN | Dhanush, S.J. Suryah | New (2026) Released Hindi Action Crime Thriller Movie | Full HD",
            "url": "https://www.youtube.com/watch?v=nzpyeINh2xI",
            "duration": 8518.0,
            "view_count": 22003,
            "uploader": "PlayNation",
            "category": "hindi",
            "thumbnail": "https://i.ytimg.com/vi/nzpyeINh2xI/hq720.jpg"
        },
        {
            "id": "5VgwOenJy_o",
            "title": "South Hindi Dubbed Action Romantic Movie Full HD 1080p | Nandakishore, Sirihanmanth | New Movie",
            "url": "https://www.youtube.com/watch?v=5VgwOenJy_o",
            "duration": 4765.0,
            "view_count": 11683,
            "uploader": "Sur Movies Multiplex",
            "category": "hindi",
            "thumbnail": "https://i.ytimg.com/vi/5VgwOenJy_o/hq720.jpg"
        },
        {
            "id": "7RzRxbYHfoc",
            "title": "Dhurandhar 2 full movie hindi Dubbed | Ranveer singh Akshay khanna | New Hindi Action Movie |",
            "url": "https://www.youtube.com/watch?v=7RzRxbYHfoc",
            "duration": 13216.0,
            "view_count": 162,
            "uploader": "SPY-Ranveer",
            "category": "hindi",
            "thumbnail": "https://i.ytimg.com/vi/7RzRxbYHfoc/hqdefault.jpg"
        },
        {
            "id": "4CkNoBsRwRc",
            "title": "Judgementall Hai Kya (2019) New Full Hindi Movie | जजमेंटल है क्या? | Rajkummar Rao | Kangana Ranaut",
            "url": "https://www.youtube.com/watch?v=4CkNoBsRwRc",
            "duration": 7264.0,
            "view_count": 2180264,
            "uploader": "Ultra Bollywood",
            "category": "hindi",
            "thumbnail": "https://i.ytimg.com/vi/4CkNoBsRwRc/hq720.jpg"
        },
        {
            "id": "qO3zidZ_GUM",
            "title": "MISSION 71 | Akshay Kumar, Vidyut Jammwal | Hindi Dubbed Action Spy Thriller Movie | Full HD Movie",
            "url": "https://www.youtube.com/watch?v=qO3zidZ_GUM",
            "duration": 6151.0,
            "view_count": 6954261,
            "uploader": "PlayNation",
            "category": "hindi",
            "thumbnail": "https://i.ytimg.com/vi/qO3zidZ_GUM/hq720.jpg"
        },
        {
            "id": "dzebY2AXo00",
            "title": "NAAGRAJ 2 Full Movie Hindi Dubbed | Prabhas & Tamannaah | Latest South Indian Anaconda Movie 2026",
            "url": "https://www.youtube.com/watch?v=dzebY2AXo00",
            "duration": 8832.0,
            "view_count": 107173,
            "uploader": "Ranita Studio",
            "category": "hindi",
            "thumbnail": "https://i.ytimg.com/vi/dzebY2AXo00/hq720.jpg"
        },
        {
            "id": "xlJ0SjE0z5w",
            "title": "Tere Naam (2003) - Full Hindi Movie 8K/4K Ultra HD |Salman Khan & Bhumika Chawla |Hit Romantic Drama",
            "url": "https://www.youtube.com/watch?v=xlJ0SjE0z5w",
            "duration": 8240.0,
            "view_count": 290917,
            "uploader": "Eros Universe",
            "category": "hindi",
            "thumbnail": "https://i.ytimg.com/vi/xlJ0SjE0z5w/hq720.jpg"
        },
        {
            "id": "gQEUkqZ33IA",
            "title": "Zindagi Na Milegi Dobara 2011 Full Hindi Movie",
            "url": "https://www.youtube.com/watch?v=gQEUkqZ33IA",
            "duration": 9264.0,
            "view_count": 5501140,
            "uploader": "As You Wish",
            "category": "hindi",
            "thumbnail": "https://i.ytimg.com/vi/gQEUkqZ33IA/hqdefault.jpg"
        },
        {
            "id": "8vkHX7leEBc",
            "title": "AK47 Full Movie Hindi Dubbed | Ajith Kumar | Jagapathi Babu Latest South Indian Action Movie 2026",
            "url": "https://www.youtube.com/watch?v=8vkHX7leEBc",
            "duration": 9403.0,
            "view_count": 19308,
            "uploader": "H Islamic ",
            "category": "hindi",
            "thumbnail": "https://i.ytimg.com/vi/8vkHX7leEBc/hqdefault.jpg"
        },
        {
            "id": "0VBZi5UH8fw",
            "title": "Desi Boyz (2011) | Akshay Kumar, John Abraham, Deepika Padukone | Hindi Comedy Full Movie (HD)",
            "url": "https://www.youtube.com/watch?v=0VBZi5UH8fw",
            "duration": 7315.0,
            "view_count": 114565,
            "uploader": "Eros Universe Showtime",
            "category": "hindi",
            "thumbnail": "https://i.ytimg.com/vi/0VBZi5UH8fw/hq720.jpg"
        },
        {
            "id": "yk-308TrThw",
            "title": "Pushpa 3 Full Movie Hindi Dubbed 2026 | Allu Arjun New Movie | Latest Superhit South Movie 2026",
            "url": "https://www.youtube.com/watch?v=yk-308TrThw",
            "duration": 8932.0,
            "view_count": 1840,
            "uploader": "21 Pictures",
            "category": "hindi",
            "thumbnail": "https://i.ytimg.com/vi/yk-308TrThw/hq720.jpg"
        },
        {
            "id": "1Bq1ISI1inQ",
            "title": "2026 New Blockbuster Hindi Dubbed Action Movie _ New South Indian Movies Dubbed In Hindi 2026 Full",
            "url": "https://www.youtube.com/watch?v=1Bq1ISI1inQ",
            "duration": 8926.0,
            "view_count": 919219,
            "uploader": "Super Movies Dhamaka",
            "category": "hindi",
            "thumbnail": "https://i.ytimg.com/vi/1Bq1ISI1inQ/hq720.jpg"
        },
        {
            "id": "R4uRmeL6zMw",
            "title": "2026 New Blockbuster Hindi Dubbed Action Movie _ New South Indian Movies Dubbed In Hindi 2026 Full",
            "url": "https://www.youtube.com/watch?v=R4uRmeL6zMw",
            "duration": 9836.0,
            "view_count": 6112,
            "uploader": "Super Movies Dhamaka",
            "category": "hindi",
            "thumbnail": "https://i.ytimg.com/vi/R4uRmeL6zMw/hq720.jpg"
        },
        {
            "id": "TB4epGgNtrw",
            "title": "Toxic Full Movie Hindi Dubbed 2026 | Yash | Kiara | Huma | Nayanthara | South Action Full HD Movie",
            "url": "https://www.youtube.com/watch?v=TB4epGgNtrw",
            "duration": 7444.0,
            "view_count": 112524,
            "uploader": "Pixel Picture House ",
            "category": "hindi",
            "thumbnail": "https://i.ytimg.com/vi/TB4epGgNtrw/hq720.jpg"
        },
        {
            "id": "rR1LQoOTCgk",
            "title": "Dhurandhar 2 the revenge full movie in Hindi",
            "url": "https://www.youtube.com/watch?v=rR1LQoOTCgk",
            "duration": 13738.0,
            "view_count": 1042,
            "uploader": "Indian movies corner",
            "category": "hindi",
            "thumbnail": "https://i.ytimg.com/vi/rR1LQoOTCgk/hq720.jpg"
        },
        {
            "id": "h4LJn8_Hodw",
            "title": "Toxic Full Movie Hindi Dubbed 2026 | Yash | Kiara | Huma | Nayanthara | South Action Full HD Movie",
            "url": "https://www.youtube.com/watch?v=h4LJn8_Hodw",
            "duration": 8156.0,
            "view_count": 100396,
            "uploader": "Bolly Pictures Point",
            "category": "hindi",
            "thumbnail": "https://i.ytimg.com/vi/h4LJn8_Hodw/hq720.jpg"
        },
        {
            "id": "YaHPnjinJpE",
            "title": "VERNA Full Movie Hindi Dubbed | Allu Arjun & Sreeleela | Latest South Indian Full Action Movie 2026",
            "url": "https://www.youtube.com/watch?v=YaHPnjinJpE",
            "duration": 8717.0,
            "view_count": 89733,
            "uploader": "4x Cinema",
            "category": "hindi",
            "thumbnail": "https://i.ytimg.com/vi/YaHPnjinJpE/hq720.jpg"
        },
        {
            "id": "GYJeCObuuB0",
            "title": "Ranga Ranga (2025) New Released Hindi Dubbed Movie | Panja Vaisshnav Tej, Ketika Sharma",
            "url": "https://www.youtube.com/watch?v=GYJeCObuuB0",
            "duration": 7485.0,
            "view_count": 63940652,
            "uploader": "Goldmines",
            "category": "hindi",
            "thumbnail": "https://i.ytimg.com/vi/GYJeCObuuB0/hq720.jpg"
        },
        {
            "id": "MC6lLcxru9c",
            "title": "Dhurandhar 2 the revenge full movie in hindi ",
            "url": "https://www.youtube.com/watch?v=MC6lLcxru9c",
            "duration": 13411.0,
            "view_count": 6808,
            "uploader": "Victory technical ",
            "category": "hindi",
            "thumbnail": "https://i.ytimg.com/vi/MC6lLcxru9c/hqdefault.jpg"
        },
        {
            "id": "iLBM9tZuzFg",
            "title": "THALAPATHY VIJAY & RASHMIKA MANDANNA FULL ACTION MOVIE | HURT | Latest South Hindi Dubbed Movie 2026",
            "url": "https://www.youtube.com/watch?v=iLBM9tZuzFg",
            "duration": 7099.0,
            "view_count": 311944,
            "uploader": "4x Cinema",
            "category": "hindi",
            "thumbnail": "https://i.ytimg.com/vi/iLBM9tZuzFg/hq720.jpg"
        },
        {
            "id": "Wo-kmQzcrOs",
            "title": "LOST Full Movie Hindi Dubbed | Dhanush, Keerthy Suresh | Latest South Indian Love Story Movie 2026",
            "url": "https://www.youtube.com/watch?v=Wo-kmQzcrOs",
            "duration": 6680.0,
            "view_count": 47189,
            "uploader": "FilmyJunction",
            "category": "hindi",
            "thumbnail": "https://i.ytimg.com/vi/Wo-kmQzcrOs/hq720.jpg"
        },
        {
            "id": "ELXTbENIWKo",
            "title": "Toxic Full Movie Hindi Dubbed 2026 | Yash | Kiara | Huma | Nayanthara | South Action Full HD Movie",
            "url": "https://www.youtube.com/watch?v=ELXTbENIWKo",
            "duration": 8156.0,
            "view_count": 83156,
            "uploader": "Power Star Pictures",
            "category": "hindi",
            "thumbnail": "https://i.ytimg.com/vi/ELXTbENIWKo/hq720.jpg"
        },
        {
            "id": "hsgoEM2Amng",
            "title": "King Rise 2026 | 2026 South Blockbuster Action Full Movie Hindi Dubbed Allu Arjun & Shruti",
            "url": "https://www.youtube.com/watch?v=hsgoEM2Amng",
            "duration": 7300.0,
            "view_count": 158459,
            "uploader": "CinePulse TV",
            "category": "hindi",
            "thumbnail": "https://i.ytimg.com/vi/hsgoEM2Amng/hq720.jpg"
        },
        {
            "id": "tKqo-4qAeJA",
            "title": "Haseena Parkar Full Movie | Shraddha Kapoor, Siddhanth Kapoor, Apoorva | Bollywood Movie",
            "url": "https://www.youtube.com/watch?v=tKqo-4qAeJA",
            "duration": 7071.0,
            "view_count": 127676163,
            "uploader": "Pen Movies",
            "category": "hindi",
            "thumbnail": "https://i.ytimg.com/vi/tKqo-4qAeJA/hq720.jpg"
        },
        {
            "id": "c0-PC-egbz8",
            "title": "Mahesh Babu Full Movie Hindi Dubbed | Blockbuster Action Thriller | HD New Movie 2026",
            "url": "https://www.youtube.com/watch?v=c0-PC-egbz8",
            "duration": 7101.0,
            "view_count": 2774142,
            "uploader": "Letoleen Records",
            "category": "hindi",
            "thumbnail": "https://i.ytimg.com/vi/c0-PC-egbz8/hq720.jpg"
        },
        {
            "id": "gz-qAdvDsSk",
            "title": "Viduthalai Part 1 (2026) New Released Hindi Dubbed Full Movie | Vijay Sethupathi, Soori, Bhavani Sre",
            "url": "https://www.youtube.com/watch?v=gz-qAdvDsSk",
            "duration": 7395.0,
            "view_count": 4770700,
            "uploader": "Grand Master Movies and 2 more",
            "category": "hindi",
            "thumbnail": "https://i.ytimg.com/vi/gz-qAdvDsSk/hq720.jpg"
        },
        {
            "id": "K-PtQJThkZ0",
            "title": "Bluffmaster Full Comedy Movie | Abhishek Bachchan, Ritesh Deshmukh, Sanjay Mishra | Hindi Movie | 4K",
            "url": "https://www.youtube.com/watch?v=K-PtQJThkZ0",
            "duration": 7628.0,
            "view_count": 1167018,
            "uploader": "Comedy Talkies",
            "category": "hindi",
            "thumbnail": "https://i.ytimg.com/vi/K-PtQJThkZ0/hq720.jpg"
        },
        {
            "id": "m5LiYTh5ctQ",
            "title": "TIPU SULTAN Full Hindi Movie 2026| Shah Rukh Khan, Ranveer Singh & Deepika Padukone | New Release HD",
            "url": "https://www.youtube.com/watch?v=m5LiYTh5ctQ",
            "duration": 9365.0,
            "view_count": 1358697,
            "uploader": "Anjali Dhariwal",
            "category": "hindi",
            "thumbnail": "https://i.ytimg.com/vi/m5LiYTh5ctQ/hq720.jpg"
        },
        {
            "id": "0v4Hbf0nl6E",
            "title": "Golmaal Again Full Movie - Ajay Devgn, Tabu, Arshad, Johny, Kunal, Tusshar | Best Comedy",
            "url": "https://www.youtube.com/watch?v=0v4Hbf0nl6E",
            "duration": 8709.0,
            "view_count": 30427191,
            "uploader": "Shemaroo Movies",
            "category": "hindi",
            "thumbnail": "https://i.ytimg.com/vi/0v4Hbf0nl6E/hq720.jpg"
        },
        {
            "id": "iZ--E_pGCSY",
            "title": "New Released \"Taxi (2023) | South Indian Action Thriller Full Movie Hindi Dubbed | Latest South Film",
            "url": "https://www.youtube.com/watch?v=iZ--E_pGCSY",
            "duration": 6976.0,
            "view_count": 272971,
            "uploader": "Big Screen Entertainment",
            "category": "hindi",
            "thumbnail": "https://i.ytimg.com/vi/iZ--E_pGCSY/hq720.jpg"
        },
        {
            "id": "J8StEzQxlro",
            "title": "Vinaya Vidheya Rama (2025) | Ram Charan, Kiara Advani Hindi Dubbed Action Movie | Full HD",
            "url": "https://www.youtube.com/watch?v=J8StEzQxlro",
            "duration": 7453.0,
            "view_count": 19459,
            "uploader": "PlayNation",
            "category": "hindi",
            "thumbnail": "https://i.ytimg.com/vi/J8StEzQxlro/hq720.jpg"
        },
        {
            "id": "pEI9xHRit6w",
            "title": "Pushpa 3 Full Movie 2026 | Allu Arjun | Rashmika Mandanna | New South Indian Hindi Dubbed Movie 2026",
            "url": "https://www.youtube.com/watch?v=pEI9xHRit6w",
            "duration": 8932.0,
            "view_count": 7194,
            "uploader": "Bolly Pictures Point",
            "category": "hindi",
            "thumbnail": "https://i.ytimg.com/vi/pEI9xHRit6w/hq720.jpg"
        },
        {
            "id": "G3c03u_b5KI",
            "title": "Dhurandhar 2 The Revenge 💥 Full Hindi Movie | Aditya Dhar, Ranveer Singh Dhurandhar 2 Full Movie new",
            "url": "https://www.youtube.com/watch?v=G3c03u_b5KI",
            "duration": 13411.0,
            "view_count": 5168,
            "uploader": "Jaldi Movie Dekho",
            "category": "hindi",
            "thumbnail": "https://i.ytimg.com/vi/G3c03u_b5KI/hqdefault.jpg"
        },
        {
            "id": "MPg0Q1sbQBQ",
            "title": "VARANASI - New Released South Indian Hindi Dubbed Full Movie 2026 | Mahesh Babu | S.S. Rajamouli",
            "url": "https://www.youtube.com/watch?v=MPg0Q1sbQBQ",
            "duration": 7114.0,
            "view_count": 2920607,
            "uploader": "Pixel Picture House ",
            "category": "hindi",
            "thumbnail": "https://i.ytimg.com/vi/MPg0Q1sbQBQ/hq720.jpg"
        },
        {
            "id": "FJusw80lifo",
            "title": "Kabhi Khushi Kabhie Gham | Full Movie | Shah Rukh Khan, Kajol, Hrithik | K3G | Karan Johar Film",
            "url": "https://www.youtube.com/watch?v=FJusw80lifo",
            "duration": 14485.0,
            "view_count": 953,
            "uploader": "Islamicvideos7",
            "category": "hindi",
            "thumbnail": "https://i.ytimg.com/vi/FJusw80lifo/hqdefault.jpg"
        },
        {
            "id": "QBYUv4NZStg",
            "title": "JAN NETA Full Movie Hindi Dubbed | Thalapathy Vijay & Pooja Hegde | New South Indian Movie 2026",
            "url": "https://www.youtube.com/watch?v=QBYUv4NZStg",
            "duration": 8740.0,
            "view_count": 3142,
            "uploader": "21 Pictures",
            "category": "hindi",
            "thumbnail": "https://i.ytimg.com/vi/QBYUv4NZStg/hq720.jpg"
        },
        {
            "id": "xsBUTPSSr0E",
            "title": "MIRAI 2 - Full Hindi Dubbed Movie | Teja Sajja, Ritika Nayak | New South Action Thriller Movies 2026",
            "url": "https://www.youtube.com/watch?v=xsBUTPSSr0E",
            "duration": 7400.0,
            "view_count": 3173670,
            "uploader": "Bollywood World and Hit Express Cinema",
            "category": "hindi",
            "thumbnail": "https://i.ytimg.com/vi/xsBUTPSSr0E/hq720.jpg"
        }
    ]
}