{
    "page": 12,
    "total_pages": 12,
    "total_items": 558,
    "items": [
        {
            "id": "8UNFn7qAiT8",
            "title": "Raaka Full Movie Hindi Dubbed 2026 | Allu Arjun New Movie | Deepika P | Latest South Movie 2026",
            "url": "https://www.youtube.com/watch?v=8UNFn7qAiT8",
            "duration": 7777.0,
            "view_count": 9721,
            "uploader": "Bollywood World",
            "category": "hindi",
            "thumbnail": "https://i.ytimg.com/vi/8UNFn7qAiT8/hq720.jpg"
        },
        {
            "id": "C68KgRrBA3E",
            "title": "International Rowdy | New (2026) Released South Indian Movie Dubbed In Hindi | Action Thriller Movie",
            "url": "https://www.youtube.com/watch?v=C68KgRrBA3E",
            "duration": 8525.0,
            "view_count": 219428,
            "uploader": "Wamindia Movies",
            "category": "hindi",
            "thumbnail": "https://i.ytimg.com/vi/C68KgRrBA3E/hq720.jpg"
        },
        {
            "id": "ABNcH4uNKnQ",
            "title": "THE RAJASAAB 2 - Full Movie In Hindi | Prabhas | Sanjay Dutt Latest South Indian Horror Movie 2026",
            "url": "https://www.youtube.com/watch?v=ABNcH4uNKnQ",
            "duration": 7473.0,
            "view_count": 7717,
            "uploader": "G Digital Cinema",
            "category": "hindi",
            "thumbnail": "https://i.ytimg.com/vi/ABNcH4uNKnQ/hq720.jpg"
        },
        {
            "id": "3ME7rDDJIgU",
            "title": "#MB75 - Full Movie Hindi Dubbed | Prabhas | Alia Bhatt | Latest South Indian Thriller Movie 2026",
            "url": "https://www.youtube.com/watch?v=3ME7rDDJIgU",
            "duration": 7519.0,
            "view_count": 1728,
            "uploader": "Movies Fever",
            "category": "hindi",
            "thumbnail": "https://i.ytimg.com/vi/3ME7rDDJIgU/hq720.jpg"
        },
        {
            "id": "S3y9txfk8QI",
            "title": "THE RAJASAAB 2 - Full Movie In Hindi | Prabhas | Sanjay Dutt Latest South Indian Horror Movie 2026",
            "url": "https://www.youtube.com/watch?v=S3y9txfk8QI",
            "duration": 7473.0,
            "view_count": 126379,
            "uploader": "Bolly Pictures Point",
            "category": "hindi",
            "thumbnail": "https://i.ytimg.com/vi/S3y9txfk8QI/hq720.jpg"
        },
        {
            "id": "3bKN4iTWqis",
            "title": "VAALU: THE RUTHLESS BOSS - Hindi Dubbed Full Movie | Mammootty, Meena | South Action Movie",
            "url": "https://www.youtube.com/watch?v=3bKN4iTWqis",
            "duration": 5633.0,
            "view_count": 3902,
            "uploader": "Action Movies Digiplex",
            "category": "hindi",
            "thumbnail": "https://i.ytimg.com/vi/3bKN4iTWqis/hq720.jpg"
        },
        {
            "id": "F50EmsabWLc",
            "title": "Intelligent Khiladi (Goodachari) Hindi Dubbed Movie | South Movie | Adivi Sesh, Sobhita Dhulipala",
            "url": "https://www.youtube.com/watch?v=F50EmsabWLc",
            "duration": 8708.0,
            "view_count": 127367462,
            "uploader": "Aditya Movies",
            "category": "hindi",
            "thumbnail": "https://i.ytimg.com/vi/F50EmsabWLc/hq720.jpg"
        },
        {
            "id": "72PGLvfJ7yQ",
            "title": "Inspector Rishi Full movie in Hindi 2026 top South movie ",
            "url": "https://www.youtube.com/watch?v=72PGLvfJ7yQ",
            "duration": 27237.0,
            "view_count": 1608,
            "uploader": "Snapgram",
            "category": "hindi",
            "thumbnail": "https://i.ytimg.com/vi/72PGLvfJ7yQ/hqdefault.jpg?sqp=-oaymwEcCOADEI4CSFXyq4qpAw4IARUAAIhCGAFwAcABBg==&rs=AOn4CLAVf2zk6Mo-Z4NWTo5zwkbwo11ADw",
            "added_date": "2026-04-16T07:30:57.603228Z",
            "source": "youtube"
        }
    ]
}