{
    "page": 3,
    "total_pages": 12,
    "total_items": 558,
    "items": [
        {
            "id": "6jSNtIFGi4U",
            "title": "Nari Nari Naduma Murari 2026 Full Movie Hindi Dubbed Ott Release Date|Sharwanand|Samyuktha Menon ",
            "url": "https://www.youtube.com/watch?v=6jSNtIFGi4U",
            "duration": 7804.0,
            "view_count": 7133871,
            "uploader": "Sachin Gupta ",
            "category": "hindi",
            "thumbnail": "https://i.ytimg.com/vi/6jSNtIFGi4U/hq720.jpg"
        },
        {
            "id": "37Y2Nv3iulQ",
            "title": "SSMB29 | Mahesh Babu Full Hindi Dubbed Action Movie  | South Indian Blockbuster | New Movie",
            "url": "https://www.youtube.com/watch?v=37Y2Nv3iulQ",
            "duration": 10728.0,
            "view_count": 249521,
            "uploader": "Cinema Blast",
            "category": "hindi",
            "thumbnail": "https://i.ytimg.com/vi/37Y2Nv3iulQ/hq720.jpg"
        },
        {
            "id": "3HNTe-zn0Rc",
            "title": "Lucky Bhaskar (2025) | Dalquer Salmaan Hindi Dubbed Full Movie | South Blockbuster | Full HD Movie",
            "url": "https://www.youtube.com/watch?v=3HNTe-zn0Rc",
            "duration": 8602.0,
            "view_count": 11962677,
            "uploader": "Xʏᴢ Rנ Mᴜsɪᴄツ",
            "category": "hindi",
            "thumbnail": "https://i.ytimg.com/vi/3HNTe-zn0Rc/hqdefault.jpg"
        },
        {
            "id": "xtpPQuysUBI",
            "title": "Magadheera 2 Full Hindi Dubbed Movie 2026 | Ram Charan, Kajal Aggarwal,Rajamouli | South Blockbuster",
            "url": "https://www.youtube.com/watch?v=xtpPQuysUBI",
            "duration": 8047.0,
            "view_count": 6820439,
            "uploader": "Movie Record South",
            "category": "hindi",
            "thumbnail": "https://i.ytimg.com/vi/xtpPQuysUBI/hq720.jpg"
        },
        {
            "id": "DvXVtv95oUk",
            "title": "EXPERIMENT Full Movie Hindi Dubbed | Prabhas & Arjun Rampal | Latest South Indian Action Movie 2026",
            "url": "https://www.youtube.com/watch?v=DvXVtv95oUk",
            "duration": 7862.0,
            "view_count": 236464,
            "uploader": "Bollwood Cinema Hindi",
            "category": "hindi",
            "thumbnail": "https://i.ytimg.com/vi/DvXVtv95oUk/hq720.jpg"
        },
        {
            "id": "c8qVejk_lIw",
            "title": "ODELA 3 Full Movie Hindi Dubbed | Tamannah Bhatia | Vasishta N. | New South Indian Horror Movie 2026",
            "url": "https://www.youtube.com/watch?v=c8qVejk_lIw",
            "duration": 7527.0,
            "view_count": 1031,
            "uploader": "Movietel",
            "category": "hindi",
            "thumbnail": "https://i.ytimg.com/vi/c8qVejk_lIw/hq720.jpg"
        },
        {
            "id": "bQHafKnZkqA",
            "title": "MONSTER Full Movie 2026 | Yash Rocking Star Action Movie | Superhit Full Hindi Movie HD",
            "url": "https://www.youtube.com/watch?v=bQHafKnZkqA",
            "duration": 7787.0,
            "view_count": 1348756,
            "uploader": "Ranita Studio",
            "category": "hindi",
            "thumbnail": "https://i.ytimg.com/vi/bQHafKnZkqA/hq720.jpg"
        },
        {
            "id": "8CENpi_pd7g",
            "title": "Torture Again Full Movie Hindi Dubbed | Thalapathy Vijay, Yogi Babu | Latest South Indian Movie",
            "url": "https://www.youtube.com/watch?v=8CENpi_pd7g",
            "duration": 8819.0,
            "view_count": 2002281,
            "uploader": "Movie Forever",
            "category": "hindi",
            "thumbnail": "https://i.ytimg.com/vi/8CENpi_pd7g/hq720.jpg"
        },
        {
            "id": "12-pgply_is",
            "title": "Andhra King Taluka Hindi Dubbed Full Movie 2025 | Ram Pothineni New Action Movie |Latest South Movie",
            "url": "https://www.youtube.com/watch?v=12-pgply_is",
            "duration": 8526.0,
            "view_count": 107436,
            "uploader": "Movietel",
            "category": "hindi",
            "thumbnail": "https://i.ytimg.com/vi/12-pgply_is/hq720.jpg"
        },
        {
            "id": "UqdPm2e5P7I",
            "title": "ODELA 3 Full Movie Hindi Dubbed | Tamannah Bhatia | Vasishta N. | New South Indian Horror Movie 2026",
            "url": "https://www.youtube.com/watch?v=UqdPm2e5P7I",
            "duration": 8529.0,
            "view_count": 37321,
            "uploader": "Moviewood Cinema",
            "category": "hindi",
            "thumbnail": "https://i.ytimg.com/vi/UqdPm2e5P7I/hq720.jpg"
        },
        {
            "id": "1DU7u3y8dHA",
            "title": "BHIKHARI | New Hindi Movie 2026 - Hrithik Roshan & Kajol Devgan | New Bollywood Full Action Movies",
            "url": "https://www.youtube.com/watch?v=1DU7u3y8dHA",
            "duration": 8773.0,
            "view_count": 907568,
            "uploader": "South Action Factory",
            "category": "hindi",
            "thumbnail": "https://i.ytimg.com/vi/1DU7u3y8dHA/hq720.jpg"
        },
        {
            "id": "1Jx4ETBWO7Q",
            "title": "Thalapathy Vijay & Sreeleela Full Action Movie | Charminar | Latest South Indian Movie in Hindi Dubb",
            "url": "https://www.youtube.com/watch?v=1Jx4ETBWO7Q",
            "duration": 9001.0,
            "view_count": 13043230,
            "uploader": "Movie Forever",
            "category": "hindi",
            "thumbnail": "https://i.ytimg.com/vi/1Jx4ETBWO7Q/hq720.jpg"
        },
        {
            "id": "UeY2uxMwEGc",
            "title": "Hanuman 2 Full Movie Hindi Dubbed 2026 | Teja Sajja | Rishabh Shetty | Latest South Movie 2026",
            "url": "https://www.youtube.com/watch?v=UeY2uxMwEGc",
            "duration": 8261.0,
            "view_count": 1006578,
            "uploader": "Movietel",
            "category": "hindi",
            "thumbnail": "https://i.ytimg.com/vi/UeY2uxMwEGc/hq720.jpg"
        },
        {
            "id": "7k_T6Z7mcf0",
            "title": "DADDY Hindi Dubbed Full Movie | Ravi Teja Powerful Action Drama | South Indian Movie | Full HD 2026",
            "url": "https://www.youtube.com/watch?v=7k_T6Z7mcf0",
            "duration": 7259.0,
            "view_count": 363360,
            "uploader": "Trending Movies World",
            "category": "hindi",
            "thumbnail": "https://i.ytimg.com/vi/7k_T6Z7mcf0/hq720.jpg"
        },
        {
            "id": "zWh6CH8fqBY",
            "title": "BANDAR 2 Full Movie 2026 | Bobby Deol | Hrithik Roshan | Anurag Kashyap | New Bollywood Movies 2026",
            "url": "https://www.youtube.com/watch?v=zWh6CH8fqBY",
            "duration": 8778.0,
            "view_count": 292119,
            "uploader": "South Action Factory",
            "category": "hindi",
            "thumbnail": "https://i.ytimg.com/vi/zWh6CH8fqBY/hq720.jpg"
        },
        {
            "id": "VSdLaLpbNnw",
            "title": "Varisu Full Movie Hindi Dubbed | Thalapathy Vijay Mega Blockbuster South Movie HD",
            "url": "https://www.youtube.com/watch?v=VSdLaLpbNnw",
            "duration": 8641.0,
            "view_count": 1587725,
            "uploader": "Cinema Blast",
            "category": "hindi",
            "thumbnail": "https://i.ytimg.com/vi/VSdLaLpbNnw/hq720.jpg"
        },
        {
            "id": "DFtLpgOGf80",
            "title": "Best movie lagaan (2001) ",
            "url": "https://www.youtube.com/watch?v=DFtLpgOGf80",
            "duration": 13414.0,
            "view_count": 7482991,
            "uploader": "_OFFX__VIBES",
            "category": "hindi",
            "thumbnail": "https://i.ytimg.com/vi/DFtLpgOGf80/hqdefault.jpg"
        },
        {
            "id": "WkUfC1awmfc",
            "title": "New Released South Indian Hindi Dubbed Movie 2026 | Suriya, Asin, Nayantara | Ghajini | Love Story",
            "url": "https://www.youtube.com/watch?v=WkUfC1awmfc",
            "duration": 8152.0,
            "view_count": 3363,
            "uploader": "DRJ Records Zest",
            "category": "hindi",
            "thumbnail": "https://i.ytimg.com/vi/WkUfC1awmfc/hq720.jpg"
        },
        {
            "id": "FU3mpkDwHfU",
            "title": "Koyla (1997) Full Hindi Movie 4K | कोयला | Shah Rukh Khan | Madhuri Dixit | Amrish Puri | 90s Movie",
            "url": "https://www.youtube.com/watch?v=FU3mpkDwHfU",
            "duration": 10172.0,
            "view_count": 39335841,
            "uploader": "Ultra Bollywood",
            "category": "hindi",
            "thumbnail": "https://i.ytimg.com/vi/FU3mpkDwHfU/hq720.jpg"
        },
        {
            "id": "EB0v61_jYnY",
            "title": "Taxi (2026) Full Movie Hindi Dubbed | South Indian Action Thriller Movie | Latest Hindi Dubbed Movie",
            "url": "https://www.youtube.com/watch?v=EB0v61_jYnY",
            "duration": 6947.0,
            "view_count": 633751,
            "uploader": "RDC Movie and 5 more",
            "category": "hindi",
            "thumbnail": "https://i.ytimg.com/vi/EB0v61_jYnY/hq720.jpg"
        },
        {
            "id": "HTYL38HeL0g",
            "title": "Varisu Full Movie Hindi Dubbed | Thalapathy Vijay Mega Blockbuster South Movie HD",
            "url": "https://www.youtube.com/watch?v=HTYL38HeL0g",
            "duration": 9109.0,
            "view_count": 298286,
            "uploader": "Cinema Blast",
            "category": "hindi",
            "thumbnail": "https://i.ytimg.com/vi/HTYL38HeL0g/hq720.jpg"
        },
        {
            "id": "0fpdI0AfMRk",
            "title": "Money Hai Toh Honey Hai - Full Movie HD | Govinda, Celina J, Hansika M | Superhit Comedy Movie",
            "url": "https://www.youtube.com/watch?v=0fpdI0AfMRk",
            "duration": 7920.0,
            "view_count": 7068,
            "uploader": "Eros Universe",
            "category": "hindi",
            "thumbnail": "https://i.ytimg.com/vi/0fpdI0AfMRk/hq720.jpg"
        },
        {
            "id": "IHvUXp8GHaI",
            "title": "TOXIC (2026) Full Movie in Hindi Dubbed | Rocking Star Yash | Geethu Mohandas | New South Movie 2026",
            "url": "https://www.youtube.com/watch?v=IHvUXp8GHaI",
            "duration": 8165.0,
            "view_count": 13759,
            "uploader": "Bollwood Cinema Hindi",
            "category": "hindi",
            "thumbnail": "https://i.ytimg.com/vi/IHvUXp8GHaI/hq720.jpg"
        },
        {
            "id": "YuTIeOOl2eY",
            "title": "Guntur Kaaram Full Hindi Dubbed | Mahesh Babu Mega Blockbuster South Movie HD",
            "url": "https://www.youtube.com/watch?v=YuTIeOOl2eY",
            "duration": 8706.0,
            "view_count": 5319297,
            "uploader": "Cinema Blast",
            "category": "hindi",
            "thumbnail": "https://i.ytimg.com/vi/YuTIeOOl2eY/hq720.jpg"
        },
        {
            "id": "7pArhkQ9Q_g",
            "title": "Governor Saab - Mahesh Babu South Indian Full Action Movie Dubbed In Hindi | Superhit Movies",
            "url": "https://www.youtube.com/watch?v=7pArhkQ9Q_g",
            "duration": 9694.0,
            "view_count": 31433675,
            "uploader": "SDE Movieplex",
            "category": "hindi",
            "thumbnail": "https://i.ytimg.com/vi/7pArhkQ9Q_g/hq720.jpg"
        },
        {
            "id": "cAruH1RSOBE",
            "title": "Toxic Full Movie Hindi Dubbed | Yash | Nayanthara | Latest South Indian Hindi Dubbed Movies 2026",
            "url": "https://www.youtube.com/watch?v=cAruH1RSOBE",
            "duration": 8448.0,
            "view_count": 1359985,
            "uploader": "South Action Factory and South Ka Zamana",
            "category": "hindi",
            "thumbnail": "https://i.ytimg.com/vi/cAruH1RSOBE/hq720.jpg"
        },
        {
            "id": "YauWbUp7d-8",
            "title": "Border 2 Full Movie Hindi Dubbed | Sunny Deol | New Bollywood Superhit Action Full Movies 2025",
            "url": "https://www.youtube.com/watch?v=YauWbUp7d-8",
            "duration": 7093.0,
            "view_count": 3915358,
            "uploader": "South Action Factory",
            "category": "hindi",
            "thumbnail": "https://i.ytimg.com/vi/YauWbUp7d-8/hq720.jpg"
        },
        {
            "id": "DF8FMYrhH0A",
            "title": "CBI (2026) Puneeth Rajkumar New South Dubbed Movie In Hindi | South Full Action Movie Hindi 2026",
            "url": "https://www.youtube.com/watch?v=DF8FMYrhH0A",
            "duration": 8218.0,
            "view_count": 6313909,
            "uploader": "Story Unlocked Cinema",
            "category": "hindi",
            "thumbnail": "https://i.ytimg.com/vi/DF8FMYrhH0A/hq720.jpg"
        },
        {
            "id": "VZc1FpfZM7k",
            "title": "Omkara - Full Movie HD | Ajay Devgn | Saif Ali Khan | Kareena K | Vivek O | Superhit Bollywood Drama",
            "url": "https://www.youtube.com/watch?v=VZc1FpfZM7k",
            "duration": 8779.0,
            "view_count": 15793,
            "uploader": "Eros Universe",
            "category": "hindi",
            "thumbnail": "https://i.ytimg.com/vi/VZc1FpfZM7k/hq720.jpg"
        },
        {
            "id": "34q8VL1fNhM",
            "title": "Guntur Kaaram (2024) Full Movie In Hindi | Mahesh babu New Released Action Hindi Dubbed Movie",
            "url": "https://www.youtube.com/watch?v=34q8VL1fNhM",
            "duration": 7556.0,
            "view_count": 6748,
            "uploader": "KD COBRA 09",
            "category": "hindi",
            "thumbnail": "https://i.ytimg.com/vi/34q8VL1fNhM/hqdefault.jpg"
        },
        {
            "id": "BQ7qwFkvIMQ",
            "title": "READY 4K Full Movie | Salman Khan | Asin | Comedy Hindi Movie | Anees Bazmee | Bhushan Kumar",
            "url": "https://www.youtube.com/watch?v=BQ7qwFkvIMQ",
            "duration": 8706.0,
            "view_count": 2252448,
            "uploader": "T-Series",
            "category": "hindi",
            "thumbnail": "https://i.ytimg.com/vi/BQ7qwFkvIMQ/hq720.jpg"
        },
        {
            "id": "YHx7Up0pMqw",
            "title": "कैसे एक पोलिसवाले की गलती पड़ेगी सबपे भारी? - Kooman The Night Watchman - Hindi Dubbed Full Movie",
            "url": "https://www.youtube.com/watch?v=YHx7Up0pMqw",
            "duration": 9216.0,
            "view_count": 45918,
            "uploader": "Bollywood Premium",
            "category": "hindi",
            "thumbnail": "https://i.ytimg.com/vi/YHx7Up0pMqw/hq720.jpg"
        },
        {
            "id": "-yL9B3w_FHU",
            "title": "THE TAJ STORY (Full Movie) Paresh Rawal, Zakir Hussain, Amruta Khanvilkar | New Bollywood Movie",
            "url": "https://www.youtube.com/watch?v=-yL9B3w_FHU",
            "duration": 9427.0,
            "view_count": 1587101,
            "uploader": "Lionsgate Play - Hindi ",
            "category": "hindi",
            "thumbnail": "https://i.ytimg.com/vi/-yL9B3w_FHU/hq720.jpg?sqp=-oaymwEcCNAFEJQDSFXyq4qpAw4IARUAAIhCGAFwAcABBg==&rs=AOn4CLAsKJx29YqixlXlin27AlsaR_2LWg",
            "added_date": "2026-04-16T07:30:56.000266Z",
            "source": "youtube"
        },
        {
            "id": "ml8udIBdpGc",
            "title": "The Kerala Story 2 Full Movie Hindi Dubbed 2026 | New Bollywood Movie | New Bollywood HD Movie 2026",
            "url": "https://www.youtube.com/watch?v=ml8udIBdpGc",
            "duration": 7234.0,
            "view_count": 4295,
            "uploader": "Plastic Cinema",
            "category": "hindi",
            "thumbnail": "https://i.ytimg.com/vi/ml8udIBdpGc/hq720.jpg"
        },
        {
            "id": "HuOf1g_PiTo",
            "title": "ऐतराज़ - Aitraaz (2004) - Superhit Hindi Movie | Akshay Kumar, Priyanka Chopra, Kareena Kapoor",
            "url": "https://www.youtube.com/watch?v=HuOf1g_PiTo",
            "duration": 9990.0,
            "view_count": 611502,
            "uploader": "Filmy Drama",
            "category": "hindi",
            "thumbnail": "https://i.ytimg.com/vi/HuOf1g_PiTo/hq720.jpg"
        },
        {
            "id": "Cxope-BXxgI",
            "title": "BABY (Full Movie) Akshay Kumar | Rana Daggubati | Aupam Kher | New Hindi Movie",
            "url": "https://www.youtube.com/watch?v=Cxope-BXxgI",
            "duration": 9202.0,
            "view_count": 137182,
            "uploader": "Dhamaka 4k Movies",
            "category": "hindi",
            "thumbnail": "https://i.ytimg.com/vi/Cxope-BXxgI/hq720.jpg"
        },
        {
            "id": "TmrloFLnaio",
            "title": "English Vinglish (HD) | Sridevi, Adil Hussain, Mehdi Nebbou | Full Hindi Movie",
            "url": "https://www.youtube.com/watch?v=TmrloFLnaio",
            "duration": 7700.0,
            "view_count": 11399731,
            "uploader": "Eros Universe Super Cinema",
            "category": "hindi",
            "thumbnail": "https://i.ytimg.com/vi/TmrloFLnaio/hq720.jpg"
        },
        {
            "id": "5QDKX5ExXqM",
            "title": "Hulchul | Hindi Movies 2016 Full Movie | Akshaye Khanna | Kareena Kapoor | Bollywood Comedy Movies",
            "url": "https://www.youtube.com/watch?v=5QDKX5ExXqM",
            "duration": 8906.0,
            "view_count": 125662352,
            "uploader": "Venus Movies",
            "category": "hindi",
            "thumbnail": "https://i.ytimg.com/vi/5QDKX5ExXqM/hq720.jpg"
        },
        {
            "id": "mLgG7fDuEDE",
            "title": "Enthiran | Robot Full Movie in Hindi HD | Full Action Movie | Aishwarya Rai, Rajnikanth",
            "url": "https://www.youtube.com/watch?v=mLgG7fDuEDE",
            "duration": 10437.0,
            "view_count": 24926168,
            "uploader": "MK Media",
            "category": "hindi",
            "thumbnail": "https://i.ytimg.com/vi/mLgG7fDuEDE/hq720.jpg"
        },
        {
            "id": "wIyEWhHMgcM",
            "title": "The Family Star Full Movie In Hindi Dubbed | Vijay Devarakonda, Mrunal Thakur The Family Star (2025)",
            "url": "https://www.youtube.com/watch?v=wIyEWhHMgcM",
            "duration": 9346.0,
            "view_count": 1343907,
            "uploader": "erravi",
            "category": "hindi",
            "thumbnail": "https://i.ytimg.com/vi/wIyEWhHMgcM/hqdefault.jpg"
        },
        {
            "id": "-0KfWti9IIM",
            "title": "Drishyam 2 | Ajay Devgn Akshaye Khanna Tabu  Hindi Full Movie | Crime Thriller Mystery HD \"",
            "url": "https://www.youtube.com/watch?v=-0KfWti9IIM",
            "duration": 7360.0,
            "view_count": 1087192,
            "uploader": "Arvind akela kallu",
            "category": "hindi",
            "thumbnail": "https://i.ytimg.com/vi/-0KfWti9IIM/hq720.jpg"
        },
        {
            "id": "rr4WE82VtL0",
            "title": "Raajneeti Full Movie | Ranbir Kapoor, Katrina Kaif, Ajay Devgn | Political Thriller Hindi Movie HD",
            "url": "https://www.youtube.com/watch?v=rr4WE82VtL0",
            "duration": 10189.0,
            "view_count": 199784,
            "uploader": "Tanvi Rao",
            "category": "hindi",
            "thumbnail": "https://i.ytimg.com/vi/rr4WE82VtL0/hq720.jpg"
        },
        {
            "id": "ipk36X8UUPI",
            "title": "Shaadi Ke Side Effects (2014) Full Hindi Movie (4K) Farhan Akhtar & Vidya Balan | Bollywood Movie",
            "url": "https://www.youtube.com/watch?v=ipk36X8UUPI",
            "duration": 8555.0,
            "view_count": 319663,
            "uploader": "Ultra Movie Parlour",
            "category": "hindi",
            "thumbnail": "https://i.ytimg.com/vi/ipk36X8UUPI/hq720.jpg"
        },
        {
            "id": "VnA3gRs7OFE",
            "title": "Super Lover | South Hindi Dubbed Action Romantic Movie Full Love Story | NagaShourya & Rashikhanna",
            "url": "https://www.youtube.com/watch?v=VnA3gRs7OFE",
            "duration": 6857.0,
            "view_count": 198359,
            "uploader": "Sur Movis World",
            "category": "hindi",
            "thumbnail": "https://i.ytimg.com/vi/VnA3gRs7OFE/hq720.jpg"
        },
        {
            "id": "QjV744ybi9o",
            "title": "Beverly Hills Ninja | Full Hindi-Dubbed Movie | Starring Chris Farley, Nicollette Sheridan",
            "url": "https://www.youtube.com/watch?v=QjV744ybi9o",
            "duration": 5314.0,
            "view_count": 3993,
            "uploader": "Sony Pictures Entertainment India",
            "category": "hindi",
            "thumbnail": "https://i.ytimg.com/vi/QjV744ybi9o/hq720.jpg"
        },
        {
            "id": "2YkuQjdSKEI",
            "title": "#MB29​ Full Movie Hindi Dubbed | Mahesh Babu | Tamannaah Bhatia | Latest South Indian Movie 2026",
            "url": "https://www.youtube.com/watch?v=2YkuQjdSKEI",
            "duration": 8487.0,
            "view_count": 3398512,
            "uploader": "Story Unlocked Cinema",
            "category": "hindi",
            "thumbnail": "https://i.ytimg.com/vi/2YkuQjdSKEI/hqdefault.jpg"
        },
        {
            "id": "yorw6RUHas4",
            "title": "Allu Arjun (HD) - New Released Full Hindi Dubbed Movies | New South Blockbuster Action Movie",
            "url": "https://www.youtube.com/watch?v=yorw6RUHas4",
            "duration": 10307.0,
            "view_count": 1083821,
            "uploader": "DRJ Records GenY",
            "category": "hindi",
            "thumbnail": "https://i.ytimg.com/vi/yorw6RUHas4/hq720.jpg"
        },
        {
            "id": "6b7uCyun7kQ",
            "title": "Superhit (HD) Blockbuster Superhit South Indian Hindi Dubbed Action Movie | Mohanlal,Amala New Movie",
            "url": "https://www.youtube.com/watch?v=6b7uCyun7kQ",
            "duration": 7475.0,
            "view_count": 14097,
            "uploader": "Dumdar HD Movies",
            "category": "hindi",
            "thumbnail": "https://i.ytimg.com/vi/6b7uCyun7kQ/hq720.jpg"
        },
        {
            "id": "2GvqMsZeqzc",
            "title": "DADDY Nagarjuna (2026) New South Hindi Dubbed Movie | 2026 South Latest Release Action Full Movie",
            "url": "https://www.youtube.com/watch?v=2GvqMsZeqzc",
            "duration": 7804.0,
            "view_count": 81746,
            "uploader": "Story Unlocked Cinema",
            "category": "hindi",
            "thumbnail": "https://i.ytimg.com/vi/2GvqMsZeqzc/hqdefault.jpg"
        },
        {
            "id": "YhIEZNoCy5k",
            "title": "The Mafia Boss’s Regret Full Movie 2026 | New Short Drama Full Episode Story Explain & Review Facts",
            "url": "https://www.youtube.com/watch?v=YhIEZNoCy5k",
            "duration": 6505.0,
            "view_count": 6746,
            "uploader": "CageX ",
            "category": "hindi",
            "thumbnail": "https://i.ytimg.com/vi/YhIEZNoCy5k/hq720.jpg"
        }
    ]
}