{
    "page": 2,
    "total_pages": 12,
    "total_items": 558,
    "items": [
        {
            "id": "S0nC_9yOkbY",
            "title": "AIRLIFT 4K Full Movie: Akshay Kumar | Nimrat Kaur | Raja Krishna | New Hindi Movie | Bhushan Kumar",
            "url": "https://www.youtube.com/watch?v=S0nC_9yOkbY",
            "duration": 7229.0,
            "view_count": 1266828,
            "uploader": "T-Series",
            "category": "hindi",
            "thumbnail": "https://i.ytimg.com/vi/S0nC_9yOkbY/hq720.jpg"
        },
        {
            "id": "6l_LIzXjo5g",
            "title": "CHAAR LUGAAI I Full Movie I Hindi Film I Hindi movie I Suspense I Thriller I Comedy",
            "url": "https://www.youtube.com/watch?v=6l_LIzXjo5g",
            "duration": 8490.0,
            "view_count": 14752856,
            "uploader": "STRIPES ENTERTAINMENT LLP",
            "category": "hindi",
            "thumbnail": "https://i.ytimg.com/vi/6l_LIzXjo5g/hq720.jpg"
        },
        {
            "id": "v4IO_axoXi0",
            "title": "Operation Blackfile (2026) Full Hindi Dubbed Action Movie | Mahesh Babu New South Blockbuster Movie",
            "url": "https://www.youtube.com/watch?v=v4IO_axoXi0",
            "duration": 8706.0,
            "view_count": 16287575,
            "uploader": "BYA Media",
            "category": "hindi",
            "thumbnail": "https://i.ytimg.com/vi/v4IO_axoXi0/hq720.jpg"
        },
        {
            "id": "j903ASEDWxc",
            "title": "Uri: The Surgical Strike - Hindi Patriotic Full Movie - Vicky Kaushal, Yami Gautam, Paresh Rawal",
            "url": "https://www.youtube.com/watch?v=j903ASEDWxc",
            "duration": 7956.0,
            "view_count": 27316016,
            "uploader": "Zee Movies Hindi",
            "category": "hindi",
            "thumbnail": "https://i.ytimg.com/vi/j903ASEDWxc/hqdefault.jpg"
        },
        {
            "id": "h2G31y_T0Ak",
            "title": "Justice LAW Full Movie Hindi Dubbed | Allu Arjun | Sanjay Dutt | New South Indian Action Movie 2026",
            "url": "https://www.youtube.com/watch?v=h2G31y_T0Ak",
            "duration": 8033.0,
            "view_count": 15714,
            "uploader": "Bollwood Cinema Hindi",
            "category": "hindi",
            "thumbnail": "https://i.ytimg.com/vi/h2G31y_T0Ak/hq720.jpg"
        },
        {
            "id": "10u_5vJGykk",
            "title": "OMG (OH MY GOD) Full Movie in HD (2012)",
            "url": "https://www.youtube.com/watch?v=10u_5vJGykk",
            "duration": 7735.0,
            "view_count": 1398641,
            "uploader": "BBA To Bschool",
            "category": "hindi",
            "thumbnail": "https://i.ytimg.com/vi/10u_5vJGykk/hqdefault.jpg"
        },
        {
            "id": "G42K53aWh_Y",
            "title": "Honey (2026) (Hindi + Telugu) Dual Audio UnCut South Movie HD ESub.",
            "url": "https://www.youtube.com/watch?v=G42K53aWh_Y",
            "duration": 7089.0,
            "view_count": 1009327,
            "uploader": "Simple Ai",
            "category": "hindi",
            "thumbnail": "https://i.ytimg.com/vi/G42K53aWh_Y/hqdefault.jpg"
        },
        {
            "id": "rK7sxsDQW-0",
            "title": "Pagal Full Movie 2026 | Aamir khan, Vijay Raaz, Malaika Arora | Latest Superhit Bollywood Movie 2026",
            "url": "https://www.youtube.com/watch?v=rK7sxsDQW-0",
            "duration": 5717.0,
            "view_count": 1026043,
            "uploader": "Bollwood Cinema Hindi",
            "category": "hindi",
            "thumbnail": "https://i.ytimg.com/vi/rK7sxsDQW-0/hq720.jpg"
        },
        {
            "id": "aagt3C2whb4",
            "title": "Betti Full Movie | Ajay Devgan | Rani Mukerji | Janki | Tabu | Latest Bollywood Thriller Movie 2026",
            "url": "https://www.youtube.com/watch?v=aagt3C2whb4",
            "duration": 6869.0,
            "view_count": 2010392,
            "uploader": "Moviewood Cinema",
            "category": "hindi",
            "thumbnail": "https://i.ytimg.com/vi/aagt3C2whb4/hq720.jpg"
        },
        {
            "id": "VX_nqFFCORU",
            "title": "Love Giri | South Hindi Dubbed Action Romantic Movie Full Love Story | Suhas, Ruhani Sharma New Movi",
            "url": "https://www.youtube.com/watch?v=VX_nqFFCORU",
            "duration": 6382.0,
            "view_count": 5339,
            "uploader": "Sur Movies Multiplex",
            "category": "hindi",
            "thumbnail": "https://i.ytimg.com/vi/VX_nqFFCORU/hq720.jpg"
        },
        {
            "id": "6M191qGTZA4",
            "title": "Hindi Medium (Full Movie) - HD | Irrfan Khan, Saba Qamar, Deepak Dobriyal | Superhit Comedy Movie",
            "url": "https://www.youtube.com/watch?v=6M191qGTZA4",
            "duration": 7934.0,
            "view_count": 30897834,
            "uploader": "T-Series",
            "category": "hindi",
            "thumbnail": "https://i.ytimg.com/vi/6M191qGTZA4/hq720.jpg"
        },
        {
            "id": "D_sIl-ia9I8",
            "title": "36 China Town Full Hindi Movie (4K) Suspense Thriller | Shahid Kapoor & Kareena | Akshaye Khanna",
            "url": "https://www.youtube.com/watch?v=D_sIl-ia9I8",
            "duration": 8085.0,
            "view_count": 2497462,
            "uploader": "Ultra Movie Parlour",
            "category": "hindi",
            "thumbnail": "https://i.ytimg.com/vi/D_sIl-ia9I8/hq720.jpg"
        },
        {
            "id": "rAZIxw3p67U",
            "title": "2025 Ram Charan | Sipahi | New Released Blockbuster South Hindi Dubbed Full Action Movie in 4K",
            "url": "https://www.youtube.com/watch?v=rAZIxw3p67U",
            "duration": 7729.0,
            "view_count": 3378711,
            "uploader": "Home TV",
            "category": "hindi",
            "thumbnail": "https://i.ytimg.com/vi/rAZIxw3p67U/hq720.jpg"
        },
        {
            "id": "rc7KrNb36MY",
            "title": "EEGA 2 (2026) | Ram Charan New South Hindi Dubbed Thriller Full Movie | Full HD",
            "url": "https://www.youtube.com/watch?v=rc7KrNb36MY",
            "duration": 7622.0,
            "view_count": 177537,
            "uploader": "Screen Movies",
            "category": "hindi",
            "thumbnail": "https://i.ytimg.com/vi/rc7KrNb36MY/hq720.jpg"
        },
        {
            "id": "b0xTWIEUpLw",
            "title": "HATE STORY 3 - 4K Full Movie: Sharman Joshi| Zareen Khan| Karan Singh Grover| Daisy Shah| Bhushan K",
            "url": "https://www.youtube.com/watch?v=b0xTWIEUpLw",
            "duration": 7773.0,
            "view_count": 183197,
            "uploader": "T-Series",
            "category": "hindi",
            "thumbnail": "https://i.ytimg.com/vi/b0xTWIEUpLw/hq720.jpg"
        },
        {
            "id": "G86x_jlO2lQ",
            "title": "S.U.V Full Movie Hindi Dubbed | Prabhas & Keerthy Suresh | Latest South Indian Action Movie 2026",
            "url": "https://www.youtube.com/watch?v=G86x_jlO2lQ",
            "duration": 7275.0,
            "view_count": 1057,
            "uploader": "Plastic Cinema",
            "category": "hindi",
            "thumbnail": "https://i.ytimg.com/vi/G86x_jlO2lQ/hq720.jpg"
        },
        {
            "id": "Wt-3H2EDbH8",
            "title": "Naam Shabana (2017) Full Hindi Movie (4K) Akshay Kumar & Taapsee Pannu | Manoj Bajpayee| Deshbhakti",
            "url": "https://www.youtube.com/watch?v=Wt-3H2EDbH8",
            "duration": 8898.0,
            "view_count": 2621255,
            "uploader": "Ultra Movie Parlour",
            "category": "hindi",
            "thumbnail": "https://i.ytimg.com/vi/Wt-3H2EDbH8/hq720.jpg?sqp=-oaymwEcCNAFEJQDSFXyq4qpAw4IARUAAIhCGAFwAcABBg==&rs=AOn4CLCejnBVu7JJaznb4YNTAycrdhA5Iw",
            "added_date": "2026-04-16T07:30:57.202496Z",
            "source": "youtube"
        },
        {
            "id": "HMh8edSR-Qg",
            "title": "PATIALA HOUSE (FULL MOVIE): AKSHAY KUMAR, ANUSHKA SHARMA | RISHI KAPOOR | NIKKHIL ADVANI | BHUSHAN K",
            "url": "https://www.youtube.com/watch?v=HMh8edSR-Qg",
            "duration": 8436.0,
            "view_count": 7322998,
            "uploader": "T-Series",
            "category": "hindi",
            "thumbnail": "https://i.ytimg.com/vi/HMh8edSR-Qg/hq720.jpg"
        },
        {
            "id": "1iBBqMUbOKo",
            "title": "Pushpa 3 Full Movie | Allu Arjun | Rashmika Mandanna | New South Indian Hindi Dubbed Movie 2026",
            "url": "https://www.youtube.com/watch?v=1iBBqMUbOKo",
            "duration": 8722.0,
            "view_count": 5612,
            "uploader": "Plastic Cinema",
            "category": "hindi",
            "thumbnail": "https://i.ytimg.com/vi/1iBBqMUbOKo/hq720.jpg"
        },
        {
            "id": "aHNcSobcnkM",
            "title": "Commando 4 New Hindi Movie | Vidyut Jammwal  | Full Action Blockbuster Movie",
            "url": "https://www.youtube.com/watch?v=aHNcSobcnkM",
            "duration": 6520.0,
            "view_count": 350292,
            "uploader": "Screen Movies",
            "category": "hindi",
            "thumbnail": "https://i.ytimg.com/vi/aHNcSobcnkM/hq720.jpg"
        },
        {
            "id": "dKtA48ovLLE",
            "title": "AK 47 Full Movie In Hindi Dubbed 2026 | Ajit Kumar | New Released South Hindi Dubbed Movie 2026",
            "url": "https://www.youtube.com/watch?v=dKtA48ovLLE",
            "duration": 7568.0,
            "view_count": 51160,
            "uploader": "Imkundu Movies",
            "category": "hindi",
            "thumbnail": "https://i.ytimg.com/vi/dKtA48ovLLE/hq720.jpg"
        },
        {
            "id": "qd1cK0JfTpk",
            "title": "Pushpa 3 (Hindi Dubbed) Full Movie | Allu Arjun, Rashmika Mandanna | Action Thriller 2025",
            "url": "https://www.youtube.com/watch?v=qd1cK0JfTpk",
            "duration": 9698.0,
            "view_count": 15081,
            "uploader": "PlayNation",
            "category": "hindi",
            "thumbnail": "https://i.ytimg.com/vi/qd1cK0JfTpk/hq720.jpg"
        },
        {
            "id": "O3c7u3qQ1vI",
            "title": "Mahesh Babu | Sarkar Full Action Movie | New Hindi Dubbed Blockbuster 2026 HD",
            "url": "https://www.youtube.com/watch?v=O3c7u3qQ1vI",
            "duration": 6170.0,
            "view_count": 2414,
            "uploader": "MovieMindset",
            "category": "hindi",
            "thumbnail": "https://i.ytimg.com/vi/O3c7u3qQ1vI/hq720.jpg"
        },
        {
            "id": "Ht9htQhbc8E",
            "title": "EMPIRE Full Movie in Hindi | Vijay Deverakonda | Rashmika Mandanna | Murali Sharma | New Movie 2026",
            "url": "https://www.youtube.com/watch?v=Ht9htQhbc8E",
            "duration": 6537.0,
            "view_count": 40090,
            "uploader": "Moviewood Cinema",
            "category": "hindi",
            "thumbnail": "https://i.ytimg.com/vi/Ht9htQhbc8E/hq720.jpg"
        },
        {
            "id": "fr_gc8s6ujk",
            "title": "DADDY Full Movie 2026 | Hrithik Roshan | Bobby Deol | Katrina Kaif | New Bollywood Action Movie 2026",
            "url": "https://www.youtube.com/watch?v=fr_gc8s6ujk",
            "duration": 8422.0,
            "view_count": 2034,
            "uploader": "Cine South Cinema",
            "category": "hindi",
            "thumbnail": "https://i.ytimg.com/vi/fr_gc8s6ujk/hq720.jpg"
        },
        {
            "id": "_rfOQHBsdOE",
            "title": "FAUZI WAR Full Movie In Hindi Dubbed 2026 | Prabhas | New South Indian Hindi Dubbed Movies 2026",
            "url": "https://www.youtube.com/watch?v=_rfOQHBsdOE",
            "duration": 5798.0,
            "view_count": 27473,
            "uploader": "FilmyJunction",
            "category": "hindi",
            "thumbnail": "https://i.ytimg.com/vi/_rfOQHBsdOE/hq720.jpg"
        },
        {
            "id": "XFRwbcT3c6Q",
            "title": "Rani -The Real Story (2026) New Released Full Action Thriller South Hindi Dubbed Movie | South Movie",
            "url": "https://www.youtube.com/watch?v=XFRwbcT3c6Q",
            "duration": 6459.0,
            "view_count": 61611,
            "uploader": "RDC South Dubbed",
            "category": "hindi",
            "thumbnail": "https://i.ytimg.com/vi/XFRwbcT3c6Q/hq720.jpg"
        },
        {
            "id": "qxaMCFllVaE",
            "title": "Veerananda - Ram Charan South New 2026 Blockbuster Action Movie In Hindi | Janhvi | Trisha",
            "url": "https://www.youtube.com/watch?v=qxaMCFllVaE",
            "duration": 8534.0,
            "view_count": 7274394,
            "uploader": "Hindi Movie Cinema",
            "category": "hindi",
            "thumbnail": "https://i.ytimg.com/vi/qxaMCFllVaE/hq720.jpg"
        },
        {
            "id": "1JkhaUX3BKM",
            "title": "Varanasi (Hindi Dubbed) | Mahesh Babu New South Action Movie | Full Action Thriller Movie | HD",
            "url": "https://www.youtube.com/watch?v=1JkhaUX3BKM",
            "duration": 10352.0,
            "view_count": 10617483,
            "uploader": "Story Unlocked Cinema",
            "category": "hindi",
            "thumbnail": "https://i.ytimg.com/vi/1JkhaUX3BKM/hq720.jpg"
        },
        {
            "id": "lRm6tYF_MoM",
            "title": "De Dana Dan - Full Film HD | Akshay K | Katrina K | Suniel S | Paresh R | Superhit Bollywood Comedy",
            "url": "https://www.youtube.com/watch?v=lRm6tYF_MoM",
            "duration": 10048.0,
            "view_count": 5463351,
            "uploader": "Eros Universe",
            "category": "hindi",
            "thumbnail": "https://i.ytimg.com/vi/lRm6tYF_MoM/hq720.jpg"
        },
        {
            "id": "maMxCopo0qk",
            "title": "KAAL 2 Full Movie In Hindi Dubbed | Prabhas, Rashmika Mandanna | New South Indian Hindi Dubbed Movie",
            "url": "https://www.youtube.com/watch?v=maMxCopo0qk",
            "duration": 8808.0,
            "view_count": 81015,
            "uploader": "Movietel",
            "category": "hindi",
            "thumbnail": "https://i.ytimg.com/vi/maMxCopo0qk/hq720.jpg"
        },
        {
            "id": "SBTG4pftrM8",
            "title": "Dhurandhar Hindi Full Movie | #ranveersingh  Singh Mass Action | Bollywood Film",
            "url": "https://www.youtube.com/watch?v=SBTG4pftrM8",
            "duration": 8187.0,
            "view_count": 10689866,
            "uploader": "Blockbuster Galaxy",
            "category": "hindi",
            "thumbnail": "https://i.ytimg.com/vi/SBTG4pftrM8/hq720.jpg"
        },
        {
            "id": "aN1XjJmKh-0",
            "title": "Rangoli (2026) Hamaresh, Prarthana South New Full Movie | 2026 South Latest Hindi Dubbed Movie In 4K",
            "url": "https://www.youtube.com/watch?v=aN1XjJmKh-0",
            "duration": 7465.0,
            "view_count": 10220906,
            "uploader": "Sur Movies Exclusive and 2 more",
            "category": "hindi",
            "thumbnail": "https://i.ytimg.com/vi/aN1XjJmKh-0/hq720.jpg"
        },
        {
            "id": "KyPyjT1FvWs",
            "title": "BABY 4K Full Movie: Akshay Kumar |Rana Daggubati |Taapsee |Anupam K| Neeraj P|Hindi Movie |Bhushan K",
            "url": "https://www.youtube.com/watch?v=KyPyjT1FvWs",
            "duration": 9202.0,
            "view_count": 1108758,
            "uploader": "T-Series",
            "category": "hindi",
            "thumbnail": "https://i.ytimg.com/vi/KyPyjT1FvWs/hq720.jpg?sqp=-oaymwEcCNAFEJQDSFXyq4qpAw4IARUAAIhCGAFwAcABBg==&rs=AOn4CLAPrAFvt4UXAW8v9BpuLr1qmCS97A",
            "added_date": "2026-04-16T07:30:56.401012Z",
            "source": "youtube"
        },
        {
            "id": "drROJWLbc-o",
            "title": "Shool (1999) - Manoj Bajpai - Raveena Tandon - Hindi Full Movie",
            "url": "https://www.youtube.com/watch?v=drROJWLbc-o",
            "duration": 8063.0,
            "view_count": 21839973,
            "uploader": "Shemaroo",
            "category": "hindi",
            "thumbnail": "https://i.ytimg.com/vi/drROJWLbc-o/hq720.jpg"
        },
        {
            "id": "rKAHbnmoAaA",
            "title": "Lovegiri\" Hindi Dubbed Blockbuster Action Romantic Movie Full HD 1080p | Suhas, Ruhani Sharma |Movie",
            "url": "https://www.youtube.com/watch?v=rKAHbnmoAaA",
            "duration": 6608.0,
            "view_count": 1265505,
            "uploader": "South Action Dhamaka",
            "category": "hindi",
            "thumbnail": "https://i.ytimg.com/vi/rKAHbnmoAaA/hq720.jpg"
        },
        {
            "id": "K8uHAXhrPP8",
            "title": "The Kerala Story 2 (2026) | Ram Charan New South Hindi Dubbed Thriller Full Movie | Full HD",
            "url": "https://www.youtube.com/watch?v=K8uHAXhrPP8",
            "duration": 7151.0,
            "view_count": 137161,
            "uploader": "CineMantra",
            "category": "hindi",
            "thumbnail": "https://i.ytimg.com/vi/K8uHAXhrPP8/hq720.jpg"
        },
        {
            "id": "CHkS6xl1CsQ",
            "title": "Namastey London 2007 Hindi Full Movie 4K | Akshay Kumar, Katrina Kaif, Rishi Kapoor| 2000s Bollywood",
            "url": "https://www.youtube.com/watch?v=CHkS6xl1CsQ",
            "duration": 8300.0,
            "view_count": 1725572,
            "uploader": "Ultra 4K Movies",
            "category": "hindi",
            "thumbnail": "https://i.ytimg.com/vi/CHkS6xl1CsQ/hq720.jpg"
        },
        {
            "id": "MVNFZS5PvSQ",
            "title": "NEW FULL MOVIE - Samosa & Sons | Hindi Movie | Sanjay Mishra, Chandan Bisht | Bollywood",
            "url": "https://www.youtube.com/watch?v=MVNFZS5PvSQ",
            "duration": 5277.0,
            "view_count": 614808,
            "uploader": "Motion Mingle Hindi",
            "category": "hindi",
            "thumbnail": "https://i.ytimg.com/vi/MVNFZS5PvSQ/hq720.jpg"
        },
        {
            "id": "KxuRaA9VssM",
            "title": "Love Express | South Hindi Dubbed Action Romanic Movie Full Love Story | Naga Shaurya, Ajay, Sana M.",
            "url": "https://www.youtube.com/watch?v=KxuRaA9VssM",
            "duration": 7490.0,
            "view_count": 65760,
            "uploader": "Sur Movies Multiplex",
            "category": "hindi",
            "thumbnail": "https://i.ytimg.com/vi/KxuRaA9VssM/hq720.jpg"
        },
        {
            "id": "xEt9eRKMTok",
            "title": "Enगlish Vinglisश Full Movie HD - Sridevi Comeback Film | Adil Hussain | Inspirational Story",
            "url": "https://www.youtube.com/watch?v=xEt9eRKMTok",
            "duration": 7709.0,
            "view_count": 68471,
            "uploader": "Eros Universe",
            "category": "hindi",
            "thumbnail": "https://i.ytimg.com/vi/xEt9eRKMTok/hq720.jpg"
        },
        {
            "id": "d5EGQFvOo2E",
            "title": "Chalo Premidamm | South Hindi Dubbed Action Romantic Movie Full Love Story | Neha Solanki | Movie",
            "url": "https://www.youtube.com/watch?v=d5EGQFvOo2E",
            "duration": 8027.0,
            "view_count": 2181466,
            "uploader": "RDC Movie",
            "category": "hindi",
            "thumbnail": "https://i.ytimg.com/vi/d5EGQFvOo2E/hq720.jpg"
        },
        {
            "id": "YHK4M7ZyTKo",
            "title": "A Flying Jatt (2016) Full Hindi Movie 4K | Tiger Shroff | Jacqueline Fernandez | Nathan Jones",
            "url": "https://www.youtube.com/watch?v=YHK4M7ZyTKo",
            "duration": 9012.0,
            "view_count": 14830667,
            "uploader": "Ultra Bollywood",
            "category": "hindi",
            "thumbnail": "https://i.ytimg.com/vi/YHK4M7ZyTKo/hq720.jpg"
        },
        {
            "id": "Vhn0JD9RlLs",
            "title": "Baadshaho 4K Full Movie: Ajay Devgn | Emraan Hashmi | Vidyut Jammwal | Ileana D'Cruz | Esha Gupta",
            "url": "https://www.youtube.com/watch?v=Vhn0JD9RlLs",
            "duration": 8128.0,
            "view_count": 377638,
            "uploader": "T-Series",
            "category": "hindi",
            "thumbnail": "https://i.ytimg.com/vi/Vhn0JD9RlLs/hq720.jpg"
        },
        {
            "id": "DqTWgymFmpw",
            "title": "Junglee 2026 Hindi Dubbed Full Movie | Ram Charan Wild Action Adventure | South Blockbuster HD Film",
            "url": "https://www.youtube.com/watch?v=DqTWgymFmpw",
            "duration": 9365.0,
            "view_count": 14261,
            "uploader": "FilmyJunction",
            "category": "hindi",
            "thumbnail": "https://i.ytimg.com/vi/DqTWgymFmpw/hqdefault.jpg"
        },
        {
            "id": "lEnACemhvb4",
            "title": "Haindava (2026) Movie | Bellamkonda Sreenivas New South Hindi Dubbed Thriller Full Movie | Full HD",
            "url": "https://www.youtube.com/watch?v=lEnACemhvb4",
            "duration": 6968.0,
            "view_count": 477725,
            "uploader": "Movie Record South",
            "category": "hindi",
            "thumbnail": "https://i.ytimg.com/vi/lEnACemhvb4/hqdefault.jpg"
        },
        {
            "id": "DdloEnLv7L8",
            "title": "Biwi No.1 Hindi Comedy Full Movie (1999) | Salman Khan| Karisma Kapoor | Anil Kapoor | Sushmita Sen",
            "url": "https://www.youtube.com/watch?v=DdloEnLv7L8",
            "duration": 8008.0,
            "view_count": 1356888,
            "uploader": "Ultra Movie World",
            "category": "hindi",
            "thumbnail": "https://i.ytimg.com/vi/DdloEnLv7L8/hq720.jpg"
        },
        {
            "id": "aAqW1Ix11X4",
            "title": "FARMER Mahesh Babu South Indian Hindi Dubbed Full Movie || South Latest New Released Movie 2026",
            "url": "https://www.youtube.com/watch?v=aAqW1Ix11X4",
            "duration": 10451.0,
            "view_count": 3923227,
            "uploader": "South Mewal Films",
            "category": "hindi",
            "thumbnail": "https://i.ytimg.com/vi/aAqW1Ix11X4/hq720.jpg"
        },
        {
            "id": "W2pbqERJpoM",
            "title": "WARRANT | Vishal, Kajal Aggarwal | New (2026) Released Hindi Action Crime Thriller Movie | Full HD",
            "url": "https://www.youtube.com/watch?v=W2pbqERJpoM",
            "duration": 6471.0,
            "view_count": 2030169,
            "uploader": "PlayNation",
            "category": "hindi",
            "thumbnail": "https://i.ytimg.com/vi/W2pbqERJpoM/hq720.jpg"
        },
        {
            "id": "xbzm6dl7Yik",
            "title": "DANDUPALYAM (2025) New Released Full Action Thriller South Hindi Dubbed Movie | South Movie 2025",
            "url": "https://www.youtube.com/watch?v=xbzm6dl7Yik",
            "duration": 6323.0,
            "view_count": 80643,
            "uploader": "Dumdar HD Movies",
            "category": "hindi",
            "thumbnail": "https://i.ytimg.com/vi/xbzm6dl7Yik/hq720.jpg"
        }
    ]
}