{
    "page": 10,
    "total_pages": 12,
    "total_items": 558,
    "items": [
        {
            "id": "1lYKatBn-M0",
            "title": "Raksha bandhan || full movies in Hindi || 1080p",
            "url": "https://www.youtube.com/watch?v=1lYKatBn-M0",
            "duration": 5363.0,
            "view_count": 6576,
            "uploader": "Rehmat Verse",
            "category": "hindi",
            "thumbnail": "https://i.ytimg.com/vi/1lYKatBn-M0/hqdefault.jpg"
        },
        {
            "id": "9ABTth3f7IE",
            "title": "Dhurandhar 2 full movie in Hindi 2026 new movie Bollywood movie",
            "url": "https://www.youtube.com/watch?v=9ABTth3f7IE",
            "duration": 12198.0,
            "view_count": 5279,
            "uploader": "Ai facts Goud",
            "category": "hindi",
            "thumbnail": "https://i.ytimg.com/vi/9ABTth3f7IE/hq720.jpg"
        },
        {
            "id": "ycycsAggOB8",
            "title": "God Father Full Hindi Dubbed Action Movie | Chiranjeevi, Salman Khan | South Indian Movie",
            "url": "https://www.youtube.com/watch?v=ycycsAggOB8",
            "duration": 8794.0,
            "view_count": 5116914,
            "uploader": "Ellie Movie",
            "category": "hindi",
            "thumbnail": "https://i.ytimg.com/vi/ycycsAggOB8/hq720.jpg"
        },
        {
            "id": "2sH9Ya737co",
            "title": "Do Patti (2024) Full Movie | Kajol | Kriti Sanon | Shaheer Sheikh | Hindi Thriller |",
            "url": "https://www.youtube.com/watch?v=2sH9Ya737co",
            "duration": 7000.0,
            "view_count": 1845756,
            "uploader": "Animated Stories",
            "category": "hindi",
            "thumbnail": "https://i.ytimg.com/vi/2sH9Ya737co/hqdefault.jpg"
        },
        {
            "id": "2ZHnUchoP_w",
            "title": "Dhurandar 2 Full movie  Hindi dubbed movie #viral #dhurandhar #Movie #dhurandar2 ",
            "url": "https://www.youtube.com/watch?v=2ZHnUchoP_w",
            "duration": 13493.0,
            "view_count": 1880,
            "uploader": "DreamScreenAI",
            "category": "hindi",
            "thumbnail": "https://i.ytimg.com/vi/2ZHnUchoP_w/hqdefault.jpg"
        },
        {
            "id": "cbUx5UF-8U4",
            "title": "Sooryavanshi 2 Full Movie HD | Akshay Kumar, Ranveer Singh | Bollywood Action Thriller",
            "url": "https://www.youtube.com/watch?v=cbUx5UF-8U4",
            "duration": 8019.0,
            "view_count": 4173656,
            "uploader": "Anjali Dhariwal and 4 more",
            "category": "hindi",
            "thumbnail": "https://i.ytimg.com/vi/cbUx5UF-8U4/hq720.jpg?sqp=-oaymwEcCNAFEJQDSFXyq4qpAw4IARUAAIhCGAFwAcABBg==&rs=AOn4CLAxGtXgUJOzB0dBxX7CpFj1_Tk1cA",
            "added_date": "2026-04-16T07:30:57.803571Z",
            "source": "youtube"
        },
        {
            "id": "hqbklBF6FM8",
            "title": "Dhurandhar 2 Full Movie Hindi Dubbed | New South Action Movie 2026 #dhurandhar2 #FullMovie",
            "url": "https://www.youtube.com/watch?v=hqbklBF6FM8",
            "duration": 13493.0,
            "view_count": 2887,
            "uploader": "Itz Bruh",
            "category": "hindi",
            "thumbnail": "https://i.ytimg.com/vi/hqbklBF6FM8/hqdefault.jpg"
        },
        {
            "id": "d1-ixz4Xl04",
            "title": "Kalank Full Movie HD | Varun Dhawan, Alia Bhatt, Madhuri Dixit | Bollywood Blockbuster Movie",
            "url": "https://www.youtube.com/watch?v=d1-ixz4Xl04",
            "duration": 7403.0,
            "view_count": 2007130,
            "uploader": "Dhariwal anjali ",
            "category": "hindi",
            "thumbnail": "https://i.ytimg.com/vi/d1-ixz4Xl04/hq720.jpg"
        },
        {
            "id": "XazuWyD_5cg",
            "title": "Bhool Bhulaiyaa (Hindi Full Movie) Akshay Kumar, Vidya Balan, Shiney A, Paresh R, Priyadarshan",
            "url": "https://www.youtube.com/watch?v=XazuWyD_5cg",
            "duration": 8905.0,
            "view_count": 4907365,
            "uploader": "Dhamaka Movies",
            "category": "hindi",
            "thumbnail": "https://i.ytimg.com/vi/XazuWyD_5cg/hq720.jpg"
        },
        {
            "id": "REt62oTFulQ",
            "title": "Dhurandhar The Revenge full movie 🎬 in hindi HD 2026 Ranveer Singh",
            "url": "https://www.youtube.com/watch?v=REt62oTFulQ",
            "duration": 13206.0,
            "view_count": 274,
            "uploader": "BM MOVIES HUB",
            "category": "hindi",
            "thumbnail": "https://i.ytimg.com/vi/REt62oTFulQ/hqdefault.jpg"
        },
        {
            "id": "h1Lyw1gNry0",
            "title": "PARESHAANPUR | Eng SUB | Comedy Movies Hindi Full | Bollywood Comedy Movies | Hindi Full Movie 2024",
            "url": "https://www.youtube.com/watch?v=h1Lyw1gNry0",
            "duration": 6282.0,
            "view_count": 2980527,
            "uploader": "Dhoom Films",
            "category": "hindi",
            "thumbnail": "https://i.ytimg.com/vi/h1Lyw1gNry0/hq720.jpg"
        },
        {
            "id": "W3kBdOH-_e4",
            "title": "Baaghi 3 Full Movie (Hindi) | Tiger Shroff Action Blockbuster | Shraddha Kapoor | Riteish Deshmukh",
            "url": "https://www.youtube.com/watch?v=W3kBdOH-_e4",
            "duration": 7394.0,
            "view_count": 9242606,
            "uploader": "Dhariwal anjali  and 2 more",
            "category": "hindi",
            "thumbnail": "https://i.ytimg.com/vi/W3kBdOH-_e4/hq720.jpg"
        },
        {
            "id": "4Vjx00umz9I",
            "title": "Saawariya | Full Hindi Movie | Starring Ranbir Kapoor, Sonam Kapoor, Salman Khan & Rani Mukerji",
            "url": "https://www.youtube.com/watch?v=4Vjx00umz9I",
            "duration": 8276.0,
            "view_count": 1329409,
            "uploader": "Sony Pictures Entertainment India",
            "category": "hindi",
            "thumbnail": "https://i.ytimg.com/vi/4Vjx00umz9I/hq720.jpg"
        },
        {
            "id": "faFD2oMECPA",
            "title": "Dhurandhar 2 The Revenge 💥 Full Hindi Movie | Aditya Dhar, Ranveer Singh Dhurandhar 2 Full Movie new",
            "url": "https://www.youtube.com/watch?v=faFD2oMECPA",
            "duration": 13411.0,
            "view_count": 2299,
            "uploader": "Movies dekho",
            "category": "hindi",
            "thumbnail": "https://i.ytimg.com/vi/faFD2oMECPA/hqdefault.jpg"
        },
        {
            "id": "x-00MzXO5gw",
            "title": "Fauzi (2026) | Prabhas & Shraddha Kapoor South New Movie Blockbuster Action Movie Hindi HD",
            "url": "https://www.youtube.com/watch?v=x-00MzXO5gw",
            "duration": 9583.0,
            "view_count": 207733,
            "uploader": "Duroflex Action",
            "category": "hindi",
            "thumbnail": "https://i.ytimg.com/vi/x-00MzXO5gw/hq720.jpg"
        },
        {
            "id": "6q5w_mzj-nI",
            "title": "Fighter (HD) Blockbuster South Indian Hindi Dubbed Action Full Movies | न्यू साउथ हिंदी Hd मूवी",
            "url": "https://www.youtube.com/watch?v=6q5w_mzj-nI",
            "duration": 8905.0,
            "view_count": 869297,
            "uploader": "Pital Picture",
            "category": "hindi",
            "thumbnail": "https://i.ytimg.com/vi/6q5w_mzj-nI/hq720.jpg"
        },
        {
            "id": "m4YQaDRcawI",
            "title": "DHURANDHAR 2 THE REVENGE REAL FULL MOVIE IN HINDI DUBBED (2026)",
            "url": "https://www.youtube.com/watch?v=m4YQaDRcawI",
            "duration": 9818.0,
            "view_count": 731,
            "uploader": "All_Type_of_video",
            "category": "hindi",
            "thumbnail": "https://i.ytimg.com/vi/m4YQaDRcawI/hqdefault.jpg"
        },
        {
            "id": "gARhtL_BnrQ",
            "title": "Bhairathi Ranagal 2026 New Released Hindi Dubbed Action Movie | Shiva Rajkumar, Rukmini Vasanth",
            "url": "https://www.youtube.com/watch?v=gARhtL_BnrQ",
            "duration": 7471.0,
            "view_count": 8170924,
            "uploader": "RKD Studios",
            "category": "hindi",
            "thumbnail": "https://i.ytimg.com/vi/gARhtL_BnrQ/hq720.jpg"
        },
        {
            "id": "gfS9erTFqGg",
            "title": "Pushpa 3 (2026) | Allu Arjun, Rashmika Mandanna Hindi Dubbed Action Thriller Movie | New South Movie",
            "url": "https://www.youtube.com/watch?v=gfS9erTFqGg",
            "duration": 9100.0,
            "view_count": 443557,
            "uploader": "Movie Fiber",
            "category": "hindi",
            "thumbnail": "https://i.ytimg.com/vi/gfS9erTFqGg/hq720.jpg"
        },
        {
            "id": "HNJJruKP9AU",
            "title": "Dhurandhar 2 The Revenge (2026) Full Hindi Dubbed Movie | Powerful ActionThriller HD",
            "url": "https://www.youtube.com/watch?v=HNJJruKP9AU",
            "duration": 13022.0,
            "view_count": 671,
            "uploader": "movielover",
            "category": "hindi",
            "thumbnail": "https://i.ytimg.com/vi/HNJJruKP9AU/hq720.jpg"
        },
        {
            "id": "52PXjIEvznY",
            "title": "Cocktail (2012) | Deepika Padukone, Saif Ali Khan, Diana Penty | Bollywood Hindi Full Movie (HD)",
            "url": "https://www.youtube.com/watch?v=52PXjIEvznY",
            "duration": 8689.0,
            "view_count": 170711,
            "uploader": "Eros Universe Movie Preview",
            "category": "hindi",
            "thumbnail": "https://i.ytimg.com/vi/52PXjIEvznY/hq720.jpg"
        },
        {
            "id": "AYCmFsnIgKA",
            "title": "हद कर दी आपने (2000) Full Movie 4K 😂 | Govinda, Rani, Johnny Lever | फुल कॉमेडी धमाका",
            "url": "https://www.youtube.com/watch?v=AYCmFsnIgKA",
            "duration": 8055.0,
            "view_count": 1603,
            "uploader": "सदाबहार Movies",
            "category": "hindi",
            "thumbnail": "https://i.ytimg.com/vi/AYCmFsnIgKA/hq720.jpg"
        },
        {
            "id": "uT5sX3IXR7g",
            "title": "The Discarded Ace Full Story 🎬 China New (2026) Drama Chinese update is Facts And lnteresting  , ",
            "url": "https://www.youtube.com/watch?v=uT5sX3IXR7g",
            "duration": 3628.0,
            "view_count": 13561,
            "uploader": "ciname Mot5",
            "category": "hindi",
            "thumbnail": "https://i.ytimg.com/vi/uT5sX3IXR7g/hq720.jpg"
        },
        {
            "id": "K3Wt0DYEHRk",
            "title": "Vijay Thalapathy (HD) Blockbuster South Indian Hindi Dubbed Action Movie | New South Movie 2025",
            "url": "https://www.youtube.com/watch?v=K3Wt0DYEHRk",
            "duration": 8926.0,
            "view_count": 148330,
            "uploader": "Super Movies Dhamaka",
            "category": "hindi",
            "thumbnail": "https://i.ytimg.com/vi/K3Wt0DYEHRk/hqdefault.jpg"
        },
        {
            "id": "o_cuDRyNtzo",
            "title": "Dhurandhar 2 The Revenge (2026) Full Hindi Dubbed Movie | Powerful Action Thriller HD",
            "url": "https://www.youtube.com/watch?v=o_cuDRyNtzo",
            "duration": 5804.0,
            "view_count": 781,
            "uploader": "YT THEATRE",
            "category": "hindi",
            "thumbnail": "https://i.ytimg.com/vi/o_cuDRyNtzo/hq720.jpg"
        },
        {
            "id": "qWsag7vg2fE",
            "title": "GALWAN Full Movie| John Abraham | Nargis Fakhri | Raashi Khanna | Latest Bollywood Action Movie 2026",
            "url": "https://www.youtube.com/watch?v=qWsag7vg2fE",
            "duration": 6546.0,
            "view_count": 626232,
            "uploader": "ComedyBaaz",
            "category": "hindi",
            "thumbnail": "https://i.ytimg.com/vi/qWsag7vg2fE/hq720.jpg"
        },
        {
            "id": "MszabkcOa-o",
            "title": "New Release Thriller NeelChokro 2025 Hindi Dubbed Movie Full 4K | Arifin Shuvoo, Mondera Chakraborty",
            "url": "https://www.youtube.com/watch?v=MszabkcOa-o",
            "duration": 6064.0,
            "view_count": 680625,
            "uploader": "Ultra 4K Movies",
            "category": "hindi",
            "thumbnail": "https://i.ytimg.com/vi/MszabkcOa-o/hq720.jpg"
        },
        {
            "id": "RLSwLooLDLg",
            "title": "Dhurandhar 2: The Revenge (Full Movie Hindi) | dhurandhar 2 hindi | #ranveersingh #saraarjun",
            "url": "https://www.youtube.com/watch?v=RLSwLooLDLg",
            "duration": 13696.0,
            "view_count": 245,
            "uploader": "create vines",
            "category": "hindi",
            "thumbnail": "https://i.ytimg.com/vi/RLSwLooLDLg/hqdefault.jpg"
        },
        {
            "id": "3M0YxLGKH2A",
            "title": "Aakrosh 2010 Hindi Action Full Movie 4K | Ajay Devgn, Akshaye Khanna, Priyadarshan | Bollywood 2000s",
            "url": "https://www.youtube.com/watch?v=3M0YxLGKH2A",
            "duration": 8373.0,
            "view_count": 763523,
            "uploader": "Ultra 4K Movies",
            "category": "hindi",
            "thumbnail": "https://i.ytimg.com/vi/3M0YxLGKH2A/hq720.jpg"
        },
        {
            "id": "cLOCtQjZiz4",
            "title": "Housefull 3 Full Movie HD 😂| Akshay Kumar, Riteish, Abhishek | Blockbuster Bollywood Comedy Movie",
            "url": "https://www.youtube.com/watch?v=cLOCtQjZiz4",
            "duration": 7744.0,
            "view_count": 1141,
            "uploader": "Eros Universe",
            "category": "hindi",
            "thumbnail": "https://i.ytimg.com/vi/cLOCtQjZiz4/hq720.jpg"
        },
        {
            "id": "JH_E05VhH04",
            "title": "Dhurandhar 2 (The Revenge) Full Movie 2026 | Ranveer Singh, Sanjay Dutt, Deepika | Latest Movie 2026",
            "url": "https://www.youtube.com/watch?v=JH_E05VhH04",
            "duration": 12709.0,
            "view_count": 5932,
            "uploader": "Sonu Das",
            "category": "hindi",
            "thumbnail": "https://i.ytimg.com/vi/JH_E05VhH04/hqdefault.jpg"
        },
        {
            "id": "dz_0JZqA8bU",
            "title": "Jab Pyar Kisi Se Hota Hai [HD] - Hindi Full Movie - Salman Khan - Twinkle Khanna -Romantic Film",
            "url": "https://www.youtube.com/watch?v=dz_0JZqA8bU",
            "duration": 8989.0,
            "view_count": 26412456,
            "uploader": "Shemaroo Movies",
            "category": "hindi",
            "thumbnail": "https://i.ytimg.com/vi/dz_0JZqA8bU/hq720.jpg"
        },
        {
            "id": "qyVQ4UOaT3k",
            "title": "Judaai (1997) - Anil Kapoor, Sridevi, Urmila Matondkar - 90s Ki Superhit Romantic Hindi Movie",
            "url": "https://www.youtube.com/watch?v=qyVQ4UOaT3k",
            "duration": 9322.0,
            "view_count": 31823059,
            "uploader": "PlayMovies",
            "category": "hindi",
            "thumbnail": "https://i.ytimg.com/vi/qyVQ4UOaT3k/hq720.jpg"
        },
        {
            "id": "I4Ppgn15RRE",
            "title": "Barood | बारूद | Full Hindi Movie | Akshay Kumar, Raveena Tandon, Rakhee G, Amrish Puri | Pramod C",
            "url": "https://www.youtube.com/watch?v=I4Ppgn15RRE",
            "duration": 9523.0,
            "view_count": 21568162,
            "uploader": "Soham Rockstar Entertainment",
            "category": "hindi",
            "thumbnail": "https://i.ytimg.com/vi/I4Ppgn15RRE/hq720.jpg"
        },
        {
            "id": "fc1WSJwgtiA",
            "title": "#AK65 Full Movie Hindi Dubbed | Ajith Kumar | Jagapathi Babu | Latest South Indian Action Movie 2026",
            "url": "https://www.youtube.com/watch?v=fc1WSJwgtiA",
            "duration": 7734.0,
            "view_count": 488502,
            "uploader": "FullOn Blockbuster",
            "category": "hindi",
            "thumbnail": "https://i.ytimg.com/vi/fc1WSJwgtiA/hq720.jpg"
        },
        {
            "id": "Yg73jAp5GOw",
            "title": "Vijay Thalapathy (HD) Blockbuster South Indian Hindi Dubbed Action Movie | New Letest Movie 2025",
            "url": "https://www.youtube.com/watch?v=Yg73jAp5GOw",
            "duration": 8926.0,
            "view_count": 34944,
            "uploader": "Super Movies Dhamaka",
            "category": "hindi",
            "thumbnail": "https://i.ytimg.com/vi/Yg73jAp5GOw/hqdefault.jpg"
        },
        {
            "id": "diiWWatnO7A",
            "title": "Sarbjit (Full Movie): Randeep Hooda | Aishwarya Rai Bachchan | Richa Chadda | Bhushan Kumar",
            "url": "https://www.youtube.com/watch?v=diiWWatnO7A",
            "duration": 7596.0,
            "view_count": 6764888,
            "uploader": "T-Series",
            "category": "hindi",
            "thumbnail": "https://i.ytimg.com/vi/diiWWatnO7A/hq720.jpg"
        },
        {
            "id": "-X1aeCqeqCY",
            "title": "AK65 Full Movie In Hindi Dubbed | Ajith Kumar, Jagapathi Babu | New South Indian Hindi Dubbed Movies",
            "url": "https://www.youtube.com/watch?v=-X1aeCqeqCY",
            "duration": 7568.0,
            "view_count": 632085,
            "uploader": "Power Star Pictures",
            "category": "hindi",
            "thumbnail": "https://i.ytimg.com/vi/-X1aeCqeqCY/hq720.jpg"
        },
        {
            "id": "O15pvbaEsLY",
            "title": "De De Pyaar De Full Movie Hindi | Ajay Devgn | Rakul Preet Singh | Tabu",
            "url": "https://www.youtube.com/watch?v=O15pvbaEsLY",
            "duration": 8052.0,
            "view_count": 15586276,
            "uploader": "Dhamaka Movies",
            "category": "hindi",
            "thumbnail": "https://i.ytimg.com/vi/O15pvbaEsLY/hq720.jpg"
        },
        {
            "id": "j8w7DzNgShg",
            "title": "Mann (HD & Eng Subs)Hindi Full Movie - Aamir Khan, Manisha Koirala, Anil Kapoor - 90's Romantic Film",
            "url": "https://www.youtube.com/watch?v=j8w7DzNgShg",
            "duration": 10394.0,
            "view_count": 189165292,
            "uploader": "Shemaroo Movies",
            "category": "hindi",
            "thumbnail": "https://i.ytimg.com/vi/j8w7DzNgShg/hq720.jpg"
        },
        {
            "id": "hLKrYbE6k5Q",
            "title": "Vaada 2004 HIndi Thriller Full Movie 4K | Arjun Rampal, Ameesha Patel, Zayed Khan | Bollywood 2000",
            "url": "https://www.youtube.com/watch?v=hLKrYbE6k5Q",
            "duration": 7604.0,
            "view_count": 1022025,
            "uploader": "Ultra 4K Movies",
            "category": "hindi",
            "thumbnail": "https://i.ytimg.com/vi/hLKrYbE6k5Q/hq720.jpg"
        },
        {
            "id": "A3JY7oZWLJY",
            "title": "I Am God full movie in Hindi dubbed ",
            "url": "https://www.youtube.com/watch?v=A3JY7oZWLJY",
            "duration": 9060.0,
            "view_count": 7132,
            "uploader": "D series73 *",
            "category": "hindi",
            "thumbnail": "https://i.ytimg.com/vi/A3JY7oZWLJY/hq720.jpg"
        },
        {
            "id": "J-K7S8Mf5UQ",
            "title": "AK 47 Full Movie In Hindi Dubbed 2026 | Ajith Kumar | New Released South Hindi Dubbed Movie 2026",
            "url": "https://www.youtube.com/watch?v=J-K7S8Mf5UQ",
            "duration": 7568.0,
            "view_count": 39277,
            "uploader": "Bolly Pictures Point",
            "category": "hindi",
            "thumbnail": "https://i.ytimg.com/vi/J-K7S8Mf5UQ/hq720.jpg"
        },
        {
            "id": "H_tSFJg-IyA",
            "title": "Punarjanam | Blockbuster Nani's Movie | Full Movie | Hindi Dubbed | HD | 1080p | Shyam Singh Roy",
            "url": "https://www.youtube.com/watch?v=H_tSFJg-IyA",
            "duration": 8705.0,
            "view_count": 2183588,
            "uploader": "Masala Movie",
            "category": "hindi",
            "thumbnail": "https://i.ytimg.com/vi/H_tSFJg-IyA/hq720.jpg"
        },
        {
            "id": "Nlchf1NNUWc",
            "title": "Partner Full Movie | Salman Khan, Govinda, Katrina Kaif, Lara Dutta | Bollywood Comedy Blockbuster",
            "url": "https://www.youtube.com/watch?v=Nlchf1NNUWc",
            "duration": 8566.0,
            "view_count": 266102,
            "uploader": "Eros Universe Super Cinema",
            "category": "hindi",
            "thumbnail": "https://i.ytimg.com/vi/Nlchf1NNUWc/hq720.jpg"
        },
        {
            "id": "JAegwWXcVT8",
            "title": "2026 New Blockbuster Hindi Dubbed Action Movie _ New South Indian Movies Dubbed In Hindi 2026 Full",
            "url": "https://www.youtube.com/watch?v=JAegwWXcVT8",
            "duration": 8490.0,
            "view_count": 3265237,
            "uploader": "Super Movies Dhamaka",
            "category": "hindi",
            "thumbnail": "https://i.ytimg.com/vi/JAegwWXcVT8/hq720.jpg"
        },
        {
            "id": "GGFXtOBymwM",
            "title": "Golmaal 3 - Comedy Movie HD | Ajay Devgan - Kareena Kapoor - Arshad Warsi - Shreyas - Kunal - Tushar",
            "url": "https://www.youtube.com/watch?v=GGFXtOBymwM",
            "duration": 8072.0,
            "view_count": 23009,
            "uploader": "Eros Universe Big Picture",
            "category": "hindi",
            "thumbnail": "https://i.ytimg.com/vi/GGFXtOBymwM/hq720.jpg"
        },
        {
            "id": "CHuVFLZD9nA",
            "title": "Pushpa 3: The Rampage - Hindi Movie | Allu Arjun | Vijay Devarkonda | Rashmika M | Sukumar New Movie",
            "url": "https://www.youtube.com/watch?v=CHuVFLZD9nA",
            "duration": 8932.0,
            "view_count": 8037,
            "uploader": "Power Star Pictures",
            "category": "hindi",
            "thumbnail": "https://i.ytimg.com/vi/CHuVFLZD9nA/hq720.jpg"
        },
        {
            "id": "uIYXSpKCBhk",
            "title": "Farzi 2 - New Blockbuster Hindi Action Full Movie | Shahid Kapoor , Raashii Khanna Hindi Full Movie",
            "url": "https://www.youtube.com/watch?v=uIYXSpKCBhk",
            "duration": 8669.0,
            "view_count": 8540172,
            "uploader": "AR Hussain",
            "category": "hindi",
            "thumbnail": "https://i.ytimg.com/vi/uIYXSpKCBhk/hq720.jpg"
        },
        {
            "id": "5nVtduyZQKc",
            "title": "Pushpa 3 Full Movie 2026 | Allu Arjun | Rashmika Mandanna | New South Indian Hindi Dubbed Movie 2026",
            "url": "https://www.youtube.com/watch?v=5nVtduyZQKc",
            "duration": 8932.0,
            "view_count": 58909,
            "uploader": "Bolly Pictures Point",
            "category": "hindi",
            "thumbnail": "https://i.ytimg.com/vi/5nVtduyZQKc/hq720.jpg"
        }
    ]
}