{
    "page": 5,
    "total_pages": 12,
    "total_items": 558,
    "items": [
        {
            "id": "saa7LpHiRFE",
            "title": "Once Upon a Time in Mumbai Full Movie with Subtitles | Ajay Devgn, Emraan Hashmi",
            "url": "https://www.youtube.com/watch?v=saa7LpHiRFE",
            "duration": 7672.0,
            "view_count": 33322486,
            "uploader": "NH Prime",
            "category": "hindi",
            "thumbnail": "https://i.ytimg.com/vi/saa7LpHiRFE/hq720.jpg"
        },
        {
            "id": "HVyXEbOWrp4",
            "title": "Hungama (HD) | Hindi Movies 2016 Full Movie | Akshaye Khanna Movies | Bollywood Comedy Movies",
            "url": "https://www.youtube.com/watch?v=HVyXEbOWrp4",
            "duration": 8771.0,
            "view_count": 80332002,
            "uploader": "Venus Movies",
            "category": "hindi",
            "thumbnail": "https://i.ytimg.com/vi/HVyXEbOWrp4/hq720.jpg"
        },
        {
            "id": "C3WHXdEoZOw",
            "title": "Partner - Full Movie HD| Salman Khan, Govinda, Lara Dutta, Katrina Kaif |Superhit Comedy Blockbuster",
            "url": "https://www.youtube.com/watch?v=C3WHXdEoZOw",
            "duration": 8219.0,
            "view_count": 274998,
            "uploader": "Eros Universe",
            "category": "hindi",
            "thumbnail": "https://i.ytimg.com/vi/C3WHXdEoZOw/hq720.jpg"
        },
        {
            "id": "IsXklOKQRFU",
            "title": "Rolex (2026) | Suriya, Vijay Sethupathi & Kamal Haasan | New Hindi Dubbed South Action Movie",
            "url": "https://www.youtube.com/watch?v=IsXklOKQRFU",
            "duration": 9630.0,
            "view_count": 31186,
            "uploader": "PlayNation",
            "category": "hindi",
            "thumbnail": "https://i.ytimg.com/vi/IsXklOKQRFU/hq720.jpg"
        },
        {
            "id": "Za7lQ_TfDxs",
            "title": "Vinaya Vedhya Rama | Ram Charan | Kiara Advani New Blockbuster South Hindi Dubbed Full Movie 2026",
            "url": "https://www.youtube.com/watch?v=Za7lQ_TfDxs",
            "duration": 7039.0,
            "view_count": 3914,
            "uploader": "Movies University",
            "category": "hindi",
            "thumbnail": "https://i.ytimg.com/vi/Za7lQ_TfDxs/hq720.jpg"
        },
        {
            "id": "TsM3DWOfums",
            "title": "Thalapathy Vijay & Sree leela | Adhira | New South Indian Full Hindi Dubbed Movie 2026 | New Movie",
            "url": "https://www.youtube.com/watch?v=TsM3DWOfums",
            "duration": 8979.0,
            "view_count": 42100,
            "uploader": "Movie Record South",
            "category": "hindi",
            "thumbnail": "https://i.ytimg.com/vi/TsM3DWOfums/hq720.jpg"
        },
        {
            "id": "q-d11teyVy0",
            "title": "Dhurandhar 2 Full Movie Hindi The Revenge Dhurandhar || Ranveer Singh Sanjay Dutt #dhurandhar ",
            "url": "https://www.youtube.com/watch?v=q-d11teyVy0",
            "duration": 13411.0,
            "view_count": 14779,
            "uploader": "𝐒𝐀𝐅𝐈𝐑 𝐂𝐋𝐈𝐂𝐊𝐒 !! 🦋",
            "category": "hindi",
            "thumbnail": "https://i.ytimg.com/vi/q-d11teyVy0/hqdefault.jpg"
        },
        {
            "id": "aRZwTRENla8",
            "title": "Flashback (2026) New Released Hindi Dubbed Full Movie In 4K | Prabhu Deva, Regina Cassandra",
            "url": "https://www.youtube.com/watch?v=aRZwTRENla8",
            "duration": 6533.0,
            "view_count": 915,
            "uploader": "Sachin joshi vlogs2",
            "category": "hindi",
            "thumbnail": "https://i.ytimg.com/vi/aRZwTRENla8/hqdefault.jpg"
        },
        {
            "id": "2AoBbNObnR8",
            "title": "Dhurandhar 2 Full Movie | Ranveer Singh, Akshay Khanna | New Bollywood Full Action HD Movie 2026",
            "url": "https://www.youtube.com/watch?v=2AoBbNObnR8",
            "duration": 13411.0,
            "view_count": 21108,
            "uploader": "Deepjot Battawala",
            "category": "hindi",
            "thumbnail": "https://i.ytimg.com/vi/2AoBbNObnR8/hqdefault.jpg"
        },
        {
            "id": "_5ZctetaaTA",
            "title": "PRIME (2026) | KAMAL HAASAN | New South Hindi Dubbed Full Action Blockbuster HD",
            "url": "https://www.youtube.com/watch?v=_5ZctetaaTA",
            "duration": 10375.0,
            "view_count": 82293,
            "uploader": "PlayNation",
            "category": "hindi",
            "thumbnail": "https://i.ytimg.com/vi/_5ZctetaaTA/hq720.jpg"
        },
        {
            "id": "32j-n1l85Tc",
            "title": "🎬 Jai Ho (2014) Hindi Full Movie BluRay UHD 1080p | DD 5.1 (384Kbps) | Salman Khan Action Movie",
            "url": "https://www.youtube.com/watch?v=32j-n1l85Tc",
            "duration": 8456.0,
            "view_count": 161420,
            "uploader": "WishAK YT",
            "category": "hindi",
            "thumbnail": "https://i.ytimg.com/vi/32j-n1l85Tc/hqdefault.jpg"
        },
        {
            "id": "sGTcjqsUUX8",
            "title": "HAUNTED 2 Full Horror Movie | Akshay Kumar, Vidya Balan, Tripti Dimri | Latest Bollywood Movie 2026",
            "url": "https://www.youtube.com/watch?v=sGTcjqsUUX8",
            "duration": 7248.0,
            "view_count": 1780937,
            "uploader": "Moviewood Cinema",
            "category": "hindi",
            "thumbnail": "https://i.ytimg.com/vi/sGTcjqsUUX8/hq720.jpg"
        },
        {
            "id": "06TOsyG4HlM",
            "title": "Kabir Singh (2019) Full Movie UHD | Shahid Kapoor, Kiara Advani | Biggest Bollywood Blockbuster",
            "url": "https://www.youtube.com/watch?v=06TOsyG4HlM",
            "duration": 9629.0,
            "view_count": 438723,
            "uploader": "NH BOLLY FLIX",
            "category": "hindi",
            "thumbnail": "https://i.ytimg.com/vi/06TOsyG4HlM/hq720.jpg"
        },
        {
            "id": "k1dhK5EQVcM",
            "title": "PAILAM PILAGA (2026) New Released Full Hindi Dubbed Romantic Drama Movie | Sai Teja, Pavani Karanam",
            "url": "https://www.youtube.com/watch?v=k1dhK5EQVcM",
            "duration": 6332.0,
            "view_count": 15734,
            "uploader": "RDC Movie and 5 more",
            "category": "hindi",
            "thumbnail": "https://i.ytimg.com/vi/k1dhK5EQVcM/hq720.jpg"
        },
        {
            "id": "zWNQcC7Pu-k",
            "title": "AATMA KA VASH - Hindi Dubbed Full Movie | Anushka Shetty, Unni Mukundan | Horror Action Movie",
            "url": "https://www.youtube.com/watch?v=zWNQcC7Pu-k",
            "duration": 7610.0,
            "view_count": 2139009,
            "uploader": "Primetime Action Movies",
            "category": "hindi",
            "thumbnail": "https://i.ytimg.com/vi/zWNQcC7Pu-k/hq720.jpg"
        },
        {
            "id": "EDf0p1o9VAM",
            "title": "शुभ मंगल सावधान - Full Movie | Ayushmann Khurrana | Bhumi Pednekar | Hindi Romantic Comedy",
            "url": "https://www.youtube.com/watch?v=EDf0p1o9VAM",
            "duration": 6005.0,
            "view_count": 61339,
            "uploader": "Eros Universe",
            "category": "hindi",
            "thumbnail": "https://i.ytimg.com/vi/EDf0p1o9VAM/hq720.jpg"
        },
        {
            "id": "Tkc7lIZ4lNQ",
            "title": "PUSHPA 3 The Rampage : Full Movie | Allu Arjun | Rashmika Mandana | Latest Full Action Movie 2026",
            "url": "https://www.youtube.com/watch?v=Tkc7lIZ4lNQ",
            "duration": 9116.0,
            "view_count": 629640,
            "uploader": "Ranita Studio",
            "category": "hindi",
            "thumbnail": "https://i.ytimg.com/vi/Tkc7lIZ4lNQ/hq720.jpg"
        },
        {
            "id": "8luPSi5gfn8",
            "title": "Dhurandhar The Revenge Ranveer Akshaye Khanna Singh Hindi Dubbed Full Movie | New Action Movie 2026",
            "url": "https://www.youtube.com/watch?v=8luPSi5gfn8",
            "duration": 8197.0,
            "view_count": 1015,
            "uploader": "Hindi Movie Cinema",
            "category": "hindi",
            "thumbnail": "https://i.ytimg.com/vi/8luPSi5gfn8/hq720.jpg"
        },
        {
            "id": "c1Gkey_Zq3s",
            "title": "Hanuman 2 Full Movie Hindi Dubbed 2026 | Teja Sajja | Rishabh Shetty | New South Hindi Movie 2026",
            "url": "https://www.youtube.com/watch?v=c1Gkey_Zq3s",
            "duration": 8508.0,
            "view_count": 3623839,
            "uploader": "Bollywood World",
            "category": "hindi",
            "thumbnail": "https://i.ytimg.com/vi/c1Gkey_Zq3s/hq720.jpg"
        },
        {
            "id": "VgTjps8ujjI",
            "title": "Dhurandhar 2 Full Movie Hindi | Ranveer Singh | Full Action Movie 2026",
            "url": "https://www.youtube.com/watch?v=VgTjps8ujjI",
            "duration": 13411.0,
            "view_count": 4677,
            "uploader": "Gokarna bhandari",
            "category": "hindi",
            "thumbnail": "https://i.ytimg.com/vi/VgTjps8ujjI/hq720.jpg"
        },
        {
            "id": "E6hhz9t8qjg",
            "title": "NAAGRAJ 2 Full Movie Hindi Dubbed | Prabhas & Tamannaah | Latest South Indian Anaconda Movie 2026",
            "url": "https://www.youtube.com/watch?v=E6hhz9t8qjg",
            "duration": 8832.0,
            "view_count": 2182307,
            "uploader": "Ranita Studio",
            "category": "hindi",
            "thumbnail": "https://i.ytimg.com/vi/E6hhz9t8qjg/hq720.jpg"
        },
        {
            "id": "Vc9lOC0D384",
            "title": "New South Indian Movies 2026 in Hindi Dubbed | Prabhas New Released Full Movie | Latest Movies",
            "url": "https://www.youtube.com/watch?v=Vc9lOC0D384",
            "duration": 7300.0,
            "view_count": 5847,
            "uploader": "SVR Films",
            "category": "hindi",
            "thumbnail": "https://i.ytimg.com/vi/Vc9lOC0D384/hq720.jpg"
        },
        {
            "id": "SGKWw6uvQLc",
            "title": "Kashi Full Movie 2026 | Mahesh Babu, Sreeleela, Sanjay Dutt | New South Hindi Dubbed Full Movie 2026",
            "url": "https://www.youtube.com/watch?v=SGKWw6uvQLc",
            "duration": 8216.0,
            "view_count": 1202378,
            "uploader": "Bollywood World",
            "category": "hindi",
            "thumbnail": "https://i.ytimg.com/vi/SGKWw6uvQLc/hq720.jpg"
        },
        {
            "id": "S6F6Bi0emBk",
            "title": "The Kerala Story 2 Goes Beyond | Ulka Gupta, Aditi Bhatia, Aishwarya | Latest Thriller Movie 2026",
            "url": "https://www.youtube.com/watch?v=S6F6Bi0emBk",
            "duration": 6716.0,
            "view_count": 221047,
            "uploader": "Ranita Studio",
            "category": "hindi",
            "thumbnail": "https://i.ytimg.com/vi/S6F6Bi0emBk/hq720.jpg"
        },
        {
            "id": "tCqyTWD8QzE",
            "title": "Kerala 2 Story Full Movie | The Truth Will Shock You 😱 | Hindi Movie 2026",
            "url": "https://www.youtube.com/watch?v=tCqyTWD8QzE",
            "duration": 6690.0,
            "view_count": 22402,
            "uploader": "Amit Chhama Family BLOG",
            "category": "hindi",
            "thumbnail": "https://i.ytimg.com/vi/tCqyTWD8QzE/hqdefault.jpg"
        },
        {
            "id": "7bCva2TK-eM",
            "title": "Bhoothnath Returns (4K Full Movie) Amitabh Bachchan | Boman Irani | Nitesh Tiwari | Bhushan Kumar",
            "url": "https://www.youtube.com/watch?v=7bCva2TK-eM",
            "duration": 8690.0,
            "view_count": 178276,
            "uploader": "T-Series",
            "category": "hindi",
            "thumbnail": "https://i.ytimg.com/vi/7bCva2TK-eM/hq720.jpg"
        },
        {
            "id": "Q2ku--5Yko0",
            "title": "Dhurandhar 2 Full Movie Hindi | Ranveer Singh | Full Action Movie 2026",
            "url": "https://www.youtube.com/watch?v=Q2ku--5Yko0",
            "duration": 13411.0,
            "view_count": 10272,
            "uploader": "Gokarna bhandari",
            "category": "hindi",
            "thumbnail": "https://i.ytimg.com/vi/Q2ku--5Yko0/hq720.jpg"
        },
        {
            "id": "6xOMF2Gdyco",
            "title": "Superhit Blockbuster Full Hindi Comedy Movie | Shahid Kapoor, Paresh Rawal, Rajpal Yadav Comedy",
            "url": "https://www.youtube.com/watch?v=6xOMF2Gdyco",
            "duration": 8236.0,
            "view_count": 4877783,
            "uploader": "BollywoodWala Adda",
            "category": "hindi",
            "thumbnail": "https://i.ytimg.com/vi/6xOMF2Gdyco/hq720.jpg"
        },
        {
            "id": "6GLJhk0RBB8",
            "title": "Golmaal 5 (2026) Full Hindi Comedy Movie | Ajay Devgn | Sara Ali Khan | Arshad Warsi | HD",
            "url": "https://www.youtube.com/watch?v=6GLJhk0RBB8",
            "duration": 6752.0,
            "view_count": 2599564,
            "uploader": "Dhariwal anjali  and Lucky Sayed",
            "category": "hindi",
            "thumbnail": "https://i.ytimg.com/vi/6GLJhk0RBB8/hq720.jpg"
        },
        {
            "id": "R1BnXlw34p0",
            "title": "Dhurandhar 2 Full Movie Hindi | RanveerSingh | Full Action Movie 2026",
            "url": "https://www.youtube.com/watch?v=R1BnXlw34p0",
            "duration": 13411.0,
            "view_count": 5038,
            "uploader": "365_vlogs",
            "category": "hindi",
            "thumbnail": "https://i.ytimg.com/vi/R1BnXlw34p0/hqdefault.jpg"
        },
        {
            "id": "-Axuc_fZfQo",
            "title": "AA23 Full Movie Hindi Dubbed 2025 | Allu Arjun | Prashanth Neel | New South Indian Hindi Dubb Movies",
            "url": "https://www.youtube.com/watch?v=-Axuc_fZfQo",
            "duration": 8789.0,
            "view_count": 4467869,
            "uploader": "Movie Record South",
            "category": "hindi",
            "thumbnail": "https://i.ytimg.com/vi/-Axuc_fZfQo/hq720.jpg"
        },
        {
            "id": "WDQcrlmKlkE",
            "title": "Dhurandhar Full Movie 2026 | Ranveer Singh | Sanjay Dutt #dhurandhar #movie #bollywood #newmovie ",
            "url": "https://www.youtube.com/watch?v=WDQcrlmKlkE",
            "duration": 8464.0,
            "view_count": 1715884,
            "uploader": "Netox Films  ",
            "category": "hindi",
            "thumbnail": "https://i.ytimg.com/vi/WDQcrlmKlkE/hqdefault.jpg"
        },
        {
            "id": "N1ez-1wi4Yw",
            "title": "New South Blockbuster 2026 | Prabhas & Sara Arjun | Toxic Lover Hindi Dubbed Full Movie HD",
            "url": "https://www.youtube.com/watch?v=N1ez-1wi4Yw",
            "duration": 7429.0,
            "view_count": 52325,
            "uploader": "PrimeFlix Arena",
            "category": "hindi",
            "thumbnail": "https://i.ytimg.com/vi/N1ez-1wi4Yw/hq720.jpg"
        },
        {
            "id": "_bQQM9jreQg",
            "title": "Shikaaru | South Hindi Dubbed Action Romantic Movie Full Love Story | Sai Dhansika, Abhinav | Movie",
            "url": "https://www.youtube.com/watch?v=_bQQM9jreQg",
            "duration": 7280.0,
            "view_count": 98935,
            "uploader": "MIX Movies Entertainment",
            "category": "hindi",
            "thumbnail": "https://i.ytimg.com/vi/_bQQM9jreQg/hq720.jpg"
        },
        {
            "id": "9eu2nSyATGQ",
            "title": "The  Kerala story 2 full movie hindi dubbed 2026 new movie kerala story 2 viral ",
            "url": "https://www.youtube.com/watch?v=9eu2nSyATGQ",
            "duration": 6967.0,
            "view_count": 601,
            "uploader": "Karan Chaudhary",
            "category": "hindi",
            "thumbnail": "https://i.ytimg.com/vi/9eu2nSyATGQ/hqdefault.jpg"
        },
        {
            "id": "2YknKT-tTT0",
            "title": "RANGASTHALAM  SOUTH MOVIE IN HINDI AUDIO 2018  ",
            "url": "https://www.youtube.com/watch?v=2YknKT-tTT0",
            "duration": 7220.0,
            "view_count": 1294,
            "uploader": "The cinema metri",
            "category": "hindi",
            "thumbnail": "https://i.ytimg.com/vi/2YknKT-tTT0/hqdefault.jpg"
        },
        {
            "id": "XEB89hNrAAk",
            "title": "Mahesh Babu | New Released South Indian Movie Dubbed In Hindi | Action Thriller 2025 | Full Movie",
            "url": "https://www.youtube.com/watch?v=XEB89hNrAAk",
            "duration": 7868.0,
            "view_count": 4036,
            "uploader": "Digital Movie Flix",
            "category": "hindi",
            "thumbnail": "https://i.ytimg.com/vi/XEB89hNrAAk/hq720.jpg"
        },
        {
            "id": "5HcuFyrKZTk",
            "title": "RAAYAN | Dhanush, S.J. Suryah | New (2026) Released Hindi Action Crime Thriller Movie | Full HD",
            "url": "https://www.youtube.com/watch?v=5HcuFyrKZTk",
            "duration": 8518.0,
            "view_count": 11861,
            "uploader": "PlayNation",
            "category": "hindi",
            "thumbnail": "https://i.ytimg.com/vi/5HcuFyrKZTk/hq720.jpg"
        },
        {
            "id": "41vWof1b2Fc",
            "title": "NBK's DAAKU DARA - Hindi Dubbed Full Movie | Nandamuri Balakrishna, Sreeleela | Action Movie",
            "url": "https://www.youtube.com/watch?v=41vWof1b2Fc",
            "duration": 7945.0,
            "view_count": 2204,
            "uploader": "Adwise Movieplex",
            "category": "hindi",
            "thumbnail": "https://i.ytimg.com/vi/41vWof1b2Fc/hq720.jpg"
        },
        {
            "id": "nAvU-iIMbTk",
            "title": "ROLEX | Suriya, Vijay Sethupathi | New (2026) Released Hindi Action Crime Thriller Movie | Full HD",
            "url": "https://www.youtube.com/watch?v=nAvU-iIMbTk",
            "duration": 9630.0,
            "view_count": 8681,
            "uploader": "PlayNation",
            "category": "hindi",
            "thumbnail": "https://i.ytimg.com/vi/nAvU-iIMbTk/hq720.jpg"
        },
        {
            "id": "7tzeM5T6t4A",
            "title": "PSYCHO Full Movie in Hindi | Prabhas | Kiara Advani | Sunjay Dutt | Latest Sout Action Movie 2026",
            "url": "https://www.youtube.com/watch?v=7tzeM5T6t4A",
            "duration": 7580.0,
            "view_count": 4244925,
            "uploader": "Bollywood World",
            "category": "hindi",
            "thumbnail": "https://i.ytimg.com/vi/7tzeM5T6t4A/hq720.jpg"
        },
        {
            "id": "w4D-SuXFRIc",
            "title": "Dhurandhar 2 The Revenge (2026) Full Hindi Dubbed Movie | Powerful Action Thriller HD",
            "url": "https://www.youtube.com/watch?v=w4D-SuXFRIc",
            "duration": 8197.0,
            "view_count": 5984489,
            "uploader": "Dans Show",
            "category": "hindi",
            "thumbnail": "https://i.ytimg.com/vi/w4D-SuXFRIc/hq720.jpg"
        },
        {
            "id": "xOxGXMkQp-4",
            "title": "Dhurandhar The Revenge Hindi Dubbed Full Movie | New Action Movie 2026",
            "url": "https://www.youtube.com/watch?v=xOxGXMkQp-4",
            "duration": 8197.0,
            "view_count": 3937769,
            "uploader": "Vibe Atlas",
            "category": "hindi",
            "thumbnail": "https://i.ytimg.com/vi/xOxGXMkQp-4/hq720.jpg"
        },
        {
            "id": "dYkXSsog7Js",
            "title": "Dhurandhar 2 full movie full movie new launch#dhurandhar 2#new movie#Dhurandhar full movie#Hindi",
            "url": "https://www.youtube.com/watch?v=dYkXSsog7Js",
            "duration": 13738.0,
            "view_count": 960,
            "uploader": "Mukesh Kaushik",
            "category": "hindi",
            "thumbnail": "https://i.ytimg.com/vi/dYkXSsog7Js/hq720.jpg"
        },
        {
            "id": "n7qWKwVtp2c",
            "title": "Jr. NTR & Janhvi Kapoor | Devara 2 | New South Blockbuster 2026 Hindi Dubbed Full Movie HD",
            "url": "https://www.youtube.com/watch?v=n7qWKwVtp2c",
            "duration": 9573.0,
            "view_count": 119027,
            "uploader": "NovaHit Cinema",
            "category": "hindi",
            "thumbnail": "https://i.ytimg.com/vi/n7qWKwVtp2c/hq720.jpg"
        },
        {
            "id": "A2SrzL0p70w",
            "title": "ANDAZ APNA APNA Comedy Full Movie 4K | 90 Bollywood Aamir Khan, Salman Khan, Raveena Karishma Kapoor",
            "url": "https://www.youtube.com/watch?v=A2SrzL0p70w",
            "duration": 9230.0,
            "view_count": 4573107,
            "uploader": "Ultra 4K Movies",
            "category": "hindi",
            "thumbnail": "https://i.ytimg.com/vi/A2SrzL0p70w/hq720.jpg"
        },
        {
            "id": "GzPi7yW0MaQ",
            "title": "Kabhi Khushi Kabhie Gham | Full Movie | Shah Rukh Khan, Kajol, Hrithik | K3G | Karan Johar Film",
            "url": "https://www.youtube.com/watch?v=GzPi7yW0MaQ",
            "duration": 12153.0,
            "view_count": 168241,
            "uploader": "Asmat Sial",
            "category": "hindi",
            "thumbnail": "https://i.ytimg.com/vi/GzPi7yW0MaQ/hqdefault.jpg"
        },
        {
            "id": "MFRwL5Ras5E",
            "title": "Ice War | Only Allu Arjun Can Do This | Pooja Hegde | Mass Action Blockbuster 2026 Hindi Dubbed",
            "url": "https://www.youtube.com/watch?v=MFRwL5Ras5E",
            "duration": 8592.0,
            "view_count": 877554,
            "uploader": "Hindi Movie Cinema",
            "category": "hindi",
            "thumbnail": "https://i.ytimg.com/vi/MFRwL5Ras5E/hq720.jpg"
        },
        {
            "id": "-SkQ1jJNu_A",
            "title": "Koi... Mil Gaya (2003) Full Movie 4K | कोई... मिल गया | Hrithik Roshan | Preity Zinta | Hindi Movie",
            "url": "https://www.youtube.com/watch?v=-SkQ1jJNu_A",
            "duration": 9973.0,
            "view_count": 97589787,
            "uploader": "Ultra Bollywood",
            "category": "hindi",
            "thumbnail": "https://i.ytimg.com/vi/-SkQ1jJNu_A/hq720.jpg"
        },
        {
            "id": "5a9FP3jWUCM",
            "title": "POSTMORTEM | Suriya, Deepika | New (2026) Released Hindi Action Crime Thriller Movie | Full HD",
            "url": "https://www.youtube.com/watch?v=5a9FP3jWUCM",
            "duration": 6284.0,
            "view_count": 12681946,
            "uploader": "PlayNation",
            "category": "hindi",
            "thumbnail": "https://i.ytimg.com/vi/5a9FP3jWUCM/hq720.jpg"
        }
    ]
}