{
    "page": 2,
    "total_pages": 2,
    "total_items": 60,
    "items": [
        {
            "id": "phA0SuowcW4",
            "title": "The Last Witch of Salem Returns for Blood | Full Horror Movie",
            "url": "https://www.youtube.com/watch?v=phA0SuowcW4",
            "duration": 5542.0,
            "view_count": 49715,
            "uploader": "Horror Central",
            "category": "horror",
            "channel_tags": [
                "horror",
                "thriller"
            ],
            "channel_name": "Horror Central",
            "thumbnail": "https://i.ytimg.com/vi/phA0SuowcW4/hqdefault.jpg?sqp=-oaymwEcCNACELwBSFXyq4qpAw4IARUAAIhCGAFwAcABBg==&rs=AOn4CLDsYRlmOZPnLLVBiwYbVtPrMHvxzg",
            "source": "youtube",
            "added_date": "2026-04-16T16:26:58.219246Z"
        },
        {
            "id": "XslK3grA2cU",
            "title": "Are the Killings Real… or Just Hallucinations? | Full Horror Movie in English",
            "url": "https://www.youtube.com/watch?v=XslK3grA2cU",
            "duration": 5535.0,
            "view_count": 1537,
            "uploader": "Horror Central",
            "category": "horror",
            "channel_tags": [
                "horror",
                "thriller"
            ],
            "channel_name": "Horror Central",
            "thumbnail": "https://i.ytimg.com/vi/XslK3grA2cU/hqdefault.jpg?sqp=-oaymwEcCNACELwBSFXyq4qpAw4IARUAAIhCGAFwAcABBg==&rs=AOn4CLCRn24ijYjqFh7x2We0MpnOwhyFDg",
            "source": "youtube",
            "added_date": "2026-04-16T16:26:58.423993Z"
        },
        {
            "id": "Qad9NgB5Rl4",
            "title": "A Wendigo Is Hunting in the Woods | Full Creature Horror Movie",
            "url": "https://www.youtube.com/watch?v=Qad9NgB5Rl4",
            "duration": 4353.0,
            "view_count": 6904,
            "uploader": "Horror Central",
            "category": "horror",
            "channel_tags": [
                "horror",
                "thriller"
            ],
            "channel_name": "Horror Central",
            "thumbnail": "https://i.ytimg.com/vi/Qad9NgB5Rl4/hqdefault.jpg?sqp=-oaymwEcCNACELwBSFXyq4qpAw4IARUAAIhCGAFwAcABBg==&rs=AOn4CLBX4DmjHBVIJqmf44I-UIyxRtVC5w",
            "source": "youtube",
            "added_date": "2026-04-16T16:26:58.629107Z"
        },
        {
            "id": "hT6eS4y4Gkg",
            "title": "A Demon Is Growing Inside Of Her | The Beast Inside | Full 2025 Supernatural Horror Movie",
            "url": "https://www.youtube.com/watch?v=hT6eS4y4Gkg",
            "duration": 5048.0,
            "view_count": 30148,
            "uploader": "Horror Central",
            "category": "horror",
            "channel_tags": [
                "horror",
                "thriller"
            ],
            "channel_name": "Horror Central",
            "thumbnail": "https://i.ytimg.com/vi/hT6eS4y4Gkg/hqdefault.jpg?sqp=-oaymwEcCNACELwBSFXyq4qpAw4IARUAAIhCGAFwAcABBg==&rs=AOn4CLAYq4rvzQMWoCVKkKOfdLdLaSjrpQ",
            "source": "youtube",
            "added_date": "2026-04-16T16:26:58.833038Z"
        },
        {
            "id": "loKKkQfYvVM",
            "title": "Their Dream Home Had a Deadly Secret | Full Horror Movie in English",
            "url": "https://www.youtube.com/watch?v=loKKkQfYvVM",
            "duration": 6351.0,
            "view_count": 2873,
            "uploader": "Horror Central",
            "category": "horror",
            "channel_tags": [
                "horror",
                "thriller"
            ],
            "channel_name": "Horror Central",
            "thumbnail": "https://i.ytimg.com/vi/loKKkQfYvVM/hqdefault.jpg?sqp=-oaymwEcCNACELwBSFXyq4qpAw4IARUAAIhCGAFwAcABBg==&rs=AOn4CLAtoZjkNLVpr1MFMcR8EL-GhoSrFQ",
            "source": "youtube",
            "added_date": "2026-04-16T16:26:59.038127Z"
        },
        {
            "id": "KHT-O3Lg6Uc",
            "title": "They're Inside: Who’s Behind the Mask? | Suspense Horror Movie",
            "url": "https://www.youtube.com/watch?v=KHT-O3Lg6Uc",
            "duration": 4846.0,
            "view_count": 1489,
            "uploader": "Horror Central",
            "category": "horror",
            "channel_tags": [
                "horror",
                "thriller"
            ],
            "channel_name": "Horror Central",
            "thumbnail": "https://i.ytimg.com/vi/KHT-O3Lg6Uc/hqdefault.jpg?sqp=-oaymwEcCNACELwBSFXyq4qpAw4IARUAAIhCGAFwAcABBg==&rs=AOn4CLClJOFPQ2neJ1HRnBLOnpbXehFlzg",
            "source": "youtube",
            "added_date": "2026-04-16T16:26:59.239767Z"
        },
        {
            "id": "EFDfeUSgq4I",
            "title": "Five Strangers Trapped in a Theater of Their Worst Fears | Full Horror Movie",
            "url": "https://www.youtube.com/watch?v=EFDfeUSgq4I",
            "duration": 6777.0,
            "view_count": 7187,
            "uploader": "Horror Central",
            "category": "horror",
            "channel_tags": [
                "horror",
                "thriller"
            ],
            "channel_name": "Horror Central",
            "thumbnail": "https://i.ytimg.com/vi/EFDfeUSgq4I/hqdefault.jpg?sqp=-oaymwEcCNACELwBSFXyq4qpAw4IARUAAIhCGAFwAcABBg==&rs=AOn4CLCrtb0e07JF3MpTgTkSBEpdRd9OAA",
            "source": "youtube",
            "added_date": "2026-04-16T16:26:59.442613Z"
        },
        {
            "id": "u1JrXclHins",
            "title": "They Went In to Rescue Him… They Found Hell | Full Horror Movie in English",
            "url": "https://www.youtube.com/watch?v=u1JrXclHins",
            "duration": 5263.0,
            "view_count": 6075,
            "uploader": "Horror Central",
            "category": "horror",
            "channel_tags": [
                "horror",
                "thriller"
            ],
            "channel_name": "Horror Central",
            "thumbnail": "https://i.ytimg.com/vi/u1JrXclHins/hqdefault.jpg?sqp=-oaymwEcCNACELwBSFXyq4qpAw4IARUAAIhCGAFwAcABBg==&rs=AOn4CLDfSzkQd8RYirohss_XYYnHVcFt7g",
            "source": "youtube",
            "added_date": "2026-04-16T16:26:59.647693Z"
        },
        {
            "id": "474eq43w_cg",
            "title": "Heartland of Darkness | Full Horror Movie 2025",
            "url": "https://www.youtube.com/watch?v=474eq43w_cg",
            "duration": 6002.0,
            "view_count": 4587,
            "uploader": "Horror Central",
            "category": "horror",
            "channel_tags": [
                "horror",
                "thriller"
            ],
            "channel_name": "Horror Central",
            "thumbnail": "https://i.ytimg.com/vi/474eq43w_cg/hqdefault.jpg?sqp=-oaymwEcCNACELwBSFXyq4qpAw4IARUAAIhCGAFwAcABBg==&rs=AOn4CLAeqgTbz6Jy2rML9xyhd5KlQvMLLA",
            "source": "youtube",
            "added_date": "2026-04-16T16:26:59.850836Z"
        },
        {
            "id": "DMp_uMD55Y8",
            "title": "Cannibal Pilgrims Hunt on Thanksgiving Night | Full Horror Movie in English",
            "url": "https://www.youtube.com/watch?v=DMp_uMD55Y8",
            "duration": 4327.0,
            "view_count": 3202,
            "uploader": "Horror Central",
            "category": "horror",
            "channel_tags": [
                "horror",
                "thriller"
            ],
            "channel_name": "Horror Central",
            "thumbnail": "https://i.ytimg.com/vi/DMp_uMD55Y8/hqdefault.jpg?sqp=-oaymwEcCNACELwBSFXyq4qpAw4IARUAAIhCGAFwAcABBg==&rs=AOn4CLDSUdv6HP_MBrd9RRWlJpn1ZARVFw",
            "source": "youtube",
            "added_date": "2026-04-16T16:27:00.055939Z"
        }
    ]
}