{
    "page": 2,
    "total_pages": 5,
    "total_items": 219,
    "items": [
        {
            "id": "fv1NClcpgc4",
            "title": "Asathoma Sadhgamaya | Kannada Full Movie | Lasya Nagaraj, Radhika Narayan, Kiran Raj",
            "url": "https://www.youtube.com/watch?v=fv1NClcpgc4",
            "duration": 8058.0,
            "view_count": 866176,
            "uploader": "Kannada Movie Factory",
            "category": "kannada",
            "thumbnail": "https://i.ytimg.com/vi/fv1NClcpgc4/hq720.jpg?sqp=-oaymwEcCNAFEJQDSFXyq4qpAw4IARUAAIhCGAFwAcABBg==&rs=AOn4CLAg2T-xG46ksR6528JiEAjXyW9pRw",
            "added_date": "2026-04-16T07:31:22.681338Z",
            "source": "youtube"
        },
        {
            "id": "Ho1C_XhmOVc",
            "title": "Namo Venkatesha Full Movie | Venkatesh | Trisha | DSP | Kannada Movies 2024 | Mango Kannada",
            "url": "https://www.youtube.com/watch?v=Ho1C_XhmOVc",
            "duration": 9515.0,
            "view_count": 1178949,
            "uploader": "Mango Kannada",
            "category": "kannada",
            "thumbnail": "https://i.ytimg.com/vi/Ho1C_XhmOVc/hq720.jpg"
        },
        {
            "id": "vA4NS_S8h1s",
            "title": "Brundavana Kannada Full Movie | Darshan | Karthika Nair | Milana Nagaraj | Saikumar",
            "url": "https://www.youtube.com/watch?v=vA4NS_S8h1s",
            "duration": 10512.0,
            "view_count": 26833096,
            "uploader": "Shemaroo Kannada",
            "category": "kannada",
            "thumbnail": "https://i.ytimg.com/vi/vA4NS_S8h1s/hq720.jpg"
        },
        {
            "id": "pAyXCLzFuMs",
            "title": "Fidaa Kannada Dubbed Full Length HD Movie | Varun Tej | Sai Pallavi | TRP Entertainments |",
            "url": "https://www.youtube.com/watch?v=pAyXCLzFuMs",
            "duration": 7024.0,
            "view_count": 1339190,
            "uploader": "TRP Entertainments",
            "category": "kannada",
            "thumbnail": "https://i.ytimg.com/vi/pAyXCLzFuMs/hq720.jpg"
        },
        {
            "id": "8sm0wIaEC5g",
            "title": "Dilli 2K Kannada Latest Dubbed Full Movies HD | Superhit | Mass Movie |Karthi Arjun Das Yogi Babu | ",
            "url": "https://www.youtube.com/watch?v=8sm0wIaEC5g",
            "duration": 8665.0,
            "view_count": 48981,
            "uploader": "KARNA MOVIES 365",
            "category": "kannada",
            "thumbnail": "https://i.ytimg.com/vi/8sm0wIaEC5g/hq720.jpg"
        },
        {
            "id": "dON3RPi-sEU",
            "title": "Tenali Rama ತೆನಾಲಿ ರಾಮ 2006 Kannada Comedy Full Movie | Ramesh Aravind, Jaggesh",
            "url": "https://www.youtube.com/watch?v=dON3RPi-sEU",
            "duration": 9865.0,
            "view_count": 1655461,
            "uploader": "Movies Powered By Think Music",
            "category": "kannada",
            "thumbnail": "https://i.ytimg.com/vi/dON3RPi-sEU/hq720.jpg"
        },
        {
            "id": "RU32cjyoF0Y",
            "title": "Galipata Kannada Full Movie | Ganesh | Ananthnag | Rajesh Krishnan | Diganth | Yogaraj Bhat",
            "url": "https://www.youtube.com/watch?v=RU32cjyoF0Y",
            "duration": 8740.0,
            "view_count": 1277558,
            "uploader": "SGV Digital - Kannada Full Movies",
            "category": "kannada",
            "thumbnail": "https://i.ytimg.com/vi/RU32cjyoF0Y/hq720.jpg"
        },
        {
            "id": "7AfzCZu-PwI",
            "title": "Annavru Kannada Full Movie | Darshan | Ambarish | Kaniha | Blockbuster Kannada Hit Movie",
            "url": "https://www.youtube.com/watch?v=7AfzCZu-PwI",
            "duration": 9179.0,
            "view_count": 617847,
            "uploader": "Lotus Entertainment",
            "category": "kannada",
            "thumbnail": "https://i.ytimg.com/vi/7AfzCZu-PwI/hq720.jpg"
        },
        {
            "id": "qjpLGvRQatA",
            "title": "ಬಂಧು ಬಳಗ | Kannada Family Entertainment Full Movie | Dr.Shivarajkumar | Poonam Kaur  | Hamsalekha",
            "url": "https://www.youtube.com/watch?v=qjpLGvRQatA",
            "duration": 9304.0,
            "view_count": 845039,
            "uploader": "SRS Media Vision Sandalwood Films",
            "category": "kannada",
            "thumbnail": "https://i.ytimg.com/vi/qjpLGvRQatA/hq720.jpg"
        },
        {
            "id": "OYTcdkQwL9U",
            "title": "Crime Investigation Thriller Sedu Kannada Dubbed Full Movie 4K | M.S.Bhaskar |  Arun K Prasad | UHD",
            "url": "https://www.youtube.com/watch?v=OYTcdkQwL9U",
            "duration": 6318.0,
            "view_count": 118094,
            "uploader": "MovieFlix Kannada",
            "category": "kannada",
            "thumbnail": "https://i.ytimg.com/vi/OYTcdkQwL9U/hq720.jpg"
        },
        {
            "id": "Qy8sCZJwjcI",
            "title": "Prema Kadambari Full Movie | Ambarish | Lakshmi | Jeevitha | Old Kannada Movie",
            "url": "https://www.youtube.com/watch?v=Qy8sCZJwjcI",
            "duration": 8741.0,
            "view_count": 283486,
            "uploader": "Lotus Entertainment",
            "category": "kannada",
            "thumbnail": "https://i.ytimg.com/vi/Qy8sCZJwjcI/hq720.jpg"
        },
        {
            "id": "sIbJVRxfsKo",
            "title": "Sahara Kannada Full Movie 4K | Ankush Rajath | Sarika Rao | Manjula | New Released Kannada Movie",
            "url": "https://www.youtube.com/watch?v=sIbJVRxfsKo",
            "duration": 7900.0,
            "view_count": 365908,
            "uploader": "Kannada HD Movies",
            "category": "kannada",
            "thumbnail": "https://i.ytimg.com/vi/sIbJVRxfsKo/hq720.jpg"
        },
        {
            "id": "qdY6M65qFow",
            "title": "Bazaar Kannada Action Full Length HD Movie | Dhanveer Gowda | Aditi Prabhudeva | TRP Entertainments",
            "url": "https://www.youtube.com/watch?v=qdY6M65qFow",
            "duration": 7869.0,
            "view_count": 336781,
            "uploader": "TRP Entertainments",
            "category": "kannada",
            "thumbnail": "https://i.ytimg.com/vi/qdY6M65qFow/hq720.jpg"
        },
        {
            "id": "HtHyfUva47w",
            "title": "DIGGAJARU-kannada full HD Movie(2001) Vishnuvardhan |Ambarish |Balajicreation movies",
            "url": "https://www.youtube.com/watch?v=HtHyfUva47w",
            "duration": 9812.0,
            "view_count": 366882,
            "uploader": "BALAJI CREATIONS",
            "category": "kannada",
            "thumbnail": "https://i.ytimg.com/vi/HtHyfUva47w/hq720.jpg"
        },
        {
            "id": "QxgUQp-u194",
            "title": "Balwanth Full Movie | Ram | Kriti Kharbanda | Prakash Raj | New Kannada Movies 2025 | Mango Kannada",
            "url": "https://www.youtube.com/watch?v=QxgUQp-u194",
            "duration": 9424.0,
            "view_count": 474664,
            "uploader": "Mango Kannada",
            "category": "kannada",
            "thumbnail": "https://i.ytimg.com/vi/QxgUQp-u194/hq720.jpg"
        },
        {
            "id": "dwbOoY5PaCc",
            "title": "Darbar Full Movie (Kannada) | Rajinikanth | Nayanthara | AR Murugadoss | Anirudh | Lyca Productions",
            "url": "https://www.youtube.com/watch?v=dwbOoY5PaCc",
            "duration": 9467.0,
            "view_count": 7971370,
            "uploader": "Lyca Productions",
            "category": "kannada",
            "thumbnail": "https://i.ytimg.com/vi/dwbOoY5PaCc/hq720.jpg"
        },
        {
            "id": "d9MNRFm_YQg",
            "title": "Hetta Karalu Kannada Full Movie | Devaraj, Shruthi, Thara, Sai Kumar",
            "url": "https://www.youtube.com/watch?v=d9MNRFm_YQg",
            "duration": 8257.0,
            "view_count": 1557086,
            "uploader": "Movies Powered By Think Music",
            "category": "kannada",
            "thumbnail": "https://i.ytimg.com/vi/d9MNRFm_YQg/hq720.jpg"
        },
        {
            "id": "cEG3pc-P6Xs",
            "title": "Anjada Gandu – ಅಂಜದ ಗಂಡು | Kannada Full Movie | Ravichandran, Kushbu, Master Manjunath, Devaraj",
            "url": "https://www.youtube.com/watch?v=cEG3pc-P6Xs",
            "duration": 7652.0,
            "view_count": 13615177,
            "uploader": "SRS Media Vision | Kannada Full Movies",
            "category": "kannada",
            "thumbnail": "https://i.ytimg.com/vi/cEG3pc-P6Xs/hq720.jpg"
        },
        {
            "id": "HGS8Bijr324",
            "title": "Gowramma Kannada Full Movie | Upendra | Ramya | Srinivasa Murthy | Chithra Shenoy | Sadhu Kokila",
            "url": "https://www.youtube.com/watch?v=HGS8Bijr324",
            "duration": 9723.0,
            "view_count": 1359422,
            "uploader": "SGV Digital - Kannada Full Movies",
            "category": "kannada",
            "thumbnail": "https://i.ytimg.com/vi/HGS8Bijr324/hq720.jpg"
        },
        {
            "id": "Tc_7t_yTQkQ",
            "title": "For Regn (For Registration) - Full Movie 4K Kannada | Pruthvi Ambaar, Milana Nagaraj | Jhankar Music",
            "url": "https://www.youtube.com/watch?v=Tc_7t_yTQkQ",
            "duration": 8293.0,
            "view_count": 1868735,
            "uploader": "Jhankar Music Movies",
            "category": "kannada",
            "thumbnail": "https://i.ytimg.com/vi/Tc_7t_yTQkQ/hq720.jpg"
        },
        {
            "id": "8eiz0nVRl-I",
            "title": "Gokula Kannada Full Movie | Vijay Raghavendra | Yash | Pooja Gandhi | Milana Prakash",
            "url": "https://www.youtube.com/watch?v=8eiz0nVRl-I",
            "duration": 8122.0,
            "view_count": 812857,
            "uploader": "Lotus Entertainment",
            "category": "kannada",
            "thumbnail": "https://i.ytimg.com/vi/8eiz0nVRl-I/hq720.jpg"
        },
        {
            "id": "LNU9ATqktjY",
            "title": "Banda Namma Sarrainodu Superhit Kannada Full Action HD Movie | Allu Arjun | Rakul Preet Singh",
            "url": "https://www.youtube.com/watch?v=LNU9ATqktjY",
            "duration": 8911.0,
            "view_count": 3736549,
            "uploader": "TRP Entertainments",
            "category": "kannada",
            "thumbnail": "https://i.ytimg.com/vi/LNU9ATqktjY/hq720.jpg"
        },
        {
            "id": "qfuJFSpIZPs",
            "title": "Karataka Damanaka Superhit Kannada Action Full HD Movie | Shiva Rajkumar | Prabhu Deva | Priya Anand",
            "url": "https://www.youtube.com/watch?v=qfuJFSpIZPs",
            "duration": 7516.0,
            "view_count": 502429,
            "uploader": "TRP Entertainments",
            "category": "kannada",
            "thumbnail": "https://i.ytimg.com/vi/qfuJFSpIZPs/hq720.jpg"
        },
        {
            "id": "llwWzWC9tYA",
            "title": "Darling Krishna new Movie | Love mocktail 3 Kannada Movie | Milana Nagaraj",
            "url": "https://www.youtube.com/watch?v=llwWzWC9tYA",
            "duration": 6213.0,
            "view_count": 752180,
            "uploader": "Me Krrish",
            "category": "kannada",
            "thumbnail": "https://i.ytimg.com/vi/llwWzWC9tYA/hq720.jpg"
        },
        {
            "id": "3pQuOJSxC1o",
            "title": "Drama – Kannada Full HD Movie | Yash, Radhika Pandith, Sathish | Rocking Star Yash Kannada Movies",
            "url": "https://www.youtube.com/watch?v=3pQuOJSxC1o",
            "duration": 8915.0,
            "view_count": 9826125,
            "uploader": "Sri Ganesh Videos",
            "category": "kannada",
            "thumbnail": "https://i.ytimg.com/vi/3pQuOJSxC1o/hq720.jpg"
        },
        {
            "id": "q7MKaiAS8w4",
            "title": "Sahukara Kannada Full Movie - Ravichandran, Vishnuvardhan, Shashikumar, Rambha, Anu Prabhakar",
            "url": "https://www.youtube.com/watch?v=q7MKaiAS8w4",
            "duration": 9861.0,
            "view_count": 4405402,
            "uploader": "Lotus Entertainment",
            "category": "kannada",
            "thumbnail": "https://i.ytimg.com/vi/q7MKaiAS8w4/hq720.jpg"
        },
        {
            "id": "F0a39LAtCfg",
            "title": "Cult New Kannada full movie 2026 | Zaid Khan | Rachita Ram | All OK | Rangayana Raghu | Maliaka  |",
            "url": "https://www.youtube.com/watch?v=F0a39LAtCfg",
            "duration": 8387.0,
            "view_count": 399618,
            "uploader": "spkannadamovies ",
            "category": "kannada",
            "thumbnail": "https://i.ytimg.com/vi/F0a39LAtCfg/hq720.jpg"
        },
        {
            "id": "IxrbHYmd1DM",
            "title": "Bhanu Weds Bhoomi Full Movie | ಬಾನು ವೆಡ್ಸ್ ಭೂಮಿ | New Released Kannada Romantic Drama |  Ultra HD",
            "url": "https://www.youtube.com/watch?v=IxrbHYmd1DM",
            "duration": 7925.0,
            "view_count": 9610,
            "uploader": "Kannada Matinee",
            "category": "kannada",
            "thumbnail": "https://i.ytimg.com/vi/IxrbHYmd1DM/hq720.jpg"
        },
        {
            "id": "_qmW2aRJ5Zc",
            "title": "ಚಕ್ರ - CHAKRA Kannada Full Movie | Darshan Thogudeepa | Vijay Raghavendra | Kannada Movie | HD",
            "url": "https://www.youtube.com/watch?v=_qmW2aRJ5Zc",
            "duration": 7118.0,
            "view_count": 294669,
            "uploader": "Kothari Video Kannada",
            "category": "kannada",
            "thumbnail": "https://i.ytimg.com/vi/_qmW2aRJ5Zc/hq720.jpg"
        },
        {
            "id": "54FurbXAOik",
            "title": "Anaatha Kannada Full Movie (4k) | Sri Indra | Nikitha Swamy | Yukta Pervi | Shobraj | Sangeetha |",
            "url": "https://www.youtube.com/watch?v=54FurbXAOik",
            "duration": 8403.0,
            "view_count": 9466,
            "uploader": "Gonendra Films",
            "category": "kannada",
            "thumbnail": "https://i.ytimg.com/vi/54FurbXAOik/hqdefault.jpg"
        },
        {
            "id": "seW5ZA0BGo4",
            "title": "Bombat Hendthi – ಬೊಂಬಾಟ್ ಹೆಂಡ್ತಿ | Kannada Full Movie | Sridhar | Shruthi | Comedy Movie",
            "url": "https://www.youtube.com/watch?v=seW5ZA0BGo4",
            "duration": 8322.0,
            "view_count": 1181716,
            "uploader": "SRS Media Vision | Kannada Full Movies",
            "category": "kannada",
            "thumbnail": "https://i.ytimg.com/vi/seW5ZA0BGo4/hq720.jpg"
        },
        {
            "id": "yucFmllD0rA",
            "title": "PYARE - Kannada Full Movie | Komal Kumar, Prathana Prabhu | New Kannada Movies",
            "url": "https://www.youtube.com/watch?v=yucFmllD0rA",
            "duration": 6951.0,
            "view_count": 85472,
            "uploader": "Kothari Video Kannada",
            "category": "kannada",
            "thumbnail": "https://i.ytimg.com/vi/yucFmllD0rA/hq720.jpg"
        },
        {
            "id": "4Y3v2kWxj3E",
            "title": "Porki | Kannada Full Movie | Darshan | Pranitha Subhash | Devaraj | Ashish Vidyarthi",
            "url": "https://www.youtube.com/watch?v=4Y3v2kWxj3E",
            "duration": 8783.0,
            "view_count": 8173751,
            "uploader": "SGV Digital - Kannada Full Movies",
            "category": "kannada",
            "thumbnail": "https://i.ytimg.com/vi/4Y3v2kWxj3E/hq720.jpg"
        },
        {
            "id": "aI-hjTrEBPE",
            "title": "Andhagaara Kannada Full Movie | Best Crime Thriller Film | Sowmya Gowda | Harish Gunger | Jithendra",
            "url": "https://www.youtube.com/watch?v=aI-hjTrEBPE",
            "duration": 6539.0,
            "view_count": 749,
            "uploader": "Kannada Movie Junction",
            "category": "kannada",
            "thumbnail": "https://i.ytimg.com/vi/aI-hjTrEBPE/hq720.jpg"
        },
        {
            "id": "d_RvKx3oCB0",
            "title": "TRIPLE RIDING | New Kannada Full Movie |⭐ Ganesh | Megha Shetty, Aditi Prabudeva, Rachana Inder",
            "url": "https://www.youtube.com/watch?v=d_RvKx3oCB0",
            "duration": 8984.0,
            "view_count": 7335421,
            "uploader": "Krupalu Entertainments",
            "category": "kannada",
            "thumbnail": "https://i.ytimg.com/vi/d_RvKx3oCB0/hq720.jpg"
        },
        {
            "id": "xKe_Cozwbic",
            "title": "Arindam  - Kannada Full Movie | Kalki Agasthya | Sawad M | Dream Duo | Angad Bhandare | Siri Music",
            "url": "https://www.youtube.com/watch?v=xKe_Cozwbic",
            "duration": 6010.0,
            "view_count": 43539,
            "uploader": "Siri Music and 2 more",
            "category": "kannada",
            "thumbnail": "https://i.ytimg.com/vi/xKe_Cozwbic/hq720.jpg"
        },
        {
            "id": "lwhlCXCwCNQ",
            "title": "Nimde Kathe | Kannada Full 4K Movie | Abhilash Dalapathi | Rashika Shetty |  Sihi Kahi Chandru |",
            "url": "https://www.youtube.com/watch?v=lwhlCXCwCNQ",
            "duration": 7695.0,
            "view_count": 977518,
            "uploader": "Blue Sky Studios",
            "category": "kannada",
            "thumbnail": "https://i.ytimg.com/vi/lwhlCXCwCNQ/hq720.jpg"
        },
        {
            "id": "FUvC5Q2mEXc",
            "title": "ಮಂತ್ರಂ Manthram Full Movie | Horrror Thriller Kannada Movie 2025 | Shamanth Shetty, Pallavi Raju",
            "url": "https://www.youtube.com/watch?v=FUvC5Q2mEXc",
            "duration": 6505.0,
            "view_count": 178067,
            "uploader": "SGV Digital - Kannada Full Movies",
            "category": "kannada",
            "thumbnail": "https://i.ytimg.com/vi/FUvC5Q2mEXc/hq720.jpg"
        },
        {
            "id": "X-unbS7ifso",
            "title": "Arasu – ಅರಸು | Kannada Full HD Movie | Puneeth Rajkumar | Meera Jasmine | Ramya | Mahesh Babu",
            "url": "https://www.youtube.com/watch?v=X-unbS7ifso",
            "duration": 9096.0,
            "view_count": 37104190,
            "uploader": "SGV Digital - Kannada Full Movies",
            "category": "kannada",
            "thumbnail": "https://i.ytimg.com/vi/X-unbS7ifso/hq720.jpg"
        },
        {
            "id": "BS12fzB1s7U",
            "title": "New Kannada College Love Story Movie | Leharaayi Kannada Full Movie | Ranjith Sommi | Sowmya Menon",
            "url": "https://www.youtube.com/watch?v=BS12fzB1s7U",
            "duration": 8272.0,
            "view_count": 1780176,
            "uploader": "Kannada HD Movies",
            "category": "kannada",
            "thumbnail": "https://i.ytimg.com/vi/BS12fzB1s7U/hq720.jpg"
        },
        {
            "id": "pFOLGeQuBXQ",
            "title": "Chennamma IPS Kannada Full Movie | Ayesha, P N Sathya | Super Hit Kannada Action Movie",
            "url": "https://www.youtube.com/watch?v=pFOLGeQuBXQ",
            "duration": 8148.0,
            "view_count": 229850,
            "uploader": "SGV Digital - Kannada Full Movies",
            "category": "kannada",
            "thumbnail": "https://i.ytimg.com/vi/pFOLGeQuBXQ/hq720.jpg"
        },
        {
            "id": "W8y34AJ55_o",
            "title": "New Kannada Full Movie | Dhanveerah &Reeshma Nanaiah | 2025 Latest KannadaMovies |",
            "url": "https://www.youtube.com/watch?v=W8y34AJ55_o",
            "duration": 6935.0,
            "view_count": 84594,
            "uploader": "pavanking4793 ",
            "category": "kannada",
            "thumbnail": "https://i.ytimg.com/vi/W8y34AJ55_o/hq720.jpg"
        },
        {
            "id": "PV4rXQgFm2E",
            "title": "Chandra Chakori - Kannada Full Movie | Sri Murali, Priya | Blockbuster Kannada Movies",
            "url": "https://www.youtube.com/watch?v=PV4rXQgFm2E",
            "duration": 9778.0,
            "view_count": 22206902,
            "uploader": "SGV Digital - Kannada Full Movies",
            "category": "kannada",
            "thumbnail": "https://i.ytimg.com/vi/PV4rXQgFm2E/hq720.jpg"
        },
        {
            "id": "jZvFFbyF5rQ",
            "title": "ಡುಮ್ಮಿ ಜೋಕೆರ್ - DUMMY JOCKER Kannada Full Movie | Kannada Comedy Movie | SK Ram , Namma kumar | HD",
            "url": "https://www.youtube.com/watch?v=jZvFFbyF5rQ",
            "duration": 6379.0,
            "view_count": 205869,
            "uploader": "Shreya Movies Kannada",
            "category": "kannada",
            "thumbnail": "https://i.ytimg.com/vi/jZvFFbyF5rQ/hq720.jpg"
        },
        {
            "id": "akeMYbLnwWo",
            "title": "Tharle Nan Maga Kannada Full Movie | Jaggesh | Anjali Sudhakar | Nithya | Upendra",
            "url": "https://www.youtube.com/watch?v=akeMYbLnwWo",
            "duration": 8021.0,
            "view_count": 2889868,
            "uploader": "Jaggesh Hits - SGV",
            "category": "kannada",
            "thumbnail": "https://i.ytimg.com/vi/akeMYbLnwWo/hq720.jpg"
        },
        {
            "id": "iwQX9OYS9pQ",
            "title": "Ugram | ಉಗ್ರಂ || Kannada Full HD Movie || Sri Murali || Action Movie || Prashanth Neel | Ravi Basrur",
            "url": "https://www.youtube.com/watch?v=iwQX9OYS9pQ",
            "duration": 7937.0,
            "view_count": 58918375,
            "uploader": "SRS Media Vision | Kannada Full Movies",
            "category": "kannada",
            "thumbnail": "https://i.ytimg.com/vi/iwQX9OYS9pQ/hq720.jpg"
        },
        {
            "id": "WN8FagTzpPE",
            "title": "Chanakya Kannada Full Movie Vishnuvardhan, Madhavi, Vajramuni - Super Hit Classic Picture",
            "url": "https://www.youtube.com/watch?v=WN8FagTzpPE",
            "duration": 9658.0,
            "view_count": 298048,
            "uploader": "Dr. Vishnuvardhan Hits - SGV",
            "category": "kannada",
            "thumbnail": "https://i.ytimg.com/vi/WN8FagTzpPE/hq720.jpg"
        },
        {
            "id": "Lkvhd0EWz8E",
            "title": "Chora Chittha Chora – ಚೋರ ಚಿತ್ತ ಚೋರ | Kannada Full HD Movie | Ravichandran | Namratha Shirodkar",
            "url": "https://www.youtube.com/watch?v=Lkvhd0EWz8E",
            "duration": 7940.0,
            "view_count": 2099346,
            "uploader": "SGV Digital - Kannada Full Movies",
            "category": "kannada",
            "thumbnail": "https://i.ytimg.com/vi/Lkvhd0EWz8E/hq720.jpg"
        },
        {
            "id": "nALqwYsjMeA",
            "title": "Prema Sangama | Kannada Full Movie | Dr.Ambarish | Malashree | Jai Jagadish | Bhargav",
            "url": "https://www.youtube.com/watch?v=nALqwYsjMeA",
            "duration": 7779.0,
            "view_count": 559202,
            "uploader": "SGV Digital - Kannada Full Movies",
            "category": "kannada",
            "thumbnail": "https://i.ytimg.com/vi/nALqwYsjMeA/hq720.jpg"
        },
        {
            "id": "yJlOp0m0HQE",
            "title": "THEY CALL HIM OG KANNADA FULL LENGTH MOVIE HD ",
            "url": "https://www.youtube.com/watch?v=yJlOp0m0HQE",
            "duration": 9063.0,
            "view_count": 89,
            "uploader": "All Pictures HD ",
            "category": "kannada",
            "thumbnail": "https://i.ytimg.com/vi/yJlOp0m0HQE/hqdefault.jpg"
        }
    ]
}