{
    "page": 5,
    "total_pages": 5,
    "total_items": 219,
    "items": [
        {
            "id": "-7FvK6-RIrY",
            "title": "Tholi Prema Kannada Full Movie | Varun Tej | Raashi Khanna | Thaman S | Venky Atluri | #TholiPrema",
            "url": "https://www.youtube.com/watch?v=-7FvK6-RIrY",
            "duration": 8014.0,
            "view_count": 8136679,
            "uploader": "Mango Kannada",
            "category": "kannada",
            "thumbnail": "https://i.ytimg.com/vi/-7FvK6-RIrY/hq720.jpg"
        },
        {
            "id": "a6ctDzoCtfM",
            "title": "Roja Kannada Dubbed Full Movie - 4K | Arvind Swamy | Madhubala | AR Rahman | Mani Ratnam Classic",
            "url": "https://www.youtube.com/watch?v=a6ctDzoCtfM",
            "duration": 6943.0,
            "view_count": 83874,
            "uploader": "Video Park Kannada",
            "category": "kannada",
            "thumbnail": "https://i.ytimg.com/vi/a6ctDzoCtfM/hq720.jpg"
        },
        {
            "id": "EL8fSY4GFUs",
            "title": "Gajanana And Gang Kannada Full Movie | Shri | Adithi Prabhudeva | Abhishek Shetty | Sakath Cinemas",
            "url": "https://www.youtube.com/watch?v=EL8fSY4GFUs",
            "duration": 6329.0,
            "view_count": 1044157,
            "uploader": "Sakath Cinemas",
            "category": "kannada",
            "thumbnail": "https://i.ytimg.com/vi/EL8fSY4GFUs/hq720.jpg"
        },
        {
            "id": "Di0AUezRjLI",
            "title": "Hubli | ಹುಬ್ಬಳ್ಳಿ | Kannada Full Movie | Kichcha Sudeep, Rakshitha | Om Prakash Rao",
            "url": "https://www.youtube.com/watch?v=Di0AUezRjLI",
            "duration": 10137.0,
            "view_count": 13801001,
            "uploader": "SRS Media Vision | Kannada Full Movies",
            "category": "kannada",
            "thumbnail": "https://i.ytimg.com/vi/Di0AUezRjLI/hq720.jpg"
        },
        {
            "id": "HyySQqFdEc4",
            "title": "ಘಾತಕ್ (Ghaathaka) - Kannada Full Movie | Darshan | Pranitha Subhash | Devaraj | Ashish Vidyarthi",
            "url": "https://www.youtube.com/watch?v=HyySQqFdEc4",
            "duration": 7889.0,
            "view_count": 286577,
            "uploader": "Vee Kannada and Global Kannada Entertainment",
            "category": "kannada",
            "thumbnail": "https://i.ytimg.com/vi/HyySQqFdEc4/hq720.jpg"
        },
        {
            "id": "xNXKe8EN-SE",
            "title": "ಎಕ್ಕ ಸಕ ತುಳು ಸಿನಿಮಾ | EKKA SAKA FULL MOVIE | TALKIES APP OTT | WATCH FULL CINEMA #tulu #cinema",
            "url": "https://www.youtube.com/watch?v=xNXKe8EN-SE",
            "duration": 6847.0,
            "view_count": 4827,
            "uploader": "Talkies",
            "category": "kannada",
            "thumbnail": "https://i.ytimg.com/vi/xNXKe8EN-SE/hq720.jpg"
        },
        {
            "id": "bb9iO-U_ZNw",
            "title": "Raavan 2 Kannada Full Movie || Romantic Drama Movie || Vikram, Priyanka Trivedi, Prakash Raj",
            "url": "https://www.youtube.com/watch?v=bb9iO-U_ZNw",
            "duration": 6909.0,
            "view_count": 296734,
            "uploader": "Kannada Hits",
            "category": "kannada",
            "thumbnail": "https://i.ytimg.com/vi/bb9iO-U_ZNw/hq720.jpg"
        },
        {
            "id": "ePo6nFUWCLw",
            "title": "Circus - Kannada Full Movie HD | Ganesh, Archana Guptha | Golden Star Ganesh Movies",
            "url": "https://www.youtube.com/watch?v=ePo6nFUWCLw",
            "duration": 8338.0,
            "view_count": 3000965,
            "uploader": "SGV Digital - Kannada Full Movies",
            "category": "kannada",
            "thumbnail": "https://i.ytimg.com/vi/ePo6nFUWCLw/hq720.jpg"
        },
        {
            "id": "8ssvVmlocQw",
            "title": "Mishan Impossible Latest Full Movie 4K | Taapsee Pannu | Kannada Dubbed | Mango Indian Films",
            "url": "https://www.youtube.com/watch?v=8ssvVmlocQw",
            "duration": 7866.0,
            "view_count": 139932,
            "uploader": "Mango Indian Films",
            "category": "kannada",
            "thumbnail": "https://i.ytimg.com/vi/8ssvVmlocQw/hq720.jpg"
        },
        {
            "id": "CKWQVrJbXS0",
            "title": "Latest Kannada Movies 2026 | Full Length Blockbuster Movies | Kannada Movie Marathon | Mango Kannada",
            "url": "https://www.youtube.com/watch?v=CKWQVrJbXS0",
            "duration": 15748.0,
            "view_count": 83821,
            "uploader": "Mango Kannada",
            "category": "kannada",
            "thumbnail": "https://i.ytimg.com/vi/CKWQVrJbXS0/hq720.jpg"
        },
        {
            "id": "ZmpY_vOogQE",
            "title": "JAIL Full Movie 4K | G V Prakash | Radhika | Latest Kannada Dubbed Movies 2024 | Mango Kannada",
            "url": "https://www.youtube.com/watch?v=ZmpY_vOogQE",
            "duration": 7966.0,
            "view_count": 1705039,
            "uploader": "Mango Kannada",
            "category": "kannada",
            "thumbnail": "https://i.ytimg.com/vi/ZmpY_vOogQE/hq720.jpg"
        },
        {
            "id": "_wAu7obh3ds",
            "title": "Tom And Jerry Full Movie  2K | Chaithra Rao|  Nischith Korodi | Romantic Movie",
            "url": "https://www.youtube.com/watch?v=_wAu7obh3ds",
            "duration": 9107.0,
            "view_count": 10893967,
            "uploader": "SRS Media Vision | Kannada Full Movies",
            "category": "kannada",
            "thumbnail": "https://i.ytimg.com/vi/_wAu7obh3ds/hq720.jpg"
        },
        {
            "id": "Dmy8KwGo4Ac",
            "title": "Namma Kutumba Full Movie | Naga Chaitanya | Samantha | Nagarjuna | #KannadaMovies2024 | MangoKannada",
            "url": "https://www.youtube.com/watch?v=Dmy8KwGo4Ac",
            "duration": 9685.0,
            "view_count": 709232,
            "uploader": "Mango Kannada",
            "category": "kannada",
            "thumbnail": "https://i.ytimg.com/vi/Dmy8KwGo4Ac/hq720.jpg"
        },
        {
            "id": "bgVe8-YbMug",
            "title": "ತೇಜ (Teja) - Kanada Full Movie | Saikumar | Disha Poovaih | Sadhu Kokila | Kannada Action Movie",
            "url": "https://www.youtube.com/watch?v=bgVe8-YbMug",
            "duration": 7018.0,
            "view_count": 298211,
            "uploader": "Vee Kannada",
            "category": "kannada",
            "thumbnail": "https://i.ytimg.com/vi/bgVe8-YbMug/hq720.jpg"
        },
        {
            "id": "7ZTYXO5kzdg",
            "title": "Eradu Rekhegalu | Kannada Movie Full HD | Srinath, Saritha, Geetha | K Balachandar",
            "url": "https://www.youtube.com/watch?v=7ZTYXO5kzdg",
            "duration": 9302.0,
            "view_count": 2459673,
            "uploader": "SGV Digital - Kannada Full Movies",
            "category": "kannada",
            "thumbnail": "https://i.ytimg.com/vi/7ZTYXO5kzdg/hq720.jpg"
        },
        {
            "id": "Bo2bpy2Orpg",
            "title": "Doddmane Hudga || ದೂಡ್ಮನೆ ಹುಡ್ಗ Full HD MOVIE, 2016 #puneethrajkumar #puneetsuperstar #doddmanehudga",
            "url": "https://www.youtube.com/watch?v=Bo2bpy2Orpg",
            "duration": 8219.0,
            "view_count": 3843433,
            "uploader": "Appu Movies Official ",
            "category": "kannada",
            "thumbnail": "https://i.ytimg.com/vi/Bo2bpy2Orpg/hq720.jpg"
        },
        {
            "id": "w5ZTi8QcZdY",
            "title": "Ajith Kumar Kannada Dubbed Blockbuster Action Full HD Movie | Latest Kannada Full Movie | #kannada",
            "url": "https://www.youtube.com/watch?v=w5ZTi8QcZdY",
            "duration": 13477.0,
            "view_count": 53195,
            "uploader": "Kannada Cinemas",
            "category": "kannada",
            "thumbnail": "https://i.ytimg.com/vi/w5ZTi8QcZdY/hq720.jpg"
        },
        {
            "id": "Gv_duGDlneM",
            "title": "2026 Shiva Rajkumar Latest Action Movies | Drona Action Movie | Ravi Kishan New Action Movies",
            "url": "https://www.youtube.com/watch?v=Gv_duGDlneM",
            "duration": 8214.0,
            "view_count": 23067,
            "uploader": "RKD Studios",
            "category": "kannada",
            "thumbnail": "https://i.ytimg.com/vi/Gv_duGDlneM/hq720.jpg"
        },
        {
            "id": "IujxAk-8SVE",
            "title": "Simple Aag Ond Love Story | Rakshith Shetty, Swetha Srivatsav | HD Full Kannada Movie |Jhankar Music",
            "url": "https://www.youtube.com/watch?v=IujxAk-8SVE",
            "duration": 7852.0,
            "view_count": 7803037,
            "uploader": "Jhankar Music",
            "category": "kannada",
            "thumbnail": "https://i.ytimg.com/vi/IujxAk-8SVE/hq720.jpg"
        }
    ]
}