{
    "page": 4,
    "total_pages": 5,
    "total_items": 219,
    "items": [
        {
            "id": "jWO7Ezm7pvM",
            "title": "45 kannada new movies 2025 / kannada movie / kannada new movies #kannadanewmovies ",
            "url": "https://www.youtube.com/watch?v=jWO7Ezm7pvM",
            "duration": 6878.0,
            "view_count": 172404,
            "uploader": "movie time kannada ",
            "category": "kannada",
            "thumbnail": "https://i.ytimg.com/vi/jWO7Ezm7pvM/hqdefault.jpg"
        },
        {
            "id": "7fvKsGY_VlA",
            "title": "Bengaluru 560023 I Kannada HD Full Movie I Jayaram Karthik I Pradeep Raj I   Arun Andrew",
            "url": "https://www.youtube.com/watch?v=7fvKsGY_VlA",
            "duration": 7788.0,
            "view_count": 1369314,
            "uploader": "SRS Media Vision | Kannada Full Movies",
            "category": "kannada",
            "thumbnail": "https://i.ytimg.com/vi/7fvKsGY_VlA/hq720.jpg"
        },
        {
            "id": "9ftOiCr4DtU",
            "title": "Mishan Impossible Full Movie | Taapsee Pannu | Harsh Roshan | Kannada Movies 2025 | Mango Kannada",
            "url": "https://www.youtube.com/watch?v=9ftOiCr4DtU",
            "duration": 7866.0,
            "view_count": 936319,
            "uploader": "Mango Kannada",
            "category": "kannada",
            "thumbnail": "https://i.ytimg.com/vi/9ftOiCr4DtU/hq720.jpg"
        },
        {
            "id": "23mlY8HNBI8",
            "title": "Blockbuster Hit South Kannada Movie Hindi Dubbed |Puneeth Rajkumar |Anjaniputra | South Indian Movie",
            "url": "https://www.youtube.com/watch?v=23mlY8HNBI8",
            "duration": 7302.0,
            "view_count": 550070,
            "uploader": "Dumdar HD Movies",
            "category": "kannada",
            "thumbnail": "https://i.ytimg.com/vi/23mlY8HNBI8/hq720.jpg"
        },
        {
            "id": "jfZLLLnIClI",
            "title": "Anthu Inthu Preethi Banthu | Kannada Full HD Movie | Ramya | Adithya Babu | Harish Raj | Family Film",
            "url": "https://www.youtube.com/watch?v=jfZLLLnIClI",
            "duration": 8950.0,
            "view_count": 3132504,
            "uploader": "SGV Digital - Kannada Full Movies",
            "category": "kannada",
            "thumbnail": "https://i.ytimg.com/vi/jfZLLLnIClI/hq720.jpg"
        },
        {
            "id": "rIbbGqTKQcI",
            "title": "Ayushman Bhava Superhit Kannada Full Length HD Movie | Shiva Rajkumar | Rachitha Ram |",
            "url": "https://www.youtube.com/watch?v=rIbbGqTKQcI",
            "duration": 7381.0,
            "view_count": 569577,
            "uploader": "TRP Entertainments",
            "category": "kannada",
            "thumbnail": "https://i.ytimg.com/vi/rIbbGqTKQcI/hq720.jpg"
        },
        {
            "id": "yZJXtHSlvYQ",
            "title": "Tande Aadre Tondre Full Movie | Suhas | Sangeerthana Vipin | New Kannada Movies 2025 | Mango Kannada",
            "url": "https://www.youtube.com/watch?v=yZJXtHSlvYQ",
            "duration": 8263.0,
            "view_count": 149442,
            "uploader": "Mango Kannada",
            "category": "kannada",
            "thumbnail": "https://i.ytimg.com/vi/yZJXtHSlvYQ/hqdefault.jpg"
        },
        {
            "id": "XpWr5Ho1ltw",
            "title": "Ekka Kannada HD Full Movies 2026 | Yuva rajKumar |Sanjana Ananda | New Kannada HD Full Movies ",
            "url": "https://www.youtube.com/watch?v=XpWr5Ho1ltw",
            "duration": 7332.0,
            "view_count": 340,
            "uploader": "Cine Vibe Kannada",
            "category": "kannada",
            "thumbnail": "https://i.ytimg.com/vi/XpWr5Ho1ltw/hq720.jpg"
        },
        {
            "id": "4rYYiPJHiMA",
            "title": "Cult New Kannada HD Full Movie | Zaid Khan 2026  | Rachita Ram | All OK | Kannada HD Full Movie",
            "url": "https://www.youtube.com/watch?v=4rYYiPJHiMA",
            "duration": 9651.0,
            "view_count": 289,
            "uploader": "Cine Vibe Kannada",
            "category": "kannada",
            "thumbnail": "https://i.ytimg.com/vi/4rYYiPJHiMA/hq720.jpg"
        },
        {
            "id": "7VK5PoHPQYg",
            "title": "Veera Ranachandi HD Movie | DRagini Dwivedi | Nagashekar | Ramesh Bhat | Anand P Raju |V Kuppu Swamy",
            "url": "https://www.youtube.com/watch?v=7VK5PoHPQYg",
            "duration": 8258.0,
            "view_count": 364733,
            "uploader": "SRS Media Vision | Kannada Full Movies",
            "category": "kannada",
            "thumbnail": "https://i.ytimg.com/vi/7VK5PoHPQYg/hq720.jpg"
        },
        {
            "id": "zhg8Op8DMh0",
            "title": "New kannada dubbed movie | kannada movies | Dhanush and Sanjay Dutt ",
            "url": "https://www.youtube.com/watch?v=zhg8Op8DMh0",
            "duration": 6993.0,
            "view_count": 289264,
            "uploader": "ADITYA MOVIES KANNADA",
            "category": "kannada",
            "thumbnail": "https://i.ytimg.com/vi/zhg8Op8DMh0/hq720.jpg?sqp=-oaymwEcCNAFEJQDSFXyq4qpAw4IARUAAIhCGAFwAcABBg==&rs=AOn4CLCjA2oQJCv4y1evjgOQ6SFlr7d1ng",
            "added_date": "2026-04-16T07:31:21.479087Z",
            "source": "youtube"
        },
        {
            "id": "U7lLq4W67wg",
            "title": "Yaaradi Nee Mohini - Kannada Romantic/Comedy Full HD Movie | Dhanush, Nayanthara, Saranya Mohan",
            "url": "https://www.youtube.com/watch?v=U7lLq4W67wg",
            "duration": 8473.0,
            "view_count": 376931,
            "uploader": "Peppermint Studioz",
            "category": "kannada",
            "thumbnail": "https://i.ytimg.com/vi/U7lLq4W67wg/hq720.jpg"
        },
        {
            "id": "yRSh4pP49LE",
            "title": "Kannada Movie | Gubbachi Kannada Dubbed Movie | Kannada Full Movie | Ilayaraja | Feel Good Kannada |",
            "url": "https://www.youtube.com/watch?v=yRSh4pP49LE",
            "duration": 6216.0,
            "view_count": 1287357,
            "uploader": "MovieFlix Kannada",
            "category": "kannada",
            "thumbnail": "https://i.ytimg.com/vi/yRSh4pP49LE/hq720.jpg"
        },
        {
            "id": "MBVLalinj7s",
            "title": "Rider Kannada full movie 2021 || kannada movie 2021 ||kannada movies#kanndamovies",
            "url": "https://www.youtube.com/watch?v=MBVLalinj7s",
            "duration": 8739.0,
            "view_count": 3350477,
            "uploader": "RE entertainment",
            "category": "kannada",
            "thumbnail": "https://i.ytimg.com/vi/MBVLalinj7s/hqdefault.jpg"
        },
        {
            "id": "kAfQ24NhU_A",
            "title": "Jothegara Kannada Full Movie | Lovely Star Prem | Ramya | Super Hit Kannada Movies",
            "url": "https://www.youtube.com/watch?v=kAfQ24NhU_A",
            "duration": 7869.0,
            "view_count": 653263,
            "uploader": "SGV Digital - Kannada Full Movies",
            "category": "kannada",
            "thumbnail": "https://i.ytimg.com/vi/kAfQ24NhU_A/hq720.jpg"
        },
        {
            "id": "SIieTJe8iU0",
            "title": "ಮೈ ಆಟೋಗ್ರಾಫ್ - MY AUTOGRAPH Kannada Full Movie | Kiccha Sudeep, Sridevika | Sudeep Kannada Movie",
            "url": "https://www.youtube.com/watch?v=SIieTJe8iU0",
            "duration": 8703.0,
            "view_count": 1871749,
            "uploader": "Vee Kannada and Global Kannada Entertainment",
            "category": "kannada",
            "thumbnail": "https://i.ytimg.com/vi/SIieTJe8iU0/hq720.jpg"
        },
        {
            "id": "r8WrxC_IZPA",
            "title": "Savitri | Kannada 2K HD Movie | Vijay Raghavendra | Urvashi Rai | Horror Movie",
            "url": "https://www.youtube.com/watch?v=r8WrxC_IZPA",
            "duration": 6099.0,
            "view_count": 2428340,
            "uploader": "SRS Media Vision | Kannada Full Movies",
            "category": "kannada",
            "thumbnail": "https://i.ytimg.com/vi/r8WrxC_IZPA/hq720.jpg"
        },
        {
            "id": "kADswksciwA",
            "title": "Brundhavana | Kannada Movie Full HD | Darshan, Karthika Nair, Milana Nagaraj, Saikumar",
            "url": "https://www.youtube.com/watch?v=kADswksciwA",
            "duration": 10510.0,
            "view_count": 23844275,
            "uploader": "SGV Digital - Kannada Full Movies",
            "category": "kannada",
            "thumbnail": "https://i.ytimg.com/vi/kADswksciwA/hq720.jpg"
        },
        {
            "id": "38jCCwY10b0",
            "title": "Banni Sambramisona Full Movie | Naga Chaitanya | Rakul Preet | Kannada Movies 2024 | Mango Kannada",
            "url": "https://www.youtube.com/watch?v=38jCCwY10b0",
            "duration": 8650.0,
            "view_count": 2317804,
            "uploader": "Mango Kannada",
            "category": "kannada",
            "thumbnail": "https://i.ytimg.com/vi/38jCCwY10b0/hq720.jpg"
        },
        {
            "id": "fslhmEc-0jo",
            "title": "Shivangi | ಶಿವಾಂಗಿ | Kannada Dubbed Movie | Drama Thriller | Divo Kannada",
            "url": "https://www.youtube.com/watch?v=fslhmEc-0jo",
            "duration": 7361.0,
            "view_count": 186434,
            "uploader": "Divo Movies Kannada",
            "category": "kannada",
            "thumbnail": "https://i.ytimg.com/vi/fslhmEc-0jo/hq720.jpg"
        },
        {
            "id": "OlgNVaPfkm4",
            "title": "Kannada dubbed love story movie Kali 2026  kannada New Dubbed Full Movie  DulquerSalmaan Sai Pallavi",
            "url": "https://www.youtube.com/watch?v=OlgNVaPfkm4",
            "duration": 7804.0,
            "view_count": 232523,
            "uploader": "Yash movie ",
            "category": "kannada",
            "thumbnail": "https://i.ytimg.com/vi/OlgNVaPfkm4/hq720.jpg"
        },
        {
            "id": "FNzkm1NkHoc",
            "title": "Habba - ಹಬ್ಬ | Kannada Full HD Movie | Dr.Vishnuvardhan, Ambarish, Devaraj, Shashikumar, Ramkumar",
            "url": "https://www.youtube.com/watch?v=FNzkm1NkHoc",
            "duration": 8240.0,
            "view_count": 12432538,
            "uploader": "SGV Digital - Kannada Full Movies",
            "category": "kannada",
            "thumbnail": "https://i.ytimg.com/vi/FNzkm1NkHoc/hq720.jpg"
        },
        {
            "id": "IUJwSG1d1no",
            "title": "Swalpa Adjust Madkolli Kannada Comedy Movie | Ananthnag | Ramkumar | Ramakrishna | Suhasini",
            "url": "https://www.youtube.com/watch?v=IUJwSG1d1no",
            "duration": 8131.0,
            "view_count": 893854,
            "uploader": "SGV - Kannada Comedy Movies",
            "category": "kannada",
            "thumbnail": "https://i.ytimg.com/vi/IUJwSG1d1no/hq720.jpg"
        },
        {
            "id": "uzR3wTEXphY",
            "title": "Chapala Chennigaraya | ಚಪಲ ಚೆನ್ನಿಗರಾಯ | Kannada Full Movie | Kashinath | Vanitha Vasu | Kalpana",
            "url": "https://www.youtube.com/watch?v=uzR3wTEXphY",
            "duration": 7407.0,
            "view_count": 5551843,
            "uploader": "SRS Media Vision | Kannada Full Movies",
            "category": "kannada",
            "thumbnail": "https://i.ytimg.com/vi/uzR3wTEXphY/hq720.jpg"
        },
        {
            "id": "U8TvN_4iHaY",
            "title": "Ninne Preethisuve | Kannada Full Movie | Shivarajkumar | Ramesh Aravind | Rashi | Love Story Movie",
            "url": "https://www.youtube.com/watch?v=U8TvN_4iHaY",
            "duration": 9720.0,
            "view_count": 3555964,
            "uploader": "Sri Ganesh Videos",
            "category": "kannada",
            "thumbnail": "https://i.ytimg.com/vi/U8TvN_4iHaY/hq720.jpg"
        },
        {
            "id": "gPrCnoLQiPQ",
            "title": "Upendra | Kannada Full HD Movie | Real Star Upendra | Raveena Tandon | Prema | Dhamini",
            "url": "https://www.youtube.com/watch?v=gPrCnoLQiPQ",
            "duration": 8213.0,
            "view_count": 8751927,
            "uploader": "SGV Digital - Kannada Full Movies",
            "category": "kannada",
            "thumbnail": "https://i.ytimg.com/vi/gPrCnoLQiPQ/hq720.jpg"
        },
        {
            "id": "x0HyakSpFwQ",
            "title": "Love Guru - Kannada Full movie | Vijay Antony | Mirnalini | Vinayak Vaithiyanathan",
            "url": "https://www.youtube.com/watch?v=x0HyakSpFwQ",
            "duration": 8658.0,
            "view_count": 515786,
            "uploader": "Vijay Antony",
            "category": "kannada",
            "thumbnail": "https://i.ytimg.com/vi/x0HyakSpFwQ/hq720.jpg?sqp=-oaymwEcCNAFEJQDSFXyq4qpAw4IARUAAIhCGAFwAcABBg==&rs=AOn4CLBpRbnPpK_XZbeDfrJJdXOSeUpF-w",
            "added_date": "2026-04-16T07:31:20.276929Z",
            "source": "youtube"
        },
        {
            "id": "Kj5JB2_QW0g",
            "title": "Heart Beats | Kannada Full Movie | Vijay Raghavendra | Ashitha Maria | Deepa | Nagendra Urs",
            "url": "https://www.youtube.com/watch?v=Kj5JB2_QW0g",
            "duration": 8819.0,
            "view_count": 1914173,
            "uploader": "SGV Digital - Kannada Full Movies",
            "category": "kannada",
            "thumbnail": "https://i.ytimg.com/vi/Kj5JB2_QW0g/hq720.jpg"
        },
        {
            "id": "iFL4VQczj5I",
            "title": "Nanjundi Kalyana Kannada Full Movie | Raghavendra Rajkumar | Malashri | Evergreen Picture",
            "url": "https://www.youtube.com/watch?v=iFL4VQczj5I",
            "duration": 9173.0,
            "view_count": 1866943,
            "uploader": "SGV Digital - Kannada Full Movies",
            "category": "kannada",
            "thumbnail": "https://i.ytimg.com/vi/iFL4VQczj5I/hq720.jpg"
        },
        {
            "id": "Bw3YzidnsNY",
            "title": "Bharjari Gandu Kannada Full Movie | Raghavendra Rajkumar, Roopashree, Srinath, Lokesh,",
            "url": "https://www.youtube.com/watch?v=Bw3YzidnsNY",
            "duration": 8362.0,
            "view_count": 881851,
            "uploader": "SGV Digital - Kannada Full Movies",
            "category": "kannada",
            "thumbnail": "https://i.ytimg.com/vi/Bw3YzidnsNY/hq720.jpg"
        },
        {
            "id": "Kt-R12q2c3o",
            "title": "Krishana Veera Prema Kathe Full Movie | Nani | Mehreen Pirzada | Kannada Movies | Mango Kannada",
            "url": "https://www.youtube.com/watch?v=Kt-R12q2c3o",
            "duration": 8705.0,
            "view_count": 1487992,
            "uploader": "Mango Kannada",
            "category": "kannada",
            "thumbnail": "https://i.ytimg.com/vi/Kt-R12q2c3o/hq720.jpg"
        },
        {
            "id": "J8AYeTvMNqA",
            "title": "Dhoomam Kannada Full Movie [HD] | Fahadh Faasil | Aparna Balamurali | Pawan Kumar | Hombale Films",
            "url": "https://www.youtube.com/watch?v=J8AYeTvMNqA",
            "duration": 8564.0,
            "view_count": 2365265,
            "uploader": "Hombale Films",
            "category": "kannada",
            "thumbnail": "https://i.ytimg.com/vi/J8AYeTvMNqA/hq720.jpg"
        },
        {
            "id": "XQEsYoQLsiU",
            "title": "Dhanush | Anegan Full Movie | Latest Kannada Movie 2026 | Amyra Dastur | Mango Kannada",
            "url": "https://www.youtube.com/watch?v=XQEsYoQLsiU",
            "duration": 9456.0,
            "view_count": 302441,
            "uploader": "Mango Kannada",
            "category": "kannada",
            "thumbnail": "https://i.ytimg.com/vi/XQEsYoQLsiU/hq720.jpg"
        },
        {
            "id": "3WT8YYDQdGs",
            "title": "Bombat Car Kannada Full Movie | Keerthika | Ravishankar Gowda | Sharan | Doddanna | Nazar",
            "url": "https://www.youtube.com/watch?v=3WT8YYDQdGs",
            "duration": 8169.0,
            "view_count": 334483,
            "uploader": "Lotus Kannada Movies",
            "category": "kannada",
            "thumbnail": "https://i.ytimg.com/vi/3WT8YYDQdGs/hq720.jpg"
        },
        {
            "id": "nBuTjnR5cQA",
            "title": "Vasanthakalada Hoogalu Kannada HD Movie | Sachin Rathod | Radha Bhagavathi | Bharath Janardhan",
            "url": "https://www.youtube.com/watch?v=nBuTjnR5cQA",
            "duration": 7101.0,
            "view_count": 179551,
            "uploader": "SRS Media Vision | Kannada Full Movies",
            "category": "kannada",
            "thumbnail": "https://i.ytimg.com/vi/nBuTjnR5cQA/hq720.jpg"
        },
        {
            "id": "ULlWM8ejbOE",
            "title": "Namma Basava | Kannada Full Movie | Puneeth Rajkumar | Gowri Munjal | Srinivas Murthy | Ashok",
            "url": "https://www.youtube.com/watch?v=ULlWM8ejbOE",
            "duration": 9051.0,
            "view_count": 9229465,
            "uploader": "SGV Digital - Kannada Full Movies",
            "category": "kannada",
            "thumbnail": "https://i.ytimg.com/vi/ULlWM8ejbOE/hq720.jpg"
        },
        {
            "id": "p__MYcCt5-c",
            "title": "Sammilana Kannada Full Movie | Shashikumar | Shruthi | K S Ashwath | Sudheer | Sathyajith",
            "url": "https://www.youtube.com/watch?v=p__MYcCt5-c",
            "duration": 8298.0,
            "view_count": 625576,
            "uploader": "SGV Digital - Kannada Full Movies",
            "category": "kannada",
            "thumbnail": "https://i.ytimg.com/vi/p__MYcCt5-c/hq720.jpg"
        },
        {
            "id": "2X93J_ygu4c",
            "title": "Mungaru Male 2- Kannada Movie Full HD | Ganesh, Neha Shetty, V Ravichandran | Arjun | Jhankarmusic",
            "url": "https://www.youtube.com/watch?v=2X93J_ygu4c",
            "duration": 9267.0,
            "view_count": 24029075,
            "uploader": "Jhankar Music",
            "category": "kannada",
            "thumbnail": "https://i.ytimg.com/vi/2X93J_ygu4c/hq720.jpg"
        },
        {
            "id": "3sIucdsxLgY",
            "title": "Parva | Kannada Full Movie | Dr. Vishnuvardhan | Prema | Roja | Sunil Kumar Desai",
            "url": "https://www.youtube.com/watch?v=3sIucdsxLgY",
            "duration": 9909.0,
            "view_count": 2270184,
            "uploader": "SGV Digital - Kannada Full Movies",
            "category": "kannada",
            "thumbnail": "https://i.ytimg.com/vi/3sIucdsxLgY/hq720.jpg"
        },
        {
            "id": "gCEfR25G_UE",
            "title": "🔴  ಎಕ್ಕ ಸಕ ತುಳು ಸಿನಿಮಾ | EKKA SAKA FULL MOVIE | TALKIES APP OTT | WATCH FULL CINEMA #tulu #cinema",
            "url": "https://www.youtube.com/watch?v=gCEfR25G_UE",
            "duration": 14954.0,
            "view_count": 10452,
            "uploader": "Talkies",
            "category": "kannada",
            "thumbnail": "https://i.ytimg.com/vi/gCEfR25G_UE/hq720.jpg"
        },
        {
            "id": "nyA5u61zeyU",
            "title": "Allu Arjun Kannada dubbed movie HD Kannada.new movie #kannadamovie Kannada love story movie ",
            "url": "https://www.youtube.com/watch?v=nyA5u61zeyU",
            "duration": 9132.0,
            "view_count": 236808,
            "uploader": "Yash movie ",
            "category": "kannada",
            "thumbnail": "https://i.ytimg.com/vi/nyA5u61zeyU/hq720.jpg"
        },
        {
            "id": "b0PmTRIC3CM",
            "title": "Kalasipalya – ಕಲಾಸಿಪಾಳ್ಯ | Kannada Full HD Movie | Darshan | Rakshitha | Omprakash Rao",
            "url": "https://www.youtube.com/watch?v=b0PmTRIC3CM",
            "duration": 9131.0,
            "view_count": 5151530,
            "uploader": "SGV Digital - Kannada Full Movies",
            "category": "kannada",
            "thumbnail": "https://i.ytimg.com/vi/b0PmTRIC3CM/hq720.jpg"
        },
        {
            "id": "XSdl_5wUK8U",
            "title": "Gajakesari - ಗಜಕೇಸರಿ | Kannada Full HD Movie | Kannada New Movies | Yash, Amulya",
            "url": "https://www.youtube.com/watch?v=XSdl_5wUK8U",
            "duration": 9566.0,
            "view_count": 34037941,
            "uploader": "Sri Ganesh Videos",
            "category": "kannada",
            "thumbnail": "https://i.ytimg.com/vi/XSdl_5wUK8U/hq720.jpg"
        },
        {
            "id": "IyP8Homks98",
            "title": "Vrithra - Kannada Full Movie | ವೃತ್ರ | Nithya Shri, Sudha Rani, Tharun Sudhir | Gautham Iyer | Divo",
            "url": "https://www.youtube.com/watch?v=IyP8Homks98",
            "duration": 6547.0,
            "view_count": 547433,
            "uploader": "Divo Movies Kannada",
            "category": "kannada",
            "thumbnail": "https://i.ytimg.com/vi/IyP8Homks98/hq720.jpg"
        },
        {
            "id": "NMU9ZnFS1IU",
            "title": "Krishnam Pranaya Sakhi Full Movie (ಕನ್ನಡ) | Golden⭐Ganesh Malvika Nair, Shrinivas Raju, ArjunJanya",
            "url": "https://www.youtube.com/watch?v=NMU9ZnFS1IU",
            "duration": 8296.0,
            "view_count": 520,
            "uploader": "APrimeX",
            "category": "kannada",
            "thumbnail": "https://i.ytimg.com/vi/NMU9ZnFS1IU/hqdefault.jpg"
        },
        {
            "id": "lOTeCn0lpVQ",
            "title": "Bangalore Underworld - Latest Kannada Action Movie | Aditya | Payal Radhakrishna | Raj Vardhan",
            "url": "https://www.youtube.com/watch?v=lOTeCn0lpVQ",
            "duration": 6385.0,
            "view_count": 298434,
            "uploader": "SGV Digital - Kannada Full Movies",
            "category": "kannada",
            "thumbnail": "https://i.ytimg.com/vi/lOTeCn0lpVQ/hq720.jpg"
        },
        {
            "id": "8-4JOKnSZTo",
            "title": "CBI 5 The Brain Latest Full Movie 4K | Mammootty | Asha Sharath | Malvika Nair | Kannada Dubbed",
            "url": "https://www.youtube.com/watch?v=8-4JOKnSZTo",
            "duration": 9737.0,
            "view_count": 1013423,
            "uploader": "Mango Indian Films",
            "category": "kannada",
            "thumbnail": "https://i.ytimg.com/vi/8-4JOKnSZTo/hq720.jpg"
        },
        {
            "id": "Fhba1PufjLM",
            "title": "Kanasugara - ಕನಸುಗಾರ | Kannada Full HD Movie | Ravichandran, Prema, Shashikumar | 2001 Kannada Film",
            "url": "https://www.youtube.com/watch?v=Fhba1PufjLM",
            "duration": 8849.0,
            "view_count": 14508289,
            "uploader": "SGV Digital - Kannada Full Movies",
            "category": "kannada",
            "thumbnail": "https://i.ytimg.com/vi/Fhba1PufjLM/hq720.jpg"
        },
        {
            "id": "PyAZtkvN5gI",
            "title": "Endendigu | New Kannada Full Movie | Ajay Rao | Radhika Pandit | 2025 Kannada Movies",
            "url": "https://www.youtube.com/watch?v=PyAZtkvN5gI",
            "duration": 7156.0,
            "view_count": 1079848,
            "uploader": "SGV Digital - Kannada Full Movies",
            "category": "kannada",
            "thumbnail": "https://i.ytimg.com/vi/PyAZtkvN5gI/hq720.jpg?sqp=-oaymwEcCNAFEJQDSFXyq4qpAw4IARUAAIhCGAFwAcABBg==&rs=AOn4CLDtzGb9X0craLh5kaS_SmOdEUOvfg",
            "added_date": "2026-04-16T07:31:20.477321Z",
            "source": "youtube"
        },
        {
            "id": "pM6oQpAVXf0",
            "title": "Mandya | Kannada Full Movie | Darshan, Rakshitha, Radhika Kumaraswamy | Darshan Kannada Movies",
            "url": "https://www.youtube.com/watch?v=pM6oQpAVXf0",
            "duration": 9655.0,
            "view_count": 6401110,
            "uploader": "SGV Digital - Kannada Full Movies",
            "category": "kannada",
            "thumbnail": "https://i.ytimg.com/vi/pM6oQpAVXf0/hq720.jpg"
        }
    ]
}