{
    "page": 3,
    "total_pages": 5,
    "total_items": 219,
    "items": [
        {
            "id": "mpZAoWardmM",
            "title": "Nandi | Kannada HD Full Movie | Sudeep | Sindhu Menon | Action Movie |@PaceDigitalMusic",
            "url": "https://www.youtube.com/watch?v=mpZAoWardmM",
            "duration": 7567.0,
            "view_count": 164547,
            "uploader": "PaceDigitalMusic",
            "category": "kannada",
            "thumbnail": "https://i.ytimg.com/vi/mpZAoWardmM/hq720.jpg"
        },
        {
            "id": "991-O6qj-80",
            "title": "Dhanush Kannada Full Movie | Dhanush, Shruti Haasan, Sivakarthikeyan, Sunder Ramu Prabhu | Full HD",
            "url": "https://www.youtube.com/watch?v=991-O6qj-80",
            "duration": 7396.0,
            "view_count": 971963,
            "uploader": "Peppermint Studioz",
            "category": "kannada",
            "thumbnail": "https://i.ytimg.com/vi/991-O6qj-80/hq720.jpg?sqp=-oaymwEcCNAFEJQDSFXyq4qpAw4IARUAAIhCGAFwAcABBg==&rs=AOn4CLATJGXg2oRBhveCqz6iP8DGNmTDdA",
            "added_date": "2026-04-16T07:31:22.280647Z",
            "source": "youtube"
        },
        {
            "id": "c95RkEQov-g",
            "title": "Mystery Horror Thriller Kannada Full Movie 4K | Experiment 5 |",
            "url": "https://www.youtube.com/watch?v=c95RkEQov-g",
            "duration": 7378.0,
            "view_count": 197693,
            "uploader": "MovieFlix Kannada",
            "category": "kannada",
            "thumbnail": "https://i.ytimg.com/vi/c95RkEQov-g/hq720.jpg"
        },
        {
            "id": "C3IWeg846KA",
            "title": "Software Ganda Kannada Full Movie | Jaggesh | Nikita Thukral | Kuri Prathap | Comedy Movie",
            "url": "https://www.youtube.com/watch?v=C3IWeg846KA",
            "duration": 7794.0,
            "view_count": 1011226,
            "uploader": "SGV Digital - Kannada Full Movies",
            "category": "kannada",
            "thumbnail": "https://i.ytimg.com/vi/C3IWeg846KA/hq720.jpg"
        },
        {
            "id": "hbjzzp99R8c",
            "title": "Annayya | Kannada Full Movie | Ravichandran | Madhoo | Aruna Irani | Srinath | Dheerendra Gopal",
            "url": "https://www.youtube.com/watch?v=hbjzzp99R8c",
            "duration": 8861.0,
            "view_count": 8269329,
            "uploader": "SGV Digital - Kannada Full Movies",
            "category": "kannada",
            "thumbnail": "https://i.ytimg.com/vi/hbjzzp99R8c/hq720.jpg"
        },
        {
            "id": "lZD3cuglLB4",
            "title": "Ganesh Kannada Movie 'Govinda' | Kannada Full Movie | Ganesh | Amulya | Sadhu Kokila | Kannada Movie",
            "url": "https://www.youtube.com/watch?v=lZD3cuglLB4",
            "duration": 7915.0,
            "view_count": 980844,
            "uploader": "Vee Kannada and Global Kannada Entertainment",
            "category": "kannada",
            "thumbnail": "https://i.ytimg.com/vi/lZD3cuglLB4/hq720.jpg"
        },
        {
            "id": "JTBlOKjPZus",
            "title": "GST kannada movie",
            "url": "https://www.youtube.com/watch?v=JTBlOKjPZus",
            "duration": 7328.0,
            "view_count": 415058,
            "uploader": "SMD Movie World",
            "category": "kannada",
            "thumbnail": "https://i.ytimg.com/vi/JTBlOKjPZus/hqdefault.jpg"
        },
        {
            "id": "4YFd0rGKffM",
            "title": "Mugila Mallige – ಮುಗಿಲ ಮಲ್ಲಿಗೆ | Kannada Full Movie|| FEAT. Srinath, Saritha, Ashok",
            "url": "https://www.youtube.com/watch?v=4YFd0rGKffM",
            "duration": 9179.0,
            "view_count": 1649043,
            "uploader": "SRS Media Vision | Kannada Full Movies",
            "category": "kannada",
            "thumbnail": "https://i.ytimg.com/vi/4YFd0rGKffM/hq720.jpg"
        },
        {
            "id": "w_z4-OJlz38",
            "title": "Aishwarya – ಐಶ್ವರ್ಯ | Kannada Full HD Movie | Upendra, Deepika Padukone, Daisy Bopanna",
            "url": "https://www.youtube.com/watch?v=w_z4-OJlz38",
            "duration": 8082.0,
            "view_count": 4999747,
            "uploader": "SGV Digital - Kannada Full Movies",
            "category": "kannada",
            "thumbnail": "https://i.ytimg.com/vi/w_z4-OJlz38/hq720.jpg"
        },
        {
            "id": "s1LqXWHpCb0",
            "title": "Milana Kannada Full Movie | Puneeth Rajkumar | Parvathi Menon | Mano Murthy | Prakash",
            "url": "https://www.youtube.com/watch?v=s1LqXWHpCb0",
            "duration": 9325.0,
            "view_count": 8851329,
            "uploader": "Lotus Kannada Movies",
            "category": "kannada",
            "thumbnail": "https://i.ytimg.com/vi/s1LqXWHpCb0/hq720.jpg"
        },
        {
            "id": "SAYIz0FKsZw",
            "title": "Rashmika Mandanna Latest Super Hit Kannada Movie | Chalo | Naga Shourya | 2022 Kannada Full Movies",
            "url": "https://www.youtube.com/watch?v=SAYIz0FKsZw",
            "duration": 8356.0,
            "view_count": 12433900,
            "uploader": "BhavaniHD Movies",
            "category": "kannada",
            "thumbnail": "https://i.ytimg.com/vi/SAYIz0FKsZw/hq720.jpg"
        },
        {
            "id": "BaZzD7FJqIs",
            "title": "RETRO 2 Kannada Full HD Movie || Super Hit Kannada Action Movie 2026 || Trisha, Suriya, Vadivelu",
            "url": "https://www.youtube.com/watch?v=BaZzD7FJqIs",
            "duration": 9186.0,
            "view_count": 217028,
            "uploader": "Kannada Cinemas",
            "category": "kannada",
            "thumbnail": "https://i.ytimg.com/vi/BaZzD7FJqIs/hq720.jpg"
        },
        {
            "id": "veXK83scD1M",
            "title": "Krishna Kannada Full Movie | Golden Star Ganesh | Sharan | Pooja Gandhi | Sharmila Mandre",
            "url": "https://www.youtube.com/watch?v=veXK83scD1M",
            "duration": 7490.0,
            "view_count": 511753,
            "uploader": "SGV Digital - Kannada Full Movies",
            "category": "kannada",
            "thumbnail": "https://i.ytimg.com/vi/veXK83scD1M/hq720.jpg"
        },
        {
            "id": "Xc5-kQbw-jM",
            "title": "Preethiya Rayabhari Kannada Full Movie | Nakul Gowda, Anjana Deshpande, Charan Raj",
            "url": "https://www.youtube.com/watch?v=Xc5-kQbw-jM",
            "duration": 8189.0,
            "view_count": 403700,
            "uploader": "Kannada Movie Factory",
            "category": "kannada",
            "thumbnail": "https://i.ytimg.com/vi/Xc5-kQbw-jM/hq720.jpg"
        },
        {
            "id": "rL4rI7PRCXM",
            "title": "Preethiya Rayabhari - ಪ್ರೀತಿಯ ರಾಯಭಾರಿ | Nakul Gowda, Anjana Deshpande | Kannada Full Movie (HD)",
            "url": "https://www.youtube.com/watch?v=rL4rI7PRCXM",
            "duration": 8198.0,
            "view_count": 29391,
            "uploader": "Eros Universe South",
            "category": "kannada",
            "thumbnail": "https://i.ytimg.com/vi/rL4rI7PRCXM/hq720.jpg"
        },
        {
            "id": "c_aqBQnN-j4",
            "title": "ಹನ್ನೊಂದು | Eleven | Kannada  Dubbed 4K Full Movie  |  | Naveen Chandra | Reyaa Hari",
            "url": "https://www.youtube.com/watch?v=c_aqBQnN-j4",
            "duration": 7966.0,
            "view_count": 423669,
            "uploader": "API Indian Movie Hub",
            "category": "kannada",
            "thumbnail": "https://i.ytimg.com/vi/c_aqBQnN-j4/hq720.jpg"
        },
        {
            "id": "9-VRsDLSGLE",
            "title": "Kannada Full Movie Womens day Special Sahara 4K | Cricket Biopic | Kannada Cinema | UHD |",
            "url": "https://www.youtube.com/watch?v=9-VRsDLSGLE",
            "duration": 7900.0,
            "view_count": 396189,
            "uploader": "MovieFlix Kannada",
            "category": "kannada",
            "thumbnail": "https://i.ytimg.com/vi/9-VRsDLSGLE/hq720.jpg"
        },
        {
            "id": "iqSbhDSQ5P0",
            "title": "Crime Mystery Thriller Kannada Dubbed Full Movie Devil 4K | Shamna Kasim | Vidharth | Mysskin | UHD",
            "url": "https://www.youtube.com/watch?v=iqSbhDSQ5P0",
            "duration": 6981.0,
            "view_count": 204584,
            "uploader": "MovieFlix Kannada",
            "category": "kannada",
            "thumbnail": "https://i.ytimg.com/vi/iqSbhDSQ5P0/hq720.jpg"
        },
        {
            "id": "DFle3bJKiNw",
            "title": "Forest kannada full movie Chikkanna rangayana raghu KFI.",
            "url": "https://www.youtube.com/watch?v=DFle3bJKiNw",
            "duration": 8179.0,
            "view_count": 372,
            "uploader": "@Movies Adda....",
            "category": "kannada",
            "thumbnail": "https://i.ytimg.com/vi/DFle3bJKiNw/hqdefault.jpg"
        },
        {
            "id": "qeErT74GGgk",
            "title": "Madagaja Kannada Full Movie  2019",
            "url": "https://www.youtube.com/watch?v=qeErT74GGgk",
            "duration": 7826.0,
            "view_count": 1361248,
            "uploader": "Kannada Movies",
            "category": "kannada",
            "thumbnail": "https://i.ytimg.com/vi/qeErT74GGgk/hqdefault.jpg"
        },
        {
            "id": "Z_iBfKfyX-g",
            "title": "Naanenu Madlilla Kannada Full Comedy Movie - Ananthnag, Ramakrishna, Ramkumar, Sudharani, Shilpa",
            "url": "https://www.youtube.com/watch?v=Z_iBfKfyX-g",
            "duration": 7972.0,
            "view_count": 190432,
            "uploader": "Lotus Entertainment",
            "category": "kannada",
            "thumbnail": "https://i.ytimg.com/vi/Z_iBfKfyX-g/hq720.jpg"
        },
        {
            "id": "GISgimRNE9U",
            "title": "VAAMA - Kannada Full Movie | Prajwal Devaraj | Radhika Pandit | Haripriya | HD Movie",
            "url": "https://www.youtube.com/watch?v=GISgimRNE9U",
            "duration": 7720.0,
            "view_count": 815793,
            "uploader": "Shreya Movies Kannada",
            "category": "kannada",
            "thumbnail": "https://i.ytimg.com/vi/GISgimRNE9U/hq720.jpg"
        },
        {
            "id": "nh-4cSKZ4UU",
            "title": "Chandra Chakori | Kannada Full Movie | Sri Murali, Priya | Blockbuster Kannada Movies #kuhukhukogile",
            "url": "https://www.youtube.com/watch?v=nh-4cSKZ4UU",
            "duration": 9778.0,
            "view_count": 53213,
            "uploader": "TitleTalkies ",
            "category": "kannada",
            "thumbnail": "https://i.ytimg.com/vi/nh-4cSKZ4UU/hqdefault.jpg"
        },
        {
            "id": "nI0qnhIb2Hc",
            "title": "Avane Nanna Ganda Kannada Full Movie | Kashinath | Sudharani | Vanitha Vasu | M P Shankar",
            "url": "https://www.youtube.com/watch?v=nI0qnhIb2Hc",
            "duration": 7983.0,
            "view_count": 642973,
            "uploader": "SGV Digital - Kannada Full Movies",
            "category": "kannada",
            "thumbnail": "https://i.ytimg.com/vi/nI0qnhIb2Hc/hq720.jpg"
        },
        {
            "id": "dIePz5Q_bCc",
            "title": "Rathnan Prapancha Kannada Full Length HD Movie | Dhananjay | Reba | TRP Entertainments |",
            "url": "https://www.youtube.com/watch?v=dIePz5Q_bCc",
            "duration": 7829.0,
            "view_count": 208819,
            "uploader": "TRP Entertainments",
            "category": "kannada",
            "thumbnail": "https://i.ytimg.com/vi/dIePz5Q_bCc/hq720.jpg"
        },
        {
            "id": "hxTa5MJfXi4",
            "title": "Maurya (2019) New kannada Full MovieI Puneeth Rajkumar, Meera Jasmine, Roja",
            "url": "https://www.youtube.com/watch?v=hxTa5MJfXi4",
            "duration": 7440.0,
            "view_count": 1057997,
            "uploader": "THUNDERFILMS02",
            "category": "kannada",
            "thumbnail": "https://i.ytimg.com/vi/hxTa5MJfXi4/hq720.jpg"
        },
        {
            "id": "zlprhMqt9t0",
            "title": "Love Mocktail 3 Kannada Movie 2026 | Full Movie HD | Darling Krishna | Milana Nagraj |",
            "url": "https://www.youtube.com/watch?v=zlprhMqt9t0",
            "duration": 7933.0,
            "view_count": 82,
            "uploader": "ZH2KannadaMovie",
            "category": "kannada",
            "thumbnail": "https://i.ytimg.com/vi/zlprhMqt9t0/hqdefault.jpg"
        },
        {
            "id": "JgEqVDpy7mg",
            "title": "Benki Full Movie | Ravi Teja | Shruti Haasan | Anjali | Kannada Movies 2026",
            "url": "https://www.youtube.com/watch?v=JgEqVDpy7mg",
            "duration": 9024.0,
            "view_count": 475735,
            "uploader": "Mango Kannada",
            "category": "kannada",
            "thumbnail": "https://i.ytimg.com/vi/JgEqVDpy7mg/hq720.jpg"
        },
        {
            "id": "HWRaSU8XnkM",
            "title": "Trunk (2018) | Nihal Rajput, Vaishali Deepak | Thriller Horror | Kannada Full Movie (HD)",
            "url": "https://www.youtube.com/watch?v=HWRaSU8XnkM",
            "duration": 8349.0,
            "view_count": 8807,
            "uploader": "Eros Universe South",
            "category": "kannada",
            "thumbnail": "https://i.ytimg.com/vi/HWRaSU8XnkM/hq720.jpg"
        },
        {
            "id": "Xtq_st3mxeQ",
            "title": "Pailwan Kannada Full Movie | Sudeep |  Pailwan Kannada Full HD Movie 2019",
            "url": "https://www.youtube.com/watch?v=Xtq_st3mxeQ",
            "duration": 9824.0,
            "view_count": 3466951,
            "uploader": " Dk Kannada movie ",
            "category": "kannada",
            "thumbnail": "https://i.ytimg.com/vi/Xtq_st3mxeQ/hq720.jpg"
        },
        {
            "id": "7aQ4UgDHznI",
            "title": "BIRBAL Trilogy - (Kannada) Full Movie | Srini | Rukmini Vasanth | Dr.TR Chandrashekaar",
            "url": "https://www.youtube.com/watch?v=7aQ4UgDHznI",
            "duration": 8503.0,
            "view_count": 3611938,
            "uploader": "Crystal Music",
            "category": "kannada",
            "thumbnail": "https://i.ytimg.com/vi/7aQ4UgDHznI/hq720.jpg"
        },
        {
            "id": "gJEStssoW7M",
            "title": "Bharrate Kannada Full Movie 2019 Sri Muruli",
            "url": "https://www.youtube.com/watch?v=gJEStssoW7M",
            "duration": 9865.0,
            "view_count": 527279,
            "uploader": "Kannada Movies",
            "category": "kannada",
            "thumbnail": "https://i.ytimg.com/vi/gJEStssoW7M/hqdefault.jpg"
        },
        {
            "id": "ErtrtdNIcjs",
            "title": "Vanamagan (HD) Adventure Movie In Kannada Dubbed l Jayam Ravi, Sayyeshaa Saigal, Prakash Raj",
            "url": "https://www.youtube.com/watch?v=ErtrtdNIcjs",
            "duration": 6552.0,
            "view_count": 361030,
            "uploader": "Sumeet Arts Films",
            "category": "kannada",
            "thumbnail": "https://i.ytimg.com/vi/ErtrtdNIcjs/hq720.jpg"
        },
        {
            "id": "yEihJexqFcg",
            "title": "Apthamitra Kannada FULL HD Movie Vishnuvardhan, Ramesh Aravind, Soundarya, Prema, Dwarakish",
            "url": "https://www.youtube.com/watch?v=yEihJexqFcg",
            "duration": 8827.0,
            "view_count": 835988,
            "uploader": "Dr. Vishnuvardhan Hits - SGV",
            "category": "kannada",
            "thumbnail": "https://i.ytimg.com/vi/yEihJexqFcg/hq720.jpg"
        },
        {
            "id": "klPOGjI4fp0",
            "title": "Akash (2005) Full Movie HD | Power Star Puneeth Rajkumar Ramya | Sandalwood Classic Blockbuster Hit ",
            "url": "https://www.youtube.com/watch?v=klPOGjI4fp0",
            "duration": 9036.0,
            "view_count": 230817,
            "uploader": "Karna Movies 365",
            "category": "kannada",
            "thumbnail": "https://i.ytimg.com/vi/klPOGjI4fp0/hq720.jpg"
        },
        {
            "id": "Ny1tjdST1jk",
            "title": "Pataki - ಪಟಾಕಿ - Kannada Full Movie | HD | Ganesh | Saikumar | Ranya Rao | Arjun Janya |  Movies",
            "url": "https://www.youtube.com/watch?v=Ny1tjdST1jk",
            "duration": 8411.0,
            "view_count": 7915794,
            "uploader": "Movies Powered By Think Music",
            "category": "kannada",
            "thumbnail": "https://i.ytimg.com/vi/Ny1tjdST1jk/hq720.jpg"
        },
        {
            "id": "orP__Gbot5Q",
            "title": "Rowdy Aliya – ರೌಡಿ ಆಳಿಯ | Kannada Full Movie | Shivarajkumar | Priyanka | Romantic & Action",
            "url": "https://www.youtube.com/watch?v=orP__Gbot5Q",
            "duration": 9493.0,
            "view_count": 8101615,
            "uploader": "SRS Media Vision | Kannada Full Movies",
            "category": "kannada",
            "thumbnail": "https://i.ytimg.com/vi/orP__Gbot5Q/hq720.jpg"
        },
        {
            "id": "b7FCesal_ZQ",
            "title": "Shourya | Kannada Full Movie | Darshan | MadalsaSharma | Sampath Kumar | John Kokken | Sadhu Kokila",
            "url": "https://www.youtube.com/watch?v=b7FCesal_ZQ",
            "duration": 8702.0,
            "view_count": 3084632,
            "uploader": "SGV Digital - Kannada Full Movies",
            "category": "kannada",
            "thumbnail": "https://i.ytimg.com/vi/b7FCesal_ZQ/hq720.jpg"
        },
        {
            "id": "2etZ0bs5ikE",
            "title": "Just Married Full Movie | Kannada Movies | Sheetal Gauthaman | Rishi Narayan | Infinitum Kannada",
            "url": "https://www.youtube.com/watch?v=2etZ0bs5ikE",
            "duration": 19973.0,
            "view_count": 694551,
            "uploader": "Infinitum Kannada",
            "category": "kannada",
            "thumbnail": "https://i.ytimg.com/vi/2etZ0bs5ikE/hq720.jpg?sqp=-oaymwEcCNAFEJQDSFXyq4qpAw4IARUAAIhCGAFwAcABBg==&rs=AOn4CLBffEGjHhwkM-JzDq8sImw7nDsCug",
            "added_date": "2026-04-16T07:31:21.278740Z",
            "source": "youtube"
        },
        {
            "id": "HdBcq5-rvmg",
            "title": "New Kannada Action Thriller Movie | Varalaxmi Sarathkumar | Mr.Celebrity Kannada Full Movie 4K",
            "url": "https://www.youtube.com/watch?v=HdBcq5-rvmg",
            "duration": 7469.0,
            "view_count": 394451,
            "uploader": "Kannada HD Movies",
            "category": "kannada",
            "thumbnail": "https://i.ytimg.com/vi/HdBcq5-rvmg/hq720.jpg"
        },
        {
            "id": "wQOMwf7pcQM",
            "title": "Dhurandhar 2 The Revenge | kannada Full Movie | Ranveer Singh, Sanjay Dutt | Movie HD",
            "url": "https://www.youtube.com/watch?v=wQOMwf7pcQM",
            "duration": 13475.0,
            "view_count": 85,
            "uploader": "Cinema Vault Kannada",
            "category": "kannada",
            "thumbnail": "https://i.ytimg.com/vi/wQOMwf7pcQM/hqdefault.jpg"
        },
        {
            "id": "GTZBVDLy5sE",
            "title": "Yarige Salutthe Sambala | Kannada Full HD Movie | Shashikumar, Mohan, Karibasavaiah | Comedy Movie",
            "url": "https://www.youtube.com/watch?v=GTZBVDLy5sE",
            "duration": 9140.0,
            "view_count": 7165695,
            "uploader": "SGV Digital - Kannada Full Movies",
            "category": "kannada",
            "thumbnail": "https://i.ytimg.com/vi/GTZBVDLy5sE/hq720.jpg"
        },
        {
            "id": "KEvr4aKRbBY",
            "title": "Badri Kannada Full Movie | Thalapathy Vijay | Bhumika | Kannada Dubbed Movies 2024 | Mango Kannada",
            "url": "https://www.youtube.com/watch?v=KEvr4aKRbBY",
            "duration": 9805.0,
            "view_count": 1642652,
            "uploader": "Mango Kannada",
            "category": "kannada",
            "thumbnail": "https://i.ytimg.com/vi/KEvr4aKRbBY/hq720.jpg"
        },
        {
            "id": "-6FS7VXFb0A",
            "title": "Eradane Janma (Randaam Yaamam) | Kannada Dubbed Full Movie | Swasika | Dhruvan | Video Park Kannada",
            "url": "https://www.youtube.com/watch?v=-6FS7VXFb0A",
            "duration": 7758.0,
            "view_count": 537901,
            "uploader": "Video Park Kannada",
            "category": "kannada",
            "thumbnail": "https://i.ytimg.com/vi/-6FS7VXFb0A/hq720.jpg"
        },
        {
            "id": "nzJKSKCIYUk",
            "title": "ಮಾರ್ಕ್ Kannada Full Movie 2025 | Kiccha Sudeep | Kannada New Movies | Kannada Movie | Mark Movie ",
            "url": "https://www.youtube.com/watch?v=nzJKSKCIYUk",
            "duration": 8705.0,
            "view_count": 21971,
            "uploader": "cine takies",
            "category": "kannada",
            "thumbnail": "https://i.ytimg.com/vi/nzJKSKCIYUk/hq720.jpg"
        },
        {
            "id": "_E8oS_8ZbjU",
            "title": "Shreemathi Full Movie | Madhavi | Sridhar | Janaki | Kannada Family Picture",
            "url": "https://www.youtube.com/watch?v=_E8oS_8ZbjU",
            "duration": 8797.0,
            "view_count": 505838,
            "uploader": "SGV Digital - Kannada Full Movies",
            "category": "kannada",
            "thumbnail": "https://i.ytimg.com/vi/_E8oS_8ZbjU/hq720.jpg"
        },
        {
            "id": "o0814sKXyLQ",
            "title": "Udbhava Kannada Full Movie | Ananthnag | Balakrishna | K S Ashwath | Kodlu Ramakrishna",
            "url": "https://www.youtube.com/watch?v=o0814sKXyLQ",
            "duration": 8120.0,
            "view_count": 605975,
            "uploader": "SGV Digital - Kannada Full Movies",
            "category": "kannada",
            "thumbnail": "https://i.ytimg.com/vi/o0814sKXyLQ/hq720.jpg"
        },
        {
            "id": "WG6xGtBuOnM",
            "title": "Masterpiece - Kannada Full HD Movie | Yash, Shanvi Srivastava | Blockbuster Kannada New Movies",
            "url": "https://www.youtube.com/watch?v=WG6xGtBuOnM",
            "duration": 9185.0,
            "view_count": 52191951,
            "uploader": "Sri Ganesh Videos",
            "category": "kannada",
            "thumbnail": "https://i.ytimg.com/vi/WG6xGtBuOnM/hq720.jpg"
        },
        {
            "id": "ve71uE3Nlo0",
            "title": "ಧೈರ್ಯ (Dhairya) Kannada Full Movie | Darshan | Kannada Super Hit Action Movie | Sadhu Kokila",
            "url": "https://www.youtube.com/watch?v=ve71uE3Nlo0",
            "duration": 8340.0,
            "view_count": 185667,
            "uploader": "Vee Kannada",
            "category": "kannada",
            "thumbnail": "https://i.ytimg.com/vi/ve71uE3Nlo0/hq720.jpg"
        },
        {
            "id": "k7-PP-xnxyw",
            "title": "Rama Krishna Kannada Full Movie | Ravichandran | Jaggesh | Kaveri | Laila | Doddanna | Sadhu Kokila",
            "url": "https://www.youtube.com/watch?v=k7-PP-xnxyw",
            "duration": 8788.0,
            "view_count": 3033688,
            "uploader": "SGV Digital - Kannada Full Movies",
            "category": "kannada",
            "thumbnail": "https://i.ytimg.com/vi/k7-PP-xnxyw/hq720.jpg"
        }
    ]
}