{
    "page": 1,
    "total_pages": 5,
    "total_items": 219,
    "items": [
        {
            "id": "itNmrhLNawU",
            "title": "Gatha Vaibhava Kannada Full Movie ",
            "url": "https://www.youtube.com/watch?v=itNmrhLNawU",
            "duration": 8371.0,
            "view_count": 386598,
            "uploader": "movies_kannada",
            "category": "kannada",
            "thumbnail": "https://i.ytimg.com/vi/itNmrhLNawU/hq720.jpg"
        },
        {
            "id": "GVnsgcRpnEk",
            "title": "Yadha Yadha Hi Latest Kannada Crime Thriller Full Movie | Hari Priya, Vasishta | 2025 South Movies",
            "url": "https://www.youtube.com/watch?v=GVnsgcRpnEk",
            "duration": 7704.0,
            "view_count": 1449320,
            "uploader": "Sri Balaji Kannada Movies",
            "category": "kannada",
            "thumbnail": "https://i.ytimg.com/vi/GVnsgcRpnEk/hq720.jpg?sqp=-oaymwEcCNAFEJQDSFXyq4qpAw4IARUAAIhCGAFwAcABBg==&rs=AOn4CLDNCJ8GMFK6qIoepntBD8L6hriJ-g",
            "added_date": "2026-04-16T07:31:21.879910Z",
            "source": "youtube"
        },
        {
            "id": "hum75OM1hDY",
            "title": "Kamanabillu Kannada Full Movie - Dr Rajkumar, Ananthnag, Saritha, Thoogudeepa Srinivas",
            "url": "https://www.youtube.com/watch?v=hum75OM1hDY",
            "duration": 9776.0,
            "view_count": 936988,
            "uploader": "Dr. Rajkumar Hits - SGV ",
            "category": "kannada",
            "thumbnail": "https://i.ytimg.com/vi/hum75OM1hDY/hq720.jpg"
        },
        {
            "id": "bKj3dejY9M8",
            "title": "Mungaru Male Kannada Full Movie | Golden Star Ganesh | Pooja Gandhi | Yogaraj Bhat",
            "url": "https://www.youtube.com/watch?v=bKj3dejY9M8",
            "duration": 8264.0,
            "view_count": 1158580,
            "uploader": "SGV Digital - Kannada Full Movies",
            "category": "kannada",
            "thumbnail": "https://i.ytimg.com/vi/bKj3dejY9M8/hq720.jpg?sqp=-oaymwEcCNAFEJQDSFXyq4qpAw4IARUAAIhCGAFwAcABBg==&rs=AOn4CLDDgKsNrMrAw2bfbw3Aw-SI9u_Mtg",
            "added_date": "2026-04-16T07:31:22.881691Z",
            "source": "youtube"
        },
        {
            "id": "YYHLCsbCytU",
            "title": "Kiccha Huccha Kannada Full Movie - Kiccha Sudeep, Ramya, Srinath, Suresh Chandra",
            "url": "https://www.youtube.com/watch?v=YYHLCsbCytU",
            "duration": 8287.0,
            "view_count": 154757,
            "uploader": "Lotus Entertainment",
            "category": "kannada",
            "thumbnail": "https://i.ytimg.com/vi/YYHLCsbCytU/hq720.jpg"
        },
        {
            "id": "YodUQuZO_T4",
            "title": "Santhu Straight Forward Full Movie | Rocking Star Yash | Radhika Pandit | Kannada New Movies",
            "url": "https://www.youtube.com/watch?v=YodUQuZO_T4",
            "duration": 9563.0,
            "view_count": 8781810,
            "uploader": "Lotus Kannada Movies",
            "category": "kannada",
            "thumbnail": "https://i.ytimg.com/vi/YodUQuZO_T4/hq720.jpg?sqp=-oaymwEcCNAFEJQDSFXyq4qpAw4IARUAAIhCGAFwAcABBg==&rs=AOn4CLAj97mCzFAIu5Oept1aqRrHhJMIuA",
            "added_date": "2026-04-16T07:31:20.677690Z",
            "source": "youtube"
        },
        {
            "id": "7paFtArJWvs",
            "title": "Ulidavaru Kandanthe Full Movie - 4KUHD | Rakshit Shetty | Kishore | Rishab Shetty | Cineflix Kannada",
            "url": "https://www.youtube.com/watch?v=7paFtArJWvs",
            "duration": 8884.0,
            "view_count": 536959,
            "uploader": "Cineflix Talkies",
            "category": "kannada",
            "thumbnail": "https://i.ytimg.com/vi/7paFtArJWvs/hq720.jpg?sqp=-oaymwEcCNAFEJQDSFXyq4qpAw4IARUAAIhCGAFwAcABBg==&rs=AOn4CLBVarzyRMrGQ31PFC28tg2EHIn1GA",
            "added_date": "2026-04-16T07:31:21.078374Z",
            "source": "youtube"
        },
        {
            "id": "T0ie_lGKNgc",
            "title": "Dil Kush | Kannada Full Movie | Ranjeeth | Spandana Somanna | Rangayana Raghu | Jayaprabha Studios",
            "url": "https://www.youtube.com/watch?v=T0ie_lGKNgc",
            "duration": 7993.0,
            "view_count": 1791964,
            "uploader": "Jayaprabha Studios",
            "category": "kannada",
            "thumbnail": "https://i.ytimg.com/vi/T0ie_lGKNgc/hq720.jpg?sqp=-oaymwEcCNAFEJQDSFXyq4qpAw4IARUAAIhCGAFwAcABBg==&rs=AOn4CLCGpnfh12R-S2H9U8uU0PdeGfFbdw",
            "added_date": "2026-04-16T07:31:21.679452Z",
            "source": "youtube"
        },
        {
            "id": "J5psyjrT_fE",
            "title": "Gadibidi Aliya Kannada Full Movie | Shivarajkumar | Malashri | Mohini | Blockbuster Hit Movie",
            "url": "https://www.youtube.com/watch?v=J5psyjrT_fE",
            "duration": 9035.0,
            "view_count": 876999,
            "uploader": "Lotus Kannada Movies",
            "category": "kannada",
            "thumbnail": "https://i.ytimg.com/vi/J5psyjrT_fE/hq720.jpg"
        },
        {
            "id": "dAu8HWS_Ga4",
            "title": "Sampathige Saval | ಸಂಪತ್ತಿಗೆ ಸವಾಲ್ | Kannada Full Movie | Dr.Rajkumar | Manjula | Vajramuni, rajamma",
            "url": "https://www.youtube.com/watch?v=dAu8HWS_Ga4",
            "duration": 8869.0,
            "view_count": 15990965,
            "uploader": "SRS Media Vision | Kannada Full Movies",
            "category": "kannada",
            "thumbnail": "https://i.ytimg.com/vi/dAu8HWS_Ga4/hq720.jpg"
        },
        {
            "id": "zf0LfGlFBO8",
            "title": "Rama Shama Bhama Kannada Full Movie - Kamal Haasan, Ramesh Aravind, Daisy Bopanna, Urvashi, Shruthi",
            "url": "https://www.youtube.com/watch?v=zf0LfGlFBO8",
            "duration": 8483.0,
            "view_count": 2905435,
            "uploader": "Lotus Kannada Movies",
            "category": "kannada",
            "thumbnail": "https://i.ytimg.com/vi/zf0LfGlFBO8/hq720.jpg"
        },
        {
            "id": "tkju26ZfUec",
            "title": "Dakota Picture (2012) Kannada Full Movie | Anand Movies | Comedy Entertainer | HD",
            "url": "https://www.youtube.com/watch?v=tkju26ZfUec",
            "duration": 7514.0,
            "view_count": 2648,
            "uploader": "Kannada FilmX House ",
            "category": "kannada",
            "thumbnail": "https://i.ytimg.com/vi/tkju26ZfUec/hqdefault.jpg"
        },
        {
            "id": "_0HOpWQ6wCM",
            "title": "Mane Maratakkide - New Kannada Full Comedy Movie | Sadhu Kolkila, Chikkanna, Kuri Prathap",
            "url": "https://www.youtube.com/watch?v=_0HOpWQ6wCM",
            "duration": 6152.0,
            "view_count": 2103852,
            "uploader": "SGV Digital - Kannada Full Movies",
            "category": "kannada",
            "thumbnail": "https://i.ytimg.com/vi/_0HOpWQ6wCM/hq720.jpg?sqp=-oaymwEcCNAFEJQDSFXyq4qpAw4IARUAAIhCGAFwAcABBg==&rs=AOn4CLDANO4XkWCUQMxZ__DVCwqHkFAIaQ",
            "added_date": "2026-04-16T07:31:22.080280Z",
            "source": "youtube"
        },
        {
            "id": "34_ZQ5ByS8g",
            "title": "Mukunda murari kannada full movie| upendra movies| ಮುಕುಂದ ಮುರಾರಿ ಕನ್ನಡ ಫುಲ್ ಮೂವಿ",
            "url": "https://www.youtube.com/watch?v=34_ZQ5ByS8g",
            "duration": 7030.0,
            "view_count": 651877,
            "uploader": "Marco ",
            "category": "kannada",
            "thumbnail": "https://i.ytimg.com/vi/34_ZQ5ByS8g/hqdefault.jpg"
        },
        {
            "id": "gEEFkThDr_8",
            "title": "ದೇವಾ - DEVA Kannada Full Movie | Kiccha Sudeep | Ramya | Suresh Chandra | Shreya Movies Kannada",
            "url": "https://www.youtube.com/watch?v=gEEFkThDr_8",
            "duration": 6731.0,
            "view_count": 851013,
            "uploader": "Shreya Movies Kannada",
            "category": "kannada",
            "thumbnail": "https://i.ytimg.com/vi/gEEFkThDr_8/hq720.jpg"
        },
        {
            "id": "x2yaxM0pCPA",
            "title": "Kempegowda | Kannada Movie | Sudeep | Ragini | Shankar Productions | Arjun Janya | Action Movie",
            "url": "https://www.youtube.com/watch?v=x2yaxM0pCPA",
            "duration": 8905.0,
            "view_count": 1676221,
            "uploader": "SRS Media Vision | Kannada Full Movies",
            "category": "kannada",
            "thumbnail": "https://i.ytimg.com/vi/x2yaxM0pCPA/hq720.jpg"
        },
        {
            "id": "7gp4YrTD18M",
            "title": "Yarigu Helbedi Kannada Full Movie Ananthnag, Lokesh, Vinaya Prasad - Superhit Comedy Film",
            "url": "https://www.youtube.com/watch?v=7gp4YrTD18M",
            "duration": 8666.0,
            "view_count": 479176,
            "uploader": "SGV - Shankarnag & Ananthnag Hits",
            "category": "kannada",
            "thumbnail": "https://i.ytimg.com/vi/7gp4YrTD18M/hq720.jpg"
        },
        {
            "id": "p6UITFRIQZI",
            "title": "Haage Vaikuntapuradali Kannada Superhit Action Full Length HD Movie | Allu Arjun | Pooja Hegde",
            "url": "https://www.youtube.com/watch?v=p6UITFRIQZI",
            "duration": 9646.0,
            "view_count": 3345977,
            "uploader": "TRP Entertainments",
            "category": "kannada",
            "thumbnail": "https://i.ytimg.com/vi/p6UITFRIQZI/hq720.jpg"
        },
        {
            "id": "iEXIOvfV1YY",
            "title": "ಕೌಸಲ್ಯ ಸುಪ್ರಜಾ ರಾಮ - Kannada Full Movie | DarlingKrishna | Nagabhushana | Milana | Brinda | Shashank",
            "url": "https://www.youtube.com/watch?v=iEXIOvfV1YY",
            "duration": 8698.0,
            "view_count": 7500283,
            "uploader": "Divo Movies Kannada",
            "category": "kannada",
            "thumbnail": "https://i.ytimg.com/vi/iEXIOvfV1YY/hq720.jpg"
        },
        {
            "id": "lmXKTLQrhnI",
            "title": "Robert kannada full movie......",
            "url": "https://www.youtube.com/watch?v=lmXKTLQrhnI",
            "duration": 9922.0,
            "view_count": 854213,
            "uploader": "D icons movie",
            "category": "kannada",
            "thumbnail": "https://i.ytimg.com/vi/lmXKTLQrhnI/hqdefault.jpg"
        },
        {
            "id": "y9oN9DkNeIg",
            "title": "Satyadev IPS New Kannada Full Movie | Ajith Kumar | Arun Vijay | Anushka Shetty | Trisha |",
            "url": "https://www.youtube.com/watch?v=y9oN9DkNeIg",
            "duration": 8389.0,
            "view_count": 742548,
            "uploader": "TRP Entertainments",
            "category": "kannada",
            "thumbnail": "https://i.ytimg.com/vi/y9oN9DkNeIg/hq720.jpg"
        },
        {
            "id": "c_sKQ4rSbAE",
            "title": "ಕವಚ್ - KAVACH Kannada Full Movie | Sri Murali | Haripriya | Prasanth Neel | Kannada Movie",
            "url": "https://www.youtube.com/watch?v=c_sKQ4rSbAE",
            "duration": 7329.0,
            "view_count": 592081,
            "uploader": "Shreya Movies Kannada",
            "category": "kannada",
            "thumbnail": "https://i.ytimg.com/vi/c_sKQ4rSbAE/hq720.jpg"
        },
        {
            "id": "kh_H9fvY9-g",
            "title": "99 Superhit Kannada Full Length HD Movie | Ganesh | Bhavana | TRP Entertainments",
            "url": "https://www.youtube.com/watch?v=kh_H9fvY9-g",
            "duration": 8413.0,
            "view_count": 1500147,
            "uploader": "TRP Entertainments",
            "category": "kannada",
            "thumbnail": "https://i.ytimg.com/vi/kh_H9fvY9-g/hq720.jpg"
        },
        {
            "id": "XJ_g2UUpftY",
            "title": "10ne Clasu Swalpa Masu | Kannada 4K Full Movie | Abhi | Gilli Nata | Arun | Deepu | Thiruganahalli",
            "url": "https://www.youtube.com/watch?v=XJ_g2UUpftY",
            "duration": 7567.0,
            "view_count": 3885342,
            "uploader": "SRS Media Vision | Kannada Full Movies",
            "category": "kannada",
            "thumbnail": "https://i.ytimg.com/vi/XJ_g2UUpftY/hq720.jpg"
        },
        {
            "id": "LkA7cQwTBto",
            "title": "America America | ಅಮೇರಿಕಾ ಅಮೇರಿಕಾ |Kannada Full Movie | Ramesh Aravind |Hema Panchamukhi |Love movie",
            "url": "https://www.youtube.com/watch?v=LkA7cQwTBto",
            "duration": 9128.0,
            "view_count": 5225152,
            "uploader": "SRS Media Vision | Kannada Full Movies",
            "category": "kannada",
            "thumbnail": "https://i.ytimg.com/vi/LkA7cQwTBto/hq720.jpg"
        },
        {
            "id": "dbsDSyKF_ro",
            "title": "Rathaavara ರಥಾವರ (2015) Kannada Full Movie | Sriimurali | Rachita Ram | Chandrashekhar |  Movies",
            "url": "https://www.youtube.com/watch?v=dbsDSyKF_ro",
            "duration": 7889.0,
            "view_count": 9285277,
            "uploader": "Movies Powered By Think Music",
            "category": "kannada",
            "thumbnail": "https://i.ytimg.com/vi/dbsDSyKF_ro/hq720.jpg"
        },
        {
            "id": "oEnHj_RTE3E",
            "title": "Veera Madakari Full Movie | Kiccha Sudeep Action Movie | Ragini Dwivedi | Sudeep Kannada Movies",
            "url": "https://www.youtube.com/watch?v=oEnHj_RTE3E",
            "duration": 10079.0,
            "view_count": 5958915,
            "uploader": "SGV Digital - Kannada Full Movies",
            "category": "kannada",
            "thumbnail": "https://i.ytimg.com/vi/oEnHj_RTE3E/hq720.jpg"
        },
        {
            "id": "7UGBwGznSpU",
            "title": "Suryavamsha | HD Kannada Full Movie | Dr.Vishnuvardhan | Isha Koppikar | Family Movie",
            "url": "https://www.youtube.com/watch?v=7UGBwGznSpU",
            "duration": 10498.0,
            "view_count": 72146744,
            "uploader": "SRS Media Vision | Kannada Full Movies",
            "category": "kannada",
            "thumbnail": "https://i.ytimg.com/vi/7UGBwGznSpU/hq720.jpg"
        },
        {
            "id": "YyI_2pbMmvA",
            "title": "Nayanthara Blockbuster Kannada Dubbed Full Movie 2025 || Latest Kannada Dubb Movies || Full HD",
            "url": "https://www.youtube.com/watch?v=YyI_2pbMmvA",
            "duration": 7472.0,
            "view_count": 1006592,
            "uploader": "Kannada Cinemas",
            "category": "kannada",
            "thumbnail": "https://i.ytimg.com/vi/YyI_2pbMmvA/hq720.jpg"
        },
        {
            "id": "Kep_Vc_ID74",
            "title": "ಅಯೋಮಯ (Ayomaya) Kannada Full Movie - Kannada Comedy Movie | Chikkanna, Sruthi Hariharan, Honnavalli",
            "url": "https://www.youtube.com/watch?v=Kep_Vc_ID74",
            "duration": 6685.0,
            "view_count": 1328069,
            "uploader": "Vee Kannada",
            "category": "kannada",
            "thumbnail": "https://i.ytimg.com/vi/Kep_Vc_ID74/hq720.jpg"
        },
        {
            "id": "YlL_02ijzqw",
            "title": "Odela Railway Station Latest Full Movie 4K | Hebah Patel | Vasishta N Simha | Kannada | Indian Films",
            "url": "https://www.youtube.com/watch?v=YlL_02ijzqw",
            "duration": 5161.0,
            "view_count": 1614165,
            "uploader": "Mango Indian Films",
            "category": "kannada",
            "thumbnail": "https://i.ytimg.com/vi/YlL_02ijzqw/hq720.jpg"
        },
        {
            "id": "L6aZQo97L74",
            "title": "Moggina Manasu || Kannada HD Movie || Mr & Mrs Ramachari Yash & Radhika Pandit || Romantic Movie",
            "url": "https://www.youtube.com/watch?v=L6aZQo97L74",
            "duration": 8937.0,
            "view_count": 17909647,
            "uploader": "Anand Audio",
            "category": "kannada",
            "thumbnail": "https://i.ytimg.com/vi/L6aZQo97L74/hq720.jpg"
        },
        {
            "id": "fVwh1VArx7E",
            "title": "Land Lord Kannada full movie 2026 | Duniya Vijay | Rachita Ram | Raj B Shetty |",
            "url": "https://www.youtube.com/watch?v=fVwh1VArx7E",
            "duration": 8609.0,
            "view_count": 153,
            "uploader": "spkannadamovies ",
            "category": "kannada",
            "thumbnail": "https://i.ytimg.com/vi/fVwh1VArx7E/hq720.jpg"
        },
        {
            "id": "7gLaFAhCHgU",
            "title": "Rajahuli | Kannada Full Movie | Rocking Star Yash | Meghana Raj | Chikkanna | Guru Deshpande",
            "url": "https://www.youtube.com/watch?v=7gLaFAhCHgU",
            "duration": 8951.0,
            "view_count": 10700900,
            "uploader": "Lotus Kannada Movies",
            "category": "kannada",
            "thumbnail": "https://i.ytimg.com/vi/7gLaFAhCHgU/hq720.jpg?sqp=-oaymwEcCNAFEJQDSFXyq4qpAw4IARUAAIhCGAFwAcABBg==&rs=AOn4CLAIIlKIPpUvmrknGAfGOqeighh-Uw",
            "added_date": "2026-04-16T07:31:20.878014Z",
            "source": "youtube"
        },
        {
            "id": "ZxNCzwWL_bo",
            "title": "Shabaash Baddi Magane Kannada Full Movie 4K | Pramod Shetty | Adya Priya | Samrat Shetty | Kavya",
            "url": "https://www.youtube.com/watch?v=ZxNCzwWL_bo",
            "duration": 8455.0,
            "view_count": 1279214,
            "uploader": "Kannada HD Movies",
            "category": "kannada",
            "thumbnail": "https://i.ytimg.com/vi/ZxNCzwWL_bo/hq720.jpg?sqp=-oaymwEcCNAFEJQDSFXyq4qpAw4IARUAAIhCGAFwAcABBg==&rs=AOn4CLAfJjXYT5BYPwXMknvQ3h8D2l07cQ",
            "added_date": "2026-04-16T07:31:20.076594Z",
            "source": "youtube"
        },
        {
            "id": "_DquxypFxvE",
            "title": "Tarak Kannada Full Movie | Darshan | Devaraj | Shruthi Hariharan | Shanvi Srivasthav",
            "url": "https://www.youtube.com/watch?v=_DquxypFxvE",
            "duration": 8703.0,
            "view_count": 1975938,
            "uploader": "SGV Digital - Kannada Full Movies",
            "category": "kannada",
            "thumbnail": "https://i.ytimg.com/vi/_DquxypFxvE/hq720.jpg"
        },
        {
            "id": "fFwYC_eAdU0",
            "title": "U235 kannada full movie | Vivek | SnigdhaSoppa | Devaraj | Channe Gowda C.N |Ronada Bakkesh",
            "url": "https://www.youtube.com/watch?v=fFwYC_eAdU0",
            "duration": 7172.0,
            "view_count": 263677,
            "uploader": "Channegowda CN",
            "category": "kannada",
            "thumbnail": "https://i.ytimg.com/vi/fFwYC_eAdU0/hqdefault.jpg"
        },
        {
            "id": "QWlMUCSyVEo",
            "title": "Nanna Preethiya Hudugi | Kannada Full Movie | Dhyan | Deepali | Nagathihalli Chandrashekhar",
            "url": "https://www.youtube.com/watch?v=QWlMUCSyVEo",
            "duration": 9324.0,
            "view_count": 2513504,
            "uploader": "SGV Digital - Kannada Full Movies",
            "category": "kannada",
            "thumbnail": "https://i.ytimg.com/vi/QWlMUCSyVEo/hq720.jpg"
        },
        {
            "id": "Xfc8PWoDuFM",
            "title": "Maargan - Kannada Full Movie | 4K | Vijay Antony | Leo John Paul | Fatima Vijay Antony",
            "url": "https://www.youtube.com/watch?v=Xfc8PWoDuFM",
            "duration": 7800.0,
            "view_count": 2141118,
            "uploader": "Vijay Antony",
            "category": "kannada",
            "thumbnail": "https://i.ytimg.com/vi/Xfc8PWoDuFM/hq720.jpg?sqp=-oaymwEcCNAFEJQDSFXyq4qpAw4IARUAAIhCGAFwAcABBg==&rs=AOn4CLAkFSkZPXjHnpTGIRb0J-ebVU7HQw",
            "added_date": "2026-04-16T07:31:22.480976Z",
            "source": "youtube"
        },
        {
            "id": "9Ww09_NhGz4",
            "title": "Yajamana    ಯಜಮಾನ 2019 Kannada Full HD Chaleginga Star Darshan Rashmika Mandana Kannada Full movie",
            "url": "https://www.youtube.com/watch?v=9Ww09_NhGz4",
            "duration": 9697.0,
            "view_count": 162142,
            "uploader": "DKM Digital - Kannada Full Movies",
            "category": "kannada",
            "thumbnail": "https://i.ytimg.com/vi/9Ww09_NhGz4/hq720.jpg"
        },
        {
            "id": "1iCKfBIbK-s",
            "title": "Chamak Kannada HD Movie | Golden Star Ganesh | Rashmika Mandanna | Romantic Comedy Film",
            "url": "https://www.youtube.com/watch?v=1iCKfBIbK-s",
            "duration": 8343.0,
            "view_count": 1171488,
            "uploader": "SGV Digital - Kannada Full Movies",
            "category": "kannada",
            "thumbnail": "https://i.ytimg.com/vi/1iCKfBIbK-s/hq720.jpg"
        },
        {
            "id": "icvr4vBDLMU",
            "title": "Googly - ಗೂಗ್ಲಿ |  Kannada Full HD Movie | Kannada New Movies | Yash, Kriti Kharbanda",
            "url": "https://www.youtube.com/watch?v=icvr4vBDLMU",
            "duration": 8551.0,
            "view_count": 76156950,
            "uploader": "Sri Ganesh Videos",
            "category": "kannada",
            "thumbnail": "https://i.ytimg.com/vi/icvr4vBDLMU/hq720.jpg"
        },
        {
            "id": "BwJutIBXc84",
            "title": "Rakshit Shetty, Shanvi Srivastava Kannada Full Length HD Movie | TRP Entertainments",
            "url": "https://www.youtube.com/watch?v=BwJutIBXc84",
            "duration": 10473.0,
            "view_count": 332872,
            "uploader": "TRP Entertainments",
            "category": "kannada",
            "thumbnail": "https://i.ytimg.com/vi/BwJutIBXc84/hq720.jpg"
        },
        {
            "id": "yiYMDyyGZLE",
            "title": "Kotigobba | Kannada Full Movie | Dr.Vishnuvardhan | Priyanka | Abhijit | Action Movie",
            "url": "https://www.youtube.com/watch?v=yiYMDyyGZLE",
            "duration": 10020.0,
            "view_count": 1786963,
            "uploader": "SRS Media Vision | Kannada Full Movies",
            "category": "kannada",
            "thumbnail": "https://i.ytimg.com/vi/yiYMDyyGZLE/hq720.jpg"
        },
        {
            "id": "oVssfXZambQ",
            "title": "Bul Bul - Kannada Full Movie | Darshan, Rachita Ram, Ambareesh | 2013 Blockbuster Hit Movie",
            "url": "https://www.youtube.com/watch?v=oVssfXZambQ",
            "duration": 9522.0,
            "view_count": 36512261,
            "uploader": "SGV Digital - Kannada Full Movies",
            "category": "kannada",
            "thumbnail": "https://i.ytimg.com/vi/oVssfXZambQ/hq720.jpg"
        },
        {
            "id": "ynmr70TE7sk",
            "title": "Lucky – ಲಕ್ಕಿ | Kannada Full HD Movie | Yash | Ramya | Sadhu Kokila | Sharan | Arjun Janya",
            "url": "https://www.youtube.com/watch?v=ynmr70TE7sk",
            "duration": 8823.0,
            "view_count": 23100287,
            "uploader": "Anand Audio",
            "category": "kannada",
            "thumbnail": "https://i.ytimg.com/vi/ynmr70TE7sk/hq720.jpg"
        },
        {
            "id": "gvIN8dznwm4",
            "title": "Mr & Mrs Ramachari | Kannada Full Movie | Yash | Radhika Pandit | Santhosh Ananddram",
            "url": "https://www.youtube.com/watch?v=gvIN8dznwm4",
            "duration": 9262.0,
            "view_count": 104292212,
            "uploader": "Sri Ganesh Videos",
            "category": "kannada",
            "thumbnail": "https://i.ytimg.com/vi/gvIN8dznwm4/hq720.jpg"
        },
        {
            "id": "AVm8bOy8zrE",
            "title": "Addhuri | ಅದ್ದೂರಿ | Kannada Full HD Movie | Dhruva Sarja | Radhika Pandit | AP Arjun | V.Harikrishna",
            "url": "https://www.youtube.com/watch?v=AVm8bOy8zrE",
            "duration": 7946.0,
            "view_count": 11312497,
            "uploader": "SRS Media Vision | Kannada Full Movies",
            "category": "kannada",
            "thumbnail": "https://i.ytimg.com/vi/AVm8bOy8zrE/hq720.jpg"
        },
        {
            "id": "jl2kdGIGD8c",
            "title": "Navagraha | ನವಗ್ರಹ | Kannada Full HD Movie | Challenging Star Darshan | Action Movie",
            "url": "https://www.youtube.com/watch?v=jl2kdGIGD8c",
            "duration": 8989.0,
            "view_count": 18884687,
            "uploader": "Anand Audio",
            "category": "kannada",
            "thumbnail": "https://i.ytimg.com/vi/jl2kdGIGD8c/hq720.jpg"
        },
        {
            "id": "4Pybl8dNM7M",
            "title": "Ranna - Kannada Full HD Movie | Kannada New Movies | Sudeep, Rachitha Ram, Chikkanna, Prakash Rai",
            "url": "https://www.youtube.com/watch?v=4Pybl8dNM7M",
            "duration": 9159.0,
            "view_count": 52098903,
            "uploader": "Sri Ganesh Videos",
            "category": "kannada",
            "thumbnail": "https://i.ytimg.com/vi/4Pybl8dNM7M/hq720.jpg"
        }
    ]
}