{
    "page": 71,
    "total_pages": 103,
    "total_items": 5125,
    "items": [
        {
            "id": "LIo8TdjHpwg",
            "title": "Rohan और keymon के चटपटे किस्से! | Keymon Ache",
            "url": "https://www.youtube.com/watch?v=LIo8TdjHpwg",
            "duration": 1223.0,
            "view_count": 77736,
            "uploader": "Keymon Ache",
            "category": "cartoons/keymon_ache",
            "thumbnail": "https://i.ytimg.com/vi/LIo8TdjHpwg/hq720.jpg"
        },
        {
            "id": "uVcmvBVBAZ8",
            "title": "Rohan's  Nani Is Here - Nani In Space Adventure  | Keymon Ache",
            "url": "https://www.youtube.com/watch?v=uVcmvBVBAZ8",
            "duration": 4563.0,
            "view_count": 422774,
            "uploader": "Keymon Ache",
            "category": "cartoons/keymon_ache",
            "thumbnail": "https://i.ytimg.com/vi/uVcmvBVBAZ8/hq720.jpg"
        },
        {
            "id": "tzJ_wfzzFjs",
            "title": "Keymon ने बनाया Chocolate World! | Keymon Ache",
            "url": "https://www.youtube.com/watch?v=tzJ_wfzzFjs",
            "duration": 650.0,
            "view_count": 118587,
            "uploader": "Keymon Ache",
            "category": "cartoons/keymon_ache",
            "thumbnail": "https://i.ytimg.com/vi/tzJ_wfzzFjs/hq720.jpg"
        },
        {
            "id": "0W3EBtQhyL4",
            "title": "Keymon ache episode 2 |Kidz Cartoon",
            "url": "https://www.youtube.com/watch?v=0W3EBtQhyL4",
            "duration": 723.0,
            "view_count": 23450,
            "uploader": "Kidz Cartoon",
            "category": "cartoons/keymon_ache",
            "thumbnail": "https://i.ytimg.com/vi/0W3EBtQhyL4/hq720.jpg"
        },
        {
            "id": "QaTw37OiXFE",
            "title": "Train है या Aafat की जड़! | Keymon Ache",
            "url": "https://www.youtube.com/watch?v=QaTw37OiXFE",
            "duration": 1127.0,
            "view_count": 88482,
            "uploader": "Keymon Ache",
            "category": "cartoons/keymon_ache",
            "thumbnail": "https://i.ytimg.com/vi/QaTw37OiXFE/hq720.jpg"
        },
        {
            "id": "wbDygSLhaXY",
            "title": "Keymon Ache Season 1 - Episode 55 & 56",
            "url": "https://www.youtube.com/watch?v=wbDygSLhaXY",
            "duration": 1458.0,
            "view_count": 1487366,
            "uploader": "JioHotstar Kids",
            "category": "cartoons/keymon_ache",
            "thumbnail": "https://i.ytimg.com/vi/wbDygSLhaXY/hq720.jpg"
        },
        {
            "id": "SsM_8CTXRq4",
            "title": "Keymon Ache | Rohan का Juice का धंदा हुआ बंद! 🍹💔 | Part 1 of 2",
            "url": "https://www.youtube.com/watch?v=SsM_8CTXRq4",
            "duration": 653.0,
            "view_count": 58776,
            "uploader": "Sonic Gang",
            "category": "cartoons/keymon_ache",
            "thumbnail": "https://i.ytimg.com/vi/SsM_8CTXRq4/hq720.jpg"
        },
        {
            "id": "I7mCQOyJ-vQ",
            "title": "Keymon Ache | क्या Keymon बना पाएगा Taj Mahal ? | Part 1 of 2",
            "url": "https://www.youtube.com/watch?v=I7mCQOyJ-vQ",
            "duration": 671.0,
            "view_count": 696514,
            "uploader": "Sonic Gang",
            "category": "cartoons/keymon_ache",
            "thumbnail": "https://i.ytimg.com/vi/I7mCQOyJ-vQ/hq720.jpg"
        },
        {
            "id": "1cvCnYm8hKY",
            "title": "Andheri Raat में bacche गुम नाम! | Keymon Ache",
            "url": "https://www.youtube.com/watch?v=1cvCnYm8hKY",
            "duration": 1267.0,
            "view_count": 123211,
            "uploader": "Keymon Ache",
            "category": "cartoons/keymon_ache",
            "thumbnail": "https://i.ytimg.com/vi/1cvCnYm8hKY/hq720.jpg"
        },
        {
            "id": "QnLBILv8Izk",
            "title": "Keymon बनाएगा सबको Passenger Princess 👸🏻😆! | Keymon Ache",
            "url": "https://www.youtube.com/watch?v=QnLBILv8Izk",
            "duration": 1127.0,
            "view_count": 35107,
            "uploader": "Keymon Ache",
            "category": "cartoons/keymon_ache",
            "thumbnail": "https://i.ytimg.com/vi/QnLBILv8Izk/hq720.jpg"
        },
        {
            "id": "A_XYrZjP7sI",
            "title": "Valentine's day बना Gareebi का कारण! | Keymon Ache",
            "url": "https://www.youtube.com/watch?v=A_XYrZjP7sI",
            "duration": 1215.0,
            "view_count": 33993,
            "uploader": "Keymon Ache",
            "category": "cartoons/keymon_ache",
            "thumbnail": "https://i.ytimg.com/vi/A_XYrZjP7sI/hq720.jpg"
        },
        {
            "id": "t09yZN5aruI",
            "title": "Baccha party 😂🎉 ने मचाया School में उधम! | Keymon Ache",
            "url": "https://www.youtube.com/watch?v=t09yZN5aruI",
            "duration": 1251.0,
            "view_count": 26068,
            "uploader": "Keymon Ache",
            "category": "cartoons/keymon_ache",
            "thumbnail": "https://i.ytimg.com/vi/t09yZN5aruI/hq720.jpg"
        },
        {
            "id": "d6P_jhBCosk",
            "title": "Keymon अब है एक bacche का baap 👶🏻 | Keymon Ache",
            "url": "https://www.youtube.com/watch?v=d6P_jhBCosk",
            "duration": 719.0,
            "view_count": 24314,
            "uploader": "Keymon Ache",
            "category": "cartoons/keymon_ache",
            "thumbnail": "https://i.ytimg.com/vi/d6P_jhBCosk/hq720.jpg"
        },
        {
            "id": "B6hLBAjRZ9U",
            "title": "Rohan करने आया था Mata ji की madad 😂 कर दिया Kaand! | Keymon Ache",
            "url": "https://www.youtube.com/watch?v=B6hLBAjRZ9U",
            "duration": 761.0,
            "view_count": 22066,
            "uploader": "Keymon Ache",
            "category": "cartoons/keymon_ache",
            "thumbnail": "https://i.ytimg.com/vi/B6hLBAjRZ9U/hq720.jpg"
        },
        {
            "id": "ZEVo-lQKV64",
            "title": "Keymon  की Acting का कोई जवाब नहीं! | Keymon Ache",
            "url": "https://www.youtube.com/watch?v=ZEVo-lQKV64",
            "duration": 1240.0,
            "view_count": 44271,
            "uploader": "Keymon Ache",
            "category": "cartoons/keymon_ache",
            "thumbnail": "https://i.ytimg.com/vi/ZEVo-lQKV64/hq720.jpg"
        },
        {
            "id": "tj_gEiloMtQ",
            "title": "Keymon उठा रहा है अपने magic का fyda! | Keymon Ache",
            "url": "https://www.youtube.com/watch?v=tj_gEiloMtQ",
            "duration": 1243.0,
            "view_count": 62807,
            "uploader": "Keymon Ache",
            "category": "cartoons/keymon_ache",
            "thumbnail": "https://i.ytimg.com/vi/tj_gEiloMtQ/hq720.jpg"
        },
        {
            "id": "VV82IMOrWns",
            "title": "Rohan को 😂 कभी Magic से मदद नहीं milti 😭! | Keymon Axhe",
            "url": "https://www.youtube.com/watch?v=VV82IMOrWns",
            "duration": 1309.0,
            "view_count": 7352,
            "uploader": "Keymon Ache",
            "category": "cartoons/keymon_ache",
            "thumbnail": "https://i.ytimg.com/vi/VV82IMOrWns/hq720.jpg"
        },
        {
            "id": "ma2PZAiy1dM",
            "title": "Keymon और Rohan mummy papa के ladle! | Keymon Ache",
            "url": "https://www.youtube.com/watch?v=ma2PZAiy1dM",
            "duration": 1193.0,
            "view_count": 53492,
            "uploader": "Keymon Ache",
            "category": "cartoons/keymon_ache",
            "thumbnail": "https://i.ytimg.com/vi/ma2PZAiy1dM/hq720.jpg"
        },
        {
            "id": "-vH3Sht7_2I",
            "title": "दिल तो Keymon का भी baccha है जी! | Keymon Ache",
            "url": "https://www.youtube.com/watch?v=-vH3Sht7_2I",
            "duration": 1167.0,
            "view_count": 150893,
            "uploader": "Keymon Ache",
            "category": "cartoons/keymon_ache",
            "thumbnail": "https://i.ytimg.com/vi/-vH3Sht7_2I/hq720.jpg"
        },
        {
            "id": "qCPNu9oVCUg",
            "title": "Rohan साथ ले आया Papa Ji के Binocular अपने साथ! । Keymon Ache Punjab Special",
            "url": "https://www.youtube.com/watch?v=qCPNu9oVCUg",
            "duration": 692.0,
            "view_count": 18903,
            "uploader": "Keymon Ache",
            "category": "cartoons/keymon_ache",
            "thumbnail": "https://i.ytimg.com/vi/qCPNu9oVCUg/hq720.jpg"
        },
        {
            "id": "Umr_nonkgWk",
            "title": "😂 “Dekho और ले Aao! Keymon का Crazy Binocular!” |  Keymon Ache",
            "url": "https://www.youtube.com/watch?v=Umr_nonkgWk",
            "duration": 763.0,
            "view_count": 5889,
            "uploader": "Keymon Ache",
            "category": "cartoons/keymon_ache",
            "thumbnail": "https://i.ytimg.com/vi/Umr_nonkgWk/hq720.jpg"
        },
        {
            "id": "e1QTU65sqCM",
            "title": "Keymon की Chocolate Madness ने कर दी Gadbad! | Keymon Ache",
            "url": "https://www.youtube.com/watch?v=e1QTU65sqCM",
            "duration": 712.0,
            "view_count": 15232,
            "uploader": "Keymon Ache",
            "category": "cartoons/keymon_ache",
            "thumbnail": "https://i.ytimg.com/vi/e1QTU65sqCM/hq720.jpg"
        },
        {
            "id": "bsqWgQFSivE",
            "title": "Keymon को मिला Chitthi का role! | Keymon Ache",
            "url": "https://www.youtube.com/watch?v=bsqWgQFSivE",
            "duration": 651.0,
            "view_count": 55911,
            "uploader": "Keymon Ache",
            "category": "cartoons/keymon_ache",
            "thumbnail": "https://i.ytimg.com/vi/bsqWgQFSivE/hq720.jpg"
        },
        {
            "id": "4sunuT22glg",
            "title": "Chocomon की Chocolaty 🍫 दुनिया! | Keymon Ache",
            "url": "https://www.youtube.com/watch?v=4sunuT22glg",
            "duration": 722.0,
            "view_count": 19034,
            "uploader": "Keymon Ache",
            "category": "cartoons/keymon_ache",
            "thumbnail": "https://i.ytimg.com/vi/4sunuT22glg/hq720.jpg"
        },
        {
            "id": "EFD_LbNS3zg",
            "title": "Rohan पर चढ़ा है Trendy Hairstyle का Shauq 😏! | Keymon Ache",
            "url": "https://www.youtube.com/watch?v=EFD_LbNS3zg",
            "duration": 612.0,
            "view_count": 41783,
            "uploader": "Keymon Ache",
            "category": "cartoons/keymon_ache",
            "thumbnail": "https://i.ytimg.com/vi/EFD_LbNS3zg/hq720.jpg"
        },
        {
            "id": "2DBsnyZyidk",
            "title": "Keymon का Action mode on! | Keymon Ache",
            "url": "https://www.youtube.com/watch?v=2DBsnyZyidk",
            "duration": 1299.0,
            "view_count": 113493,
            "uploader": "Keymon Ache",
            "category": "cartoons/keymon_ache",
            "thumbnail": "https://i.ytimg.com/vi/2DBsnyZyidk/hq720.jpg"
        },
        {
            "id": "HU9A8SI0Zb0",
            "title": "Buri Nazar वाले तेरा Muh kala 😎😂! | Keymon Ache",
            "url": "https://www.youtube.com/watch?v=HU9A8SI0Zb0",
            "duration": 671.0,
            "view_count": 9247,
            "uploader": "Keymon Ache",
            "category": "cartoons/keymon_ache",
            "thumbnail": "https://i.ytimg.com/vi/HU9A8SI0Zb0/hq720.jpg"
        },
        {
            "id": "LgXQnqQYiDg",
            "title": "Tendulkar Family हुई Shock के Rohan करना चाहता है Khel Singh को replace! | Keymon Ache",
            "url": "https://www.youtube.com/watch?v=LgXQnqQYiDg",
            "duration": 651.0,
            "view_count": 10124,
            "uploader": "Keymon Ache",
            "category": "cartoons/keymon_ache",
            "thumbnail": "https://i.ytimg.com/vi/LgXQnqQYiDg/hq720.jpg"
        },
        {
            "id": "JMAoMmHaCGQ",
            "title": "Keymon ने बना ही ली Mata ji के dil में जगह 💕! | Keymon Ache",
            "url": "https://www.youtube.com/watch?v=JMAoMmHaCGQ",
            "duration": 1172.0,
            "view_count": 54695,
            "uploader": "Keymon Ache",
            "category": "cartoons/keymon_ache",
            "thumbnail": "https://i.ytimg.com/vi/JMAoMmHaCGQ/hq720.jpg"
        },
        {
            "id": "jGAaAr1x3t4",
            "title": "Keymon ने बनाया School में अपना dab -daba 😈! | Keymon Ache",
            "url": "https://www.youtube.com/watch?v=jGAaAr1x3t4",
            "duration": 701.0,
            "view_count": 17105,
            "uploader": "Keymon Ache",
            "category": "cartoons/keymon_ache",
            "thumbnail": "https://i.ytimg.com/vi/jGAaAr1x3t4/hq720.jpg"
        },
        {
            "id": "t-NWD8uItgQ",
            "title": "Keymon Ache Season 1 - Episode 43",
            "url": "https://www.youtube.com/watch?v=t-NWD8uItgQ",
            "duration": 701.0,
            "view_count": 1590166,
            "uploader": "JioHotstar Kids",
            "category": "cartoons/keymon_ache",
            "thumbnail": "https://i.ytimg.com/vi/t-NWD8uItgQ/hq720.jpg"
        },
        {
            "id": "9GaEXuClLQg",
            "title": "Dadi 🧓🏻के पोते है उनको सबसे pyaare ❤! | Keymon Ache",
            "url": "https://www.youtube.com/watch?v=9GaEXuClLQg",
            "duration": 663.0,
            "view_count": 24023,
            "uploader": "Keymon Ache",
            "category": "cartoons/keymon_ache",
            "thumbnail": "https://i.ytimg.com/vi/9GaEXuClLQg/hq720.jpg"
        },
        {
            "id": "3PL1eDTc3gQ",
            "title": "Amusement में हो रहा है Dhoom Machale!  | Keymon Ache",
            "url": "https://www.youtube.com/watch?v=3PL1eDTc3gQ",
            "duration": 1125.0,
            "view_count": 85202,
            "uploader": "Keymon Ache",
            "category": "cartoons/keymon_ache",
            "thumbnail": "https://i.ytimg.com/vi/3PL1eDTc3gQ/hq720.jpg"
        },
        {
            "id": "9hwKfbinVd0",
            "title": "Rohan नहीं चाहता  खोलना अपनी Secret Dairy का Raaz! | Keymon Ache",
            "url": "https://www.youtube.com/watch?v=9hwKfbinVd0",
            "duration": 724.0,
            "view_count": 18574,
            "uploader": "Keymon Ache",
            "category": "cartoons/keymon_ache",
            "thumbnail": "https://i.ytimg.com/vi/9hwKfbinVd0/hq720.jpg"
        },
        {
            "id": "ZlKUHOJZon4",
            "title": "Keymon Ache Season 1 - Episode 81",
            "url": "https://www.youtube.com/watch?v=ZlKUHOJZon4",
            "duration": 794.0,
            "view_count": 877317,
            "uploader": "JioHotstar Kids",
            "category": "cartoons/keymon_ache",
            "thumbnail": "https://i.ytimg.com/vi/ZlKUHOJZon4/hq720.jpg"
        },
        {
            "id": "dXLjpVI3XCU",
            "title": "🎬 “Aaj Sirf Rohan Ki Marzi चलेगी — Baaki Sab Side-Ho!”। Rudra ",
            "url": "https://www.youtube.com/watch?v=dXLjpVI3XCU",
            "duration": 700.0,
            "view_count": 529615,
            "uploader": "Keymon Ache",
            "category": "cartoons/keymon_ache",
            "thumbnail": "https://i.ytimg.com/vi/dXLjpVI3XCU/hq720.jpg"
        },
        {
            "id": "41imprhURqI",
            "title": "Rohan गया अपने Bachpane में Wapas! | Keymon Ache",
            "url": "https://www.youtube.com/watch?v=41imprhURqI",
            "duration": 677.0,
            "view_count": 39053,
            "uploader": "Keymon Ache",
            "category": "cartoons/keymon_ache",
            "thumbnail": "https://i.ytimg.com/vi/41imprhURqI/hq720.jpg"
        },
        {
            "id": "9WrrmvMgQVE",
            "title": "Match जीते या करे Mini को impress आखिर क्या Choose करेगा Rohan!? | Keymon Ache",
            "url": "https://www.youtube.com/watch?v=9WrrmvMgQVE",
            "duration": 1355.0,
            "view_count": 1558,
            "uploader": "Keymon Ache",
            "category": "cartoons/keymon_ache",
            "thumbnail": "https://i.ytimg.com/vi/9WrrmvMgQVE/hq720.jpg"
        },
        {
            "id": "spWrfoaTk6M",
            "title": "Japan से आया Surprise  Rohan के लिए क्या Gift लाए Papa? 🎁😲 | Keymon Ache",
            "url": "https://www.youtube.com/watch?v=spWrfoaTk6M",
            "duration": 613.0,
            "view_count": 723,
            "uploader": "Keymon Ache",
            "category": "cartoons/keymon_ache",
            "thumbnail": "https://i.ytimg.com/vi/spWrfoaTk6M/hq720.jpg"
        },
        {
            "id": "0o4ciDmZ5so",
            "title": "KEMON ACHE SEASON 1 EPISODE 4",
            "url": "https://www.youtube.com/watch?v=0o4ciDmZ5so",
            "duration": 637.0,
            "view_count": 15071,
            "uploader": "😋KIDS MODE",
            "category": "cartoons/keymon_ache",
            "thumbnail": "https://i.ytimg.com/vi/0o4ciDmZ5so/hqdefault.jpg"
        },
        {
            "id": "x_cN116sQqY",
            "title": "“Mini और Rohan की Best Jodi ❤🫣 Magic में भी Perfect Chemistry!”",
            "url": "https://www.youtube.com/watch?v=x_cN116sQqY",
            "duration": 1386.0,
            "view_count": 36942,
            "uploader": "Keymon Ache",
            "category": "cartoons/keymon_ache",
            "thumbnail": "https://i.ytimg.com/vi/x_cN116sQqY/hq720.jpg"
        },
        {
            "id": "5bpDZ4uWD_U",
            "title": "Exam Night Marathon! 😱 Little Singham vs Sleep | Jaagte Raho | @Biganimation",
            "url": "https://www.youtube.com/watch?v=5bpDZ4uWD_U",
            "duration": 660.0,
            "view_count": 511738,
            "uploader": "Big Animation",
            "category": "cartoons/little_singham",
            "thumbnail": "https://i.ytimg.com/vi/5bpDZ4uWD_U/hq720.jpg"
        },
        {
            "id": "YanDXgb0hOw",
            "title": "Little Singham: Operation Rahat!  | Kerala Flood Rescue Mission | Pogo TV | Kids Cartoon",
            "url": "https://www.youtube.com/watch?v=YanDXgb0hOw",
            "duration": 1314.0,
            "view_count": 1514353,
            "uploader": "Big Animation",
            "category": "cartoons/little_singham",
            "thumbnail": "https://i.ytimg.com/vi/YanDXgb0hOw/hq720.jpg"
        },
        {
            "id": "cl5eN4Rq5pU",
            "title": "Bandarpur in Danger! 😱 Little Singham vs Hu Ha Hu | @Biganimation",
            "url": "https://www.youtube.com/watch?v=cl5eN4Rq5pU",
            "duration": 3842.0,
            "view_count": 2245593,
            "uploader": "Big Animation",
            "category": "cartoons/little_singham",
            "thumbnail": "https://i.ytimg.com/vi/cl5eN4Rq5pU/hq720.jpg"
        },
        {
            "id": "GViXOpjFcCY",
            "title": "Little Singham -  Kaal Ka Mahajaal  - Are You Making These 3 HUGE Mistakes ? #kidscartoon",
            "url": "https://www.youtube.com/watch?v=GViXOpjFcCY",
            "duration": 3958.0,
            "view_count": 3447368,
            "uploader": "Big Animation",
            "category": "cartoons/little_singham",
            "thumbnail": "https://i.ytimg.com/vi/GViXOpjFcCY/hq720.jpg"
        },
        {
            "id": "y61fPZxN24w",
            "title": "Little Singham😍| Mountain Mein Mahayudh!👊| Desh Ka Sipaahi: Dog Squad | Movies for Kids😍​",
            "url": "https://www.youtube.com/watch?v=y61fPZxN24w",
            "duration": 2645.0,
            "view_count": 2215154,
            "uploader": "Pogo",
            "category": "cartoons/little_singham",
            "thumbnail": "https://i.ytimg.com/vi/y61fPZxN24w/hq720.jpg"
        },
        {
            "id": "cGMrX4HFvAM",
            "title": "Little Singham’s Golden Age Squad! | Training the Brave Oldies | Pogo TV",
            "url": "https://www.youtube.com/watch?v=cGMrX4HFvAM",
            "duration": 643.0,
            "view_count": 279529,
            "uploader": "Big Animation",
            "category": "cartoons/little_singham",
            "thumbnail": "https://i.ytimg.com/vi/cGMrX4HFvAM/hq720.jpg"
        },
        {
            "id": "a3u7llHL9d4",
            "title": "Little Singham & The Super Squad ⚡ Return of Justice | Action Compilation | Pogo TV | Kids Cartoon",
            "url": "https://www.youtube.com/watch?v=a3u7llHL9d4",
            "duration": 3459.0,
            "view_count": 2187851,
            "uploader": "Big Animation",
            "category": "cartoons/little_singham",
            "thumbnail": "https://i.ytimg.com/vi/a3u7llHL9d4/hq720.jpg"
        },
        {
            "id": "zncWzpNdkk0",
            "title": "mahabali little SINGHAM new mini episode",
            "url": "https://www.youtube.com/watch?v=zncWzpNdkk0",
            "duration": 7947.0,
            "view_count": 778148,
            "uploader": "LITTLE SINGHAM",
            "category": "cartoons/little_singham",
            "thumbnail": "https://i.ytimg.com/vi/zncWzpNdkk0/hq720.jpg"
        },
        {
            "id": "tZ_9UToOxQY",
            "title": "Little Singham Ki Kahani!😍| Desh Ka Sipaahi Movie💪| Movies for Kids😍| @PogoChannel​",
            "url": "https://www.youtube.com/watch?v=tZ_9UToOxQY",
            "duration": 5922.0,
            "view_count": 10891834,
            "uploader": "Pogo",
            "category": "cartoons/little_singham",
            "thumbnail": "https://i.ytimg.com/vi/tZ_9UToOxQY/hq720.jpg"
        }
    ]
}