{
    "page": 65,
    "total_pages": 103,
    "total_items": 5125,
    "items": [
        {
            "id": "pV-ajJz7DzU",
            "title": "रोबोटिक आइलैंड की कहानी I Moral Stories for Children in Hindi |बच्चों की कहानियाँ |Cartoon for kids",
            "url": "https://www.youtube.com/watch?v=pV-ajJz7DzU",
            "duration": 1372.0,
            "view_count": 1274335,
            "uploader": "YAY! Time With Guru Bhole",
            "category": "cartoons/guru_aur_bhole",
            "thumbnail": "https://i.ytimg.com/vi/pV-ajJz7DzU/hq720.jpg"
        },
        {
            "id": "f0cBz1ayzPU",
            "title": "छोटी मर्मेड की कहानी | Moral Stories for Children in Hindi | बच्चों की कहानियाँ | Cartoon for kids",
            "url": "https://www.youtube.com/watch?v=f0cBz1ayzPU",
            "duration": 688.0,
            "view_count": 0,
            "uploader": "YAY! Time With Guru Bhole",
            "category": "cartoons/guru_aur_bhole",
            "thumbnail": "https://i.ytimg.com/vi/f0cBz1ayzPU/hq720.jpg"
        },
        {
            "id": "fLxpdkIJPE8",
            "title": "फैंसी ड्रेस का किस्सा | Guru Aur Bhole | Cartoon for Kids",
            "url": "https://www.youtube.com/watch?v=fLxpdkIJPE8",
            "duration": 1203.0,
            "view_count": 204001,
            "uploader": "YAY! Time With Guru Bhole",
            "category": "cartoons/guru_aur_bhole",
            "thumbnail": "https://i.ytimg.com/vi/fLxpdkIJPE8/hq720.jpg"
        },
        {
            "id": "L-WA8AH_XgY",
            "title": "सुरताल नगर में खतरनाक रोबोट | Moral Stories for Children | बच्चों की कहानियाँ | Cartoon for kids",
            "url": "https://www.youtube.com/watch?v=L-WA8AH_XgY",
            "duration": 2270.0,
            "view_count": 11012761,
            "uploader": "YAY! Time With Guru Bhole",
            "category": "cartoons/guru_aur_bhole",
            "thumbnail": "https://i.ytimg.com/vi/L-WA8AH_XgY/hq720.jpg"
        },
        {
            "id": "MdhQLwg7RIU",
            "title": "Bhole बना सांड | Guru Aur Bhole | Cartoon For Kids In Hindi",
            "url": "https://www.youtube.com/watch?v=MdhQLwg7RIU",
            "duration": 661.0,
            "view_count": 4841,
            "uploader": "Cartoon Dekho",
            "category": "cartoons/guru_aur_bhole",
            "thumbnail": "https://i.ytimg.com/vi/MdhQLwg7RIU/hq720.jpg"
        },
        {
            "id": "DUi9qF5jI6E",
            "title": "आसमान से ऊपर | Moral Stories for Children in Hindi | बच्चों की कहानियाँ | Cartoon for kids",
            "url": "https://www.youtube.com/watch?v=DUi9qF5jI6E",
            "duration": 741.0,
            "view_count": 4577124,
            "uploader": "YAY! Time With Guru Bhole",
            "category": "cartoons/guru_aur_bhole",
            "thumbnail": "https://i.ytimg.com/vi/DUi9qF5jI6E/hq720.jpg"
        },
        {
            "id": "Rhagm53SA4w",
            "title": "मीठे का शौकीन | Guru Aur Bhole | Cartoon for Kids",
            "url": "https://www.youtube.com/watch?v=Rhagm53SA4w",
            "duration": 691.0,
            "view_count": 32291,
            "uploader": "YAY! Time With Guru Bhole",
            "category": "cartoons/guru_aur_bhole",
            "thumbnail": "https://i.ytimg.com/vi/Rhagm53SA4w/hq720.jpg"
        },
        {
            "id": "7NgyPV0-hrg",
            "title": "Guru Aur Bhole The Gladiators | Guru Bhole Full Movie In Hindi | Kids Cartoon Movie | Moral Stories",
            "url": "https://www.youtube.com/watch?v=7NgyPV0-hrg",
            "duration": 4470.0,
            "view_count": 78083,
            "uploader": "Chillar Party",
            "category": "cartoons/guru_aur_bhole",
            "thumbnail": "https://i.ytimg.com/vi/7NgyPV0-hrg/hq720.jpg"
        },
        {
            "id": "uwt-dWWaGNk",
            "title": "Magic Noodles का जादू | Guru Aur Bhole का मजेदार Cartoon | Hindi Moral Story for Kids",
            "url": "https://www.youtube.com/watch?v=uwt-dWWaGNk",
            "duration": 715.0,
            "view_count": 90531,
            "uploader": "Cartoon Dekho",
            "category": "cartoons/guru_aur_bhole",
            "thumbnail": "https://i.ytimg.com/vi/uwt-dWWaGNk/hq720.jpg"
        },
        {
            "id": "tmDKm-MAfAc",
            "title": "विशाल एमजे | Guru Aur Bhole | Cartoon for Kids",
            "url": "https://www.youtube.com/watch?v=tmDKm-MAfAc",
            "duration": 654.0,
            "view_count": 15179,
            "uploader": "YAY! Time With Guru Bhole",
            "category": "cartoons/guru_aur_bhole",
            "thumbnail": "https://i.ytimg.com/vi/tmDKm-MAfAc/hq720.jpg"
        },
        {
            "id": "R93bzQ2yanc",
            "title": "Robotic Island की कहानी | Guru Aur Bhole Latest Episode | Kids Cartoon | Moral Stories",
            "url": "https://www.youtube.com/watch?v=R93bzQ2yanc",
            "duration": 1322.0,
            "view_count": 499523,
            "uploader": "Cartoon Dekho",
            "category": "cartoons/guru_aur_bhole",
            "thumbnail": "https://i.ytimg.com/vi/R93bzQ2yanc/hq720.jpg"
        },
        {
            "id": "b-GkQ4bYXIQ",
            "title": "Mj बना राजा | Guru Aur Bhole | Kids Cartoon",
            "url": "https://www.youtube.com/watch?v=b-GkQ4bYXIQ",
            "duration": 1276.0,
            "view_count": 197480,
            "uploader": "Cartoon Dekho",
            "category": "cartoons/guru_aur_bhole",
            "thumbnail": "https://i.ytimg.com/vi/b-GkQ4bYXIQ/hq720.jpg"
        },
        {
            "id": "ElZSyGCMM0Y",
            "title": "Guru Aur Bhole Full Movie | Guru Aur Bhole & Hawa Hawai | Latest Cartoon Movie 2025",
            "url": "https://www.youtube.com/watch?v=ElZSyGCMM0Y",
            "duration": 3645.0,
            "view_count": 67546,
            "uploader": "Cartoon Dekho",
            "category": "cartoons/guru_aur_bhole",
            "thumbnail": "https://i.ytimg.com/vi/ElZSyGCMM0Y/hq720.jpg"
        },
        {
            "id": "aLJTMUBEJt8",
            "title": "Guru का बुरा समय | Guru Aur Bhole | Cartoon For Kids In Hindi",
            "url": "https://www.youtube.com/watch?v=aLJTMUBEJt8",
            "duration": 1261.0,
            "view_count": 19379,
            "uploader": "Cartoon Dekho",
            "category": "cartoons/guru_aur_bhole",
            "thumbnail": "https://i.ytimg.com/vi/aLJTMUBEJt8/hq720.jpg"
        },
        {
            "id": "1FjrvCRpOVs",
            "title": "गुरु भोले की Noodles शॉप | Guru Aur Bhole | Cartoon For Kids In Hindi | हिंदी कार्टून",
            "url": "https://www.youtube.com/watch?v=1FjrvCRpOVs",
            "duration": 699.0,
            "view_count": 1392668,
            "uploader": "Cartoon Dekho",
            "category": "cartoons/guru_aur_bhole",
            "thumbnail": "https://i.ytimg.com/vi/1FjrvCRpOVs/hq720.jpg"
        },
        {
            "id": "ANSCsH8XD2g",
            "title": "Munnu ने किया Kicko के साथ धोखा | Kicko And Super Speedo | Smart Band | Kids Cartoon | Moral Stories",
            "url": "https://www.youtube.com/watch?v=ANSCsH8XD2g",
            "duration": 1196.0,
            "view_count": 6761,
            "uploader": "Cartoon Dekho",
            "category": "cartoons/guru_aur_bhole",
            "thumbnail": "https://i.ytimg.com/vi/ANSCsH8XD2g/hq720.jpg"
        },
        {
            "id": "GH3EDI7tVEo",
            "title": "जल युद्ध  Moral Stories for Children in Hindi | बच्चों की कहानियाँ | Cartoon for kids",
            "url": "https://www.youtube.com/watch?v=GH3EDI7tVEo",
            "duration": 1378.0,
            "view_count": 1894144,
            "uploader": "YAY! Time With Guru Bhole",
            "category": "cartoons/guru_aur_bhole",
            "thumbnail": "https://i.ytimg.com/vi/GH3EDI7tVEo/hq720.jpg"
        },
        {
            "id": "V_FzDfDlwyc",
            "title": "गुरु और भोले ने खोला अपना नया Gym | Guru Aur Bhole | Kids Cartoon In Hindi | Moral Stories For Kids",
            "url": "https://www.youtube.com/watch?v=V_FzDfDlwyc",
            "duration": 613.0,
            "view_count": 93922,
            "uploader": "Chillar Party",
            "category": "cartoons/guru_aur_bhole",
            "thumbnail": "https://i.ytimg.com/vi/V_FzDfDlwyc/hq720.jpg"
        },
        {
            "id": "4R9vFD6fekk",
            "title": "नकलची एलियन | Moral Stories for Children in Hindi | बच्चों की कहानियाँ | Cartoon for kids",
            "url": "https://www.youtube.com/watch?v=4R9vFD6fekk",
            "duration": 688.0,
            "view_count": 2050878,
            "uploader": "YAY! Time With Guru Bhole",
            "category": "cartoons/guru_aur_bhole",
            "thumbnail": "https://i.ytimg.com/vi/4R9vFD6fekk/hq720.jpg"
        },
        {
            "id": "smgLF_3UR4c",
            "title": "इच्छाधारी नाग से पंगा | Moral Stories for Children in Hindi | बच्चों की कहानियाँ | Kids Videos",
            "url": "https://www.youtube.com/watch?v=smgLF_3UR4c",
            "duration": 1416.0,
            "view_count": 53689934,
            "uploader": "YAY! Time With Guru Bhole",
            "category": "cartoons/guru_aur_bhole",
            "thumbnail": "https://i.ytimg.com/vi/smgLF_3UR4c/hq720.jpg"
        },
        {
            "id": "43JHtQMp2h0",
            "title": "एलियन प्रीमियर लीग | Guru Aur Bhole | Cartoon for Kids",
            "url": "https://www.youtube.com/watch?v=43JHtQMp2h0",
            "duration": 1266.0,
            "view_count": 21666,
            "uploader": "YAY! Time With Guru Bhole",
            "category": "cartoons/guru_aur_bhole",
            "thumbnail": "https://i.ytimg.com/vi/43JHtQMp2h0/hq720.jpg"
        },
        {
            "id": "1ee7ItA1tN4",
            "title": "पेटू भोले का खेल | Moral Stories for Children in Hindi | बच्चों की कहानियाँ | Cartoon for kids",
            "url": "https://www.youtube.com/watch?v=1ee7ItA1tN4",
            "duration": 665.0,
            "view_count": 726867,
            "uploader": "YAY! Time With Guru Bhole",
            "category": "cartoons/guru_aur_bhole",
            "thumbnail": "https://i.ytimg.com/vi/1ee7ItA1tN4/hq720.jpg"
        },
        {
            "id": "usw0MtU4xh4",
            "title": "गुरु भोले को मिला बोलने वाला Furniture | Guru Aur Bhole | Kids Cartoon | Moral Stories For Kids",
            "url": "https://www.youtube.com/watch?v=usw0MtU4xh4",
            "duration": 738.0,
            "view_count": 95281,
            "uploader": "Chillar Party",
            "category": "cartoons/guru_aur_bhole",
            "thumbnail": "https://i.ytimg.com/vi/usw0MtU4xh4/hq720.jpg"
        },
        {
            "id": "F1fPoiGLogU",
            "title": "चमत्कारी टूथपेस्ट | Moral Stories for Children in Hindi | बच्चों की कहानियाँ | Cartoon for kids",
            "url": "https://www.youtube.com/watch?v=F1fPoiGLogU",
            "duration": 2038.0,
            "view_count": 39045250,
            "uploader": "YAY! Time With Guru Bhole",
            "category": "cartoons/guru_aur_bhole",
            "thumbnail": "https://i.ytimg.com/vi/F1fPoiGLogU/hq720.jpg"
        },
        {
            "id": "eYjMOxYwBu8",
            "title": "भोले ने पहना सपना सच कर दे 3D Chasma | Guru Aur Bhole | Kids Cartoon | Moral Stories For Kids",
            "url": "https://www.youtube.com/watch?v=eYjMOxYwBu8",
            "duration": 652.0,
            "view_count": 38198,
            "uploader": "Cartoon Dekho",
            "category": "cartoons/guru_aur_bhole",
            "thumbnail": "https://i.ytimg.com/vi/eYjMOxYwBu8/hq720.jpg"
        },
        {
            "id": "9u9EkVlfEdY",
            "title": "दानव राजा का अकाल मंढ पुतला|Moral Stories for Children in Hindi |बच्चों की कहानियाँ|Cartoon for kids",
            "url": "https://www.youtube.com/watch?v=9u9EkVlfEdY",
            "duration": 709.0,
            "view_count": 1020888,
            "uploader": "YAY! Time With Guru Bhole",
            "category": "cartoons/guru_aur_bhole",
            "thumbnail": "https://i.ytimg.com/vi/9u9EkVlfEdY/hq720.jpg"
        },
        {
            "id": "hQkN-oN2C8s",
            "title": "चुंबकीय गुरु की सुपरपावर | Guru Aur Bhole | Cartoon for Kids",
            "url": "https://www.youtube.com/watch?v=hQkN-oN2C8s",
            "duration": 607.0,
            "view_count": 298953,
            "uploader": "YAY! Time With Guru Bhole",
            "category": "cartoons/guru_aur_bhole",
            "thumbnail": "https://i.ytimg.com/vi/hQkN-oN2C8s/hq720.jpg"
        },
        {
            "id": "v82QZzOUVrw",
            "title": "KL Singer के गाने सुनकर सुरताल नगर के लोग सो गए | Guru Aur Bhole | Kids Cartoon | Moral Stories Kids",
            "url": "https://www.youtube.com/watch?v=v82QZzOUVrw",
            "duration": 684.0,
            "view_count": 98198,
            "uploader": "Chillar Party",
            "category": "cartoons/guru_aur_bhole",
            "thumbnail": "https://i.ytimg.com/vi/v82QZzOUVrw/hq720.jpg"
        },
        {
            "id": "b5F-NzzlJJ8",
            "title": "लड़ाकू विमान | Guru Aur Bhole | Cartoon for Kids",
            "url": "https://www.youtube.com/watch?v=b5F-NzzlJJ8",
            "duration": 665.0,
            "view_count": 43109,
            "uploader": "YAY! Time With Guru Bhole",
            "category": "cartoons/guru_aur_bhole",
            "thumbnail": "https://i.ytimg.com/vi/b5F-NzzlJJ8/hq720.jpg"
        },
        {
            "id": "yuW-lpcrP2A",
            "title": "भोले बना सुपर जीरो | Guru Aur Bhole | Cartoon for Kids",
            "url": "https://www.youtube.com/watch?v=yuW-lpcrP2A",
            "duration": 654.0,
            "view_count": 148009,
            "uploader": "YAY! Time With Guru Bhole",
            "category": "cartoons/guru_aur_bhole",
            "thumbnail": "https://i.ytimg.com/vi/yuW-lpcrP2A/hq720.jpg"
        },
        {
            "id": "ryk-BS6FhLU",
            "title": "Chatora Chatpat Ki Bhookamp Bhook! | Guru Aur Bhole | Cartoon for Kids",
            "url": "https://www.youtube.com/watch?v=ryk-BS6FhLU",
            "duration": 683.0,
            "view_count": 284522,
            "uploader": "YAY! Time With Guru Bhole",
            "category": "cartoons/guru_aur_bhole",
            "thumbnail": "https://i.ytimg.com/vi/ryk-BS6FhLU/hq720.jpg"
        },
        {
            "id": "sfXHkmdG_Ms",
            "title": "Guru को मिली Magical Book | Guru Aur Bhole Cartoon | Full Episode in Hindi 2025",
            "url": "https://www.youtube.com/watch?v=sfXHkmdG_Ms",
            "duration": 638.0,
            "view_count": 5928,
            "uploader": "Cartoon Dekho",
            "category": "cartoons/guru_aur_bhole",
            "thumbnail": "https://i.ytimg.com/vi/sfXHkmdG_Ms/hq720.jpg"
        },
        {
            "id": "NYWymc4-jlU",
            "title": "जादुई किताब की कहानी | Guru Aur Bhole | Cartoon for Kids",
            "url": "https://www.youtube.com/watch?v=NYWymc4-jlU",
            "duration": 653.0,
            "view_count": 90895,
            "uploader": "YAY! Time With Guru Bhole",
            "category": "cartoons/guru_aur_bhole",
            "thumbnail": "https://i.ytimg.com/vi/NYWymc4-jlU/hq720.jpg"
        },
        {
            "id": "9FBRVIG7S3o",
            "title": "कॉपी कैट का किस्सा  Moral Stories for Children in Hindi | बच्चों की कहानियाँ | Cartoon for kids",
            "url": "https://www.youtube.com/watch?v=9FBRVIG7S3o",
            "duration": 644.0,
            "view_count": 1538599,
            "uploader": "YAY! Time With Guru Bhole",
            "category": "cartoons/guru_aur_bhole",
            "thumbnail": "https://i.ytimg.com/vi/9FBRVIG7S3o/hq720.jpg"
        },
        {
            "id": "9t_q9e83JdE",
            "title": "गुरु-भोले बने कागज़ | Moral Stories for Children in Hindi | बच्चों की कहानियाँ | Cartoon for kids",
            "url": "https://www.youtube.com/watch?v=9t_q9e83JdE",
            "duration": 2008.0,
            "view_count": 3180094,
            "uploader": "YAY! Time With Guru Bhole",
            "category": "cartoons/guru_aur_bhole",
            "thumbnail": "https://i.ytimg.com/vi/9t_q9e83JdE/hq720.jpg"
        },
        {
            "id": "s9YPWyUlItw",
            "title": "गुरु भोले बने वैज्ञानिक | Moral Stories for Children in Hindi| बच्चों की कहानियाँ | Cartoon for kids",
            "url": "https://www.youtube.com/watch?v=s9YPWyUlItw",
            "duration": 693.0,
            "view_count": 92610,
            "uploader": "YAY! Time With Guru Bhole",
            "category": "cartoons/guru_aur_bhole",
            "thumbnail": "https://i.ytimg.com/vi/s9YPWyUlItw/hq720.jpg"
        },
        {
            "id": "etPiCfDx2Xk",
            "title": "Bhole बना Fire Truck | Guru Aur Bhole | Moral Stories For Kdis | Hindi Cartoon",
            "url": "https://www.youtube.com/watch?v=etPiCfDx2Xk",
            "duration": 1332.0,
            "view_count": 7950,
            "uploader": "Cartoon Dekho",
            "category": "cartoons/guru_aur_bhole",
            "thumbnail": "https://i.ytimg.com/vi/etPiCfDx2Xk/hq720.jpg"
        },
        {
            "id": "Xfg9KCCU9LU",
            "title": "सलमान ख़ान बनेगा भोले | Moral Stories for Children in Hindi | बच्चों की कहानियाँ | Kids Videos",
            "url": "https://www.youtube.com/watch?v=Xfg9KCCU9LU",
            "duration": 1336.0,
            "view_count": 8904387,
            "uploader": "YAY! Time With Guru Bhole",
            "category": "cartoons/guru_aur_bhole",
            "thumbnail": "https://i.ytimg.com/vi/Xfg9KCCU9LU/hq720.jpg"
        },
        {
            "id": "FxfWSjLQi4Y",
            "title": "Bhole blew and froze the Major | Guru Aur Bhole | Kids Cartoon | Moral Stories For Kids",
            "url": "https://www.youtube.com/watch?v=FxfWSjLQi4Y",
            "duration": 695.0,
            "view_count": 148,
            "uploader": "Kids Galaxy",
            "category": "cartoons/guru_aur_bhole",
            "thumbnail": "https://i.ytimg.com/vi/FxfWSjLQi4Y/hq720.jpg"
        },
        {
            "id": "ag4eLPCQ7-4",
            "title": "विशाल M.J. का किस्सा | Moral Stories for Children in Hindi | बच्चों की कहानियाँ | Cartoon for kids",
            "url": "https://www.youtube.com/watch?v=ag4eLPCQ7-4",
            "duration": 697.0,
            "view_count": 1350853,
            "uploader": "YAY! Time With Guru Bhole",
            "category": "cartoons/guru_aur_bhole",
            "thumbnail": "https://i.ytimg.com/vi/ag4eLPCQ7-4/hq720.jpg"
        },
        {
            "id": "cLGf_1pzVAs",
            "title": "भोले बना रिमोट से चलने वाला रोबोट | Guru Aur Bhole | Kids Cartoon | Moral Stories For Kids",
            "url": "https://www.youtube.com/watch?v=cLGf_1pzVAs",
            "duration": 673.0,
            "view_count": 127961,
            "uploader": "Chillar Party",
            "category": "cartoons/guru_aur_bhole",
            "thumbnail": "https://i.ytimg.com/vi/cLGf_1pzVAs/hq720.jpg"
        },
        {
            "id": "DhtA9in4q9U",
            "title": "रेस्टोरेंट का झोल I Hunny Bunny Jholmaal Cartoons for kids Hindi | बच्चो की कहानियां | Sony YAY!",
            "url": "https://www.youtube.com/watch?v=DhtA9in4q9U",
            "duration": 667.0,
            "view_count": 9569379,
            "uploader": "Sony YAY!",
            "category": "cartoons/honey_bunny_ka_jholmaal",
            "thumbnail": "https://i.ytimg.com/vi/DhtA9in4q9U/hq720.jpg"
        },
        {
            "id": "zDBl0wwMfOk",
            "title": "बैंक डकैती का किस्सा  I Hunny Bunny Jholmaal Cartoons for kids Hindi | बच्चो की कहानियां | Sony YAY!",
            "url": "https://www.youtube.com/watch?v=zDBl0wwMfOk",
            "duration": 2800.0,
            "view_count": 11999997,
            "uploader": "Sony YAY!",
            "category": "cartoons/honey_bunny_ka_jholmaal",
            "thumbnail": "https://i.ytimg.com/vi/zDBl0wwMfOk/hq720.jpg"
        },
        {
            "id": "1012lYN5sC4",
            "title": "मिशन डॉल्फिन बचाव I Hunny Bunny Jholmaal Cartoons for kids Hindi|बच्चो की कहानियां |Sony YAY!",
            "url": "https://www.youtube.com/watch?v=1012lYN5sC4",
            "duration": 2904.0,
            "view_count": 9145244,
            "uploader": "Sony YAY!",
            "category": "cartoons/honey_bunny_ka_jholmaal",
            "thumbnail": "https://i.ytimg.com/vi/1012lYN5sC4/hq720.jpg"
        },
        {
            "id": "Mmh370Aw2JU",
            "title": "चतुर सियार का दिमाग | Funny videos for kids in Hindi | बच्चों की कहानियाँ | हनी बन्नी का झोलमाल",
            "url": "https://www.youtube.com/watch?v=Mmh370Aw2JU",
            "duration": 688.0,
            "view_count": 2523312,
            "uploader": "Sony YAY!",
            "category": "cartoons/honey_bunny_ka_jholmaal",
            "thumbnail": "https://i.ytimg.com/vi/Mmh370Aw2JU/hq720.jpg"
        },
        {
            "id": "KqRXdYGtY4c",
            "title": "मसखरा पिल्ला की कहानी  I Hunny Bunny Jholmaal Cartoons for kids Hindi|बच्चो की कहानियां |Sony YAY!",
            "url": "https://www.youtube.com/watch?v=KqRXdYGtY4c",
            "duration": 1398.0,
            "view_count": 7407717,
            "uploader": "Sony YAY!",
            "category": "cartoons/honey_bunny_ka_jholmaal",
            "thumbnail": "https://i.ytimg.com/vi/KqRXdYGtY4c/hq720.jpg"
        },
        {
            "id": "B-3mgRU1gtc",
            "title": "एयरलाइन्स का झोल | Funny videos for kids in Hindi | बच्चों की कहानियाँ | हनी बन्नी का झोलमाल",
            "url": "https://www.youtube.com/watch?v=B-3mgRU1gtc",
            "duration": 695.0,
            "view_count": 13397972,
            "uploader": "Sony YAY!",
            "category": "cartoons/honey_bunny_ka_jholmaal",
            "thumbnail": "https://i.ytimg.com/vi/B-3mgRU1gtc/hq720.jpg"
        },
        {
            "id": "RIhB5bhHnrI",
            "title": "बॉबी बॉक्सर या बॉबी देओल?I Hunny Bunny Jholmaal Cartoons for kids Hindi|बच्चो की कहानियां |Sony YAY!",
            "url": "https://www.youtube.com/watch?v=RIhB5bhHnrI",
            "duration": 602.0,
            "view_count": 2675854,
            "uploader": "Sony YAY!",
            "category": "cartoons/honey_bunny_ka_jholmaal",
            "thumbnail": "https://i.ytimg.com/vi/RIhB5bhHnrI/hq720.jpg"
        },
        {
            "id": "6e0Ijm7QQo0",
            "title": "गलत पता I Hunny Bunny Jholmaal Cartoons for kids Hindi|बच्चो की कहानियां |Sony YAY!",
            "url": "https://www.youtube.com/watch?v=6e0Ijm7QQo0",
            "duration": 707.0,
            "view_count": 2130303,
            "uploader": "Sony YAY!",
            "category": "cartoons/honey_bunny_ka_jholmaal",
            "thumbnail": "https://i.ytimg.com/vi/6e0Ijm7QQo0/hq720.jpg"
        },
        {
            "id": "ItGl0t0tvhw",
            "title": "खन्ना का उधर I Hunny Bunny Jholmaal Cartoons for kids Hindi|बच्चो की कहानियां |Sony YAY!",
            "url": "https://www.youtube.com/watch?v=ItGl0t0tvhw",
            "duration": 1427.0,
            "view_count": 2449315,
            "uploader": "Sony YAY!",
            "category": "cartoons/honey_bunny_ka_jholmaal",
            "thumbnail": "https://i.ytimg.com/vi/ItGl0t0tvhw/hq720.jpg"
        }
    ]
}