{
    "page": 47,
    "total_pages": 103,
    "total_items": 5125,
    "items": [
        {
            "id": "TSixQEV96G0",
            "title": "STRIKER (స్ట్రైకర్) | Vijay Thalapathy, Samantha New Telugu Action Crime Thriller | Full HD Movie",
            "url": "https://www.youtube.com/watch?v=TSixQEV96G0",
            "duration": 8445.0,
            "view_count": 463553,
            "uploader": "Andhra Talkies",
            "category": "telugu",
            "thumbnail": "https://i.ytimg.com/vi/TSixQEV96G0/hq720.jpg"
        },
        {
            "id": "QQrHA9q86gA",
            "title": "Priyuralu Pilichindi Full Movie Telugu | Ajith, Tabu, Aishwarya Rai, Mammootty, Abbas | TeluguOne",
            "url": "https://www.youtube.com/watch?v=QQrHA9q86gA",
            "duration": 9413.0,
            "view_count": 398599,
            "uploader": "TeluguOne",
            "category": "telugu",
            "thumbnail": "https://i.ytimg.com/vi/QQrHA9q86gA/hq720.jpg"
        },
        {
            "id": "YdeuLQ7U5ak",
            "title": "MAD Full 1080p HD Movie In Telugu | Telugu Best Comedy Movie | 2025 New Comedy Movies In Telugu |",
            "url": "https://www.youtube.com/watch?v=YdeuLQ7U5ak",
            "duration": 6418.0,
            "view_count": 6292914,
            "uploader": "T Facts Telugu",
            "category": "telugu",
            "thumbnail": "https://i.ytimg.com/vi/YdeuLQ7U5ak/hqdefault.jpg"
        },
        {
            "id": "FAs0k7FjjX8",
            "title": "Sye Telugu Full Movie | Nitin,Genilia, SS Rajamouli | Sri Balaji Video",
            "url": "https://www.youtube.com/watch?v=FAs0k7FjjX8",
            "duration": 9801.0,
            "view_count": 34412534,
            "uploader": "Sri Balaji Full Movies",
            "category": "telugu",
            "thumbnail": "https://i.ytimg.com/vi/FAs0k7FjjX8/hq720.jpg"
        },
        {
            "id": "57aRCU25oDo",
            "title": "Lakshyam Telugu Full HD Movie | Gopichand | Anushka Shetty | Ganesh Videos",
            "url": "https://www.youtube.com/watch?v=57aRCU25oDo",
            "duration": 9480.0,
            "view_count": 93553,
            "uploader": "Ganesh Videos",
            "category": "telugu",
            "thumbnail": "https://i.ytimg.com/vi/57aRCU25oDo/hq720.jpg"
        },
        {
            "id": "zPvlNwPoL1c",
            "title": "Aadivaram Adavallaku Selavu Telugu Full Movie 4K | Sivaji | Brahmanandam | Suhasini | Kovai Sarala",
            "url": "https://www.youtube.com/watch?v=zPvlNwPoL1c",
            "duration": 7906.0,
            "view_count": 1018001,
            "uploader": "Mango Telugu Cinema",
            "category": "telugu",
            "thumbnail": "https://i.ytimg.com/vi/zPvlNwPoL1c/hq720.jpg"
        },
        {
            "id": "BKbpwgTCLnY",
            "title": "Aarya 2 Telugu Full Movie | 4K | Allu Arjun | Kajal Agarwal | Navadeep | Ganesh Videos",
            "url": "https://www.youtube.com/watch?v=BKbpwgTCLnY",
            "duration": 7303.0,
            "view_count": 3927217,
            "uploader": "Ganesh Videos",
            "category": "telugu",
            "thumbnail": "https://i.ytimg.com/vi/BKbpwgTCLnY/hq720.jpg"
        },
        {
            "id": "NLop_vrkTrw",
            "title": "Policeodu Telugu Full Movie | Thalapathy Vijay | Samantha | Amy Jackson | GV Prakash | Atlee | TFN",
            "url": "https://www.youtube.com/watch?v=NLop_vrkTrw",
            "duration": 9443.0,
            "view_count": 5942254,
            "uploader": "Telugu Filmnagar",
            "category": "telugu",
            "thumbnail": "https://i.ytimg.com/vi/NLop_vrkTrw/hq720.jpg"
        },
        {
            "id": "7gGVflvsjVk",
            "title": "Akhil Akkineni Blockbuster Spy Action Thriller HD Telugu Movie || Mammootty || @JordaarMovies ​",
            "url": "https://www.youtube.com/watch?v=7gGVflvsjVk",
            "duration": 8214.0,
            "view_count": 546324,
            "uploader": "Jordaar Movies",
            "category": "telugu",
            "thumbnail": "https://i.ytimg.com/vi/7gGVflvsjVk/hq720.jpg"
        },
        {
            "id": "cPARx8XRal4",
            "title": "Love Guru Telugu Full Movie |Vijay Antony | Mirnalini Ravi | Vinayak Vaithianathan",
            "url": "https://www.youtube.com/watch?v=cPARx8XRal4",
            "duration": 8647.0,
            "view_count": 4544893,
            "uploader": "Vijay Antony",
            "category": "telugu",
            "thumbnail": "https://i.ytimg.com/vi/cPARx8XRal4/hq720.jpg"
        },
        {
            "id": "i3bE_hqrLCc",
            "title": "VIP 2 Telugu Full Movie 4K | Dhanush | Amala Paul | Anirudh Ravichander | Telugu Action Comedy",
            "url": "https://www.youtube.com/watch?v=i3bE_hqrLCc",
            "duration": 7870.0,
            "view_count": 2074861,
            "uploader": "Mango Telugu Cinema",
            "category": "telugu",
            "thumbnail": "https://i.ytimg.com/vi/i3bE_hqrLCc/hq720.jpg"
        },
        {
            "id": "Df7STZvA9pI",
            "title": "Taxiwaala - Telugu Full Movie - Vijay Deverakonda, Priyanka Jawalkar, Malavika Nair, Madhunandan",
            "url": "https://www.youtube.com/watch?v=Df7STZvA9pI",
            "duration": 7894.0,
            "view_count": 4970982,
            "uploader": "Zee Movies Telugu",
            "category": "telugu",
            "thumbnail": "https://i.ytimg.com/vi/Df7STZvA9pI/hqdefault.jpg"
        },
        {
            "id": "nUKVN1bTcQQ",
            "title": "Naga Shaurya & Yukti Thareja Super Hit Telugu Full Movie || Kotha Cinema",
            "url": "https://www.youtube.com/watch?v=nUKVN1bTcQQ",
            "duration": 6283.0,
            "view_count": 1165677,
            "uploader": "Kotha Cinema",
            "category": "telugu",
            "thumbnail": "https://i.ytimg.com/vi/nUKVN1bTcQQ/hq720.jpg"
        },
        {
            "id": "k72-yfLzOGI",
            "title": "Jaya Janaki Nayaka Full Movie - Bellamkonda Sai Srinivas ll Rakul Preet Singh ll Boyapati Srinu",
            "url": "https://www.youtube.com/watch?v=k72-yfLzOGI",
            "duration": 8842.0,
            "view_count": 39091837,
            "uploader": "BhavaniHD Movies",
            "category": "telugu",
            "thumbnail": "https://i.ytimg.com/vi/k72-yfLzOGI/hq720.jpg"
        },
        {
            "id": "wYHSMTx6beA",
            "title": "Gautam SSC Telugu Full Movie | Telugu Full Movies | Navadeep, Sindhu Tolani, Madhu Sharma",
            "url": "https://www.youtube.com/watch?v=wYHSMTx6beA",
            "duration": 8809.0,
            "view_count": 7738559,
            "uploader": "Sri Balaji Full Movies",
            "category": "telugu",
            "thumbnail": "https://i.ytimg.com/vi/wYHSMTx6beA/hq720.jpg"
        },
        {
            "id": "wtUd8c11Zgg",
            "title": "Marakathamani Telugu Full Movie | Aadhi Pinisetty Old Super Hit Comedy/Thriller Movie | Matinee Show",
            "url": "https://www.youtube.com/watch?v=wtUd8c11Zgg",
            "duration": 7656.0,
            "view_count": 71984,
            "uploader": "Matinee Show",
            "category": "telugu",
            "thumbnail": "https://i.ytimg.com/vi/wtUd8c11Zgg/hq720.jpg"
        },
        {
            "id": "OhzRnSR-VMo",
            "title": "Raja Telugu Full HD Movie | Venkatesh | Soundarya | Ganesh Videos",
            "url": "https://www.youtube.com/watch?v=OhzRnSR-VMo",
            "duration": 9857.0,
            "view_count": 5479602,
            "uploader": "Ganesh Videos",
            "category": "telugu",
            "thumbnail": "https://i.ytimg.com/vi/OhzRnSR-VMo/hq720.jpg"
        },
        {
            "id": "hUfWXkN9Ung",
            "title": "Achari America Yatra - Telugu Full Movie - Manchu Vishnu, Pragya Jaiswal, Brahmanandam",
            "url": "https://www.youtube.com/watch?v=hUfWXkN9Ung",
            "duration": 6930.0,
            "view_count": 2053473,
            "uploader": "Zee Movies Telugu",
            "category": "telugu",
            "thumbnail": "https://i.ytimg.com/vi/hUfWXkN9Ung/hqdefault.jpg"
        },
        {
            "id": "_VfT8vhF-VY",
            "title": "Rangasthalam Telugu Full Movie | Ram Charan | Samantha | Aadhi Pinisetty",
            "url": "https://www.youtube.com/watch?v=_VfT8vhF-VY",
            "duration": 10421.0,
            "view_count": 281930,
            "uploader": "Silver Screen Films ",
            "category": "telugu",
            "thumbnail": "https://i.ytimg.com/vi/_VfT8vhF-VY/hqdefault.jpg?sqp=-oaymwEcCOADEI4CSFXyq4qpAw4IARUAAIhCGAFwAcABBg==&rs=AOn4CLCtUjV5s7RCTllF0HourkonaFmPCQ",
            "added_date": "2026-04-16T07:31:15.023612Z",
            "source": "youtube"
        },
        {
            "id": "exCSfzrQfqw",
            "title": "MOKSHAPATAM Full Movie Telugu 🔥 | Mind-Blowing Thriller | Climax Twist You Won’t Expect 😱",
            "url": "https://www.youtube.com/watch?v=exCSfzrQfqw",
            "duration": 7675.0,
            "view_count": 158114,
            "uploader": "Tollywood Box Office",
            "category": "telugu",
            "thumbnail": "https://i.ytimg.com/vi/exCSfzrQfqw/hq720.jpg?sqp=-oaymwEcCNAFEJQDSFXyq4qpAw4IARUAAIhCGAFwAcABBg==&rs=AOn4CLANr37G3TXzRp1ADXcpPo_HF9p8qg",
            "added_date": "2026-04-16T07:31:16.826702Z",
            "source": "youtube"
        },
        {
            "id": "7zg1OwMpE_0",
            "title": "Pressure Cooker Latest Telugu Full Movie 4K | Sai Ronak | Preethi Asrani | Rahul Ramakrishna | TFN",
            "url": "https://www.youtube.com/watch?v=7zg1OwMpE_0",
            "duration": 7443.0,
            "view_count": 78838,
            "uploader": "Telugu Filmnagar",
            "category": "telugu",
            "thumbnail": "https://i.ytimg.com/vi/7zg1OwMpE_0/hq720.jpg"
        },
        {
            "id": "PWSeiOBCah0",
            "title": "Ayyo Devuda Telugu Full Movie 4K | Ashok Selvan | Vijay Sethupathi | Ritika Singh | Vani Bhojan",
            "url": "https://www.youtube.com/watch?v=PWSeiOBCah0",
            "duration": 9164.0,
            "view_count": 173536,
            "uploader": "Telugu Filmnagar",
            "category": "telugu",
            "thumbnail": "https://i.ytimg.com/vi/PWSeiOBCah0/hq720.jpg"
        },
        {
            "id": "3iQtnZsgtn8",
            "title": "రిటర్న్ ఆఫ్ ది డ్రాగన్ ! Pradeep Ranganathan Telugu Full HD Comedy/Drama Movie || @JordaarMovies ​",
            "url": "https://www.youtube.com/watch?v=3iQtnZsgtn8",
            "duration": 7541.0,
            "view_count": 2076758,
            "uploader": "Jordaar Movies",
            "category": "telugu",
            "thumbnail": "https://i.ytimg.com/vi/3iQtnZsgtn8/hq720.jpg"
        },
        {
            "id": "BY4cAFBEaOU",
            "title": "Vijay Thalapathy And Ileana Full Movie | Telugu Movies | Tollywood Prime Cinema",
            "url": "https://www.youtube.com/watch?v=BY4cAFBEaOU",
            "duration": 9315.0,
            "view_count": 88065,
            "uploader": "Tollywood Prime Cinema",
            "category": "telugu",
            "thumbnail": "https://i.ytimg.com/vi/BY4cAFBEaOU/hq720.jpg"
        },
        {
            "id": "Aaq3AQ7aot4",
            "title": "Manasantha Nuvve Telugu Full HD Movie | Uday Kiran | Reema Sen | @ThappakaChudandi9",
            "url": "https://www.youtube.com/watch?v=Aaq3AQ7aot4",
            "duration": 9314.0,
            "view_count": 1257830,
            "uploader": "Thappaka Chudandi",
            "category": "telugu",
            "thumbnail": "https://i.ytimg.com/vi/Aaq3AQ7aot4/hq720.jpg"
        },
        {
            "id": "rnkQ9BYCSJY",
            "title": "Viswasam Ajith Kumar Super Hit Action/Crime Drama Telugu Full HD Movie || Nayanthara || Matinee Show",
            "url": "https://www.youtube.com/watch?v=rnkQ9BYCSJY",
            "duration": 7454.0,
            "view_count": 4930665,
            "uploader": "Matinee Show",
            "category": "telugu",
            "thumbnail": "https://i.ytimg.com/vi/rnkQ9BYCSJY/hq720.jpg"
        },
        {
            "id": "aacmLpcnASs",
            "title": "Rewind (2024) Telugu Full Movie | Unpredictable Climax | A Film by Kalyan Chakravarthy",
            "url": "https://www.youtube.com/watch?v=aacmLpcnASs",
            "duration": 8004.0,
            "view_count": 151217,
            "uploader": "NRI Dreamz",
            "category": "telugu",
            "thumbnail": "https://i.ytimg.com/vi/aacmLpcnASs/hq720.jpg?sqp=-oaymwEcCNAFEJQDSFXyq4qpAw4IARUAAIhCGAFwAcABBg==&rs=AOn4CLCzhxLFsU1yOkt-ssyCcC7p71sphg",
            "added_date": "2026-04-16T07:31:14.422518Z",
            "source": "youtube"
        },
        {
            "id": "BPzMIHgxKkc",
            "title": "Akhil Akkineni Sakshi Vaidya & Mammootty's Spy Action Entertainer Telugu Full Movie HD",
            "url": "https://www.youtube.com/watch?v=BPzMIHgxKkc",
            "duration": 8277.0,
            "view_count": 32455,
            "uploader": "ICON ENTERTAINMENTS",
            "category": "telugu",
            "thumbnail": "https://i.ytimg.com/vi/BPzMIHgxKkc/hq720.jpg"
        },
        {
            "id": "K08KrKTGb5A",
            "title": "Vishwak Sen Telugu HD Action Thriller Movie | Mechanic Rocky | Meenakshi Chaudhary |@JordaarMovies ​",
            "url": "https://www.youtube.com/watch?v=K08KrKTGb5A",
            "duration": 7949.0,
            "view_count": 527250,
            "uploader": "Jordaar Movies",
            "category": "telugu",
            "thumbnail": "https://i.ytimg.com/vi/K08KrKTGb5A/hq720.jpg"
        },
        {
            "id": "aZf3bVeAlQ4",
            "title": "Padmavat Historical Telugu dubbed Full Length HD Movie | Ranveer Singh | Deepika | Shahid Kapoor",
            "url": "https://www.youtube.com/watch?v=aZf3bVeAlQ4",
            "duration": 9205.0,
            "view_count": 88967,
            "uploader": "Tollywood Box Office",
            "category": "telugu",
            "thumbnail": "https://i.ytimg.com/vi/aZf3bVeAlQ4/hq720.jpg?sqp=-oaymwEcCNAFEJQDSFXyq4qpAw4IARUAAIhCGAFwAcABBg==&rs=AOn4CLBc7pKRu_U8OYCgNhLeQHsgMWzupQ",
            "added_date": "2026-04-16T07:31:15.223945Z",
            "source": "youtube"
        },
        {
            "id": "HTjU85ythqU",
            "title": "OG Full Movie (Telugu) 4K Ultra HD | Pawan Kalyan | Emraan Hashmi | Action Gangster Movie | Telugu",
            "url": "https://www.youtube.com/watch?v=HTjU85ythqU",
            "duration": 9044.0,
            "view_count": 10251,
            "uploader": "HRKTALKS",
            "category": "telugu",
            "thumbnail": "https://i.ytimg.com/vi/HTjU85ythqU/hq720.jpg"
        },
        {
            "id": "Q0n2W7sy-qw",
            "title": "బాంబ్ | 4K FULL MOVIE  | BOMB 4K FULL MOVIE TELUGU | Arjun Das|  Shivathmika | Kaali Venkat | Nassar",
            "url": "https://www.youtube.com/watch?v=Q0n2W7sy-qw",
            "duration": 7857.0,
            "view_count": 34811,
            "uploader": "API Indian Movie Hub",
            "category": "telugu",
            "thumbnail": "https://i.ytimg.com/vi/Q0n2W7sy-qw/hq720.jpg"
        },
        {
            "id": "S72jxRKRYAw",
            "title": "Jakkanna Telugu Full Movie 4K | Sunil | Mannara Chopra | Sapthagiri | Telugu New Movies | TFN",
            "url": "https://www.youtube.com/watch?v=S72jxRKRYAw",
            "duration": 8195.0,
            "view_count": 2724252,
            "uploader": "Telugu Filmnagar",
            "category": "telugu",
            "thumbnail": "https://i.ytimg.com/vi/S72jxRKRYAw/hq720.jpg"
        },
        {
            "id": "6BpDlDhX3go",
            "title": "Race Gurram Telugu Full Movie 4K | Allu Arjun | Shruti Hassan | Brahmanandam | Mango Telugu Cinema",
            "url": "https://www.youtube.com/watch?v=6BpDlDhX3go",
            "duration": 9719.0,
            "view_count": 2468002,
            "uploader": "Mango Telugu Cinema",
            "category": "telugu",
            "thumbnail": "https://i.ytimg.com/vi/6BpDlDhX3go/hq720.jpg"
        },
        {
            "id": "ea6XMV6ET4U",
            "title": "Psychological Thriller Telugu Full Movie | Kali | Prince Cecil | Naresh Agastya | Neha Krishnan",
            "url": "https://www.youtube.com/watch?v=ea6XMV6ET4U",
            "duration": 5231.0,
            "view_count": 819700,
            "uploader": "BhavaniHD Movies",
            "category": "telugu",
            "thumbnail": "https://i.ytimg.com/vi/ea6XMV6ET4U/hq720.jpg"
        },
        {
            "id": "T_B8WkaLf-w",
            "title": "Naga Chaitanya, Krithi Shetty & Nagarjuna Telugu Super Hit Full Movie | Telugu Movies | Kotha Cinema",
            "url": "https://www.youtube.com/watch?v=T_B8WkaLf-w",
            "duration": 7085.0,
            "view_count": 7329437,
            "uploader": "Kotha Cinema",
            "category": "telugu",
            "thumbnail": "https://i.ytimg.com/vi/T_B8WkaLf-w/hq720.jpg"
        },
        {
            "id": "D3_T4Yks7Ns",
            "title": "Yam Hain Hum - याम हैं हम - Episode 1 - 15th December 2014",
            "url": "https://www.youtube.com/watch?v=D3_T4Yks7Ns",
            "duration": 1327.0,
            "view_count": 2900677,
            "uploader": "Sony SAB",
            "category": "yam_hain_hum",
            "thumbnail": "https://i.ytimg.com/vi/D3_T4Yks7Ns/hqdefault.jpg?sqp=-oaymwEcCOADEI4CSFXyq4qpAw4IARUAAIhCGAFwAcABBg==&rs=AOn4CLA4i2dXZwZvQYQOhFrQ1LJZY4qShQ",
            "added_date": "2026-04-16T07:31:45.913666Z",
            "source": "youtube"
        },
        {
            "id": "Dq3ziLcBao4",
            "title": "पृथ्वी लोक पर आकर यमराज बने बावर्ची | यम है हम | Yam Hain Ham | Episode 18",
            "url": "https://www.youtube.com/watch?v=Dq3ziLcBao4",
            "duration": 1152.0,
            "view_count": 114586,
            "uploader": "भोला भंडारी",
            "category": "yam_hain_hum",
            "thumbnail": "https://i.ytimg.com/vi/Dq3ziLcBao4/hq720.jpg"
        },
        {
            "id": "WBBgMxCjy0s",
            "title": "यमराज जी ने Cylinder के अंदर की Gas क्यों निकाल ली ? | Yam hain Hum | यम है हम | Latest Episode",
            "url": "https://www.youtube.com/watch?v=WBBgMxCjy0s",
            "duration": 2330.0,
            "view_count": 132138,
            "uploader": "Classic TV Serials",
            "category": "yam_hain_hum",
            "thumbnail": "https://i.ytimg.com/vi/WBBgMxCjy0s/hq720.jpg"
        },
        {
            "id": "xIBXMEsyb1Y",
            "title": "बब्लू ने लिया यमराज का गदा उठाने का चैलेंज | Yam Hain Hum | यम हैं हम | Full Episode 17",
            "url": "https://www.youtube.com/watch?v=xIBXMEsyb1Y",
            "duration": 1210.0,
            "view_count": 977823,
            "uploader": "Indian Drama",
            "category": "yam_hain_hum",
            "thumbnail": "https://i.ytimg.com/vi/xIBXMEsyb1Y/hq720.jpg?sqp=-oaymwEcCNAFEJQDSFXyq4qpAw4IARUAAIhCGAFwAcABBg==&rs=AOn4CLC2mCp14k4lBJ3bSuRFzQfWD0v8Kw",
            "added_date": "2026-04-16T07:31:46.915429Z",
            "source": "youtube"
        },
        {
            "id": "luHqHAciBEw",
            "title": "सड़क पर छोले भटूरे देखकर चित्रगुप्त के मुँह में आ गया पानी | यम हैं हम | Yam Hain Ham | Episode 262",
            "url": "https://www.youtube.com/watch?v=luHqHAciBEw",
            "duration": 1219.0,
            "view_count": 669285,
            "uploader": "भोला भंडारी",
            "category": "yam_hain_hum",
            "thumbnail": "https://i.ytimg.com/vi/luHqHAciBEw/hq720.jpg"
        },
        {
            "id": "9CNhT43WsXE",
            "title": "चोरों की बेहोशी की दवाई को पानी की तरह पी गए यमराज | यम है हम | Yam Hain Ham | Episode 5",
            "url": "https://www.youtube.com/watch?v=9CNhT43WsXE",
            "duration": 1220.0,
            "view_count": 595001,
            "uploader": "भोला भंडारी",
            "category": "yam_hain_hum",
            "thumbnail": "https://i.ytimg.com/vi/9CNhT43WsXE/hq720.jpg"
        },
        {
            "id": "XE3dHkr0zEo",
            "title": "What did Yamraj come to buy at the electronics shop? | Yam Hai Hum | Yam Hain Ham | Episode 76",
            "url": "https://www.youtube.com/watch?v=XE3dHkr0zEo",
            "duration": 1214.0,
            "view_count": 71159,
            "uploader": "भोला भंडारी",
            "category": "yam_hain_hum",
            "thumbnail": "https://i.ytimg.com/vi/XE3dHkr0zEo/hq720.jpg"
        },
        {
            "id": "C_v05M1W0v8",
            "title": "यम है हम हम है यम | वेंकटेश कादर खान असरानी रवीना टंडन की सुपरहिट कॉमेडी फिल्म | TAQDEERWALA (1995)",
            "url": "https://www.youtube.com/watch?v=C_v05M1W0v8",
            "duration": 9115.0,
            "view_count": 90789,
            "uploader": "Deewana Films",
            "category": "yam_hain_hum",
            "thumbnail": "https://i.ytimg.com/vi/C_v05M1W0v8/hq720.jpg?sqp=-oaymwEcCNAFEJQDSFXyq4qpAw4IARUAAIhCGAFwAcABBg==&rs=AOn4CLAdMvYwBOipw4C7qNuCdDARBb0UCQ",
            "added_date": "2026-04-16T07:31:45.713339Z",
            "source": "youtube"
        },
        {
            "id": "WJsW9DFVjBc",
            "title": "यमराज के साथ पहली बार किसी इंसान ने देखी यमलोक की सैर | Yam Hain Hum | Best Comedy | New Episode",
            "url": "https://www.youtube.com/watch?v=WJsW9DFVjBc",
            "duration": 3465.0,
            "view_count": 87044,
            "uploader": "Desi Drama",
            "category": "yam_hain_hum",
            "thumbnail": "https://i.ytimg.com/vi/WJsW9DFVjBc/hq720.jpg"
        },
        {
            "id": "p4zD2GEZF7k",
            "title": "Yam Hain Hum - यम हैं हम - Episode 18 - 28th September, 2017",
            "url": "https://www.youtube.com/watch?v=p4zD2GEZF7k",
            "duration": 1297.0,
            "view_count": 400920,
            "uploader": "Sony PAL",
            "category": "yam_hain_hum",
            "thumbnail": "https://i.ytimg.com/vi/p4zD2GEZF7k/hq720.jpg"
        },
        {
            "id": "INXAOEUONYQ",
            "title": "Yam Hain Hum - यम हैं हम - Episode 17 - 28th September, 2017",
            "url": "https://www.youtube.com/watch?v=INXAOEUONYQ",
            "duration": 1299.0,
            "view_count": 332814,
            "uploader": "Sony PAL",
            "category": "yam_hain_hum",
            "thumbnail": "https://i.ytimg.com/vi/INXAOEUONYQ/hq720.jpg"
        },
        {
            "id": "6dPMLuJBfM4",
            "title": "Yamraj and Chitragupta set out to sell Bablu Papa on the road. We are Yam. Episode 276",
            "url": "https://www.youtube.com/watch?v=6dPMLuJBfM4",
            "duration": 1166.0,
            "view_count": 306065,
            "uploader": "भोला भंडारी",
            "category": "yam_hain_hum",
            "thumbnail": "https://i.ytimg.com/vi/6dPMLuJBfM4/hq720.jpg?sqp=-oaymwEcCNAFEJQDSFXyq4qpAw4IARUAAIhCGAFwAcABBg==&rs=AOn4CLDTK6-Bl8WFiDJhvC8MNBk97N-lxg",
            "added_date": "2026-04-16T07:31:46.314323Z",
            "source": "youtube"
        },
        {
            "id": "F_vNWbVXY94",
            "title": "Yam Hain Hum - यम हैं हम - Episode 76 - 8th November, 2017",
            "url": "https://www.youtube.com/watch?v=F_vNWbVXY94",
            "duration": 1262.0,
            "view_count": 453958,
            "uploader": "Sony PAL",
            "category": "yam_hain_hum",
            "thumbnail": "https://i.ytimg.com/vi/F_vNWbVXY94/hq720.jpg"
        },
        {
            "id": "Vhf3xG9QsuY",
            "title": "जब Yamraj और Chitragupt ने पहिली बार बनाया खाना  | Yam Hai Ham | Full Episode HD | Episode 45",
            "url": "https://www.youtube.com/watch?v=Vhf3xG9QsuY",
            "duration": 1236.0,
            "view_count": 276562,
            "uploader": "Classic TV Serials",
            "category": "yam_hain_hum",
            "thumbnail": "https://i.ytimg.com/vi/Vhf3xG9QsuY/hq720.jpg?sqp=-oaymwEcCNAFEJQDSFXyq4qpAw4IARUAAIhCGAFwAcABBg==&rs=AOn4CLAguC3zC9PgwK9UpKLPVGVHhWUlCQ",
            "added_date": "2026-04-16T07:31:46.113995Z",
            "source": "youtube"
        }
    ]
}