{
    "page": 91,
    "total_pages": 103,
    "total_items": 5125,
    "items": [
        {
            "id": "YDQL2Z7MgL4",
            "title": "बच्चे Kidnap, School Shocked – Mr. Mechtician Exposed | Rudra | रुद्र",
            "url": "https://www.youtube.com/watch?v=YDQL2Z7MgL4",
            "duration": 3642.0,
            "view_count": 299507,
            "uploader": "Sonic Gang",
            "category": "cartoons/rudra",
            "thumbnail": "https://i.ytimg.com/vi/YDQL2Z7MgL4/hq720.jpg"
        },
        {
            "id": "JaWUbf4c_QU",
            "title": "Rudra | रुद्र | Full Episode 335 | जादू भरे Cube में फसा Jai Singh!",
            "url": "https://www.youtube.com/watch?v=JaWUbf4c_QU",
            "duration": 1328.0,
            "view_count": 2416297,
            "uploader": "JioHotstar Kids",
            "category": "cartoons/rudra",
            "thumbnail": "https://i.ytimg.com/vi/JaWUbf4c_QU/hq720.jpg"
        },
        {
            "id": "UWLtNQvQxSc",
            "title": "Students are about to perform Holika Dahen at Advance Magic School! | Rudra",
            "url": "https://www.youtube.com/watch?v=UWLtNQvQxSc",
            "duration": 1278.0,
            "view_count": 15782,
            "uploader": "Magic of Rudra",
            "category": "cartoons/rudra",
            "thumbnail": "https://i.ytimg.com/vi/UWLtNQvQxSc/hq720.jpg"
        },
        {
            "id": "D30ubavfCYc",
            "title": "Birthday of Rudra | रुद्र का जन्मदिन | रुद्र | Rudra Ep 144 | Rudra Tv Show 2025 Hindi",
            "url": "https://www.youtube.com/watch?v=D30ubavfCYc",
            "duration": 1247.0,
            "view_count": 1982358,
            "uploader": "Rudra TV Show 2026 Hindi",
            "category": "cartoons/rudra",
            "thumbnail": "https://i.ytimg.com/vi/D30ubavfCYc/hq720.jpg"
        },
        {
            "id": "i-nLmWNcA58",
            "title": "Jai Singh को क़ैद किया Marina के Father ने | Rudra | रुद्र",
            "url": "https://www.youtube.com/watch?v=i-nLmWNcA58",
            "duration": 3694.0,
            "view_count": 5743354,
            "uploader": "JioHotstar Kids",
            "category": "cartoons/rudra",
            "thumbnail": "https://i.ytimg.com/vi/i-nLmWNcA58/hq720.jpg"
        },
        {
            "id": "yXNr6rZyZU8",
            "title": "Rudra - Dawn of the Dangerous Dongreela!",
            "url": "https://www.youtube.com/watch?v=yXNr6rZyZU8",
            "duration": 5050.0,
            "view_count": 4177978,
            "uploader": "Sonic Gang",
            "category": "cartoons/rudra",
            "thumbnail": "https://i.ytimg.com/vi/yXNr6rZyZU8/hq720.jpg"
        },
        {
            "id": "hEBERtGzi2I",
            "title": "Rudra vs. Shakaal - Shakaal का खौफनाक होटल एडवेंचर | Rudra | रुद्र",
            "url": "https://www.youtube.com/watch?v=hEBERtGzi2I",
            "duration": 3736.0,
            "view_count": 3212342,
            "uploader": "Sonic Gang",
            "category": "cartoons/rudra",
            "thumbnail": "https://i.ytimg.com/vi/hEBERtGzi2I/hq720.jpg"
        },
        {
            "id": "oxV9TEdt6vg",
            "title": "The Gateway Of The Lost World | Rudra: Boom Chik Chik Boom| Full Episode",
            "url": "https://www.youtube.com/watch?v=oxV9TEdt6vg",
            "duration": 1346.0,
            "view_count": 3182,
            "uploader": "Sonic Gang English",
            "category": "cartoons/rudra",
            "thumbnail": "https://i.ytimg.com/vi/oxV9TEdt6vg/hq720.jpg"
        },
        {
            "id": "6jp4G-pbx24",
            "title": "Rura Ko Looser Banane Ke Liye Jolie Jody Aur Shakleena Ki Team-Up | Rudra | Kiddie Land",
            "url": "https://www.youtube.com/watch?v=6jp4G-pbx24",
            "duration": 1201.0,
            "view_count": 982033,
            "uploader": "Kiddie Land",
            "category": "cartoons/rudra",
            "thumbnail": "https://i.ytimg.com/vi/6jp4G-pbx24/hq720.jpg"
        },
        {
            "id": "YHwH4KbYDPI",
            "title": "Rudra | रुद्र | The Magical Wings Of Shakal | Episode 20 | Voot Kids",
            "url": "https://www.youtube.com/watch?v=YHwH4KbYDPI",
            "duration": 1258.0,
            "view_count": 11521039,
            "uploader": "JioHotstar Kids",
            "category": "cartoons/rudra",
            "thumbnail": "https://i.ytimg.com/vi/YHwH4KbYDPI/hqdefault.jpg"
        },
        {
            "id": "Eos3EdmuJr8",
            "title": "👶 \"Bachpan Mode On – Shakal बन गया Naughty Kid!\" | Rudra",
            "url": "https://www.youtube.com/watch?v=Eos3EdmuJr8",
            "duration": 1406.0,
            "view_count": 598490,
            "uploader": "Rudra",
            "category": "cartoons/rudra",
            "thumbnail": "https://i.ytimg.com/vi/Eos3EdmuJr8/hq720.jpg"
        },
        {
            "id": "ip_GVtN3-KU",
            "title": "Rudra | रुद्र | Season 3 | Full Episode | Shoe Thief",
            "url": "https://www.youtube.com/watch?v=ip_GVtN3-KU",
            "duration": 1409.0,
            "view_count": 525960,
            "uploader": "Sonic Gang",
            "category": "cartoons/rudra",
            "thumbnail": "https://i.ytimg.com/vi/ip_GVtN3-KU/hq720.jpg"
        },
        {
            "id": "jEd7ivcZntM",
            "title": "Rudra के school में होने वाली है Race! | Rudra",
            "url": "https://www.youtube.com/watch?v=jEd7ivcZntM",
            "duration": 1238.0,
            "view_count": 1817453,
            "uploader": "ToonTime TV",
            "category": "cartoons/rudra",
            "thumbnail": "https://i.ytimg.com/vi/jEd7ivcZntM/hq720.jpg"
        },
        {
            "id": "II7dbOzf9qw",
            "title": "Rudra | रुद्र | Season 3 | Full Episode | The Block Magician",
            "url": "https://www.youtube.com/watch?v=II7dbOzf9qw",
            "duration": 1323.0,
            "view_count": 1645930,
            "uploader": "Sonic Gang",
            "category": "cartoons/rudra",
            "thumbnail": "https://i.ytimg.com/vi/II7dbOzf9qw/hq720.jpg"
        },
        {
            "id": "MKAi8yKvNDk",
            "title": "Rudra Cartoon Ep 44 | Rudra Ep 44 | Competition Magic | Action Cartoon Story | Kiddo Toons Hindi",
            "url": "https://www.youtube.com/watch?v=MKAi8yKvNDk",
            "duration": 1316.0,
            "view_count": 1813693,
            "uploader": "Kiddo Toons Hindi – Kids TV Shows in Hindi",
            "category": "cartoons/rudra",
            "thumbnail": "https://i.ytimg.com/vi/MKAi8yKvNDk/hq720.jpg"
        },
        {
            "id": "jRnm2ohO9zs",
            "title": "Rudra और Jai Singh अटके रह गए जादू की दुनिया में! | Rudra | रुद्र",
            "url": "https://www.youtube.com/watch?v=jRnm2ohO9zs",
            "duration": 3811.0,
            "view_count": 961254,
            "uploader": "Sonic Gang",
            "category": "cartoons/rudra",
            "thumbnail": "https://i.ytimg.com/vi/jRnm2ohO9zs/hq720.jpg"
        },
        {
            "id": "TkkOejD8Yko",
            "title": "Rudra की बहादुरी: Electro Lady से School की रक्षा! ⚡🏫 | Rudra | रुद्र | Full Episode 338",
            "url": "https://www.youtube.com/watch?v=TkkOejD8Yko",
            "duration": 1281.0,
            "view_count": 1928329,
            "uploader": "JioHotstar Kids",
            "category": "cartoons/rudra",
            "thumbnail": "https://i.ytimg.com/vi/TkkOejD8Yko/hq720.jpg"
        },
        {
            "id": "TEbH37ToTes",
            "title": "Rudra | रुद्र | The Lord Of Darkness | Episode 22",
            "url": "https://www.youtube.com/watch?v=TEbH37ToTes",
            "duration": 1267.0,
            "view_count": 8754817,
            "uploader": "JioHotstar Kids",
            "category": "cartoons/rudra",
            "thumbnail": "https://i.ytimg.com/vi/TEbH37ToTes/hq720.jpg"
        },
        {
            "id": "zgpTsS3IdT4",
            "title": "Sun City और Kaal City के बीच Annual Magic competition! | Rudra",
            "url": "https://www.youtube.com/watch?v=zgpTsS3IdT4",
            "duration": 1379.0,
            "view_count": 1909107,
            "uploader": "Rudra",
            "category": "cartoons/rudra",
            "thumbnail": "https://i.ytimg.com/vi/zgpTsS3IdT4/hq720.jpg"
        },
        {
            "id": "DCHogFr4UZY",
            "title": "Nightmare Magician का जादू और Rudra की टक्कर! | Rudra | रुद्र",
            "url": "https://www.youtube.com/watch?v=DCHogFr4UZY",
            "duration": 3772.0,
            "view_count": 2764546,
            "uploader": "Sonic Gang",
            "category": "cartoons/rudra",
            "thumbnail": "https://i.ytimg.com/vi/DCHogFr4UZY/hq720.jpg"
        },
        {
            "id": "yNgbgF8U9co",
            "title": "Rudra या Akkad Bakkad, Clash of Titans! | Rudra | रुद्र",
            "url": "https://www.youtube.com/watch?v=yNgbgF8U9co",
            "duration": 3742.0,
            "view_count": 1282755,
            "uploader": "Sonic Gang",
            "category": "cartoons/rudra",
            "thumbnail": "https://i.ytimg.com/vi/yNgbgF8U9co/hq720.jpg"
        },
        {
            "id": "d2p7DPKiXNk",
            "title": "Rudra | रुद्र | Episode 1 Part-1 | Trap of Shakaal",
            "url": "https://www.youtube.com/watch?v=d2p7DPKiXNk",
            "duration": 618.0,
            "view_count": 36519216,
            "uploader": "Sonic Gang",
            "category": "cartoons/rudra",
            "thumbnail": "https://i.ytimg.com/vi/d2p7DPKiXNk/hq720.jpg"
        },
        {
            "id": "hfEh2gNJWmA",
            "title": "Rudra | रुद्र | Season 5 | Full Episode | Shakaal ने चली चाल, किया Rudra का Magic उल्टा!",
            "url": "https://www.youtube.com/watch?v=hfEh2gNJWmA",
            "duration": 1239.0,
            "view_count": 980696,
            "uploader": "Sonic Gang",
            "category": "cartoons/rudra",
            "thumbnail": "https://i.ytimg.com/vi/hfEh2gNJWmA/hq720.jpg"
        },
        {
            "id": "IjpVDTsQv6k",
            "title": "Rudra का सामना होगा Flying Pigmies से! | Rudra",
            "url": "https://www.youtube.com/watch?v=IjpVDTsQv6k",
            "duration": 1341.0,
            "view_count": 2333983,
            "uploader": "Rudra",
            "category": "cartoons/rudra",
            "thumbnail": "https://i.ytimg.com/vi/IjpVDTsQv6k/hq720.jpg"
        },
        {
            "id": "PMi3MvtKsto",
            "title": "Palace In Space | Rudra: Boom Chik Chik Boom| Full Episode",
            "url": "https://www.youtube.com/watch?v=PMi3MvtKsto",
            "duration": 1284.0,
            "view_count": 801,
            "uploader": "Sonic Gang English",
            "category": "cartoons/rudra",
            "thumbnail": "https://i.ytimg.com/vi/PMi3MvtKsto/hq720.jpg"
        },
        {
            "id": "qQG3WKxrFQ0",
            "title": "Rudra की मुश्किल बढ़ी... Balloon Festival में magic भी बेकार | Rudra | रुद्र",
            "url": "https://www.youtube.com/watch?v=qQG3WKxrFQ0",
            "duration": 3809.0,
            "view_count": 6122,
            "uploader": "Sonic Gang",
            "category": "cartoons/rudra",
            "thumbnail": "https://i.ytimg.com/vi/qQG3WKxrFQ0/hq720.jpg"
        },
        {
            "id": "1QzFs_Va1ss",
            "title": "\"Joyland Summer Camp बना Rudra का Magic Land!\" | Rudra",
            "url": "https://www.youtube.com/watch?v=1QzFs_Va1ss",
            "duration": 1354.0,
            "view_count": 4331301,
            "uploader": "Rudra",
            "category": "cartoons/rudra",
            "thumbnail": "https://i.ytimg.com/vi/1QzFs_Va1ss/hq720.jpg"
        },
        {
            "id": "TXmYgjgb6vw",
            "title": "Magical Mirror Vs Rudra | रुद्र | Rudra Action Cartoon Special Ep | Rudra Tv Show 2025 Hindi",
            "url": "https://www.youtube.com/watch?v=TXmYgjgb6vw",
            "duration": 2745.0,
            "view_count": 523085,
            "uploader": "Rudra TV Show 2026 Hindi",
            "category": "cartoons/rudra",
            "thumbnail": "https://i.ytimg.com/vi/TXmYgjgb6vw/hq720.jpg"
        },
        {
            "id": "CPTZjK4Q1To",
            "title": "Shakaal का Hotel... जहां से निकलना नामुमकिन है! | Rudra | रुद्र",
            "url": "https://www.youtube.com/watch?v=CPTZjK4Q1To",
            "duration": 3747.0,
            "view_count": 411773,
            "uploader": "Sonic Gang",
            "category": "cartoons/rudra",
            "thumbnail": "https://i.ytimg.com/vi/CPTZjK4Q1To/hq720.jpg"
        },
        {
            "id": "8Kd38CTx644",
            "title": "Shakaal Aur Shakaleena Ki Chaal Rudra Ko Kara Badhaal | Rudra | Kiddie Land",
            "url": "https://www.youtube.com/watch?v=8Kd38CTx644",
            "duration": 1294.0,
            "view_count": 651048,
            "uploader": "Kiddie Land",
            "category": "cartoons/rudra",
            "thumbnail": "https://i.ytimg.com/vi/8Kd38CTx644/hq720.jpg"
        },
        {
            "id": "wWGJNY_HFTI",
            "title": "Rudra | रुद्र | Season 3 | Full Episode | Bubble Gum Magician",
            "url": "https://www.youtube.com/watch?v=wWGJNY_HFTI",
            "duration": 1295.0,
            "view_count": 224797,
            "uploader": "Sonic Gang",
            "category": "cartoons/rudra",
            "thumbnail": "https://i.ytimg.com/vi/wWGJNY_HFTI/hq720.jpg"
        },
        {
            "id": "JxeBSp5X_QA",
            "title": "Rudra | रुद्र | Full Episode 02 | Paper Toys",
            "url": "https://www.youtube.com/watch?v=JxeBSp5X_QA",
            "duration": 1188.0,
            "view_count": 1951932,
            "uploader": "JioHotstar Kids",
            "category": "cartoons/rudra",
            "thumbnail": "https://i.ytimg.com/vi/JxeBSp5X_QA/hq720.jpg"
        },
        {
            "id": "OGwC0lLNLd0",
            "title": "Rudra | रुद्र | Full Episode 01 | Shakaal का मायाजाल!",
            "url": "https://www.youtube.com/watch?v=OGwC0lLNLd0",
            "duration": 1345.0,
            "view_count": 820931,
            "uploader": "JioHotstar Kids",
            "category": "cartoons/rudra",
            "thumbnail": "https://i.ytimg.com/vi/OGwC0lLNLd0/hq720.jpg"
        },
        {
            "id": "T8etS3uWdYU",
            "title": "Rudra vs The Show Man | Rudra: Boom Chik Chik Boom| Full Episode",
            "url": "https://www.youtube.com/watch?v=T8etS3uWdYU",
            "duration": 1381.0,
            "view_count": 297,
            "uploader": "Sonic Gang English",
            "category": "cartoons/rudra",
            "thumbnail": "https://i.ytimg.com/vi/T8etS3uWdYU/hq720.jpg"
        },
        {
            "id": "JnW0y1-LESI",
            "title": "Rudra: The Forgotten World | Full Movie #kids #animation",
            "url": "https://www.youtube.com/watch?v=JnW0y1-LESI",
            "duration": 5077.0,
            "view_count": 9780867,
            "uploader": "Sonic Gang",
            "category": "cartoons/rudra",
            "thumbnail": "https://i.ytimg.com/vi/JnW0y1-LESI/hq720.jpg"
        },
        {
            "id": "N3qJXYs9Hck",
            "title": "Akhir क्या है Mystery teacher का Raaz! | Rudra",
            "url": "https://www.youtube.com/watch?v=N3qJXYs9Hck",
            "duration": 1378.0,
            "view_count": 1153228,
            "uploader": "ToonTime TV",
            "category": "cartoons/rudra",
            "thumbnail": "https://i.ytimg.com/vi/N3qJXYs9Hck/hq720.jpg"
        },
        {
            "id": "zz77sqMPBrE",
            "title": "Rangeela's mistake puts Marina in big trouble! | Rudra Rajaathan Special",
            "url": "https://www.youtube.com/watch?v=zz77sqMPBrE",
            "duration": 1403.0,
            "view_count": 697010,
            "uploader": "Rudra",
            "category": "cartoons/rudra",
            "thumbnail": "https://i.ytimg.com/vi/zz77sqMPBrE/hq720.jpg"
        },
        {
            "id": "_9BYYOTvZ1s",
            "title": "Rudra | रुद्र | Season 3 | Full Episode | Shakal Memory Loss",
            "url": "https://www.youtube.com/watch?v=_9BYYOTvZ1s",
            "duration": 1350.0,
            "view_count": 872817,
            "uploader": "Sonic Gang",
            "category": "cartoons/rudra",
            "thumbnail": "https://i.ytimg.com/vi/_9BYYOTvZ1s/hq720.jpg"
        },
        {
            "id": "_zjOioFFx9g",
            "title": "Rudra - Season 1 - Full Episode 14",
            "url": "https://www.youtube.com/watch?v=_zjOioFFx9g",
            "duration": 1367.0,
            "view_count": 44693117,
            "uploader": "JioHotstar Kids",
            "category": "cartoons/rudra",
            "thumbnail": "https://i.ytimg.com/vi/_zjOioFFx9g/hq720.jpg"
        },
        {
            "id": "-r9AKhz6UVE",
            "title": "Shakaal's Trick | Rudra: Boom Chik Chik Boom | Full Episode",
            "url": "https://www.youtube.com/watch?v=-r9AKhz6UVE",
            "duration": 1385.0,
            "view_count": 1101,
            "uploader": "Sonic Gang English",
            "category": "cartoons/rudra",
            "thumbnail": "https://i.ytimg.com/vi/-r9AKhz6UVE/hq720.jpg"
        },
        {
            "id": "SNQO-ivvb1g",
            "title": "Rudra का refusal बना Jenny & Jody का magical game | Rudra | रुद्र",
            "url": "https://www.youtube.com/watch?v=SNQO-ivvb1g",
            "duration": 4107.0,
            "view_count": 6673,
            "uploader": "Sonic Gang",
            "category": "cartoons/rudra",
            "thumbnail": "https://i.ytimg.com/vi/SNQO-ivvb1g/hq720.jpg"
        },
        {
            "id": "P1zUuRoEqEc",
            "title": "चट्टान सिंह का कहर! | Rudra | रुद्र | Full Episode 03",
            "url": "https://www.youtube.com/watch?v=P1zUuRoEqEc",
            "duration": 1130.0,
            "view_count": 675527,
            "uploader": "JioHotstar Kids",
            "category": "cartoons/rudra",
            "thumbnail": "https://i.ytimg.com/vi/P1zUuRoEqEc/hq720.jpg"
        },
        {
            "id": "PakiqC4sqqY",
            "title": "Band बना Superhit 🎵 जब Rudra ने संभाली कमान! | Rudra | रुद्र",
            "url": "https://www.youtube.com/watch?v=PakiqC4sqqY",
            "duration": 3652.0,
            "view_count": 1233707,
            "uploader": "Sonic Gang",
            "category": "cartoons/rudra",
            "thumbnail": "https://i.ytimg.com/vi/PakiqC4sqqY/hq720.jpg"
        },
        {
            "id": "iQFOPjjnCwE",
            "title": "भूख, जादू और Chaos… Little Magician is Back | Rudra | रुद्र",
            "url": "https://www.youtube.com/watch?v=iQFOPjjnCwE",
            "duration": 1237.0,
            "view_count": 251154,
            "uploader": "Sonic Gang",
            "category": "cartoons/rudra",
            "thumbnail": "https://i.ytimg.com/vi/iQFOPjjnCwE/hq720.jpg"
        },
        {
            "id": "769NM3JyMhA",
            "title": "Myra को हुई Jealousy Marina से | Rudra | रुद्र",
            "url": "https://www.youtube.com/watch?v=769NM3JyMhA",
            "duration": 3688.0,
            "view_count": 5634387,
            "uploader": "Sonic Gang",
            "category": "cartoons/rudra",
            "thumbnail": "https://i.ytimg.com/vi/769NM3JyMhA/hq720.jpg"
        },
        {
            "id": "OS8m34bWb2M",
            "title": "Dangerous Green Magician Vs Rudra Fight | खतरनाक हरा जादूगर | Rudra Full Ep | Rudra Show 2025 Hindi",
            "url": "https://www.youtube.com/watch?v=OS8m34bWb2M",
            "duration": 3780.0,
            "view_count": 1268907,
            "uploader": "Rudra TV Show 2026 Hindi",
            "category": "cartoons/rudra",
            "thumbnail": "https://i.ytimg.com/vi/OS8m34bWb2M/hq720.jpg"
        },
        {
            "id": "oybudUkCXQo",
            "title": "Rudra बनेगा Marathon का हिस्सा! | Rudra",
            "url": "https://www.youtube.com/watch?v=oybudUkCXQo",
            "duration": 1304.0,
            "view_count": 4952831,
            "uploader": "Rudra",
            "category": "cartoons/rudra",
            "thumbnail": "https://i.ytimg.com/vi/oybudUkCXQo/hq720.jpg"
        },
        {
            "id": "3dNLQo4pN3Y",
            "title": "“Rudra और Dancing Fever ka Jadoo! 💃🕺 Miss Melody का Magic  हो गया Ulta!” | Rudra",
            "url": "https://www.youtube.com/watch?v=3dNLQo4pN3Y",
            "duration": 1281.0,
            "view_count": 649004,
            "uploader": "Rudra",
            "category": "cartoons/rudra",
            "thumbnail": "https://i.ytimg.com/vi/3dNLQo4pN3Y/hq720.jpg"
        },
        {
            "id": "aIbNox5tUvQ",
            "title": "Rudra | रुद्र | Season 3 | Full Episode | The Dangerous Dangrina",
            "url": "https://www.youtube.com/watch?v=aIbNox5tUvQ",
            "duration": 1312.0,
            "view_count": 997524,
            "uploader": "Sonic Gang",
            "category": "cartoons/rudra",
            "thumbnail": "https://i.ytimg.com/vi/aIbNox5tUvQ/hq720.jpg"
        },
        {
            "id": "kjXRih--J8I",
            "title": "Rudra - Dawn of the Dangerous Dongreela! | Full Movie",
            "url": "https://www.youtube.com/watch?v=kjXRih--J8I",
            "duration": 5102.0,
            "view_count": 4033693,
            "uploader": "Sonic Gang",
            "category": "cartoons/rudra",
            "thumbnail": "https://i.ytimg.com/vi/kjXRih--J8I/hq720.jpg"
        }
    ]
}