{
    "page": 20,
    "total_pages": 103,
    "total_items": 5125,
    "items": [
        {
            "id": "0YshbWn1WIk",
            "title": "Vijay Thalapathy Hindi Dubbed Blockbuster Action Movie Full HD 1080p | Kajal Agarwal | New Movie",
            "url": "https://www.youtube.com/watch?v=0YshbWn1WIk",
            "duration": 8926.0,
            "view_count": 238954,
            "uploader": "Super Movies Dhamaka",
            "category": "hindi",
            "thumbnail": "https://i.ytimg.com/vi/0YshbWn1WIk/hq720.jpg"
        },
        {
            "id": "xgIe4aD4YJc",
            "title": "UNSTOPPABLE | Vidyut Jammwal, Pooja Hegde | Hindi Dubbed Action Thriller Movie | Full HD Movie",
            "url": "https://www.youtube.com/watch?v=xgIe4aD4YJc",
            "duration": 5881.0,
            "view_count": 12526866,
            "uploader": "PlayNation",
            "category": "hindi",
            "thumbnail": "https://i.ytimg.com/vi/xgIe4aD4YJc/hq720.jpg"
        },
        {
            "id": "gvWDJZbKwB8",
            "title": "3 Lover | South Hindi Dubbed Action Romantic Movie Full Love Story | Naga Shourya,Regina | New movie",
            "url": "https://www.youtube.com/watch?v=gvWDJZbKwB8",
            "duration": 6863.0,
            "view_count": 8957,
            "uploader": "Action Cinemax",
            "category": "hindi",
            "thumbnail": "https://i.ytimg.com/vi/gvWDJZbKwB8/hq720.jpg"
        },
        {
            "id": "Nu4a6GWFwMY",
            "title": "Vishnu Vishal Gatti Kushti Full Length Hindi Movie | #Southdubbedmovies",
            "url": "https://www.youtube.com/watch?v=Nu4a6GWFwMY",
            "duration": 7464.0,
            "view_count": 19452554,
            "uploader": "Bollywood Events",
            "category": "hindi",
            "thumbnail": "https://i.ytimg.com/vi/Nu4a6GWFwMY/hq720.jpg"
        },
        {
            "id": "HVNEjk623EU",
            "title": "Dhurandhar 2 The Revenge (2026) | Full Hindi Movie | Ranveer Singh | Aditya Dhar",
            "url": "https://www.youtube.com/watch?v=HVNEjk623EU",
            "duration": 13569.0,
            "view_count": 1845,
            "uploader": "MoviesHub15",
            "category": "hindi",
            "thumbnail": "https://i.ytimg.com/vi/HVNEjk623EU/hqdefault.jpg"
        },
        {
            "id": "V5P8RO0e2nM",
            "title": "Suhaag सुहाग Full Movie | Akshay Kumar, Karishma Kapoor, Ajay Devgan | Superhit Hindi Movie",
            "url": "https://www.youtube.com/watch?v=V5P8RO0e2nM",
            "duration": 8593.0,
            "view_count": 51767708,
            "uploader": "NH Prime",
            "category": "hindi",
            "thumbnail": "https://i.ytimg.com/vi/V5P8RO0e2nM/hq720.jpg"
        },
        {
            "id": "4boawyb3m8o",
            "title": "#AK47 Full Movie Hindi Dubbed | Ajith Kumar | Jagapathi Babu | Latest South Indian Action Movie 2026",
            "url": "https://www.youtube.com/watch?v=4boawyb3m8o",
            "duration": 7568.0,
            "view_count": 79595,
            "uploader": "21 Pictures",
            "category": "hindi",
            "thumbnail": "https://i.ytimg.com/vi/4boawyb3m8o/hq720.jpg"
        },
        {
            "id": "8EcCoihwQRw",
            "title": "DHURANDHAR 2 (2026) New Released Full Hindi Dubbed Movie | South Indian Action Movie 2026",
            "url": "https://www.youtube.com/watch?v=8EcCoihwQRw",
            "duration": 13149.0,
            "view_count": 2557,
            "uploader": "filltheinfinite",
            "category": "hindi",
            "thumbnail": "https://i.ytimg.com/vi/8EcCoihwQRw/hq720.jpg"
        },
        {
            "id": "0IliRw-CmwM",
            "title": "Pushpa 3 (Hindi Dubbed) Full Movie | Allu Arjun, Rashmika Mandanna | Action Thriller 2025",
            "url": "https://www.youtube.com/watch?v=0IliRw-CmwM",
            "duration": 9698.0,
            "view_count": 6701,
            "uploader": "PlayNation",
            "category": "hindi",
            "thumbnail": "https://i.ytimg.com/vi/0IliRw-CmwM/hq720.jpg"
        },
        {
            "id": "NvDJ8xIIkh4",
            "title": "Vinaya Vidheya Rama Full Movie 2026 | Ram Charan | Vivek Oberoi | Kiara Advani | New South HD Movies",
            "url": "https://www.youtube.com/watch?v=NvDJ8xIIkh4",
            "duration": 7041.0,
            "view_count": 41906,
            "uploader": "21 Pictures",
            "category": "hindi",
            "thumbnail": "https://i.ytimg.com/vi/NvDJ8xIIkh4/hq720.jpg"
        },
        {
            "id": "PPc2Y6UZx-g",
            "title": "Holiday - A Soldier is Never Off Duty (2014) Full Movie | Akshay Kumar, Sonakshi Sinha | Patriotic",
            "url": "https://www.youtube.com/watch?v=PPc2Y6UZx-g",
            "duration": 9252.0,
            "view_count": 52408024,
            "uploader": "2000s Ki Filmein",
            "category": "hindi",
            "thumbnail": "https://i.ytimg.com/vi/PPc2Y6UZx-g/hq720.jpg"
        },
        {
            "id": "4dEKzbvht7g",
            "title": "NA TUM JAANO NA HUM Full Bollywood Movie | Hrithik Roshan, Saif Ali Khan, Esha Deol | Hindi Movie",
            "url": "https://www.youtube.com/watch?v=4dEKzbvht7g",
            "duration": 8938.0,
            "view_count": 8809778,
            "uploader": "Grand Master Movies",
            "category": "hindi",
            "thumbnail": "https://i.ytimg.com/vi/4dEKzbvht7g/hq720.jpg"
        },
        {
            "id": "B0xxY-LqWRc",
            "title": "Dhurandhar The Revenge Full Movie Hindi HD #blockbusteraction #indiancinema #dhurandhar #action",
            "url": "https://www.youtube.com/watch?v=B0xxY-LqWRc",
            "duration": 13538.0,
            "view_count": 779,
            "uploader": "Deadlox Movies",
            "category": "hindi",
            "thumbnail": "https://i.ytimg.com/vi/B0xxY-LqWRc/hqdefault.jpg"
        },
        {
            "id": "MisvMx6LN00",
            "title": "Dhurandar:the revenge  full movie  in hd ( hindi )  #dhurandhar2 #dhurandhar #ranveersingh #movie ",
            "url": "https://www.youtube.com/watch?v=MisvMx6LN00",
            "duration": 13216.0,
            "view_count": 1211,
            "uploader": "THE RAHUL SHOW",
            "category": "hindi",
            "thumbnail": "https://i.ytimg.com/vi/MisvMx6LN00/hqdefault.jpg"
        },
        {
            "id": "uSLTbvZ9EMM",
            "title": "Vijay Thalapathy Hindi Dubbed Action Romantic Movie Full HD 1080p | Kajal Agarwal | New Movie",
            "url": "https://www.youtube.com/watch?v=uSLTbvZ9EMM",
            "duration": 8926.0,
            "view_count": 82003,
            "uploader": "Super Movies Dhamaka",
            "category": "hindi",
            "thumbnail": "https://i.ytimg.com/vi/uSLTbvZ9EMM/hqdefault.jpg"
        },
        {
            "id": "n6t25G9hRqw",
            "title": "🔥 DHURANDHAR FULL MOVIE HINDI DUBBED 2026 HD ACTION THRILLER 🔥 ",
            "url": "https://www.youtube.com/watch?v=n6t25G9hRqw",
            "duration": 13738.0,
            "view_count": 402,
            "uploader": "Prajapati Dhaval",
            "category": "hindi",
            "thumbnail": "https://i.ytimg.com/vi/n6t25G9hRqw/hq720.jpg"
        },
        {
            "id": "kLfInIl0RTc",
            "title": "INTERCEPT | Akshay Kumar, Shriya Saran | New (2026) Hindi Action Crime Thriller Movie | Full HD",
            "url": "https://www.youtube.com/watch?v=kLfInIl0RTc",
            "duration": 6689.0,
            "view_count": 2037770,
            "uploader": "PlayNation",
            "category": "hindi",
            "thumbnail": "https://i.ytimg.com/vi/kLfInIl0RTc/hq720.jpg"
        },
        {
            "id": "1lYKatBn-M0",
            "title": "Raksha bandhan || full movies in Hindi || 1080p",
            "url": "https://www.youtube.com/watch?v=1lYKatBn-M0",
            "duration": 5363.0,
            "view_count": 6576,
            "uploader": "Rehmat Verse",
            "category": "hindi",
            "thumbnail": "https://i.ytimg.com/vi/1lYKatBn-M0/hqdefault.jpg"
        },
        {
            "id": "9ABTth3f7IE",
            "title": "Dhurandhar 2 full movie in Hindi 2026 new movie Bollywood movie",
            "url": "https://www.youtube.com/watch?v=9ABTth3f7IE",
            "duration": 12198.0,
            "view_count": 5279,
            "uploader": "Ai facts Goud",
            "category": "hindi",
            "thumbnail": "https://i.ytimg.com/vi/9ABTth3f7IE/hq720.jpg"
        },
        {
            "id": "ycycsAggOB8",
            "title": "God Father Full Hindi Dubbed Action Movie | Chiranjeevi, Salman Khan | South Indian Movie",
            "url": "https://www.youtube.com/watch?v=ycycsAggOB8",
            "duration": 8794.0,
            "view_count": 5116914,
            "uploader": "Ellie Movie",
            "category": "hindi",
            "thumbnail": "https://i.ytimg.com/vi/ycycsAggOB8/hq720.jpg"
        },
        {
            "id": "2sH9Ya737co",
            "title": "Do Patti (2024) Full Movie | Kajol | Kriti Sanon | Shaheer Sheikh | Hindi Thriller |",
            "url": "https://www.youtube.com/watch?v=2sH9Ya737co",
            "duration": 7000.0,
            "view_count": 1845756,
            "uploader": "Animated Stories",
            "category": "hindi",
            "thumbnail": "https://i.ytimg.com/vi/2sH9Ya737co/hqdefault.jpg"
        },
        {
            "id": "2ZHnUchoP_w",
            "title": "Dhurandar 2 Full movie  Hindi dubbed movie #viral #dhurandhar #Movie #dhurandar2 ",
            "url": "https://www.youtube.com/watch?v=2ZHnUchoP_w",
            "duration": 13493.0,
            "view_count": 1880,
            "uploader": "DreamScreenAI",
            "category": "hindi",
            "thumbnail": "https://i.ytimg.com/vi/2ZHnUchoP_w/hqdefault.jpg"
        },
        {
            "id": "cbUx5UF-8U4",
            "title": "Sooryavanshi 2 Full Movie HD | Akshay Kumar, Ranveer Singh | Bollywood Action Thriller",
            "url": "https://www.youtube.com/watch?v=cbUx5UF-8U4",
            "duration": 8019.0,
            "view_count": 4173656,
            "uploader": "Anjali Dhariwal and 4 more",
            "category": "hindi",
            "thumbnail": "https://i.ytimg.com/vi/cbUx5UF-8U4/hq720.jpg?sqp=-oaymwEcCNAFEJQDSFXyq4qpAw4IARUAAIhCGAFwAcABBg==&rs=AOn4CLAxGtXgUJOzB0dBxX7CpFj1_Tk1cA",
            "added_date": "2026-04-16T07:30:57.803571Z",
            "source": "youtube"
        },
        {
            "id": "hqbklBF6FM8",
            "title": "Dhurandhar 2 Full Movie Hindi Dubbed | New South Action Movie 2026 #dhurandhar2 #FullMovie",
            "url": "https://www.youtube.com/watch?v=hqbklBF6FM8",
            "duration": 13493.0,
            "view_count": 2887,
            "uploader": "Itz Bruh",
            "category": "hindi",
            "thumbnail": "https://i.ytimg.com/vi/hqbklBF6FM8/hqdefault.jpg"
        },
        {
            "id": "d1-ixz4Xl04",
            "title": "Kalank Full Movie HD | Varun Dhawan, Alia Bhatt, Madhuri Dixit | Bollywood Blockbuster Movie",
            "url": "https://www.youtube.com/watch?v=d1-ixz4Xl04",
            "duration": 7403.0,
            "view_count": 2007130,
            "uploader": "Dhariwal anjali ",
            "category": "hindi",
            "thumbnail": "https://i.ytimg.com/vi/d1-ixz4Xl04/hq720.jpg"
        },
        {
            "id": "XazuWyD_5cg",
            "title": "Bhool Bhulaiyaa (Hindi Full Movie) Akshay Kumar, Vidya Balan, Shiney A, Paresh R, Priyadarshan",
            "url": "https://www.youtube.com/watch?v=XazuWyD_5cg",
            "duration": 8905.0,
            "view_count": 4907365,
            "uploader": "Dhamaka Movies",
            "category": "hindi",
            "thumbnail": "https://i.ytimg.com/vi/XazuWyD_5cg/hq720.jpg"
        },
        {
            "id": "REt62oTFulQ",
            "title": "Dhurandhar The Revenge full movie 🎬 in hindi HD 2026 Ranveer Singh",
            "url": "https://www.youtube.com/watch?v=REt62oTFulQ",
            "duration": 13206.0,
            "view_count": 274,
            "uploader": "BM MOVIES HUB",
            "category": "hindi",
            "thumbnail": "https://i.ytimg.com/vi/REt62oTFulQ/hqdefault.jpg"
        },
        {
            "id": "h1Lyw1gNry0",
            "title": "PARESHAANPUR | Eng SUB | Comedy Movies Hindi Full | Bollywood Comedy Movies | Hindi Full Movie 2024",
            "url": "https://www.youtube.com/watch?v=h1Lyw1gNry0",
            "duration": 6282.0,
            "view_count": 2980527,
            "uploader": "Dhoom Films",
            "category": "hindi",
            "thumbnail": "https://i.ytimg.com/vi/h1Lyw1gNry0/hq720.jpg"
        },
        {
            "id": "W3kBdOH-_e4",
            "title": "Baaghi 3 Full Movie (Hindi) | Tiger Shroff Action Blockbuster | Shraddha Kapoor | Riteish Deshmukh",
            "url": "https://www.youtube.com/watch?v=W3kBdOH-_e4",
            "duration": 7394.0,
            "view_count": 9242606,
            "uploader": "Dhariwal anjali  and 2 more",
            "category": "hindi",
            "thumbnail": "https://i.ytimg.com/vi/W3kBdOH-_e4/hq720.jpg"
        },
        {
            "id": "4Vjx00umz9I",
            "title": "Saawariya | Full Hindi Movie | Starring Ranbir Kapoor, Sonam Kapoor, Salman Khan & Rani Mukerji",
            "url": "https://www.youtube.com/watch?v=4Vjx00umz9I",
            "duration": 8276.0,
            "view_count": 1329409,
            "uploader": "Sony Pictures Entertainment India",
            "category": "hindi",
            "thumbnail": "https://i.ytimg.com/vi/4Vjx00umz9I/hq720.jpg"
        },
        {
            "id": "faFD2oMECPA",
            "title": "Dhurandhar 2 The Revenge 💥 Full Hindi Movie | Aditya Dhar, Ranveer Singh Dhurandhar 2 Full Movie new",
            "url": "https://www.youtube.com/watch?v=faFD2oMECPA",
            "duration": 13411.0,
            "view_count": 2299,
            "uploader": "Movies dekho",
            "category": "hindi",
            "thumbnail": "https://i.ytimg.com/vi/faFD2oMECPA/hqdefault.jpg"
        },
        {
            "id": "x-00MzXO5gw",
            "title": "Fauzi (2026) | Prabhas & Shraddha Kapoor South New Movie Blockbuster Action Movie Hindi HD",
            "url": "https://www.youtube.com/watch?v=x-00MzXO5gw",
            "duration": 9583.0,
            "view_count": 207733,
            "uploader": "Duroflex Action",
            "category": "hindi",
            "thumbnail": "https://i.ytimg.com/vi/x-00MzXO5gw/hq720.jpg"
        },
        {
            "id": "6q5w_mzj-nI",
            "title": "Fighter (HD) Blockbuster South Indian Hindi Dubbed Action Full Movies | न्यू साउथ हिंदी Hd मूवी",
            "url": "https://www.youtube.com/watch?v=6q5w_mzj-nI",
            "duration": 8905.0,
            "view_count": 869297,
            "uploader": "Pital Picture",
            "category": "hindi",
            "thumbnail": "https://i.ytimg.com/vi/6q5w_mzj-nI/hq720.jpg"
        },
        {
            "id": "m4YQaDRcawI",
            "title": "DHURANDHAR 2 THE REVENGE REAL FULL MOVIE IN HINDI DUBBED (2026)",
            "url": "https://www.youtube.com/watch?v=m4YQaDRcawI",
            "duration": 9818.0,
            "view_count": 731,
            "uploader": "All_Type_of_video",
            "category": "hindi",
            "thumbnail": "https://i.ytimg.com/vi/m4YQaDRcawI/hqdefault.jpg"
        },
        {
            "id": "gARhtL_BnrQ",
            "title": "Bhairathi Ranagal 2026 New Released Hindi Dubbed Action Movie | Shiva Rajkumar, Rukmini Vasanth",
            "url": "https://www.youtube.com/watch?v=gARhtL_BnrQ",
            "duration": 7471.0,
            "view_count": 8170924,
            "uploader": "RKD Studios",
            "category": "hindi",
            "thumbnail": "https://i.ytimg.com/vi/gARhtL_BnrQ/hq720.jpg"
        },
        {
            "id": "gfS9erTFqGg",
            "title": "Pushpa 3 (2026) | Allu Arjun, Rashmika Mandanna Hindi Dubbed Action Thriller Movie | New South Movie",
            "url": "https://www.youtube.com/watch?v=gfS9erTFqGg",
            "duration": 9100.0,
            "view_count": 443557,
            "uploader": "Movie Fiber",
            "category": "hindi",
            "thumbnail": "https://i.ytimg.com/vi/gfS9erTFqGg/hq720.jpg"
        },
        {
            "id": "HNJJruKP9AU",
            "title": "Dhurandhar 2 The Revenge (2026) Full Hindi Dubbed Movie | Powerful ActionThriller HD",
            "url": "https://www.youtube.com/watch?v=HNJJruKP9AU",
            "duration": 13022.0,
            "view_count": 671,
            "uploader": "movielover",
            "category": "hindi",
            "thumbnail": "https://i.ytimg.com/vi/HNJJruKP9AU/hq720.jpg"
        },
        {
            "id": "52PXjIEvznY",
            "title": "Cocktail (2012) | Deepika Padukone, Saif Ali Khan, Diana Penty | Bollywood Hindi Full Movie (HD)",
            "url": "https://www.youtube.com/watch?v=52PXjIEvznY",
            "duration": 8689.0,
            "view_count": 170711,
            "uploader": "Eros Universe Movie Preview",
            "category": "hindi",
            "thumbnail": "https://i.ytimg.com/vi/52PXjIEvznY/hq720.jpg"
        },
        {
            "id": "AYCmFsnIgKA",
            "title": "हद कर दी आपने (2000) Full Movie 4K 😂 | Govinda, Rani, Johnny Lever | फुल कॉमेडी धमाका",
            "url": "https://www.youtube.com/watch?v=AYCmFsnIgKA",
            "duration": 8055.0,
            "view_count": 1603,
            "uploader": "सदाबहार Movies",
            "category": "hindi",
            "thumbnail": "https://i.ytimg.com/vi/AYCmFsnIgKA/hq720.jpg"
        },
        {
            "id": "uT5sX3IXR7g",
            "title": "The Discarded Ace Full Story 🎬 China New (2026) Drama Chinese update is Facts And lnteresting  , ",
            "url": "https://www.youtube.com/watch?v=uT5sX3IXR7g",
            "duration": 3628.0,
            "view_count": 13561,
            "uploader": "ciname Mot5",
            "category": "hindi",
            "thumbnail": "https://i.ytimg.com/vi/uT5sX3IXR7g/hq720.jpg"
        },
        {
            "id": "K3Wt0DYEHRk",
            "title": "Vijay Thalapathy (HD) Blockbuster South Indian Hindi Dubbed Action Movie | New South Movie 2025",
            "url": "https://www.youtube.com/watch?v=K3Wt0DYEHRk",
            "duration": 8926.0,
            "view_count": 148330,
            "uploader": "Super Movies Dhamaka",
            "category": "hindi",
            "thumbnail": "https://i.ytimg.com/vi/K3Wt0DYEHRk/hqdefault.jpg"
        },
        {
            "id": "o_cuDRyNtzo",
            "title": "Dhurandhar 2 The Revenge (2026) Full Hindi Dubbed Movie | Powerful Action Thriller HD",
            "url": "https://www.youtube.com/watch?v=o_cuDRyNtzo",
            "duration": 5804.0,
            "view_count": 781,
            "uploader": "YT THEATRE",
            "category": "hindi",
            "thumbnail": "https://i.ytimg.com/vi/o_cuDRyNtzo/hq720.jpg"
        },
        {
            "id": "qWsag7vg2fE",
            "title": "GALWAN Full Movie| John Abraham | Nargis Fakhri | Raashi Khanna | Latest Bollywood Action Movie 2026",
            "url": "https://www.youtube.com/watch?v=qWsag7vg2fE",
            "duration": 6546.0,
            "view_count": 626232,
            "uploader": "ComedyBaaz",
            "category": "hindi",
            "thumbnail": "https://i.ytimg.com/vi/qWsag7vg2fE/hq720.jpg"
        },
        {
            "id": "MszabkcOa-o",
            "title": "New Release Thriller NeelChokro 2025 Hindi Dubbed Movie Full 4K | Arifin Shuvoo, Mondera Chakraborty",
            "url": "https://www.youtube.com/watch?v=MszabkcOa-o",
            "duration": 6064.0,
            "view_count": 680625,
            "uploader": "Ultra 4K Movies",
            "category": "hindi",
            "thumbnail": "https://i.ytimg.com/vi/MszabkcOa-o/hq720.jpg"
        },
        {
            "id": "RLSwLooLDLg",
            "title": "Dhurandhar 2: The Revenge (Full Movie Hindi) | dhurandhar 2 hindi | #ranveersingh #saraarjun",
            "url": "https://www.youtube.com/watch?v=RLSwLooLDLg",
            "duration": 13696.0,
            "view_count": 245,
            "uploader": "create vines",
            "category": "hindi",
            "thumbnail": "https://i.ytimg.com/vi/RLSwLooLDLg/hqdefault.jpg"
        },
        {
            "id": "3M0YxLGKH2A",
            "title": "Aakrosh 2010 Hindi Action Full Movie 4K | Ajay Devgn, Akshaye Khanna, Priyadarshan | Bollywood 2000s",
            "url": "https://www.youtube.com/watch?v=3M0YxLGKH2A",
            "duration": 8373.0,
            "view_count": 763523,
            "uploader": "Ultra 4K Movies",
            "category": "hindi",
            "thumbnail": "https://i.ytimg.com/vi/3M0YxLGKH2A/hq720.jpg"
        },
        {
            "id": "cLOCtQjZiz4",
            "title": "Housefull 3 Full Movie HD 😂| Akshay Kumar, Riteish, Abhishek | Blockbuster Bollywood Comedy Movie",
            "url": "https://www.youtube.com/watch?v=cLOCtQjZiz4",
            "duration": 7744.0,
            "view_count": 1141,
            "uploader": "Eros Universe",
            "category": "hindi",
            "thumbnail": "https://i.ytimg.com/vi/cLOCtQjZiz4/hq720.jpg"
        },
        {
            "id": "JH_E05VhH04",
            "title": "Dhurandhar 2 (The Revenge) Full Movie 2026 | Ranveer Singh, Sanjay Dutt, Deepika | Latest Movie 2026",
            "url": "https://www.youtube.com/watch?v=JH_E05VhH04",
            "duration": 12709.0,
            "view_count": 5932,
            "uploader": "Sonu Das",
            "category": "hindi",
            "thumbnail": "https://i.ytimg.com/vi/JH_E05VhH04/hqdefault.jpg"
        },
        {
            "id": "dz_0JZqA8bU",
            "title": "Jab Pyar Kisi Se Hota Hai [HD] - Hindi Full Movie - Salman Khan - Twinkle Khanna -Romantic Film",
            "url": "https://www.youtube.com/watch?v=dz_0JZqA8bU",
            "duration": 8989.0,
            "view_count": 26412456,
            "uploader": "Shemaroo Movies",
            "category": "hindi",
            "thumbnail": "https://i.ytimg.com/vi/dz_0JZqA8bU/hq720.jpg"
        },
        {
            "id": "qyVQ4UOaT3k",
            "title": "Judaai (1997) - Anil Kapoor, Sridevi, Urmila Matondkar - 90s Ki Superhit Romantic Hindi Movie",
            "url": "https://www.youtube.com/watch?v=qyVQ4UOaT3k",
            "duration": 9322.0,
            "view_count": 31823059,
            "uploader": "PlayMovies",
            "category": "hindi",
            "thumbnail": "https://i.ytimg.com/vi/qyVQ4UOaT3k/hq720.jpg"
        }
    ]
}