{
    "page": 9,
    "total_pages": 9,
    "total_items": 410,
    "items": [
        {
            "id": "4ZmK0do-J4E",
            "title": "Pandemic | PART 1 of 2 | FULL MOVIE | Tiffani Thiessen, Faye Dunaway | Virus Thriller Drama",
            "url": "https://www.youtube.com/watch?v=4ZmK0do-J4E",
            "duration": 5142.0,
            "view_count": 10580,
            "uploader": "Shout Studios",
            "category": "thriller",
            "channel_tags": [
                "action",
                "classic",
                "comedy"
            ],
            "channel_name": "Shout Studios",
            "thumbnail": "https://i.ytimg.com/vi/4ZmK0do-J4E/hqdefault.jpg?sqp=-oaymwEcCNACELwBSFXyq4qpAw4IARUAAIhCGAFwAcABBg==&rs=AOn4CLBpqCcje-yDs0rb0RVvXfZ6OWfbzw",
            "source": "youtube",
            "added_date": "2026-04-24T01:50:36.322706Z"
        },
        {
            "id": "OdF4fKFtcbI",
            "title": "Trouble Comes Sideways | Snowpiercer | Post-Apocalyptic Action Sci-Fi Drama",
            "url": "https://www.youtube.com/watch?v=OdF4fKFtcbI",
            "duration": 2743.0,
            "view_count": 0,
            "uploader": "Shout Studios",
            "category": "scifi",
            "channel_tags": [
                "action",
                "classic",
                "comedy"
            ],
            "channel_name": "Shout Studios",
            "thumbnail": "https://i.ytimg.com/vi/OdF4fKFtcbI/hqdefault.jpg?sqp=-oaymwEcCNACELwBSFXyq4qpAw4IARUAAIhCGAFwAcABBg==&rs=AOn4CLA1i38cpZBw93azS5oQGnYRsxHWJg",
            "source": "youtube",
            "added_date": "2026-04-24T01:50:36.923915Z"
        },
        {
            "id": "dzMUkKLe8FQ",
            "title": "Justice Never Boarded | Snowpiercer | Post-Apocalyptic Action Sci-Fi Drama",
            "url": "https://www.youtube.com/watch?v=dzMUkKLe8FQ",
            "duration": 2811.0,
            "view_count": 0,
            "uploader": "Shout Studios",
            "category": "scifi",
            "channel_tags": [
                "action",
                "classic",
                "comedy"
            ],
            "channel_name": "Shout Studios",
            "thumbnail": "https://i.ytimg.com/vi/dzMUkKLe8FQ/hqdefault.jpg?sqp=-oaymwEcCNACELwBSFXyq4qpAw4IARUAAIhCGAFwAcABBg==&rs=AOn4CLDrNzY3EHJsSF8QlgvHfVwQ6MSdmQ",
            "source": "youtube",
            "added_date": "2026-04-24T01:50:37.124329Z"
        },
        {
            "id": "mBVIzmVso94",
            "title": "POPEYE'S REVENGE 🎬 Full Horror Movie 🎬 English HD",
            "url": "https://www.youtube.com/watch?v=mBVIzmVso94",
            "duration": 3221.0,
            "view_count": 877,
            "uploader": "Watch Movies Now",
            "category": "horror",
            "channel_tags": [
                "horror",
                "scifi",
                "thriller"
            ],
            "channel_name": "Watch Movies Now",
            "thumbnail": "https://i.ytimg.com/vi/mBVIzmVso94/hqdefault.jpg?sqp=-oaymwEcCNACELwBSFXyq4qpAw4IARUAAIhCGAFwAcABBg==&rs=AOn4CLBYAEnxl0AgGePImsBUTBRVlXNrcA",
            "source": "youtube",
            "added_date": "2026-04-24T01:50:44.089572Z"
        },
        {
            "id": "rqkPbzBHLgM",
            "title": "[4K] 레테의 연가 (1987) / Lethe's Love Song (Lete-ui yeonga)",
            "url": "https://www.youtube.com/watch?v=rqkPbzBHLgM",
            "duration": 5343.0,
            "view_count": 0,
            "uploader": "Korean Classic Film",
            "category": "asian",
            "channel_tags": [
                "asian",
                "classic",
                "drama"
            ],
            "channel_name": "Korean Classic Film",
            "thumbnail": "https://i.ytimg.com/vi/rqkPbzBHLgM/hqdefault.jpg?sqp=-oaymwEcCNACELwBSFXyq4qpAw4IARUAAIhCGAFwAcABBg==&rs=AOn4CLBFJM-xreQgF0MJpn7tBT7ZM-Pt9A",
            "source": "youtube",
            "added_date": "2026-04-24T01:51:15.340529Z"
        },
        {
            "id": "rplKc9cHR_k",
            "title": "THE DEMON'S CHILD 🎬 Full Horror Movie 🎬 English HD",
            "url": "https://www.youtube.com/watch?v=rplKc9cHR_k",
            "duration": 5051.0,
            "view_count": 824,
            "uploader": "Watch Movies Now",
            "category": "horror",
            "channel_tags": [
                "horror",
                "scifi",
                "thriller"
            ],
            "channel_name": "Watch Movies Now",
            "thumbnail": "https://i.ytimg.com/vi/rplKc9cHR_k/hqdefault.jpg?sqp=-oaymwEcCNACELwBSFXyq4qpAw4IARUAAIhCGAFwAcABBg==&rs=AOn4CLAZ4J60tby_KW1Y19Pn57mUVMK8yQ",
            "source": "youtube",
            "added_date": "2026-04-24T07:50:28.037519Z"
        },
        {
            "id": "zMn_VNCX3CA",
            "title": "A Broken Soldier Returns to the Rodeo | Peace River | 2026 Western Movie",
            "url": "https://www.youtube.com/watch?v=zMn_VNCX3CA",
            "duration": 8070.0,
            "view_count": 295,
            "uploader": "Movie Central",
            "category": "western",
            "channel_tags": [
                "action",
                "comedy",
                "drama",
                "horror",
                "scifi",
                "western"
            ],
            "channel_name": "Movie Central",
            "thumbnail": "https://i.ytimg.com/vi/zMn_VNCX3CA/hqdefault.jpg?sqp=-oaymwEcCNACELwBSFXyq4qpAw4IARUAAIhCGAFwAcABBg==&rs=AOn4CLBFL7fIohoo6NcXzvWeaJkh-0vVBQ",
            "source": "youtube",
            "added_date": "2026-04-24T13:01:47.630026Z"
        },
        {
            "id": "XLQzMDQdOMo",
            "title": "SATAN'S SCHOOL FOR GIRLS 🎬 Full Horror Movie 🎬 English HD",
            "url": "https://www.youtube.com/watch?v=XLQzMDQdOMo",
            "duration": 4427.0,
            "view_count": 6554,
            "uploader": "Watch Movies Now",
            "category": "horror",
            "channel_tags": [
                "horror",
                "scifi",
                "thriller"
            ],
            "channel_name": "Watch Movies Now",
            "thumbnail": "https://i.ytimg.com/vi/XLQzMDQdOMo/hqdefault.jpg?sqp=-oaymwEcCNACELwBSFXyq4qpAw4IARUAAIhCGAFwAcABBg==&rs=AOn4CLCpXXRER_TPR3cKV8MZb2TDK39PCQ",
            "source": "youtube",
            "added_date": "2026-04-24T13:02:29.469975Z"
        },
        {
            "id": "UI2kwMwtuZc",
            "title": "One Woman’s Delusion Became Another Woman’s Hell | Barren | 2026 Thriller Drama Movie",
            "url": "https://www.youtube.com/watch?v=UI2kwMwtuZc",
            "duration": 4301.0,
            "view_count": 34,
            "uploader": "Horror Central",
            "category": "thriller",
            "channel_tags": [
                "horror",
                "thriller"
            ],
            "channel_name": "Horror Central",
            "thumbnail": "https://i.ytimg.com/vi/UI2kwMwtuZc/hqdefault.jpg?sqp=-oaymwEcCNACELwBSFXyq4qpAw4IARUAAIhCGAFwAcABBg==&rs=AOn4CLAqk2MEJvn1xY1FJUNSdJCxRa5iNA",
            "source": "youtube",
            "added_date": "2026-04-24T13:02:37.938904Z"
        },
        {
            "id": "xxf-RtWO6-c",
            "title": "Bhutan: Life Between the Middle Ages and the Modern World | Free Documentary",
            "url": "https://www.youtube.com/watch?v=xxf-RtWO6-c",
            "duration": 2552.0,
            "view_count": 275,
            "uploader": "Free Documentary",
            "category": "documentary",
            "channel_tags": [
                "documentary"
            ],
            "channel_name": "Free Documentary",
            "thumbnail": "https://i.ytimg.com/vi/xxf-RtWO6-c/hqdefault_custom_3.jpg?sqp=CNDSrc8G-oaymwEcCNACELwBSFXyq4qpAw4IARUAAIhCGAFwAcABBg==&rs=AOn4CLB8XFVaES22HAAzff0Z9Lf5y1w3ag",
            "source": "youtube",
            "added_date": "2026-04-24T13:02:49.612513Z"
        }
    ]
}