{
    "page": 15,
    "total_pages": 103,
    "total_items": 5125,
    "items": [
        {
            "id": "mia1QUf9DHg",
            "title": "NANDINI Full Movie | Akshay Kumar, Rani Mukerji | Mother & Doughter Movie | New Bollywood Movie 2026",
            "url": "https://www.youtube.com/watch?v=mia1QUf9DHg",
            "duration": 6910.0,
            "view_count": 1113408,
            "uploader": "Moviewood Cinema",
            "category": "hindi",
            "thumbnail": "https://i.ytimg.com/vi/mia1QUf9DHg/hq720.jpg"
        },
        {
            "id": "-XjFUFRyfl8",
            "title": "DADDY (2026) Nagarjuna, Samantha, Keerthy New South Full Hd Movie | Latest South Hindi Dubbed Movie",
            "url": "https://www.youtube.com/watch?v=-XjFUFRyfl8",
            "duration": 8249.0,
            "view_count": 2319686,
            "uploader": "Trending Movies World",
            "category": "hindi",
            "thumbnail": "https://i.ytimg.com/vi/-XjFUFRyfl8/hqdefault.jpg"
        },
        {
            "id": "fmkS85mNZWA",
            "title": "Oxygen (2026) New Released Hindi Dubbed Movie | Gopichand, Raashii Khanna, Anu Emmanuel, Jagapathi",
            "url": "https://www.youtube.com/watch?v=fmkS85mNZWA",
            "duration": 7604.0,
            "view_count": 5644279,
            "uploader": "Goldmines",
            "category": "hindi",
            "thumbnail": "https://i.ytimg.com/vi/fmkS85mNZWA/hq720.jpg"
        },
        {
            "id": "-ZEUL81Z0A0",
            "title": "Rekha & Karisma Kapoor's ZUBEIDAA Full Movie | Manoj Bajpayee | Bollywood Romantic Movie",
            "url": "https://www.youtube.com/watch?v=-ZEUL81Z0A0",
            "duration": 8967.0,
            "view_count": 1765652,
            "uploader": "Grand Master Movies",
            "category": "hindi",
            "thumbnail": "https://i.ytimg.com/vi/-ZEUL81Z0A0/hq720.jpg"
        },
        {
            "id": "Yin1FH7C554",
            "title": "Pushpa 3 (2026) | Allu Arjun, Rashmika Mandanna Hindi Dubbed Action Thriller Movie | New Movie 2026",
            "url": "https://www.youtube.com/watch?v=Yin1FH7C554",
            "duration": 11171.0,
            "view_count": 12723,
            "uploader": "Noor Islamic AI",
            "category": "hindi",
            "thumbnail": "https://i.ytimg.com/vi/Yin1FH7C554/hqdefault.jpg"
        },
        {
            "id": "092gBCZztq8",
            "title": "MISSING Full Movie | Thalapathy Vijay | Nayanthara | New South Indian Hindi Dubbed Action Movie 2026",
            "url": "https://www.youtube.com/watch?v=092gBCZztq8",
            "duration": 8845.0,
            "view_count": 7212,
            "uploader": "Movies University",
            "category": "hindi",
            "thumbnail": "https://i.ytimg.com/vi/092gBCZztq8/hq720.jpg"
        },
        {
            "id": "i_21aCCgz1M",
            "title": "Hanuman 2 Full Movie Hindi Dubbed 2026 | Teja Sajja | Rishabh Shetty | New South Hindi Movie 2026",
            "url": "https://www.youtube.com/watch?v=i_21aCCgz1M",
            "duration": 7417.0,
            "view_count": 101753,
            "uploader": "Movies University",
            "category": "hindi",
            "thumbnail": "https://i.ytimg.com/vi/i_21aCCgz1M/hq720.jpg"
        },
        {
            "id": "Q2e3mLmS4HA",
            "title": "Tanu Weds Manu Returns | Madhavan, Kangana Ranaut | Superhit Bollywood Full Movie (HD)",
            "url": "https://www.youtube.com/watch?v=Q2e3mLmS4HA",
            "duration": 7343.0,
            "view_count": 222022,
            "uploader": "Eros Universe Showtime",
            "category": "hindi",
            "thumbnail": "https://i.ytimg.com/vi/Q2e3mLmS4HA/hq720.jpg"
        },
        {
            "id": "-kW7qCbsqEw",
            "title": "Vikram (2026) Full Movie | Kamal Haasan, Vijay Sethupathi | South Indian Action Thriller HD",
            "url": "https://www.youtube.com/watch?v=-kW7qCbsqEw",
            "duration": 10375.0,
            "view_count": 18968,
            "uploader": "PlayNation",
            "category": "hindi",
            "thumbnail": "https://i.ytimg.com/vi/-kW7qCbsqEw/hq720.jpg"
        },
        {
            "id": "jTiPJTTr744",
            "title": "MANIPULATOR | Akshay Kumar, Rakul Preet | New (2026) Hindi Action Crime Thriller Movie | Full HD",
            "url": "https://www.youtube.com/watch?v=jTiPJTTr744",
            "duration": 7505.0,
            "view_count": 20041938,
            "uploader": "PlayNation",
            "category": "hindi",
            "thumbnail": "https://i.ytimg.com/vi/jTiPJTTr744/hq720.jpg"
        },
        {
            "id": "DGZEajIVCxk",
            "title": "PARTNER | Superhit Comedy HD Movie | Full Movie | Salman Khan, Govinda, Katrina Kaif, Lara Dutta",
            "url": "https://www.youtube.com/watch?v=DGZEajIVCxk",
            "duration": 8209.0,
            "view_count": 4652397,
            "uploader": "Eros Universe Bioscope",
            "category": "hindi",
            "thumbnail": "https://i.ytimg.com/vi/DGZEajIVCxk/hq720.jpg"
        },
        {
            "id": "G-JiSDdhWuM",
            "title": "RUDHRA Mahesh Babu New South Indian Hindi Dubbed Full HD Movie | South Latest Release Hindi Movie",
            "url": "https://www.youtube.com/watch?v=G-JiSDdhWuM",
            "duration": 8487.0,
            "view_count": 308828,
            "uploader": "Trending Movies World",
            "category": "hindi",
            "thumbnail": "https://i.ytimg.com/vi/G-JiSDdhWuM/hq720.jpg"
        },
        {
            "id": "PnjFV4wyWTk",
            "title": "Kashi Full Movie | Mahesh Babu | New South Indian Hindi Dubbed Full Action Blockbuster Movies 2026",
            "url": "https://www.youtube.com/watch?v=PnjFV4wyWTk",
            "duration": 8216.0,
            "view_count": 12397948,
            "uploader": "Bollywood World",
            "category": "hindi",
            "thumbnail": "https://i.ytimg.com/vi/PnjFV4wyWTk/hq720.jpg"
        },
        {
            "id": "PW59JRTld6o",
            "title": "VARANASI to the WORLD - Mahesh Babu (Full Movie) | New South Indian Movies Dubbed In Hindi 2025 Full",
            "url": "https://www.youtube.com/watch?v=PW59JRTld6o",
            "duration": 8087.0,
            "view_count": 8950124,
            "uploader": "Duroflex Action",
            "category": "hindi",
            "thumbnail": "https://i.ytimg.com/vi/PW59JRTld6o/hq720.jpg"
        },
        {
            "id": "VyXCddv8ON8",
            "title": "#DS41 Full Hindi Movie | Dulquer Salmaan | Pooja Hegde | Bobby Deol | Latest South Indian Movie 2026",
            "url": "https://www.youtube.com/watch?v=VyXCddv8ON8",
            "duration": 8090.0,
            "view_count": 531937,
            "uploader": "Moviewood Cinema",
            "category": "hindi",
            "thumbnail": "https://i.ytimg.com/vi/VyXCddv8ON8/hq720.jpg"
        },
        {
            "id": "ibih8qNtC-k",
            "title": "#RSP26 Full Movie Hindi Dubbed | Prabhas | Samantha | Latest South Indian Full Action Movie 2026",
            "url": "https://www.youtube.com/watch?v=ibih8qNtC-k",
            "duration": 7841.0,
            "view_count": 96486,
            "uploader": "Bollwood Cinema Hindi",
            "category": "hindi",
            "thumbnail": "https://i.ytimg.com/vi/ibih8qNtC-k/hq720.jpg"
        },
        {
            "id": "IK73uPKOgHg",
            "title": "Subedaar Full Movie 2026 | Anil Kapoor | Radhika Madan | Nana Patekar | Mona Singh | Reviews & Facts",
            "url": "https://www.youtube.com/watch?v=IK73uPKOgHg",
            "duration": 8768.0,
            "view_count": 12463,
            "uploader": "Dil Se Stories",
            "category": "hindi",
            "thumbnail": "https://i.ytimg.com/vi/IK73uPKOgHg/hq720.jpg"
        },
        {
            "id": "YnZ1EkXoPJY",
            "title": "Sardar (2026 film) Full Movie Hindi Dubbed | Karthi | Uncut Web-DL HD | Action Thriller 2026 #sardar",
            "url": "https://www.youtube.com/watch?v=YnZ1EkXoPJY",
            "duration": 10392.0,
            "view_count": 6618,
            "uploader": "potterhead26",
            "category": "hindi",
            "thumbnail": "https://i.ytimg.com/vi/YnZ1EkXoPJY/hqdefault.jpg"
        },
        {
            "id": "TZypbZoGhNk",
            "title": "Dhurandher Prem Yudh (2026) Roopika New Full Movie | 2026 South Latest Hindi Dubbed Movie In 4K",
            "url": "https://www.youtube.com/watch?v=TZypbZoGhNk",
            "duration": 6101.0,
            "view_count": 45058,
            "uploader": "Sur Movies Exclusive and 2 more",
            "category": "tamil",
            "thumbnail": "https://i.ytimg.com/vi/TZypbZoGhNk/hq720.jpg"
        },
        {
            "id": "saa7LpHiRFE",
            "title": "Once Upon a Time in Mumbai Full Movie with Subtitles | Ajay Devgn, Emraan Hashmi",
            "url": "https://www.youtube.com/watch?v=saa7LpHiRFE",
            "duration": 7672.0,
            "view_count": 33322486,
            "uploader": "NH Prime",
            "category": "hindi",
            "thumbnail": "https://i.ytimg.com/vi/saa7LpHiRFE/hq720.jpg"
        },
        {
            "id": "HVyXEbOWrp4",
            "title": "Hungama (HD) | Hindi Movies 2016 Full Movie | Akshaye Khanna Movies | Bollywood Comedy Movies",
            "url": "https://www.youtube.com/watch?v=HVyXEbOWrp4",
            "duration": 8771.0,
            "view_count": 80332002,
            "uploader": "Venus Movies",
            "category": "hindi",
            "thumbnail": "https://i.ytimg.com/vi/HVyXEbOWrp4/hq720.jpg"
        },
        {
            "id": "C3WHXdEoZOw",
            "title": "Partner - Full Movie HD| Salman Khan, Govinda, Lara Dutta, Katrina Kaif |Superhit Comedy Blockbuster",
            "url": "https://www.youtube.com/watch?v=C3WHXdEoZOw",
            "duration": 8219.0,
            "view_count": 274998,
            "uploader": "Eros Universe",
            "category": "hindi",
            "thumbnail": "https://i.ytimg.com/vi/C3WHXdEoZOw/hq720.jpg"
        },
        {
            "id": "IsXklOKQRFU",
            "title": "Rolex (2026) | Suriya, Vijay Sethupathi & Kamal Haasan | New Hindi Dubbed South Action Movie",
            "url": "https://www.youtube.com/watch?v=IsXklOKQRFU",
            "duration": 9630.0,
            "view_count": 31186,
            "uploader": "PlayNation",
            "category": "hindi",
            "thumbnail": "https://i.ytimg.com/vi/IsXklOKQRFU/hq720.jpg"
        },
        {
            "id": "Za7lQ_TfDxs",
            "title": "Vinaya Vedhya Rama | Ram Charan | Kiara Advani New Blockbuster South Hindi Dubbed Full Movie 2026",
            "url": "https://www.youtube.com/watch?v=Za7lQ_TfDxs",
            "duration": 7039.0,
            "view_count": 3914,
            "uploader": "Movies University",
            "category": "hindi",
            "thumbnail": "https://i.ytimg.com/vi/Za7lQ_TfDxs/hq720.jpg"
        },
        {
            "id": "TsM3DWOfums",
            "title": "Thalapathy Vijay & Sree leela | Adhira | New South Indian Full Hindi Dubbed Movie 2026 | New Movie",
            "url": "https://www.youtube.com/watch?v=TsM3DWOfums",
            "duration": 8979.0,
            "view_count": 42100,
            "uploader": "Movie Record South",
            "category": "hindi",
            "thumbnail": "https://i.ytimg.com/vi/TsM3DWOfums/hq720.jpg"
        },
        {
            "id": "q-d11teyVy0",
            "title": "Dhurandhar 2 Full Movie Hindi The Revenge Dhurandhar || Ranveer Singh Sanjay Dutt #dhurandhar ",
            "url": "https://www.youtube.com/watch?v=q-d11teyVy0",
            "duration": 13411.0,
            "view_count": 14779,
            "uploader": "𝐒𝐀𝐅𝐈𝐑 𝐂𝐋𝐈𝐂𝐊𝐒 !! 🦋",
            "category": "hindi",
            "thumbnail": "https://i.ytimg.com/vi/q-d11teyVy0/hqdefault.jpg"
        },
        {
            "id": "aRZwTRENla8",
            "title": "Flashback (2026) New Released Hindi Dubbed Full Movie In 4K | Prabhu Deva, Regina Cassandra",
            "url": "https://www.youtube.com/watch?v=aRZwTRENla8",
            "duration": 6533.0,
            "view_count": 915,
            "uploader": "Sachin joshi vlogs2",
            "category": "hindi",
            "thumbnail": "https://i.ytimg.com/vi/aRZwTRENla8/hqdefault.jpg"
        },
        {
            "id": "2AoBbNObnR8",
            "title": "Dhurandhar 2 Full Movie | Ranveer Singh, Akshay Khanna | New Bollywood Full Action HD Movie 2026",
            "url": "https://www.youtube.com/watch?v=2AoBbNObnR8",
            "duration": 13411.0,
            "view_count": 21108,
            "uploader": "Deepjot Battawala",
            "category": "hindi",
            "thumbnail": "https://i.ytimg.com/vi/2AoBbNObnR8/hqdefault.jpg"
        },
        {
            "id": "_5ZctetaaTA",
            "title": "PRIME (2026) | KAMAL HAASAN | New South Hindi Dubbed Full Action Blockbuster HD",
            "url": "https://www.youtube.com/watch?v=_5ZctetaaTA",
            "duration": 10375.0,
            "view_count": 82293,
            "uploader": "PlayNation",
            "category": "hindi",
            "thumbnail": "https://i.ytimg.com/vi/_5ZctetaaTA/hq720.jpg"
        },
        {
            "id": "32j-n1l85Tc",
            "title": "🎬 Jai Ho (2014) Hindi Full Movie BluRay UHD 1080p | DD 5.1 (384Kbps) | Salman Khan Action Movie",
            "url": "https://www.youtube.com/watch?v=32j-n1l85Tc",
            "duration": 8456.0,
            "view_count": 161420,
            "uploader": "WishAK YT",
            "category": "hindi",
            "thumbnail": "https://i.ytimg.com/vi/32j-n1l85Tc/hqdefault.jpg"
        },
        {
            "id": "sGTcjqsUUX8",
            "title": "HAUNTED 2 Full Horror Movie | Akshay Kumar, Vidya Balan, Tripti Dimri | Latest Bollywood Movie 2026",
            "url": "https://www.youtube.com/watch?v=sGTcjqsUUX8",
            "duration": 7248.0,
            "view_count": 1780937,
            "uploader": "Moviewood Cinema",
            "category": "hindi",
            "thumbnail": "https://i.ytimg.com/vi/sGTcjqsUUX8/hq720.jpg"
        },
        {
            "id": "k1dhK5EQVcM",
            "title": "PAILAM PILAGA (2026) New Released Full Hindi Dubbed Romantic Drama Movie | Sai Teja, Pavani Karanam",
            "url": "https://www.youtube.com/watch?v=k1dhK5EQVcM",
            "duration": 6332.0,
            "view_count": 15734,
            "uploader": "RDC Movie and 5 more",
            "category": "hindi",
            "thumbnail": "https://i.ytimg.com/vi/k1dhK5EQVcM/hq720.jpg"
        },
        {
            "id": "zWNQcC7Pu-k",
            "title": "AATMA KA VASH - Hindi Dubbed Full Movie | Anushka Shetty, Unni Mukundan | Horror Action Movie",
            "url": "https://www.youtube.com/watch?v=zWNQcC7Pu-k",
            "duration": 7610.0,
            "view_count": 2139009,
            "uploader": "Primetime Action Movies",
            "category": "hindi",
            "thumbnail": "https://i.ytimg.com/vi/zWNQcC7Pu-k/hq720.jpg"
        },
        {
            "id": "EDf0p1o9VAM",
            "title": "शुभ मंगल सावधान - Full Movie | Ayushmann Khurrana | Bhumi Pednekar | Hindi Romantic Comedy",
            "url": "https://www.youtube.com/watch?v=EDf0p1o9VAM",
            "duration": 6005.0,
            "view_count": 61339,
            "uploader": "Eros Universe",
            "category": "hindi",
            "thumbnail": "https://i.ytimg.com/vi/EDf0p1o9VAM/hq720.jpg"
        },
        {
            "id": "Tkc7lIZ4lNQ",
            "title": "PUSHPA 3 The Rampage : Full Movie | Allu Arjun | Rashmika Mandana | Latest Full Action Movie 2026",
            "url": "https://www.youtube.com/watch?v=Tkc7lIZ4lNQ",
            "duration": 9116.0,
            "view_count": 629640,
            "uploader": "Ranita Studio",
            "category": "hindi",
            "thumbnail": "https://i.ytimg.com/vi/Tkc7lIZ4lNQ/hq720.jpg"
        },
        {
            "id": "8luPSi5gfn8",
            "title": "Dhurandhar The Revenge Ranveer Akshaye Khanna Singh Hindi Dubbed Full Movie | New Action Movie 2026",
            "url": "https://www.youtube.com/watch?v=8luPSi5gfn8",
            "duration": 8197.0,
            "view_count": 1015,
            "uploader": "Hindi Movie Cinema",
            "category": "hindi",
            "thumbnail": "https://i.ytimg.com/vi/8luPSi5gfn8/hq720.jpg"
        },
        {
            "id": "c1Gkey_Zq3s",
            "title": "Hanuman 2 Full Movie Hindi Dubbed 2026 | Teja Sajja | Rishabh Shetty | New South Hindi Movie 2026",
            "url": "https://www.youtube.com/watch?v=c1Gkey_Zq3s",
            "duration": 8508.0,
            "view_count": 3623839,
            "uploader": "Bollywood World",
            "category": "hindi",
            "thumbnail": "https://i.ytimg.com/vi/c1Gkey_Zq3s/hq720.jpg"
        },
        {
            "id": "VgTjps8ujjI",
            "title": "Dhurandhar 2 Full Movie Hindi | Ranveer Singh | Full Action Movie 2026",
            "url": "https://www.youtube.com/watch?v=VgTjps8ujjI",
            "duration": 13411.0,
            "view_count": 4677,
            "uploader": "Gokarna bhandari",
            "category": "hindi",
            "thumbnail": "https://i.ytimg.com/vi/VgTjps8ujjI/hq720.jpg"
        },
        {
            "id": "E6hhz9t8qjg",
            "title": "NAAGRAJ 2 Full Movie Hindi Dubbed | Prabhas & Tamannaah | Latest South Indian Anaconda Movie 2026",
            "url": "https://www.youtube.com/watch?v=E6hhz9t8qjg",
            "duration": 8832.0,
            "view_count": 2182307,
            "uploader": "Ranita Studio",
            "category": "hindi",
            "thumbnail": "https://i.ytimg.com/vi/E6hhz9t8qjg/hq720.jpg"
        },
        {
            "id": "Vc9lOC0D384",
            "title": "New South Indian Movies 2026 in Hindi Dubbed | Prabhas New Released Full Movie | Latest Movies",
            "url": "https://www.youtube.com/watch?v=Vc9lOC0D384",
            "duration": 7300.0,
            "view_count": 5847,
            "uploader": "SVR Films",
            "category": "hindi",
            "thumbnail": "https://i.ytimg.com/vi/Vc9lOC0D384/hq720.jpg"
        },
        {
            "id": "SGKWw6uvQLc",
            "title": "Kashi Full Movie 2026 | Mahesh Babu, Sreeleela, Sanjay Dutt | New South Hindi Dubbed Full Movie 2026",
            "url": "https://www.youtube.com/watch?v=SGKWw6uvQLc",
            "duration": 8216.0,
            "view_count": 1202378,
            "uploader": "Bollywood World",
            "category": "hindi",
            "thumbnail": "https://i.ytimg.com/vi/SGKWw6uvQLc/hq720.jpg"
        },
        {
            "id": "S6F6Bi0emBk",
            "title": "The Kerala Story 2 Goes Beyond | Ulka Gupta, Aditi Bhatia, Aishwarya | Latest Thriller Movie 2026",
            "url": "https://www.youtube.com/watch?v=S6F6Bi0emBk",
            "duration": 6716.0,
            "view_count": 221047,
            "uploader": "Ranita Studio",
            "category": "hindi",
            "thumbnail": "https://i.ytimg.com/vi/S6F6Bi0emBk/hq720.jpg"
        },
        {
            "id": "tCqyTWD8QzE",
            "title": "Kerala 2 Story Full Movie | The Truth Will Shock You 😱 | Hindi Movie 2026",
            "url": "https://www.youtube.com/watch?v=tCqyTWD8QzE",
            "duration": 6690.0,
            "view_count": 22402,
            "uploader": "Amit Chhama Family BLOG",
            "category": "hindi",
            "thumbnail": "https://i.ytimg.com/vi/tCqyTWD8QzE/hqdefault.jpg"
        },
        {
            "id": "7bCva2TK-eM",
            "title": "Bhoothnath Returns (4K Full Movie) Amitabh Bachchan | Boman Irani | Nitesh Tiwari | Bhushan Kumar",
            "url": "https://www.youtube.com/watch?v=7bCva2TK-eM",
            "duration": 8690.0,
            "view_count": 178276,
            "uploader": "T-Series",
            "category": "hindi",
            "thumbnail": "https://i.ytimg.com/vi/7bCva2TK-eM/hq720.jpg"
        },
        {
            "id": "Q2ku--5Yko0",
            "title": "Dhurandhar 2 Full Movie Hindi | Ranveer Singh | Full Action Movie 2026",
            "url": "https://www.youtube.com/watch?v=Q2ku--5Yko0",
            "duration": 13411.0,
            "view_count": 10272,
            "uploader": "Gokarna bhandari",
            "category": "hindi",
            "thumbnail": "https://i.ytimg.com/vi/Q2ku--5Yko0/hq720.jpg"
        },
        {
            "id": "6xOMF2Gdyco",
            "title": "Superhit Blockbuster Full Hindi Comedy Movie | Shahid Kapoor, Paresh Rawal, Rajpal Yadav Comedy",
            "url": "https://www.youtube.com/watch?v=6xOMF2Gdyco",
            "duration": 8236.0,
            "view_count": 4877783,
            "uploader": "BollywoodWala Adda",
            "category": "hindi",
            "thumbnail": "https://i.ytimg.com/vi/6xOMF2Gdyco/hq720.jpg"
        },
        {
            "id": "6GLJhk0RBB8",
            "title": "Golmaal 5 (2026) Full Hindi Comedy Movie | Ajay Devgn | Sara Ali Khan | Arshad Warsi | HD",
            "url": "https://www.youtube.com/watch?v=6GLJhk0RBB8",
            "duration": 6752.0,
            "view_count": 2599564,
            "uploader": "Dhariwal anjali  and Lucky Sayed",
            "category": "hindi",
            "thumbnail": "https://i.ytimg.com/vi/6GLJhk0RBB8/hq720.jpg"
        },
        {
            "id": "R1BnXlw34p0",
            "title": "Dhurandhar 2 Full Movie Hindi | RanveerSingh | Full Action Movie 2026",
            "url": "https://www.youtube.com/watch?v=R1BnXlw34p0",
            "duration": 13411.0,
            "view_count": 5038,
            "uploader": "365_vlogs",
            "category": "hindi",
            "thumbnail": "https://i.ytimg.com/vi/R1BnXlw34p0/hqdefault.jpg"
        },
        {
            "id": "-Axuc_fZfQo",
            "title": "AA23 Full Movie Hindi Dubbed 2025 | Allu Arjun | Prashanth Neel | New South Indian Hindi Dubb Movies",
            "url": "https://www.youtube.com/watch?v=-Axuc_fZfQo",
            "duration": 8789.0,
            "view_count": 4467869,
            "uploader": "Movie Record South",
            "category": "hindi",
            "thumbnail": "https://i.ytimg.com/vi/-Axuc_fZfQo/hq720.jpg"
        },
        {
            "id": "WDQcrlmKlkE",
            "title": "Dhurandhar Full Movie 2026 | Ranveer Singh | Sanjay Dutt #dhurandhar #movie #bollywood #newmovie ",
            "url": "https://www.youtube.com/watch?v=WDQcrlmKlkE",
            "duration": 8464.0,
            "view_count": 1715884,
            "uploader": "Netox Films  ",
            "category": "hindi",
            "thumbnail": "https://i.ytimg.com/vi/WDQcrlmKlkE/hqdefault.jpg"
        }
    ]
}