{
    "page": 12,
    "total_pages": 103,
    "total_items": 5125,
    "items": [
        {
            "id": "fns58UegE_A",
            "title": "ASSI Full Movie Hindi | Taapsee Pannu | Psychological Thriller Drama | New Release South movie Hindi",
            "url": "https://www.youtube.com/watch?v=fns58UegE_A",
            "duration": 7966.0,
            "view_count": 552894,
            "uploader": "Cinema Dunniya",
            "category": "hindi",
            "thumbnail": "https://i.ytimg.com/vi/fns58UegE_A/hq720.jpg"
        },
        {
            "id": "aNHRW48e1No",
            "title": "BHIKHARI Full Movie 2026 | Hrithik Roshan & Kajol Devgan | New Bollywood Full Action Movie 2026",
            "url": "https://www.youtube.com/watch?v=aNHRW48e1No",
            "duration": 8652.0,
            "view_count": 1858636,
            "uploader": "Bollwood Cinema Hindi",
            "category": "hindi",
            "thumbnail": "https://i.ytimg.com/vi/aNHRW48e1No/hq720.jpg"
        },
        {
            "id": "D-84ec24FZg",
            "title": "PREM VIVAH Full Comedy Movie 2026 | Rajkumar Rao, Vijay Raaz, Kangana Ranaut |Latest Bollywood Movie",
            "url": "https://www.youtube.com/watch?v=D-84ec24FZg",
            "duration": 5321.0,
            "view_count": 201642,
            "uploader": "Entertainment Hub",
            "category": "hindi",
            "thumbnail": "https://i.ytimg.com/vi/D-84ec24FZg/hq720.jpg"
        },
        {
            "id": "dEAzbjMBBQ0",
            "title": "BHIKHARI | New Hindi Movie 2026 - Hrithik Roshan & Kajol Devgan | New Bollywood Full Action Movies",
            "url": "https://www.youtube.com/watch?v=dEAzbjMBBQ0",
            "duration": 8652.0,
            "view_count": 1040044,
            "uploader": "Entertainment Hub",
            "category": "hindi",
            "thumbnail": "https://i.ytimg.com/vi/dEAzbjMBBQ0/hq720.jpg"
        },
        {
            "id": "Vh3D3Syk7yc",
            "title": "Bahubali The Epic Full Movie In Hindi | Prabhas | S.S Rajamouli | Movie Zone ",
            "url": "https://www.youtube.com/watch?v=Vh3D3Syk7yc",
            "duration": 13434.0,
            "view_count": 7093936,
            "uploader": "Movie Zone",
            "category": "hindi",
            "thumbnail": "https://i.ytimg.com/vi/Vh3D3Syk7yc/hq720.jpg"
        },
        {
            "id": "Ny3dlom0ZW4",
            "title": "Geetha Govindam Full Movie In Hindi Dubbed Vijay Devarakonda & Rashmika Mandanna | Facts And Review",
            "url": "https://www.youtube.com/watch?v=Ny3dlom0ZW4",
            "duration": 7651.0,
            "view_count": 3843047,
            "uploader": "MANNU GMR",
            "category": "hindi",
            "thumbnail": "https://i.ytimg.com/vi/Ny3dlom0ZW4/hqdefault.jpg"
        },
        {
            "id": "IH50AozQNXE",
            "title": "Border 2 full movie, BORDER 2 original full hindi movie ",
            "url": "https://www.youtube.com/watch?v=IH50AozQNXE",
            "duration": 7465.0,
            "view_count": 3848845,
            "uploader": "SOUTH CENEMA ",
            "category": "hindi",
            "thumbnail": "https://i.ytimg.com/vi/IH50AozQNXE/hqdefault.jpg"
        },
        {
            "id": "89yF66bL97Q",
            "title": "DADDY Hindi Dubbed Full Movie | Ravi Teja Powerful Action Drama | South Indian Movie | Full HD 2026",
            "url": "https://www.youtube.com/watch?v=89yF66bL97Q",
            "duration": 7208.0,
            "view_count": 4815358,
            "uploader": "Duroflex Action",
            "category": "hindi",
            "thumbnail": "https://i.ytimg.com/vi/89yF66bL97Q/hq720.jpg"
        },
        {
            "id": "PCPttT1ALmc",
            "title": "PAATHSHAALA\" (Comedy Movie) Full HD Hindi Movie | Shahid Kapoor & Ayesha Takia New Bollywood Movie",
            "url": "https://www.youtube.com/watch?v=PCPttT1ALmc",
            "duration": 6240.0,
            "view_count": 3521484,
            "uploader": "RDC Bollywood Buzz",
            "category": "hindi",
            "thumbnail": "https://i.ytimg.com/vi/PCPttT1ALmc/hq720.jpg"
        },
        {
            "id": "xlpR1TMSt5o",
            "title": "Cocktail - Full Movie (HD)| Saif Ali Khan, Deepika Padukone, Diana Penty | Superhit Romantic Movie",
            "url": "https://www.youtube.com/watch?v=xlpR1TMSt5o",
            "duration": 8689.0,
            "view_count": 5193915,
            "uploader": "Eros Universe",
            "category": "hindi",
            "thumbnail": "https://i.ytimg.com/vi/xlpR1TMSt5o/hq720.jpg?sqp=-oaymwEcCNAFEJQDSFXyq4qpAw4IARUAAIhCGAFwAcABBg==&rs=AOn4CLAGuGl3Hy8aniIkpStLwVJPPDI3RA",
            "added_date": "2026-04-16T07:30:56.601385Z",
            "source": "youtube"
        },
        {
            "id": "YgDsb6p-h3c",
            "title": "Desi Boyz (2011) - Full Movie 8K/4K | Akshay K, John A, Deepika P, Chitangada S | Rohit Dhawan",
            "url": "https://www.youtube.com/watch?v=YgDsb6p-h3c",
            "duration": 7315.0,
            "view_count": 1018318,
            "uploader": "Eros Universe",
            "category": "hindi",
            "thumbnail": "https://i.ytimg.com/vi/YgDsb6p-h3c/hq720.jpg"
        },
        {
            "id": "rgBQ_q7PmJw",
            "title": "KAAL 2 Full Movie In Hindi Dubbed | Prabhas, Rashmika Mandanna | New South Indian Hindi Dubbed Movie",
            "url": "https://www.youtube.com/watch?v=rgBQ_q7PmJw",
            "duration": 8424.0,
            "view_count": 1807881,
            "uploader": "Movie Record South",
            "category": "hindi",
            "thumbnail": "https://i.ytimg.com/vi/rgBQ_q7PmJw/hq720.jpg"
        },
        {
            "id": "Iy-6jmQCcrI",
            "title": "Raabta (Full Movie): Sushant Singh Rajput | Kriti Sanon | Rajkummar Rao | Jim Sarbh | Varun Sharma",
            "url": "https://www.youtube.com/watch?v=Iy-6jmQCcrI",
            "duration": 8686.0,
            "view_count": 34780778,
            "uploader": "T-Series",
            "category": "hindi",
            "thumbnail": "https://i.ytimg.com/vi/Iy-6jmQCcrI/hq720.jpg"
        },
        {
            "id": "4AqmyKfHYp4",
            "title": "UDAIPUR FILES | KANHAIYA LAL TAILOR MURDER | FULL MOVIE | BHARAT S. SHRINATE | AMIT JANI| VIJAY RAAZ",
            "url": "https://www.youtube.com/watch?v=4AqmyKfHYp4",
            "duration": 5613.0,
            "view_count": 5412,
            "uploader": "Jani Firefox Films",
            "category": "hindi",
            "thumbnail": "https://i.ytimg.com/vi/4AqmyKfHYp4/hq720.jpg"
        },
        {
            "id": "ZX5dS3VDqgY",
            "title": "Govinda Superhit Hero No.1 (1997) Hindi Full Movie 4K | 90s Karisma Kapoor, Kader Khan, Paresh Rawal",
            "url": "https://www.youtube.com/watch?v=ZX5dS3VDqgY",
            "duration": 8257.0,
            "view_count": 2094851,
            "uploader": "Ultra 4K Movies",
            "category": "hindi",
            "thumbnail": "https://i.ytimg.com/vi/ZX5dS3VDqgY/hq720.jpg"
        },
        {
            "id": "VDFys9V9poQ",
            "title": "Extra Ordinary Man Hindi Dubbed Full Movie 2025 | Nithiin | Sreeleela | Rajasekhar | South New Movie",
            "url": "https://www.youtube.com/watch?v=VDFys9V9poQ",
            "duration": 8721.0,
            "view_count": 101023633,
            "uploader": "Aditya Movies and Aditya Dumdaar Dubbed Movies",
            "category": "hindi",
            "thumbnail": "https://i.ytimg.com/vi/VDFys9V9poQ/hq720.jpg"
        },
        {
            "id": "EbmpoWkA4N4",
            "title": "Manikarnika: The Queen of Jhansi - Kangana Ranaut - Superhit Hindi Action Full Movie",
            "url": "https://www.youtube.com/watch?v=EbmpoWkA4N4",
            "duration": 7799.0,
            "view_count": 12277833,
            "uploader": "Bollywood Premium",
            "category": "hindi",
            "thumbnail": "https://i.ytimg.com/vi/EbmpoWkA4N4/hq720.jpg"
        },
        {
            "id": "XMNsp5cpZEg",
            "title": "Mom (2017) - Superhit Hindi Movie With English Subtitles | Sridevi, Sajal Ali & Nawazuddin",
            "url": "https://www.youtube.com/watch?v=XMNsp5cpZEg",
            "duration": 8804.0,
            "view_count": 10217218,
            "uploader": "Bollywood Premium",
            "category": "hindi",
            "thumbnail": "https://i.ytimg.com/vi/XMNsp5cpZEg/hq720.jpg"
        },
        {
            "id": "IHod3HPfYVw",
            "title": "INDIAN IN PAKISTAN (Full Movie) Shahid Kapoor | Deepika Padukone | New Bollywood Action Movie 2026",
            "url": "https://www.youtube.com/watch?v=IHod3HPfYVw",
            "duration": 7978.0,
            "view_count": 3316670,
            "uploader": "Moviewood Cinema",
            "category": "hindi",
            "thumbnail": "https://i.ytimg.com/vi/IHod3HPfYVw/hq720.jpg"
        },
        {
            "id": "PCs4ArcEYpA",
            "title": "Doctor G | Full Movie 2022 | 1080p full HD New Hindi Bollywood movie | Ayushman Khurrana",
            "url": "https://www.youtube.com/watch?v=PCs4ArcEYpA",
            "duration": 7278.0,
            "view_count": 1367224,
            "uploader": "Tanvi Rao",
            "category": "hindi",
            "thumbnail": "https://i.ytimg.com/vi/PCs4ArcEYpA/hq720.jpg"
        },
        {
            "id": "S0nC_9yOkbY",
            "title": "AIRLIFT 4K Full Movie: Akshay Kumar | Nimrat Kaur | Raja Krishna | New Hindi Movie | Bhushan Kumar",
            "url": "https://www.youtube.com/watch?v=S0nC_9yOkbY",
            "duration": 7229.0,
            "view_count": 1266828,
            "uploader": "T-Series",
            "category": "hindi",
            "thumbnail": "https://i.ytimg.com/vi/S0nC_9yOkbY/hq720.jpg"
        },
        {
            "id": "6l_LIzXjo5g",
            "title": "CHAAR LUGAAI I Full Movie I Hindi Film I Hindi movie I Suspense I Thriller I Comedy",
            "url": "https://www.youtube.com/watch?v=6l_LIzXjo5g",
            "duration": 8490.0,
            "view_count": 14752856,
            "uploader": "STRIPES ENTERTAINMENT LLP",
            "category": "hindi",
            "thumbnail": "https://i.ytimg.com/vi/6l_LIzXjo5g/hq720.jpg"
        },
        {
            "id": "v4IO_axoXi0",
            "title": "Operation Blackfile (2026) Full Hindi Dubbed Action Movie | Mahesh Babu New South Blockbuster Movie",
            "url": "https://www.youtube.com/watch?v=v4IO_axoXi0",
            "duration": 8706.0,
            "view_count": 16287575,
            "uploader": "BYA Media",
            "category": "hindi",
            "thumbnail": "https://i.ytimg.com/vi/v4IO_axoXi0/hq720.jpg"
        },
        {
            "id": "j903ASEDWxc",
            "title": "Uri: The Surgical Strike - Hindi Patriotic Full Movie - Vicky Kaushal, Yami Gautam, Paresh Rawal",
            "url": "https://www.youtube.com/watch?v=j903ASEDWxc",
            "duration": 7956.0,
            "view_count": 27316016,
            "uploader": "Zee Movies Hindi",
            "category": "hindi",
            "thumbnail": "https://i.ytimg.com/vi/j903ASEDWxc/hqdefault.jpg"
        },
        {
            "id": "h2G31y_T0Ak",
            "title": "Justice LAW Full Movie Hindi Dubbed | Allu Arjun | Sanjay Dutt | New South Indian Action Movie 2026",
            "url": "https://www.youtube.com/watch?v=h2G31y_T0Ak",
            "duration": 8033.0,
            "view_count": 15714,
            "uploader": "Bollwood Cinema Hindi",
            "category": "hindi",
            "thumbnail": "https://i.ytimg.com/vi/h2G31y_T0Ak/hq720.jpg"
        },
        {
            "id": "10u_5vJGykk",
            "title": "OMG (OH MY GOD) Full Movie in HD (2012)",
            "url": "https://www.youtube.com/watch?v=10u_5vJGykk",
            "duration": 7735.0,
            "view_count": 1398641,
            "uploader": "BBA To Bschool",
            "category": "hindi",
            "thumbnail": "https://i.ytimg.com/vi/10u_5vJGykk/hqdefault.jpg"
        },
        {
            "id": "G42K53aWh_Y",
            "title": "Honey (2026) (Hindi + Telugu) Dual Audio UnCut South Movie HD ESub.",
            "url": "https://www.youtube.com/watch?v=G42K53aWh_Y",
            "duration": 7089.0,
            "view_count": 1009327,
            "uploader": "Simple Ai",
            "category": "hindi",
            "thumbnail": "https://i.ytimg.com/vi/G42K53aWh_Y/hqdefault.jpg"
        },
        {
            "id": "rK7sxsDQW-0",
            "title": "Pagal Full Movie 2026 | Aamir khan, Vijay Raaz, Malaika Arora | Latest Superhit Bollywood Movie 2026",
            "url": "https://www.youtube.com/watch?v=rK7sxsDQW-0",
            "duration": 5717.0,
            "view_count": 1026043,
            "uploader": "Bollwood Cinema Hindi",
            "category": "hindi",
            "thumbnail": "https://i.ytimg.com/vi/rK7sxsDQW-0/hq720.jpg"
        },
        {
            "id": "aagt3C2whb4",
            "title": "Betti Full Movie | Ajay Devgan | Rani Mukerji | Janki | Tabu | Latest Bollywood Thriller Movie 2026",
            "url": "https://www.youtube.com/watch?v=aagt3C2whb4",
            "duration": 6869.0,
            "view_count": 2010392,
            "uploader": "Moviewood Cinema",
            "category": "hindi",
            "thumbnail": "https://i.ytimg.com/vi/aagt3C2whb4/hq720.jpg"
        },
        {
            "id": "VX_nqFFCORU",
            "title": "Love Giri | South Hindi Dubbed Action Romantic Movie Full Love Story | Suhas, Ruhani Sharma New Movi",
            "url": "https://www.youtube.com/watch?v=VX_nqFFCORU",
            "duration": 6382.0,
            "view_count": 5339,
            "uploader": "Sur Movies Multiplex",
            "category": "hindi",
            "thumbnail": "https://i.ytimg.com/vi/VX_nqFFCORU/hq720.jpg"
        },
        {
            "id": "6M191qGTZA4",
            "title": "Hindi Medium (Full Movie) - HD | Irrfan Khan, Saba Qamar, Deepak Dobriyal | Superhit Comedy Movie",
            "url": "https://www.youtube.com/watch?v=6M191qGTZA4",
            "duration": 7934.0,
            "view_count": 30897834,
            "uploader": "T-Series",
            "category": "hindi",
            "thumbnail": "https://i.ytimg.com/vi/6M191qGTZA4/hq720.jpg"
        },
        {
            "id": "D_sIl-ia9I8",
            "title": "36 China Town Full Hindi Movie (4K) Suspense Thriller | Shahid Kapoor & Kareena | Akshaye Khanna",
            "url": "https://www.youtube.com/watch?v=D_sIl-ia9I8",
            "duration": 8085.0,
            "view_count": 2497462,
            "uploader": "Ultra Movie Parlour",
            "category": "hindi",
            "thumbnail": "https://i.ytimg.com/vi/D_sIl-ia9I8/hq720.jpg"
        },
        {
            "id": "rAZIxw3p67U",
            "title": "2025 Ram Charan | Sipahi | New Released Blockbuster South Hindi Dubbed Full Action Movie in 4K",
            "url": "https://www.youtube.com/watch?v=rAZIxw3p67U",
            "duration": 7729.0,
            "view_count": 3378711,
            "uploader": "Home TV",
            "category": "hindi",
            "thumbnail": "https://i.ytimg.com/vi/rAZIxw3p67U/hq720.jpg"
        },
        {
            "id": "rc7KrNb36MY",
            "title": "EEGA 2 (2026) | Ram Charan New South Hindi Dubbed Thriller Full Movie | Full HD",
            "url": "https://www.youtube.com/watch?v=rc7KrNb36MY",
            "duration": 7622.0,
            "view_count": 177537,
            "uploader": "Screen Movies",
            "category": "hindi",
            "thumbnail": "https://i.ytimg.com/vi/rc7KrNb36MY/hq720.jpg"
        },
        {
            "id": "b0xTWIEUpLw",
            "title": "HATE STORY 3 - 4K Full Movie: Sharman Joshi| Zareen Khan| Karan Singh Grover| Daisy Shah| Bhushan K",
            "url": "https://www.youtube.com/watch?v=b0xTWIEUpLw",
            "duration": 7773.0,
            "view_count": 183197,
            "uploader": "T-Series",
            "category": "hindi",
            "thumbnail": "https://i.ytimg.com/vi/b0xTWIEUpLw/hq720.jpg"
        },
        {
            "id": "G86x_jlO2lQ",
            "title": "S.U.V Full Movie Hindi Dubbed | Prabhas & Keerthy Suresh | Latest South Indian Action Movie 2026",
            "url": "https://www.youtube.com/watch?v=G86x_jlO2lQ",
            "duration": 7275.0,
            "view_count": 1057,
            "uploader": "Plastic Cinema",
            "category": "hindi",
            "thumbnail": "https://i.ytimg.com/vi/G86x_jlO2lQ/hq720.jpg"
        },
        {
            "id": "Wt-3H2EDbH8",
            "title": "Naam Shabana (2017) Full Hindi Movie (4K) Akshay Kumar & Taapsee Pannu | Manoj Bajpayee| Deshbhakti",
            "url": "https://www.youtube.com/watch?v=Wt-3H2EDbH8",
            "duration": 8898.0,
            "view_count": 2621255,
            "uploader": "Ultra Movie Parlour",
            "category": "hindi",
            "thumbnail": "https://i.ytimg.com/vi/Wt-3H2EDbH8/hq720.jpg?sqp=-oaymwEcCNAFEJQDSFXyq4qpAw4IARUAAIhCGAFwAcABBg==&rs=AOn4CLCejnBVu7JJaznb4YNTAycrdhA5Iw",
            "added_date": "2026-04-16T07:30:57.202496Z",
            "source": "youtube"
        },
        {
            "id": "HMh8edSR-Qg",
            "title": "PATIALA HOUSE (FULL MOVIE): AKSHAY KUMAR, ANUSHKA SHARMA | RISHI KAPOOR | NIKKHIL ADVANI | BHUSHAN K",
            "url": "https://www.youtube.com/watch?v=HMh8edSR-Qg",
            "duration": 8436.0,
            "view_count": 7322998,
            "uploader": "T-Series",
            "category": "hindi",
            "thumbnail": "https://i.ytimg.com/vi/HMh8edSR-Qg/hq720.jpg"
        },
        {
            "id": "1iBBqMUbOKo",
            "title": "Pushpa 3 Full Movie | Allu Arjun | Rashmika Mandanna | New South Indian Hindi Dubbed Movie 2026",
            "url": "https://www.youtube.com/watch?v=1iBBqMUbOKo",
            "duration": 8722.0,
            "view_count": 5612,
            "uploader": "Plastic Cinema",
            "category": "hindi",
            "thumbnail": "https://i.ytimg.com/vi/1iBBqMUbOKo/hq720.jpg"
        },
        {
            "id": "aHNcSobcnkM",
            "title": "Commando 4 New Hindi Movie | Vidyut Jammwal  | Full Action Blockbuster Movie",
            "url": "https://www.youtube.com/watch?v=aHNcSobcnkM",
            "duration": 6520.0,
            "view_count": 350292,
            "uploader": "Screen Movies",
            "category": "hindi",
            "thumbnail": "https://i.ytimg.com/vi/aHNcSobcnkM/hq720.jpg"
        },
        {
            "id": "dKtA48ovLLE",
            "title": "AK 47 Full Movie In Hindi Dubbed 2026 | Ajit Kumar | New Released South Hindi Dubbed Movie 2026",
            "url": "https://www.youtube.com/watch?v=dKtA48ovLLE",
            "duration": 7568.0,
            "view_count": 51160,
            "uploader": "Imkundu Movies",
            "category": "hindi",
            "thumbnail": "https://i.ytimg.com/vi/dKtA48ovLLE/hq720.jpg"
        },
        {
            "id": "qd1cK0JfTpk",
            "title": "Pushpa 3 (Hindi Dubbed) Full Movie | Allu Arjun, Rashmika Mandanna | Action Thriller 2025",
            "url": "https://www.youtube.com/watch?v=qd1cK0JfTpk",
            "duration": 9698.0,
            "view_count": 15081,
            "uploader": "PlayNation",
            "category": "hindi",
            "thumbnail": "https://i.ytimg.com/vi/qd1cK0JfTpk/hq720.jpg"
        },
        {
            "id": "O3c7u3qQ1vI",
            "title": "Mahesh Babu | Sarkar Full Action Movie | New Hindi Dubbed Blockbuster 2026 HD",
            "url": "https://www.youtube.com/watch?v=O3c7u3qQ1vI",
            "duration": 6170.0,
            "view_count": 2414,
            "uploader": "MovieMindset",
            "category": "hindi",
            "thumbnail": "https://i.ytimg.com/vi/O3c7u3qQ1vI/hq720.jpg"
        },
        {
            "id": "Ht9htQhbc8E",
            "title": "EMPIRE Full Movie in Hindi | Vijay Deverakonda | Rashmika Mandanna | Murali Sharma | New Movie 2026",
            "url": "https://www.youtube.com/watch?v=Ht9htQhbc8E",
            "duration": 6537.0,
            "view_count": 40090,
            "uploader": "Moviewood Cinema",
            "category": "hindi",
            "thumbnail": "https://i.ytimg.com/vi/Ht9htQhbc8E/hq720.jpg"
        },
        {
            "id": "fr_gc8s6ujk",
            "title": "DADDY Full Movie 2026 | Hrithik Roshan | Bobby Deol | Katrina Kaif | New Bollywood Action Movie 2026",
            "url": "https://www.youtube.com/watch?v=fr_gc8s6ujk",
            "duration": 8422.0,
            "view_count": 2034,
            "uploader": "Cine South Cinema",
            "category": "hindi",
            "thumbnail": "https://i.ytimg.com/vi/fr_gc8s6ujk/hq720.jpg"
        },
        {
            "id": "_rfOQHBsdOE",
            "title": "FAUZI WAR Full Movie In Hindi Dubbed 2026 | Prabhas | New South Indian Hindi Dubbed Movies 2026",
            "url": "https://www.youtube.com/watch?v=_rfOQHBsdOE",
            "duration": 5798.0,
            "view_count": 27473,
            "uploader": "FilmyJunction",
            "category": "hindi",
            "thumbnail": "https://i.ytimg.com/vi/_rfOQHBsdOE/hq720.jpg"
        },
        {
            "id": "XFRwbcT3c6Q",
            "title": "Rani -The Real Story (2026) New Released Full Action Thriller South Hindi Dubbed Movie | South Movie",
            "url": "https://www.youtube.com/watch?v=XFRwbcT3c6Q",
            "duration": 6459.0,
            "view_count": 61611,
            "uploader": "RDC South Dubbed",
            "category": "hindi",
            "thumbnail": "https://i.ytimg.com/vi/XFRwbcT3c6Q/hq720.jpg"
        },
        {
            "id": "qxaMCFllVaE",
            "title": "Veerananda - Ram Charan South New 2026 Blockbuster Action Movie In Hindi | Janhvi | Trisha",
            "url": "https://www.youtube.com/watch?v=qxaMCFllVaE",
            "duration": 8534.0,
            "view_count": 7274394,
            "uploader": "Hindi Movie Cinema",
            "category": "hindi",
            "thumbnail": "https://i.ytimg.com/vi/qxaMCFllVaE/hq720.jpg"
        },
        {
            "id": "1JkhaUX3BKM",
            "title": "Varanasi (Hindi Dubbed) | Mahesh Babu New South Action Movie | Full Action Thriller Movie | HD",
            "url": "https://www.youtube.com/watch?v=1JkhaUX3BKM",
            "duration": 10352.0,
            "view_count": 10617483,
            "uploader": "Story Unlocked Cinema",
            "category": "hindi",
            "thumbnail": "https://i.ytimg.com/vi/1JkhaUX3BKM/hq720.jpg"
        },
        {
            "id": "lRm6tYF_MoM",
            "title": "De Dana Dan - Full Film HD | Akshay K | Katrina K | Suniel S | Paresh R | Superhit Bollywood Comedy",
            "url": "https://www.youtube.com/watch?v=lRm6tYF_MoM",
            "duration": 10048.0,
            "view_count": 5463351,
            "uploader": "Eros Universe",
            "category": "hindi",
            "thumbnail": "https://i.ytimg.com/vi/lRm6tYF_MoM/hq720.jpg"
        }
    ]
}