{
    "page": 62,
    "total_pages": 103,
    "total_items": 5125,
    "items": [
        {
            "id": "LF3dw3COLEo",
            "title": "Gattu Battu | Full Episode | 🚀Robot King की चालाकी! Gattu Battu Ready? 🤖",
            "url": "https://www.youtube.com/watch?v=LF3dw3COLEo",
            "duration": 1306.0,
            "view_count": 251626,
            "uploader": "Sonic Gang",
            "category": "cartoons/gattu_battu",
            "thumbnail": "https://i.ytimg.com/vi/LF3dw3COLEo/hq720.jpg"
        },
        {
            "id": "Ll_lkdExqCo",
            "title": "Gattu Battu | Full Episode | Captain Parrot",
            "url": "https://www.youtube.com/watch?v=Ll_lkdExqCo",
            "duration": 1293.0,
            "view_count": 704642,
            "uploader": "Sonic Gang",
            "category": "cartoons/gattu_battu",
            "thumbnail": "https://i.ytimg.com/vi/Ll_lkdExqCo/hq720.jpg"
        },
        {
            "id": "xmsIStI-BAU",
            "title": "Gattu Battu | Full Episode | The Black Bull",
            "url": "https://www.youtube.com/watch?v=xmsIStI-BAU",
            "duration": 1368.0,
            "view_count": 442045,
            "uploader": "Sonic Gang",
            "category": "cartoons/gattu_battu",
            "thumbnail": "https://i.ytimg.com/vi/xmsIStI-BAU/hq720.jpg"
        },
        {
            "id": "owbBigZE74I",
            "title": "Gattu Battu | Full Episode | अरे ये क्या! एक लंगूर 🚗💨 चोरी करके भाग रहा है! 😂🐒",
            "url": "https://www.youtube.com/watch?v=owbBigZE74I",
            "duration": 1262.0,
            "view_count": 567305,
            "uploader": "Sonic Gang",
            "category": "cartoons/gattu_battu",
            "thumbnail": "https://i.ytimg.com/vi/owbBigZE74I/hq720.jpg"
        },
        {
            "id": "6neqP6ByEJQ",
            "title": "Gattu Battu | Full Episode | Gattu और Battu की Ski Trip में Yeti का हमला!",
            "url": "https://www.youtube.com/watch?v=6neqP6ByEJQ",
            "duration": 1259.0,
            "view_count": 299958,
            "uploader": "Sonic Gang",
            "category": "cartoons/gattu_battu",
            "thumbnail": "https://i.ytimg.com/vi/6neqP6ByEJQ/hq720.jpg"
        },
        {
            "id": "TeVucafBrMU",
            "title": "Gattu Battu | Full Episode | सेठ! तुमसे Bank तो संभाला नहीं जाता, तुम हीरे क्या संभालोगे? 💰💎🤣",
            "url": "https://www.youtube.com/watch?v=TeVucafBrMU",
            "duration": 1359.0,
            "view_count": 70886,
            "uploader": "Sonic Gang",
            "category": "cartoons/gattu_battu",
            "thumbnail": "https://i.ytimg.com/vi/TeVucafBrMU/hq720.jpg"
        },
        {
            "id": "Aj2QbrGr7uY",
            "title": "Gattu Battu | Full Episode | Gattu Kidnapped",
            "url": "https://www.youtube.com/watch?v=Aj2QbrGr7uY",
            "duration": 1359.0,
            "view_count": 493739,
            "uploader": "Sonic Gang",
            "category": "cartoons/gattu_battu",
            "thumbnail": "https://i.ytimg.com/vi/Aj2QbrGr7uY/hq720.jpg"
        },
        {
            "id": "EKT_UGCdY4w",
            "title": "Gattu Battu | Full Episode | Aliens 👽 ने Dogs से करवाया Crazy Dance! 🐶💃",
            "url": "https://www.youtube.com/watch?v=EKT_UGCdY4w",
            "duration": 1257.0,
            "view_count": 116662,
            "uploader": "Sonic Gang",
            "category": "cartoons/gattu_battu",
            "thumbnail": "https://i.ytimg.com/vi/EKT_UGCdY4w/hq720.jpg"
        },
        {
            "id": "ehP2eXVd2vI",
            "title": "Gattu battu  गट्टू बट्टू new episode | New adventure",
            "url": "https://www.youtube.com/watch?v=ehP2eXVd2vI",
            "duration": 1220.0,
            "view_count": 324976,
            "uploader": "TOON LAGAON",
            "category": "cartoons/gattu_battu",
            "thumbnail": "https://i.ytimg.com/vi/ehP2eXVd2vI/hqdefault.jpg"
        },
        {
            "id": "5JnZlmAfpGE",
            "title": "Gattu Battu | Full Episode 101 | Ting Tong की खोयी Memory, दरवाज़े से टकराकर",
            "url": "https://www.youtube.com/watch?v=5JnZlmAfpGE",
            "duration": 1167.0,
            "view_count": 163405,
            "uploader": "JioHotstar Kids",
            "category": "cartoons/gattu_battu",
            "thumbnail": "https://i.ytimg.com/vi/5JnZlmAfpGE/hq720.jpg"
        },
        {
            "id": "7uP897Xt7Nw",
            "title": "Ting Tong The Steelman | Gattu Battu | Full Episode |",
            "url": "https://www.youtube.com/watch?v=7uP897Xt7Nw",
            "duration": 1237.0,
            "view_count": 6281,
            "uploader": "ToonStationX",
            "category": "cartoons/gattu_battu",
            "thumbnail": "https://i.ytimg.com/vi/7uP897Xt7Nw/hqdefault.jpg"
        },
        {
            "id": "lB--tGDgxtY",
            "title": "Gattu Battu | Full Episode | Frog Man",
            "url": "https://www.youtube.com/watch?v=lB--tGDgxtY",
            "duration": 1243.0,
            "view_count": 574506,
            "uploader": "Sonic Gang",
            "category": "cartoons/gattu_battu",
            "thumbnail": "https://i.ytimg.com/vi/lB--tGDgxtY/hq720.jpg"
        },
        {
            "id": "1N6SOwSiSdU",
            "title": "Gattu Battu movie in hindi // cartun movies hindi",
            "url": "https://www.youtube.com/watch?v=1N6SOwSiSdU",
            "duration": 4222.0,
            "view_count": 179303,
            "uploader": "AKS MUSIC",
            "category": "cartoons/gattu_battu",
            "thumbnail": "https://i.ytimg.com/vi/1N6SOwSiSdU/hqdefault.jpg"
        },
        {
            "id": "79BEM069M3s",
            "title": "Gattu Battu | Full Epi 115 | सुनो डॉगी 🐶, मैं तुम्हे बहुत सारी हड्डियां 🍖 दूंगा! जाओ और उसे काट लो!",
            "url": "https://www.youtube.com/watch?v=79BEM069M3s",
            "duration": 1428.0,
            "view_count": 282305,
            "uploader": "JioHotstar Kids",
            "category": "cartoons/gattu_battu",
            "thumbnail": "https://i.ytimg.com/vi/79BEM069M3s/hq720.jpg"
        },
        {
            "id": "RNKdOU4Inz0",
            "title": "Gattu Battu | Full Episode | Sher Singh के Laser Gloves",
            "url": "https://www.youtube.com/watch?v=RNKdOU4Inz0",
            "duration": 1295.0,
            "view_count": 115662,
            "uploader": "Sonic Gang",
            "category": "cartoons/gattu_battu",
            "thumbnail": "https://i.ytimg.com/vi/RNKdOU4Inz0/hq720.jpg"
        },
        {
            "id": "S2xvANNzTvA",
            "title": "Gattu Battu | Full Episode | Aag ki Barsaat",
            "url": "https://www.youtube.com/watch?v=S2xvANNzTvA",
            "duration": 1242.0,
            "view_count": 1053080,
            "uploader": "Sonic Gang",
            "category": "cartoons/gattu_battu",
            "thumbnail": "https://i.ytimg.com/vi/S2xvANNzTvA/hq720.jpg"
        },
        {
            "id": "JocBeq0H-Cw",
            "title": "Gattu Battu | सर्पराज ने किया Gattu Battu का Welcome 🐍🎉 | Part 2 of 2",
            "url": "https://www.youtube.com/watch?v=JocBeq0H-Cw",
            "duration": 771.0,
            "view_count": 383913,
            "uploader": "Sonic Gang",
            "category": "cartoons/gattu_battu",
            "thumbnail": "https://i.ytimg.com/vi/JocBeq0H-Cw/hq720.jpg"
        },
        {
            "id": "245NeDSaoYU",
            "title": "Gattu Battu | Full Episode | भूकंप से लड़ाई! Gattu Battu की नई चुनौती 🌍💥",
            "url": "https://www.youtube.com/watch?v=245NeDSaoYU",
            "duration": 1274.0,
            "view_count": 170329,
            "uploader": "Sonic Gang",
            "category": "cartoons/gattu_battu",
            "thumbnail": "https://i.ytimg.com/vi/245NeDSaoYU/hq720.jpg"
        },
        {
            "id": "Xz3oyv2wxjc",
            "title": "Gattu Battu The Time Machine Full Movie In Hindi 1080p HD | AM KIDZ | Gattu Battu New Movie ",
            "url": "https://www.youtube.com/watch?v=Xz3oyv2wxjc",
            "duration": 2580.0,
            "view_count": 8287,
            "uploader": "AM KIDZ",
            "category": "cartoons/gattu_battu",
            "thumbnail": "https://i.ytimg.com/vi/Xz3oyv2wxjc/hq720.jpg"
        },
        {
            "id": "4Px-6e0hjZM",
            "title": "Gattu Battu | Full Episode | Sher Singh की खोयी यादाश्त! 🐯🤔 Drama से भरी कहानी!",
            "url": "https://www.youtube.com/watch?v=4Px-6e0hjZM",
            "duration": 1249.0,
            "view_count": 155291,
            "uploader": "Sonic Gang",
            "category": "cartoons/gattu_battu",
            "thumbnail": "https://i.ytimg.com/vi/4Px-6e0hjZM/hq720.jpg"
        },
        {
            "id": "j8mHztVHMuY",
            "title": "Ninja Night Crawlers || Full Episode || Gattu Battu ||",
            "url": "https://www.youtube.com/watch?v=j8mHztVHMuY",
            "duration": 1294.0,
            "view_count": 5837,
            "uploader": "ToonStationX",
            "category": "cartoons/gattu_battu",
            "thumbnail": "https://i.ytimg.com/vi/j8mHztVHMuY/hqdefault.jpg"
        },
        {
            "id": "3KBZsE5DtpY",
            "title": "Gattu Battu गट्टू बट्टू Cartoon Episode | Hindi Entertainment",
            "url": "https://www.youtube.com/watch?v=3KBZsE5DtpY",
            "duration": 663.0,
            "view_count": 164025,
            "uploader": "TOON LAGAON",
            "category": "cartoons/gattu_battu",
            "thumbnail": "https://i.ytimg.com/vi/3KBZsE5DtpY/hq720.jpg"
        },
        {
            "id": "AKaxukyHNyg",
            "title": "Gattu Battu | Full Episode | Battu को हुई ग़लतफ़हमी, तैयारी की जीभ Race की",
            "url": "https://www.youtube.com/watch?v=AKaxukyHNyg",
            "duration": 1208.0,
            "view_count": 590958,
            "uploader": "Sonic Gang",
            "category": "cartoons/gattu_battu",
            "thumbnail": "https://i.ytimg.com/vi/AKaxukyHNyg/hq720.jpg"
        },
        {
            "id": "tkuMOkW5yTI",
            "title": "Gattu Battu | Full Episode | Viral Truth",
            "url": "https://www.youtube.com/watch?v=tkuMOkW5yTI",
            "duration": 1169.0,
            "view_count": 494304,
            "uploader": "Sonic Gang",
            "category": "cartoons/gattu_battu",
            "thumbnail": "https://i.ytimg.com/vi/tkuMOkW5yTI/hq720.jpg"
        },
        {
            "id": "9JedE16MJPU",
            "title": "Gattu Battu | Full Episode | चोरी हुए रत्न! Gattu-Battu करेंगे खुलासा? 🕵️‍♂️💎",
            "url": "https://www.youtube.com/watch?v=9JedE16MJPU",
            "duration": 1527.0,
            "view_count": 148224,
            "uploader": "Sonic Gang",
            "category": "cartoons/gattu_battu",
            "thumbnail": "https://i.ytimg.com/vi/9JedE16MJPU/hq720.jpg"
        },
        {
            "id": "NrQAmocWazQ",
            "title": "Gattu Battu | Full Episode | ये Bridge पर जाने का नहीं, ऊपर वाले के पास जाने का Shortcut है! ☠️😱",
            "url": "https://www.youtube.com/watch?v=NrQAmocWazQ",
            "duration": 1286.0,
            "view_count": 382084,
            "uploader": "Sonic Gang",
            "category": "cartoons/gattu_battu",
            "thumbnail": "https://i.ytimg.com/vi/NrQAmocWazQ/hq720.jpg"
        },
        {
            "id": "B-KheZyDrcA",
            "title": "Gattu Battu | Full Episode | Robot Gang",
            "url": "https://www.youtube.com/watch?v=B-KheZyDrcA",
            "duration": 1286.0,
            "view_count": 477587,
            "uploader": "Sonic Gang",
            "category": "cartoons/gattu_battu",
            "thumbnail": "https://i.ytimg.com/vi/B-KheZyDrcA/hq720.jpg"
        },
        {
            "id": "yCbAZJ0NNp0",
            "title": "Gattu Battu | Joker Gang | Part 2 of 2",
            "url": "https://www.youtube.com/watch?v=yCbAZJ0NNp0",
            "duration": 680.0,
            "view_count": 1948109,
            "uploader": "Sonic Gang",
            "category": "cartoons/gattu_battu",
            "thumbnail": "https://i.ytimg.com/vi/yCbAZJ0NNp0/hq720.jpg"
        },
        {
            "id": "uokUyaJYWyU",
            "title": "The Genie || Full Episode || Gattu Battu ||",
            "url": "https://www.youtube.com/watch?v=uokUyaJYWyU",
            "duration": 1446.0,
            "view_count": 53592,
            "uploader": "ToonStationX",
            "category": "cartoons/gattu_battu",
            "thumbnail": "https://i.ytimg.com/vi/uokUyaJYWyU/hqdefault.jpg"
        },
        {
            "id": "uXOl65R69f8",
            "title": "Gattu Battu Season 1 - Episode 31",
            "url": "https://www.youtube.com/watch?v=uXOl65R69f8",
            "duration": 1185.0,
            "view_count": 8835582,
            "uploader": "JioHotstar Kids",
            "category": "cartoons/gattu_battu",
            "thumbnail": "https://i.ytimg.com/vi/uXOl65R69f8/hq720.jpg"
        },
        {
            "id": "kuaczPji9bE",
            "title": "Gattu Battu Season 1 - Episode 5",
            "url": "https://www.youtube.com/watch?v=kuaczPji9bE",
            "duration": 1105.0,
            "view_count": 10696371,
            "uploader": "JioHotstar Kids",
            "category": "cartoons/gattu_battu",
            "thumbnail": "https://i.ytimg.com/vi/kuaczPji9bE/hq720.jpg"
        },
        {
            "id": "7X7M2-QWR_I",
            "title": "Golmaal Jr Humshakals Ka Golmaal (2025) In Hindi Cartoon Movie",
            "url": "https://www.youtube.com/watch?v=7X7M2-QWR_I",
            "duration": 2612.0,
            "view_count": 131594,
            "uploader": "C4 Cartoon",
            "category": "cartoons/golmaal_jr",
            "thumbnail": "https://i.ytimg.com/vi/7X7M2-QWR_I/hqdefault.jpg"
        },
        {
            "id": "U94-vgTALXQ",
            "title": "Golmaal Junior | Full Episode | आप तो दया के सागर हो, सागर और इस कबाड़ के भी! 🌊😆🚮",
            "url": "https://www.youtube.com/watch?v=U94-vgTALXQ",
            "duration": 730.0,
            "view_count": 538471,
            "uploader": "Sonic Gang",
            "category": "cartoons/golmaal_jr",
            "thumbnail": "https://i.ytimg.com/vi/U94-vgTALXQ/hq720.jpg"
        },
        {
            "id": "eG2TvnmhTG0",
            "title": "Golmaal Junior | Full Episode | Madhav का Pappi से बचने का चालाक plan! 🤔🕵️",
            "url": "https://www.youtube.com/watch?v=eG2TvnmhTG0",
            "duration": 725.0,
            "view_count": 415018,
            "uploader": "Sonic Gang",
            "category": "cartoons/golmaal_jr",
            "thumbnail": "https://i.ytimg.com/vi/eG2TvnmhTG0/hq720.jpg"
        },
        {
            "id": "4crG7fRPyFI",
            "title": "Golmaal Junior | Full Episode | भेड़िया बना साया | Gopal और Madhav की जंग! 🐺⚔️",
            "url": "https://www.youtube.com/watch?v=4crG7fRPyFI",
            "duration": 650.0,
            "view_count": 319121,
            "uploader": "Sonic Gang",
            "category": "cartoons/golmaal_jr",
            "thumbnail": "https://i.ytimg.com/vi/4crG7fRPyFI/hq720.jpg"
        },
        {
            "id": "8lcSFijOtY4",
            "title": "Golmaal Junior | Full Episode | Kaun कितना खा सकता है ?",
            "url": "https://www.youtube.com/watch?v=8lcSFijOtY4",
            "duration": 702.0,
            "view_count": 1128298,
            "uploader": "Sonic Gang",
            "category": "cartoons/golmaal_jr",
            "thumbnail": "https://i.ytimg.com/vi/8lcSFijOtY4/hq720.jpg"
        },
        {
            "id": "5Mo476QVnVs",
            "title": "Golmaal Junior | Full Episode | स्कूल में क्यों लगा CCTV",
            "url": "https://www.youtube.com/watch?v=5Mo476QVnVs",
            "duration": 705.0,
            "view_count": 419034,
            "uploader": "Sonic Gang",
            "category": "cartoons/golmaal_jr",
            "thumbnail": "https://i.ytimg.com/vi/5Mo476QVnVs/hq720.jpg"
        },
        {
            "id": "UIoBRvFjBHY",
            "title": "Golmaal Junior | Full Episode | क्या Gopal का High Josh काम आएगा Trophy जीतने में?",
            "url": "https://www.youtube.com/watch?v=UIoBRvFjBHY",
            "duration": 723.0,
            "view_count": 798980,
            "uploader": "Sonic Gang",
            "category": "cartoons/golmaal_jr",
            "thumbnail": "https://i.ytimg.com/vi/UIoBRvFjBHY/hq720.jpg"
        },
        {
            "id": "00EAVQdXxaw",
            "title": "Golmaal Junior | Full Episode | भाई! आपके प्लान पर तो पानी फिर गया! 💦🤣",
            "url": "https://www.youtube.com/watch?v=00EAVQdXxaw",
            "duration": 672.0,
            "view_count": 442286,
            "uploader": "Sonic Gang",
            "category": "cartoons/golmaal_jr",
            "thumbnail": "https://i.ytimg.com/vi/00EAVQdXxaw/hq720.jpg"
        },
        {
            "id": "Jnpbx-408vs",
            "title": "Golmaal Junior | Full Episode | Bhagwan ka bhatakti rooh! Gopal और Madhav के बीच क्या होगा? 😱🎭",
            "url": "https://www.youtube.com/watch?v=Jnpbx-408vs",
            "duration": 709.0,
            "view_count": 402307,
            "uploader": "Sonic Gang",
            "category": "cartoons/golmaal_jr",
            "thumbnail": "https://i.ytimg.com/vi/Jnpbx-408vs/hq720.jpg"
        },
        {
            "id": "ih7BQJlU_aA",
            "title": "Golmaal Junior | Full Episode | Madhav और Gopal को सीखना है गरबा",
            "url": "https://www.youtube.com/watch?v=ih7BQJlU_aA",
            "duration": 682.0,
            "view_count": 354244,
            "uploader": "Sonic Gang",
            "category": "cartoons/golmaal_jr",
            "thumbnail": "https://i.ytimg.com/vi/ih7BQJlU_aA/hq720.jpg"
        },
        {
            "id": "06n4V95t-gI",
            "title": "Golmaal Junior | Full Episode | Pappi Vs Time: Paper 📄 चोरी की जाँच शुरू! 🔍🤣",
            "url": "https://www.youtube.com/watch?v=06n4V95t-gI",
            "duration": 737.0,
            "view_count": 297987,
            "uploader": "Sonic Gang",
            "category": "cartoons/golmaal_jr",
            "thumbnail": "https://i.ytimg.com/vi/06n4V95t-gI/hq720.jpg"
        },
        {
            "id": "59JaHfa6cRo",
            "title": "গোপাল অর মাধব কা খাওয়ার প্রতিযোগিতা | Golmaal Junior | Full Episode 25",
            "url": "https://www.youtube.com/watch?v=59JaHfa6cRo",
            "duration": 701.0,
            "view_count": 647647,
            "uploader": "Sonic Gang Bangla",
            "category": "cartoons/golmaal_jr",
            "thumbnail": "https://i.ytimg.com/vi/59JaHfa6cRo/hq720.jpg"
        },
        {
            "id": "HBn4SSL6ZWo",
            "title": "Golmaal Junior | Full Episode | ये Socks मेरी है !",
            "url": "https://www.youtube.com/watch?v=HBn4SSL6ZWo",
            "duration": 669.0,
            "view_count": 443719,
            "uploader": "Sonic Gang",
            "category": "cartoons/golmaal_jr",
            "thumbnail": "https://i.ytimg.com/vi/HBn4SSL6ZWo/hq720.jpg"
        },
        {
            "id": "7k8lpSgzyVg",
            "title": "Golmaal Junior | Full Episode | Chunky ki pol",
            "url": "https://www.youtube.com/watch?v=7k8lpSgzyVg",
            "duration": 791.0,
            "view_count": 1443978,
            "uploader": "Sonic Gang",
            "category": "cartoons/golmaal_jr",
            "thumbnail": "https://i.ytimg.com/vi/7k8lpSgzyVg/hq720.jpg"
        },
        {
            "id": "-mBEf-x_FhY",
            "title": "ಗೋಪಾಲ್ ಮತ್ತು ಮಾಧವ್ ಅವರಲ್ಲಿ ಚಂದ್ರನಿಗೆ ಯಾರು ಹೋಗುತ್ತಾರೆ? | Golmaal Junior | Full Episode 47",
            "url": "https://www.youtube.com/watch?v=-mBEf-x_FhY",
            "duration": 730.0,
            "view_count": 25887,
            "uploader": "Sonic Gang Kannada",
            "category": "cartoons/golmaal_jr",
            "thumbnail": "https://i.ytimg.com/vi/-mBEf-x_FhY/hq720.jpg"
        },
        {
            "id": "EOO5qVwjwdE",
            "title": "Golmaal Junior | Full Episode | मैं इन्हे पनिश कर रहा हूँ और ये मुझे थैंक यू बोल रहे है! 🤔😂",
            "url": "https://www.youtube.com/watch?v=EOO5qVwjwdE",
            "duration": 725.0,
            "view_count": 585156,
            "uploader": "Sonic Gang",
            "category": "cartoons/golmaal_jr",
            "thumbnail": "https://i.ytimg.com/vi/EOO5qVwjwdE/hq720.jpg"
        },
        {
            "id": "wTS6MvPsPZ4",
            "title": "Golmaal Junior | Full Episode | Pappi जा रहा है, Motor Boat पर Picnic मनाने! 🚤🍔🌊",
            "url": "https://www.youtube.com/watch?v=wTS6MvPsPZ4",
            "duration": 703.0,
            "view_count": 346847,
            "uploader": "Sonic Gang",
            "category": "cartoons/golmaal_jr",
            "thumbnail": "https://i.ytimg.com/vi/wTS6MvPsPZ4/hq720.jpg"
        },
        {
            "id": "oSSfRzP-bAA",
            "title": "Golmaal Junior | Full Episode | कौन ढूंढ के लाएगा Pappi को? 🐶🔍 रोमांच शुरू!",
            "url": "https://www.youtube.com/watch?v=oSSfRzP-bAA",
            "duration": 701.0,
            "view_count": 178068,
            "uploader": "Sonic Gang",
            "category": "cartoons/golmaal_jr",
            "thumbnail": "https://i.ytimg.com/vi/oSSfRzP-bAA/hq720.jpg"
        },
        {
            "id": "-CFB8k-9oIg",
            "title": "Golmaal Junior | Full Episode | Master Pappi का वार, Gopal-Madhav होशियार! ⚔️😳",
            "url": "https://www.youtube.com/watch?v=-CFB8k-9oIg",
            "duration": 743.0,
            "view_count": 695280,
            "uploader": "Sonic Gang",
            "category": "cartoons/golmaal_jr",
            "thumbnail": "https://i.ytimg.com/vi/-CFB8k-9oIg/hq720.jpg"
        }
    ]
}