{
    "page": 52,
    "total_pages": 103,
    "total_items": 5125,
    "items": [
        {
            "id": "RJrIfDkjpeQ",
            "title": "Shopping competition | Bapu catoon Ep -6 | all' bast comedy catoon bapu animation |",
            "url": "https://www.youtube.com/watch?v=RJrIfDkjpeQ",
            "duration": 696.0,
            "view_count": 11846,
            "uploader": "BAPU KIDS PLAY TV",
            "category": "cartoons/bapu",
            "thumbnail": "https://i.ytimg.com/vi/RJrIfDkjpeQ/hqdefault.jpg"
        },
        {
            "id": "b993eY3quEI",
            "title": "Bapu Ki Kahaniyaan || EP-2 || The Puncture Road",
            "url": "https://www.youtube.com/watch?v=b993eY3quEI",
            "duration": 652.0,
            "view_count": 17494,
            "uploader": "KIDS TV LIVE",
            "category": "cartoons/bapu",
            "thumbnail": "https://i.ytimg.com/vi/b993eY3quEI/hqdefault.jpg"
        },
        {
            "id": "1R_Wg95QotE",
            "title": "Peppa Pig in Hindi - Shopping - हिंदी Kahaniya - Hindi Cartoons for Kids",
            "url": "https://www.youtube.com/watch?v=1R_Wg95QotE",
            "duration": 3801.0,
            "view_count": 26555514,
            "uploader": "पेप्पा पिग हिंदी - आधिकारिक चैनल",
            "category": "cartoons/bapu",
            "thumbnail": "https://i.ytimg.com/vi/1R_Wg95QotE/hq720.jpg"
        },
        {
            "id": "KECatvWQwKw",
            "title": "Peppa Pig in Hindi | बेबी बंप्स | Hindi Cartoons for Kids",
            "url": "https://www.youtube.com/watch?v=KECatvWQwKw",
            "duration": 3640.0,
            "view_count": 8095001,
            "uploader": "पेप्पा पिग हिंदी - आधिकारिक चैनल",
            "category": "cartoons/peppa_pig",
            "thumbnail": "https://i.ytimg.com/vi/KECatvWQwKw/hq720.jpg"
        },
        {
            "id": "ndczPXY_ZSw",
            "title": "mother's day || Bapu catoon EPISODE= 11 || all' India bapu ka family || happy mothers day",
            "url": "https://www.youtube.com/watch?v=ndczPXY_ZSw",
            "duration": 672.0,
            "view_count": 1705,
            "uploader": "BAPU KIDS PLAY TV",
            "category": "cartoons/bapu",
            "thumbnail": "https://i.ytimg.com/vi/ndczPXY_ZSw/hqdefault.jpg"
        },
        {
            "id": "07KuETMXNcY",
            "title": "Baap Re Baap! Saanp - Bandbudh Aur Budbak New Episode - Funny Hindi Cartoon For Kids",
            "url": "https://www.youtube.com/watch?v=07KuETMXNcY",
            "duration": 626.0,
            "view_count": 33681042,
            "uploader": "KidZ",
            "category": "cartoons/bapu",
            "thumbnail": "https://i.ytimg.com/vi/07KuETMXNcY/hq720.jpg"
        },
        {
            "id": "6akoUi_C3hw",
            "title": "cycle race | Bapu Catoon Ep - 5 | and Hindi cartoon |",
            "url": "https://www.youtube.com/watch?v=6akoUi_C3hw",
            "duration": 697.0,
            "view_count": 0,
            "uploader": "BAPU KIDS PLAY TV",
            "category": "cartoons/bapu",
            "thumbnail": "https://i.ytimg.com/vi/6akoUi_C3hw/hqdefault.jpg"
        },
        {
            "id": "ekH6V3f3uC0",
            "title": "Bapu Ki Kahaniyaan || EP-5 || Tel Ki Khoj",
            "url": "https://www.youtube.com/watch?v=ekH6V3f3uC0",
            "duration": 691.0,
            "view_count": 4515,
            "uploader": "KIDS TV LIVE",
            "category": "cartoons/bapu",
            "thumbnail": "https://i.ytimg.com/vi/ekH6V3f3uC0/hqdefault.jpg"
        },
        {
            "id": "HmxrzO-WeAg",
            "title": "■BAPU■ S1_E103_Monkey's Weight Loss",
            "url": "https://www.youtube.com/watch?v=HmxrzO-WeAg",
            "duration": 661.0,
            "view_count": 11938,
            "uploader": "Cartoonic World",
            "category": "cartoons/bapu",
            "thumbnail": "https://i.ytimg.com/vi/HmxrzO-WeAg/hq720.jpg"
        },
        {
            "id": "5O5GvAuiIZg",
            "title": "कंजूस दोस्त की कहानी | Funny videos for kids in Hindi | बच्चों की कहानियाँ | हनी बन्नी का झोलमाल2",
            "url": "https://www.youtube.com/watch?v=5O5GvAuiIZg",
            "duration": 677.0,
            "view_count": 2064204,
            "uploader": "Sony YAY!",
            "category": "cartoons/bapu",
            "thumbnail": "https://i.ytimg.com/vi/5O5GvAuiIZg/hq720.jpg"
        },
        {
            "id": "4zv_rXmoDmE",
            "title": "Motu Patlu aur Bapu Ki Seekh ��️  Gandhi Jayanti Special | Motu-Patlu",
            "url": "https://www.youtube.com/watch?v=4zv_rXmoDmE",
            "duration": 6556.0,
            "view_count": 2437138,
            "uploader": "Sonic Gang Motu Patlu ",
            "category": "cartoons/bapu",
            "thumbnail": "https://i.ytimg.com/vi/4zv_rXmoDmE/hq720.jpg"
        },
        {
            "id": "tDMezCJkqJ8",
            "title": "बापू V/S  भुत in Hindi Bapu HD cartoon in Hindi  //    As Adventure kids// Babu episode-2",
            "url": "https://www.youtube.com/watch?v=tDMezCJkqJ8",
            "duration": 651.0,
            "view_count": 9909,
            "uploader": "As Adventure kids",
            "category": "cartoons/bapu",
            "thumbnail": "https://i.ytimg.com/vi/tDMezCJkqJ8/hqdefault.jpg"
        },
        {
            "id": "nnnMwaE7aTg",
            "title": "घमंडी  राजा का पार्क | बच्चों की कहानियाँ | Moral Stories for Children in Hindi | भूत बॉस डायरीज़",
            "url": "https://www.youtube.com/watch?v=nnnMwaE7aTg",
            "duration": 1362.0,
            "view_count": 41588396,
            "uploader": "Sony YAY!",
            "category": "cartoons/bapu",
            "thumbnail": "https://i.ytimg.com/vi/nnnMwaE7aTg/hq720.jpg"
        },
        {
            "id": "6ynUY_yw5wU",
            "title": "principal Entry | Bapu catoon Ep - 9 | all' bast  cartoon |",
            "url": "https://www.youtube.com/watch?v=6ynUY_yw5wU",
            "duration": 704.0,
            "view_count": 1367,
            "uploader": "BAPU KIDS PLAY TV",
            "category": "cartoons/bapu",
            "thumbnail": "https://i.ytimg.com/vi/6ynUY_yw5wU/hqdefault.jpg"
        },
        {
            "id": "NyA3R-mMuOA",
            "title": "च्यूइंग गम की कहानी | Moral Stories for children in Hindi | भूत बॉस डायरीज़",
            "url": "https://www.youtube.com/watch?v=NyA3R-mMuOA",
            "duration": 686.0,
            "view_count": 101493318,
            "uploader": "Sony YAY!",
            "category": "cartoons/bapu",
            "thumbnail": "https://i.ytimg.com/vi/NyA3R-mMuOA/hq720.jpg"
        },
        {
            "id": "pefqpTF4qwE",
            "title": "Shararti Sahil | Bapu | 119 | Animated Cartoon For Kids | Wow World",
            "url": "https://www.youtube.com/watch?v=pefqpTF4qwE",
            "duration": 661.0,
            "view_count": 607,
            "uploader": "Wow World",
            "category": "cartoons/bapu",
            "thumbnail": "https://i.ytimg.com/vi/pefqpTF4qwE/hq720.jpg"
        },
        {
            "id": "03Crb8IebY4",
            "title": "Peppa Pig in Hindi - The Museum - हिंदी Kahaniya - Hindi Cartoons for Kids",
            "url": "https://www.youtube.com/watch?v=03Crb8IebY4",
            "duration": 3813.0,
            "view_count": 25224741,
            "uploader": "पेप्पा पिग हिंदी - आधिकारिक चैनल",
            "category": "cartoons/bapu",
            "thumbnail": "https://i.ytimg.com/vi/03Crb8IebY4/hq720.jpg"
        },
        {
            "id": "63kHHCgTCvI",
            "title": "बिन बुलाये मेहमान  | Moral Stories for Kids | भूत बॉस डायरीज़",
            "url": "https://www.youtube.com/watch?v=63kHHCgTCvI",
            "duration": 664.0,
            "view_count": 6536571,
            "uploader": "Bhoot Boss Diaries",
            "category": "cartoons/bapu",
            "thumbnail": "https://i.ytimg.com/vi/63kHHCgTCvI/hq720.jpg"
        },
        {
            "id": "4wJ1OYpDh2E",
            "title": "Dadaji Se Baatein - Bandbudh Aur Budbak New Episode - Funny Hindi Cartoon For Kids",
            "url": "https://www.youtube.com/watch?v=4wJ1OYpDh2E",
            "duration": 630.0,
            "view_count": 14607400,
            "uploader": "KidZ",
            "category": "cartoons/bapu",
            "thumbnail": "https://i.ytimg.com/vi/4wJ1OYpDh2E/hq720.jpg"
        },
        {
            "id": "TIzV11edo3E",
            "title": "Peppa Pig in Hindi - Daddy Pig ka Camera - हिंदी Kahaniya - Hindi Cartoons for Kids",
            "url": "https://www.youtube.com/watch?v=TIzV11edo3E",
            "duration": 1921.0,
            "view_count": 24500454,
            "uploader": "पेप्पा पिग हिंदी - आधिकारिक चैनल",
            "category": "cartoons/bapu",
            "thumbnail": "https://i.ytimg.com/vi/TIzV11edo3E/hq720.jpg"
        },
        {
            "id": "pdngbpqq0MU",
            "title": "कौन है वो Superचोर? | Motu Patlu Rajasthan Special | Motu Patlu | मोटू पतलू",
            "url": "https://www.youtube.com/watch?v=pdngbpqq0MU",
            "duration": 1313.0,
            "view_count": 70294,
            "uploader": "Sonic Gang",
            "category": "cartoons/motu_patlu",
            "thumbnail": "https://i.ytimg.com/vi/pdngbpqq0MU/hq720.jpg"
        },
        {
            "id": "1GVwk5ZEwSM",
            "title": "Popudent - Bandbudh Aur Budbak New Episode - Funny Hindi Cartoon For Kids",
            "url": "https://www.youtube.com/watch?v=1GVwk5ZEwSM",
            "duration": 629.0,
            "view_count": 36022889,
            "uploader": "KidZ",
            "category": "cartoons/bapu",
            "thumbnail": "https://i.ytimg.com/vi/1GVwk5ZEwSM/hq720.jpg"
        },
        {
            "id": "7vAKvHX_w6M",
            "title": "Bapu ki Kahaniyaan|| EP-3 || Monkey s Weight Loss",
            "url": "https://www.youtube.com/watch?v=7vAKvHX_w6M",
            "duration": 662.0,
            "view_count": 12212,
            "uploader": "KIDS TV LIVE",
            "category": "cartoons/bapu",
            "thumbnail": "https://i.ytimg.com/vi/7vAKvHX_w6M/hq720.jpg"
        },
        {
            "id": "6Gdi8PIERJA",
            "title": "Peppa Pig in Hindi - Camping - हिंदी Kahaniya - Hindi Cartoons for Kids",
            "url": "https://www.youtube.com/watch?v=6Gdi8PIERJA",
            "duration": 3811.0,
            "view_count": 16092245,
            "uploader": "पेप्पा पिग हिंदी - आधिकारिक चैनल",
            "category": "cartoons/bapu",
            "thumbnail": "https://i.ytimg.com/vi/6Gdi8PIERJA/hq720.jpg"
        },
        {
            "id": "mU86nxm52J4",
            "title": "Peppa Pig in Hindi - Bachchon Kee Dekhabhaal - हिंदी Kahaniya - Hindi Cartoons for Kids",
            "url": "https://www.youtube.com/watch?v=mU86nxm52J4",
            "duration": 3741.0,
            "view_count": 2422243,
            "uploader": "पेप्पा पिग हिंदी - आधिकारिक चैनल",
            "category": "cartoons/peppa_pig",
            "thumbnail": "https://i.ytimg.com/vi/mU86nxm52J4/hq720.jpg"
        },
        {
            "id": "UZhQaCGrOSo",
            "title": "Johnny Test   Hindi Dubbed   Special Episode 03   Lonely Kid'S",
            "url": "https://www.youtube.com/watch?v=UZhQaCGrOSo",
            "duration": 2484.0,
            "view_count": 21507,
            "uploader": "TOONNAMI",
            "category": "cartoons/bapu",
            "thumbnail": "https://i.ytimg.com/vi/UZhQaCGrOSo/hqdefault.jpg"
        },
        {
            "id": "6oQ2BXMGY3c",
            "title": "Peppa Pig in Hindi - Naee Gaadee - हिंदी Kahaniya - Hindi Cartoons for Kids |",
            "url": "https://www.youtube.com/watch?v=6oQ2BXMGY3c",
            "duration": 3738.0,
            "view_count": 11822261,
            "uploader": "पेप्पा पिग हिंदी - आधिकारिक चैनल",
            "category": "cartoons/peppa_pig",
            "thumbnail": "https://i.ytimg.com/vi/6oQ2BXMGY3c/hq720.jpg"
        },
        {
            "id": "3Rkvixl_xCo",
            "title": "बाबूराम थापा का डरावना शो | Mazedaar Moral Stories for Kids | भूत बॉस डायरीज़ | Only on Sony YAY!",
            "url": "https://www.youtube.com/watch?v=3Rkvixl_xCo",
            "duration": 696.0,
            "view_count": 343768,
            "uploader": "Bhoot Boss Diaries",
            "category": "cartoons/bapu",
            "thumbnail": "https://i.ytimg.com/vi/3Rkvixl_xCo/hq720.jpg"
        },
        {
            "id": "CpJD5qhN-v4",
            "title": "Pinaki and Happy - Bhoot Bandhus | Full Ep | Suri Uncle का मज़ाक! कौन जीतेगा New vs Old Generation?",
            "url": "https://www.youtube.com/watch?v=CpJD5qhN-v4",
            "duration": 710.0,
            "view_count": 2388966,
            "uploader": "Sonic Gang",
            "category": "cartoons/bapu",
            "thumbnail": "https://i.ytimg.com/vi/CpJD5qhN-v4/hq720.jpg"
        },
        {
            "id": "pRsS0r2hQk4",
            "title": "अनाथ पीकू | बच्चों की कहानियाँ | भूत बॉस डायरीज़",
            "url": "https://www.youtube.com/watch?v=pRsS0r2hQk4",
            "duration": 698.0,
            "view_count": 35358275,
            "uploader": "Sony YAY!",
            "category": "cartoons/bapu",
            "thumbnail": "https://i.ytimg.com/vi/pRsS0r2hQk4/hq720.jpg"
        },
        {
            "id": "lF8XrwO4PQ0",
            "title": "सांड भाई | Honey Bunny Best Scenes | Only on Sony YAY!",
            "url": "https://www.youtube.com/watch?v=lF8XrwO4PQ0",
            "duration": 651.0,
            "view_count": 2058802,
            "uploader": "Sony YAY!",
            "category": "cartoons/bapu",
            "thumbnail": "https://i.ytimg.com/vi/lF8XrwO4PQ0/hq720.jpg"
        },
        {
            "id": "IoiVaeqwIR0",
            "title": "Ben 10 and Ben 10000 fight || Ben 10 Ultimate alien 👽 in Hindi",
            "url": "https://www.youtube.com/watch?v=IoiVaeqwIR0",
            "duration": 681.0,
            "view_count": 61459,
            "uploader": "CARTOONS MEDIA",
            "category": "cartoons/ben_10",
            "thumbnail": "https://i.ytimg.com/vi/IoiVaeqwIR0/hq720.jpg"
        },
        {
            "id": "146wAzknjmM",
            "title": "Ben 10 Ultimate Alien full episode in Hindi dubbed season 5 episode 5 Full Hindi ||",
            "url": "https://www.youtube.com/watch?v=146wAzknjmM",
            "duration": 1364.0,
            "view_count": 1050741,
            "uploader": "Boomerang India",
            "category": "cartoons/ben_10",
            "thumbnail": "https://i.ytimg.com/vi/146wAzknjmM/hq720.jpg"
        },
        {
            "id": "43EaqVQqnyo",
            "title": "VILGAX VS BEN 10 || Ben 10 ultimate alien in Hindi",
            "url": "https://www.youtube.com/watch?v=43EaqVQqnyo",
            "duration": 1201.0,
            "view_count": 33004,
            "uploader": "CARTOONS MEDIA",
            "category": "cartoons/ben_10",
            "thumbnail": "https://i.ytimg.com/vi/43EaqVQqnyo/hq720.jpg"
        },
        {
            "id": "IypgpfHVTsE",
            "title": "Ben 10 Ultimate Alien in Hindi Full Episode",
            "url": "https://www.youtube.com/watch?v=IypgpfHVTsE",
            "duration": 608.0,
            "view_count": 46713,
            "uploader": "Multiverse Midea",
            "category": "cartoons/ben_10",
            "thumbnail": "https://i.ytimg.com/vi/IypgpfHVTsE/hqdefault.jpg"
        },
        {
            "id": "i56duxkIu6c",
            "title": "Ben 10 👊| Ben Ke Ultimate Adventures!💪| Action Cartoon😆| Cartoon in English ✨| @cnindia",
            "url": "https://www.youtube.com/watch?v=i56duxkIu6c",
            "duration": 6003.0,
            "view_count": 191076,
            "uploader": "Cartoon Network India",
            "category": "cartoons/ben_10",
            "thumbnail": "https://i.ytimg.com/vi/i56duxkIu6c/hq720.jpg"
        },
        {
            "id": "KcWPyFhwAhY",
            "title": "Ben transforms into Ultimate Echo Echo || Ben 10 Ultimate alien in Hindi",
            "url": "https://www.youtube.com/watch?v=KcWPyFhwAhY",
            "duration": 619.0,
            "view_count": 10257,
            "uploader": "CARTOONS MEDIA",
            "category": "cartoons/ben_10",
            "thumbnail": "https://i.ytimg.com/vi/KcWPyFhwAhY/hq720.jpg"
        },
        {
            "id": "81BlH5QVN5c",
            "title": "Ben 10 👊| Ben Aur Uski Crazy Army!💪| Action Cartoon😆| Cartoon in Hindi ✨| @cnindia",
            "url": "https://www.youtube.com/watch?v=81BlH5QVN5c",
            "duration": 6869.0,
            "view_count": 78677,
            "uploader": "Cartoon Network India",
            "category": "cartoons/ben_10",
            "thumbnail": "https://i.ytimg.com/vi/81BlH5QVN5c/hq720.jpg"
        },
        {
            "id": "jYohiRBX5no",
            "title": "Ben 10 Ultimate Alien in Hindi New Episode 2024   Ben 10 Omniverse   Ben 10 Latest Episodes in Hindi",
            "url": "https://www.youtube.com/watch?v=jYohiRBX5no",
            "duration": 607.0,
            "view_count": 742818,
            "uploader": "Simplify the Past",
            "category": "cartoons/ben_10",
            "thumbnail": "https://i.ytimg.com/vi/jYohiRBX5no/hqdefault.jpg"
        },
        {
            "id": "8CqT8ysXEIw",
            "title": "Ben 10 Alien Force episodes in hindi! Ben 10 Ultimate Alien.....Ben 10 in hindi.......",
            "url": "https://www.youtube.com/watch?v=8CqT8ysXEIw",
            "duration": 1313.0,
            "view_count": 394895,
            "uploader": "CHILDHOOD MEMORIES",
            "category": "cartoons/ben_10",
            "thumbnail": "https://i.ytimg.com/vi/8CqT8ysXEIw/hq720.jpg"
        },
        {
            "id": "YFwEAnNEZgU",
            "title": "Ben 10 in hindi full episode, The ultimate Alliance with full fun 🔥🔥💯💯🎉🎊🎊🎉💯🔥",
            "url": "https://www.youtube.com/watch?v=YFwEAnNEZgU",
            "duration": 908.0,
            "view_count": 451205,
            "uploader": "TOR Cartoons 😇",
            "category": "cartoons/ben_10",
            "thumbnail": "https://i.ytimg.com/vi/YFwEAnNEZgU/hqdefault.jpg"
        },
        {
            "id": "ra43_nvL-5g",
            "title": "Ben 10 Ultimate Alien New Episode in Hindi | Ben 10 Omniverse in Hindi | Ben 10 Alien Force Hindi |",
            "url": "https://www.youtube.com/watch?v=ra43_nvL-5g",
            "duration": 606.0,
            "view_count": 17861,
            "uploader": "Ben 10K Hindi",
            "category": "cartoons/ben_10",
            "thumbnail": "https://i.ytimg.com/vi/ra43_nvL-5g/hq720.jpg"
        },
        {
            "id": "Y3A3f8c8gNo",
            "title": "Ben 10 👊| Action Starts With Ben!💪| Action Cartoon😆| Hindi Cartoon ✨| @cnindia​",
            "url": "https://www.youtube.com/watch?v=Y3A3f8c8gNo",
            "duration": 7153.0,
            "view_count": 57440,
            "uploader": "Cartoon Network India",
            "category": "cartoons/ben_10",
            "thumbnail": "https://i.ytimg.com/vi/Y3A3f8c8gNo/hq720.jpg"
        },
        {
            "id": "M7x65Qvu8ZI",
            "title": "Ben 10 Alien X Tinction movie in hindi",
            "url": "https://www.youtube.com/watch?v=M7x65Qvu8ZI",
            "duration": 2680.0,
            "view_count": 6311689,
            "uploader": "Meezan Plays",
            "category": "cartoons/ben_10",
            "thumbnail": "https://i.ytimg.com/vi/M7x65Qvu8ZI/hq720.jpg"
        },
        {
            "id": "AvhePEUEnHg",
            "title": "BEN 10 & Uncle Grandpa - 2 | Ben 10 Cartoons | Watch Ben 10 | Only on Cartoon Network",
            "url": "https://www.youtube.com/watch?v=AvhePEUEnHg",
            "duration": 985.0,
            "view_count": 6491506,
            "uploader": "Cartoon Network India",
            "category": "cartoons/ben_10",
            "thumbnail": "https://i.ytimg.com/vi/AvhePEUEnHg/hq720.jpg"
        },
        {
            "id": "805ReRnQRzE",
            "title": "Ben 10 New Episode 2025 in Hindi Famous Cartoon  Famous Cartoon ",
            "url": "https://www.youtube.com/watch?v=805ReRnQRzE",
            "duration": 1121.0,
            "view_count": 14454,
            "uploader": "Real ChilMil",
            "category": "cartoons/ben_10",
            "thumbnail": "https://i.ytimg.com/vi/805ReRnQRzE/hqdefault.jpg"
        },
        {
            "id": "NUCBon4Ip5g",
            "title": "Ben 10 Wapas Aaya! Grandpa Max Gayab Aur Kevin 11 Se Team-Up Ben 10 Explained In Hindi | ईपी 1 भाग 2",
            "url": "https://www.youtube.com/watch?v=NUCBon4Ip5g",
            "duration": 643.0,
            "view_count": 168947,
            "uploader": "Cinema Focus",
            "category": "cartoons/ben_10",
            "thumbnail": "https://i.ytimg.com/vi/NUCBon4Ip5g/hq720.jpg"
        },
        {
            "id": "HtgXGm6rvE8",
            "title": "Ben 10 | Rustbucket Moments (Hindi) | Cartoon Network",
            "url": "https://www.youtube.com/watch?v=HtgXGm6rvE8",
            "duration": 891.0,
            "view_count": 35298249,
            "uploader": "Cartoon Network India",
            "category": "cartoons/ben_10",
            "thumbnail": "https://i.ytimg.com/vi/HtgXGm6rvE8/hq720.jpg"
        },
        {
            "id": "zqiAQCEWoJM",
            "title": "Ben 10 Ultimate Alien New Episode Hindi | Ben 10 in hindi episodes full | Ben 10 Omniverse Hindi |",
            "url": "https://www.youtube.com/watch?v=zqiAQCEWoJM",
            "duration": 1333.0,
            "view_count": 5524,
            "uploader": "Sky_man",
            "category": "cartoons/ben_10",
            "thumbnail": "https://i.ytimg.com/vi/zqiAQCEWoJM/hq720.jpg"
        },
        {
            "id": "jlENUVkQyFI",
            "title": "Ben 10 old episode in hindi | ben 10 | FULL HD ",
            "url": "https://www.youtube.com/watch?v=jlENUVkQyFI",
            "duration": 698.0,
            "view_count": 21534,
            "uploader": "Nostalgia Station TV",
            "category": "cartoons/ben_10",
            "thumbnail": "https://i.ytimg.com/vi/jlENUVkQyFI/hqdefault.jpg"
        }
    ]
}