{
    "page": 35,
    "total_pages": 103,
    "total_items": 5125,
    "items": [
        {
            "id": "hwlGDsElHes",
            "title": "A Tough Quiz Session | Taarak Mehta Ka Ooltah Chashmah | Full Ep 4671 | 30 Mar 2026 | New Episode",
            "url": "https://www.youtube.com/watch?v=hwlGDsElHes",
            "duration": 1094.0,
            "view_count": 542952,
            "uploader": "Taarak Mehta Ka Ooltah Chashmah Episodes",
            "category": "taarak_mehta",
            "thumbnail": "https://i.ytimg.com/vi/hwlGDsElHes/hq720.jpg"
        },
        {
            "id": "jUzMAgHJz1w",
            "title": "Jethalal Ne Iyer Ko Banaya Fool ! | FULL MOVIE | Taarak Mehta Ka Ooltah Chashmah",
            "url": "https://www.youtube.com/watch?v=jUzMAgHJz1w",
            "duration": 2841.0,
            "view_count": 1009737,
            "uploader": "Taarak Mehta Ka Ooltah Chashmah",
            "category": "taarak_mehta",
            "thumbnail": "https://i.ytimg.com/vi/jUzMAgHJz1w/hq720.jpg"
        },
        {
            "id": "tYbsl7yWLjI",
            "title": "Gada Family Ne Manaya महावीर Jayanti ! | FULL MOVIE | Taarak Mehta Ka Ooltah Chashmah",
            "url": "https://www.youtube.com/watch?v=tYbsl7yWLjI",
            "duration": 2157.0,
            "view_count": 80029,
            "uploader": "Taarak Mehta Ka Ooltah Chashmah",
            "category": "taarak_mehta",
            "thumbnail": "https://i.ytimg.com/vi/tYbsl7yWLjI/hq720.jpg"
        },
        {
            "id": "3cDTxW_hf-I",
            "title": "NEW! Ep 4672 - Kiski Permission ke iye Bhide se Ladne Laga Popat! | Taarak Mehta ka Ooltah Chashmah",
            "url": "https://www.youtube.com/watch?v=3cDTxW_hf-I",
            "duration": 621.0,
            "view_count": 995302,
            "uploader": "Taarak Mehta Ka Ooltah Chashmah",
            "category": "taarak_mehta",
            "thumbnail": "https://i.ytimg.com/vi/3cDTxW_hf-I/hq720.jpg"
        },
        {
            "id": "D7sX5ms0a9U",
            "title": "Bhide Is Furious With Popatlal's Behaviour | Taarak Mehta Ka Ooltah Chashmah | Full Episode",
            "url": "https://www.youtube.com/watch?v=D7sX5ms0a9U",
            "duration": 1200.0,
            "view_count": 15686,
            "uploader": "Taarak Mehta Ka Ooltah Chashmah Episodes",
            "category": "taarak_mehta",
            "thumbnail": "https://i.ytimg.com/vi/D7sX5ms0a9U/hq720.jpg"
        },
        {
            "id": "H4RumiDM8m4",
            "title": "NEW! Ep 4672 - Kya Sonu ke इस सवाल का Jawab de पाएंगे Society वाले | Taarak Mehta ka Ooltah Chashmah",
            "url": "https://www.youtube.com/watch?v=H4RumiDM8m4",
            "duration": 621.0,
            "view_count": 8762,
            "uploader": "Taarak Mehta Ka Ooltah Chashmah Episodes",
            "category": "taarak_mehta",
            "thumbnail": "https://i.ytimg.com/vi/H4RumiDM8m4/hq720.jpg"
        },
        {
            "id": "y-6ijF6vCRY",
            "title": "FULL EPISODE! 4642 - Gada Electronic Me Kise देख चौंक गया Jetha! | Taarak Mehta Ka Ooltah Chashmah",
            "url": "https://www.youtube.com/watch?v=y-6ijF6vCRY",
            "duration": 1351.0,
            "view_count": 15424,
            "uploader": "Taarak Mehta Ka Ooltah Chashmah",
            "category": "taarak_mehta",
            "thumbnail": "https://i.ytimg.com/vi/y-6ijF6vCRY/hq720.jpg"
        },
        {
            "id": "gaRajkVxpeQ",
            "title": "Jetha Sleeps In His Shop | Taarak Mehta Ka Ooltah Chashmah| Full Ep 4642 | 24 Feb 2026 | New Episode",
            "url": "https://www.youtube.com/watch?v=gaRajkVxpeQ",
            "duration": 1356.0,
            "view_count": 1137447,
            "uploader": "Taarak Mehta Ka Ooltah Chashmah Episodes",
            "category": "taarak_mehta",
            "thumbnail": "https://i.ytimg.com/vi/gaRajkVxpeQ/hq720.jpg"
        },
        {
            "id": "rMUtQMZz_bE",
            "title": "Jetha पर क्यों हसने लगे Bhide और Abdul? | Taarak Mehta Ka Ooltah Chashmah | Sundar's Surprise",
            "url": "https://www.youtube.com/watch?v=rMUtQMZz_bE",
            "duration": 2066.0,
            "view_count": 43549,
            "uploader": "Taarak Mehta Ka Ooltah Chashmah Episodes",
            "category": "taarak_mehta",
            "thumbnail": "https://i.ytimg.com/vi/rMUtQMZz_bE/hq720.jpg"
        },
        {
            "id": "CM4CyrptZNM",
            "title": "Robbery In Gokuldham | Taarak Mehta Ka Ooltah Chashmah | Full Episode 153",
            "url": "https://www.youtube.com/watch?v=CM4CyrptZNM",
            "duration": 1194.0,
            "view_count": 3390,
            "uploader": "Taarak Mehta Ka Ooltah Chashmah Episodes",
            "category": "taarak_mehta",
            "thumbnail": "https://i.ytimg.com/vi/CM4CyrptZNM/hq720.jpg"
        },
        {
            "id": "V76C791BOgQ",
            "title": "Society's Rules & Regulations |Taarak Mehta Ka Ooltah Chashmah |Full Ep 4672|31 Mar 2026|New Episode",
            "url": "https://www.youtube.com/watch?v=V76C791BOgQ",
            "duration": 1373.0,
            "view_count": 804971,
            "uploader": "Taarak Mehta Ka Ooltah Chashmah Episodes",
            "category": "taarak_mehta",
            "thumbnail": "https://i.ytimg.com/vi/V76C791BOgQ/hq720.jpg"
        },
        {
            "id": "onz-TNCqiRw",
            "title": "Jethalal Ne Iyer Ko Banaya Fool | Taarak Mehta Ka Ooltah Chashmah | Full Movie",
            "url": "https://www.youtube.com/watch?v=onz-TNCqiRw",
            "duration": 2841.0,
            "view_count": 90282,
            "uploader": "Taarak Mehta Ka Ooltah Chashmah Episodes",
            "category": "taarak_mehta",
            "thumbnail": "https://i.ytimg.com/vi/onz-TNCqiRw/hq720.jpg"
        },
        {
            "id": "L9ZKJJhBE6Y",
            "title": "Jetha ने क्यों पकड़ा Sundar का हाथ? | Taarak Mehta Ka Ooltah Chashmah | Daya Ki Maa",
            "url": "https://www.youtube.com/watch?v=L9ZKJJhBE6Y",
            "duration": 3599.0,
            "view_count": 13551,
            "uploader": "Taarak Mehta Ka Ooltah Chashmah Episodes",
            "category": "taarak_mehta",
            "thumbnail": "https://i.ytimg.com/vi/L9ZKJJhBE6Y/hq720.jpg"
        },
        {
            "id": "0FpIJsK1k78",
            "title": "Roshan Ne Khatam kiya Gents ka Sharab! | FULL MOVIE | Taarak Mehta Ka Ooltah Chashmah",
            "url": "https://www.youtube.com/watch?v=0FpIJsK1k78",
            "duration": 2281.0,
            "view_count": 1450167,
            "uploader": "Taarak Mehta Ka Ooltah Chashmah",
            "category": "taarak_mehta",
            "thumbnail": "https://i.ytimg.com/vi/0FpIJsK1k78/hq720.jpg"
        },
        {
            "id": "soRPiZULwnM",
            "title": "NEW! Ep 4673 - Bhide ke Ankho ke Samne Ho Gayi Badi Anhoni! | Taarak Mehta ka Ooltah Chashmah",
            "url": "https://www.youtube.com/watch?v=soRPiZULwnM",
            "duration": 621.0,
            "view_count": 86967,
            "uploader": "Taarak Mehta Ka Ooltah Chashmah Episodes",
            "category": "taarak_mehta",
            "thumbnail": "https://i.ytimg.com/vi/soRPiZULwnM/hq720.jpg"
        },
        {
            "id": "Jz_1TZAOcT8",
            "title": "Cleaning The Terrace | Taarak Mehta Ka Ooltah Chashmah | Full Ep 4673 | 1 April 2026 | New Episode",
            "url": "https://www.youtube.com/watch?v=Jz_1TZAOcT8",
            "duration": 1268.0,
            "view_count": 847294,
            "uploader": "Taarak Mehta Ka Ooltah Chashmah Episodes",
            "category": "taarak_mehta",
            "thumbnail": "https://i.ytimg.com/vi/Jz_1TZAOcT8/hq720.jpg"
        },
        {
            "id": "PqYy0-aWqy8",
            "title": "Kya Bagha ne Kiya Hisab Me Gadbad! | FULL MOVIE | Taarak Mehta Ka Ooltah Chashmah",
            "url": "https://www.youtube.com/watch?v=PqYy0-aWqy8",
            "duration": 2208.0,
            "view_count": 81622,
            "uploader": "Taarak Mehta Ka Ooltah Chashmah",
            "category": "taarak_mehta",
            "thumbnail": "https://i.ytimg.com/vi/PqYy0-aWqy8/hq720.jpg"
        },
        {
            "id": "tI3I2uU8DaU",
            "title": "Ab tera Kya hoga Jethiyaa 😂🤣 | Taarak Mehta Ka Ooltah Chashmah | Full Movie",
            "url": "https://www.youtube.com/watch?v=tI3I2uU8DaU",
            "duration": 3640.0,
            "view_count": 16330,
            "uploader": "Taarak Mehta Ka Ooltah Chashmah Episodes",
            "category": "taarak_mehta",
            "thumbnail": "https://i.ytimg.com/vi/tI3I2uU8DaU/hq720.jpg"
        },
        {
            "id": "_XtbS4IQrok",
            "title": "Jethalal Kha gaya Goli ke Hisse ka Nashta! | FULL MOVIE | Taarak Mehta Ka Ooltah Chashmah",
            "url": "https://www.youtube.com/watch?v=_XtbS4IQrok",
            "duration": 3519.0,
            "view_count": 1679107,
            "uploader": "Taarak Mehta Ka Ooltah Chashmah",
            "category": "taarak_mehta",
            "thumbnail": "https://i.ytimg.com/vi/_XtbS4IQrok/hq720.jpg?sqp=-oaymwEcCNAFEJQDSFXyq4qpAw4IARUAAIhCGAFwAcABBg==&rs=AOn4CLAkr_1T4REeFURKK_657Vwrz9LMTQ",
            "added_date": "2026-04-16T07:31:40.768320Z",
            "source": "youtube"
        },
        {
            "id": "BgSXBoGQ_Z8",
            "title": "Iyer कैसे गिरा Bhide के सोफे पर? | Taarak Mehta Ka Ooltah Chashmah | Home Renovation",
            "url": "https://www.youtube.com/watch?v=BgSXBoGQ_Z8",
            "duration": 2430.0,
            "view_count": 5290,
            "uploader": "Taarak Mehta Ka Ooltah Chashmah Episodes",
            "category": "taarak_mehta",
            "thumbnail": "https://i.ytimg.com/vi/BgSXBoGQ_Z8/hq720.jpg"
        },
        {
            "id": "DO2KTYdyB8I",
            "title": "Jethiya Ko Jagane Mai Daya Kyu Hui Pareshan!!! | FULL MOVIE | Taarak Mehta Ka Ooltah Chashmah",
            "url": "https://www.youtube.com/watch?v=DO2KTYdyB8I",
            "duration": 2731.0,
            "view_count": 797503,
            "uploader": "Taarak Mehta Ka Ooltah Chashmah",
            "category": "taarak_mehta",
            "thumbnail": "https://i.ytimg.com/vi/DO2KTYdyB8I/hq720.jpg"
        },
        {
            "id": "GqIPQYSgxl4",
            "title": "NEW! Ep 4674 - Popatlal ke Sath ho Gaya Bada Apshagun! | Taarak Mehta ka Ooltah Chashmah",
            "url": "https://www.youtube.com/watch?v=GqIPQYSgxl4",
            "duration": 614.0,
            "view_count": 1361533,
            "uploader": "Taarak Mehta Ka Ooltah Chashmah",
            "category": "taarak_mehta",
            "thumbnail": "https://i.ytimg.com/vi/GqIPQYSgxl4/hq720_custom_2.jpg"
        },
        {
            "id": "OMJlNFq9jLg",
            "title": "NEW! Ep 4673 - Kya Sunkar उड़ गए Jethalal ke Hosh! | Taarak Mehta ka Ooltah  Chashmah",
            "url": "https://www.youtube.com/watch?v=OMJlNFq9jLg",
            "duration": 621.0,
            "view_count": 621557,
            "uploader": "TMKOC - MINISODES",
            "category": "taarak_mehta",
            "thumbnail": "https://i.ytimg.com/vi/OMJlNFq9jLg/hq720.jpg"
        },
        {
            "id": "IWJF6E6RnK0",
            "title": "NEW! Ep 4674 - Bhide ke Ankho ke Samne Ho Gayi Badi Anhoni! | Taarak Mehta ka Ooltah Chashmah",
            "url": "https://www.youtube.com/watch?v=IWJF6E6RnK0",
            "duration": 614.0,
            "view_count": 15477,
            "uploader": "Taarak Mehta Ka Ooltah Chashmah Episodes",
            "category": "taarak_mehta",
            "thumbnail": "https://i.ytimg.com/vi/IWJF6E6RnK0/hq720.jpg"
        },
        {
            "id": "hOO8V2uhgCg",
            "title": "Kisne Karwa Diya Iyer ko उठक-बैठक ! | FULL MOVIE | Taarak Mehta Ka Ooltah Chashmah",
            "url": "https://www.youtube.com/watch?v=hOO8V2uhgCg",
            "duration": 2223.0,
            "view_count": 429609,
            "uploader": "Taarak Mehta Ka Ooltah Chashmah",
            "category": "taarak_mehta",
            "thumbnail": "https://i.ytimg.com/vi/hOO8V2uhgCg/hq720.jpg"
        },
        {
            "id": "9q0YOqVlUvY",
            "title": "Chutki Bajakar Kisko Challenge kar raha hai Jethya ! | FULL MOVIE | Taarak Mehta Ka Ooltah Chashmah",
            "url": "https://www.youtube.com/watch?v=9q0YOqVlUvY",
            "duration": 2263.0,
            "view_count": 6178268,
            "uploader": "Taarak Mehta Ka Ooltah Chashmah",
            "category": "taarak_mehta",
            "thumbnail": "https://i.ytimg.com/vi/9q0YOqVlUvY/hq720.jpg?sqp=-oaymwEcCNAFEJQDSFXyq4qpAw4IARUAAIhCGAFwAcABBg==&rs=AOn4CLBtxWzXW9JaC4kYpsZwGRDyjrg1ew",
            "added_date": "2026-04-16T07:31:41.569813Z",
            "source": "youtube"
        },
        {
            "id": "JL3qzeZiIvM",
            "title": "A Delay In The Plan | Taarak Mehta Ka Ooltah Chashmah | Full Ep 4674 | 2 Apr 2026 | New Episode",
            "url": "https://www.youtube.com/watch?v=JL3qzeZiIvM",
            "duration": 1287.0,
            "view_count": 804445,
            "uploader": "Taarak Mehta Ka Ooltah Chashmah Episodes",
            "category": "taarak_mehta",
            "thumbnail": "https://i.ytimg.com/vi/JL3qzeZiIvM/hqdefault.jpg"
        },
        {
            "id": "N4wZwU-1mrw",
            "title": "Jethalal ne uthaya Iyyer se gale milne ka Fayda | Taarak Mehta Ka Ooltah Chashmah | Full Movie",
            "url": "https://www.youtube.com/watch?v=N4wZwU-1mrw",
            "duration": 3765.0,
            "view_count": 77564,
            "uploader": "Taarak Mehta Ka Ooltah Chashmah Episodes",
            "category": "taarak_mehta",
            "thumbnail": "https://i.ytimg.com/vi/N4wZwU-1mrw/hq720.jpg"
        },
        {
            "id": "-iw2K3NQXpg",
            "title": "Daya ne kiske khilaf Bhadkaya Jethalal ko | Taarak Mehta Ka Ooltah Chashmah | Full Movie",
            "url": "https://www.youtube.com/watch?v=-iw2K3NQXpg",
            "duration": 3747.0,
            "view_count": 20901,
            "uploader": "Taarak Mehta Ka Ooltah Chashmah Episodes",
            "category": "taarak_mehta",
            "thumbnail": "https://i.ytimg.com/vi/-iw2K3NQXpg/hq720.jpg"
        },
        {
            "id": "yXMaIYXqEgI",
            "title": "Bagha ne Chupa Ke Rakha Jethalal ka Secret  ! | FULL MOVIE | Taarak Mehta Ka Ooltah Chashmah",
            "url": "https://www.youtube.com/watch?v=yXMaIYXqEgI",
            "duration": 2208.0,
            "view_count": 20173,
            "uploader": "Taarak Mehta Ka Ooltah Chashmah",
            "category": "taarak_mehta",
            "thumbnail": "https://i.ytimg.com/vi/yXMaIYXqEgI/hq720.jpg"
        },
        {
            "id": "QrkfN_P80IA",
            "title": "Bhide aur Jethalal ka Bhaichara! | Taarak Mehta Ka Ooltah Chashmah | Full Movie",
            "url": "https://www.youtube.com/watch?v=QrkfN_P80IA",
            "duration": 2945.0,
            "view_count": 56587,
            "uploader": "Taarak Mehta Ka Ooltah Chashmah Episodes",
            "category": "taarak_mehta",
            "thumbnail": "https://i.ytimg.com/vi/QrkfN_P80IA/hq720.jpg"
        },
        {
            "id": "mfJHm1FkzRE",
            "title": "Bhide Ki नई Car का Celebration | Taarak Mehta Ka Ooltah Chashmah | Bhide Ki Car",
            "url": "https://www.youtube.com/watch?v=mfJHm1FkzRE",
            "duration": 3611.0,
            "view_count": 20749,
            "uploader": "Taarak Mehta Ka Ooltah Chashmah Episodes",
            "category": "taarak_mehta",
            "thumbnail": "https://i.ytimg.com/vi/mfJHm1FkzRE/hq720.jpg"
        },
        {
            "id": "Rd3PZ0DWhZk",
            "title": "NEW! Ep 4675 - Kaise hua Popatlal ke Ghar me Itna Saara Leakage! | Taarak Mehta ka Ooltah Chashmah",
            "url": "https://www.youtube.com/watch?v=Rd3PZ0DWhZk",
            "duration": 658.0,
            "view_count": 1575250,
            "uploader": "Taarak Mehta Ka Ooltah Chashmah",
            "category": "taarak_mehta",
            "thumbnail": "https://i.ytimg.com/vi/Rd3PZ0DWhZk/hq720.jpg"
        },
        {
            "id": "VJfkvEkPovs",
            "title": "Bhide ne Rakha Bapuji ke कंधे पर हाथ ! | FULL MOVIE | Taarak Mehta Ka Ooltah Chashmah",
            "url": "https://www.youtube.com/watch?v=VJfkvEkPovs",
            "duration": 3407.0,
            "view_count": 140090,
            "uploader": "Taarak Mehta Ka Ooltah Chashmah",
            "category": "taarak_mehta",
            "thumbnail": "https://i.ytimg.com/vi/VJfkvEkPovs/hq720.jpg"
        },
        {
            "id": "g_MWM4kL1Ko",
            "title": "Taarak Mehta Ka Ooltah Chashmah - Episode 1110 - Full Episode",
            "url": "https://www.youtube.com/watch?v=g_MWM4kL1Ko",
            "duration": 1157.0,
            "view_count": 3956903,
            "uploader": "Taarak Mehta Ka Ooltah Chashmah Episodes",
            "category": "taarak_mehta",
            "thumbnail": "https://i.ytimg.com/vi/g_MWM4kL1Ko/hq720.jpg"
        },
        {
            "id": "utmrd8WQwyk",
            "title": "Popatlal ne kyu diye Bhide ko Paise | Taarak Mehta Ka Ooltah Chashmah | Full Movie",
            "url": "https://www.youtube.com/watch?v=utmrd8WQwyk",
            "duration": 3508.0,
            "view_count": 5021,
            "uploader": "Taarak Mehta Ka Ooltah Chashmah Episodes",
            "category": "taarak_mehta",
            "thumbnail": "https://i.ytimg.com/vi/utmrd8WQwyk/hq720.jpg"
        },
        {
            "id": "8txjcZlEIqM",
            "title": "किसने तोड़ा दिया Bhide का Sakharam? | Taarak Mehta Ka Ooltah Chashmah | Bhide Ka Sakharam",
            "url": "https://www.youtube.com/watch?v=8txjcZlEIqM",
            "duration": 3578.0,
            "view_count": 3792,
            "uploader": "Taarak Mehta Ka Ooltah Chashmah Episodes",
            "category": "taarak_mehta",
            "thumbnail": "https://i.ytimg.com/vi/8txjcZlEIqM/hq720.jpg"
        },
        {
            "id": "8lSBSfajrv0",
            "title": "NEW! Ep 4675 - Kaise hua Popatlal ke Ghar me Itna Saara Leakage! | Taarak Mehta ka Ooltah Chashmah",
            "url": "https://www.youtube.com/watch?v=8lSBSfajrv0",
            "duration": 658.0,
            "view_count": 7365,
            "uploader": "Taarak Mehta Ka Ooltah Chashmah Episodes",
            "category": "taarak_mehta",
            "thumbnail": "https://i.ytimg.com/vi/8lSBSfajrv0/hq720.jpg"
        },
        {
            "id": "zLUcU46Gz7A",
            "title": "Popatlal Gets Hurt | Taarak Mehta Ka Ooltah Chashmah | Full Ep 4675 | 3 Apr 2026 | New Episode",
            "url": "https://www.youtube.com/watch?v=zLUcU46Gz7A",
            "duration": 1361.0,
            "view_count": 770893,
            "uploader": "Taarak Mehta Ka Ooltah Chashmah Episodes",
            "category": "taarak_mehta",
            "thumbnail": "https://i.ytimg.com/vi/zLUcU46Gz7A/hqdefault.jpg"
        },
        {
            "id": "JDNt8qS3n0M",
            "title": "Can The Bhide Family Sell All The Chocolates? | Taarak Mehta Ka Ooltah Chashmah | Full Episode",
            "url": "https://www.youtube.com/watch?v=JDNt8qS3n0M",
            "duration": 1219.0,
            "view_count": 26558,
            "uploader": "Taarak Mehta Ka Ooltah Chashmah Episodes",
            "category": "taarak_mehta",
            "thumbnail": "https://i.ytimg.com/vi/JDNt8qS3n0M/hq720.jpg"
        },
        {
            "id": "m3RhUHJxfPA",
            "title": "Bhide Ko Kyu Chahiye Itne Sare Tamatar ! | FULL MOVIE | Taarak Mehta Ka Ooltah Chashmah",
            "url": "https://www.youtube.com/watch?v=m3RhUHJxfPA",
            "duration": 3148.0,
            "view_count": 2440267,
            "uploader": "Taarak Mehta Ka Ooltah Chashmah",
            "category": "taarak_mehta",
            "thumbnail": "https://i.ytimg.com/vi/m3RhUHJxfPA/hq720.jpg"
        },
        {
            "id": "TC2Tm0PHzwI",
            "title": "मंजन गिराने की गलती Bhide को पड़ेगी महंगी! | Taarak Mehta Ka Ooltah Chashmah | Bhide's Door",
            "url": "https://www.youtube.com/watch?v=TC2Tm0PHzwI",
            "duration": 3656.0,
            "view_count": 13038,
            "uploader": "Taarak Mehta Ka Ooltah Chashmah Episodes",
            "category": "taarak_mehta",
            "thumbnail": "https://i.ytimg.com/vi/TC2Tm0PHzwI/hq720.jpg"
        },
        {
            "id": "roj2lKtXt8E",
            "title": "Jethalal aur Mehta Suitcase leke kaha ja rahe hai  ! | FULL MOVIE | Taarak Mehta Ka Ooltah Chashmah",
            "url": "https://www.youtube.com/watch?v=roj2lKtXt8E",
            "duration": 3393.0,
            "view_count": 246016,
            "uploader": "Taarak Mehta Ka Ooltah Chashmah",
            "category": "taarak_mehta",
            "thumbnail": "https://i.ytimg.com/vi/roj2lKtXt8E/hq720.jpg"
        },
        {
            "id": "C0N3Vym-8gE",
            "title": "Anjali ne Khilaya Jetha ko Diet Food! | FULL MOVIE | Taarak Mehta Ka Ooltah Chashmah",
            "url": "https://www.youtube.com/watch?v=C0N3Vym-8gE",
            "duration": 2286.0,
            "view_count": 517059,
            "uploader": "Taarak Mehta Ka Ooltah Chashmah",
            "category": "taarak_mehta",
            "thumbnail": "https://i.ytimg.com/vi/C0N3Vym-8gE/hq720.jpg"
        },
        {
            "id": "4iq46eKs8cg",
            "title": "FULL EPISODE! 4646 - Anjali Se Kya Chupa Raha Hai Tarak! | Taarak Mehta Ka Ooltah Chashmah",
            "url": "https://www.youtube.com/watch?v=4iq46eKs8cg",
            "duration": 1304.0,
            "view_count": 25135,
            "uploader": "Taarak Mehta Ka Ooltah Chashmah",
            "category": "taarak_mehta",
            "thumbnail": "https://i.ytimg.com/vi/4iq46eKs8cg/hq720.jpg"
        },
        {
            "id": "oqlNx0TDSy8",
            "title": "Ep 1548 - Taarak Mehta Ka Ooltah Chashmah | Full Episode | तारक मेहता का उल्टा चश्मा",
            "url": "https://www.youtube.com/watch?v=oqlNx0TDSy8",
            "duration": 1320.0,
            "view_count": 8948261,
            "uploader": "Taarak Mehta Ka Ooltah Chashmah",
            "category": "taarak_mehta",
            "thumbnail": "https://i.ytimg.com/vi/oqlNx0TDSy8/hq720.jpg"
        },
        {
            "id": "Q-9m_oTycRk",
            "title": "Mahila Mandal ने Society में लगाई Race | Taarak Mehta Ka Ooltah Chashmah | Bhide's Door",
            "url": "https://www.youtube.com/watch?v=Q-9m_oTycRk",
            "duration": 2214.0,
            "view_count": 60018,
            "uploader": "Taarak Mehta Ka Ooltah Chashmah Episodes",
            "category": "taarak_mehta",
            "thumbnail": "https://i.ytimg.com/vi/Q-9m_oTycRk/hq720.jpg"
        },
        {
            "id": "ygydo2zmmF4",
            "title": "April Fool Banana Pad Gaya Bhari !  | FULL MOVIE | Taarak Mehta Ka Ooltah Chashmah",
            "url": "https://www.youtube.com/watch?v=ygydo2zmmF4",
            "duration": 2384.0,
            "view_count": 1007213,
            "uploader": "Taarak Mehta Ka Ooltah Chashmah",
            "category": "taarak_mehta",
            "thumbnail": "https://i.ytimg.com/vi/ygydo2zmmF4/hq720.jpg"
        },
        {
            "id": "rbh8zj9ZM64",
            "title": "Bhide Decides To Mortgage His Gold | Taarak Mehta Ka Ooltah Chashmah | Full Episode",
            "url": "https://www.youtube.com/watch?v=rbh8zj9ZM64",
            "duration": 1176.0,
            "view_count": 18317,
            "uploader": "Taarak Mehta Ka Ooltah Chashmah Episodes",
            "category": "taarak_mehta",
            "thumbnail": "https://i.ytimg.com/vi/rbh8zj9ZM64/hq720.jpg"
        },
        {
            "id": "7478fTj6iJ8",
            "title": "Paani जेठालाल Ke सिर Ke ऊपर | Taarak Mehta Ka Ooltah Chashmah | Jethalal In Trouble",
            "url": "https://www.youtube.com/watch?v=7478fTj6iJ8",
            "duration": 2427.0,
            "view_count": 2759,
            "uploader": "Taarak Mehta Ka Ooltah Chashmah Episodes",
            "category": "taarak_mehta",
            "thumbnail": "https://i.ytimg.com/vi/7478fTj6iJ8/hq720.jpg"
        }
    ]
}