{
    "page": 30,
    "total_pages": 103,
    "total_items": 5125,
    "items": [
        {
            "id": "bY2L0gEMGPo",
            "title": "(काळी रात्र) Kaali Ratra - Full Marathi Movie | Makarand Anaspure, Tejaswini Pandit | Action Drama",
            "url": "https://www.youtube.com/watch?v=bY2L0gEMGPo",
            "duration": 6171.0,
            "view_count": 42937,
            "uploader": "Ultra Marathi",
            "category": "marathi",
            "thumbnail": "https://i.ytimg.com/vi/bY2L0gEMGPo/hq720.jpg"
        },
        {
            "id": "1vmK0DQ_VGg",
            "title": "Ramdev Aala Re (रामदेव आला रे!) | Superhit Marathi Comedy Movie | Mohan Joshi, Sharad Ponkshe",
            "url": "https://www.youtube.com/watch?v=1vmK0DQ_VGg",
            "duration": 8768.0,
            "view_count": 778,
            "uploader": "Ultra Talkies",
            "category": "marathi",
            "thumbnail": "https://i.ytimg.com/vi/1vmK0DQ_VGg/hq720.jpg"
        },
        {
            "id": "AYrw0dcs-OU",
            "title": "April may 99. Marathi movie , kokan",
            "url": "https://www.youtube.com/watch?v=AYrw0dcs-OU",
            "duration": 7606.0,
            "view_count": 425,
            "uploader": "Nehal Bhavar ",
            "category": "marathi",
            "thumbnail": "https://i.ytimg.com/vi/AYrw0dcs-OU/hqdefault.jpg"
        },
        {
            "id": "W4FCHhXdK9o",
            "title": "Asha Full movie in Marathi ",
            "url": "https://www.youtube.com/watch?v=W4FCHhXdK9o",
            "duration": 6996.0,
            "view_count": 27,
            "uploader": "Tuj Ved Bal Movies ",
            "category": "marathi",
            "thumbnail": "https://i.ytimg.com/vi/W4FCHhXdK9o/hqdefault.jpg"
        },
        {
            "id": "YcRDWzjDDhY",
            "title": "मानिनी Manini | Marathi Full Movie | Girija Oak, Swapnil Joshi | Superhit Marathi Chitrapat",
            "url": "https://www.youtube.com/watch?v=YcRDWzjDDhY",
            "duration": 8319.0,
            "view_count": 268952,
            "uploader": "MarathiTalkies and 4 more",
            "category": "marathi",
            "thumbnail": "https://i.ytimg.com/vi/YcRDWzjDDhY/hq720.jpg"
        },
        {
            "id": "urRZUY6dVAk",
            "title": "Nishani Dava Angtha - निशाणी डावा अंगठा - 2009",
            "url": "https://www.youtube.com/watch?v=urRZUY6dVAk",
            "duration": 7698.0,
            "view_count": 423248,
            "uploader": "Random videos",
            "category": "marathi",
            "thumbnail": "https://i.ytimg.com/vi/urRZUY6dVAk/hqdefault.jpg"
        },
        {
            "id": "11hXeL2MJy8",
            "title": "Bhakticha Mala Full Movie (Colour Version) | भक्तीचा मळा | Marathi Movie | Old Classic Movie",
            "url": "https://www.youtube.com/watch?v=11hXeL2MJy8",
            "duration": 6793.0,
            "view_count": 745583,
            "uploader": "NH Marathi",
            "category": "marathi",
            "thumbnail": "https://i.ytimg.com/vi/11hXeL2MJy8/hq720.jpg"
        },
        {
            "id": "HEMaMKjV4Bw",
            "title": "सातच्या आत घरात Saatchya Aat Gharat | Marathi Full Movie | Best Marathi Suspense Thriller Movie",
            "url": "https://www.youtube.com/watch?v=HEMaMKjV4Bw",
            "duration": 8684.0,
            "view_count": 6308,
            "uploader": "MarathiTalkies and 4 more",
            "category": "marathi",
            "thumbnail": "https://i.ytimg.com/vi/HEMaMKjV4Bw/hq720.jpg"
        },
        {
            "id": "ZvWRD9V4QEc",
            "title": "Nay Varan Bhat Loncha Kon Nay Koncha Marathi Movie | Latest Marathi Blockbuster | Marathi Movies",
            "url": "https://www.youtube.com/watch?v=ZvWRD9V4QEc",
            "duration": 5305.0,
            "view_count": 6119576,
            "uploader": "B-Town Blockbuster",
            "category": "marathi",
            "thumbnail": "https://i.ytimg.com/vi/ZvWRD9V4QEc/hq720.jpg"
        },
        {
            "id": "wipT95yo2So",
            "title": "Nay Varan Bhat Loncha Kon Nay Koncha | Super Hit Marathi Movie | Mahesh Manjrekar",
            "url": "https://www.youtube.com/watch?v=wipT95yo2So",
            "duration": 5098.0,
            "view_count": 4036540,
            "uploader": "NH Marathi",
            "category": "marathi",
            "thumbnail": "https://i.ytimg.com/vi/wipT95yo2So/hq720.jpg"
        },
        {
            "id": "yqP3kBPvwJM",
            "title": "बजरंगाची कमाल (१९९४) | Bajrangachi Kamal Full Movie | Laxmikant Berde, Ajinkya Deo | Comedy Movie",
            "url": "https://www.youtube.com/watch?v=yqP3kBPvwJM",
            "duration": 7727.0,
            "view_count": 32461,
            "uploader": "Maharashtracha Crorepati",
            "category": "marathi",
            "thumbnail": "https://i.ytimg.com/vi/yqP3kBPvwJM/hq720.jpg"
        },
        {
            "id": "B238wwttHUg",
            "title": "LAGAN l लगन l Marathi Romantic movie l Smita tambe l Anil nagarkar l Sujit l Shweta I Arjun gujar",
            "url": "https://www.youtube.com/watch?v=B238wwttHUg",
            "duration": 8121.0,
            "view_count": 47165,
            "uploader": "Gujar Brothers Entertainment official",
            "category": "marathi",
            "thumbnail": "https://i.ytimg.com/vi/B238wwttHUg/hq720.jpg"
        },
        {
            "id": "qB9CadwsL1o",
            "title": "Mee Man Ani Dhruv (मी मन आणि ध्रुव) | Long - Distance marriage | New Superhit Marathi Full Movie HD",
            "url": "https://www.youtube.com/watch?v=qB9CadwsL1o",
            "duration": 7124.0,
            "view_count": 16377,
            "uploader": "Marathi MoviePlex and 3 more",
            "category": "marathi",
            "thumbnail": "https://i.ytimg.com/vi/qB9CadwsL1o/hq720.jpg"
        },
        {
            "id": "Rz1NPJH8QfM",
            "title": "कोकणची मुलगी आणि अमेरिकन मुलगा-कोकणच्या मातीतल प्रेम-लेक लाडकी-उमेश प्रियंका मिलिंद गुणाजी-FullMovie",
            "url": "https://www.youtube.com/watch?v=Rz1NPJH8QfM",
            "duration": 6683.0,
            "view_count": 338091,
            "uploader": "Shemaroo MarathiBana",
            "category": "marathi",
            "thumbnail": "https://i.ytimg.com/vi/Rz1NPJH8QfM/hq720.jpg"
        },
        {
            "id": "LrbY9LQLPbs",
            "title": "Thackeray | Marathi Full Movie | Nawazuddin Siddiqui, Amrita Rao",
            "url": "https://www.youtube.com/watch?v=LrbY9LQLPbs",
            "duration": 7851.0,
            "view_count": 2370547,
            "uploader": "Viacom18 Studios",
            "category": "marathi",
            "thumbnail": "https://i.ytimg.com/vi/LrbY9LQLPbs/hq720.jpg"
        },
        {
            "id": "hxxYA9FSAHc",
            "title": "मोगरा फुलला | Mogra Phulaalaa | Official Full Marathi Movie | Emotional Family Drama | Watch FREE",
            "url": "https://www.youtube.com/watch?v=hxxYA9FSAHc",
            "duration": 7741.0,
            "view_count": 768686,
            "uploader": "Gseams",
            "category": "marathi",
            "thumbnail": "https://i.ytimg.com/vi/hxxYA9FSAHc/hq720.jpg?sqp=-oaymwEcCNAFEJQDSFXyq4qpAw4IARUAAIhCGAFwAcABBg==&rs=AOn4CLDMehP5iOv1vTH5s5OuG8LrYYVMJA",
            "added_date": "2026-04-16T07:31:28.238002Z",
            "source": "youtube"
        },
        {
            "id": "f1Ri0bIFxqQ",
            "title": "POWER GAME (पॉवर गेम ) | NEW RELEASED MARATHI MOVIE 2025 | Mohan Agashe,Tejashree Pradhan",
            "url": "https://www.youtube.com/watch?v=f1Ri0bIFxqQ",
            "duration": 7956.0,
            "view_count": 69410,
            "uploader": "Marathi Cinema",
            "category": "marathi",
            "thumbnail": "https://i.ytimg.com/vi/f1Ri0bIFxqQ/hq720.jpg"
        },
        {
            "id": "_v08CBsKijk",
            "title": "Mahesh Manjrekar Special - Nay Varan Bhat Loncha Kon Nay Koncha Full Movie | 2022 Hit Marathi Movie",
            "url": "https://www.youtube.com/watch?v=_v08CBsKijk",
            "duration": 5439.0,
            "view_count": 322113,
            "uploader": "NH Marathi",
            "category": "marathi",
            "thumbnail": "https://i.ytimg.com/vi/_v08CBsKijk/hq720.jpg"
        },
        {
            "id": "7HaeOWI7Yl4",
            "title": "Garbh (गर्भ) | NEW RELEASE MARATHI FULL MOVIE | Siyaa Patil,Sushant Shelar, Nishigandha Wad",
            "url": "https://www.youtube.com/watch?v=7HaeOWI7Yl4",
            "duration": 8516.0,
            "view_count": 215439,
            "uploader": "Marathi Cinema and 3 more",
            "category": "marathi",
            "thumbnail": "https://i.ytimg.com/vi/7HaeOWI7Yl4/hq720.jpg"
        },
        {
            "id": "MqqMKAYe4rA",
            "title": "हक्क - Full Marathi Movie | Prajakta Mali New Marathi Movie | Rutuja Bagve | Superhit Marathi Movie",
            "url": "https://www.youtube.com/watch?v=MqqMKAYe4rA",
            "duration": 8799.0,
            "view_count": 1875,
            "uploader": "Marathi Filmy Duniya",
            "category": "marathi",
            "thumbnail": "https://i.ytimg.com/vi/MqqMKAYe4rA/hq720.jpg"
        },
        {
            "id": "88lsYZiQ5Fo",
            "title": "नाय वरणभात लोन्चा कोण नाय कोन्चा Full Movie | Mahesh Manjrekar Movies | Latest Marathi Action Movie",
            "url": "https://www.youtube.com/watch?v=88lsYZiQ5Fo",
            "duration": 5305.0,
            "view_count": 211186,
            "uploader": "Maharashtracha Crorepati",
            "category": "marathi",
            "thumbnail": "https://i.ytimg.com/vi/88lsYZiQ5Fo/hq720.jpg"
        },
        {
            "id": "3u5hYtUTw1U",
            "title": "मकरंद अनासपुरे सयाजी शिंदे तेजस्वी लोणारीचा सुपरहिट मराठी मूवी \"बायको माझी एक नंबर\"",
            "url": "https://www.youtube.com/watch?v=3u5hYtUTw1U",
            "duration": 7347.0,
            "view_count": 610243,
            "uploader": "Dhamaal Marathi",
            "category": "marathi",
            "thumbnail": "https://i.ytimg.com/vi/3u5hYtUTw1U/hq720.jpg"
        },
        {
            "id": "Zqzq5Ri-2ko",
            "title": "Jetha ने मंगाया Taarak के लिए मसालेदार खाना | Taarak Mehta Ka Ooltah Chashmah | Taarak Ka Diet",
            "url": "https://www.youtube.com/watch?v=Zqzq5Ri-2ko",
            "duration": 3552.0,
            "view_count": 150166,
            "uploader": "Taarak Mehta Ka Ooltah Chashmah Episodes",
            "category": "taarak_mehta",
            "thumbnail": "https://i.ytimg.com/vi/Zqzq5Ri-2ko/hq720.jpg"
        },
        {
            "id": "5IJycI1VJMI",
            "title": "Bapuji ne Diya Dinner Party! | FULL MOVIE | Taarak Mehta Ka Ooltah Chashmah",
            "url": "https://www.youtube.com/watch?v=5IJycI1VJMI",
            "duration": 2173.0,
            "view_count": 12218082,
            "uploader": "Taarak Mehta Ka Ooltah Chashmah",
            "category": "taarak_mehta",
            "thumbnail": "https://i.ytimg.com/vi/5IJycI1VJMI/hq720.jpg?sqp=-oaymwEcCNAFEJQDSFXyq4qpAw4IARUAAIhCGAFwAcABBg==&rs=AOn4CLAKbedO0d3S1LYhh3iLfXVRdhZOwg",
            "added_date": "2026-04-16T07:31:42.371296Z",
            "source": "youtube"
        },
        {
            "id": "gCyEDpRSXIo",
            "title": "Jetha Finds Out The Truth | Taarak Mehta Ka Ooltah Chashmah | Jetha Bapuji Special",
            "url": "https://www.youtube.com/watch?v=gCyEDpRSXIo",
            "duration": 1226.0,
            "view_count": 138023,
            "uploader": "Taarak Mehta Ka Ooltah Chashmah Episodes",
            "category": "taarak_mehta",
            "thumbnail": "https://i.ytimg.com/vi/gCyEDpRSXIo/hq720.jpg"
        },
        {
            "id": "ovU1-a_Xt8U",
            "title": "Bhide Ignoring Jethalal?! | FULL MOVIE | Why Is Bhide Avoiding Jethalal? | Hindi Comedy Movie",
            "url": "https://www.youtube.com/watch?v=ovU1-a_Xt8U",
            "duration": 4445.0,
            "view_count": 52914,
            "uploader": "Taarak Mehta Ka Ooltah Chashmah Episodes",
            "category": "taarak_mehta",
            "thumbnail": "https://i.ytimg.com/vi/ovU1-a_Xt8U/hq720.jpg"
        },
        {
            "id": "F90V91_K7c4",
            "title": "The Challenge Begins | Taarak Mehta Ka Ooltah Chashmah | Full Ep 4652 | 7 Mar 2026 | New Episode",
            "url": "https://www.youtube.com/watch?v=F90V91_K7c4",
            "duration": 1293.0,
            "view_count": 973581,
            "uploader": "Taarak Mehta Ka Ooltah Chashmah Episodes",
            "category": "taarak_mehta",
            "thumbnail": "https://i.ytimg.com/vi/F90V91_K7c4/hqdefault.jpg"
        },
        {
            "id": "4U9-rJDLu08",
            "title": "Epic AC Repair Disaster 😂 | FULL MOVIE | When Jethalal Becomes an AC Mechanic | Hindi Movie",
            "url": "https://www.youtube.com/watch?v=4U9-rJDLu08",
            "duration": 5021.0,
            "view_count": 13776,
            "uploader": "Taarak Mehta Ka Ooltah Chashmah Episodes",
            "category": "taarak_mehta",
            "thumbnail": "https://i.ytimg.com/vi/4U9-rJDLu08/hq720.jpg"
        },
        {
            "id": "2G5eF2s_kNw",
            "title": "Why Police Arrests Bagha😳 | FULL MOVIE | 😱 Gokuldham in Shock | Hindi Comedy",
            "url": "https://www.youtube.com/watch?v=2G5eF2s_kNw",
            "duration": 3461.0,
            "view_count": 119655,
            "uploader": "Taarak Mehta Ka Ooltah Chashmah Episodes",
            "category": "taarak_mehta",
            "thumbnail": "https://i.ytimg.com/vi/2G5eF2s_kNw/hq720.jpg"
        },
        {
            "id": "VTd269aPkLQ",
            "title": "A Dream Come True for Jethya?! | FULL MOVIE | Huge Surprise for Jethalal | Hindi Comedy Movie",
            "url": "https://www.youtube.com/watch?v=VTd269aPkLQ",
            "duration": 3139.0,
            "view_count": 139143,
            "uploader": "Taarak Mehta Ka Ooltah Chashmah Episodes",
            "category": "taarak_mehta",
            "thumbnail": "https://i.ytimg.com/vi/VTd269aPkLQ/hq720.jpg"
        },
        {
            "id": "Cm9guUBS-Rw",
            "title": "Jetha Face A Challenge | Taarak Mehta Ka Ooltah Chashmah | Full Ep 4651 | 6 Mar 2026 | New Episode",
            "url": "https://www.youtube.com/watch?v=Cm9guUBS-Rw",
            "duration": 1332.0,
            "view_count": 856631,
            "uploader": "Taarak Mehta Ka Ooltah Chashmah Episodes",
            "category": "taarak_mehta",
            "thumbnail": "https://i.ytimg.com/vi/Cm9guUBS-Rw/hq720.jpg"
        },
        {
            "id": "aijeELfnadc",
            "title": "A Society Meeting Is Called In Gokuldham | Taarak Mehta Ka Ooltah Chashmah | Bhide Fun Files",
            "url": "https://www.youtube.com/watch?v=aijeELfnadc",
            "duration": 3515.0,
            "view_count": 3474423,
            "uploader": "Taarak Mehta Ka Ooltah Chashmah Episodes",
            "category": "taarak_mehta",
            "thumbnail": "https://i.ytimg.com/vi/aijeELfnadc/hq720.jpg"
        },
        {
            "id": "PVgNC2XNw_8",
            "title": "🎉Bagha’s Secret Party in the Godown! |  FULL MOVIE | What is happening inside? Hindi Comedy",
            "url": "https://www.youtube.com/watch?v=PVgNC2XNw_8",
            "duration": 3373.0,
            "view_count": 124542,
            "uploader": "Taarak Mehta Ka Ooltah Chashmah Episodes",
            "category": "taarak_mehta",
            "thumbnail": "https://i.ytimg.com/vi/PVgNC2XNw_8/hq720.jpg"
        },
        {
            "id": "jkt-CkYJ8-Q",
            "title": "NEW! Ep 4652 - Kya Hoga Ab Jethalal Ka Naya Plan? | Taarak Mehta ka Ooltah  Chashmah | तारक मेहता",
            "url": "https://www.youtube.com/watch?v=jkt-CkYJ8-Q",
            "duration": 607.0,
            "view_count": 2926982,
            "uploader": "Taarak Mehta Ka Ooltah Chashmah",
            "category": "taarak_mehta",
            "thumbnail": "https://i.ytimg.com/vi/jkt-CkYJ8-Q/hq720.jpg"
        },
        {
            "id": "XUqnLj3DgAA",
            "title": "Food Preparation Takes Place In Gokuldham Society | Taarak Mehta Ka Ooltah Chashmah | Full Episode",
            "url": "https://www.youtube.com/watch?v=XUqnLj3DgAA",
            "duration": 1192.0,
            "view_count": 1640748,
            "uploader": "Taarak Mehta Ka Ooltah Chashmah Episodes",
            "category": "taarak_mehta",
            "thumbnail": "https://i.ytimg.com/vi/XUqnLj3DgAA/hq720.jpg?sqp=-oaymwEcCNAFEJQDSFXyq4qpAw4IARUAAIhCGAFwAcABBg==&rs=AOn4CLBEtS59qrmlEPTQ6c-k9ehb9gcwYw",
            "added_date": "2026-04-16T07:31:42.772023Z",
            "source": "youtube"
        },
        {
            "id": "m3icsZbbqRQ",
            "title": "Gokuldham Society में घुसा चोर | Taarak Mehta Ka Ooltah Chashmah | Exam Results",
            "url": "https://www.youtube.com/watch?v=m3icsZbbqRQ",
            "duration": 2388.0,
            "view_count": 233421,
            "uploader": "Taarak Mehta Ka Ooltah Chashmah Episodes",
            "category": "taarak_mehta",
            "thumbnail": "https://i.ytimg.com/vi/m3icsZbbqRQ/hq720.jpg"
        },
        {
            "id": "F2ptAhvkYM0",
            "title": "Epic Face-Off in Gada Family | FULL MOVIE | Jethalal’s Hilarious Mimicry Madness 😂",
            "url": "https://www.youtube.com/watch?v=F2ptAhvkYM0",
            "duration": 3793.0,
            "view_count": 310150,
            "uploader": "Taarak Mehta Ka Ooltah Chashmah Episodes",
            "category": "taarak_mehta",
            "thumbnail": "https://i.ytimg.com/vi/F2ptAhvkYM0/hq720.jpg"
        },
        {
            "id": "wn6mPtTTDF0",
            "title": "Jethalal Gets VIP Passes For Mahila Mandal | Taarak Mehta Ka Ooltah Chashmah | Full Episode",
            "url": "https://www.youtube.com/watch?v=wn6mPtTTDF0",
            "duration": 1272.0,
            "view_count": 8502,
            "uploader": "Taarak Mehta Ka Ooltah Chashmah Episodes",
            "category": "taarak_mehta",
            "thumbnail": "https://i.ytimg.com/vi/wn6mPtTTDF0/hq720.jpg"
        },
        {
            "id": "2x_4ZMlclN4",
            "title": "Bhide के Joke पर क्यों नहीं हँसा Jethalal? | Taarak Mehta Ka Ooltah Chashmah | Romantic Talks",
            "url": "https://www.youtube.com/watch?v=2x_4ZMlclN4",
            "duration": 3338.0,
            "view_count": 198078,
            "uploader": "Taarak Mehta Ka Ooltah Chashmah Episodes",
            "category": "taarak_mehta",
            "thumbnail": "https://i.ytimg.com/vi/2x_4ZMlclN4/hq720.jpg"
        },
        {
            "id": "etUmJAz0RAU",
            "title": "Bhide ne Kiya Jail me Choro ke Sath Dinner! | FULL MOVIE | Taarak Mehta Ka Ooltah Chashmah",
            "url": "https://www.youtube.com/watch?v=etUmJAz0RAU",
            "duration": 3487.0,
            "view_count": 1220558,
            "uploader": "Taarak Mehta Ka Ooltah Chashmah",
            "category": "taarak_mehta",
            "thumbnail": "https://i.ytimg.com/vi/etUmJAz0RAU/hq720.jpg"
        },
        {
            "id": "tfi8nBvoQGI",
            "title": "Daya Is Upset With Jethalal | Taarak Mehta Ka Ooltah Chashmah | Full Episode",
            "url": "https://www.youtube.com/watch?v=tfi8nBvoQGI",
            "duration": 1224.0,
            "view_count": 10978,
            "uploader": "Taarak Mehta Ka Ooltah Chashmah Episodes",
            "category": "taarak_mehta",
            "thumbnail": "https://i.ytimg.com/vi/tfi8nBvoQGI/hq720.jpg"
        },
        {
            "id": "IqMpB9UvxNU",
            "title": "Mission मसालेदार में फांसी Purush Mandali | Taarak Mehta Ka Ooltah Chashmah | Diet Plan",
            "url": "https://www.youtube.com/watch?v=IqMpB9UvxNU",
            "duration": 3767.0,
            "view_count": 94201,
            "uploader": "Taarak Mehta Ka Ooltah Chashmah Episodes",
            "category": "taarak_mehta",
            "thumbnail": "https://i.ytimg.com/vi/IqMpB9UvxNU/hq720.jpg"
        },
        {
            "id": "_mRJx_o_lFA",
            "title": "Babita Decides To Leave Iyer | Taarak Mehta Ka Ooltah Chashmah | Full Episode 131",
            "url": "https://www.youtube.com/watch?v=_mRJx_o_lFA",
            "duration": 1141.0,
            "view_count": 1411,
            "uploader": "Taarak Mehta Ka Ooltah Chashmah Episodes",
            "category": "taarak_mehta",
            "thumbnail": "https://i.ytimg.com/vi/_mRJx_o_lFA/hq720.jpg"
        },
        {
            "id": "DTMfmSLG6OY",
            "title": "Tapu के Idea से क्यों नहीं हुई Bhide को खुशी? | Taarak Mehta Ka Ooltah Chashmah | Unknown Guest",
            "url": "https://www.youtube.com/watch?v=DTMfmSLG6OY",
            "duration": 3510.0,
            "view_count": 34706,
            "uploader": "Taarak Mehta Ka Ooltah Chashmah Episodes",
            "category": "taarak_mehta",
            "thumbnail": "https://i.ytimg.com/vi/DTMfmSLG6OY/hqdefault.jpg"
        },
        {
            "id": "97LSM7GqCiE",
            "title": "Kyu Udaya Gents Ne Popatlal Ka Majak?! | FULL MOVIE | Taarak Mehta Ka Ooltah Chashmah",
            "url": "https://www.youtube.com/watch?v=97LSM7GqCiE",
            "duration": 2184.0,
            "view_count": 876101,
            "uploader": "Taarak Mehta Ka Ooltah Chashmah",
            "category": "taarak_mehta",
            "thumbnail": "https://i.ytimg.com/vi/97LSM7GqCiE/hq720.jpg"
        },
        {
            "id": "DoeJxtTcXtU",
            "title": "Kis Ke karan Bapuji Gir gaye compound mai?  | FULL MOVIE | Taarak Mehta Ka Ooltah Chashmah",
            "url": "https://www.youtube.com/watch?v=DoeJxtTcXtU",
            "duration": 3960.0,
            "view_count": 2039838,
            "uploader": "Taarak Mehta Ka Ooltah Chashmah",
            "category": "taarak_mehta",
            "thumbnail": "https://i.ytimg.com/vi/DoeJxtTcXtU/hq720.jpg"
        },
        {
            "id": "p0nzpK9QsP4",
            "title": "Kon bachayega Goli ka favourite khana!| FULL MOVIE | Taarak Mehta Ka Ooltah Chashmah",
            "url": "https://www.youtube.com/watch?v=p0nzpK9QsP4",
            "duration": 3348.0,
            "view_count": 318027,
            "uploader": "Taarak Mehta Ka Ooltah Chashmah",
            "category": "taarak_mehta",
            "thumbnail": "https://i.ytimg.com/vi/p0nzpK9QsP4/hq720.jpg"
        },
        {
            "id": "ze_zTj8ADNo",
            "title": "Kisne diya bhide aur popatlal ka  challenge| FULL MOVIE | Taarak Mehta Ka Ooltah Chashmah",
            "url": "https://www.youtube.com/watch?v=ze_zTj8ADNo",
            "duration": 3413.0,
            "view_count": 1146933,
            "uploader": "Taarak Mehta Ka Ooltah Chashmah",
            "category": "taarak_mehta",
            "thumbnail": "https://i.ytimg.com/vi/ze_zTj8ADNo/hq720.jpg"
        },
        {
            "id": "IY5WbI0vFFU",
            "title": "Jethalal ke Sir me Dard! | FULL MOVIE | Taarak Mehta Ka Ooltah Chashmah",
            "url": "https://www.youtube.com/watch?v=IY5WbI0vFFU",
            "duration": 3677.0,
            "view_count": 5133340,
            "uploader": "Taarak Mehta Ka Ooltah Chashmah",
            "category": "taarak_mehta",
            "thumbnail": "https://i.ytimg.com/vi/IY5WbI0vFFU/hq720.jpg"
        },
        {
            "id": "6z4yEjm_NwE",
            "title": "खिड़की के बाहर देखकर क्यों चिल्लाने लगी Madhavi? | Taarak Mehta Ka Ooltah Chashmah | Patni Pariksha",
            "url": "https://www.youtube.com/watch?v=6z4yEjm_NwE",
            "duration": 3638.0,
            "view_count": 137913,
            "uploader": "Taarak Mehta Ka Ooltah Chashmah Episodes",
            "category": "taarak_mehta",
            "thumbnail": "https://i.ytimg.com/vi/6z4yEjm_NwE/hq720.jpg"
        }
    ]
}