{
    "page": 21,
    "total_pages": 103,
    "total_items": 5125,
    "items": [
        {
            "id": "I4Ppgn15RRE",
            "title": "Barood | बारूद | Full Hindi Movie | Akshay Kumar, Raveena Tandon, Rakhee G, Amrish Puri | Pramod C",
            "url": "https://www.youtube.com/watch?v=I4Ppgn15RRE",
            "duration": 9523.0,
            "view_count": 21568162,
            "uploader": "Soham Rockstar Entertainment",
            "category": "hindi",
            "thumbnail": "https://i.ytimg.com/vi/I4Ppgn15RRE/hq720.jpg"
        },
        {
            "id": "fc1WSJwgtiA",
            "title": "#AK65 Full Movie Hindi Dubbed | Ajith Kumar | Jagapathi Babu | Latest South Indian Action Movie 2026",
            "url": "https://www.youtube.com/watch?v=fc1WSJwgtiA",
            "duration": 7734.0,
            "view_count": 488502,
            "uploader": "FullOn Blockbuster",
            "category": "hindi",
            "thumbnail": "https://i.ytimg.com/vi/fc1WSJwgtiA/hq720.jpg"
        },
        {
            "id": "Yg73jAp5GOw",
            "title": "Vijay Thalapathy (HD) Blockbuster South Indian Hindi Dubbed Action Movie | New Letest Movie 2025",
            "url": "https://www.youtube.com/watch?v=Yg73jAp5GOw",
            "duration": 8926.0,
            "view_count": 34944,
            "uploader": "Super Movies Dhamaka",
            "category": "hindi",
            "thumbnail": "https://i.ytimg.com/vi/Yg73jAp5GOw/hqdefault.jpg"
        },
        {
            "id": "diiWWatnO7A",
            "title": "Sarbjit (Full Movie): Randeep Hooda | Aishwarya Rai Bachchan | Richa Chadda | Bhushan Kumar",
            "url": "https://www.youtube.com/watch?v=diiWWatnO7A",
            "duration": 7596.0,
            "view_count": 6764888,
            "uploader": "T-Series",
            "category": "hindi",
            "thumbnail": "https://i.ytimg.com/vi/diiWWatnO7A/hq720.jpg"
        },
        {
            "id": "-X1aeCqeqCY",
            "title": "AK65 Full Movie In Hindi Dubbed | Ajith Kumar, Jagapathi Babu | New South Indian Hindi Dubbed Movies",
            "url": "https://www.youtube.com/watch?v=-X1aeCqeqCY",
            "duration": 7568.0,
            "view_count": 632085,
            "uploader": "Power Star Pictures",
            "category": "hindi",
            "thumbnail": "https://i.ytimg.com/vi/-X1aeCqeqCY/hq720.jpg"
        },
        {
            "id": "O15pvbaEsLY",
            "title": "De De Pyaar De Full Movie Hindi | Ajay Devgn | Rakul Preet Singh | Tabu",
            "url": "https://www.youtube.com/watch?v=O15pvbaEsLY",
            "duration": 8052.0,
            "view_count": 15586276,
            "uploader": "Dhamaka Movies",
            "category": "hindi",
            "thumbnail": "https://i.ytimg.com/vi/O15pvbaEsLY/hq720.jpg"
        },
        {
            "id": "j8w7DzNgShg",
            "title": "Mann (HD & Eng Subs)Hindi Full Movie - Aamir Khan, Manisha Koirala, Anil Kapoor - 90's Romantic Film",
            "url": "https://www.youtube.com/watch?v=j8w7DzNgShg",
            "duration": 10394.0,
            "view_count": 189165292,
            "uploader": "Shemaroo Movies",
            "category": "hindi",
            "thumbnail": "https://i.ytimg.com/vi/j8w7DzNgShg/hq720.jpg"
        },
        {
            "id": "hLKrYbE6k5Q",
            "title": "Vaada 2004 HIndi Thriller Full Movie 4K | Arjun Rampal, Ameesha Patel, Zayed Khan | Bollywood 2000",
            "url": "https://www.youtube.com/watch?v=hLKrYbE6k5Q",
            "duration": 7604.0,
            "view_count": 1022025,
            "uploader": "Ultra 4K Movies",
            "category": "hindi",
            "thumbnail": "https://i.ytimg.com/vi/hLKrYbE6k5Q/hq720.jpg"
        },
        {
            "id": "A3JY7oZWLJY",
            "title": "I Am God full movie in Hindi dubbed ",
            "url": "https://www.youtube.com/watch?v=A3JY7oZWLJY",
            "duration": 9060.0,
            "view_count": 7132,
            "uploader": "D series73 *",
            "category": "hindi",
            "thumbnail": "https://i.ytimg.com/vi/A3JY7oZWLJY/hq720.jpg"
        },
        {
            "id": "J-K7S8Mf5UQ",
            "title": "AK 47 Full Movie In Hindi Dubbed 2026 | Ajith Kumar | New Released South Hindi Dubbed Movie 2026",
            "url": "https://www.youtube.com/watch?v=J-K7S8Mf5UQ",
            "duration": 7568.0,
            "view_count": 39277,
            "uploader": "Bolly Pictures Point",
            "category": "hindi",
            "thumbnail": "https://i.ytimg.com/vi/J-K7S8Mf5UQ/hq720.jpg"
        },
        {
            "id": "H_tSFJg-IyA",
            "title": "Punarjanam | Blockbuster Nani's Movie | Full Movie | Hindi Dubbed | HD | 1080p | Shyam Singh Roy",
            "url": "https://www.youtube.com/watch?v=H_tSFJg-IyA",
            "duration": 8705.0,
            "view_count": 2183588,
            "uploader": "Masala Movie",
            "category": "hindi",
            "thumbnail": "https://i.ytimg.com/vi/H_tSFJg-IyA/hq720.jpg"
        },
        {
            "id": "Nlchf1NNUWc",
            "title": "Partner Full Movie | Salman Khan, Govinda, Katrina Kaif, Lara Dutta | Bollywood Comedy Blockbuster",
            "url": "https://www.youtube.com/watch?v=Nlchf1NNUWc",
            "duration": 8566.0,
            "view_count": 266102,
            "uploader": "Eros Universe Super Cinema",
            "category": "hindi",
            "thumbnail": "https://i.ytimg.com/vi/Nlchf1NNUWc/hq720.jpg"
        },
        {
            "id": "JAegwWXcVT8",
            "title": "2026 New Blockbuster Hindi Dubbed Action Movie _ New South Indian Movies Dubbed In Hindi 2026 Full",
            "url": "https://www.youtube.com/watch?v=JAegwWXcVT8",
            "duration": 8490.0,
            "view_count": 3265237,
            "uploader": "Super Movies Dhamaka",
            "category": "hindi",
            "thumbnail": "https://i.ytimg.com/vi/JAegwWXcVT8/hq720.jpg"
        },
        {
            "id": "GGFXtOBymwM",
            "title": "Golmaal 3 - Comedy Movie HD | Ajay Devgan - Kareena Kapoor - Arshad Warsi - Shreyas - Kunal - Tushar",
            "url": "https://www.youtube.com/watch?v=GGFXtOBymwM",
            "duration": 8072.0,
            "view_count": 23009,
            "uploader": "Eros Universe Big Picture",
            "category": "hindi",
            "thumbnail": "https://i.ytimg.com/vi/GGFXtOBymwM/hq720.jpg"
        },
        {
            "id": "CHuVFLZD9nA",
            "title": "Pushpa 3: The Rampage - Hindi Movie | Allu Arjun | Vijay Devarkonda | Rashmika M | Sukumar New Movie",
            "url": "https://www.youtube.com/watch?v=CHuVFLZD9nA",
            "duration": 8932.0,
            "view_count": 8037,
            "uploader": "Power Star Pictures",
            "category": "hindi",
            "thumbnail": "https://i.ytimg.com/vi/CHuVFLZD9nA/hq720.jpg"
        },
        {
            "id": "uIYXSpKCBhk",
            "title": "Farzi 2 - New Blockbuster Hindi Action Full Movie | Shahid Kapoor , Raashii Khanna Hindi Full Movie",
            "url": "https://www.youtube.com/watch?v=uIYXSpKCBhk",
            "duration": 8669.0,
            "view_count": 8540172,
            "uploader": "AR Hussain",
            "category": "hindi",
            "thumbnail": "https://i.ytimg.com/vi/uIYXSpKCBhk/hq720.jpg"
        },
        {
            "id": "5nVtduyZQKc",
            "title": "Pushpa 3 Full Movie 2026 | Allu Arjun | Rashmika Mandanna | New South Indian Hindi Dubbed Movie 2026",
            "url": "https://www.youtube.com/watch?v=5nVtduyZQKc",
            "duration": 8932.0,
            "view_count": 58909,
            "uploader": "Bolly Pictures Point",
            "category": "hindi",
            "thumbnail": "https://i.ytimg.com/vi/5nVtduyZQKc/hq720.jpg"
        },
        {
            "id": "kZaRDQIlkwU",
            "title": "Dhurandhar 2 The Revenge (2026) Full Hindi Dubbed Movie | Powerful Action Thriller HD",
            "url": "https://www.youtube.com/watch?v=kZaRDQIlkwU",
            "duration": 13513.0,
            "view_count": 4130,
            "uploader": "ROHIT 1M",
            "category": "hindi",
            "thumbnail": "https://i.ytimg.com/vi/kZaRDQIlkwU/hqdefault.jpg"
        },
        {
            "id": "3CYY8l7Nr0w",
            "title": "Rockstar (2011) Full Movie 🎬 | Superhit Romantic Movie | Ranbir Kapoor | Nargis Fakhri | Imtiaz Ali",
            "url": "https://www.youtube.com/watch?v=3CYY8l7Nr0w",
            "duration": 9109.0,
            "view_count": 209714,
            "uploader": "Eros Universe Bioscope",
            "category": "hindi",
            "thumbnail": "https://i.ytimg.com/vi/3CYY8l7Nr0w/hq720.jpg"
        },
        {
            "id": "R-IbxC8tVtw",
            "title": "Vijay Thalapathy (HD) Blockbuster South Indian Hindi Dubbed Action Movie | New Letest Movie 2025",
            "url": "https://www.youtube.com/watch?v=R-IbxC8tVtw",
            "duration": 8926.0,
            "view_count": 370648,
            "uploader": "Super Movies Dhamaka",
            "category": "hindi",
            "thumbnail": "https://i.ytimg.com/vi/R-IbxC8tVtw/hqdefault.jpg"
        },
        {
            "id": "_pGoHL91tVM",
            "title": "Luka Chuppi Full Movie | kartik Aaryan | Kriti Sanon | Hd Hindi Movie | Comedy | Drama | Romance",
            "url": "https://www.youtube.com/watch?v=_pGoHL91tVM",
            "duration": 7569.0,
            "view_count": 3386531,
            "uploader": "Lo-fi _ Editz09",
            "category": "hindi",
            "thumbnail": "https://i.ytimg.com/vi/_pGoHL91tVM/hqdefault.jpg"
        },
        {
            "id": "6NnTsZhB7Ec",
            "title": "Dhurandhar 2 full movie  #dhurandhar2 ",
            "url": "https://www.youtube.com/watch?v=6NnTsZhB7Ec",
            "duration": 13374.0,
            "view_count": 10802,
            "uploader": "Ashish Rana Unfiltered ",
            "category": "hindi",
            "thumbnail": "https://i.ytimg.com/vi/6NnTsZhB7Ec/hqdefault.jpg"
        },
        {
            "id": "IcLQKkOrd8I",
            "title": "Force 3 | John Abraham, Sonakshi Sinha | Latest Full Action Hindi Dubbed Movie 2025 | Bollywood Film",
            "url": "https://www.youtube.com/watch?v=IcLQKkOrd8I",
            "duration": 7155.0,
            "view_count": 745690,
            "uploader": "Pro Media",
            "category": "hindi",
            "thumbnail": "https://i.ytimg.com/vi/IcLQKkOrd8I/hq720.jpg"
        },
        {
            "id": "mCAREWxNvQA",
            "title": "DAANAV (2026) Full Horror Movie | Hrithik Roshan, Deepika Padukone | Superhit Hindi Thriller HD",
            "url": "https://www.youtube.com/watch?v=mCAREWxNvQA",
            "duration": 7965.0,
            "view_count": 914295,
            "uploader": "Ankita Bhawsar and Movie Mela New",
            "category": "hindi",
            "thumbnail": "https://i.ytimg.com/vi/mCAREWxNvQA/hq720.jpg?sqp=-oaymwEcCNAFEJQDSFXyq4qpAw4IARUAAIhCGAFwAcABBg==&rs=AOn4CLC-VgH_diy16KePTqM1AeHR9dDj9w",
            "added_date": "2026-04-16T07:30:56.200621Z",
            "source": "youtube"
        },
        {
            "id": "IFv0IW1LWBk",
            "title": "Housefull - Full Movie (8K/4K Ultra HD) | Akshay K | Riteish D | Arjun R | Deepika P | Comedy Movie",
            "url": "https://www.youtube.com/watch?v=IFv0IW1LWBk",
            "duration": 8927.0,
            "view_count": 600472,
            "uploader": "Eros Universe",
            "category": "hindi",
            "thumbnail": "https://i.ytimg.com/vi/IFv0IW1LWBk/hq720.jpg"
        },
        {
            "id": "gMg9kxNV-tQ",
            "title": "Rehna Hai Terre Dil Mein (RHTDM 2001) Hindi Full Movie 4K | R Madhavan | Dia Mirza | Saif Ali Khan",
            "url": "https://www.youtube.com/watch?v=gMg9kxNV-tQ",
            "duration": 9912.0,
            "view_count": 677152,
            "uploader": "Ultra 4K Movies",
            "category": "hindi",
            "thumbnail": "https://i.ytimg.com/vi/gMg9kxNV-tQ/hq720.jpg"
        },
        {
            "id": "nPxX552Ttmk",
            "title": "Street Dominion || New Movies 2026 Hindi Dubbed || | Vidyut Jammwal | Jason Momoa | || #action",
            "url": "https://www.youtube.com/watch?v=nPxX552Ttmk",
            "duration": 6651.0,
            "view_count": 2245792,
            "uploader": "Movies Digital Studio",
            "category": "hindi",
            "thumbnail": "https://i.ytimg.com/vi/nPxX552Ttmk/hq720.jpg"
        },
        {
            "id": "rsorkD8WznA",
            "title": "Happy Patel: Khatarnak Jasoos (2026) Latest Hindi Full Movie | Starring Vir Das, Aamir Khan, Mithila",
            "url": "https://www.youtube.com/watch?v=rsorkD8WznA",
            "duration": 6363.0,
            "view_count": 64124,
            "uploader": "RG Entertainment",
            "category": "hindi",
            "thumbnail": "https://i.ytimg.com/vi/rsorkD8WznA/hq720.jpg"
        },
        {
            "id": "OJzhUhGo81Q",
            "title": "Zanjeer (1975) Full Movie HD | Amitabh Bachchan’s Iconic Action Blockbuster 🔥",
            "url": "https://www.youtube.com/watch?v=OJzhUhGo81Q",
            "duration": 8106.0,
            "view_count": 1292504,
            "uploader": "Ankita Bhawsar and Sultan Khan",
            "category": "hindi",
            "thumbnail": "https://i.ytimg.com/vi/OJzhUhGo81Q/hq720.jpg"
        },
        {
            "id": "Q9utKXsjg4g",
            "title": "DHURANDHAR FULL MOVIE IN HINDI DUBBED (2025) | Starring Ranveer Singh & Akshay Khanna #dhurandhar",
            "url": "https://www.youtube.com/watch?v=Q9utKXsjg4g",
            "duration": 11078.0,
            "view_count": 4599,
            "uploader": "Shivani",
            "category": "hindi",
            "thumbnail": "https://i.ytimg.com/vi/Q9utKXsjg4g/hqdefault.jpg"
        },
        {
            "id": "I9qIc6MxCnA",
            "title": "Murder 4 full movie || Emaran Hashmi blockbuster || Romantic movie 🍿|| 2025 Full Movie ",
            "url": "https://www.youtube.com/watch?v=I9qIc6MxCnA",
            "duration": 7967.0,
            "view_count": 769096,
            "uploader": " Udyansh",
            "category": "hindi",
            "thumbnail": "https://i.ytimg.com/vi/I9qIc6MxCnA/hq720.jpg"
        },
        {
            "id": "xpLhfc4jqwA",
            "title": "Shubh Mangal Saavdhan (2017) Full Movie in 8K Ultra HD | Ayushmann Khurrana | Bhumi Pednekar",
            "url": "https://www.youtube.com/watch?v=xpLhfc4jqwA",
            "duration": 6265.0,
            "view_count": 628004,
            "uploader": "Eros Universe Super Cinema and Eros Universe Cinema",
            "category": "hindi",
            "thumbnail": "https://i.ytimg.com/vi/xpLhfc4jqwA/hq720.jpg"
        },
        {
            "id": "Oy15vxUA368",
            "title": "DHANDHA 2 Full Action Movie | Deepika Pahukone | A Women Story Full Action Movies 2026",
            "url": "https://www.youtube.com/watch?v=Oy15vxUA368",
            "duration": 8947.0,
            "view_count": 1417684,
            "uploader": "Movies Ki Duniya",
            "category": "hindi",
            "thumbnail": "https://i.ytimg.com/vi/Oy15vxUA368/hq720.jpg"
        },
        {
            "id": "y42Li_T1hBs",
            "title": "PUSHPA 3 The Rampage : Full Movie | Allu Arjun | Rashmika Mandana | Latest Full Action Movie 2026",
            "url": "https://www.youtube.com/watch?v=y42Li_T1hBs",
            "duration": 9116.0,
            "view_count": 33042,
            "uploader": "Ranita Studio",
            "category": "hindi",
            "thumbnail": "https://i.ytimg.com/vi/y42Li_T1hBs/hq720.jpg"
        },
        {
            "id": "xSzWIgovLtk",
            "title": "Marsal (HD) Blockbuster South Indian Hindi Dubbed Action Movie | Vijay, Kajal |New Letest Movie 2026",
            "url": "https://www.youtube.com/watch?v=xSzWIgovLtk",
            "duration": 8926.0,
            "view_count": 101683,
            "uploader": "Super Movies Dhamaka",
            "category": "hindi",
            "thumbnail": "https://i.ytimg.com/vi/xSzWIgovLtk/hq720.jpg"
        },
        {
            "id": "9bGtM44Uu8A",
            "title": "SAWERA (2026) | Dhanush | New South Indian Movie Dubbed In Hindi | Action Drama Thriller | Full HD",
            "url": "https://www.youtube.com/watch?v=9bGtM44Uu8A",
            "duration": 6055.0,
            "view_count": 8929,
            "uploader": "Bolly Pictures Point",
            "category": "hindi",
            "thumbnail": "https://i.ytimg.com/vi/9bGtM44Uu8A/hq720.jpg"
        },
        {
            "id": "1_7PW6zr-0Q",
            "title": "Dhurandhar 2 The Revenge Full Movie | Ranveer Singh | Sara | Arjun | Sanjay Dutt |",
            "url": "https://www.youtube.com/watch?v=1_7PW6zr-0Q",
            "duration": 14164.0,
            "view_count": 9968,
            "uploader": "Vagabond Ankush and 5 more",
            "category": "hindi",
            "thumbnail": "https://i.ytimg.com/vi/1_7PW6zr-0Q/hq720.jpg"
        },
        {
            "id": "S0fAFKoIJtY",
            "title": "Mission (2026) | John Abraham, Shahid Kapoor, Hindi Dubbed Army Action Movie | Full HD Movie 2026",
            "url": "https://www.youtube.com/watch?v=S0fAFKoIJtY",
            "duration": 6625.0,
            "view_count": 3506194,
            "uploader": "Hindi Cinema Vault",
            "category": "hindi",
            "thumbnail": "https://i.ytimg.com/vi/S0fAFKoIJtY/hq720.jpg"
        },
        {
            "id": "Isd-XQ12TBQ",
            "title": "Wanted Full Movie 2009 | Salman Khan, Ayesha Takia, Prakash Raj | Hindi Action Film HD",
            "url": "https://www.youtube.com/watch?v=Isd-XQ12TBQ",
            "duration": 7658.0,
            "view_count": 3779822,
            "uploader": "Anjali Dhariwal and 4 more",
            "category": "hindi",
            "thumbnail": "https://i.ytimg.com/vi/Isd-XQ12TBQ/hq720.jpg"
        },
        {
            "id": "o_RXYPJa6WI",
            "title": "De Dana Dan - Full Movie 8K/4K | Akshay K, Katrina K, Suniel S, Paresh R | Comedy Movie",
            "url": "https://www.youtube.com/watch?v=o_RXYPJa6WI",
            "duration": 10048.0,
            "view_count": 562743,
            "uploader": "Eros Universe",
            "category": "hindi",
            "thumbnail": "https://i.ytimg.com/vi/o_RXYPJa6WI/hq720.jpg"
        },
        {
            "id": "55sJR6_b8Zw",
            "title": "Dhurandhar 2 The Revenge 💥 Full Hindi Movie | Aditya Dhar, Ranveer Singh Dhurandhar 2 Full Movie new",
            "url": "https://www.youtube.com/watch?v=55sJR6_b8Zw",
            "duration": 13411.0,
            "view_count": 590,
            "uploader": "pooja kumari",
            "category": "hindi",
            "thumbnail": "https://i.ytimg.com/vi/55sJR6_b8Zw/hqdefault.jpg"
        },
        {
            "id": "Pqp8UqtmBkE",
            "title": "HAUNTED BATHROOM (HD) - New Superhit Comedy Romance Bollywood Movie | Akshay Kumar, Riteish Deshmukh",
            "url": "https://www.youtube.com/watch?v=Pqp8UqtmBkE",
            "duration": 7163.0,
            "view_count": 46710,
            "uploader": "Big Screen Entertainment",
            "category": "hindi",
            "thumbnail": "https://i.ytimg.com/vi/Pqp8UqtmBkE/hq720.jpg"
        },
        {
            "id": "gcyGjoU0agQ",
            "title": "Vinaya Vidheya Rama (2025) | Ram Charan, Kiara Advani Hindi Dubbed Action Movie | Full HD",
            "url": "https://www.youtube.com/watch?v=gcyGjoU0agQ",
            "duration": 7453.0,
            "view_count": 12834,
            "uploader": "PlayNation",
            "category": "hindi",
            "thumbnail": "https://i.ytimg.com/vi/gcyGjoU0agQ/hq720.jpg"
        },
        {
            "id": "r1K8NGcoFpY",
            "title": "MALANG | Full Hindi Dubbed Movie | Allu Arjun Deepika Padukone | New South Indian Action Movie 2026",
            "url": "https://www.youtube.com/watch?v=r1K8NGcoFpY",
            "duration": 8144.0,
            "view_count": 27794,
            "uploader": "SRP Cinema",
            "category": "hindi",
            "thumbnail": "https://i.ytimg.com/vi/r1K8NGcoFpY/hq720.jpg"
        },
        {
            "id": "FhmEvMubZZY",
            "title": "Special 26 (2013) Hindi Full Movie | Starring Akshay Kumar, Manoj Bajpayee, Kajal Aggarwal",
            "url": "https://www.youtube.com/watch?v=FhmEvMubZZY",
            "duration": 9022.0,
            "view_count": 20971156,
            "uploader": "RG Entertainment",
            "category": "hindi",
            "thumbnail": "https://i.ytimg.com/vi/FhmEvMubZZY/hq720.jpg"
        },
        {
            "id": "2jl2RbUHqM4",
            "title": "Mahesh Babu's 4G Full Hindi Dubbed Action Movie - South Indian Hindi Dubbed Full HD Movie 2026",
            "url": "https://www.youtube.com/watch?v=2jl2RbUHqM4",
            "duration": 7959.0,
            "view_count": 2568367,
            "uploader": "KK Telefilms",
            "category": "hindi",
            "thumbnail": "https://i.ytimg.com/vi/2jl2RbUHqM4/hq720.jpg"
        },
        {
            "id": "2I9RwR0tI6U",
            "title": "Sarkar सरकार Full Action Movie | Amitabh Bachchan | Abhishek Bachchan | Katrina Kaif | Hindi Movie",
            "url": "https://www.youtube.com/watch?v=2I9RwR0tI6U",
            "duration": 7153.0,
            "view_count": 3634839,
            "uploader": "NH Studioz",
            "category": "hindi",
            "thumbnail": "https://i.ytimg.com/vi/2I9RwR0tI6U/hq720.jpg"
        },
        {
            "id": "43USfrihSX4",
            "title": "Gulebagavali (Gulaebaghavali) 2018 New Released Hindi Dubbed Full Movie | Prabhu Deva, Hansika",
            "url": "https://www.youtube.com/watch?v=43USfrihSX4",
            "duration": 6393.0,
            "view_count": 47241081,
            "uploader": "Goldmines",
            "category": "hindi",
            "thumbnail": "https://i.ytimg.com/vi/43USfrihSX4/hq720.jpg"
        },
        {
            "id": "qUwXnPKBLrg",
            "title": "Rocky Rani Ki Prem Kahani - Hindi Movie | Ranveer Singh, Alia Bhatt | New Bollywood Movie",
            "url": "https://www.youtube.com/watch?v=qUwXnPKBLrg",
            "duration": 8161.0,
            "view_count": 546823,
            "uploader": "Bollywood Hit Movies",
            "category": "hindi",
            "thumbnail": "https://i.ytimg.com/vi/qUwXnPKBLrg/hq720.jpg"
        },
        {
            "id": "9dfJ8hVC0VA",
            "title": "Dhurandhar 2 The Revenge 💥 Full Hindi Movie | Aditya Dhar, Ranveer Singh Dhurandhar 2 Full Movie new",
            "url": "https://www.youtube.com/watch?v=9dfJ8hVC0VA",
            "duration": 13411.0,
            "view_count": 2936,
            "uploader": "Aashik bhai",
            "category": "hindi",
            "thumbnail": "https://i.ytimg.com/vi/9dfJ8hVC0VA/hqdefault.jpg"
        }
    ]
}