{
    "page": 16,
    "total_pages": 103,
    "total_items": 5125,
    "items": [
        {
            "id": "N1ez-1wi4Yw",
            "title": "New South Blockbuster 2026 | Prabhas & Sara Arjun | Toxic Lover Hindi Dubbed Full Movie HD",
            "url": "https://www.youtube.com/watch?v=N1ez-1wi4Yw",
            "duration": 7429.0,
            "view_count": 52325,
            "uploader": "PrimeFlix Arena",
            "category": "hindi",
            "thumbnail": "https://i.ytimg.com/vi/N1ez-1wi4Yw/hq720.jpg"
        },
        {
            "id": "_bQQM9jreQg",
            "title": "Shikaaru | South Hindi Dubbed Action Romantic Movie Full Love Story | Sai Dhansika, Abhinav | Movie",
            "url": "https://www.youtube.com/watch?v=_bQQM9jreQg",
            "duration": 7280.0,
            "view_count": 98935,
            "uploader": "MIX Movies Entertainment",
            "category": "hindi",
            "thumbnail": "https://i.ytimg.com/vi/_bQQM9jreQg/hq720.jpg"
        },
        {
            "id": "9eu2nSyATGQ",
            "title": "The  Kerala story 2 full movie hindi dubbed 2026 new movie kerala story 2 viral ",
            "url": "https://www.youtube.com/watch?v=9eu2nSyATGQ",
            "duration": 6967.0,
            "view_count": 601,
            "uploader": "Karan Chaudhary",
            "category": "hindi",
            "thumbnail": "https://i.ytimg.com/vi/9eu2nSyATGQ/hqdefault.jpg"
        },
        {
            "id": "2YknKT-tTT0",
            "title": "RANGASTHALAM  SOUTH MOVIE IN HINDI AUDIO 2018  ",
            "url": "https://www.youtube.com/watch?v=2YknKT-tTT0",
            "duration": 7220.0,
            "view_count": 1294,
            "uploader": "The cinema metri",
            "category": "hindi",
            "thumbnail": "https://i.ytimg.com/vi/2YknKT-tTT0/hqdefault.jpg"
        },
        {
            "id": "XEB89hNrAAk",
            "title": "Mahesh Babu | New Released South Indian Movie Dubbed In Hindi | Action Thriller 2025 | Full Movie",
            "url": "https://www.youtube.com/watch?v=XEB89hNrAAk",
            "duration": 7868.0,
            "view_count": 4036,
            "uploader": "Digital Movie Flix",
            "category": "hindi",
            "thumbnail": "https://i.ytimg.com/vi/XEB89hNrAAk/hq720.jpg"
        },
        {
            "id": "5HcuFyrKZTk",
            "title": "RAAYAN | Dhanush, S.J. Suryah | New (2026) Released Hindi Action Crime Thriller Movie | Full HD",
            "url": "https://www.youtube.com/watch?v=5HcuFyrKZTk",
            "duration": 8518.0,
            "view_count": 11861,
            "uploader": "PlayNation",
            "category": "hindi",
            "thumbnail": "https://i.ytimg.com/vi/5HcuFyrKZTk/hq720.jpg"
        },
        {
            "id": "41vWof1b2Fc",
            "title": "NBK's DAAKU DARA - Hindi Dubbed Full Movie | Nandamuri Balakrishna, Sreeleela | Action Movie",
            "url": "https://www.youtube.com/watch?v=41vWof1b2Fc",
            "duration": 7945.0,
            "view_count": 2204,
            "uploader": "Adwise Movieplex",
            "category": "hindi",
            "thumbnail": "https://i.ytimg.com/vi/41vWof1b2Fc/hq720.jpg"
        },
        {
            "id": "nAvU-iIMbTk",
            "title": "ROLEX | Suriya, Vijay Sethupathi | New (2026) Released Hindi Action Crime Thriller Movie | Full HD",
            "url": "https://www.youtube.com/watch?v=nAvU-iIMbTk",
            "duration": 9630.0,
            "view_count": 8681,
            "uploader": "PlayNation",
            "category": "hindi",
            "thumbnail": "https://i.ytimg.com/vi/nAvU-iIMbTk/hq720.jpg"
        },
        {
            "id": "7tzeM5T6t4A",
            "title": "PSYCHO Full Movie in Hindi | Prabhas | Kiara Advani | Sunjay Dutt | Latest Sout Action Movie 2026",
            "url": "https://www.youtube.com/watch?v=7tzeM5T6t4A",
            "duration": 7580.0,
            "view_count": 4244925,
            "uploader": "Bollywood World",
            "category": "hindi",
            "thumbnail": "https://i.ytimg.com/vi/7tzeM5T6t4A/hq720.jpg"
        },
        {
            "id": "w4D-SuXFRIc",
            "title": "Dhurandhar 2 The Revenge (2026) Full Hindi Dubbed Movie | Powerful Action Thriller HD",
            "url": "https://www.youtube.com/watch?v=w4D-SuXFRIc",
            "duration": 8197.0,
            "view_count": 5984489,
            "uploader": "Dans Show",
            "category": "hindi",
            "thumbnail": "https://i.ytimg.com/vi/w4D-SuXFRIc/hq720.jpg"
        },
        {
            "id": "xOxGXMkQp-4",
            "title": "Dhurandhar The Revenge Hindi Dubbed Full Movie | New Action Movie 2026",
            "url": "https://www.youtube.com/watch?v=xOxGXMkQp-4",
            "duration": 8197.0,
            "view_count": 3937769,
            "uploader": "Vibe Atlas",
            "category": "hindi",
            "thumbnail": "https://i.ytimg.com/vi/xOxGXMkQp-4/hq720.jpg"
        },
        {
            "id": "dYkXSsog7Js",
            "title": "Dhurandhar 2 full movie full movie new launch#dhurandhar 2#new movie#Dhurandhar full movie#Hindi",
            "url": "https://www.youtube.com/watch?v=dYkXSsog7Js",
            "duration": 13738.0,
            "view_count": 960,
            "uploader": "Mukesh Kaushik",
            "category": "hindi",
            "thumbnail": "https://i.ytimg.com/vi/dYkXSsog7Js/hq720.jpg"
        },
        {
            "id": "n7qWKwVtp2c",
            "title": "Jr. NTR & Janhvi Kapoor | Devara 2 | New South Blockbuster 2026 Hindi Dubbed Full Movie HD",
            "url": "https://www.youtube.com/watch?v=n7qWKwVtp2c",
            "duration": 9573.0,
            "view_count": 119027,
            "uploader": "NovaHit Cinema",
            "category": "hindi",
            "thumbnail": "https://i.ytimg.com/vi/n7qWKwVtp2c/hq720.jpg"
        },
        {
            "id": "A2SrzL0p70w",
            "title": "ANDAZ APNA APNA Comedy Full Movie 4K | 90 Bollywood Aamir Khan, Salman Khan, Raveena Karishma Kapoor",
            "url": "https://www.youtube.com/watch?v=A2SrzL0p70w",
            "duration": 9230.0,
            "view_count": 4573107,
            "uploader": "Ultra 4K Movies",
            "category": "hindi",
            "thumbnail": "https://i.ytimg.com/vi/A2SrzL0p70w/hq720.jpg"
        },
        {
            "id": "GzPi7yW0MaQ",
            "title": "Kabhi Khushi Kabhie Gham | Full Movie | Shah Rukh Khan, Kajol, Hrithik | K3G | Karan Johar Film",
            "url": "https://www.youtube.com/watch?v=GzPi7yW0MaQ",
            "duration": 12153.0,
            "view_count": 168241,
            "uploader": "Asmat Sial",
            "category": "hindi",
            "thumbnail": "https://i.ytimg.com/vi/GzPi7yW0MaQ/hqdefault.jpg"
        },
        {
            "id": "MFRwL5Ras5E",
            "title": "Ice War | Only Allu Arjun Can Do This | Pooja Hegde | Mass Action Blockbuster 2026 Hindi Dubbed",
            "url": "https://www.youtube.com/watch?v=MFRwL5Ras5E",
            "duration": 8592.0,
            "view_count": 877554,
            "uploader": "Hindi Movie Cinema",
            "category": "hindi",
            "thumbnail": "https://i.ytimg.com/vi/MFRwL5Ras5E/hq720.jpg"
        },
        {
            "id": "-SkQ1jJNu_A",
            "title": "Koi... Mil Gaya (2003) Full Movie 4K | कोई... मिल गया | Hrithik Roshan | Preity Zinta | Hindi Movie",
            "url": "https://www.youtube.com/watch?v=-SkQ1jJNu_A",
            "duration": 9973.0,
            "view_count": 97589787,
            "uploader": "Ultra Bollywood",
            "category": "hindi",
            "thumbnail": "https://i.ytimg.com/vi/-SkQ1jJNu_A/hq720.jpg"
        },
        {
            "id": "5a9FP3jWUCM",
            "title": "POSTMORTEM | Suriya, Deepika | New (2026) Released Hindi Action Crime Thriller Movie | Full HD",
            "url": "https://www.youtube.com/watch?v=5a9FP3jWUCM",
            "duration": 6284.0,
            "view_count": 12681946,
            "uploader": "PlayNation",
            "category": "hindi",
            "thumbnail": "https://i.ytimg.com/vi/5a9FP3jWUCM/hq720.jpg"
        },
        {
            "id": "lZSt2qGAzFI",
            "title": "Dhurandhar 2 The Revenge Full Movie | Ranveer Singh | Arjun | R Madhavan | Sanjay | Facts and Review",
            "url": "https://www.youtube.com/watch?v=lZSt2qGAzFI",
            "duration": 13557.0,
            "view_count": 6763,
            "uploader": "Mr L_S_C UP84",
            "category": "hindi",
            "thumbnail": "https://i.ytimg.com/vi/lZSt2qGAzFI/hq720.jpg"
        },
        {
            "id": "59SP4ZRrQHE",
            "title": "Tees Maar Khan 2 (2025) Full Hindi Movie | Akshay Kumar Latest Bollywood Comedy | HD #Bollywood",
            "url": "https://www.youtube.com/watch?v=59SP4ZRrQHE",
            "duration": 7483.0,
            "view_count": 1715454,
            "uploader": "Ankita Bhawsar",
            "category": "hindi",
            "thumbnail": "https://i.ytimg.com/vi/59SP4ZRrQHE/hq720.jpg"
        },
        {
            "id": "R6WzTUaf4-0",
            "title": "The Kerala Story 2 Goes Beyond | Ulka Gupta, Aditi Bhatia, Aishwarya | Latest Thriller Movie 2026",
            "url": "https://www.youtube.com/watch?v=R6WzTUaf4-0",
            "duration": 6716.0,
            "view_count": 231634,
            "uploader": "Ranita Studio",
            "category": "hindi",
            "thumbnail": "https://i.ytimg.com/vi/R6WzTUaf4-0/hq720.jpg"
        },
        {
            "id": "XmFHxzgNIPs",
            "title": "Marshal (2026) Vijay Thalapathy South New Full Movie | 2026 South Latest Hindi Dubbed Movie In 4K",
            "url": "https://www.youtube.com/watch?v=XmFHxzgNIPs",
            "duration": 8926.0,
            "view_count": 4518,
            "uploader": "Super Movies Dhamaka",
            "category": "hindi",
            "thumbnail": "https://i.ytimg.com/vi/XmFHxzgNIPs/hq720.jpg"
        },
        {
            "id": "28V8ISd-KTI",
            "title": "Happy Phirr Bhag Jayegi | Full Movie | Sonakshi Sinha, Jimmy Shergill, Diana Penty, Ali Fazal",
            "url": "https://www.youtube.com/watch?v=28V8ISd-KTI",
            "duration": 7789.0,
            "view_count": 564,
            "uploader": "Eros Universe Big Picture",
            "category": "hindi",
            "thumbnail": "https://i.ytimg.com/vi/28V8ISd-KTI/hq720.jpg"
        },
        {
            "id": "NAXWpwQEqdw",
            "title": "Dhurandhar 2 The Revenge (2026) Full Hindi Dubbed Movie | Powerful Action Thriller HD",
            "url": "https://www.youtube.com/watch?v=NAXWpwQEqdw",
            "duration": 13411.0,
            "view_count": 3904,
            "uploader": "The Dhurandhar Dushyant",
            "category": "hindi",
            "thumbnail": "https://i.ytimg.com/vi/NAXWpwQEqdw/hq720.jpg"
        },
        {
            "id": "Qz_LJNxVUcI",
            "title": "REVENGE | Ram Charan, Samantha | New (2026) Released Hindi Action Crime Thriller Movie | Full HD",
            "url": "https://www.youtube.com/watch?v=Qz_LJNxVUcI",
            "duration": 8559.0,
            "view_count": 67542,
            "uploader": "PlayNation",
            "category": "hindi",
            "thumbnail": "https://i.ytimg.com/vi/Qz_LJNxVUcI/hq720.jpg"
        },
        {
            "id": "sfZSh5Wunt0",
            "title": "Prabhas South Blockbuster | Rajasaab | New Action Full Movie 2026 | Hindi Dubbed HD",
            "url": "https://www.youtube.com/watch?v=sfZSh5Wunt0",
            "duration": 9573.0,
            "view_count": 61672,
            "uploader": "Vibe Atlas",
            "category": "hindi",
            "thumbnail": "https://i.ytimg.com/vi/sfZSh5Wunt0/hq720.jpg"
        },
        {
            "id": "YZxEAdRRr7I",
            "title": "RAAYAN | Dhanush, S.J. Suryah | New (2026) Released Hindi Action Crime Thriller Movie | Full HD",
            "url": "https://www.youtube.com/watch?v=YZxEAdRRr7I",
            "duration": 8518.0,
            "view_count": 41022,
            "uploader": "PlayNation",
            "category": "hindi",
            "thumbnail": "https://i.ytimg.com/vi/YZxEAdRRr7I/hq720.jpg"
        },
        {
            "id": "s1niu5RZZME",
            "title": "Dhurandhar 2 Full Movie In Hindi 2026 Box|Office Collection | Ranveer Singh New MovieLatest Movie",
            "url": "https://www.youtube.com/watch?v=s1niu5RZZME",
            "duration": 13411.0,
            "view_count": 15094,
            "uploader": "The Dhurandhar Dushyant",
            "category": "hindi",
            "thumbnail": "https://i.ytimg.com/vi/s1niu5RZZME/hqdefault.jpg"
        },
        {
            "id": "QzKTKRyniPA",
            "title": "ODELA 3 Full Movie in Hindi Dubbed | Tamannaah Bhatia & Vasishta | Latest South Indian Movie 2026",
            "url": "https://www.youtube.com/watch?v=QzKTKRyniPA",
            "duration": 8760.0,
            "view_count": 16625,
            "uploader": "Ranita Studio",
            "category": "hindi",
            "thumbnail": "https://i.ytimg.com/vi/QzKTKRyniPA/hq720.jpg"
        },
        {
            "id": "CO97V-jpZtk",
            "title": "Sarfarosh (1999) Full Movie (4K) | Aamir Khan | Naseeruddin Shah | Sonali Bendre | Full Hindi Movie",
            "url": "https://www.youtube.com/watch?v=CO97V-jpZtk",
            "duration": 9576.0,
            "view_count": 11350816,
            "uploader": "Ultra Movie Parlour",
            "category": "hindi",
            "thumbnail": "https://i.ytimg.com/vi/CO97V-jpZtk/hq720.jpg"
        },
        {
            "id": "a5Zpo0zY8sg",
            "title": "Ek Hasina Thi (2004) - Superhit Hindi Movie | Urmila Matondkar, Saif Ali Khan, Seema Biswas",
            "url": "https://www.youtube.com/watch?v=a5Zpo0zY8sg",
            "duration": 8512.0,
            "view_count": 998843,
            "uploader": "Superhit Hindi Movies",
            "category": "hindi",
            "thumbnail": "https://i.ytimg.com/vi/a5Zpo0zY8sg/hq720.jpg"
        },
        {
            "id": "U5whWF50ifo",
            "title": "Mardaani 3 (2026) | Full Action Thriller Movie | Rani Mukerji, Nawazuddin Siddiqui | HD",
            "url": "https://www.youtube.com/watch?v=U5whWF50ifo",
            "duration": 6414.0,
            "view_count": 2537676,
            "uploader": "Ankita Bhawsar",
            "category": "hindi",
            "thumbnail": "https://i.ytimg.com/vi/U5whWF50ifo/hq720.jpg"
        },
        {
            "id": "Epw23k46VtI",
            "title": "Tumhari Sulu (Full Movie): Vidya Balan, Manav Kaul, Neha Dhupia | | Hindi Movie | T-Series",
            "url": "https://www.youtube.com/watch?v=Epw23k46VtI",
            "duration": 8389.0,
            "view_count": 7295023,
            "uploader": "T-Series",
            "category": "hindi",
            "thumbnail": "https://i.ytimg.com/vi/Epw23k46VtI/hq720.jpg"
        },
        {
            "id": "8CJAuzLyGJM",
            "title": "#AK65 Full Movie Hindi Dubbed | Ajith Kumar | Jagapathi Babu | Latest South Indian Action Movie 2026",
            "url": "https://www.youtube.com/watch?v=8CJAuzLyGJM",
            "duration": 7734.0,
            "view_count": 100335,
            "uploader": "Bolly Pictures Point",
            "category": "hindi",
            "thumbnail": "https://i.ytimg.com/vi/8CJAuzLyGJM/hq720.jpg"
        },
        {
            "id": "TQtV-oTYNE4",
            "title": "CHHICHHORE FULL MOVIE 🎥❤️#sushantsinghrajput #shraddhakapoor #movie #bollywood #hindi",
            "url": "https://www.youtube.com/watch?v=TQtV-oTYNE4",
            "duration": 8608.0,
            "view_count": 5339894,
            "uploader": "ll_Raj Shorts_ll",
            "category": "hindi",
            "thumbnail": "https://i.ytimg.com/vi/TQtV-oTYNE4/hqdefault.jpg"
        },
        {
            "id": "xxlvasXlQtM",
            "title": "Rockstar (2011) Full Movie HD | Blockbuster Bollywood Movie | Ranbir Kapoor, Nargis Fakhri (HD)",
            "url": "https://www.youtube.com/watch?v=xxlvasXlQtM",
            "duration": 9109.0,
            "view_count": 320844,
            "uploader": "Eros Universe Super Cinema",
            "category": "hindi",
            "thumbnail": "https://i.ytimg.com/vi/xxlvasXlQtM/hq720.jpg"
        },
        {
            "id": "jzYxbnHHhY4",
            "title": "Bhool Bhulaiyaa (Full Movie) Akshay Kumar, Vidya Balan, Shiney A, Paresh R, Priyadarshan | Bhushan K",
            "url": "https://www.youtube.com/watch?v=jzYxbnHHhY4",
            "duration": 8905.0,
            "view_count": 307177215,
            "uploader": "T-Series",
            "category": "hindi",
            "thumbnail": "https://i.ytimg.com/vi/jzYxbnHHhY4/hq720.jpg"
        },
        {
            "id": "sOgnAw3W-D0",
            "title": "Marsal (2026) Vijay Thalapathy South New Full Movie | 2026 South Latest Hindi Dubbed Movie In 4K",
            "url": "https://www.youtube.com/watch?v=sOgnAw3W-D0",
            "duration": 8926.0,
            "view_count": 76188,
            "uploader": "Super Movies Dhamaka",
            "category": "hindi",
            "thumbnail": "https://i.ytimg.com/vi/sOgnAw3W-D0/hq720.jpg"
        },
        {
            "id": "rGccuHGZ158",
            "title": "RAAYAN | Dhanush, S.J. Suryah | New (2026) Released Hindi Action Crime Thriller Movie | Full HD",
            "url": "https://www.youtube.com/watch?v=rGccuHGZ158",
            "duration": 8518.0,
            "view_count": 17773,
            "uploader": "PlayNation",
            "category": "hindi",
            "thumbnail": "https://i.ytimg.com/vi/rGccuHGZ158/hq720.jpg"
        },
        {
            "id": "ASLoJwbUtz8",
            "title": "Dhurandhar (The Revenge) || Full Hindi Movie|| Part 2 ||1080HD",
            "url": "https://www.youtube.com/watch?v=ASLoJwbUtz8",
            "duration": 13411.0,
            "view_count": 5080,
            "uploader": "Naresh kumar ",
            "category": "hindi",
            "thumbnail": "https://i.ytimg.com/vi/ASLoJwbUtz8/hq720.jpg"
        },
        {
            "id": "FDj-zrPmqTs",
            "title": "Dhurandhar 2 (The Revenge) Full Movie 2026 | Ranveer Singh, Sanjay Dutt, Deepika | Latest Movie 2026",
            "url": "https://www.youtube.com/watch?v=FDj-zrPmqTs",
            "duration": 7779.0,
            "view_count": 1299520,
            "uploader": "Ranita Studio",
            "category": "hindi",
            "thumbnail": "https://i.ytimg.com/vi/FDj-zrPmqTs/hq720.jpg"
        },
        {
            "id": "WHWZDzNd1-g",
            "title": "Dhurandhar 2 The Revenge (2026) Full Hindi Dubbed Movie | Powerful Action Thriller HD",
            "url": "https://www.youtube.com/watch?v=WHWZDzNd1-g",
            "duration": 8197.0,
            "view_count": 375808,
            "uploader": "Hindi Movie Cinema",
            "category": "hindi",
            "thumbnail": "https://i.ytimg.com/vi/WHWZDzNd1-g/hq720.jpg"
        },
        {
            "id": "wHnIXynV4_g",
            "title": "Dhurandhar 2 Full Movie 2026 | Ranveer Singh | Sanjay Dutt | Sara Arjun | Arjun R | Reviews & Facts",
            "url": "https://www.youtube.com/watch?v=wHnIXynV4_g",
            "duration": 8941.0,
            "view_count": 2620,
            "uploader": "Ftx movies ",
            "category": "hindi",
            "thumbnail": "https://i.ytimg.com/vi/wHnIXynV4_g/hqdefault.jpg"
        },
        {
            "id": "Zt2SuE2IZrU",
            "title": "Dhurandhar 2 The Revenge (2026) Full Hindi Dubbed Movie | Powerful Action Thriller HD",
            "url": "https://www.youtube.com/watch?v=Zt2SuE2IZrU",
            "duration": 13411.0,
            "view_count": 4373,
            "uploader": "The Dhurandhar Dushyant",
            "category": "hindi",
            "thumbnail": "https://i.ytimg.com/vi/Zt2SuE2IZrU/hqdefault.jpg"
        },
        {
            "id": "pBOhycqMYFo",
            "title": "NH10 Full Movie 8K/4K Ultra HD | Anushka Sharma, Darshan Kumaar | Hindi Thriller Movie",
            "url": "https://www.youtube.com/watch?v=pBOhycqMYFo",
            "duration": 6705.0,
            "view_count": 536246,
            "uploader": "Eros Universe Super Cinema",
            "category": "hindi",
            "thumbnail": "https://i.ytimg.com/vi/pBOhycqMYFo/hq720.jpg"
        },
        {
            "id": "g4fsBrAS4PQ",
            "title": "Hrithik Roshan - Kareen Kapoor की अनदेखी मूवी | Jackie Shroff | Hindi Movie | Bollywood Full Movie",
            "url": "https://www.youtube.com/watch?v=g4fsBrAS4PQ",
            "duration": 10638.0,
            "view_count": 706732,
            "uploader": "Ultra Bollywood",
            "category": "hindi",
            "thumbnail": "https://i.ytimg.com/vi/g4fsBrAS4PQ/hq720.jpg"
        },
        {
            "id": "ko7ApfGCwlo",
            "title": "Ramcharan's ROASTER Full Hindi Dubbed Action Movie - South Indian Hindi Dubbed Full HD Movie 2026",
            "url": "https://www.youtube.com/watch?v=ko7ApfGCwlo",
            "duration": 7372.0,
            "view_count": 14492306,
            "uploader": "KK Telefilms",
            "category": "hindi",
            "thumbnail": "https://i.ytimg.com/vi/ko7ApfGCwlo/hq720.jpg"
        },
        {
            "id": "hakrZpNQgdA",
            "title": "Ranveer Singh new movies Hindi ||  the revenge full movie 2026",
            "url": "https://www.youtube.com/watch?v=hakrZpNQgdA",
            "duration": 13411.0,
            "view_count": 2049,
            "uploader": "SM Music Studio Official 🚩",
            "category": "hindi",
            "thumbnail": "https://i.ytimg.com/vi/hakrZpNQgdA/hqdefault.jpg"
        },
        {
            "id": "QkoCGY_XpAg",
            "title": "King Cobra (2026) 🔥 Mahesh Babu & Kajal | 2026 South Blockbuster Action Full Movie Hindi",
            "url": "https://www.youtube.com/watch?v=QkoCGY_XpAg",
            "duration": 6178.0,
            "view_count": 2541,
            "uploader": "Duroflex Action",
            "category": "hindi",
            "thumbnail": "https://i.ytimg.com/vi/QkoCGY_XpAg/hq720.jpg"
        },
        {
            "id": "HQ-cX4wMhNU",
            "title": "#AA26 Full Movie Hindi Dubbed | Allu Arjun | Prashanth Neel | Latest South Indian Action Movie 2026",
            "url": "https://www.youtube.com/watch?v=HQ-cX4wMhNU",
            "duration": 7580.0,
            "view_count": 155922,
            "uploader": "Bollywood World",
            "category": "hindi",
            "thumbnail": "https://i.ytimg.com/vi/HQ-cX4wMhNU/hq720.jpg"
        }
    ]
}