{
    "page": 69,
    "total_pages": 103,
    "total_items": 5125,
    "items": [
        {
            "id": "UW_2f4SVrqU",
            "title": "Speedo | Ep 07 | Inspector Chingum | 3D Comedy Cartoon In Hindi | Wow Comedy",
            "url": "https://www.youtube.com/watch?v=UW_2f4SVrqU",
            "duration": 1287.0,
            "view_count": 29050,
            "uploader": "Wow Kidz Comedy",
            "category": "cartoons/inspector_chingum",
            "thumbnail": "https://i.ytimg.com/vi/UW_2f4SVrqU/hq720.jpg"
        },
        {
            "id": "qH672kB7rdM",
            "title": "Motu Patlu | हिंदी कार्टून | Motu Patlu in Hindi | 2019 | Chingum Hi Chingum",
            "url": "https://www.youtube.com/watch?v=qH672kB7rdM",
            "duration": 676.0,
            "view_count": 31240290,
            "uploader": "Motu Patlu",
            "category": "cartoons/inspector_chingum",
            "thumbnail": "https://i.ytimg.com/vi/qH672kB7rdM/hq720.jpg"
        },
        {
            "id": "_ROoy-ENZQ4",
            "title": "Inspector Chingum | Aakhri Ravan | Animated Stories For Kids | Hindi Cartoons | Wow Kidz Action",
            "url": "https://www.youtube.com/watch?v=_ROoy-ENZQ4",
            "duration": 1346.0,
            "view_count": 334474,
            "uploader": "Wow Kidz Action",
            "category": "cartoons/inspector_chingum",
            "thumbnail": "https://i.ytimg.com/vi/_ROoy-ENZQ4/hq720.jpg"
        },
        {
            "id": "DJUthUgvXHs",
            "title": "Animated Series | Inspector Chingum | Hindi Cartoons For Kids | Ep 13 | Wow Kidz",
            "url": "https://www.youtube.com/watch?v=DJUthUgvXHs",
            "duration": 1291.0,
            "view_count": 504736,
            "uploader": "WowKidz",
            "category": "cartoons/inspector_chingum",
            "thumbnail": "https://i.ytimg.com/vi/DJUthUgvXHs/hq720.jpg"
        },
        {
            "id": "GndFypo_sGM",
            "title": "Animated Series | Inspector Chingum | Hindi Cartoons For Kids | Ep 21 | Wow Kidz",
            "url": "https://www.youtube.com/watch?v=GndFypo_sGM",
            "duration": 1206.0,
            "view_count": 452138,
            "uploader": "WowKidz",
            "category": "cartoons/inspector_chingum",
            "thumbnail": "https://i.ytimg.com/vi/GndFypo_sGM/hq720.jpg"
        },
        {
            "id": "SLuw9aFD4HI",
            "title": "Animated Series | Inspector Chingum | Hindi Cartoons For Kids | Ep 11 | Wow Kidz",
            "url": "https://www.youtube.com/watch?v=SLuw9aFD4HI",
            "duration": 1335.0,
            "view_count": 814293,
            "uploader": "WowKidz",
            "category": "cartoons/inspector_chingum",
            "thumbnail": "https://i.ytimg.com/vi/SLuw9aFD4HI/hq720.jpg"
        },
        {
            "id": "DVy5ct9_FyQ",
            "title": "Sumo Sossa | Ep 37 | Inspector Chingum | 3D Comedy Cartoon In Hindi | Wow Comedy",
            "url": "https://www.youtube.com/watch?v=DVy5ct9_FyQ",
            "duration": 1269.0,
            "view_count": 82874,
            "uploader": "Wow Kidz Comedy",
            "category": "cartoons/inspector_chingum",
            "thumbnail": "https://i.ytimg.com/vi/DVy5ct9_FyQ/hq720.jpg"
        },
        {
            "id": "XoSm_JZ-Z0s",
            "title": "Motu Patlu Cartoons In Hindi | Animated cartoon | Chingum ka farmhouse | Wow Kidz",
            "url": "https://www.youtube.com/watch?v=XoSm_JZ-Z0s",
            "duration": 655.0,
            "view_count": 9034056,
            "uploader": "WowKidz",
            "category": "cartoons/inspector_chingum",
            "thumbnail": "https://i.ytimg.com/vi/XoSm_JZ-Z0s/hq720.jpg"
        },
        {
            "id": "LShk3xvfoGE",
            "title": "Football Main Goalmaal | Ep 06 | Inspector Chingum | 3D Comedy Cartoon In Hindi | Wow Comedy",
            "url": "https://www.youtube.com/watch?v=LShk3xvfoGE",
            "duration": 1343.0,
            "view_count": 49072,
            "uploader": "Wow Kidz Comedy",
            "category": "cartoons/inspector_chingum",
            "thumbnail": "https://i.ytimg.com/vi/LShk3xvfoGE/hq720.jpg"
        },
        {
            "id": "4fGYtkTIv_0",
            "title": "Animated Series | Inspector Chingum | Hindi Cartoons For Kids | Ep 04 | Wow Kidz",
            "url": "https://www.youtube.com/watch?v=4fGYtkTIv_0",
            "duration": 1271.0,
            "view_count": 702666,
            "uploader": "WowKidz",
            "category": "cartoons/inspector_chingum",
            "thumbnail": "https://i.ytimg.com/vi/4fGYtkTIv_0/hq720.jpg"
        },
        {
            "id": "3fKBZ0iBq1k",
            "title": "Inspector Chingum | Sticky Car Chor | Animated Stories For Kids |Wow Kidz Action| #spot",
            "url": "https://www.youtube.com/watch?v=3fKBZ0iBq1k",
            "duration": 1260.0,
            "view_count": 802121,
            "uploader": "Wow Kidz Action",
            "category": "cartoons/inspector_chingum",
            "thumbnail": "https://i.ytimg.com/vi/3fKBZ0iBq1k/hq720.jpg"
        },
        {
            "id": "Qt-IFajJGWI",
            "title": "Five Star Robber | Ep 02 | Inspector Chingum | 3D Comedy Cartoon In Hindi | Wow Comedy",
            "url": "https://www.youtube.com/watch?v=Qt-IFajJGWI",
            "duration": 1219.0,
            "view_count": 36690,
            "uploader": "Wow Kidz Comedy",
            "category": "cartoons/inspector_chingum",
            "thumbnail": "https://i.ytimg.com/vi/Qt-IFajJGWI/hq720.jpg"
        },
        {
            "id": "n29UPqReSX4",
            "title": "Kohinoor Heera | Ep 03 | Inspector Chingum | 3D Comedy Cartoon In Hindi | Wow Comedy",
            "url": "https://www.youtube.com/watch?v=n29UPqReSX4",
            "duration": 1308.0,
            "view_count": 63508,
            "uploader": "Wow Kidz Comedy",
            "category": "cartoons/inspector_chingum",
            "thumbnail": "https://i.ytimg.com/vi/n29UPqReSX4/hq720.jpg"
        },
        {
            "id": "JUeTvSP4zQ0",
            "title": "Animated Series | Inspector Chingum | Wow Kidz | Hindi Cartoons For Kids | Ep 31",
            "url": "https://www.youtube.com/watch?v=JUeTvSP4zQ0",
            "duration": 1322.0,
            "view_count": 743462,
            "uploader": "WowKidz",
            "category": "cartoons/inspector_chingum",
            "thumbnail": "https://i.ytimg.com/vi/JUeTvSP4zQ0/hq720.jpg"
        },
        {
            "id": "eNv8z657Im4",
            "title": "Animated Series | Inspector Chingum | Wow Kidz | Hindi Cartoons For Kids | Ep 28",
            "url": "https://www.youtube.com/watch?v=eNv8z657Im4",
            "duration": 1233.0,
            "view_count": 1380800,
            "uploader": "WowKidz",
            "category": "cartoons/inspector_chingum",
            "thumbnail": "https://i.ytimg.com/vi/eNv8z657Im4/hq720.jpg"
        },
        {
            "id": "7g6nJMm_ylc",
            "title": "Allien Story | Inspector Chingum | 3D Comedy Cartoon In Hindi | Wow Comedy",
            "url": "https://www.youtube.com/watch?v=7g6nJMm_ylc",
            "duration": 1129.0,
            "view_count": 8733,
            "uploader": "Wow Kidz Comedy",
            "category": "cartoons/inspector_chingum",
            "thumbnail": "https://i.ytimg.com/vi/7g6nJMm_ylc/hq720.jpg"
        },
        {
            "id": "kHGWNPJsdhg",
            "title": "Inspector Chingum | Compilation 20 | Wow Kidz | Hindi Cartoons For Kids",
            "url": "https://www.youtube.com/watch?v=kHGWNPJsdhg",
            "duration": 2558.0,
            "view_count": 98025,
            "uploader": "WowKidz",
            "category": "cartoons/inspector_chingum",
            "thumbnail": "https://i.ytimg.com/vi/kHGWNPJsdhg/hq720.jpg"
        },
        {
            "id": "7ti7Nfp0x68",
            "title": "Inspector Chingum | Compilation 01 | Wow Kidz | Hindi Cartoons For Kids",
            "url": "https://www.youtube.com/watch?v=7ti7Nfp0x68",
            "duration": 2525.0,
            "view_count": 67843,
            "uploader": "WowKidz",
            "category": "cartoons/inspector_chingum",
            "thumbnail": "https://i.ytimg.com/vi/7ti7Nfp0x68/hq720.jpg"
        },
        {
            "id": "FnatBt2wA3I",
            "title": "Inspector Chingum | Compilation 16 | Wow Kidz | Hindi Cartoons For Kids",
            "url": "https://www.youtube.com/watch?v=FnatBt2wA3I",
            "duration": 2414.0,
            "view_count": 191329,
            "uploader": "WowKidz",
            "category": "cartoons/inspector_chingum",
            "thumbnail": "https://i.ytimg.com/vi/FnatBt2wA3I/hq720.jpg"
        },
        {
            "id": "GEJ_42jjCYA",
            "title": "Inspector Chingum | Football Main Goalmaal | Animated Stories For Kids | Wow Kidz Action",
            "url": "https://www.youtube.com/watch?v=GEJ_42jjCYA",
            "duration": 1343.0,
            "view_count": 204341,
            "uploader": "Wow Kidz Action",
            "category": "cartoons/inspector_chingum",
            "thumbnail": "https://i.ytimg.com/vi/GEJ_42jjCYA/hq720.jpg"
        },
        {
            "id": "pGTJRRx2d2Q",
            "title": "Inspector Chingum---Maharaja Chingum",
            "url": "https://www.youtube.com/watch?v=pGTJRRx2d2Q",
            "duration": 1271.0,
            "view_count": 17995,
            "uploader": "The Kids Zone",
            "category": "cartoons/inspector_chingum",
            "thumbnail": "https://i.ytimg.com/vi/pGTJRRx2d2Q/hq720.jpg"
        },
        {
            "id": "2uyFX46vQaE",
            "title": "Animated Series | Inspector Chingum | Wow Kidz | Hindi Cartoons For Kids | Ep 37",
            "url": "https://www.youtube.com/watch?v=2uyFX46vQaE",
            "duration": 1451.0,
            "view_count": 1873079,
            "uploader": "WowKidz",
            "category": "cartoons/inspector_chingum",
            "thumbnail": "https://i.ytimg.com/vi/2uyFX46vQaE/hq720.jpg"
        },
        {
            "id": "ttmI9p9go7M",
            "title": "Motu Patlu | हिंदी कार्टून | Motu Patlu in Hindi | 2019 | Inspector Patlu",
            "url": "https://www.youtube.com/watch?v=ttmI9p9go7M",
            "duration": 691.0,
            "view_count": 11512792,
            "uploader": "Motu Patlu",
            "category": "cartoons/inspector_chingum",
            "thumbnail": "https://i.ytimg.com/vi/ttmI9p9go7M/hq720.jpg"
        },
        {
            "id": "_5Arc7W4Ks4",
            "title": "Animated Series | Inspector Chingum | Wow Kidz | Hindi Cartoons For Kids | Ep 45",
            "url": "https://www.youtube.com/watch?v=_5Arc7W4Ks4",
            "duration": 1268.0,
            "view_count": 1121798,
            "uploader": "WowKidz",
            "category": "cartoons/inspector_chingum",
            "thumbnail": "https://i.ytimg.com/vi/_5Arc7W4Ks4/hq720.jpg"
        },
        {
            "id": "0ThaX5LbMg8",
            "title": "Duplicates of Inspector Chingum | इंस्पेक्टर चिंगम का जुड़वाँ भाई | Motu Patlu TV Show 2025 Hindi",
            "url": "https://www.youtube.com/watch?v=0ThaX5LbMg8",
            "duration": 1293.0,
            "view_count": 1427885,
            "uploader": "Motu Patlu TV Show Hindi",
            "category": "cartoons/inspector_chingum",
            "thumbnail": "https://i.ytimg.com/vi/0ThaX5LbMg8/hq720.jpg"
        },
        {
            "id": "Qtr5W5Guqoo",
            "title": "Animated Series | Inspector Chingum | Wow Kidz | Hindi Cartoons For Kids | Ep 24",
            "url": "https://www.youtube.com/watch?v=Qtr5W5Guqoo",
            "duration": 1288.0,
            "view_count": 574389,
            "uploader": "WowKidz",
            "category": "cartoons/inspector_chingum",
            "thumbnail": "https://i.ytimg.com/vi/Qtr5W5Guqoo/hq720.jpg"
        },
        {
            "id": "R1RLzE__wpI",
            "title": "Animated Series | Inspector Chingum | Wow Kidz | Hindi Cartoons For Kids | Ep 29",
            "url": "https://www.youtube.com/watch?v=R1RLzE__wpI",
            "duration": 1302.0,
            "view_count": 868098,
            "uploader": "WowKidz",
            "category": "cartoons/inspector_chingum",
            "thumbnail": "https://i.ytimg.com/vi/R1RLzE__wpI/hq720.jpg"
        },
        {
            "id": "iCPVw870pQg",
            "title": "Animated Series | Inspector Chingum | Hindi Cartoons For Kids | Ep 12 | Wow Kidz",
            "url": "https://www.youtube.com/watch?v=iCPVw870pQg",
            "duration": 1257.0,
            "view_count": 1097318,
            "uploader": "WowKidz",
            "category": "cartoons/inspector_chingum",
            "thumbnail": "https://i.ytimg.com/vi/iCPVw870pQg/hq720.jpg"
        },
        {
            "id": "VhriWAZRIDE",
            "title": "Chingum Ki Chori | चिंगम की चोरी | मोटू पतलू Ep 328 | Motu Patlu Tv Show 2025 Hindi",
            "url": "https://www.youtube.com/watch?v=VhriWAZRIDE",
            "duration": 613.0,
            "view_count": 1297322,
            "uploader": "Motu Patlu TV Show Hindi",
            "category": "cartoons/inspector_chingum",
            "thumbnail": "https://i.ytimg.com/vi/VhriWAZRIDE/hq720.jpg"
        },
        {
            "id": "FVNoaOAcXlU",
            "title": "Bike Out Of Control | Ep 26 | Inspector Chingum | 3D Comedy Cartoon In Hindi | Wow Comedy",
            "url": "https://www.youtube.com/watch?v=FVNoaOAcXlU",
            "duration": 1185.0,
            "view_count": 36413,
            "uploader": "Wow Kidz Comedy",
            "category": "cartoons/inspector_chingum",
            "thumbnail": "https://i.ytimg.com/vi/FVNoaOAcXlU/hq720.jpg"
        },
        {
            "id": "2Pn6b1BXWHo",
            "title": "Animated Series | Inspector Chingum | Hindi Cartoons For Kids | Ep 18 | Wow Kidz",
            "url": "https://www.youtube.com/watch?v=2Pn6b1BXWHo",
            "duration": 1288.0,
            "view_count": 871344,
            "uploader": "WowKidz",
            "category": "cartoons/inspector_chingum",
            "thumbnail": "https://i.ytimg.com/vi/2Pn6b1BXWHo/hq720.jpg"
        },
        {
            "id": "Ry3tZ7o_1lY",
            "title": "Inspector Chingum घूम कर आए Rome! | Motu Patlu New | Cartoon | Inspector Chingum | #spot",
            "url": "https://www.youtube.com/watch?v=Ry3tZ7o_1lY",
            "duration": 1311.0,
            "view_count": 952631,
            "uploader": "WowKidz",
            "category": "cartoons/inspector_chingum",
            "thumbnail": "https://i.ytimg.com/vi/Ry3tZ7o_1lY/hq720.jpg"
        },
        {
            "id": "OCiRSCxj2uQ",
            "title": "Inspector Chingum | Compilation 02 | Wow Kidz | Hindi Cartoons For Kids",
            "url": "https://www.youtube.com/watch?v=OCiRSCxj2uQ",
            "duration": 2571.0,
            "view_count": 258632,
            "uploader": "WowKidz",
            "category": "cartoons/inspector_chingum",
            "thumbnail": "https://i.ytimg.com/vi/OCiRSCxj2uQ/hq720.jpg"
        },
        {
            "id": "YRFgDHZ7-3w",
            "title": "Transmit | Ep 29 | Inspector Chingum | 3D Comedy Cartoon In Hindi | Wow Comedy",
            "url": "https://www.youtube.com/watch?v=YRFgDHZ7-3w",
            "duration": 1283.0,
            "view_count": 8053,
            "uploader": "Wow Kidz Comedy",
            "category": "cartoons/inspector_chingum",
            "thumbnail": "https://i.ytimg.com/vi/YRFgDHZ7-3w/hq720.jpg"
        },
        {
            "id": "zq8H4kzWe68",
            "title": "Animated Series | Inspector Chingum | Wow Kidz | Hindi Cartoons For Kids | Ep 48",
            "url": "https://www.youtube.com/watch?v=zq8H4kzWe68",
            "duration": 1164.0,
            "view_count": 1333077,
            "uploader": "WowKidz",
            "category": "cartoons/inspector_chingum",
            "thumbnail": "https://i.ytimg.com/vi/zq8H4kzWe68/hq720.jpg"
        },
        {
            "id": "BbLe3gLUWqM",
            "title": "Animated Series | Inspector Chingum | Hindi Cartoons For Kids | Ep 08 | Wow Kidz",
            "url": "https://www.youtube.com/watch?v=BbLe3gLUWqM",
            "duration": 1279.0,
            "view_count": 664902,
            "uploader": "WowKidz",
            "category": "cartoons/inspector_chingum",
            "thumbnail": "https://i.ytimg.com/vi/BbLe3gLUWqM/hq720.jpg"
        },
        {
            "id": "Ub1lHCZEFrw",
            "title": "Belt Trouble | Ep 32 | Inspector Chingum | 3D Comedy Cartoon In Hindi | Wow Comedy",
            "url": "https://www.youtube.com/watch?v=Ub1lHCZEFrw",
            "duration": 1098.0,
            "view_count": 9489,
            "uploader": "Wow Kidz Comedy",
            "category": "cartoons/inspector_chingum",
            "thumbnail": "https://i.ytimg.com/vi/Ub1lHCZEFrw/hq720.jpg"
        },
        {
            "id": "W_x7aimTJe8",
            "title": "Animated Series | Inspector Chingum | Wow Kidz | Hindi Cartoons For Kids | Ep 25",
            "url": "https://www.youtube.com/watch?v=W_x7aimTJe8",
            "duration": 1247.0,
            "view_count": 293043,
            "uploader": "WowKidz",
            "category": "cartoons/inspector_chingum",
            "thumbnail": "https://i.ytimg.com/vi/W_x7aimTJe8/hq720.jpg"
        },
        {
            "id": "2S_73e9ioG8",
            "title": "Inspector Chingum : Kohinoor Heera Ep 03 | Animated Series | Hindi Cartoons For Kids | Wow Kidz",
            "url": "https://www.youtube.com/watch?v=2S_73e9ioG8",
            "duration": 1306.0,
            "view_count": 1800,
            "uploader": "Wow Cartoons",
            "category": "cartoons/inspector_chingum",
            "thumbnail": "https://i.ytimg.com/vi/2S_73e9ioG8/hq720.jpg"
        },
        {
            "id": "zzitOgIEUyc",
            "title": "Chingum का Walkie Talkie | Motu Patlu | Hindi Kahani | S09 | Hindi Cartoons For Kids | #spot",
            "url": "https://www.youtube.com/watch?v=zzitOgIEUyc",
            "duration": 1269.0,
            "view_count": 803965,
            "uploader": "Motu Patlu",
            "category": "cartoons/inspector_chingum",
            "thumbnail": "https://i.ytimg.com/vi/zzitOgIEUyc/hq720.jpg"
        },
        {
            "id": "m3eDAW1uMEY",
            "title": "Inspector Chingum बना Badshah… अब Crime की खैर नहीं | Motu Patlu | मोटू पतलू",
            "url": "https://www.youtube.com/watch?v=m3eDAW1uMEY",
            "duration": 3857.0,
            "view_count": 2075298,
            "uploader": "Sonic Gang",
            "category": "cartoons/inspector_chingum",
            "thumbnail": "https://i.ytimg.com/vi/m3eDAW1uMEY/hq720.jpg"
        },
        {
            "id": "FSNY36vZpO0",
            "title": "Animated Series | Inspector Chingum | Wow Kidz | Hindi Cartoons For Kids | Ep 26",
            "url": "https://www.youtube.com/watch?v=FSNY36vZpO0",
            "duration": 1204.0,
            "view_count": 842330,
            "uploader": "WowKidz",
            "category": "cartoons/inspector_chingum",
            "thumbnail": "https://i.ytimg.com/vi/FSNY36vZpO0/hq720.jpg"
        },
        {
            "id": "2lgiVnOXY18",
            "title": "Inspector को मददगार Motu ने किया Impress | Motu Patlu New | Cartoon | Inspector Chingum | #spot",
            "url": "https://www.youtube.com/watch?v=2lgiVnOXY18",
            "duration": 1309.0,
            "view_count": 2863773,
            "uploader": "WowKidz",
            "category": "cartoons/inspector_chingum",
            "thumbnail": "https://i.ytimg.com/vi/2lgiVnOXY18/hq720.jpg"
        },
        {
            "id": "n7W3VqlBRPQ",
            "title": "Animated Series | Inspector Chingum | Hindi Cartoons For Kids | Ep 22 | Wow Kidz",
            "url": "https://www.youtube.com/watch?v=n7W3VqlBRPQ",
            "duration": 1330.0,
            "view_count": 1149764,
            "uploader": "WowKidz",
            "category": "cartoons/inspector_chingum",
            "thumbnail": "https://i.ytimg.com/vi/n7W3VqlBRPQ/hq720.jpg"
        },
        {
            "id": "zrjd1bRCSS8",
            "title": "Inspector Chingum | Mad Hammer| Animated Stories For Kids | Wow Kidz Action",
            "url": "https://www.youtube.com/watch?v=zrjd1bRCSS8",
            "duration": 1268.0,
            "view_count": 600381,
            "uploader": "Wow Kidz Action",
            "category": "cartoons/inspector_chingum",
            "thumbnail": "https://i.ytimg.com/vi/zrjd1bRCSS8/hq720.jpg"
        },
        {
            "id": "akcR8nW4D48",
            "title": "Hasna Mana Hai | Ep 08 | Inspector Chingum | 3D Comedy Cartoon In Hindi | Wow Comedy",
            "url": "https://www.youtube.com/watch?v=akcR8nW4D48",
            "duration": 1262.0,
            "view_count": 15410,
            "uploader": "Wow Kidz Comedy",
            "category": "cartoons/inspector_chingum",
            "thumbnail": "https://i.ytimg.com/vi/akcR8nW4D48/hq720.jpg"
        },
        {
            "id": "aBdTRo51bmg",
            "title": "Animated Series | Inspector Chingum | Wow Kidz | Hindi Cartoons For Kids | Ep 40",
            "url": "https://www.youtube.com/watch?v=aBdTRo51bmg",
            "duration": 1311.0,
            "view_count": 452842,
            "uploader": "WowKidz",
            "category": "cartoons/inspector_chingum",
            "thumbnail": "https://i.ytimg.com/vi/aBdTRo51bmg/hq720.jpg"
        },
        {
            "id": "Ms3zhOCvDwk",
            "title": "Crying Bird | Ep 09 | Inspector Chingum | 3D Comedy Cartoon In Hindi | Wow Comedy",
            "url": "https://www.youtube.com/watch?v=Ms3zhOCvDwk",
            "duration": 1287.0,
            "view_count": 37933,
            "uploader": "Wow Kidz Comedy",
            "category": "cartoons/inspector_chingum",
            "thumbnail": "https://i.ytimg.com/vi/Ms3zhOCvDwk/hq720.jpg"
        },
        {
            "id": "mhEn1u2ekU0",
            "title": "Bhopu Topu | Ep 20 | Inspector Chingum | 3D Comedy Cartoon In Hindi | Wow Comedy",
            "url": "https://www.youtube.com/watch?v=mhEn1u2ekU0",
            "duration": 1239.0,
            "view_count": 6018,
            "uploader": "Wow Kidz Comedy",
            "category": "cartoons/inspector_chingum",
            "thumbnail": "https://i.ytimg.com/vi/mhEn1u2ekU0/hq720.jpg"
        },
        {
            "id": "DDdWbtyiEV4",
            "title": "Inspector Chingum | Train Unstoppable | Animated Stories For Kids | Wow Kidz Action",
            "url": "https://www.youtube.com/watch?v=DDdWbtyiEV4",
            "duration": 1238.0,
            "view_count": 149495,
            "uploader": "Wow Kidz Action",
            "category": "cartoons/inspector_chingum",
            "thumbnail": "https://i.ytimg.com/vi/DDdWbtyiEV4/hq720.jpg"
        }
    ]
}