{
    "page": 46,
    "total_pages": 103,
    "total_items": 5125,
    "items": [
        {
            "id": "6KIkGhuzbLU",
            "title": "Athadu Full Movie | Mahesh Babu | Trisha | Trivikram | iDream Media",
            "url": "https://www.youtube.com/watch?v=6KIkGhuzbLU",
            "duration": 10363.0,
            "view_count": 1800333,
            "uploader": "iDream Media",
            "category": "telugu",
            "thumbnail": "https://i.ytimg.com/vi/6KIkGhuzbLU/hq720.jpg"
        },
        {
            "id": "TQz-xYseOMY",
            "title": "Skanda Action-Thriller Telugu Film | Sreeleela, Saiee Manjrekar | Ram Pothineni @tfcmaacinemalu",
            "url": "https://www.youtube.com/watch?v=TQz-xYseOMY",
            "duration": 6984.0,
            "view_count": 2936304,
            "uploader": "Maa Cinemalu",
            "category": "telugu",
            "thumbnail": "https://i.ytimg.com/vi/TQz-xYseOMY/hq720.jpg"
        },
        {
            "id": "dtw25FNcm6Y",
            "title": "Baladoor Telugu Full HD Movie | Ravi Teja | Anushka Shetty | Sunil | Suresh Productions",
            "url": "https://www.youtube.com/watch?v=dtw25FNcm6Y",
            "duration": 8632.0,
            "view_count": 30822281,
            "uploader": "SureshProductions",
            "category": "telugu",
            "thumbnail": "https://i.ytimg.com/vi/dtw25FNcm6Y/hq720.jpg"
        },
        {
            "id": "csrSf15UdZ0",
            "title": "Viswam Telugu Full Length Movie | Gopichand | Kavya Thappar",
            "url": "https://www.youtube.com/watch?v=csrSf15UdZ0",
            "duration": 7667.0,
            "view_count": 216611,
            "uploader": "cinema tv South",
            "category": "telugu",
            "thumbnail": "https://i.ytimg.com/vi/csrSf15UdZ0/hqdefault.jpg"
        },
        {
            "id": "I_Mszo0iCP0",
            "title": "Macho Star Gopichand & Kavya Thapar's Latest Telugu Full Movie HD | Icon Videos",
            "url": "https://www.youtube.com/watch?v=I_Mszo0iCP0",
            "duration": 7820.0,
            "view_count": 753132,
            "uploader": "ICON VIDEOS",
            "category": "telugu",
            "thumbnail": "https://i.ytimg.com/vi/I_Mszo0iCP0/hq720.jpg"
        },
        {
            "id": "Aq59cET9SJo",
            "title": "Eleven  Bengali  Dubbed Full  Movie - 2025 |  এগারো  | Naveen Chandra | Reyaa Hari | Abhirami",
            "url": "https://www.youtube.com/watch?v=Aq59cET9SJo",
            "duration": 7942.0,
            "view_count": 26596,
            "uploader": "API Indian Movie Hub",
            "category": "telugu",
            "thumbnail": "https://i.ytimg.com/vi/Aq59cET9SJo/hq720.jpg"
        },
        {
            "id": "gsOFlTucnjs",
            "title": "Dubai Seenu Telugu Full HD Movie | 4K | RaviTeja | Nayanathara | Ganesh Videos",
            "url": "https://www.youtube.com/watch?v=gsOFlTucnjs",
            "duration": 8862.0,
            "view_count": 1910654,
            "uploader": "Ganesh Videos",
            "category": "telugu",
            "thumbnail": "https://i.ytimg.com/vi/gsOFlTucnjs/hq720.jpg"
        },
        {
            "id": "ymjCGiugeHI",
            "title": "Mukunda - Telugu Full Movie - Sai Varun Tej, Pooja Hegde, Rao Ramesh",
            "url": "https://www.youtube.com/watch?v=ymjCGiugeHI",
            "duration": 7961.0,
            "view_count": 6056744,
            "uploader": "Zee Cinemalu",
            "category": "telugu",
            "thumbnail": "https://i.ytimg.com/vi/ymjCGiugeHI/hqdefault.jpg"
        },
        {
            "id": "BN8lc6sbX70",
            "title": "Chitti Premaayanam Full Movie | Latest Telugu Movies 2026 | MCA | Funmoji | Infinitum Movies",
            "url": "https://www.youtube.com/watch?v=BN8lc6sbX70",
            "duration": 17736.0,
            "view_count": 3441,
            "uploader": "Infinitum Movies",
            "category": "telugu",
            "thumbnail": "https://i.ytimg.com/vi/BN8lc6sbX70/hq720.jpg"
        },
        {
            "id": "KfM5FkxSswo",
            "title": "Pelli Sandadi Telugu Comedy Full Length HD Movie | Roshan | Sreeleela | Raghavendra rao",
            "url": "https://www.youtube.com/watch?v=KfM5FkxSswo",
            "duration": 7753.0,
            "view_count": 3325112,
            "uploader": "Tollywood Box Office",
            "category": "telugu",
            "thumbnail": "https://i.ytimg.com/vi/KfM5FkxSswo/hq720.jpg"
        },
        {
            "id": "Vm-oqYb18KY",
            "title": "Akash Puri & Ketika Sharma Telugu Super Hit Full Movie || Ramya Krishnan || Kotha Cinema",
            "url": "https://www.youtube.com/watch?v=Vm-oqYb18KY",
            "duration": 6057.0,
            "view_count": 287753,
            "uploader": "Kotha Cinema",
            "category": "telugu",
            "thumbnail": "https://i.ytimg.com/vi/Vm-oqYb18KY/hq720.jpg"
        },
        {
            "id": "JJSrthcbMlU",
            "title": "Darling Telugu Full Movie | Prabhas, Kajal Agarwal | Sri Balaji Video",
            "url": "https://www.youtube.com/watch?v=JJSrthcbMlU",
            "duration": 9128.0,
            "view_count": 879636,
            "uploader": "SriBalajiMovies",
            "category": "telugu",
            "thumbnail": "https://i.ytimg.com/vi/JJSrthcbMlU/hq720.jpg"
        },
        {
            "id": "oZFU0NyL8gk",
            "title": "Punya Dampathulu Full HD Telugu Movie | Sobhan Babu | Suhasini | Nuthan Prasad | Jayamalini",
            "url": "https://www.youtube.com/watch?v=oZFU0NyL8gk",
            "duration": 6071.0,
            "view_count": 18970,
            "uploader": "Rose Telugu Movies",
            "category": "telugu",
            "thumbnail": "https://i.ytimg.com/vi/oZFU0NyL8gk/hq720.jpg"
        },
        {
            "id": "E8mCRIE3cU0",
            "title": "Venky Telugu Full Movie | Mass Maharaja Ravi Teja | Sneha | Evergreen Telugu Blockbuster Movies",
            "url": "https://www.youtube.com/watch?v=E8mCRIE3cU0",
            "duration": 9627.0,
            "view_count": 169169,
            "uploader": "Superscreen Cinema",
            "category": "telugu",
            "thumbnail": "https://i.ytimg.com/vi/E8mCRIE3cU0/hq720.jpg?sqp=-oaymwEcCNAFEJQDSFXyq4qpAw4IARUAAIhCGAFwAcABBg==&rs=AOn4CLCuU2getGS5WBVdHNu1tIxPK9Ivdw",
            "added_date": "2026-04-16T07:31:14.823260Z",
            "source": "youtube"
        },
        {
            "id": "lnqLnXimUu8",
            "title": "Gopala Gopala Telugu Satirical/Comedy/Drama Full Movie || Pawan Kalyan || Venkatesh || Matinee Show",
            "url": "https://www.youtube.com/watch?v=lnqLnXimUu8",
            "duration": 7353.0,
            "view_count": 1029552,
            "uploader": "Matinee Show",
            "category": "telugu",
            "thumbnail": "https://i.ytimg.com/vi/lnqLnXimUu8/hq720.jpg"
        },
        {
            "id": "lNYXufsDBFM",
            "title": "Couple Goals | Full Movie | Telugu Movies 2026 | Sushma Gopal | Mohit Pedada | Infinitum Media",
            "url": "https://www.youtube.com/watch?v=lNYXufsDBFM",
            "duration": 11650.0,
            "view_count": 35850,
            "uploader": "Infinitum Movies",
            "category": "telugu",
            "thumbnail": "https://i.ytimg.com/vi/lNYXufsDBFM/hq720.jpg"
        },
        {
            "id": "lWGmGDQjiIk",
            "title": "Vajra Kavachadhara Govinda Comedy Full Movie | Latest Telugu Full Movies | Saptagiri | VaibhaviJoshi",
            "url": "https://www.youtube.com/watch?v=lWGmGDQjiIk",
            "duration": 8445.0,
            "view_count": 4409243,
            "uploader": "NiharikaMovies",
            "category": "telugu",
            "thumbnail": "https://i.ytimg.com/vi/lWGmGDQjiIk/hq720.jpg"
        },
        {
            "id": "ifsMzBZgJuc",
            "title": "Nenu Sailaja Telugu Full HD Movie | Ram Pothineni Keerthy Suresh Comedy/Love Movie | Matinee Show",
            "url": "https://www.youtube.com/watch?v=ifsMzBZgJuc",
            "duration": 6627.0,
            "view_count": 4205901,
            "uploader": "Matinee Show",
            "category": "telugu",
            "thumbnail": "https://i.ytimg.com/vi/ifsMzBZgJuc/hq720.jpg"
        },
        {
            "id": "6IKX9FHyhV8",
            "title": "Sangeeth Shobhan Mystery Thriller Movie | Gamblers | Sangeeth Shobhan | Prashanthi charuolingah",
            "url": "https://www.youtube.com/watch?v=6IKX9FHyhV8",
            "duration": 6010.0,
            "view_count": 509816,
            "uploader": "BhavaniHD Movies",
            "category": "telugu",
            "thumbnail": "https://i.ytimg.com/vi/6IKX9FHyhV8/hq720.jpg"
        },
        {
            "id": "uSCny3eXPl8",
            "title": "Oka Ronaldo Cinema | ఒక రోనాల్డో సినిమా | Telugu Full Movie 4K | Latest hit Movie #maheshbabu",
            "url": "https://www.youtube.com/watch?v=uSCny3eXPl8",
            "duration": 9581.0,
            "view_count": 1674,
            "uploader": "Cinema Villa Telugu",
            "category": "telugu",
            "thumbnail": "https://i.ytimg.com/vi/uSCny3eXPl8/hq720.jpg"
        },
        {
            "id": "w4Hfeq2_X8c",
            "title": "Hushaaru Telugu Full Movie 4K | Rahul Ramakrishna | Priya Vadlamani | Tejus Kancherla | Dinesh Tej",
            "url": "https://www.youtube.com/watch?v=w4Hfeq2_X8c",
            "duration": 8550.0,
            "view_count": 3474835,
            "uploader": "Telugu Filmnagar",
            "category": "telugu",
            "thumbnail": "https://i.ytimg.com/vi/w4Hfeq2_X8c/hq720.jpg"
        },
        {
            "id": "U4Fp8BDDQF4",
            "title": "Srimathi Vellostha - శ్రీమతీ వెళ్ళొస్తా Full Telugu Movie | Jagapathi Babu | Devyani | Brahmanandam",
            "url": "https://www.youtube.com/watch?v=U4Fp8BDDQF4",
            "duration": 7683.0,
            "view_count": 1846278,
            "uploader": "Rajshri Telugu",
            "category": "telugu",
            "thumbnail": "https://i.ytimg.com/vi/U4Fp8BDDQF4/hq720.jpg"
        },
        {
            "id": "I1WGKjAK9JY",
            "title": "Telangana Mardal US Bava Full Movie || Latest Telugu Movies ||Aishwarya Vandhana || Shiva Charan",
            "url": "https://www.youtube.com/watch?v=I1WGKjAK9JY",
            "duration": 5217.0,
            "view_count": 393134,
            "uploader": "Infinitum Movies",
            "category": "telugu",
            "thumbnail": "https://i.ytimg.com/vi/I1WGKjAK9JY/hq720.jpg"
        },
        {
            "id": "tQwr4Tywk1o",
            "title": "Pandaga Chesko Telugu Family/Action Drama Full Length HD Movie || Ram Pothineni || Matinee Show",
            "url": "https://www.youtube.com/watch?v=tQwr4Tywk1o",
            "duration": 8038.0,
            "view_count": 349782,
            "uploader": "Matinee Show",
            "category": "telugu",
            "thumbnail": "https://i.ytimg.com/vi/tQwr4Tywk1o/hq720.jpg"
        },
        {
            "id": "h0dybrN-8Ys",
            "title": "Bujjigadu Telugu Full Movie 4K | Prabhas | Mohan Babu | Trisha | Puri Jagannadh | Telugu New Movies",
            "url": "https://www.youtube.com/watch?v=h0dybrN-8Ys",
            "duration": 8718.0,
            "view_count": 1550672,
            "uploader": "Telugu Filmnagar",
            "category": "telugu",
            "thumbnail": "https://i.ytimg.com/vi/h0dybrN-8Ys/hq720.jpg"
        },
        {
            "id": "LMvBql5UV5M",
            "title": "Month Of Madhu Latest Telugu Full Movie 4K | Naveen Chandra | Swathi Reddy | Telugu New Movies",
            "url": "https://www.youtube.com/watch?v=LMvBql5UV5M",
            "duration": 8290.0,
            "view_count": 990556,
            "uploader": "Telugu Filmnagar",
            "category": "telugu",
            "thumbnail": "https://i.ytimg.com/vi/LMvBql5UV5M/hq720.jpg"
        },
        {
            "id": "F-QQfhwnsrQ",
            "title": "Chilakapacha Kapuram Telugu Full Movie | Jagapathi Babu | Soundarya | Meena | Charan Raj",
            "url": "https://www.youtube.com/watch?v=F-QQfhwnsrQ",
            "duration": 7729.0,
            "view_count": 283973,
            "uploader": "Telugu Movie Bazaar",
            "category": "telugu",
            "thumbnail": "https://i.ytimg.com/vi/F-QQfhwnsrQ/hq720.jpg"
        },
        {
            "id": "RKo4GMc4f6w",
            "title": "MCA Telugu Full Movie 4K | Nani | Sai Pallavi | Bhumika | DSP | Dil Raju | Telugu New Movies | TFN",
            "url": "https://www.youtube.com/watch?v=RKo4GMc4f6w",
            "duration": 8295.0,
            "view_count": 7090550,
            "uploader": "Telugu Filmnagar",
            "category": "telugu",
            "thumbnail": "https://i.ytimg.com/vi/RKo4GMc4f6w/hq720.jpg"
        },
        {
            "id": "NsDQf83cNnk",
            "title": "Suhas And Shivani Nagaram Recent BlockbusterHit Social Drama Telugu Full Length Movie | Matinee Show",
            "url": "https://www.youtube.com/watch?v=NsDQf83cNnk",
            "duration": 6269.0,
            "view_count": 17004,
            "uploader": "Matinee Show",
            "category": "telugu",
            "thumbnail": "https://i.ytimg.com/vi/NsDQf83cNnk/hq720.jpg"
        },
        {
            "id": "mcjoryRbilI",
            "title": "Businessman Mahesh Babu All Time Blockbuster Hit Action/Crime Drama Telugu Full Movie | Matinee Show",
            "url": "https://www.youtube.com/watch?v=mcjoryRbilI",
            "duration": 5906.0,
            "view_count": 2312066,
            "uploader": "Matinee Show",
            "category": "telugu",
            "thumbnail": "https://i.ytimg.com/vi/mcjoryRbilI/hq720.jpg"
        },
        {
            "id": "DDWPxs8zTzg",
            "title": "Dwaraka Full Movie - 2018 Telugu Full Movies - Vijay Devarakonda, Pooja Jhaveri",
            "url": "https://www.youtube.com/watch?v=DDWPxs8zTzg",
            "duration": 8242.0,
            "view_count": 34124684,
            "uploader": "BhavaniHD Movies",
            "category": "telugu",
            "thumbnail": "https://i.ytimg.com/vi/DDWPxs8zTzg/hq720.jpg"
        },
        {
            "id": "2O1NqCBxMeA",
            "title": "Dhurandhar full movie telugu (2026) | Ranveer Singh | Sara Arjun | Akshaye Khanna | Sanjay Dutt ",
            "url": "https://www.youtube.com/watch?v=2O1NqCBxMeA",
            "duration": 13064.0,
            "view_count": 588,
            "uploader": "Filmi Flash Malayalam",
            "category": "telugu",
            "thumbnail": "https://i.ytimg.com/vi/2O1NqCBxMeA/hqdefault.jpg"
        },
        {
            "id": "MVBVqEgXDHg",
            "title": "Happy Telugu Full Movie | 4K | Allu Arjun, Genelia, ManojBajpayee | Karunakaran | Yuvan Shankar Raja",
            "url": "https://www.youtube.com/watch?v=MVBVqEgXDHg",
            "duration": 9086.0,
            "view_count": 4290501,
            "uploader": "Geetha Arts ",
            "category": "telugu",
            "thumbnail": "https://i.ytimg.com/vi/MVBVqEgXDHg/hq720.jpg"
        },
        {
            "id": "IOaSamu9BbE",
            "title": "Ranga Ranga Vaibhavanga Telugu Super Hit Romance/Comedy Drama Full Length HD Movie || Matinee Show",
            "url": "https://www.youtube.com/watch?v=IOaSamu9BbE",
            "duration": 7328.0,
            "view_count": 5474765,
            "uploader": "Matinee Show",
            "category": "telugu",
            "thumbnail": "https://i.ytimg.com/vi/IOaSamu9BbE/hq720.jpg"
        },
        {
            "id": "-54YPdwSEe0",
            "title": "Saindhav || Venkatesh Crime Action Full HD Movie || Shraddha Srinath || @JordaarMovies ​",
            "url": "https://www.youtube.com/watch?v=-54YPdwSEe0",
            "duration": 7526.0,
            "view_count": 1469274,
            "uploader": "Jordaar Movies",
            "category": "telugu",
            "thumbnail": "https://i.ytimg.com/vi/-54YPdwSEe0/hq720.jpg"
        },
        {
            "id": "tVLu60NDjZY",
            "title": "Ramayya Vasthavayya Telugu Full Movie | NTR, Samantha | Shruti Haasan | Harish Shankar",
            "url": "https://www.youtube.com/watch?v=tVLu60NDjZY",
            "duration": 9346.0,
            "view_count": 11836397,
            "uploader": "Aditya Cinemalu",
            "category": "telugu",
            "thumbnail": "https://i.ytimg.com/vi/tVLu60NDjZY/hq720.jpg"
        },
        {
            "id": "EJKHikFl-T0",
            "title": "Annaatthe Full Movie (Telugu) | Rajinikanth | Action Family Drama | HD Telugu Dubbed Movie",
            "url": "https://www.youtube.com/watch?v=EJKHikFl-T0",
            "duration": 9641.0,
            "view_count": 83933,
            "uploader": "Delugu Movies",
            "category": "telugu",
            "thumbnail": "https://i.ytimg.com/vi/EJKHikFl-T0/hq720.jpg"
        },
        {
            "id": "EvI2dtdUS_A",
            "title": "#Youth full movie 🎥 in telugu ",
            "url": "https://www.youtube.com/watch?v=EvI2dtdUS_A",
            "duration": 7971.0,
            "view_count": 145,
            "uploader": "Navya entertainment Hud",
            "category": "telugu",
            "thumbnail": "https://i.ytimg.com/vi/EvI2dtdUS_A/hqdefault.jpg"
        },
        {
            "id": "kI-WhiGfHa8",
            "title": "KALISI NADUDDAM | EXCLUSIVE TELUGU FULL MOVIE | SRIKANTH | SOUNDARYA | TELUGU CINE CAFE",
            "url": "https://www.youtube.com/watch?v=kI-WhiGfHa8",
            "duration": 8632.0,
            "view_count": 2550537,
            "uploader": "Telugu Cine Cafe",
            "category": "telugu",
            "thumbnail": "https://i.ytimg.com/vi/kI-WhiGfHa8/hq720.jpg"
        },
        {
            "id": "ycoeUXCRA0M",
            "title": "Sarrainodu Telugu Full HD Movie | Allu Arjun Mass Action Blockbuster | Telugu Hit Movies ",
            "url": "https://www.youtube.com/watch?v=ycoeUXCRA0M",
            "duration": 7348.0,
            "view_count": 408350,
            "uploader": "TELUGU HIT MOVIES ",
            "category": "telugu",
            "thumbnail": "https://i.ytimg.com/vi/ycoeUXCRA0M/hq720.jpg"
        },
        {
            "id": "8qLPiAkjPR0",
            "title": "OG ||Pavan Kalyan||2025||Full Movie in Telugu ",
            "url": "https://www.youtube.com/watch?v=8qLPiAkjPR0",
            "duration": 9044.0,
            "view_count": 1774722,
            "uploader": "M.M.L.Movies Telugu ",
            "category": "telugu",
            "thumbnail": "https://i.ytimg.com/vi/8qLPiAkjPR0/hqdefault.jpg"
        },
        {
            "id": "9pFHtnzVHdM",
            "title": "Boss I Love You Telugu Full Movie 4K | Nagarjuna | Nayanthara | Poonam Bajwa | Telugu New Movies",
            "url": "https://www.youtube.com/watch?v=9pFHtnzVHdM",
            "duration": 9256.0,
            "view_count": 1113477,
            "uploader": "Mango Videos",
            "category": "telugu",
            "thumbnail": "https://i.ytimg.com/vi/9pFHtnzVHdM/hq720.jpg"
        },
        {
            "id": "k0G5WcKSdRA",
            "title": "Mystery Case File Telugu investigative thriller Full Length HD Movie | Kiran Abbavaram | Nuveksha",
            "url": "https://www.youtube.com/watch?v=k0G5WcKSdRA",
            "duration": 6532.0,
            "view_count": 764698,
            "uploader": "Tollywood Box Office",
            "category": "telugu",
            "thumbnail": "https://i.ytimg.com/vi/k0G5WcKSdRA/hq720.jpg"
        },
        {
            "id": "oVsA6B1cweo",
            "title": "Race Gurram Telugu Full Movie HD | Allu Arjun | Shruti Hassan | Brahmanandam | Mango Indian Films",
            "url": "https://www.youtube.com/watch?v=oVsA6B1cweo",
            "duration": 9793.0,
            "view_count": 81323797,
            "uploader": "Mango Indian Films",
            "category": "telugu",
            "thumbnail": "https://i.ytimg.com/vi/oVsA6B1cweo/hq720.jpg"
        },
        {
            "id": "LorbrQ-8RUg",
            "title": "Indra (2002) Full Movie Telugu Chiranjeevi, Aarti Agarwal, Sonali Bendre, B Gopal,  Manisharma",
            "url": "https://www.youtube.com/watch?v=LorbrQ-8RUg",
            "duration": 10414.0,
            "view_count": 5851804,
            "uploader": "Someshwar Nath Sriramoju",
            "category": "telugu",
            "thumbnail": "https://i.ytimg.com/vi/LorbrQ-8RUg/hqdefault.jpg"
        },
        {
            "id": "7g03KXHEZtU",
            "title": "Punyam Koddi Purushudu Full HD Telugu Movie | Sobhan Babu | Radhika | Jayasudha | Rao Gopal Rao",
            "url": "https://www.youtube.com/watch?v=7g03KXHEZtU",
            "duration": 8271.0,
            "view_count": 23893,
            "uploader": "Telugu Movie Center",
            "category": "telugu",
            "thumbnail": "https://i.ytimg.com/vi/7g03KXHEZtU/hq720.jpg"
        },
        {
            "id": "TINVex2bWfw",
            "title": "RULE BREAKER (రూల్ బ్రేకర్) | Ram Pothineni, Raashi Khanna New Telugu Action Thriller |Full HD Movie",
            "url": "https://www.youtube.com/watch?v=TINVex2bWfw",
            "duration": 7289.0,
            "view_count": 625988,
            "uploader": "Andhra Talkies",
            "category": "telugu",
            "thumbnail": "https://i.ytimg.com/vi/TINVex2bWfw/hq720.jpg"
        },
        {
            "id": "Jm60552aTNk",
            "title": "Nithiin Recent Super Hit Telugu Blockbuster Full Hd Movie | Nithiin , Sreeleela | @Localtalkiess",
            "url": "https://www.youtube.com/watch?v=Jm60552aTNk",
            "duration": 8056.0,
            "view_count": 3988493,
            "uploader": "Local Talkiess",
            "category": "telugu",
            "thumbnail": "https://i.ytimg.com/vi/Jm60552aTNk/hq720.jpg"
        },
        {
            "id": "qFQKHg2F14o",
            "title": "Khakee Telugu Full Movie | Karthi | Rakul Preet Singh | Telugu New Movie 2026 | Aditya Cinemalu",
            "url": "https://www.youtube.com/watch?v=qFQKHg2F14o",
            "duration": 6575.0,
            "view_count": 394128,
            "uploader": "Aditya Cinemalu",
            "category": "telugu",
            "thumbnail": "https://i.ytimg.com/vi/qFQKHg2F14o/hq720.jpg"
        },
        {
            "id": "HG-bmTnuO3E",
            "title": "Prema Vimanam Telugu Comedy Full HD Movie | Sangeeth Sobhan | Saaveee Megghana | Anasuya Bharadwaj",
            "url": "https://www.youtube.com/watch?v=HG-bmTnuO3E",
            "duration": 8561.0,
            "view_count": 407195,
            "uploader": "Tollywood Box Office",
            "category": "telugu",
            "thumbnail": "https://i.ytimg.com/vi/HG-bmTnuO3E/hq720.jpg"
        }
    ]
}