{
    "page": 34,
    "total_pages": 103,
    "total_items": 5125,
    "items": [
        {
            "id": "gU-wn0a5x5E",
            "title": "KYU PEHNI HE JETHA NE DAYA KI CHUDIYAN ! | FULL MOVIE | Taarak Mehta Ka Ooltah Chashmah",
            "url": "https://www.youtube.com/watch?v=gU-wn0a5x5E",
            "duration": 2223.0,
            "view_count": 1635054,
            "uploader": "Taarak Mehta Ka Ooltah Chashmah",
            "category": "taarak_mehta",
            "thumbnail": "https://i.ytimg.com/vi/gU-wn0a5x5E/hq720.jpg"
        },
        {
            "id": "MZWzMlVENPE",
            "title": "KAISE HOGI GOKULDHAM KI INNAUGRATION PARTY ! | FULL MOVIE | Taarak Mehta Ka Ooltah Chashmah",
            "url": "https://www.youtube.com/watch?v=MZWzMlVENPE",
            "duration": 3489.0,
            "view_count": 61479,
            "uploader": "Taarak Mehta Ka Ooltah Chashmah",
            "category": "taarak_mehta",
            "thumbnail": "https://i.ytimg.com/vi/MZWzMlVENPE/hq720.jpg"
        },
        {
            "id": "akpxc63JVcw",
            "title": "भूत उतारने के लिए Anjali ने दिया Taarak को Tasty खाना |Taarak Mehta Ka Ooltah Chashmah |Karela Story",
            "url": "https://www.youtube.com/watch?v=akpxc63JVcw",
            "duration": 3507.0,
            "view_count": 4588,
            "uploader": "Taarak Mehta Ka Ooltah Chashmah Episodes",
            "category": "taarak_mehta",
            "thumbnail": "https://i.ytimg.com/vi/akpxc63JVcw/hq720.jpg"
        },
        {
            "id": "dtapMAZ5-iE",
            "title": "A Gift For Bapuji | Taarak Mehta Ka Ooltah Chashmah | Full Ep 4667 | 25 Mar 2026 | New Episode",
            "url": "https://www.youtube.com/watch?v=dtapMAZ5-iE",
            "duration": 1326.0,
            "view_count": 955047,
            "uploader": "Taarak Mehta Ka Ooltah Chashmah Episodes",
            "category": "taarak_mehta",
            "thumbnail": "https://i.ytimg.com/vi/dtapMAZ5-iE/hq720.jpg"
        },
        {
            "id": "tThEIzUDYvE",
            "title": "Kisne Pheka Jethya ke Upar नींबू पानी😂 ! | FULL MOVIE | Taarak Mehta Ka Ooltah Chashmah",
            "url": "https://www.youtube.com/watch?v=tThEIzUDYvE",
            "duration": 2264.0,
            "view_count": 45567,
            "uploader": "Taarak Mehta Ka Ooltah Chashmah",
            "category": "taarak_mehta",
            "thumbnail": "https://i.ytimg.com/vi/tThEIzUDYvE/hq720.jpg"
        },
        {
            "id": "KnmLD4Dq_PY",
            "title": "Kyu Kiya Bagha Ne Jethalal Ko Hypnotize | Taarak Mehta Ka Ooltah Chashmah",
            "url": "https://www.youtube.com/watch?v=KnmLD4Dq_PY",
            "duration": 3461.0,
            "view_count": 39512,
            "uploader": "Taarak Mehta Ka Ooltah Chashmah Episodes",
            "category": "taarak_mehta",
            "thumbnail": "https://i.ytimg.com/vi/KnmLD4Dq_PY/hq720.jpg"
        },
        {
            "id": "fxPNTlWgYUQ",
            "title": "Gents कैसे करेगी Mission Permission का आरंभ? | Taarak Mehta Ka Ooltah Chashmah | Party Sharty",
            "url": "https://www.youtube.com/watch?v=fxPNTlWgYUQ",
            "duration": 3727.0,
            "view_count": 12916,
            "uploader": "Taarak Mehta Ka Ooltah Chashmah Episodes",
            "category": "taarak_mehta",
            "thumbnail": "https://i.ytimg.com/vi/fxPNTlWgYUQ/hq720.jpg"
        },
        {
            "id": "N0WL2JdIijg",
            "title": "Chalu Ji ने क्यों किया Jetha से पूछताछ? | Taarak Mehta Ka Ooltah Chashmah | Popatlal's New Phone",
            "url": "https://www.youtube.com/watch?v=N0WL2JdIijg",
            "duration": 3570.0,
            "view_count": 40785,
            "uploader": "Taarak Mehta Ka Ooltah Chashmah Episodes",
            "category": "taarak_mehta",
            "thumbnail": "https://i.ytimg.com/vi/N0WL2JdIijg/hq720.jpg"
        },
        {
            "id": "eFQt7zAmwSY",
            "title": "Bhide Comes Looking For All-In-One Bhai | Taarak Mehta Ka Ooltah Chashmah | Full Episode",
            "url": "https://www.youtube.com/watch?v=eFQt7zAmwSY",
            "duration": 1247.0,
            "view_count": 7422,
            "uploader": "Taarak Mehta Ka Ooltah Chashmah Episodes",
            "category": "taarak_mehta",
            "thumbnail": "https://i.ytimg.com/vi/eFQt7zAmwSY/hq720.jpg"
        },
        {
            "id": "gCfOP92IycA",
            "title": "Bapuji ke Samne Daya ne Kholi Jethalal ki Pol ! | FULL MOVIE | Taarak Mehta Ka Ooltah Chashmah",
            "url": "https://www.youtube.com/watch?v=gCfOP92IycA",
            "duration": 2316.0,
            "view_count": 240621,
            "uploader": "Taarak Mehta Ka Ooltah Chashmah",
            "category": "taarak_mehta",
            "thumbnail": "https://i.ytimg.com/vi/gCfOP92IycA/hq720.jpg"
        },
        {
            "id": "LhRS9EApkDY",
            "title": "Bhide Gets A Letter From All-In-One Bhai | Taarak Mehta Ka Ooltah Chashmah | Full Episode",
            "url": "https://www.youtube.com/watch?v=LhRS9EApkDY",
            "duration": 1183.0,
            "view_count": 12766,
            "uploader": "Taarak Mehta Ka Ooltah Chashmah Episodes",
            "category": "taarak_mehta",
            "thumbnail": "https://i.ytimg.com/vi/LhRS9EApkDY/hq720.jpg"
        },
        {
            "id": "LXJKW6Y_Y74",
            "title": "Pinku Ke Maa Baap Kyu Bane Indian Spy  ! | FULL MOVIE | Taarak Mehta Ka Ooltah Chashmah",
            "url": "https://www.youtube.com/watch?v=LXJKW6Y_Y74",
            "duration": 3412.0,
            "view_count": 61629,
            "uploader": "Taarak Mehta Ka Ooltah Chashmah",
            "category": "taarak_mehta",
            "thumbnail": "https://i.ytimg.com/vi/LXJKW6Y_Y74/hq720.jpg"
        },
        {
            "id": "fweQVlckybU",
            "title": "Jetha Catches Bawri | Taarak Mehta Ka Ooltah Chashmah | Full Ep 4668 | 26 Mar 2026 | New Episode",
            "url": "https://www.youtube.com/watch?v=fweQVlckybU",
            "duration": 1305.0,
            "view_count": 812149,
            "uploader": "Taarak Mehta Ka Ooltah Chashmah Episodes",
            "category": "taarak_mehta",
            "thumbnail": "https://i.ytimg.com/vi/fweQVlckybU/hq720.jpg"
        },
        {
            "id": "1HwucDUeM5E",
            "title": "NEW! Ep 4668 -Society ke Kis प्रोग्राम ke liye उत्साही है महिला मंडल|Taarak Mehta ka Ooltah Chashmah",
            "url": "https://www.youtube.com/watch?v=1HwucDUeM5E",
            "duration": 620.0,
            "view_count": 950558,
            "uploader": "Taarak Mehta Ka Ooltah Chashmah",
            "category": "taarak_mehta",
            "thumbnail": "https://i.ytimg.com/vi/1HwucDUeM5E/hq720.jpg"
        },
        {
            "id": "awBNEh9X8Xs",
            "title": "All-In-One Bhai Threatens Gokuldham Residents | Taarak Mehta Ka Ooltah Chashmah | Full Episode",
            "url": "https://www.youtube.com/watch?v=awBNEh9X8Xs",
            "duration": 1213.0,
            "view_count": 39978,
            "uploader": "Taarak Mehta Ka Ooltah Chashmah Episodes",
            "category": "taarak_mehta",
            "thumbnail": "https://i.ytimg.com/vi/awBNEh9X8Xs/hq720.jpg"
        },
        {
            "id": "eQ62b4ft5xs",
            "title": "Ladies Try To Convince All-In-One Bhai | Taarak Mehta Ka Ooltah Chashmah | Full Episode",
            "url": "https://www.youtube.com/watch?v=eQ62b4ft5xs",
            "duration": 1199.0,
            "view_count": 1173,
            "uploader": "Taarak Mehta Ka Ooltah Chashmah Episodes",
            "category": "taarak_mehta",
            "thumbnail": "https://i.ytimg.com/vi/eQ62b4ft5xs/hq720.jpg"
        },
        {
            "id": "-rbengSbLJk",
            "title": "क्या Bhide को मिलेगी Party की Permission? | Taarak Mehta Ka Ooltah Chashmah | Party Sharty",
            "url": "https://www.youtube.com/watch?v=-rbengSbLJk",
            "duration": 3586.0,
            "view_count": 8923,
            "uploader": "Taarak Mehta Ka Ooltah Chashmah Episodes",
            "category": "taarak_mehta",
            "thumbnail": "https://i.ytimg.com/vi/-rbengSbLJk/hq720.jpg"
        },
        {
            "id": "zRlfktFswQA",
            "title": "Jethya ne kyu Kati Bapuji ko चुपके से Chimti ! | FULL MOVIE | Taarak Mehta Ka Ooltah Chashmah",
            "url": "https://www.youtube.com/watch?v=zRlfktFswQA",
            "duration": 3640.0,
            "view_count": 302082,
            "uploader": "Taarak Mehta Ka Ooltah Chashmah",
            "category": "taarak_mehta",
            "thumbnail": "https://i.ytimg.com/vi/zRlfktFswQA/hq720.jpg"
        },
        {
            "id": "lZZ_EQx4M-o",
            "title": "NEW! Ep 4669 - Popatlal kis Wajah se Hua Bhide pe Gussa! | Taarak Mehta ka Ooltah  Chashmah",
            "url": "https://www.youtube.com/watch?v=lZZ_EQx4M-o",
            "duration": 625.0,
            "view_count": 145442,
            "uploader": "TMKOC - MINISODES",
            "category": "taarak_mehta",
            "thumbnail": "https://i.ytimg.com/vi/lZZ_EQx4M-o/hq720_custom_3.jpg"
        },
        {
            "id": "7-3GLSuiab4",
            "title": "Jethalal Is Shocked To See Nattu Kaka | Taarak Mehta Ka Ooltah Chashmah | Full Episode 149",
            "url": "https://www.youtube.com/watch?v=7-3GLSuiab4",
            "duration": 1171.0,
            "view_count": 8964,
            "uploader": "Taarak Mehta Ka Ooltah Chashmah Episodes",
            "category": "taarak_mehta",
            "thumbnail": "https://i.ytimg.com/vi/7-3GLSuiab4/hq720.jpg"
        },
        {
            "id": "IYlAsGgXegM",
            "title": "NEW! Ep 4669 - Ram Navmi ke Mauke Par Popat ne Khada Kiya Hungama! | Taarak Mehta ka Ooltah Chashmah",
            "url": "https://www.youtube.com/watch?v=IYlAsGgXegM",
            "duration": 625.0,
            "view_count": 5558,
            "uploader": "Taarak Mehta Ka Ooltah Chashmah Episodes",
            "category": "taarak_mehta",
            "thumbnail": "https://i.ytimg.com/vi/IYlAsGgXegM/hq720_custom_1.jpg"
        },
        {
            "id": "Zw9D16rYXls",
            "title": "NEW! Ep 4669 - Ram Navmi ke Mauke Par Popat ne Khada Kiya Hungama! | Taarak Mehta ka Ooltah Chashmah",
            "url": "https://www.youtube.com/watch?v=Zw9D16rYXls",
            "duration": 625.0,
            "view_count": 1016265,
            "uploader": "Taarak Mehta Ka Ooltah Chashmah",
            "category": "taarak_mehta",
            "thumbnail": "https://i.ytimg.com/vi/Zw9D16rYXls/hq720.jpg"
        },
        {
            "id": "WaYMwZg6uuU",
            "title": "Kon Karega Ab Society Ko Colour | Taarak Mehta Ka Ooltah Chashmah | Full Movie",
            "url": "https://www.youtube.com/watch?v=WaYMwZg6uuU",
            "duration": 3192.0,
            "view_count": 33122,
            "uploader": "Taarak Mehta Ka Ooltah Chashmah Episodes",
            "category": "taarak_mehta",
            "thumbnail": "https://i.ytimg.com/vi/WaYMwZg6uuU/hq720.jpg"
        },
        {
            "id": "hLv_Dq8F9rc",
            "title": "Bhide के खाँसने से डर गया Jetha | Taarak Mehta Ka Ooltah Chashmah | Jetha Aur Sheru",
            "url": "https://www.youtube.com/watch?v=hLv_Dq8F9rc",
            "duration": 2369.0,
            "view_count": 73342,
            "uploader": "Taarak Mehta Ka Ooltah Chashmah Episodes",
            "category": "taarak_mehta",
            "thumbnail": "https://i.ytimg.com/vi/hLv_Dq8F9rc/hqdefault.jpg"
        },
        {
            "id": "NaKEKUPDIH0",
            "title": "Jethalal Ne Kiya Iyer Ko Statue | Taarak Mehta Ka Ooltah Chashmah | Full Movie",
            "url": "https://www.youtube.com/watch?v=NaKEKUPDIH0",
            "duration": 3421.0,
            "view_count": 8089,
            "uploader": "Taarak Mehta Ka Ooltah Chashmah Episodes",
            "category": "taarak_mehta",
            "thumbnail": "https://i.ytimg.com/vi/NaKEKUPDIH0/hq720.jpg"
        },
        {
            "id": "nVlbNoU7nHQ",
            "title": "Gokuldham Gets Decorated | Taarak Mehta Ka Ooltah Chashmah| Full Ep 4669 | 27 Mar 2026 | New Episode",
            "url": "https://www.youtube.com/watch?v=nVlbNoU7nHQ",
            "duration": 1138.0,
            "view_count": 736423,
            "uploader": "Taarak Mehta Ka Ooltah Chashmah Episodes",
            "category": "taarak_mehta",
            "thumbnail": "https://i.ytimg.com/vi/nVlbNoU7nHQ/hq720.jpg"
        },
        {
            "id": "xADF7SLZT2w",
            "title": "Kisne Kiya Ladies Ke Saath Scam | Taarak Mehta Ka Ooltah Chashmah | Full Movie",
            "url": "https://www.youtube.com/watch?v=xADF7SLZT2w",
            "duration": 3137.0,
            "view_count": 3026,
            "uploader": "Taarak Mehta Ka Ooltah Chashmah Episodes",
            "category": "taarak_mehta",
            "thumbnail": "https://i.ytimg.com/vi/xADF7SLZT2w/hq720.jpg"
        },
        {
            "id": "m0Fil6bTXZU",
            "title": "Kya Bapuji honge Jethalal ke Surprise se Impress ! | FULL MOVIE | Taarak Mehta Ka Ooltah Chashmah",
            "url": "https://www.youtube.com/watch?v=m0Fil6bTXZU",
            "duration": 3491.0,
            "view_count": 100992,
            "uploader": "Taarak Mehta Ka Ooltah Chashmah",
            "category": "taarak_mehta",
            "thumbnail": "https://i.ytimg.com/vi/m0Fil6bTXZU/hq720.jpg"
        },
        {
            "id": "iADktV1oSrw",
            "title": "Gokuldham Men Stand Against All-In-One Bhai | Taarak Mehta Ka Ooltah Chashmah | Full Episode",
            "url": "https://www.youtube.com/watch?v=iADktV1oSrw",
            "duration": 1253.0,
            "view_count": 20655,
            "uploader": "Taarak Mehta Ka Ooltah Chashmah Episodes",
            "category": "taarak_mehta",
            "thumbnail": "https://i.ytimg.com/vi/iADktV1oSrw/hq720.jpg"
        },
        {
            "id": "Z0m6K-n_Qkw",
            "title": "क्या Bapuji फेंक देंगे Party Sharty की Bottle? | Taarak Mehta Ka Ooltah Chashmah | Party Sharty",
            "url": "https://www.youtube.com/watch?v=Z0m6K-n_Qkw",
            "duration": 3355.0,
            "view_count": 26630,
            "uploader": "Taarak Mehta Ka Ooltah Chashmah Episodes",
            "category": "taarak_mehta",
            "thumbnail": "https://i.ytimg.com/vi/Z0m6K-n_Qkw/hqdefault.jpg"
        },
        {
            "id": "MZwalzRP1-8",
            "title": "NEW! Ep 4670 - Ram Navmi Ke Avsar Par Jethalal Pe Aayi Musibat! | Taarak Mehta ka Ooltah Chashmah",
            "url": "https://www.youtube.com/watch?v=MZwalzRP1-8",
            "duration": 607.0,
            "view_count": 439899,
            "uploader": "Taarak Mehta Ka Ooltah Chashmah",
            "category": "taarak_mehta",
            "thumbnail": "https://i.ytimg.com/vi/MZwalzRP1-8/hq720.jpg"
        },
        {
            "id": "odZfYoeoFQI",
            "title": "छिपकली को देखकर डर गए Jetha और Bapuji | Taarak Mehta Ka Ooltah Chashmah | Sundar's Election",
            "url": "https://www.youtube.com/watch?v=odZfYoeoFQI",
            "duration": 3630.0,
            "view_count": 214300,
            "uploader": "Taarak Mehta Ka Ooltah Chashmah Episodes",
            "category": "taarak_mehta",
            "thumbnail": "https://i.ytimg.com/vi/odZfYoeoFQI/hq720.jpg"
        },
        {
            "id": "X--dxJ5-RGg",
            "title": "Hathi bhai aur Goli ka Hua khane ka Competetion !! | FULL MOVIE | Taarak Mehta Ka Ooltah Chashmah",
            "url": "https://www.youtube.com/watch?v=X--dxJ5-RGg",
            "duration": 3534.0,
            "view_count": 237771,
            "uploader": "Taarak Mehta Ka Ooltah Chashmah",
            "category": "taarak_mehta",
            "thumbnail": "https://i.ytimg.com/vi/X--dxJ5-RGg/hq720.jpg"
        },
        {
            "id": "fK_fGNREgQ0",
            "title": "Quiz In Gokuldham | Taarak Mehta Ka Ooltah Chashmah | Full Ep 4670 | 28 Mar 2026 | New Episode",
            "url": "https://www.youtube.com/watch?v=fK_fGNREgQ0",
            "duration": 1257.0,
            "view_count": 674494,
            "uploader": "Taarak Mehta Ka Ooltah Chashmah Episodes",
            "category": "taarak_mehta",
            "thumbnail": "https://i.ytimg.com/vi/fK_fGNREgQ0/hqdefault.jpg"
        },
        {
            "id": "7PV9qG19xFk",
            "title": "NEW! Ep 4670 - Ram Navmi Ke Avsar Par Jethalal Pe Aayi Musibat! | Taarak Mehta ka Ooltah Chashmah",
            "url": "https://www.youtube.com/watch?v=7PV9qG19xFk",
            "duration": 607.0,
            "view_count": 6415,
            "uploader": "Taarak Mehta Ka Ooltah Chashmah Episodes",
            "category": "taarak_mehta",
            "thumbnail": "https://i.ytimg.com/vi/7PV9qG19xFk/hq720.jpg"
        },
        {
            "id": "eqV55JVdavM",
            "title": "Bhide Face Many Obstacles | Taarak Mehta Ka Ooltah Chashmah | Full Episode",
            "url": "https://www.youtube.com/watch?v=eqV55JVdavM",
            "duration": 1231.0,
            "view_count": 116651,
            "uploader": "Taarak Mehta Ka Ooltah Chashmah Episodes",
            "category": "taarak_mehta",
            "thumbnail": "https://i.ytimg.com/vi/eqV55JVdavM/hq720.jpg"
        },
        {
            "id": "P3crpfoqU4E",
            "title": "किसने गिराया Jetha के कुर्ते पर रंग? | Taarak Mehta Ka Ooltah Chashmah | Daya Ki Maa",
            "url": "https://www.youtube.com/watch?v=P3crpfoqU4E",
            "duration": 3426.0,
            "view_count": 5718,
            "uploader": "Taarak Mehta Ka Ooltah Chashmah Episodes",
            "category": "taarak_mehta",
            "thumbnail": "https://i.ytimg.com/vi/P3crpfoqU4E/hq720.jpg"
        },
        {
            "id": "ivLCNpgmqKk",
            "title": "किसने चुराई Jetha की Lucky Bangle? | Taarak Mehta Ka Ooltah Chashmah | Party Sharty",
            "url": "https://www.youtube.com/watch?v=ivLCNpgmqKk",
            "duration": 3667.0,
            "view_count": 7048,
            "uploader": "Taarak Mehta Ka Ooltah Chashmah Episodes",
            "category": "taarak_mehta",
            "thumbnail": "https://i.ytimg.com/vi/ivLCNpgmqKk/hq720.jpg"
        },
        {
            "id": "UKOwIK_NUJ4",
            "title": "Bapuji Girte Girte Bach Gaye! | FULL MOVIE | Taarak Mehta Ka Ooltah Chashmah",
            "url": "https://www.youtube.com/watch?v=UKOwIK_NUJ4",
            "duration": 4610.0,
            "view_count": 14947714,
            "uploader": "Taarak Mehta Ka Ooltah Chashmah",
            "category": "taarak_mehta",
            "thumbnail": "https://i.ytimg.com/vi/UKOwIK_NUJ4/hq720.jpg"
        },
        {
            "id": "-WHcBbpLKXY",
            "title": "Jetha Gives The Maintenance Cheque To Bhide | Taarak Mehta Ka Ooltah Chashmah | Full Episode",
            "url": "https://www.youtube.com/watch?v=-WHcBbpLKXY",
            "duration": 1280.0,
            "view_count": 61987,
            "uploader": "Taarak Mehta Ka Ooltah Chashmah Episodes",
            "category": "taarak_mehta",
            "thumbnail": "https://i.ytimg.com/vi/-WHcBbpLKXY/hq720.jpg"
        },
        {
            "id": "h5jIP2XjYvA",
            "title": "Kiske Darr Se Popatlal Ped Par Chadh Gaya ! | TMKOC Hungama | EP 1173 | MINISODES",
            "url": "https://www.youtube.com/watch?v=h5jIP2XjYvA",
            "duration": 615.0,
            "view_count": 59244,
            "uploader": "TMKOC - MINISODES",
            "category": "taarak_mehta",
            "thumbnail": "https://i.ytimg.com/vi/h5jIP2XjYvA/hq720.jpg"
        },
        {
            "id": "Dwrigm8jnuw",
            "title": "Purush Mandli Ne Kyu Ki Popat Ki Dhulai !! | FULL MOVIE | Taarak Mehta Ka Ooltah Chashmah",
            "url": "https://www.youtube.com/watch?v=Dwrigm8jnuw",
            "duration": 2384.0,
            "view_count": 359005,
            "uploader": "Taarak Mehta Ka Ooltah Chashmah",
            "category": "taarak_mehta",
            "thumbnail": "https://i.ytimg.com/vi/Dwrigm8jnuw/hq720.jpg"
        },
        {
            "id": "V1_XHnlWb_w",
            "title": "Gokuldham Me Aaye Anokhe Guest | FULL MOVIE | Taarak Mehta Ka Ooltah Chashmah",
            "url": "https://www.youtube.com/watch?v=V1_XHnlWb_w",
            "duration": 3475.0,
            "view_count": 53467,
            "uploader": "Taarak Mehta Ka Ooltah Chashmah",
            "category": "taarak_mehta",
            "thumbnail": "https://i.ytimg.com/vi/V1_XHnlWb_w/hq720.jpg"
        },
        {
            "id": "PQ7aIeA5EQ0",
            "title": "Cricket के Costume में Jetha पहुंचा Society | Taarak Mehta Ka Ooltah Chashmah | Dog Chase",
            "url": "https://www.youtube.com/watch?v=PQ7aIeA5EQ0",
            "duration": 2365.0,
            "view_count": 5931,
            "uploader": "Taarak Mehta Ka Ooltah Chashmah Episodes",
            "category": "taarak_mehta",
            "thumbnail": "https://i.ytimg.com/vi/PQ7aIeA5EQ0/hq720.jpg"
        },
        {
            "id": "4D5YEEIDlUc",
            "title": "Daya & Madhavi's Fight Worry Everyone | Taarak Mehta Ka Ooltah Chashmah | Full Episode 152",
            "url": "https://www.youtube.com/watch?v=4D5YEEIDlUc",
            "duration": 1167.0,
            "view_count": 3663,
            "uploader": "Taarak Mehta Ka Ooltah Chashmah Episodes",
            "category": "taarak_mehta",
            "thumbnail": "https://i.ytimg.com/vi/4D5YEEIDlUc/hq720.jpg"
        },
        {
            "id": "83pfVpb4wpI",
            "title": "Nimbu Ke Chakkar Mai Poche Sab Jail | Taarak Mehta Ka Ooltah Chashmah | Full Movie",
            "url": "https://www.youtube.com/watch?v=83pfVpb4wpI",
            "duration": 3483.0,
            "view_count": 25622,
            "uploader": "Taarak Mehta Ka Ooltah Chashmah Episodes",
            "category": "taarak_mehta",
            "thumbnail": "https://i.ytimg.com/vi/83pfVpb4wpI/hq720.jpg"
        },
        {
            "id": "nz2luVk5rLM",
            "title": "Jethya ne Kyu Maroda Bapuji ka hath ! | FULL MOVIE | Taarak Mehta Ka Ooltah Chashmah",
            "url": "https://www.youtube.com/watch?v=nz2luVk5rLM",
            "duration": 2168.0,
            "view_count": 308891,
            "uploader": "Taarak Mehta Ka Ooltah Chashmah",
            "category": "taarak_mehta",
            "thumbnail": "https://i.ytimg.com/vi/nz2luVk5rLM/hq720.jpg"
        },
        {
            "id": "leg49wagkjY",
            "title": "Mahila mandal Kharid payenge Crore ka Necklace | Taarak Mehta Ka Ooltah Chashmah | Full Movie",
            "url": "https://www.youtube.com/watch?v=leg49wagkjY",
            "duration": 3150.0,
            "view_count": 1046,
            "uploader": "Taarak Mehta Ka Ooltah Chashmah Episodes",
            "category": "taarak_mehta",
            "thumbnail": "https://i.ytimg.com/vi/leg49wagkjY/hq720.jpg"
        },
        {
            "id": "H2WRKaPClic",
            "title": "सूर्य नमस्कार में Jetha को दिखा Sheru | Taarak Mehta Ka Ooltah Chashmah | Dog Chase",
            "url": "https://www.youtube.com/watch?v=H2WRKaPClic",
            "duration": 2307.0,
            "view_count": 21587,
            "uploader": "Taarak Mehta Ka Ooltah Chashmah Episodes",
            "category": "taarak_mehta",
            "thumbnail": "https://i.ytimg.com/vi/H2WRKaPClic/hq720.jpg"
        },
        {
            "id": "iOCyPZPa5ZY",
            "title": "Residents Seek A Buyer For The Ruby | Taarak Mehta Ka Ooltah Chashmah| Jetha Bapuji Special",
            "url": "https://www.youtube.com/watch?v=iOCyPZPa5ZY",
            "duration": 1415.0,
            "view_count": 40900,
            "uploader": "Taarak Mehta Ka Ooltah Chashmah Episodes",
            "category": "taarak_mehta",
            "thumbnail": "https://i.ytimg.com/vi/iOCyPZPa5ZY/hq720.jpg"
        }
    ]
}