{
    "page": 83,
    "total_pages": 103,
    "total_items": 5125,
    "items": [
        {
            "id": "uaRmHm35gh0",
            "title": "लॉटरी विजेता Oggy and the Cockroaches हिंदी Hindi Cartoons for Kids",
            "url": "https://www.youtube.com/watch?v=uaRmHm35gh0",
            "duration": 3611.0,
            "view_count": 368063,
            "uploader": "Oggy Hindi - हिन्दी",
            "category": "cartoons/oggy_and_the_cockroaches",
            "thumbnail": "https://i.ytimg.com/vi/uaRmHm35gh0/hq720.jpg"
        },
        {
            "id": "ISbO2Tap8vI",
            "title": "हिंदी Oggy and the Cockroaches 😨 चलती 🧳 Hindi Cartoons for Kids",
            "url": "https://www.youtube.com/watch?v=ISbO2Tap8vI",
            "duration": 1976.0,
            "view_count": 11947817,
            "uploader": "Oggy Hindi - हिन्दी",
            "category": "cartoons/oggy_and_the_cockroaches",
            "thumbnail": "https://i.ytimg.com/vi/ISbO2Tap8vI/hq720.jpg"
        },
        {
            "id": "NUUIzQsL4bI",
            "title": "शौचालयों में चॉकलेट खाना Oggy and the Cockroaches हिंदी  Hindi Cartoons for Kids",
            "url": "https://www.youtube.com/watch?v=NUUIzQsL4bI",
            "duration": 3582.0,
            "view_count": 179557,
            "uploader": "Oggy Hindi - हिन्दी",
            "category": "cartoons/oggy_and_the_cockroaches",
            "thumbnail": "https://i.ytimg.com/vi/NUUIzQsL4bI/hq720.jpg"
        },
        {
            "id": "dKw7bdk6hQ8",
            "title": "हिंदी Oggy and the Cockroaches ⛄❄ SNOW TIME ❄⛄ Hindi Cartoons for Kids",
            "url": "https://www.youtube.com/watch?v=dKw7bdk6hQ8",
            "duration": 1597.0,
            "view_count": 168023864,
            "uploader": "Oggy Hindi - हिन्दी",
            "category": "cartoons/oggy_and_the_cockroaches",
            "thumbnail": "https://i.ytimg.com/vi/dKw7bdk6hQ8/hq720.jpg"
        },
        {
            "id": "t5CNeUy8E0E",
            "title": "XXL कॉकरोच Oggy and the Cockroaches हिंदी Hindi Cartoons for Kids",
            "url": "https://www.youtube.com/watch?v=t5CNeUy8E0E",
            "duration": 1995.0,
            "view_count": 1731874,
            "uploader": "Oggy Hindi - हिन्दी",
            "category": "cartoons/oggy_and_the_cockroaches",
            "thumbnail": "https://i.ytimg.com/vi/t5CNeUy8E0E/hq720.jpg"
        },
        {
            "id": "0xfWiDNaoac",
            "title": "हिंदी Oggy and the Cockroaches कीड़े खाना Hindi Cartoons for Kids",
            "url": "https://www.youtube.com/watch?v=0xfWiDNaoac",
            "duration": 3509.0,
            "view_count": 811929,
            "uploader": "Oggy Hindi - हिन्दी",
            "category": "cartoons/oggy_and_the_cockroaches",
            "thumbnail": "https://i.ytimg.com/vi/0xfWiDNaoac/hq720.jpg"
        },
        {
            "id": "U8nj-g_grOI",
            "title": "आखिरी टुकड़ा Oggy and the Cockroaches हिंदी Hindi Cartoons for Kids",
            "url": "https://www.youtube.com/watch?v=U8nj-g_grOI",
            "duration": 1984.0,
            "view_count": 448320,
            "uploader": "Oggy Hindi - हिन्दी",
            "category": "cartoons/oggy_and_the_cockroaches",
            "thumbnail": "https://i.ytimg.com/vi/U8nj-g_grOI/hq720.jpg"
        },
        {
            "id": "A0BrY02WliU",
            "title": "Oggy And The Cockroaches Movie (Cafards) In Hindi",
            "url": "https://www.youtube.com/watch?v=A0BrY02WliU",
            "duration": 5128.0,
            "view_count": 870383,
            "uploader": "Search If You Can",
            "category": "cartoons/oggy_and_the_cockroaches",
            "thumbnail": "https://i.ytimg.com/vi/A0BrY02WliU/hqdefault.jpg"
        },
        {
            "id": "hwIlSGZpRkw",
            "title": "हिंदी Oggy and the Cockroaches 😍 शादी 💍 Hindi Cartoons for Kids",
            "url": "https://www.youtube.com/watch?v=hwIlSGZpRkw",
            "duration": 1961.0,
            "view_count": 2316852,
            "uploader": "Oggy Hindi - हिन्दी",
            "category": "cartoons/oggy_and_the_cockroaches",
            "thumbnail": "https://i.ytimg.com/vi/hwIlSGZpRkw/hq720.jpg"
        },
        {
            "id": "FTIG1E4V1Z0",
            "title": "हिंदी Oggy and the Cockroaches 😰 जैक की नई नौकरी Hindi Cartoons for Kids",
            "url": "https://www.youtube.com/watch?v=FTIG1E4V1Z0",
            "duration": 3120.0,
            "view_count": 2668164,
            "uploader": "Oggy Hindi - हिन्दी",
            "category": "cartoons/oggy_and_the_cockroaches",
            "thumbnail": "https://i.ytimg.com/vi/FTIG1E4V1Z0/hq720.jpg"
        },
        {
            "id": "Ea7E0qaiPKE",
            "title": "हिंदी Oggy and the Cockroaches 👶 शिशुओं Hindi Cartoons for Kids",
            "url": "https://www.youtube.com/watch?v=Ea7E0qaiPKE",
            "duration": 2358.0,
            "view_count": 8036619,
            "uploader": "Oggy Hindi - हिन्दी",
            "category": "cartoons/oggy_and_the_cockroaches",
            "thumbnail": "https://i.ytimg.com/vi/Ea7E0qaiPKE/hq720.jpg"
        },
        {
            "id": "ksNWtudKZ2c",
            "title": "हिंदी Oggy and the Cockroaches 😺 बिल्ली का भोजन Hindi Cartoons for Kids",
            "url": "https://www.youtube.com/watch?v=ksNWtudKZ2c",
            "duration": 1931.0,
            "view_count": 5219566,
            "uploader": "Oggy Hindi - हिन्दी",
            "category": "cartoons/oggy_and_the_cockroaches",
            "thumbnail": "https://i.ytimg.com/vi/ksNWtudKZ2c/hq720.jpg"
        },
        {
            "id": "YkxyFZQuR9U",
            "title": "लिफ्ट में अफरा-तफरी मच गई Oggy and the Cockroaches हिंदी Hindi Cartoons for Kids",
            "url": "https://www.youtube.com/watch?v=YkxyFZQuR9U",
            "duration": 3562.0,
            "view_count": 416625,
            "uploader": "Oggy Hindi - हिन्दी",
            "category": "cartoons/oggy_and_the_cockroaches",
            "thumbnail": "https://i.ytimg.com/vi/YkxyFZQuR9U/hq720.jpg"
        },
        {
            "id": "u7KYyMV7JxA",
            "title": "हिंदी Oggy and the Cockroaches 🦋 तितलियां Hindi Cartoons for Kids",
            "url": "https://www.youtube.com/watch?v=u7KYyMV7JxA",
            "duration": 2775.0,
            "view_count": 7076794,
            "uploader": "Oggy Hindi - हिन्दी",
            "category": "cartoons/oggy_and_the_cockroaches",
            "thumbnail": "https://i.ytimg.com/vi/u7KYyMV7JxA/hq720.jpg"
        },
        {
            "id": "5PE2V2LRcPY",
            "title": "जैक की गलती Oggy and the Cockroaches हिंदी Hindi Cartoons for Kids",
            "url": "https://www.youtube.com/watch?v=5PE2V2LRcPY",
            "duration": 3585.0,
            "view_count": 438564,
            "uploader": "Oggy Hindi - हिन्दी",
            "category": "cartoons/oggy_and_the_cockroaches",
            "thumbnail": "https://i.ytimg.com/vi/5PE2V2LRcPY/hq720.jpg"
        },
        {
            "id": "ThI57Ih5B58",
            "title": "अलविदा घर Oggy and the Cockroaches हिंदी Hindi Cartoons for Kids",
            "url": "https://www.youtube.com/watch?v=ThI57Ih5B58",
            "duration": 3584.0,
            "view_count": 256014,
            "uploader": "Oggy Hindi - हिन्दी",
            "category": "cartoons/oggy_and_the_cockroaches",
            "thumbnail": "https://i.ytimg.com/vi/ThI57Ih5B58/hq720.jpg"
        },
        {
            "id": "NWMVo6c2EHQ",
            "title": "हिंदी Oggy and the Cockroaches 🚘 TO FIX A CAR 🚘 Hindi Cartoons for Kids",
            "url": "https://www.youtube.com/watch?v=NWMVo6c2EHQ",
            "duration": 1573.0,
            "view_count": 18985960,
            "uploader": "Oggy Hindi - हिन्दी",
            "category": "cartoons/oggy_and_the_cockroaches",
            "thumbnail": "https://i.ytimg.com/vi/NWMVo6c2EHQ/hq720.jpg"
        },
        {
            "id": "MlJfixx2dAM",
            "title": "हिंदी Oggy and the Cockroaches ☝️ Yes my commander ☝️ Hindi Cartoons for Kids",
            "url": "https://www.youtube.com/watch?v=MlJfixx2dAM",
            "duration": 1592.0,
            "view_count": 41125662,
            "uploader": "Oggy Hindi - हिन्दी",
            "category": "cartoons/oggy_and_the_cockroaches",
            "thumbnail": "https://i.ytimg.com/vi/MlJfixx2dAM/hq720.jpg"
        },
        {
            "id": "2-41yjLXGo0",
            "title": "हिंदी Oggy and the Cockroaches 😱 एक ख़राब खेल  Hindi Cartoons for Kids",
            "url": "https://www.youtube.com/watch?v=2-41yjLXGo0",
            "duration": 3182.0,
            "view_count": 9077468,
            "uploader": "Oggy Hindi - हिन्दी",
            "category": "cartoons/oggy_and_the_cockroaches",
            "thumbnail": "https://i.ytimg.com/vi/2-41yjLXGo0/hq720.jpg"
        },
        {
            "id": "D62sUNrM0LQ",
            "title": "रेल यात्रा Oggy and the Cockroaches हिंदी Hindi Cartoons for Kids",
            "url": "https://www.youtube.com/watch?v=D62sUNrM0LQ",
            "duration": 1968.0,
            "view_count": 993991,
            "uploader": "Oggy Hindi - हिन्दी",
            "category": "cartoons/oggy_and_the_cockroaches",
            "thumbnail": "https://i.ytimg.com/vi/D62sUNrM0LQ/hq720.jpg"
        },
        {
            "id": "z9rH9xkdpuI",
            "title": "आज रात तबाही Oggy and the Cockroaches हिंदी Hindi Cartoons for Kids",
            "url": "https://www.youtube.com/watch?v=z9rH9xkdpuI",
            "duration": 3512.0,
            "view_count": 692879,
            "uploader": "Oggy Hindi - हिन्दी",
            "category": "cartoons/various_cartoons",
            "thumbnail": "https://i.ytimg.com/vi/z9rH9xkdpuI/hq720.jpg"
        },
        {
            "id": "iwK6rOr-yYc",
            "title": "हिंदी Oggy and the Cockroaches 🤩 जादुई शर्बत 🤩 Hindi Cartoons for Kids",
            "url": "https://www.youtube.com/watch?v=iwK6rOr-yYc",
            "duration": 1965.0,
            "view_count": 12488125,
            "uploader": "Oggy Hindi - हिन्दी",
            "category": "cartoons/oggy_and_the_cockroaches",
            "thumbnail": "https://i.ytimg.com/vi/iwK6rOr-yYc/hq720.jpg"
        },
        {
            "id": "5hYK4iXot8E",
            "title": "हिंदी Oggy and the Cockroaches 😱 नया ऑगी Hindi Cartoons for Kids",
            "url": "https://www.youtube.com/watch?v=5hYK4iXot8E",
            "duration": 2003.0,
            "view_count": 13423709,
            "uploader": "Oggy Hindi - हिन्दी",
            "category": "cartoons/oggy_and_the_cockroaches",
            "thumbnail": "https://i.ytimg.com/vi/5hYK4iXot8E/hq720.jpg"
        },
        {
            "id": "pazban3p5YQ",
            "title": "टकराव Oggy and the Cockroaches हिंदी Hindi Cartoons for Kids",
            "url": "https://www.youtube.com/watch?v=pazban3p5YQ",
            "duration": 1988.0,
            "view_count": 1022104,
            "uploader": "Oggy Hindi - हिन्दी",
            "category": "cartoons/oggy_and_the_cockroaches",
            "thumbnail": "https://i.ytimg.com/vi/pazban3p5YQ/hq720.jpg"
        },
        {
            "id": "odHXXx3aaw4",
            "title": "हिंदी Oggy and the Cockroaches 🤤 भोजन Hindi Cartoons for Kids",
            "url": "https://www.youtube.com/watch?v=odHXXx3aaw4",
            "duration": 2013.0,
            "view_count": 7393172,
            "uploader": "Oggy Hindi - हिन्दी",
            "category": "cartoons/oggy_and_the_cockroaches",
            "thumbnail": "https://i.ytimg.com/vi/odHXXx3aaw4/hq720.jpg"
        },
        {
            "id": "FKjZePkjSzY",
            "title": "हिंदी Oggy and the Cockroaches 💸 पैसा पैसा और पैसा 💸 Hindi Cartoons for Kids",
            "url": "https://www.youtube.com/watch?v=FKjZePkjSzY",
            "duration": 3545.0,
            "view_count": 7139358,
            "uploader": "Oggy Hindi - हिन्दी",
            "category": "cartoons/oggy_and_the_cockroaches",
            "thumbnail": "https://i.ytimg.com/vi/FKjZePkjSzY/hq720.jpg"
        },
        {
            "id": "9Y89hLavHos",
            "title": "हिंदी Oggy and the Cockroaches 😳 नया जॉय Hindi Cartoons for Kids",
            "url": "https://www.youtube.com/watch?v=9Y89hLavHos",
            "duration": 1600.0,
            "view_count": 3019176,
            "uploader": "Oggy Hindi - हिन्दी",
            "category": "cartoons/oggy_and_the_cockroaches",
            "thumbnail": "https://i.ytimg.com/vi/9Y89hLavHos/hq720.jpg"
        },
        {
            "id": "FI0vlZ83KLM",
            "title": "ओलिविया का चुटकुला Oggy and the Cockroaches हिंदी Hindi Cartoons for Kids",
            "url": "https://www.youtube.com/watch?v=FI0vlZ83KLM",
            "duration": 1982.0,
            "view_count": 469355,
            "uploader": "Oggy Hindi - हिन्दी",
            "category": "cartoons/oggy_and_the_cockroaches",
            "thumbnail": "https://i.ytimg.com/vi/FI0vlZ83KLM/hq720.jpg"
        },
        {
            "id": "1xf76r-TejA",
            "title": "तिलचट्टों का प्रकोप! Oggy and the Cockroaches हिंदी Hindi Cartoons for Kids",
            "url": "https://www.youtube.com/watch?v=1xf76r-TejA",
            "duration": 3492.0,
            "view_count": 285458,
            "uploader": "Oggy Hindi - हिन्दी",
            "category": "cartoons/oggy_and_the_cockroaches",
            "thumbnail": "https://i.ytimg.com/vi/1xf76r-TejA/hq720.jpg"
        },
        {
            "id": "D1wzZgrhKTQ",
            "title": "हिंदी Oggy and the Cockroaches 😬 भुना हुआ बिल्ली 😬 Hindi Cartoons for Kids",
            "url": "https://www.youtube.com/watch?v=D1wzZgrhKTQ",
            "duration": 2005.0,
            "view_count": 20538075,
            "uploader": "Oggy Hindi - हिन्दी",
            "category": "cartoons/oggy_and_the_cockroaches",
            "thumbnail": "https://i.ytimg.com/vi/D1wzZgrhKTQ/hq720.jpg"
        },
        {
            "id": "cf4bGgoev3E",
            "title": "भविष्य में Oggy and the Cockroaches हिंदी  Hindi Cartoons for Kids",
            "url": "https://www.youtube.com/watch?v=cf4bGgoev3E",
            "duration": 1996.0,
            "view_count": 837123,
            "uploader": "Oggy Hindi - हिन्दी",
            "category": "cartoons/oggy_and_the_cockroaches",
            "thumbnail": "https://i.ytimg.com/vi/cf4bGgoev3E/hq720.jpg"
        },
        {
            "id": "NTfricMEons",
            "title": "हिंदी Oggy and the Cockroaches 🥪 WHAT A BEAUTIFUL SANDWICH 🥪 Hindi Cartoons for Kids",
            "url": "https://www.youtube.com/watch?v=NTfricMEons",
            "duration": 1987.0,
            "view_count": 11139739,
            "uploader": "Oggy Hindi - हिन्दी",
            "category": "cartoons/oggy_and_the_cockroaches",
            "thumbnail": "https://i.ytimg.com/vi/NTfricMEons/hq720.jpg"
        },
        {
            "id": "fEZDNM6fP48",
            "title": "हिंदी Oggy and the Cockroaches शीतकालीन छुट्टियाँ Hindi Cartoons for Kids",
            "url": "https://www.youtube.com/watch?v=fEZDNM6fP48",
            "duration": 4010.0,
            "view_count": 677832,
            "uploader": "Oggy Hindi - हिन्दी",
            "category": "cartoons/oggy_and_the_cockroaches",
            "thumbnail": "https://i.ytimg.com/vi/fEZDNM6fP48/hq720.jpg"
        },
        {
            "id": "KveVM6BcOLA",
            "title": "छोटा मस्तिष्क Oggy and the Cockroaches हिंदी Hindi Cartoons for Kids",
            "url": "https://www.youtube.com/watch?v=KveVM6BcOLA",
            "duration": 1923.0,
            "view_count": 953049,
            "uploader": "Oggy Hindi - हिन्दी",
            "category": "cartoons/oggy_and_the_cockroaches",
            "thumbnail": "https://i.ytimg.com/vi/KveVM6BcOLA/hq720.jpg"
        },
        {
            "id": "umJKas06sEg",
            "title": "खेत में ओग्गी Oggy and the Cockroaches हिंदी Hindi Cartoons for Kids",
            "url": "https://www.youtube.com/watch?v=umJKas06sEg",
            "duration": 3554.0,
            "view_count": 679748,
            "uploader": "Oggy Hindi - हिन्दी",
            "category": "cartoons/oggy_and_the_cockroaches",
            "thumbnail": "https://i.ytimg.com/vi/umJKas06sEg/hq720.jpg"
        },
        {
            "id": "eVoke05WS8Y",
            "title": "हिंदी Oggy and the Cockroaches 🥺 तिलचट्टों को रिहा करो 🥺 Hindi Cartoons for Kids",
            "url": "https://www.youtube.com/watch?v=eVoke05WS8Y",
            "duration": 3928.0,
            "view_count": 10049057,
            "uploader": "Oggy Hindi - हिन्दी",
            "category": "cartoons/oggy_and_the_cockroaches",
            "thumbnail": "https://i.ytimg.com/vi/eVoke05WS8Y/hq720.jpg"
        },
        {
            "id": "qEQ8FOabDYg",
            "title": "यह पागलपन है! Oggy and the Cockroaches हिंदी Hindi Cartoons for Kids",
            "url": "https://www.youtube.com/watch?v=qEQ8FOabDYg",
            "duration": 3561.0,
            "view_count": 675909,
            "uploader": "Oggy Hindi - हिन्दी",
            "category": "cartoons/oggy_and_the_cockroaches",
            "thumbnail": "https://i.ytimg.com/vi/qEQ8FOabDYg/hq720.jpg"
        },
        {
            "id": "atlcVbPul4E",
            "title": "हिंदी Oggy and the Cockroaches 🌧️ मानसून Hindi Cartoons for Kids",
            "url": "https://www.youtube.com/watch?v=atlcVbPul4E",
            "duration": 3178.0,
            "view_count": 3872399,
            "uploader": "Oggy Hindi - हिन्दी",
            "category": "cartoons/oggy_and_the_cockroaches",
            "thumbnail": "https://i.ytimg.com/vi/atlcVbPul4E/hq720.jpg"
        },
        {
            "id": "_oYLzJ8g3eM",
            "title": "ओगी के बच्चे Oggy and the Cockroaches हिंदी Hindi Cartoons for Kids",
            "url": "https://www.youtube.com/watch?v=_oYLzJ8g3eM",
            "duration": 2001.0,
            "view_count": 267019,
            "uploader": "Oggy Hindi - हिन्दी",
            "category": "cartoons/oggy_and_the_cockroaches",
            "thumbnail": "https://i.ytimg.com/vi/_oYLzJ8g3eM/hq720.jpg"
        },
        {
            "id": "TG96UUxwYVE",
            "title": "हिंदी Oggy and the Cockroaches 🧐 ऑगी 2 Hindi Cartoons for Kids",
            "url": "https://www.youtube.com/watch?v=TG96UUxwYVE",
            "duration": 3175.0,
            "view_count": 23560538,
            "uploader": "Oggy Hindi - हिन्दी",
            "category": "cartoons/oggy_and_the_cockroaches",
            "thumbnail": "https://i.ytimg.com/vi/TG96UUxwYVE/hq720.jpg"
        },
        {
            "id": "Pp88P1G0YlE",
            "title": "हिंदी Oggy and the Cockroaches तिलचट्टे और गाय Hindi Cartoons for Kids",
            "url": "https://www.youtube.com/watch?v=Pp88P1G0YlE",
            "duration": 1966.0,
            "view_count": 311876,
            "uploader": "Oggy Hindi - हिन्दी",
            "category": "cartoons/oggy_and_the_cockroaches",
            "thumbnail": "https://i.ytimg.com/vi/Pp88P1G0YlE/hq720.jpg"
        },
        {
            "id": "num6jhoKSd8",
            "title": "हिंदी Oggy and the Cockroaches 🌈 नया रंग 🌈Hindi Cartoons for Kids",
            "url": "https://www.youtube.com/watch?v=num6jhoKSd8",
            "duration": 1967.0,
            "view_count": 12436685,
            "uploader": "Oggy Hindi - हिन्दी",
            "category": "cartoons/oggy_and_the_cockroaches",
            "thumbnail": "https://i.ytimg.com/vi/num6jhoKSd8/hq720.jpg"
        },
        {
            "id": "SF0KV0zi2lc",
            "title": "चेतावनी खतरा Oggy and the Cockroaches हिंदी Hindi Cartoons for Kids",
            "url": "https://www.youtube.com/watch?v=SF0KV0zi2lc",
            "duration": 3556.0,
            "view_count": 363160,
            "uploader": "Oggy Hindi - हिन्दी",
            "category": "cartoons/oggy_and_the_cockroaches",
            "thumbnail": "https://i.ytimg.com/vi/SF0KV0zi2lc/hq720.jpg"
        },
        {
            "id": "w_xSKdWOEE4",
            "title": "हिंदी Oggy and the Cockroaches 🏃 3-2-1 GOOO 💥 Hindi Cartoons for Kids",
            "url": "https://www.youtube.com/watch?v=w_xSKdWOEE4",
            "duration": 2002.0,
            "view_count": 10648375,
            "uploader": "Oggy Hindi - हिन्दी",
            "category": "cartoons/oggy_and_the_cockroaches",
            "thumbnail": "https://i.ytimg.com/vi/w_xSKdWOEE4/hq720.jpg"
        },
        {
            "id": "VrB8mTcitFk",
            "title": "नालियों में एक सैर Oggy and the Cockroaches हिंदी Hindi Cartoons for Kids",
            "url": "https://www.youtube.com/watch?v=VrB8mTcitFk",
            "duration": 1963.0,
            "view_count": 304754,
            "uploader": "Oggy Hindi - हिन्दी",
            "category": "cartoons/oggy_and_the_cockroaches",
            "thumbnail": "https://i.ytimg.com/vi/VrB8mTcitFk/hq720.jpg"
        },
        {
            "id": "Q_OEf6tzMfY",
            "title": "Oggy and the Cockroaches 🚫 BAD BUZZ - Full Episodes HD",
            "url": "https://www.youtube.com/watch?v=Q_OEf6tzMfY",
            "duration": 3255.0,
            "view_count": 2937206,
            "uploader": "Oggy & his friends",
            "category": "cartoons/oggy_and_the_cockroaches",
            "thumbnail": "https://i.ytimg.com/vi/Q_OEf6tzMfY/hq720.jpg"
        },
        {
            "id": "Lr9guLa0Ego",
            "title": "Doggy Don आया Chinese Restaurant | Pakdam Pakdai",
            "url": "https://www.youtube.com/watch?v=Lr9guLa0Ego",
            "duration": 1450.0,
            "view_count": 128115,
            "uploader": "Pakdam Pakdai",
            "category": "cartoons/pakdam_pakdai",
            "thumbnail": "https://i.ytimg.com/vi/Lr9guLa0Ego/hq720.jpg"
        },
        {
            "id": "5AdCNNxdVyc",
            "title": "Raja Doggy Don ने बनाया चूहों का भरता 😱🐭 | Pakdam Pakdai",
            "url": "https://www.youtube.com/watch?v=5AdCNNxdVyc",
            "duration": 1251.0,
            "view_count": 292816,
            "uploader": "Pakdam Pakdai",
            "category": "cartoons/pakdam_pakdai",
            "thumbnail": "https://i.ytimg.com/vi/5AdCNNxdVyc/hq720.jpg"
        },
        {
            "id": "rcOThdhKYyM",
            "title": "Pakdam Pakdai | Full Episode | वाह! इसे कहते हैं—जिस थाली में खाना, उसी में छेद करना! 🍽️😲🔪",
            "url": "https://www.youtube.com/watch?v=rcOThdhKYyM",
            "duration": 1065.0,
            "view_count": 786940,
            "uploader": "Sonic Gang",
            "category": "cartoons/pakdam_pakdai",
            "thumbnail": "https://i.ytimg.com/vi/rcOThdhKYyM/hq720.jpg"
        },
        {
            "id": "UYi7OpmoqNg",
            "title": "Pakdam Pakdai | Full Episode | Motu पी गया Doggy Don की पूरी चाय",
            "url": "https://www.youtube.com/watch?v=UYi7OpmoqNg",
            "duration": 1060.0,
            "view_count": 1412971,
            "uploader": "Sonic Gang",
            "category": "cartoons/pakdam_pakdai",
            "thumbnail": "https://i.ytimg.com/vi/UYi7OpmoqNg/hq720.jpg"
        }
    ]
}