{
    "page": 97,
    "total_pages": 103,
    "total_items": 5125,
    "items": [
        {
            "id": "gu-menHpr4M",
            "title": "Super Bheem - A Super Monkey living under a Tree | Cartoons for Kids | Adventure Videos in Hindi",
            "url": "https://www.youtube.com/watch?v=gu-menHpr4M",
            "duration": 2710.0,
            "view_count": 10999049,
            "uploader": "Super Bheem",
            "category": "cartoons/super_bheem",
            "thumbnail": "https://i.ytimg.com/vi/gu-menHpr4M/hq720.jpg"
        },
        {
            "id": "AgY5PEl9I1w",
            "title": "Super Bheem Vs Super Villains - Chapter 3 - Fufanki’s Evil Spell | Cartoons for Kids in Hindi",
            "url": "https://www.youtube.com/watch?v=AgY5PEl9I1w",
            "duration": 1831.0,
            "view_count": 85819,
            "uploader": "Super Bheem",
            "category": "cartoons/super_bheem",
            "thumbnail": "https://i.ytimg.com/vi/AgY5PEl9I1w/hq720.jpg"
        },
        {
            "id": "h6k7LgMw9VI",
            "title": "Chhota Bheem - Space Battle | Cartoons for Kids | Funny Kids Videos",
            "url": "https://www.youtube.com/watch?v=h6k7LgMw9VI",
            "duration": 1809.0,
            "view_count": 1328118,
            "uploader": "Green Gold TV - Official Channel",
            "category": "cartoons/super_bheem",
            "thumbnail": "https://i.ytimg.com/vi/h6k7LgMw9VI/hq720.jpg"
        },
        {
            "id": "M_FKqWJUkhM",
            "title": "Chhota Bheem - Dasha Vinaash Attacks Krishna | Cartoons for Kids | Fun Kids Videos",
            "url": "https://www.youtube.com/watch?v=M_FKqWJUkhM",
            "duration": 1816.0,
            "view_count": 3700414,
            "uploader": "Green Gold Kids",
            "category": "cartoons/super_bheem",
            "thumbnail": "https://i.ytimg.com/vi/M_FKqWJUkhM/hq720.jpg"
        },
        {
            "id": "LCbWly-rC5g",
            "title": "Super Bheem - Super Train | Animated cartoons for kids | Stories for Kids",
            "url": "https://www.youtube.com/watch?v=LCbWly-rC5g",
            "duration": 1838.0,
            "view_count": 2076549,
            "uploader": "Super Bheem",
            "category": "cartoons/super_bheem",
            "thumbnail": "https://i.ytimg.com/vi/LCbWly-rC5g/hq720.jpg"
        },
        {
            "id": "AXSrNL_99AQ",
            "title": "Super Bheem - Kya Bheem Punah Uthega? | Cartoon for Kids in Hindi | Adventure Videos",
            "url": "https://www.youtube.com/watch?v=AXSrNL_99AQ",
            "duration": 636.0,
            "view_count": 472685,
            "uploader": "Super Bheem",
            "category": "cartoons/super_bheem",
            "thumbnail": "https://i.ytimg.com/vi/AXSrNL_99AQ/hq720.jpg"
        },
        {
            "id": "1R9kEfykqT4",
            "title": "Chhota Bheem - Demon King ka Raaz | Hindi Movie | Cartoon for kids",
            "url": "https://www.youtube.com/watch?v=1R9kEfykqT4",
            "duration": 653.0,
            "view_count": 34827,
            "uploader": "Green Gold Movies",
            "category": "cartoons/super_bheem",
            "thumbnail": "https://i.ytimg.com/vi/1R9kEfykqT4/hq720.jpg"
        },
        {
            "id": "vpu6yFxmUQ8",
            "title": "Super Bheem - Care of the Baby Alien | Cartoon for Kids in Hindi | Adventure Videos",
            "url": "https://www.youtube.com/watch?v=vpu6yFxmUQ8",
            "duration": 1326.0,
            "view_count": 68362,
            "uploader": "Super Bheem",
            "category": "cartoons/super_bheem",
            "thumbnail": "https://i.ytimg.com/vi/vpu6yFxmUQ8/hq720.jpg"
        },
        {
            "id": "1sARdYKPDL0",
            "title": "Tik Tak Tail Rabbit Tak Funny Cartoon Compilation",
            "url": "https://www.youtube.com/watch?v=1sARdYKPDL0",
            "duration": 832.0,
            "view_count": 777137,
            "uploader": "FHKidsTV - Funny Happy Kids TV",
            "category": "cartoons/tik_tak_tail",
            "thumbnail": "https://i.ytimg.com/vi/1sARdYKPDL0/hq720.jpg"
        },
        {
            "id": "EI7xkNzad4o",
            "title": "Tik Tak Tail | Invisible Menace | Cartoon Compilation | Videos For Kids | WildBrain Cartoons",
            "url": "https://www.youtube.com/watch?v=EI7xkNzad4o",
            "duration": 826.0,
            "view_count": 5371,
            "uploader": "WildBrain Kids",
            "category": "cartoons/tik_tak_tail",
            "thumbnail": "https://i.ytimg.com/vi/EI7xkNzad4o/hqdefault.jpg"
        },
        {
            "id": "1nIa1cEjxKY",
            "title": "Tik tak tail Non Stop entertainment",
            "url": "https://www.youtube.com/watch?v=1nIa1cEjxKY",
            "duration": 1684.0,
            "view_count": 301750,
            "uploader": "Nature",
            "category": "cartoons/tik_tak_tail",
            "thumbnail": "https://i.ytimg.com/vi/1nIa1cEjxKY/hqdefault.jpg"
        },
        {
            "id": "lBoLspGsTCY",
            "title": "การ์ตูน ไทย Tik Tak Tail - การ์ตูน ไทย เสือซน ตอนที่ 37 (Best Episode)| หนังการ์ตูน ตลก",
            "url": "https://www.youtube.com/watch?v=lBoLspGsTCY",
            "duration": 2554.0,
            "view_count": 4954,
            "uploader": "Kids Thailand",
            "category": "cartoons/tik_tak_tail",
            "thumbnail": "https://i.ytimg.com/vi/lBoLspGsTCY/hq720.jpg"
        },
        {
            "id": "NYFQQplBlkM",
            "title": "Tik Tak Tail | Rabbit Tak | Funny Cartoon Compilation | Wildbrain Cartoons For Kids",
            "url": "https://www.youtube.com/watch?v=NYFQQplBlkM",
            "duration": 832.0,
            "view_count": 1232,
            "uploader": "WildBrain Preschool",
            "category": "cartoons/tik_tak_tail",
            "thumbnail": "https://i.ytimg.com/vi/NYFQQplBlkM/hq720.jpg"
        },
        {
            "id": "2LqmMWnEHJA",
            "title": "Tik Tak Tail | Invisible Menace | Funny Videos For Kids| Videos For Kids | WildBrain Cartoon",
            "url": "https://www.youtube.com/watch?v=2LqmMWnEHJA",
            "duration": 826.0,
            "view_count": 810,
            "uploader": "WildBrain Action Arena",
            "category": "cartoons/tik_tak_tail",
            "thumbnail": "https://i.ytimg.com/vi/2LqmMWnEHJA/hqdefault.jpg"
        },
        {
            "id": "JrlonPwUO2k",
            "title": "การ์ตูน ไทย Tik Tak Tail - การ์ตูน ไทย เสือซน ตอนที่ 39 (Best Episode)| หนังการ์ตูน ตลก",
            "url": "https://www.youtube.com/watch?v=JrlonPwUO2k",
            "duration": 2552.0,
            "view_count": 4835,
            "uploader": "Kids Thailand",
            "category": "cartoons/tik_tak_tail",
            "thumbnail": "https://i.ytimg.com/vi/JrlonPwUO2k/hq720.jpg"
        },
        {
            "id": "kdJIheLE4ok",
            "title": "TIK TAK TAIL | Shark Attack | Cartoons For Children | Cartoons For Children | WildBrain",
            "url": "https://www.youtube.com/watch?v=kdJIheLE4ok",
            "duration": 854.0,
            "view_count": 2315,
            "uploader": "WildBrain Zoo",
            "category": "cartoons/tik_tak_tail",
            "thumbnail": "https://i.ytimg.com/vi/kdJIheLE4ok/hq720.jpg"
        },
        {
            "id": "AJuopvdYsQI",
            "title": "Tik Tak Tail | Shooting Range | Funny Cartoon Compilation | Wildbrain Cartoons For Kids",
            "url": "https://www.youtube.com/watch?v=AJuopvdYsQI",
            "duration": 851.0,
            "view_count": 918,
            "uploader": "WildBrain Preschool",
            "category": "cartoons/tik_tak_tail",
            "thumbnail": "https://i.ytimg.com/vi/AJuopvdYsQI/hq720.jpg"
        },
        {
            "id": "SduMu9JXy88",
            "title": "การ์ตูน ไทย Tik Tak Tail - การ์ตูน ไทย เสือซน ตอนที่ 40 (Best Episode)| หนังการ์ตูน ตลก",
            "url": "https://www.youtube.com/watch?v=SduMu9JXy88",
            "duration": 2630.0,
            "view_count": 6680,
            "uploader": "Kids Thailand",
            "category": "cartoons/tik_tak_tail",
            "thumbnail": "https://i.ytimg.com/vi/SduMu9JXy88/hq720.jpg"
        },
        {
            "id": "zU4qyBk5g9o",
            "title": "Tik Tak Tail | Invisible Menace | Cartoon Compilation | Funny Cartoons| WildBrain Kids",
            "url": "https://www.youtube.com/watch?v=zU4qyBk5g9o",
            "duration": 826.0,
            "view_count": 1191,
            "uploader": "WildBrain Action Arena",
            "category": "cartoons/tik_tak_tail",
            "thumbnail": "https://i.ytimg.com/vi/zU4qyBk5g9o/hqdefault.jpg"
        },
        {
            "id": "QMvHzkIQUNM",
            "title": "Tik Tak Tail | No Burrow | Funny Cartoon Compilation | Cartoons for Children",
            "url": "https://www.youtube.com/watch?v=QMvHzkIQUNM",
            "duration": 839.0,
            "view_count": 5351,
            "uploader": "WildBrain Circus ",
            "category": "cartoons/tik_tak_tail",
            "thumbnail": "https://i.ytimg.com/vi/QMvHzkIQUNM/hq720.jpg"
        },
        {
            "id": "m1tzhIq4P6g",
            "title": "Tik Tak Tail | Furniture Trouble | Cartoon Compilation | Videos For Kids | WildBrain Cartoons",
            "url": "https://www.youtube.com/watch?v=m1tzhIq4P6g",
            "duration": 854.0,
            "view_count": 3967,
            "uploader": "WildBrain Kids",
            "category": "cartoons/tik_tak_tail",
            "thumbnail": "https://i.ytimg.com/vi/m1tzhIq4P6g/hq720.jpg"
        },
        {
            "id": "kBw4vhZeufg",
            "title": "Tik Tak Tail | Robotic Carrot | Cartoons for Children | WildBrain Cartoons",
            "url": "https://www.youtube.com/watch?v=kBw4vhZeufg",
            "duration": 837.0,
            "view_count": 11151,
            "uploader": "WildBrain Kids",
            "category": "cartoons/tik_tak_tail",
            "thumbnail": "https://i.ytimg.com/vi/kBw4vhZeufg/hq720.jpg"
        },
        {
            "id": "dKEGFQlCNhQ",
            "title": "Tik Tak Tail - No Burrow | Cartoon Compilation | Videos For Kids | WildBrain Cartoons",
            "url": "https://www.youtube.com/watch?v=dKEGFQlCNhQ",
            "duration": 839.0,
            "view_count": 3929,
            "uploader": "WildBrain Kids",
            "category": "cartoons/tik_tak_tail",
            "thumbnail": "https://i.ytimg.com/vi/dKEGFQlCNhQ/hq720.jpg"
        },
        {
            "id": "yCJ9x-T3cpw",
            "title": "Tik Tak Tail | Snow World | Funny Cartoon Compilation | WildBrain Cartoons",
            "url": "https://www.youtube.com/watch?v=yCJ9x-T3cpw",
            "duration": 818.0,
            "view_count": 1127,
            "uploader": "WildBrain Hero Tower",
            "category": "cartoons/tik_tak_tail",
            "thumbnail": "https://i.ytimg.com/vi/yCJ9x-T3cpw/hq720.jpg"
        },
        {
            "id": "FWYsS8raDUA",
            "title": "Tik Tak Tail | Bunny The Artist | Cartoon Compilation | Videos For Kids | WildBrain Cartoons",
            "url": "https://www.youtube.com/watch?v=FWYsS8raDUA",
            "duration": 849.0,
            "view_count": 2871,
            "uploader": "WildBrain Kids",
            "category": "cartoons/tik_tak_tail",
            "thumbnail": "https://i.ytimg.com/vi/FWYsS8raDUA/hq720.jpg"
        },
        {
            "id": "t5rD3n6XcZI",
            "title": "การ์ตูน ไทย Tik Tak Tail - การ์ตูน ไทย เสือซน ตอนที่ 38 (Best Episode)| หนังการ์ตูน ตลก",
            "url": "https://www.youtube.com/watch?v=t5rD3n6XcZI",
            "duration": 2539.0,
            "view_count": 5405,
            "uploader": "Kids Thailand",
            "category": "cartoons/tik_tak_tail",
            "thumbnail": "https://i.ytimg.com/vi/t5rD3n6XcZI/hq720.jpg"
        },
        {
            "id": "ZoBh2aWFYvc",
            "title": "Tik Tak Tail | Tik Falls In Love | Funny Cartoon Compilation | Videos For Kids",
            "url": "https://www.youtube.com/watch?v=ZoBh2aWFYvc",
            "duration": 839.0,
            "view_count": 8194,
            "uploader": "WildBrain Kids",
            "category": "cartoons/tik_tak_tail",
            "thumbnail": "https://i.ytimg.com/vi/ZoBh2aWFYvc/hq720.jpg"
        },
        {
            "id": "di35hT4-tc4",
            "title": "Tik Tak Tail | Rabbit Tak | Cartoon Compilation | Cartoons for Children | WildBrain Cartoons",
            "url": "https://www.youtube.com/watch?v=di35hT4-tc4",
            "duration": 832.0,
            "view_count": 8270,
            "uploader": "WildBrain Kids",
            "category": "cartoons/tik_tak_tail",
            "thumbnail": "https://i.ytimg.com/vi/di35hT4-tc4/hq720.jpg"
        },
        {
            "id": "pEl3-0GHyoQ",
            "title": "Tom and Jerry | Mega Compilation | Vol. 12 | Warner Classics",
            "url": "https://www.youtube.com/watch?v=pEl3-0GHyoQ",
            "duration": 3169.0,
            "view_count": 29664482,
            "uploader": "Warner Bros. Classics",
            "category": "cartoons/tom_and_jerry",
            "thumbnail": "https://i.ytimg.com/vi/pEl3-0GHyoQ/hq720.jpg"
        },
        {
            "id": "_GE6zf_hH48",
            "title": "Tom and Jerry | Mega Compilation | Vol. 7 | Warner Classics",
            "url": "https://www.youtube.com/watch?v=_GE6zf_hH48",
            "duration": 2937.0,
            "view_count": 47129776,
            "uploader": "Warner Bros. Classics",
            "category": "cartoons/tom_and_jerry",
            "thumbnail": "https://i.ytimg.com/vi/_GE6zf_hH48/hq720.jpg"
        },
        {
            "id": "7m_AMbIAqT4",
            "title": "Tom and Jerry | Mega Episode: Golden Era Vol. 4 | Warner Classics",
            "url": "https://www.youtube.com/watch?v=7m_AMbIAqT4",
            "duration": 2963.0,
            "view_count": 26878488,
            "uploader": "Warner Bros. Classics",
            "category": "cartoons/tom_and_jerry",
            "thumbnail": "https://i.ytimg.com/vi/7m_AMbIAqT4/hq720.jpg"
        },
        {
            "id": "ZLAwy4x59Sg",
            "title": "Tom and Jerry 😺🐭| Jerry’s Invisible Ink Prank! 😆| Animated Cartoon 😍| Cat & Mouse Cartoon @cnindia",
            "url": "https://www.youtube.com/watch?v=ZLAwy4x59Sg",
            "duration": 5578.0,
            "view_count": 14213506,
            "uploader": "Cartoon Network India",
            "category": "cartoons/tom_and_jerry",
            "thumbnail": "https://i.ytimg.com/vi/ZLAwy4x59Sg/hq720.jpg"
        },
        {
            "id": "t0Q2otsqC4I",
            "title": "Tom & Jerry | Tom & Jerry in Full Screen | Classic Cartoon Compilation | WB Kids",
            "url": "https://www.youtube.com/watch?v=t0Q2otsqC4I",
            "duration": 1298.0,
            "view_count": 952407116,
            "uploader": "WB Kids",
            "category": "cartoons/tom_and_jerry",
            "thumbnail": "https://i.ytimg.com/vi/t0Q2otsqC4I/hq720.jpg"
        },
        {
            "id": "HZxpqO4ZpnI",
            "title": "Tom and Jerry 😺🐭| Watch A Duo That’s Totally Inseparable😍| Funny Chase Marathon 😍| @cnindia",
            "url": "https://www.youtube.com/watch?v=HZxpqO4ZpnI",
            "duration": 6983.0,
            "view_count": 5054417,
            "uploader": "Cartoon Network India",
            "category": "cartoons/tom_and_jerry",
            "thumbnail": "https://i.ytimg.com/vi/HZxpqO4ZpnI/hq720.jpg"
        },
        {
            "id": "7NYPRt12aG0",
            "title": "टॉम एंड जेरी हिंदी में 🇮🇳 | स्वादिष्ट भोजन के पल 😋 | WB Kids",
            "url": "https://www.youtube.com/watch?v=7NYPRt12aG0",
            "duration": 1228.0,
            "view_count": 8129484,
            "uploader": "WB Kids International",
            "category": "cartoons/tom_and_jerry",
            "thumbnail": "https://i.ytimg.com/vi/7NYPRt12aG0/hq720.jpg"
        },
        {
            "id": "5exUyh0DeG4",
            "title": "Tom & Jerry 😺🐭 | Enjoy the Eternal Cat & Mouse Game 😆 of Tom & Jerry on Cartoon Network India",
            "url": "https://www.youtube.com/watch?v=5exUyh0DeG4",
            "duration": 3931.0,
            "view_count": 18940474,
            "uploader": "Cartoon Network India",
            "category": "cartoons/tom_and_jerry",
            "thumbnail": "https://i.ytimg.com/vi/5exUyh0DeG4/hq720.jpg"
        },
        {
            "id": "ED4jrBs2WEI",
            "title": "Tom and Jerry | Mega Compilation | Vol. 3 | Warner Classics",
            "url": "https://www.youtube.com/watch?v=ED4jrBs2WEI",
            "duration": 3095.0,
            "view_count": 27658331,
            "uploader": "Warner Bros. Classics",
            "category": "cartoons/tom_and_jerry",
            "thumbnail": "https://i.ytimg.com/vi/ED4jrBs2WEI/hq720.jpg"
        },
        {
            "id": "s0VruXmA__k",
            "title": "Tom & Jerry 😺🐭| A Frienemy in Need! 🧀|  Cat and the Mouse | Cartoon for Kids | @cnindia",
            "url": "https://www.youtube.com/watch?v=s0VruXmA__k",
            "duration": 3724.0,
            "view_count": 41191269,
            "uploader": "Cartoon Network India",
            "category": "cartoons/tom_and_jerry",
            "thumbnail": "https://i.ytimg.com/vi/s0VruXmA__k/hq720.jpg"
        },
        {
            "id": "IWc-hotGwcM",
            "title": "Tom & Jerry | Yummiest Food Moments 🧀 | Cartoon Compilation | @wbkids",
            "url": "https://www.youtube.com/watch?v=IWc-hotGwcM",
            "duration": 1254.0,
            "view_count": 36350997,
            "uploader": "WB Kids",
            "category": "cartoons/tom_and_jerry",
            "thumbnail": "https://i.ytimg.com/vi/IWc-hotGwcM/hq720.jpg"
        },
        {
            "id": "8uXh3_bt77M",
            "title": "Tom and Jerry 😺🐭| Keep Calm And Watch The Chaos 🫨| Best Animations😆| @cnindia​",
            "url": "https://www.youtube.com/watch?v=8uXh3_bt77M",
            "duration": 5223.0,
            "view_count": 27174550,
            "uploader": "Cartoon Network India",
            "category": "cartoons",
            "thumbnail": "https://i.ytimg.com/vi/8uXh3_bt77M/hq720.jpg"
        },
        {
            "id": "j-88jrkyszQ",
            "title": "Tom and Jerry | Mega Compilation | Vol. 1 | Warner Classics",
            "url": "https://www.youtube.com/watch?v=j-88jrkyszQ",
            "duration": 2856.0,
            "view_count": 28300244,
            "uploader": "Warner Bros. Classics",
            "category": "cartoons/tom_and_jerry",
            "thumbnail": "https://i.ytimg.com/vi/j-88jrkyszQ/hq720.jpg"
        },
        {
            "id": "tr0LJHwDZrc",
            "title": "टॉम एंड जेरी हिंदी में 🇮🇳 | सबसे महान जासूस | WB Kids",
            "url": "https://www.youtube.com/watch?v=tr0LJHwDZrc",
            "duration": 1095.0,
            "view_count": 3261576,
            "uploader": "WB Kids International",
            "category": "cartoons/tom_and_jerry",
            "thumbnail": "https://i.ytimg.com/vi/tr0LJHwDZrc/hq720.jpg"
        },
        {
            "id": "mZ-_CAwQ4eY",
            "title": "Laugh Your Way Into the New Year! 🥳 | Tom & Jerry MEGA COMPILATION | #KidsCartoons @wbkids​",
            "url": "https://www.youtube.com/watch?v=mZ-_CAwQ4eY",
            "duration": 4133.0,
            "view_count": 16825968,
            "uploader": "WB Kids",
            "category": "cartoons/tom_and_jerry",
            "thumbnail": "https://i.ytimg.com/vi/mZ-_CAwQ4eY/hq720.jpg"
        },
        {
            "id": "OiZspsGTKzo",
            "title": "Tom and Jerry😺🐭| Kitchen Wars Begin!🤩| Cat & The Mouse 😍| @cnindia",
            "url": "https://www.youtube.com/watch?v=OiZspsGTKzo",
            "duration": 4774.0,
            "view_count": 6528099,
            "uploader": "Cartoon Network India",
            "category": "cartoons/tom_and_jerry",
            "thumbnail": "https://i.ytimg.com/vi/OiZspsGTKzo/hq720.jpg"
        },
        {
            "id": "gSYUiQlXm3s",
            "title": "टॉम एंड जेरी हिंदी में 🇮🇳 | टॉम के मालिक -जिंजर और रिक | WB Kids",
            "url": "https://www.youtube.com/watch?v=gSYUiQlXm3s",
            "duration": 1188.0,
            "view_count": 573995,
            "uploader": "WB Kids International",
            "category": "cartoons/tom_and_jerry",
            "thumbnail": "https://i.ytimg.com/vi/gSYUiQlXm3s/hq720.jpg"
        },
        {
            "id": "D8hkqeEn2Ok",
            "title": "टॉम एंड जेरी हिंदी में 🇮🇳 | स्पाइक और टाइक के सर्वश्रेष्ठ पल 🐶🐶 | WB Kids",
            "url": "https://www.youtube.com/watch?v=D8hkqeEn2Ok",
            "duration": 1209.0,
            "view_count": 2258254,
            "uploader": "WB Kids International",
            "category": "cartoons/tom_and_jerry",
            "thumbnail": "https://i.ytimg.com/vi/D8hkqeEn2Ok/hq720.jpg"
        },
        {
            "id": "heE_lieGsZ8",
            "title": "Tom & Jerry | Full Screen Frenemies | Throwback Thursdays |   @GenerationWB",
            "url": "https://www.youtube.com/watch?v=heE_lieGsZ8",
            "duration": 1200.0,
            "view_count": 13205057,
            "uploader": "GenWB",
            "category": "cartoons/tom_and_jerry",
            "thumbnail": "https://i.ytimg.com/vi/heE_lieGsZ8/hq720.jpg"
        },
        {
            "id": "xBxNTqO6OU0",
            "title": "Tom and Jerry 😺🐭| Tom & Jerry Takes Over Australia😆| Cartoon Videos 😆| Cat and the Mouse | @cnindia",
            "url": "https://www.youtube.com/watch?v=xBxNTqO6OU0",
            "duration": 5228.0,
            "view_count": 14625673,
            "uploader": "Cartoon Network India",
            "category": "cartoons/tom_and_jerry",
            "thumbnail": "https://i.ytimg.com/vi/xBxNTqO6OU0/hq720.jpg"
        },
        {
            "id": "neUGPgyqpuU",
            "title": "Tom and Jerry | Jerry the Troublemaker | Cartoon for Kids | Only on Cartoon Network India",
            "url": "https://www.youtube.com/watch?v=neUGPgyqpuU",
            "duration": 1500.0,
            "view_count": 11173972,
            "uploader": "Cartoon Network India",
            "category": "cartoons/tom_and_jerry",
            "thumbnail": "https://i.ytimg.com/vi/neUGPgyqpuU/hq720.jpg"
        },
        {
            "id": "4n7TZxEooRo",
            "title": "Tom & Jerry 🐭😺| Nibbles’ First Lesson in Mischief! 😍| Best Animations 😆| Cat and the Mouse |@cnindia",
            "url": "https://www.youtube.com/watch?v=4n7TZxEooRo",
            "duration": 5087.0,
            "view_count": 1415922,
            "uploader": "Cartoon Network India",
            "category": "cartoons/tom_and_jerry",
            "thumbnail": "https://i.ytimg.com/vi/4n7TZxEooRo/hq720.jpg"
        }
    ]
}