{
    "page": 13,
    "total_pages": 103,
    "total_items": 5125,
    "items": [
        {
            "id": "maMxCopo0qk",
            "title": "KAAL 2 Full Movie In Hindi Dubbed | Prabhas, Rashmika Mandanna | New South Indian Hindi Dubbed Movie",
            "url": "https://www.youtube.com/watch?v=maMxCopo0qk",
            "duration": 8808.0,
            "view_count": 81015,
            "uploader": "Movietel",
            "category": "hindi",
            "thumbnail": "https://i.ytimg.com/vi/maMxCopo0qk/hq720.jpg"
        },
        {
            "id": "SBTG4pftrM8",
            "title": "Dhurandhar Hindi Full Movie | #ranveersingh  Singh Mass Action | Bollywood Film",
            "url": "https://www.youtube.com/watch?v=SBTG4pftrM8",
            "duration": 8187.0,
            "view_count": 10689866,
            "uploader": "Blockbuster Galaxy",
            "category": "hindi",
            "thumbnail": "https://i.ytimg.com/vi/SBTG4pftrM8/hq720.jpg"
        },
        {
            "id": "aN1XjJmKh-0",
            "title": "Rangoli (2026) Hamaresh, Prarthana South New Full Movie | 2026 South Latest Hindi Dubbed Movie In 4K",
            "url": "https://www.youtube.com/watch?v=aN1XjJmKh-0",
            "duration": 7465.0,
            "view_count": 10220906,
            "uploader": "Sur Movies Exclusive and 2 more",
            "category": "hindi",
            "thumbnail": "https://i.ytimg.com/vi/aN1XjJmKh-0/hq720.jpg"
        },
        {
            "id": "KyPyjT1FvWs",
            "title": "BABY 4K Full Movie: Akshay Kumar |Rana Daggubati |Taapsee |Anupam K| Neeraj P|Hindi Movie |Bhushan K",
            "url": "https://www.youtube.com/watch?v=KyPyjT1FvWs",
            "duration": 9202.0,
            "view_count": 1108758,
            "uploader": "T-Series",
            "category": "hindi",
            "thumbnail": "https://i.ytimg.com/vi/KyPyjT1FvWs/hq720.jpg?sqp=-oaymwEcCNAFEJQDSFXyq4qpAw4IARUAAIhCGAFwAcABBg==&rs=AOn4CLAPrAFvt4UXAW8v9BpuLr1qmCS97A",
            "added_date": "2026-04-16T07:30:56.401012Z",
            "source": "youtube"
        },
        {
            "id": "drROJWLbc-o",
            "title": "Shool (1999) - Manoj Bajpai - Raveena Tandon - Hindi Full Movie",
            "url": "https://www.youtube.com/watch?v=drROJWLbc-o",
            "duration": 8063.0,
            "view_count": 21839973,
            "uploader": "Shemaroo",
            "category": "hindi",
            "thumbnail": "https://i.ytimg.com/vi/drROJWLbc-o/hq720.jpg"
        },
        {
            "id": "rKAHbnmoAaA",
            "title": "Lovegiri\" Hindi Dubbed Blockbuster Action Romantic Movie Full HD 1080p | Suhas, Ruhani Sharma |Movie",
            "url": "https://www.youtube.com/watch?v=rKAHbnmoAaA",
            "duration": 6608.0,
            "view_count": 1265505,
            "uploader": "South Action Dhamaka",
            "category": "hindi",
            "thumbnail": "https://i.ytimg.com/vi/rKAHbnmoAaA/hq720.jpg"
        },
        {
            "id": "K8uHAXhrPP8",
            "title": "The Kerala Story 2 (2026) | Ram Charan New South Hindi Dubbed Thriller Full Movie | Full HD",
            "url": "https://www.youtube.com/watch?v=K8uHAXhrPP8",
            "duration": 7151.0,
            "view_count": 137161,
            "uploader": "CineMantra",
            "category": "hindi",
            "thumbnail": "https://i.ytimg.com/vi/K8uHAXhrPP8/hq720.jpg"
        },
        {
            "id": "CHkS6xl1CsQ",
            "title": "Namastey London 2007 Hindi Full Movie 4K | Akshay Kumar, Katrina Kaif, Rishi Kapoor| 2000s Bollywood",
            "url": "https://www.youtube.com/watch?v=CHkS6xl1CsQ",
            "duration": 8300.0,
            "view_count": 1725572,
            "uploader": "Ultra 4K Movies",
            "category": "hindi",
            "thumbnail": "https://i.ytimg.com/vi/CHkS6xl1CsQ/hq720.jpg"
        },
        {
            "id": "MVNFZS5PvSQ",
            "title": "NEW FULL MOVIE - Samosa & Sons | Hindi Movie | Sanjay Mishra, Chandan Bisht | Bollywood",
            "url": "https://www.youtube.com/watch?v=MVNFZS5PvSQ",
            "duration": 5277.0,
            "view_count": 614808,
            "uploader": "Motion Mingle Hindi",
            "category": "hindi",
            "thumbnail": "https://i.ytimg.com/vi/MVNFZS5PvSQ/hq720.jpg"
        },
        {
            "id": "KxuRaA9VssM",
            "title": "Love Express | South Hindi Dubbed Action Romanic Movie Full Love Story | Naga Shaurya, Ajay, Sana M.",
            "url": "https://www.youtube.com/watch?v=KxuRaA9VssM",
            "duration": 7490.0,
            "view_count": 65760,
            "uploader": "Sur Movies Multiplex",
            "category": "hindi",
            "thumbnail": "https://i.ytimg.com/vi/KxuRaA9VssM/hq720.jpg"
        },
        {
            "id": "xEt9eRKMTok",
            "title": "Enगlish Vinglisश Full Movie HD - Sridevi Comeback Film | Adil Hussain | Inspirational Story",
            "url": "https://www.youtube.com/watch?v=xEt9eRKMTok",
            "duration": 7709.0,
            "view_count": 68471,
            "uploader": "Eros Universe",
            "category": "hindi",
            "thumbnail": "https://i.ytimg.com/vi/xEt9eRKMTok/hq720.jpg"
        },
        {
            "id": "d5EGQFvOo2E",
            "title": "Chalo Premidamm | South Hindi Dubbed Action Romantic Movie Full Love Story | Neha Solanki | Movie",
            "url": "https://www.youtube.com/watch?v=d5EGQFvOo2E",
            "duration": 8027.0,
            "view_count": 2181466,
            "uploader": "RDC Movie",
            "category": "hindi",
            "thumbnail": "https://i.ytimg.com/vi/d5EGQFvOo2E/hq720.jpg"
        },
        {
            "id": "YHK4M7ZyTKo",
            "title": "A Flying Jatt (2016) Full Hindi Movie 4K | Tiger Shroff | Jacqueline Fernandez | Nathan Jones",
            "url": "https://www.youtube.com/watch?v=YHK4M7ZyTKo",
            "duration": 9012.0,
            "view_count": 14830667,
            "uploader": "Ultra Bollywood",
            "category": "hindi",
            "thumbnail": "https://i.ytimg.com/vi/YHK4M7ZyTKo/hq720.jpg"
        },
        {
            "id": "Vhn0JD9RlLs",
            "title": "Baadshaho 4K Full Movie: Ajay Devgn | Emraan Hashmi | Vidyut Jammwal | Ileana D'Cruz | Esha Gupta",
            "url": "https://www.youtube.com/watch?v=Vhn0JD9RlLs",
            "duration": 8128.0,
            "view_count": 377638,
            "uploader": "T-Series",
            "category": "hindi",
            "thumbnail": "https://i.ytimg.com/vi/Vhn0JD9RlLs/hq720.jpg"
        },
        {
            "id": "DqTWgymFmpw",
            "title": "Junglee 2026 Hindi Dubbed Full Movie | Ram Charan Wild Action Adventure | South Blockbuster HD Film",
            "url": "https://www.youtube.com/watch?v=DqTWgymFmpw",
            "duration": 9365.0,
            "view_count": 14261,
            "uploader": "FilmyJunction",
            "category": "hindi",
            "thumbnail": "https://i.ytimg.com/vi/DqTWgymFmpw/hqdefault.jpg"
        },
        {
            "id": "lEnACemhvb4",
            "title": "Haindava (2026) Movie | Bellamkonda Sreenivas New South Hindi Dubbed Thriller Full Movie | Full HD",
            "url": "https://www.youtube.com/watch?v=lEnACemhvb4",
            "duration": 6968.0,
            "view_count": 477725,
            "uploader": "Movie Record South",
            "category": "hindi",
            "thumbnail": "https://i.ytimg.com/vi/lEnACemhvb4/hqdefault.jpg"
        },
        {
            "id": "DdloEnLv7L8",
            "title": "Biwi No.1 Hindi Comedy Full Movie (1999) | Salman Khan| Karisma Kapoor | Anil Kapoor | Sushmita Sen",
            "url": "https://www.youtube.com/watch?v=DdloEnLv7L8",
            "duration": 8008.0,
            "view_count": 1356888,
            "uploader": "Ultra Movie World",
            "category": "hindi",
            "thumbnail": "https://i.ytimg.com/vi/DdloEnLv7L8/hq720.jpg"
        },
        {
            "id": "aAqW1Ix11X4",
            "title": "FARMER Mahesh Babu South Indian Hindi Dubbed Full Movie || South Latest New Released Movie 2026",
            "url": "https://www.youtube.com/watch?v=aAqW1Ix11X4",
            "duration": 10451.0,
            "view_count": 3923227,
            "uploader": "South Mewal Films",
            "category": "hindi",
            "thumbnail": "https://i.ytimg.com/vi/aAqW1Ix11X4/hq720.jpg"
        },
        {
            "id": "W2pbqERJpoM",
            "title": "WARRANT | Vishal, Kajal Aggarwal | New (2026) Released Hindi Action Crime Thriller Movie | Full HD",
            "url": "https://www.youtube.com/watch?v=W2pbqERJpoM",
            "duration": 6471.0,
            "view_count": 2030169,
            "uploader": "PlayNation",
            "category": "hindi",
            "thumbnail": "https://i.ytimg.com/vi/W2pbqERJpoM/hq720.jpg"
        },
        {
            "id": "xbzm6dl7Yik",
            "title": "DANDUPALYAM (2025) New Released Full Action Thriller South Hindi Dubbed Movie | South Movie 2025",
            "url": "https://www.youtube.com/watch?v=xbzm6dl7Yik",
            "duration": 6323.0,
            "view_count": 80643,
            "uploader": "Dumdar HD Movies",
            "category": "hindi",
            "thumbnail": "https://i.ytimg.com/vi/xbzm6dl7Yik/hq720.jpg"
        },
        {
            "id": "6jSNtIFGi4U",
            "title": "Nari Nari Naduma Murari 2026 Full Movie Hindi Dubbed Ott Release Date|Sharwanand|Samyuktha Menon ",
            "url": "https://www.youtube.com/watch?v=6jSNtIFGi4U",
            "duration": 7804.0,
            "view_count": 7133871,
            "uploader": "Sachin Gupta ",
            "category": "hindi",
            "thumbnail": "https://i.ytimg.com/vi/6jSNtIFGi4U/hq720.jpg"
        },
        {
            "id": "37Y2Nv3iulQ",
            "title": "SSMB29 | Mahesh Babu Full Hindi Dubbed Action Movie  | South Indian Blockbuster | New Movie",
            "url": "https://www.youtube.com/watch?v=37Y2Nv3iulQ",
            "duration": 10728.0,
            "view_count": 249521,
            "uploader": "Cinema Blast",
            "category": "hindi",
            "thumbnail": "https://i.ytimg.com/vi/37Y2Nv3iulQ/hq720.jpg"
        },
        {
            "id": "3HNTe-zn0Rc",
            "title": "Lucky Bhaskar (2025) | Dalquer Salmaan Hindi Dubbed Full Movie | South Blockbuster | Full HD Movie",
            "url": "https://www.youtube.com/watch?v=3HNTe-zn0Rc",
            "duration": 8602.0,
            "view_count": 11962677,
            "uploader": "Xʏᴢ Rנ Mᴜsɪᴄツ",
            "category": "hindi",
            "thumbnail": "https://i.ytimg.com/vi/3HNTe-zn0Rc/hqdefault.jpg"
        },
        {
            "id": "xtpPQuysUBI",
            "title": "Magadheera 2 Full Hindi Dubbed Movie 2026 | Ram Charan, Kajal Aggarwal,Rajamouli | South Blockbuster",
            "url": "https://www.youtube.com/watch?v=xtpPQuysUBI",
            "duration": 8047.0,
            "view_count": 6820439,
            "uploader": "Movie Record South",
            "category": "hindi",
            "thumbnail": "https://i.ytimg.com/vi/xtpPQuysUBI/hq720.jpg"
        },
        {
            "id": "DvXVtv95oUk",
            "title": "EXPERIMENT Full Movie Hindi Dubbed | Prabhas & Arjun Rampal | Latest South Indian Action Movie 2026",
            "url": "https://www.youtube.com/watch?v=DvXVtv95oUk",
            "duration": 7862.0,
            "view_count": 236464,
            "uploader": "Bollwood Cinema Hindi",
            "category": "hindi",
            "thumbnail": "https://i.ytimg.com/vi/DvXVtv95oUk/hq720.jpg"
        },
        {
            "id": "c8qVejk_lIw",
            "title": "ODELA 3 Full Movie Hindi Dubbed | Tamannah Bhatia | Vasishta N. | New South Indian Horror Movie 2026",
            "url": "https://www.youtube.com/watch?v=c8qVejk_lIw",
            "duration": 7527.0,
            "view_count": 1031,
            "uploader": "Movietel",
            "category": "hindi",
            "thumbnail": "https://i.ytimg.com/vi/c8qVejk_lIw/hq720.jpg"
        },
        {
            "id": "bQHafKnZkqA",
            "title": "MONSTER Full Movie 2026 | Yash Rocking Star Action Movie | Superhit Full Hindi Movie HD",
            "url": "https://www.youtube.com/watch?v=bQHafKnZkqA",
            "duration": 7787.0,
            "view_count": 1348756,
            "uploader": "Ranita Studio",
            "category": "hindi",
            "thumbnail": "https://i.ytimg.com/vi/bQHafKnZkqA/hq720.jpg"
        },
        {
            "id": "8CENpi_pd7g",
            "title": "Torture Again Full Movie Hindi Dubbed | Thalapathy Vijay, Yogi Babu | Latest South Indian Movie",
            "url": "https://www.youtube.com/watch?v=8CENpi_pd7g",
            "duration": 8819.0,
            "view_count": 2002281,
            "uploader": "Movie Forever",
            "category": "hindi",
            "thumbnail": "https://i.ytimg.com/vi/8CENpi_pd7g/hq720.jpg"
        },
        {
            "id": "12-pgply_is",
            "title": "Andhra King Taluka Hindi Dubbed Full Movie 2025 | Ram Pothineni New Action Movie |Latest South Movie",
            "url": "https://www.youtube.com/watch?v=12-pgply_is",
            "duration": 8526.0,
            "view_count": 107436,
            "uploader": "Movietel",
            "category": "hindi",
            "thumbnail": "https://i.ytimg.com/vi/12-pgply_is/hq720.jpg"
        },
        {
            "id": "UqdPm2e5P7I",
            "title": "ODELA 3 Full Movie Hindi Dubbed | Tamannah Bhatia | Vasishta N. | New South Indian Horror Movie 2026",
            "url": "https://www.youtube.com/watch?v=UqdPm2e5P7I",
            "duration": 8529.0,
            "view_count": 37321,
            "uploader": "Moviewood Cinema",
            "category": "hindi",
            "thumbnail": "https://i.ytimg.com/vi/UqdPm2e5P7I/hq720.jpg"
        },
        {
            "id": "1DU7u3y8dHA",
            "title": "BHIKHARI | New Hindi Movie 2026 - Hrithik Roshan & Kajol Devgan | New Bollywood Full Action Movies",
            "url": "https://www.youtube.com/watch?v=1DU7u3y8dHA",
            "duration": 8773.0,
            "view_count": 907568,
            "uploader": "South Action Factory",
            "category": "hindi",
            "thumbnail": "https://i.ytimg.com/vi/1DU7u3y8dHA/hq720.jpg"
        },
        {
            "id": "1Jx4ETBWO7Q",
            "title": "Thalapathy Vijay & Sreeleela Full Action Movie | Charminar | Latest South Indian Movie in Hindi Dubb",
            "url": "https://www.youtube.com/watch?v=1Jx4ETBWO7Q",
            "duration": 9001.0,
            "view_count": 13043230,
            "uploader": "Movie Forever",
            "category": "hindi",
            "thumbnail": "https://i.ytimg.com/vi/1Jx4ETBWO7Q/hq720.jpg"
        },
        {
            "id": "UeY2uxMwEGc",
            "title": "Hanuman 2 Full Movie Hindi Dubbed 2026 | Teja Sajja | Rishabh Shetty | Latest South Movie 2026",
            "url": "https://www.youtube.com/watch?v=UeY2uxMwEGc",
            "duration": 8261.0,
            "view_count": 1006578,
            "uploader": "Movietel",
            "category": "hindi",
            "thumbnail": "https://i.ytimg.com/vi/UeY2uxMwEGc/hq720.jpg"
        },
        {
            "id": "7k_T6Z7mcf0",
            "title": "DADDY Hindi Dubbed Full Movie | Ravi Teja Powerful Action Drama | South Indian Movie | Full HD 2026",
            "url": "https://www.youtube.com/watch?v=7k_T6Z7mcf0",
            "duration": 7259.0,
            "view_count": 363360,
            "uploader": "Trending Movies World",
            "category": "hindi",
            "thumbnail": "https://i.ytimg.com/vi/7k_T6Z7mcf0/hq720.jpg"
        },
        {
            "id": "zWh6CH8fqBY",
            "title": "BANDAR 2 Full Movie 2026 | Bobby Deol | Hrithik Roshan | Anurag Kashyap | New Bollywood Movies 2026",
            "url": "https://www.youtube.com/watch?v=zWh6CH8fqBY",
            "duration": 8778.0,
            "view_count": 292119,
            "uploader": "South Action Factory",
            "category": "hindi",
            "thumbnail": "https://i.ytimg.com/vi/zWh6CH8fqBY/hq720.jpg"
        },
        {
            "id": "VSdLaLpbNnw",
            "title": "Varisu Full Movie Hindi Dubbed | Thalapathy Vijay Mega Blockbuster South Movie HD",
            "url": "https://www.youtube.com/watch?v=VSdLaLpbNnw",
            "duration": 8641.0,
            "view_count": 1587725,
            "uploader": "Cinema Blast",
            "category": "hindi",
            "thumbnail": "https://i.ytimg.com/vi/VSdLaLpbNnw/hq720.jpg"
        },
        {
            "id": "DFtLpgOGf80",
            "title": "Best movie lagaan (2001) ",
            "url": "https://www.youtube.com/watch?v=DFtLpgOGf80",
            "duration": 13414.0,
            "view_count": 7482991,
            "uploader": "_OFFX__VIBES",
            "category": "hindi",
            "thumbnail": "https://i.ytimg.com/vi/DFtLpgOGf80/hqdefault.jpg"
        },
        {
            "id": "WkUfC1awmfc",
            "title": "New Released South Indian Hindi Dubbed Movie 2026 | Suriya, Asin, Nayantara | Ghajini | Love Story",
            "url": "https://www.youtube.com/watch?v=WkUfC1awmfc",
            "duration": 8152.0,
            "view_count": 3363,
            "uploader": "DRJ Records Zest",
            "category": "hindi",
            "thumbnail": "https://i.ytimg.com/vi/WkUfC1awmfc/hq720.jpg"
        },
        {
            "id": "FU3mpkDwHfU",
            "title": "Koyla (1997) Full Hindi Movie 4K | कोयला | Shah Rukh Khan | Madhuri Dixit | Amrish Puri | 90s Movie",
            "url": "https://www.youtube.com/watch?v=FU3mpkDwHfU",
            "duration": 10172.0,
            "view_count": 39335841,
            "uploader": "Ultra Bollywood",
            "category": "hindi",
            "thumbnail": "https://i.ytimg.com/vi/FU3mpkDwHfU/hq720.jpg"
        },
        {
            "id": "EB0v61_jYnY",
            "title": "Taxi (2026) Full Movie Hindi Dubbed | South Indian Action Thriller Movie | Latest Hindi Dubbed Movie",
            "url": "https://www.youtube.com/watch?v=EB0v61_jYnY",
            "duration": 6947.0,
            "view_count": 633751,
            "uploader": "RDC Movie and 5 more",
            "category": "hindi",
            "thumbnail": "https://i.ytimg.com/vi/EB0v61_jYnY/hq720.jpg"
        },
        {
            "id": "HTYL38HeL0g",
            "title": "Varisu Full Movie Hindi Dubbed | Thalapathy Vijay Mega Blockbuster South Movie HD",
            "url": "https://www.youtube.com/watch?v=HTYL38HeL0g",
            "duration": 9109.0,
            "view_count": 298286,
            "uploader": "Cinema Blast",
            "category": "hindi",
            "thumbnail": "https://i.ytimg.com/vi/HTYL38HeL0g/hq720.jpg"
        },
        {
            "id": "0fpdI0AfMRk",
            "title": "Money Hai Toh Honey Hai - Full Movie HD | Govinda, Celina J, Hansika M | Superhit Comedy Movie",
            "url": "https://www.youtube.com/watch?v=0fpdI0AfMRk",
            "duration": 7920.0,
            "view_count": 7068,
            "uploader": "Eros Universe",
            "category": "hindi",
            "thumbnail": "https://i.ytimg.com/vi/0fpdI0AfMRk/hq720.jpg"
        },
        {
            "id": "IHvUXp8GHaI",
            "title": "TOXIC (2026) Full Movie in Hindi Dubbed | Rocking Star Yash | Geethu Mohandas | New South Movie 2026",
            "url": "https://www.youtube.com/watch?v=IHvUXp8GHaI",
            "duration": 8165.0,
            "view_count": 13759,
            "uploader": "Bollwood Cinema Hindi",
            "category": "hindi",
            "thumbnail": "https://i.ytimg.com/vi/IHvUXp8GHaI/hq720.jpg"
        },
        {
            "id": "YuTIeOOl2eY",
            "title": "Guntur Kaaram Full Hindi Dubbed | Mahesh Babu Mega Blockbuster South Movie HD",
            "url": "https://www.youtube.com/watch?v=YuTIeOOl2eY",
            "duration": 8706.0,
            "view_count": 5319297,
            "uploader": "Cinema Blast",
            "category": "hindi",
            "thumbnail": "https://i.ytimg.com/vi/YuTIeOOl2eY/hq720.jpg"
        },
        {
            "id": "7pArhkQ9Q_g",
            "title": "Governor Saab - Mahesh Babu South Indian Full Action Movie Dubbed In Hindi | Superhit Movies",
            "url": "https://www.youtube.com/watch?v=7pArhkQ9Q_g",
            "duration": 9694.0,
            "view_count": 31433675,
            "uploader": "SDE Movieplex",
            "category": "hindi",
            "thumbnail": "https://i.ytimg.com/vi/7pArhkQ9Q_g/hq720.jpg"
        },
        {
            "id": "cAruH1RSOBE",
            "title": "Toxic Full Movie Hindi Dubbed | Yash | Nayanthara | Latest South Indian Hindi Dubbed Movies 2026",
            "url": "https://www.youtube.com/watch?v=cAruH1RSOBE",
            "duration": 8448.0,
            "view_count": 1359985,
            "uploader": "South Action Factory and South Ka Zamana",
            "category": "hindi",
            "thumbnail": "https://i.ytimg.com/vi/cAruH1RSOBE/hq720.jpg"
        },
        {
            "id": "YauWbUp7d-8",
            "title": "Border 2 Full Movie Hindi Dubbed | Sunny Deol | New Bollywood Superhit Action Full Movies 2025",
            "url": "https://www.youtube.com/watch?v=YauWbUp7d-8",
            "duration": 7093.0,
            "view_count": 3915358,
            "uploader": "South Action Factory",
            "category": "hindi",
            "thumbnail": "https://i.ytimg.com/vi/YauWbUp7d-8/hq720.jpg"
        },
        {
            "id": "DF8FMYrhH0A",
            "title": "CBI (2026) Puneeth Rajkumar New South Dubbed Movie In Hindi | South Full Action Movie Hindi 2026",
            "url": "https://www.youtube.com/watch?v=DF8FMYrhH0A",
            "duration": 8218.0,
            "view_count": 6313909,
            "uploader": "Story Unlocked Cinema",
            "category": "hindi",
            "thumbnail": "https://i.ytimg.com/vi/DF8FMYrhH0A/hq720.jpg"
        },
        {
            "id": "VZc1FpfZM7k",
            "title": "Omkara - Full Movie HD | Ajay Devgn | Saif Ali Khan | Kareena K | Vivek O | Superhit Bollywood Drama",
            "url": "https://www.youtube.com/watch?v=VZc1FpfZM7k",
            "duration": 8779.0,
            "view_count": 15793,
            "uploader": "Eros Universe",
            "category": "hindi",
            "thumbnail": "https://i.ytimg.com/vi/VZc1FpfZM7k/hq720.jpg"
        },
        {
            "id": "34q8VL1fNhM",
            "title": "Guntur Kaaram (2024) Full Movie In Hindi | Mahesh babu New Released Action Hindi Dubbed Movie",
            "url": "https://www.youtube.com/watch?v=34q8VL1fNhM",
            "duration": 7556.0,
            "view_count": 6748,
            "uploader": "KD COBRA 09",
            "category": "hindi",
            "thumbnail": "https://i.ytimg.com/vi/34q8VL1fNhM/hqdefault.jpg"
        }
    ]
}