{
    "page": 44,
    "total_pages": 103,
    "total_items": 5125,
    "items": [
        {
            "id": "R5fTTSJ81AA",
            "title": "Ongole Githa Telugu Full Movie || Ram Pothineni, Kriti Kharbanda || Ganesh Videos",
            "url": "https://www.youtube.com/watch?v=R5fTTSJ81AA",
            "duration": 9427.0,
            "view_count": 7241329,
            "uploader": "Ganesh Videos",
            "category": "telugu",
            "thumbnail": "https://i.ytimg.com/vi/R5fTTSJ81AA/hq720.jpg"
        },
        {
            "id": "zgcMwsKCgKs",
            "title": "Mad Square [MAD 2] Comedy Telugu Full Movie | Sangeeth shobhan | Narne Nithin | Ram Nithin | Kalyan",
            "url": "https://www.youtube.com/watch?v=zgcMwsKCgKs",
            "duration": 6722.0,
            "view_count": 993871,
            "uploader": "Pixeld Stories",
            "category": "telugu",
            "thumbnail": "https://i.ytimg.com/vi/zgcMwsKCgKs/hq720.jpg"
        },
        {
            "id": "lmK37srs2KU",
            "title": "Maharshi Action Drama Telugu Full Film | Mahesh Babu | Allari Naresh, Pooja Hegde @tfcmaacinemalu",
            "url": "https://www.youtube.com/watch?v=lmK37srs2KU",
            "duration": 8663.0,
            "view_count": 515422,
            "uploader": "Maa Cinemalu",
            "category": "telugu",
            "thumbnail": "https://i.ytimg.com/vi/lmK37srs2KU/hq720.jpg"
        },
        {
            "id": "bE--kxiHkaQ",
            "title": "Narasimha Telugu Full Movie | Rajnikanth, Soundarya, Ramya Krishna | #TeluguMovies | TeluguOne",
            "url": "https://www.youtube.com/watch?v=bE--kxiHkaQ",
            "duration": 10325.0,
            "view_count": 40860348,
            "uploader": "TeluguOne",
            "category": "telugu",
            "thumbnail": "https://i.ytimg.com/vi/bE--kxiHkaQ/hq720.jpg"
        },
        {
            "id": "IrjtOOkJd80",
            "title": "Jigri Full Movie  | Telugu Friendship Movie | Emotional Drama   #Jigiri#TeluguCinema",
            "url": "https://www.youtube.com/watch?v=IrjtOOkJd80",
            "duration": 7977.0,
            "view_count": 321,
            "uploader": "MovieAdda",
            "category": "telugu",
            "thumbnail": "https://i.ytimg.com/vi/IrjtOOkJd80/hq720.jpg"
        },
        {
            "id": "S-Ub6qjwFgg",
            "title": "COMMAND (కమాండ్) | Ashwin Babu, Digangana Suryavanshi New Telugu Action Thriller | Full HD Movie",
            "url": "https://www.youtube.com/watch?v=S-Ub6qjwFgg",
            "duration": 6606.0,
            "view_count": 91133,
            "uploader": "Andhra Talkies",
            "category": "telugu",
            "thumbnail": "https://i.ytimg.com/vi/S-Ub6qjwFgg/hq720.jpg"
        },
        {
            "id": "iMerfZ1GxOc",
            "title": "Nagavalli Telugu Full Movie | Venkatesh | Anushka Shetty | Latest Telugu Movies | Aditya Cinemalu",
            "url": "https://www.youtube.com/watch?v=iMerfZ1GxOc",
            "duration": 9359.0,
            "view_count": 1172257,
            "uploader": "Aditya Cinemalu",
            "category": "telugu",
            "thumbnail": "https://i.ytimg.com/vi/iMerfZ1GxOc/hqdefault.jpg"
        },
        {
            "id": "LJ026JWUOzk",
            "title": "Om Shanti Shanti Shanti 2026 Full Telugu Movie 🍿🎥#telugumovie #omshantishantishanti",
            "url": "https://www.youtube.com/watch?v=LJ026JWUOzk",
            "duration": 7773.0,
            "view_count": 662,
            "uploader": "Mahendra Rock",
            "category": "telugu",
            "thumbnail": "https://i.ytimg.com/vi/LJ026JWUOzk/hqdefault.jpg"
        },
        {
            "id": "mf7sk4IydGo",
            "title": "Manmadhudu Telugu Full Movie || Nagarjuna, Sonali Bendre, Anshu",
            "url": "https://www.youtube.com/watch?v=mf7sk4IydGo",
            "duration": 8549.0,
            "view_count": 27086319,
            "uploader": "Annapurna Studios",
            "category": "telugu",
            "thumbnail": "https://i.ytimg.com/vi/mf7sk4IydGo/hq720.jpg"
        },
        {
            "id": "z3Rj4y4wSME",
            "title": "7 Pages Full Movie || Varsha Dsouza || Latest Telugu Full Movies || Infinitum Media",
            "url": "https://www.youtube.com/watch?v=z3Rj4y4wSME",
            "duration": 10531.0,
            "view_count": 570266,
            "uploader": "Varsha Dsouza",
            "category": "telugu",
            "thumbnail": "https://i.ytimg.com/vi/z3Rj4y4wSME/hq720.jpg"
        },
        {
            "id": "v6z6A0u0RZA",
            "title": "Mahanubhavudu Telugu OCD Comedy Full Length Movie | Sharwanand & Mehreen Pirzada Movie | Cine Square",
            "url": "https://www.youtube.com/watch?v=v6z6A0u0RZA",
            "duration": 7010.0,
            "view_count": 1223877,
            "uploader": "Cine Square",
            "category": "telugu",
            "thumbnail": "https://i.ytimg.com/vi/v6z6A0u0RZA/hq720.jpg"
        },
        {
            "id": "1p7NmlTW5qo",
            "title": "Subramanyam For Sale | Telugu Full Movie 2015 | English Subtitles | Harish Shankar, Sai Dharam Tej",
            "url": "https://www.youtube.com/watch?v=1p7NmlTW5qo",
            "duration": 9107.0,
            "view_count": 45527968,
            "uploader": "Dil Raju",
            "category": "telugu",
            "thumbnail": "https://i.ytimg.com/vi/1p7NmlTW5qo/hq720.jpg"
        },
        {
            "id": "MmPXj0BZA6I",
            "title": "Bhartha Mahasayulaku Wignyapthi telugu full movie 2026 | Ravi Teja | Storyline Review & Explanation",
            "url": "https://www.youtube.com/watch?v=MmPXj0BZA6I",
            "duration": 8406.0,
            "view_count": 297997,
            "uploader": "CINE Stellar ",
            "category": "telugu",
            "thumbnail": "https://i.ytimg.com/vi/MmPXj0BZA6I/hq720.jpg"
        },
        {
            "id": "52EhdLVlLdA",
            "title": "Vaarasudu Latest Telugu Full Movie 4K | Thalapathy Vijay | Rashmika | Yogi Babu | Thaman S | TFN",
            "url": "https://www.youtube.com/watch?v=52EhdLVlLdA",
            "duration": 10146.0,
            "view_count": 4514916,
            "uploader": "Telugu Filmnagar",
            "category": "telugu",
            "thumbnail": "https://i.ytimg.com/vi/52EhdLVlLdA/hq720.jpg"
        },
        {
            "id": "2_55ne2sj4Q",
            "title": "Vinayukuda - Telugu Full Movie - Krishnudu, Sonia Deepti, Poonam Kaur, Samrat Reddy",
            "url": "https://www.youtube.com/watch?v=2_55ne2sj4Q",
            "duration": 7685.0,
            "view_count": 1069860,
            "uploader": "Zee Movies Telugu",
            "category": "telugu",
            "thumbnail": "https://i.ytimg.com/vi/2_55ne2sj4Q/hq720.jpg"
        },
        {
            "id": "uhnMw8ioNVc",
            "title": "Hebah Patel Latest Movie | MARIO | Action Thriller l Hebah Patel |Kalpika Ganesh",
            "url": "https://www.youtube.com/watch?v=uhnMw8ioNVc",
            "duration": 8332.0,
            "view_count": 76094,
            "uploader": "BhavaniHD Movies",
            "category": "telugu",
            "thumbnail": "https://i.ytimg.com/vi/uhnMw8ioNVc/hq720.jpg"
        },
        {
            "id": "D06awr4iZMw",
            "title": "100% Love Telugu Full Movie | Naga Chaitanya, Tamannah | Sukumar | Geetha Arts",
            "url": "https://www.youtube.com/watch?v=D06awr4iZMw",
            "duration": 8101.0,
            "view_count": 43759409,
            "uploader": "Geetha Arts ",
            "category": "telugu",
            "thumbnail": "https://i.ytimg.com/vi/D06awr4iZMw/hq720.jpg"
        },
        {
            "id": "ChVQraBKAsQ",
            "title": "Rebel Star Prabhas, Kajal Aggarwal Taapsee Comedy Family Entertainment Full Movie || Matinee Show",
            "url": "https://www.youtube.com/watch?v=ChVQraBKAsQ",
            "duration": 6455.0,
            "view_count": 4463788,
            "uploader": "Matinee Show",
            "category": "telugu",
            "thumbnail": "https://i.ytimg.com/vi/ChVQraBKAsQ/hq720.jpg"
        },
        {
            "id": "sqW95LOMrBU",
            "title": "Nenu Local | Telugu Full Movie 2017 | Nani, Keerthy Suresh",
            "url": "https://www.youtube.com/watch?v=sqW95LOMrBU",
            "duration": 8312.0,
            "view_count": 127386563,
            "uploader": "Dil Raju",
            "category": "telugu",
            "thumbnail": "https://i.ytimg.com/vi/sqW95LOMrBU/hq720.jpg"
        },
        {
            "id": "Zz_r2f7aqMo",
            "title": "Satyam Ranam Veeragamanam Full Movie | Telugu Film 2026 | Action Thriller | SriSnap Studio",
            "url": "https://www.youtube.com/watch?v=Zz_r2f7aqMo",
            "duration": 5960.0,
            "view_count": 3254,
            "uploader": "SriSnap Studios",
            "category": "telugu",
            "thumbnail": "https://i.ytimg.com/vi/Zz_r2f7aqMo/hq720.jpg"
        },
        {
            "id": "ejyvDFhRw8g",
            "title": "Funky (2026) | Latest Telugu Blockbuster Full Length Movies | New Telugu Movies 2026 Full Movie",
            "url": "https://www.youtube.com/watch?v=ejyvDFhRw8g",
            "duration": 7379.0,
            "view_count": 1479,
            "uploader": "Single Screen Cinema",
            "category": "telugu",
            "thumbnail": "https://i.ytimg.com/vi/ejyvDFhRw8g/hq720.jpg"
        },
        {
            "id": "nO8X7uLlPY0",
            "title": "MISSION 21 (మిషన్ 21) Full Movie In Telugu | Ravi Teja New Telugu Mass Action Thriller | 1080P HD",
            "url": "https://www.youtube.com/watch?v=nO8X7uLlPY0",
            "duration": 7581.0,
            "view_count": 1629326,
            "uploader": "Andhra Talkies",
            "category": "telugu",
            "thumbnail": "https://i.ytimg.com/vi/nO8X7uLlPY0/hq720.jpg"
        },
        {
            "id": "B_zOZAKkamI",
            "title": "Trishulam (త్రిశూలం) Full Movie In Telugu | Gopichand | Keerthy Suresh | Action Crime Thriller HD",
            "url": "https://www.youtube.com/watch?v=B_zOZAKkamI",
            "duration": 7665.0,
            "view_count": 2531157,
            "uploader": "Andhra Talkies",
            "category": "telugu",
            "thumbnail": "https://i.ytimg.com/vi/B_zOZAKkamI/hq720.jpg"
        },
        {
            "id": "-L6wRyORpw0",
            "title": "Kingdom Spy Action Thriller Telugu Full Film | Bhagyashri Borse | Vijay Deverakonda@tfcmaacinemalu",
            "url": "https://www.youtube.com/watch?v=-L6wRyORpw0",
            "duration": 8469.0,
            "view_count": 2183001,
            "uploader": "Maa Cinemalu",
            "category": "telugu",
            "thumbnail": "https://i.ytimg.com/vi/-L6wRyORpw0/hq720.jpg"
        },
        {
            "id": "wgvgVcrMQ_Q",
            "title": "24 Superhit Telugu Dubbed Action Full Length HD Movie | Suriya | Samantha | Nithya Menen | TBO |",
            "url": "https://www.youtube.com/watch?v=wgvgVcrMQ_Q",
            "duration": 9306.0,
            "view_count": 370284,
            "uploader": "Tollywood Box Office",
            "category": "telugu",
            "thumbnail": "https://i.ytimg.com/vi/wgvgVcrMQ_Q/hq720.jpg"
        },
        {
            "id": "n5LYWoLupkI",
            "title": "Pandaga Chesko Telugu Family/Action Full HD Movie | Ram Pothineni | Rakul Preet Singh | Matinee Show",
            "url": "https://www.youtube.com/watch?v=n5LYWoLupkI",
            "duration": 8038.0,
            "view_count": 304094,
            "uploader": "Matinee Show",
            "category": "telugu",
            "thumbnail": "https://i.ytimg.com/vi/n5LYWoLupkI/hq720.jpg"
        },
        {
            "id": "4m7kwABtrSQ",
            "title": "Shailaja Reddy Alludu Rom/Com Telugu Full Film | Naga Chaitanya, Anu Emmanuel @southcinemahall",
            "url": "https://www.youtube.com/watch?v=4m7kwABtrSQ",
            "duration": 7152.0,
            "view_count": 50177,
            "uploader": "South Cinema Hall",
            "category": "telugu",
            "thumbnail": "https://i.ytimg.com/vi/4m7kwABtrSQ/hq720.jpg"
        },
        {
            "id": "886SZm_A8wE",
            "title": "Seethamma Vakitlo Sirimalle Chettu Full Movie | Mahesh Babu | Venkatesh | Samantha | Mango Videos",
            "url": "https://www.youtube.com/watch?v=886SZm_A8wE",
            "duration": 9552.0,
            "view_count": 8568415,
            "uploader": "Mango Videos",
            "category": "telugu",
            "thumbnail": "https://i.ytimg.com/vi/886SZm_A8wE/hq720.jpg"
        },
        {
            "id": "_V-SxfvjQig",
            "title": "Pandem Kodi 2 Action-Drama Telugu Full Film | Vishal And Keerthy Suresh | Varalaxmi@tfcmaacinemalu",
            "url": "https://www.youtube.com/watch?v=_V-SxfvjQig",
            "duration": 7937.0,
            "view_count": 176282,
            "uploader": "Maa Cinemalu",
            "category": "telugu",
            "thumbnail": "https://i.ytimg.com/vi/_V-SxfvjQig/hq720.jpg"
        },
        {
            "id": "1oQSmBJXQko",
            "title": "Village Series Full Movie | Funmoji | Telugu Full Movies | MCA | Comedy Movie | Infinitum Movies",
            "url": "https://www.youtube.com/watch?v=1oQSmBJXQko",
            "duration": 37614.0,
            "view_count": 3078,
            "uploader": "Infinitum Movies",
            "category": "telugu",
            "thumbnail": "https://i.ytimg.com/vi/1oQSmBJXQko/hq720.jpg"
        },
        {
            "id": "NW03LRreinU",
            "title": "OMG (O Manchi Ghost) 2026 Latest Telugu Horror Comedy Full Movie | Vennela Kishore, Nandita Swetha",
            "url": "https://www.youtube.com/watch?v=NW03LRreinU",
            "duration": 7158.0,
            "view_count": 3479741,
            "uploader": "SriBalajiMovies and 4 more",
            "category": "telugu",
            "thumbnail": "https://i.ytimg.com/vi/NW03LRreinU/hq720.jpg"
        },
        {
            "id": "C-CRRVpoZqM",
            "title": "Baadshah Telugu Full Movie | 4K | Jr NTR | Kajal Aggarwal | Ganesh Videos",
            "url": "https://www.youtube.com/watch?v=C-CRRVpoZqM",
            "duration": 9642.0,
            "view_count": 456648,
            "uploader": "Ganesh Videos",
            "category": "telugu",
            "thumbnail": "https://i.ytimg.com/vi/C-CRRVpoZqM/hq720.jpg"
        },
        {
            "id": "K5yyGmi0OSY",
            "title": "They Call Him OG (2025) HD Telugu Full Movie Pawan Kalyan telugu full movie",
            "url": "https://www.youtube.com/watch?v=K5yyGmi0OSY",
            "duration": 9044.0,
            "view_count": 844942,
            "uploader": "venu for you 18",
            "category": "telugu",
            "thumbnail": "https://i.ytimg.com/vi/K5yyGmi0OSY/hqdefault.jpg"
        },
        {
            "id": "14d3052AHuQ",
            "title": "A Beautiful Journey of Love: Andamaina Jeevitham Full Movie | Dulquer & Anupama Chemistry",
            "url": "https://www.youtube.com/watch?v=14d3052AHuQ",
            "duration": 8331.0,
            "view_count": 305352,
            "uploader": "Bhavani Movies",
            "category": "telugu",
            "thumbnail": "https://i.ytimg.com/vi/14d3052AHuQ/hq720.jpg"
        },
        {
            "id": "PYpBvVKnwfs",
            "title": "Superstar Rajinikanth Jailer Telugu Superhit  Full HD Film | Mohanlal | Tamanna | Shivraj Kumar",
            "url": "https://www.youtube.com/watch?v=PYpBvVKnwfs",
            "duration": 9264.0,
            "view_count": 3139682,
            "uploader": "Tollywood Box Office",
            "category": "telugu",
            "thumbnail": "https://i.ytimg.com/vi/PYpBvVKnwfs/hq720.jpg"
        },
        {
            "id": "7klngMnIdgY",
            "title": "K-Ramp | Full movie | Telugu | kiran Abbavaram | ",
            "url": "https://www.youtube.com/watch?v=7klngMnIdgY",
            "duration": 8264.0,
            "view_count": 88,
            "uploader": "Telugu movies show",
            "category": "telugu",
            "thumbnail": "https://i.ytimg.com/vi/7klngMnIdgY/hqdefault.jpg"
        },
        {
            "id": "fZfDNO-Tb5U",
            "title": "Kalaga Thalaivan Telugu SuperHit Action/Thriller Drama Full Movie | Udhayanidhi Stalin | MatineeShow",
            "url": "https://www.youtube.com/watch?v=fZfDNO-Tb5U",
            "duration": 7558.0,
            "view_count": 110624,
            "uploader": "Matinee Show",
            "category": "telugu",
            "thumbnail": "https://i.ytimg.com/vi/fZfDNO-Tb5U/hq720.jpg"
        },
        {
            "id": "KBAD0iJyWHE",
            "title": "ప్రతీకారం 🔥 Telugu Superhit Full Length HD Movie | Amala Paul | @tollywoodboxoffice",
            "url": "https://www.youtube.com/watch?v=KBAD0iJyWHE",
            "duration": 6225.0,
            "view_count": 33596,
            "uploader": "Tollywood Box Office",
            "category": "telugu",
            "thumbnail": "https://i.ytimg.com/vi/KBAD0iJyWHE/hq720.jpg"
        },
        {
            "id": "OAu6FscKQg0",
            "title": "Pelli Kani Prasad Telugu Full Movie | Sapthagiri, Priyanka | Abhilash Reddy | Volga Videos",
            "url": "https://www.youtube.com/watch?v=OAu6FscKQg0",
            "duration": 6951.0,
            "view_count": 1855125,
            "uploader": "Volga Video",
            "category": "telugu",
            "thumbnail": "https://i.ytimg.com/vi/OAu6FscKQg0/hq720.jpg"
        },
        {
            "id": "xky7dJVOelc",
            "title": "PLAN B (ప్లాన్ బీ) | Sree Vishnu, Reba Monica John New Telugu Comedy Drama | Full HD Movie",
            "url": "https://www.youtube.com/watch?v=xky7dJVOelc",
            "duration": 7049.0,
            "view_count": 70185,
            "uploader": "Andhra Talkies",
            "category": "telugu",
            "thumbnail": "https://i.ytimg.com/vi/xky7dJVOelc/hq720.jpg"
        },
        {
            "id": "wzCBMIv3fn8",
            "title": "Rashmika Devarakonda, Sharwanand, Khushbu Sundar & Radhika Sarathkumar 2026 Telugu Full 4K Movie ",
            "url": "https://www.youtube.com/watch?v=wzCBMIv3fn8",
            "duration": 7115.0,
            "view_count": 1686075,
            "uploader": "Mana Chitraalu",
            "category": "telugu",
            "thumbnail": "https://i.ytimg.com/vi/wzCBMIv3fn8/hqdefault.jpg"
        },
        {
            "id": "kAdsI_z-z8k",
            "title": "Manchi Rojulochaie Superhit Telugu Full HD Movie | Santosh Sobhan | Mehreen Pirzada | Ajay Ghosh",
            "url": "https://www.youtube.com/watch?v=kAdsI_z-z8k",
            "duration": 7367.0,
            "view_count": 105065,
            "uploader": "Tollywood Box Office",
            "category": "telugu",
            "thumbnail": "https://i.ytimg.com/vi/kAdsI_z-z8k/hq720.jpg"
        },
        {
            "id": "zsKmBxS_26E",
            "title": "Rakshit Shetty & Sangeetha Sringeri's Adventure Drama Telugu Full Movie HD | Icon Videos",
            "url": "https://www.youtube.com/watch?v=zsKmBxS_26E",
            "duration": 8432.0,
            "view_count": 378059,
            "uploader": "ICON VIDEOS",
            "category": "telugu",
            "thumbnail": "https://i.ytimg.com/vi/zsKmBxS_26E/hq720.jpg"
        },
        {
            "id": "j7AaUF3XcRo",
            "title": "Aparichitudu Vikram Super Hit Action/Thriller Drama Telugu Full Length HD Movie || Matinee Show",
            "url": "https://www.youtube.com/watch?v=j7AaUF3XcRo",
            "duration": 8856.0,
            "view_count": 61113,
            "uploader": "Matinee Show",
            "category": "telugu",
            "thumbnail": "https://i.ytimg.com/vi/j7AaUF3XcRo/hq720.jpg"
        },
        {
            "id": "5ArNt8YCgMQ",
            "title": "New Telugu Movie|Telugu Movie|Telugu New Movie|Latest Telugu Movie|New Telugu Movie|Movie Scenes ",
            "url": "https://www.youtube.com/watch?v=5ArNt8YCgMQ",
            "duration": 8664.0,
            "view_count": 140412,
            "uploader": "Aha Telugu New Movies ",
            "category": "telugu",
            "thumbnail": "https://i.ytimg.com/vi/5ArNt8YCgMQ/hq720.jpg"
        },
        {
            "id": "HxvuK6K6aB4",
            "title": "పెళ్లి చేసుకుందాం| LET'S GET MARRIED TELUGU 4K Full Movie | Harish Kalyan | Nadhiya | Yogi Babu",
            "url": "https://www.youtube.com/watch?v=HxvuK6K6aB4",
            "duration": 8190.0,
            "view_count": 213387,
            "uploader": "API Indian Movie Hub",
            "category": "telugu",
            "thumbnail": "https://i.ytimg.com/vi/HxvuK6K6aB4/hq720.jpg"
        },
        {
            "id": "HCbcXjSRat4",
            "title": "Vikram Telugu Dubbed Action Thriller Full HD Movie | Kamal Haasan | Vijay Sethupathi | Fahadh Faasil",
            "url": "https://www.youtube.com/watch?v=HCbcXjSRat4",
            "duration": 9552.0,
            "view_count": 474917,
            "uploader": "Tollywood Box Office",
            "category": "telugu",
            "thumbnail": "https://i.ytimg.com/vi/HCbcXjSRat4/hq720.jpg"
        },
        {
            "id": "pG4_xm-UilM",
            "title": "Venky Telugu Full Movie | Ravi Teja, Sneha, Ashutosh Rana | AR Entertainments",
            "url": "https://www.youtube.com/watch?v=pG4_xm-UilM",
            "duration": 10155.0,
            "view_count": 10567927,
            "uploader": "AR Entertainments Movies",
            "category": "telugu",
            "thumbnail": "https://i.ytimg.com/vi/pG4_xm-UilM/hq720.jpg"
        },
        {
            "id": "wYHs_oEMIWA",
            "title": "Ala Vaikunthapurramuloo Action Drama Telugu HD Film | Allu Arjun | Pooja Hegde @tfcmaacinemalu",
            "url": "https://www.youtube.com/watch?v=wYHs_oEMIWA",
            "duration": 8376.0,
            "view_count": 9905580,
            "uploader": "Maa Cinemalu",
            "category": "telugu",
            "thumbnail": "https://i.ytimg.com/vi/wYHs_oEMIWA/hq720.jpg"
        },
        {
            "id": "a069DahGBqg",
            "title": "TARGET (టార్గెట్) | Ravi Teja, Rajisha Vijayan New Telugu Action Thriller | Full HD Movie",
            "url": "https://www.youtube.com/watch?v=a069DahGBqg",
            "duration": 7581.0,
            "view_count": 549081,
            "uploader": "Andhra Talkies",
            "category": "telugu",
            "thumbnail": "https://i.ytimg.com/vi/a069DahGBqg/hq720.jpg"
        }
    ]
}