{
    "page": 22,
    "total_pages": 103,
    "total_items": 5125,
    "items": [
        {
            "id": "mXA_IFEYMrU",
            "title": "AK420 Full Movie Hindi Dubbed | Ajith Kumar | Jagapathi Babu | Latest South Indian Action Movie 2026",
            "url": "https://www.youtube.com/watch?v=mXA_IFEYMrU",
            "duration": 7342.0,
            "view_count": 926,
            "uploader": "Bolly Pictures Point",
            "category": "hindi",
            "thumbnail": "https://i.ytimg.com/vi/mXA_IFEYMrU/hq720.jpg"
        },
        {
            "id": "Y-P9pypibvw",
            "title": "Vinaya Vidheya Rama (2025) | Ram Charan, Kiara Advani Hindi Dubbed Action Movie | Full HD",
            "url": "https://www.youtube.com/watch?v=Y-P9pypibvw",
            "duration": 7453.0,
            "view_count": 44992,
            "uploader": "PlayNation",
            "category": "hindi",
            "thumbnail": "https://i.ytimg.com/vi/Y-P9pypibvw/hq720.jpg"
        },
        {
            "id": "K4jAfceOXD4",
            "title": "Hindi Medium Full Movie HD | Irrfan Khan, Saba Qamar, Deepak Dobriyal | Superhit Comedy Movie",
            "url": "https://www.youtube.com/watch?v=K4jAfceOXD4",
            "duration": 7929.0,
            "view_count": 2368612,
            "uploader": "Dhamaka Movies",
            "category": "hindi",
            "thumbnail": "https://i.ytimg.com/vi/K4jAfceOXD4/hq720.jpg"
        },
        {
            "id": "5AhVVvxsDrs",
            "title": "Bikhari 2.0 Full Hindi Dubbed Movie 2026 | New South Action Movie | Danush , Sai Pallavi #fullmovie",
            "url": "https://www.youtube.com/watch?v=5AhVVvxsDrs",
            "duration": 5247.0,
            "view_count": 1583344,
            "uploader": "Haryanvi Show",
            "category": "hindi",
            "thumbnail": "https://i.ytimg.com/vi/5AhVVvxsDrs/hq720.jpg"
        },
        {
            "id": "A84XVykm_j4",
            "title": "REVENGE | Ram Charan, Samantha | New (2026) Released Hindi Action Crime Thriller Movie | Full HD",
            "url": "https://www.youtube.com/watch?v=A84XVykm_j4",
            "duration": 8559.0,
            "view_count": 24773,
            "uploader": "PlayNation",
            "category": "hindi",
            "thumbnail": "https://i.ytimg.com/vi/A84XVykm_j4/hq720.jpg"
        },
        {
            "id": "iFXa7_vh14I",
            "title": "Lagaan (2001) Full Movie in 1080p HD | Complete Movie",
            "url": "https://www.youtube.com/watch?v=iFXa7_vh14I",
            "duration": 13323.0,
            "view_count": 8959,
            "uploader": "Kyle Ward",
            "category": "hindi",
            "thumbnail": "https://i.ytimg.com/vi/iFXa7_vh14I/hq720.jpg"
        },
        {
            "id": "NzbSDEhhKoo",
            "title": "PANTHER Full Action Movie 2026 | Dhanush, Nagaarjun | Superhit Full Hindi Dubbed Movie 2026",
            "url": "https://www.youtube.com/watch?v=NzbSDEhhKoo",
            "duration": 7084.0,
            "view_count": 80549,
            "uploader": "Movie Fiber",
            "category": "hindi",
            "thumbnail": "https://i.ytimg.com/vi/NzbSDEhhKoo/hq720.jpg"
        },
        {
            "id": "e3552u-RfbI",
            "title": "AA22*A6 | Full Hindi Dubbed Movie | Allu Arjun Deepika Padukone | New South Indian Action Movie 2026",
            "url": "https://www.youtube.com/watch?v=e3552u-RfbI",
            "duration": 7777.0,
            "view_count": 172208,
            "uploader": "Power Star Pictures",
            "category": "hindi",
            "thumbnail": "https://i.ytimg.com/vi/e3552u-RfbI/hq720.jpg"
        },
        {
            "id": "zgmYrNBsOqo",
            "title": "AA22*A6 | Full Hindi Dubbed Movie | Allu Arjun Deepika Padukone | New South Indian Action Movie 2026",
            "url": "https://www.youtube.com/watch?v=zgmYrNBsOqo",
            "duration": 7777.0,
            "view_count": 6362,
            "uploader": "Bolly Pictures Point",
            "category": "hindi",
            "thumbnail": "https://i.ytimg.com/vi/zgmYrNBsOqo/hq720.jpg"
        },
        {
            "id": "PBJmAGVafM8",
            "title": "#AK65 Full Movie Hindi Dubbed | Ajith Kumar | Jagapathi Babu | Latest South Indian Action Movie 2026",
            "url": "https://www.youtube.com/watch?v=PBJmAGVafM8",
            "duration": 7704.0,
            "view_count": 9707,
            "uploader": "FullOn Blockbuster",
            "category": "hindi",
            "thumbnail": "https://i.ytimg.com/vi/PBJmAGVafM8/hq720.jpg"
        },
        {
            "id": "gmFaRYtAgzE",
            "title": "Veerasat (2026) Full Movie HD | Vijay | Hindi Dubbed | Full Action Movie",
            "url": "https://www.youtube.com/watch?v=gmFaRYtAgzE",
            "duration": 8573.0,
            "view_count": 1308936,
            "uploader": "CinePulse TV",
            "category": "hindi",
            "thumbnail": "https://i.ytimg.com/vi/gmFaRYtAgzE/hq720.jpg"
        },
        {
            "id": "F3fvA4wK4cE",
            "title": "SAWERA (2026) | Dhanush | New South Indian Movie Dubbed In Hindi | Action Drama Thriller | Full HD",
            "url": "https://www.youtube.com/watch?v=F3fvA4wK4cE",
            "duration": 7084.0,
            "view_count": 15344,
            "uploader": "Movie Fiber",
            "category": "hindi",
            "thumbnail": "https://i.ytimg.com/vi/F3fvA4wK4cE/hq720.jpg"
        },
        {
            "id": "HhAlYz2i7O8",
            "title": "Raaka Full Movie Hindi Dubbed 2026 | Allu Arjun New Movie | Deepika P | Latest South Movie 2026",
            "url": "https://www.youtube.com/watch?v=HhAlYz2i7O8",
            "duration": 7777.0,
            "view_count": 828,
            "uploader": "Bolly Pictures Point",
            "category": "hindi",
            "thumbnail": "https://i.ytimg.com/vi/HhAlYz2i7O8/hq720.jpg"
        },
        {
            "id": "5csgxuSFn2E",
            "title": "Humko Deewana Kar Gaye 4K Full Movie | Akshay Kumar| Katrina Kaif| Anil Kapoor| Raj K| Bhushan Kumar",
            "url": "https://www.youtube.com/watch?v=5csgxuSFn2E",
            "duration": 8944.0,
            "view_count": 649785,
            "uploader": "T-Series",
            "category": "hindi",
            "thumbnail": "https://i.ytimg.com/vi/5csgxuSFn2E/hq720.jpg"
        },
        {
            "id": "o9Xv3SoQlnM",
            "title": "Ravanasura Latest Hindi Full Movie 4K | Ravi Teja | Sushanth | Megha Akash | Hindi New Movies 2026",
            "url": "https://www.youtube.com/watch?v=o9Xv3SoQlnM",
            "duration": 8008.0,
            "view_count": 3610964,
            "uploader": "Mango Indian Films",
            "category": "hindi",
            "thumbnail": "https://i.ytimg.com/vi/o9Xv3SoQlnM/hq720.jpg"
        },
        {
            "id": "OEip5pnROTE",
            "title": "AA22*A6 | Full Hindi Dubbed Movie | Allu Arjun Deepika Padukone | New South Indian Action Movie 2026",
            "url": "https://www.youtube.com/watch?v=OEip5pnROTE",
            "duration": 7777.0,
            "view_count": 8363,
            "uploader": "Power Star Pictures",
            "category": "hindi",
            "thumbnail": "https://i.ytimg.com/vi/OEip5pnROTE/hq720.jpg"
        },
        {
            "id": "ZI5rm5_LBl0",
            "title": "Yevadu 2 (HD) - Teddy Day Special Action Romantic Hindi Dubbed Movie l Ram Charan, Kajal Aggarwal",
            "url": "https://www.youtube.com/watch?v=ZI5rm5_LBl0",
            "duration": 6975.0,
            "view_count": 2949381,
            "uploader": "Goldmines Movies",
            "category": "hindi",
            "thumbnail": "https://i.ytimg.com/vi/ZI5rm5_LBl0/hq720.jpg"
        },
        {
            "id": "8UNFn7qAiT8",
            "title": "Raaka Full Movie Hindi Dubbed 2026 | Allu Arjun New Movie | Deepika P | Latest South Movie 2026",
            "url": "https://www.youtube.com/watch?v=8UNFn7qAiT8",
            "duration": 7777.0,
            "view_count": 9721,
            "uploader": "Bollywood World",
            "category": "hindi",
            "thumbnail": "https://i.ytimg.com/vi/8UNFn7qAiT8/hq720.jpg"
        },
        {
            "id": "C68KgRrBA3E",
            "title": "International Rowdy | New (2026) Released South Indian Movie Dubbed In Hindi | Action Thriller Movie",
            "url": "https://www.youtube.com/watch?v=C68KgRrBA3E",
            "duration": 8525.0,
            "view_count": 219428,
            "uploader": "Wamindia Movies",
            "category": "hindi",
            "thumbnail": "https://i.ytimg.com/vi/C68KgRrBA3E/hq720.jpg"
        },
        {
            "id": "ABNcH4uNKnQ",
            "title": "THE RAJASAAB 2 - Full Movie In Hindi | Prabhas | Sanjay Dutt Latest South Indian Horror Movie 2026",
            "url": "https://www.youtube.com/watch?v=ABNcH4uNKnQ",
            "duration": 7473.0,
            "view_count": 7717,
            "uploader": "G Digital Cinema",
            "category": "hindi",
            "thumbnail": "https://i.ytimg.com/vi/ABNcH4uNKnQ/hq720.jpg"
        },
        {
            "id": "3ME7rDDJIgU",
            "title": "#MB75 - Full Movie Hindi Dubbed | Prabhas | Alia Bhatt | Latest South Indian Thriller Movie 2026",
            "url": "https://www.youtube.com/watch?v=3ME7rDDJIgU",
            "duration": 7519.0,
            "view_count": 1728,
            "uploader": "Movies Fever",
            "category": "hindi",
            "thumbnail": "https://i.ytimg.com/vi/3ME7rDDJIgU/hq720.jpg"
        },
        {
            "id": "S3y9txfk8QI",
            "title": "THE RAJASAAB 2 - Full Movie In Hindi | Prabhas | Sanjay Dutt Latest South Indian Horror Movie 2026",
            "url": "https://www.youtube.com/watch?v=S3y9txfk8QI",
            "duration": 7473.0,
            "view_count": 126379,
            "uploader": "Bolly Pictures Point",
            "category": "hindi",
            "thumbnail": "https://i.ytimg.com/vi/S3y9txfk8QI/hq720.jpg"
        },
        {
            "id": "3bKN4iTWqis",
            "title": "VAALU: THE RUTHLESS BOSS - Hindi Dubbed Full Movie | Mammootty, Meena | South Action Movie",
            "url": "https://www.youtube.com/watch?v=3bKN4iTWqis",
            "duration": 5633.0,
            "view_count": 3902,
            "uploader": "Action Movies Digiplex",
            "category": "hindi",
            "thumbnail": "https://i.ytimg.com/vi/3bKN4iTWqis/hq720.jpg"
        },
        {
            "id": "F50EmsabWLc",
            "title": "Intelligent Khiladi (Goodachari) Hindi Dubbed Movie | South Movie | Adivi Sesh, Sobhita Dhulipala",
            "url": "https://www.youtube.com/watch?v=F50EmsabWLc",
            "duration": 8708.0,
            "view_count": 127367462,
            "uploader": "Aditya Movies",
            "category": "hindi",
            "thumbnail": "https://i.ytimg.com/vi/F50EmsabWLc/hq720.jpg"
        },
        {
            "id": "itNmrhLNawU",
            "title": "Gatha Vaibhava Kannada Full Movie ",
            "url": "https://www.youtube.com/watch?v=itNmrhLNawU",
            "duration": 8371.0,
            "view_count": 386598,
            "uploader": "movies_kannada",
            "category": "kannada",
            "thumbnail": "https://i.ytimg.com/vi/itNmrhLNawU/hq720.jpg"
        },
        {
            "id": "GVnsgcRpnEk",
            "title": "Yadha Yadha Hi Latest Kannada Crime Thriller Full Movie | Hari Priya, Vasishta | 2025 South Movies",
            "url": "https://www.youtube.com/watch?v=GVnsgcRpnEk",
            "duration": 7704.0,
            "view_count": 1449320,
            "uploader": "Sri Balaji Kannada Movies",
            "category": "kannada",
            "thumbnail": "https://i.ytimg.com/vi/GVnsgcRpnEk/hq720.jpg?sqp=-oaymwEcCNAFEJQDSFXyq4qpAw4IARUAAIhCGAFwAcABBg==&rs=AOn4CLDNCJ8GMFK6qIoepntBD8L6hriJ-g",
            "added_date": "2026-04-16T07:31:21.879910Z",
            "source": "youtube"
        },
        {
            "id": "hum75OM1hDY",
            "title": "Kamanabillu Kannada Full Movie - Dr Rajkumar, Ananthnag, Saritha, Thoogudeepa Srinivas",
            "url": "https://www.youtube.com/watch?v=hum75OM1hDY",
            "duration": 9776.0,
            "view_count": 936988,
            "uploader": "Dr. Rajkumar Hits - SGV ",
            "category": "kannada",
            "thumbnail": "https://i.ytimg.com/vi/hum75OM1hDY/hq720.jpg"
        },
        {
            "id": "bKj3dejY9M8",
            "title": "Mungaru Male Kannada Full Movie | Golden Star Ganesh | Pooja Gandhi | Yogaraj Bhat",
            "url": "https://www.youtube.com/watch?v=bKj3dejY9M8",
            "duration": 8264.0,
            "view_count": 1158580,
            "uploader": "SGV Digital - Kannada Full Movies",
            "category": "kannada",
            "thumbnail": "https://i.ytimg.com/vi/bKj3dejY9M8/hq720.jpg?sqp=-oaymwEcCNAFEJQDSFXyq4qpAw4IARUAAIhCGAFwAcABBg==&rs=AOn4CLDDgKsNrMrAw2bfbw3Aw-SI9u_Mtg",
            "added_date": "2026-04-16T07:31:22.881691Z",
            "source": "youtube"
        },
        {
            "id": "YYHLCsbCytU",
            "title": "Kiccha Huccha Kannada Full Movie - Kiccha Sudeep, Ramya, Srinath, Suresh Chandra",
            "url": "https://www.youtube.com/watch?v=YYHLCsbCytU",
            "duration": 8287.0,
            "view_count": 154757,
            "uploader": "Lotus Entertainment",
            "category": "kannada",
            "thumbnail": "https://i.ytimg.com/vi/YYHLCsbCytU/hq720.jpg"
        },
        {
            "id": "YodUQuZO_T4",
            "title": "Santhu Straight Forward Full Movie | Rocking Star Yash | Radhika Pandit | Kannada New Movies",
            "url": "https://www.youtube.com/watch?v=YodUQuZO_T4",
            "duration": 9563.0,
            "view_count": 8781810,
            "uploader": "Lotus Kannada Movies",
            "category": "kannada",
            "thumbnail": "https://i.ytimg.com/vi/YodUQuZO_T4/hq720.jpg?sqp=-oaymwEcCNAFEJQDSFXyq4qpAw4IARUAAIhCGAFwAcABBg==&rs=AOn4CLAj97mCzFAIu5Oept1aqRrHhJMIuA",
            "added_date": "2026-04-16T07:31:20.677690Z",
            "source": "youtube"
        },
        {
            "id": "7paFtArJWvs",
            "title": "Ulidavaru Kandanthe Full Movie - 4KUHD | Rakshit Shetty | Kishore | Rishab Shetty | Cineflix Kannada",
            "url": "https://www.youtube.com/watch?v=7paFtArJWvs",
            "duration": 8884.0,
            "view_count": 536959,
            "uploader": "Cineflix Talkies",
            "category": "kannada",
            "thumbnail": "https://i.ytimg.com/vi/7paFtArJWvs/hq720.jpg?sqp=-oaymwEcCNAFEJQDSFXyq4qpAw4IARUAAIhCGAFwAcABBg==&rs=AOn4CLBVarzyRMrGQ31PFC28tg2EHIn1GA",
            "added_date": "2026-04-16T07:31:21.078374Z",
            "source": "youtube"
        },
        {
            "id": "T0ie_lGKNgc",
            "title": "Dil Kush | Kannada Full Movie | Ranjeeth | Spandana Somanna | Rangayana Raghu | Jayaprabha Studios",
            "url": "https://www.youtube.com/watch?v=T0ie_lGKNgc",
            "duration": 7993.0,
            "view_count": 1791964,
            "uploader": "Jayaprabha Studios",
            "category": "kannada",
            "thumbnail": "https://i.ytimg.com/vi/T0ie_lGKNgc/hq720.jpg?sqp=-oaymwEcCNAFEJQDSFXyq4qpAw4IARUAAIhCGAFwAcABBg==&rs=AOn4CLCGpnfh12R-S2H9U8uU0PdeGfFbdw",
            "added_date": "2026-04-16T07:31:21.679452Z",
            "source": "youtube"
        },
        {
            "id": "J5psyjrT_fE",
            "title": "Gadibidi Aliya Kannada Full Movie | Shivarajkumar | Malashri | Mohini | Blockbuster Hit Movie",
            "url": "https://www.youtube.com/watch?v=J5psyjrT_fE",
            "duration": 9035.0,
            "view_count": 876999,
            "uploader": "Lotus Kannada Movies",
            "category": "kannada",
            "thumbnail": "https://i.ytimg.com/vi/J5psyjrT_fE/hq720.jpg"
        },
        {
            "id": "dAu8HWS_Ga4",
            "title": "Sampathige Saval | ಸಂಪತ್ತಿಗೆ ಸವಾಲ್ | Kannada Full Movie | Dr.Rajkumar | Manjula | Vajramuni, rajamma",
            "url": "https://www.youtube.com/watch?v=dAu8HWS_Ga4",
            "duration": 8869.0,
            "view_count": 15990965,
            "uploader": "SRS Media Vision | Kannada Full Movies",
            "category": "kannada",
            "thumbnail": "https://i.ytimg.com/vi/dAu8HWS_Ga4/hq720.jpg"
        },
        {
            "id": "zf0LfGlFBO8",
            "title": "Rama Shama Bhama Kannada Full Movie - Kamal Haasan, Ramesh Aravind, Daisy Bopanna, Urvashi, Shruthi",
            "url": "https://www.youtube.com/watch?v=zf0LfGlFBO8",
            "duration": 8483.0,
            "view_count": 2905435,
            "uploader": "Lotus Kannada Movies",
            "category": "kannada",
            "thumbnail": "https://i.ytimg.com/vi/zf0LfGlFBO8/hq720.jpg"
        },
        {
            "id": "tkju26ZfUec",
            "title": "Dakota Picture (2012) Kannada Full Movie | Anand Movies | Comedy Entertainer | HD",
            "url": "https://www.youtube.com/watch?v=tkju26ZfUec",
            "duration": 7514.0,
            "view_count": 2648,
            "uploader": "Kannada FilmX House ",
            "category": "kannada",
            "thumbnail": "https://i.ytimg.com/vi/tkju26ZfUec/hqdefault.jpg"
        },
        {
            "id": "_0HOpWQ6wCM",
            "title": "Mane Maratakkide - New Kannada Full Comedy Movie | Sadhu Kolkila, Chikkanna, Kuri Prathap",
            "url": "https://www.youtube.com/watch?v=_0HOpWQ6wCM",
            "duration": 6152.0,
            "view_count": 2103852,
            "uploader": "SGV Digital - Kannada Full Movies",
            "category": "kannada",
            "thumbnail": "https://i.ytimg.com/vi/_0HOpWQ6wCM/hq720.jpg?sqp=-oaymwEcCNAFEJQDSFXyq4qpAw4IARUAAIhCGAFwAcABBg==&rs=AOn4CLDANO4XkWCUQMxZ__DVCwqHkFAIaQ",
            "added_date": "2026-04-16T07:31:22.080280Z",
            "source": "youtube"
        },
        {
            "id": "34_ZQ5ByS8g",
            "title": "Mukunda murari kannada full movie| upendra movies| ಮುಕುಂದ ಮುರಾರಿ ಕನ್ನಡ ಫುಲ್ ಮೂವಿ",
            "url": "https://www.youtube.com/watch?v=34_ZQ5ByS8g",
            "duration": 7030.0,
            "view_count": 651877,
            "uploader": "Marco ",
            "category": "kannada",
            "thumbnail": "https://i.ytimg.com/vi/34_ZQ5ByS8g/hqdefault.jpg"
        },
        {
            "id": "gEEFkThDr_8",
            "title": "ದೇವಾ - DEVA Kannada Full Movie | Kiccha Sudeep | Ramya | Suresh Chandra | Shreya Movies Kannada",
            "url": "https://www.youtube.com/watch?v=gEEFkThDr_8",
            "duration": 6731.0,
            "view_count": 851013,
            "uploader": "Shreya Movies Kannada",
            "category": "kannada",
            "thumbnail": "https://i.ytimg.com/vi/gEEFkThDr_8/hq720.jpg"
        },
        {
            "id": "x2yaxM0pCPA",
            "title": "Kempegowda | Kannada Movie | Sudeep | Ragini | Shankar Productions | Arjun Janya | Action Movie",
            "url": "https://www.youtube.com/watch?v=x2yaxM0pCPA",
            "duration": 8905.0,
            "view_count": 1676221,
            "uploader": "SRS Media Vision | Kannada Full Movies",
            "category": "kannada",
            "thumbnail": "https://i.ytimg.com/vi/x2yaxM0pCPA/hq720.jpg"
        },
        {
            "id": "7gp4YrTD18M",
            "title": "Yarigu Helbedi Kannada Full Movie Ananthnag, Lokesh, Vinaya Prasad - Superhit Comedy Film",
            "url": "https://www.youtube.com/watch?v=7gp4YrTD18M",
            "duration": 8666.0,
            "view_count": 479176,
            "uploader": "SGV - Shankarnag & Ananthnag Hits",
            "category": "kannada",
            "thumbnail": "https://i.ytimg.com/vi/7gp4YrTD18M/hq720.jpg"
        },
        {
            "id": "p6UITFRIQZI",
            "title": "Haage Vaikuntapuradali Kannada Superhit Action Full Length HD Movie | Allu Arjun | Pooja Hegde",
            "url": "https://www.youtube.com/watch?v=p6UITFRIQZI",
            "duration": 9646.0,
            "view_count": 3345977,
            "uploader": "TRP Entertainments",
            "category": "kannada",
            "thumbnail": "https://i.ytimg.com/vi/p6UITFRIQZI/hq720.jpg"
        },
        {
            "id": "iEXIOvfV1YY",
            "title": "ಕೌಸಲ್ಯ ಸುಪ್ರಜಾ ರಾಮ - Kannada Full Movie | DarlingKrishna | Nagabhushana | Milana | Brinda | Shashank",
            "url": "https://www.youtube.com/watch?v=iEXIOvfV1YY",
            "duration": 8698.0,
            "view_count": 7500283,
            "uploader": "Divo Movies Kannada",
            "category": "kannada",
            "thumbnail": "https://i.ytimg.com/vi/iEXIOvfV1YY/hq720.jpg"
        },
        {
            "id": "lmXKTLQrhnI",
            "title": "Robert kannada full movie......",
            "url": "https://www.youtube.com/watch?v=lmXKTLQrhnI",
            "duration": 9922.0,
            "view_count": 854213,
            "uploader": "D icons movie",
            "category": "kannada",
            "thumbnail": "https://i.ytimg.com/vi/lmXKTLQrhnI/hqdefault.jpg"
        },
        {
            "id": "y9oN9DkNeIg",
            "title": "Satyadev IPS New Kannada Full Movie | Ajith Kumar | Arun Vijay | Anushka Shetty | Trisha |",
            "url": "https://www.youtube.com/watch?v=y9oN9DkNeIg",
            "duration": 8389.0,
            "view_count": 742548,
            "uploader": "TRP Entertainments",
            "category": "kannada",
            "thumbnail": "https://i.ytimg.com/vi/y9oN9DkNeIg/hq720.jpg"
        },
        {
            "id": "c_sKQ4rSbAE",
            "title": "ಕವಚ್ - KAVACH Kannada Full Movie | Sri Murali | Haripriya | Prasanth Neel | Kannada Movie",
            "url": "https://www.youtube.com/watch?v=c_sKQ4rSbAE",
            "duration": 7329.0,
            "view_count": 592081,
            "uploader": "Shreya Movies Kannada",
            "category": "kannada",
            "thumbnail": "https://i.ytimg.com/vi/c_sKQ4rSbAE/hq720.jpg"
        },
        {
            "id": "kh_H9fvY9-g",
            "title": "99 Superhit Kannada Full Length HD Movie | Ganesh | Bhavana | TRP Entertainments",
            "url": "https://www.youtube.com/watch?v=kh_H9fvY9-g",
            "duration": 8413.0,
            "view_count": 1500147,
            "uploader": "TRP Entertainments",
            "category": "kannada",
            "thumbnail": "https://i.ytimg.com/vi/kh_H9fvY9-g/hq720.jpg"
        },
        {
            "id": "XJ_g2UUpftY",
            "title": "10ne Clasu Swalpa Masu | Kannada 4K Full Movie | Abhi | Gilli Nata | Arun | Deepu | Thiruganahalli",
            "url": "https://www.youtube.com/watch?v=XJ_g2UUpftY",
            "duration": 7567.0,
            "view_count": 3885342,
            "uploader": "SRS Media Vision | Kannada Full Movies",
            "category": "kannada",
            "thumbnail": "https://i.ytimg.com/vi/XJ_g2UUpftY/hq720.jpg"
        },
        {
            "id": "LkA7cQwTBto",
            "title": "America America | ಅಮೇರಿಕಾ ಅಮೇರಿಕಾ |Kannada Full Movie | Ramesh Aravind |Hema Panchamukhi |Love movie",
            "url": "https://www.youtube.com/watch?v=LkA7cQwTBto",
            "duration": 9128.0,
            "view_count": 5225152,
            "uploader": "SRS Media Vision | Kannada Full Movies",
            "category": "kannada",
            "thumbnail": "https://i.ytimg.com/vi/LkA7cQwTBto/hq720.jpg"
        },
        {
            "id": "dbsDSyKF_ro",
            "title": "Rathaavara ರಥಾವರ (2015) Kannada Full Movie | Sriimurali | Rachita Ram | Chandrashekhar |  Movies",
            "url": "https://www.youtube.com/watch?v=dbsDSyKF_ro",
            "duration": 7889.0,
            "view_count": 9285277,
            "uploader": "Movies Powered By Think Music",
            "category": "kannada",
            "thumbnail": "https://i.ytimg.com/vi/dbsDSyKF_ro/hq720.jpg"
        }
    ]
}