{
    "page": 18,
    "total_pages": 103,
    "total_items": 5125,
    "items": [
        {
            "id": "iLBM9tZuzFg",
            "title": "THALAPATHY VIJAY & RASHMIKA MANDANNA FULL ACTION MOVIE | HURT | Latest South Hindi Dubbed Movie 2026",
            "url": "https://www.youtube.com/watch?v=iLBM9tZuzFg",
            "duration": 7099.0,
            "view_count": 311944,
            "uploader": "4x Cinema",
            "category": "hindi",
            "thumbnail": "https://i.ytimg.com/vi/iLBM9tZuzFg/hq720.jpg"
        },
        {
            "id": "Wo-kmQzcrOs",
            "title": "LOST Full Movie Hindi Dubbed | Dhanush, Keerthy Suresh | Latest South Indian Love Story Movie 2026",
            "url": "https://www.youtube.com/watch?v=Wo-kmQzcrOs",
            "duration": 6680.0,
            "view_count": 47189,
            "uploader": "FilmyJunction",
            "category": "hindi",
            "thumbnail": "https://i.ytimg.com/vi/Wo-kmQzcrOs/hq720.jpg"
        },
        {
            "id": "ELXTbENIWKo",
            "title": "Toxic Full Movie Hindi Dubbed 2026 | Yash | Kiara | Huma | Nayanthara | South Action Full HD Movie",
            "url": "https://www.youtube.com/watch?v=ELXTbENIWKo",
            "duration": 8156.0,
            "view_count": 83156,
            "uploader": "Power Star Pictures",
            "category": "hindi",
            "thumbnail": "https://i.ytimg.com/vi/ELXTbENIWKo/hq720.jpg"
        },
        {
            "id": "hsgoEM2Amng",
            "title": "King Rise 2026 | 2026 South Blockbuster Action Full Movie Hindi Dubbed Allu Arjun & Shruti",
            "url": "https://www.youtube.com/watch?v=hsgoEM2Amng",
            "duration": 7300.0,
            "view_count": 158459,
            "uploader": "CinePulse TV",
            "category": "hindi",
            "thumbnail": "https://i.ytimg.com/vi/hsgoEM2Amng/hq720.jpg"
        },
        {
            "id": "tKqo-4qAeJA",
            "title": "Haseena Parkar Full Movie | Shraddha Kapoor, Siddhanth Kapoor, Apoorva | Bollywood Movie",
            "url": "https://www.youtube.com/watch?v=tKqo-4qAeJA",
            "duration": 7071.0,
            "view_count": 127676163,
            "uploader": "Pen Movies",
            "category": "hindi",
            "thumbnail": "https://i.ytimg.com/vi/tKqo-4qAeJA/hq720.jpg"
        },
        {
            "id": "c0-PC-egbz8",
            "title": "Mahesh Babu Full Movie Hindi Dubbed | Blockbuster Action Thriller | HD New Movie 2026",
            "url": "https://www.youtube.com/watch?v=c0-PC-egbz8",
            "duration": 7101.0,
            "view_count": 2774142,
            "uploader": "Letoleen Records",
            "category": "hindi",
            "thumbnail": "https://i.ytimg.com/vi/c0-PC-egbz8/hq720.jpg"
        },
        {
            "id": "gz-qAdvDsSk",
            "title": "Viduthalai Part 1 (2026) New Released Hindi Dubbed Full Movie | Vijay Sethupathi, Soori, Bhavani Sre",
            "url": "https://www.youtube.com/watch?v=gz-qAdvDsSk",
            "duration": 7395.0,
            "view_count": 4770700,
            "uploader": "Grand Master Movies and 2 more",
            "category": "hindi",
            "thumbnail": "https://i.ytimg.com/vi/gz-qAdvDsSk/hq720.jpg"
        },
        {
            "id": "K-PtQJThkZ0",
            "title": "Bluffmaster Full Comedy Movie | Abhishek Bachchan, Ritesh Deshmukh, Sanjay Mishra | Hindi Movie | 4K",
            "url": "https://www.youtube.com/watch?v=K-PtQJThkZ0",
            "duration": 7628.0,
            "view_count": 1167018,
            "uploader": "Comedy Talkies",
            "category": "hindi",
            "thumbnail": "https://i.ytimg.com/vi/K-PtQJThkZ0/hq720.jpg"
        },
        {
            "id": "m5LiYTh5ctQ",
            "title": "TIPU SULTAN Full Hindi Movie 2026| Shah Rukh Khan, Ranveer Singh & Deepika Padukone | New Release HD",
            "url": "https://www.youtube.com/watch?v=m5LiYTh5ctQ",
            "duration": 9365.0,
            "view_count": 1358697,
            "uploader": "Anjali Dhariwal",
            "category": "hindi",
            "thumbnail": "https://i.ytimg.com/vi/m5LiYTh5ctQ/hq720.jpg"
        },
        {
            "id": "0v4Hbf0nl6E",
            "title": "Golmaal Again Full Movie - Ajay Devgn, Tabu, Arshad, Johny, Kunal, Tusshar | Best Comedy",
            "url": "https://www.youtube.com/watch?v=0v4Hbf0nl6E",
            "duration": 8709.0,
            "view_count": 30427191,
            "uploader": "Shemaroo Movies",
            "category": "hindi",
            "thumbnail": "https://i.ytimg.com/vi/0v4Hbf0nl6E/hq720.jpg"
        },
        {
            "id": "iZ--E_pGCSY",
            "title": "New Released \"Taxi (2023) | South Indian Action Thriller Full Movie Hindi Dubbed | Latest South Film",
            "url": "https://www.youtube.com/watch?v=iZ--E_pGCSY",
            "duration": 6976.0,
            "view_count": 272971,
            "uploader": "Big Screen Entertainment",
            "category": "hindi",
            "thumbnail": "https://i.ytimg.com/vi/iZ--E_pGCSY/hq720.jpg"
        },
        {
            "id": "J8StEzQxlro",
            "title": "Vinaya Vidheya Rama (2025) | Ram Charan, Kiara Advani Hindi Dubbed Action Movie | Full HD",
            "url": "https://www.youtube.com/watch?v=J8StEzQxlro",
            "duration": 7453.0,
            "view_count": 19459,
            "uploader": "PlayNation",
            "category": "hindi",
            "thumbnail": "https://i.ytimg.com/vi/J8StEzQxlro/hq720.jpg"
        },
        {
            "id": "pEI9xHRit6w",
            "title": "Pushpa 3 Full Movie 2026 | Allu Arjun | Rashmika Mandanna | New South Indian Hindi Dubbed Movie 2026",
            "url": "https://www.youtube.com/watch?v=pEI9xHRit6w",
            "duration": 8932.0,
            "view_count": 7194,
            "uploader": "Bolly Pictures Point",
            "category": "hindi",
            "thumbnail": "https://i.ytimg.com/vi/pEI9xHRit6w/hq720.jpg"
        },
        {
            "id": "G3c03u_b5KI",
            "title": "Dhurandhar 2 The Revenge 💥 Full Hindi Movie | Aditya Dhar, Ranveer Singh Dhurandhar 2 Full Movie new",
            "url": "https://www.youtube.com/watch?v=G3c03u_b5KI",
            "duration": 13411.0,
            "view_count": 5168,
            "uploader": "Jaldi Movie Dekho",
            "category": "hindi",
            "thumbnail": "https://i.ytimg.com/vi/G3c03u_b5KI/hqdefault.jpg"
        },
        {
            "id": "MPg0Q1sbQBQ",
            "title": "VARANASI - New Released South Indian Hindi Dubbed Full Movie 2026 | Mahesh Babu | S.S. Rajamouli",
            "url": "https://www.youtube.com/watch?v=MPg0Q1sbQBQ",
            "duration": 7114.0,
            "view_count": 2920607,
            "uploader": "Pixel Picture House ",
            "category": "hindi",
            "thumbnail": "https://i.ytimg.com/vi/MPg0Q1sbQBQ/hq720.jpg"
        },
        {
            "id": "FJusw80lifo",
            "title": "Kabhi Khushi Kabhie Gham | Full Movie | Shah Rukh Khan, Kajol, Hrithik | K3G | Karan Johar Film",
            "url": "https://www.youtube.com/watch?v=FJusw80lifo",
            "duration": 14485.0,
            "view_count": 953,
            "uploader": "Islamicvideos7",
            "category": "hindi",
            "thumbnail": "https://i.ytimg.com/vi/FJusw80lifo/hqdefault.jpg"
        },
        {
            "id": "QBYUv4NZStg",
            "title": "JAN NETA Full Movie Hindi Dubbed | Thalapathy Vijay & Pooja Hegde | New South Indian Movie 2026",
            "url": "https://www.youtube.com/watch?v=QBYUv4NZStg",
            "duration": 8740.0,
            "view_count": 3142,
            "uploader": "21 Pictures",
            "category": "hindi",
            "thumbnail": "https://i.ytimg.com/vi/QBYUv4NZStg/hq720.jpg"
        },
        {
            "id": "xsBUTPSSr0E",
            "title": "MIRAI 2 - Full Hindi Dubbed Movie | Teja Sajja, Ritika Nayak | New South Action Thriller Movies 2026",
            "url": "https://www.youtube.com/watch?v=xsBUTPSSr0E",
            "duration": 7400.0,
            "view_count": 3173670,
            "uploader": "Bollywood World and Hit Express Cinema",
            "category": "hindi",
            "thumbnail": "https://i.ytimg.com/vi/xsBUTPSSr0E/hq720.jpg"
        },
        {
            "id": "7fxtNwynYvk",
            "title": "Stree 3 Full Movie HD | Shraddha Kapoor | Bollywood Horror Blockbuster 2026 👻",
            "url": "https://www.youtube.com/watch?v=7fxtNwynYvk",
            "duration": 4365.0,
            "view_count": 424996,
            "uploader": "Ankita Bhawsar",
            "category": "hindi",
            "thumbnail": "https://i.ytimg.com/vi/7fxtNwynYvk/hq720.jpg"
        },
        {
            "id": "cI5d9woQkjc",
            "title": "Dhurandhar 2 The Revenge (2026) Full Hindi Dubbed movie ( Powerful Action Thriller HD ",
            "url": "https://www.youtube.com/watch?v=cI5d9woQkjc",
            "duration": 13366.0,
            "view_count": 1775,
            "uploader": "HVmovievideo ",
            "category": "hindi",
            "thumbnail": "https://i.ytimg.com/vi/cI5d9woQkjc/hqdefault.jpg"
        },
        {
            "id": "3dWjLNdXJdI",
            "title": "Superhit Blockbuster Full Hindi Comedy Movie | Shahid Kapoor, Paresh Rawal, Rajpal Yadav Comedy",
            "url": "https://www.youtube.com/watch?v=3dWjLNdXJdI",
            "duration": 9409.0,
            "view_count": 25805730,
            "uploader": "Rahul ahuja and 2 more",
            "category": "hindi",
            "thumbnail": "https://i.ytimg.com/vi/3dWjLNdXJdI/hq720.jpg"
        },
        {
            "id": "P8Lvy8kzJ50",
            "title": "Nayak - नायक (4k) - Full Hindi Movie | Anil Kapoor | Amrish Puri | Rani Mukerji | Paresh Rawal",
            "url": "https://www.youtube.com/watch?v=P8Lvy8kzJ50",
            "duration": 11216.0,
            "view_count": 40546860,
            "uploader": "Bollywood Clips",
            "category": "hindi",
            "thumbnail": "https://i.ytimg.com/vi/P8Lvy8kzJ50/hq720.jpg"
        },
        {
            "id": "-l6f-TbuDX8",
            "title": "Toxic Full Movie Hindi Dubbed 2026 | Yash | Kiara | Huma | Nayanthara | South Action Full HD Movie",
            "url": "https://www.youtube.com/watch?v=-l6f-TbuDX8",
            "duration": 7311.0,
            "view_count": 3657223,
            "uploader": "Bewfa Movies",
            "category": "hindi",
            "thumbnail": "https://i.ytimg.com/vi/-l6f-TbuDX8/hq720.jpg?sqp=-oaymwEcCNAFEJQDSFXyq4qpAw4IARUAAIhCGAFwAcABBg==&rs=AOn4CLBKVFdRUjVdU6PQBXFGvgiHU2LK2A",
            "added_date": "2026-04-16T07:30:58.204244Z",
            "source": "youtube",
            "dubbed": "hindi"
        },
        {
            "id": "FrgRbjuzMYw",
            "title": "Peddi Full Movie Hindi Dubbed 2026 | Ram Charan New Movie 2026 | Janhvi K | Latest South Movie 2026",
            "url": "https://www.youtube.com/watch?v=FrgRbjuzMYw",
            "duration": 8298.0,
            "view_count": 55582,
            "uploader": "Power Star Pictures",
            "category": "hindi",
            "thumbnail": "https://i.ytimg.com/vi/FrgRbjuzMYw/hq720.jpg"
        },
        {
            "id": "FY8i-8ML048",
            "title": "Dhurandhar 2 (The Revenge) Full Movie | Ranveer Singh, Sanjay Dutt, Sara | Latest HD Movie 2026",
            "url": "https://www.youtube.com/watch?v=FY8i-8ML048",
            "duration": 12208.0,
            "view_count": 3140,
            "uploader": "सच्ची News",
            "category": "hindi",
            "thumbnail": "https://i.ytimg.com/vi/FY8i-8ML048/hq720.jpg"
        },
        {
            "id": "73s0R8dvv0c",
            "title": "Welcome Full Movie Comedy (2007) in 4K | Akshay, Katrina, Nana Patekar, Anil Kapoor, Paresh Rawal",
            "url": "https://www.youtube.com/watch?v=73s0R8dvv0c",
            "duration": 8871.0,
            "view_count": 1852129,
            "uploader": "Shemaroo 4K Premium",
            "category": "hindi",
            "thumbnail": "https://i.ytimg.com/vi/73s0R8dvv0c/hq720.jpg"
        },
        {
            "id": "biB5q1l2jtI",
            "title": "Blockbuster New 2026 South Indian Action Movie | Hindi Dubbed  Film | Latest Superhit Full Movie HD",
            "url": "https://www.youtube.com/watch?v=biB5q1l2jtI",
            "duration": 8719.0,
            "view_count": 97445,
            "uploader": "Roxy Media",
            "category": "hindi",
            "thumbnail": "https://i.ytimg.com/vi/biB5q1l2jtI/hq720.jpg"
        },
        {
            "id": "tWVFgJ7ob0Q",
            "title": "BULLET BHARAT Hindi Dubbed Full Movie | Nandamuri Kalyan Ram, Sonal Chauhan | Action Romantic Movie",
            "url": "https://www.youtube.com/watch?v=tWVFgJ7ob0Q",
            "duration": 5460.0,
            "view_count": 59003,
            "uploader": "Action Movies Digiplex",
            "category": "hindi",
            "thumbnail": "https://i.ytimg.com/vi/tWVFgJ7ob0Q/hq720.jpg"
        },
        {
            "id": "MOJ45WopHxc",
            "title": "Bhoomi 4K Full Movie: Sanjay Dutt | Aditi Rao Hydari | Sidhant Gupta | Sharad Kelkar | T-Series",
            "url": "https://www.youtube.com/watch?v=MOJ45WopHxc",
            "duration": 8016.0,
            "view_count": 0,
            "uploader": "T-Series",
            "category": "hindi",
            "thumbnail": "https://i.ytimg.com/vi/MOJ45WopHxc/hq720.jpg"
        },
        {
            "id": "CYiknpfL18M",
            "title": "ujda chaman full movie in hindi Dubbed full Sunny Singh HD || Maanvi Gagroo Karishma Sharma",
            "url": "https://www.youtube.com/watch?v=CYiknpfL18M",
            "duration": 6908.0,
            "view_count": 1549002,
            "uploader": "Sss.movies.1k",
            "category": "hindi",
            "thumbnail": "https://i.ytimg.com/vi/CYiknpfL18M/hq720.jpg"
        },
        {
            "id": "NG-q5IIxLkE",
            "title": "Cocktail (2012) | Bollywood Romantic Full Movie | Saif Ali Khan, Deepika Padukone, Diana Penty (HD)",
            "url": "https://www.youtube.com/watch?v=NG-q5IIxLkE",
            "duration": 8289.0,
            "view_count": 608251,
            "uploader": "Eros Universe Super Cinema",
            "category": "hindi",
            "thumbnail": "https://i.ytimg.com/vi/NG-q5IIxLkE/hq720.jpg"
        },
        {
            "id": "MfWYu0pn7EA",
            "title": "RaOne Full Movie | Superhit Sci-Fi Action Movie | Shah Rukh Khan, Kareena Kapoor, Arjun Rampal (HD)",
            "url": "https://www.youtube.com/watch?v=MfWYu0pn7EA",
            "duration": 8975.0,
            "view_count": 333563,
            "uploader": "Eros Universe Bioscope",
            "category": "hindi",
            "thumbnail": "https://i.ytimg.com/vi/MfWYu0pn7EA/hq720.jpg"
        },
        {
            "id": "fRfZ-PMug1g",
            "title": "Vidhayak (2026) Latest South New Full Action Movie | New Released (2026) Hindi Action Thriller Movie",
            "url": "https://www.youtube.com/watch?v=fRfZ-PMug1g",
            "duration": 8789.0,
            "view_count": 5747511,
            "uploader": "Super High Pictures",
            "category": "hindi",
            "thumbnail": "https://i.ytimg.com/vi/fRfZ-PMug1g/hq720.jpg"
        },
        {
            "id": "H_e-CS1NUV0",
            "title": "New 2026 South India Blockbuster Action Movie | Hindi Dubbed Full Movie | Latest Film | Superhit HD",
            "url": "https://www.youtube.com/watch?v=H_e-CS1NUV0",
            "duration": 9501.0,
            "view_count": 1918879,
            "uploader": "Hollywood Express - New",
            "category": "hindi",
            "thumbnail": "https://i.ytimg.com/vi/H_e-CS1NUV0/hq720.jpg"
        },
        {
            "id": "5rEKCfVGF0M",
            "title": "Software Blues (2026) Shriram, Bhawna South New Full Movie | 2026 South Latest Hindi Dubbed Movie",
            "url": "https://www.youtube.com/watch?v=5rEKCfVGF0M",
            "duration": 6955.0,
            "view_count": 1313349,
            "uploader": "Sur Movies Exclusive and Dumdar HD Movies",
            "category": "hindi",
            "thumbnail": "https://i.ytimg.com/vi/5rEKCfVGF0M/hq720.jpg"
        },
        {
            "id": "6K6ZpmO2RB8",
            "title": "Rage Of Love 2026 Full Movie Hindi Dubbed | Thalapathy Vijay & Kajal Action Romance HD",
            "url": "https://www.youtube.com/watch?v=6K6ZpmO2RB8",
            "duration": 7379.0,
            "view_count": 60166,
            "uploader": "Vibe Atlas",
            "category": "hindi",
            "thumbnail": "https://i.ytimg.com/vi/6K6ZpmO2RB8/hq720.jpg"
        },
        {
            "id": "SjmDPicRGqs",
            "title": "King Uncle (1993) Hindi 4K Full Movie | Shah Rukh Khan & Jackie Shroff | Anu Aggarwal & Nagma",
            "url": "https://www.youtube.com/watch?v=SjmDPicRGqs",
            "duration": 10226.0,
            "view_count": 1190120,
            "uploader": "Ultra Movie Parlour",
            "category": "hindi",
            "thumbnail": "https://i.ytimg.com/vi/SjmDPicRGqs/hq720.jpg"
        },
        {
            "id": "Hi-g0-GtO7Y",
            "title": "Pushpa 3 (Hindi Dubbed) Full Movie | Allu Arjun, Rashmika Mandanna | Action Thriller 2025",
            "url": "https://www.youtube.com/watch?v=Hi-g0-GtO7Y",
            "duration": 9698.0,
            "view_count": 35998,
            "uploader": "PlayNation",
            "category": "hindi",
            "thumbnail": "https://i.ytimg.com/vi/Hi-g0-GtO7Y/hq720.jpg"
        },
        {
            "id": "-1TYJJUefMc",
            "title": "DHURANDHAR THE REVENGE | Full Movie Hindi Dubbing 2026 | Ranveer Singh",
            "url": "https://www.youtube.com/watch?v=-1TYJJUefMc",
            "duration": 13411.0,
            "view_count": 1407,
            "uploader": "Movie Baaz",
            "category": "hindi",
            "thumbnail": "https://i.ytimg.com/vi/-1TYJJUefMc/hqdefault.jpg"
        },
        {
            "id": "zgHTiagfaL8",
            "title": "O'Romeo (2026) Latest Hindi Full Movie | Starring Shahid Kapoor, Triptii Dimri, Nana P, Avinash T",
            "url": "https://www.youtube.com/watch?v=zgHTiagfaL8",
            "duration": 8399.0,
            "view_count": 1947459,
            "uploader": "RG Entertainment",
            "category": "hindi",
            "thumbnail": "https://i.ytimg.com/vi/zgHTiagfaL8/hq720.jpg?sqp=-oaymwEcCNAFEJQDSFXyq4qpAw4IARUAAIhCGAFwAcABBg==&rs=AOn4CLD1RHMvy8o3sI71LigHRxsSHCmNRg",
            "added_date": "2026-04-16T07:30:55.398651Z",
            "source": "youtube"
        },
        {
            "id": "xTndy2AhuaY",
            "title": "Shubh Mangal Saavdhan | Ayushmann Khurrana & Bhumi Pednekar | Superhit Bollywood Hindi Movie (HD)",
            "url": "https://www.youtube.com/watch?v=xTndy2AhuaY",
            "duration": 6006.0,
            "view_count": 1742862,
            "uploader": "Eros Universe Super Cinema",
            "category": "hindi",
            "thumbnail": "https://i.ytimg.com/vi/xTndy2AhuaY/hq720.jpg"
        },
        {
            "id": "Pv-rwgRr_fQ",
            "title": "Babumoshai Bandookbaaz | Hindi Full Movie | Nawazuddin Siddiqui, Bidita Bag, Jatin Goswami",
            "url": "https://www.youtube.com/watch?v=Pv-rwgRr_fQ",
            "duration": 6597.0,
            "view_count": 1106,
            "uploader": "Zee TV UK",
            "category": "hindi",
            "thumbnail": "https://i.ytimg.com/vi/Pv-rwgRr_fQ/hq720.jpg"
        },
        {
            "id": "GdnkQ8ovOyM",
            "title": "DULHE RAJA (1998) Full Hindi Movie In 4K | Govinda, Raveena Tandon | Bollywood Comedy Movie",
            "url": "https://www.youtube.com/watch?v=GdnkQ8ovOyM",
            "duration": 9007.0,
            "view_count": 41176942,
            "uploader": "Grand Master Movies",
            "category": "hindi",
            "thumbnail": "https://i.ytimg.com/vi/GdnkQ8ovOyM/hq720.jpg"
        },
        {
            "id": "Y8uIHsEP3jU",
            "title": "New 2026 South India Blockbuster Action Movie | Hindi Dubbed Full Movie | Latest Film | Superhit HD",
            "url": "https://www.youtube.com/watch?v=Y8uIHsEP3jU",
            "duration": 9906.0,
            "view_count": 13354,
            "uploader": "Chauhan Films",
            "category": "hindi",
            "thumbnail": "https://i.ytimg.com/vi/Y8uIHsEP3jU/hq720.jpg"
        },
        {
            "id": "EUPjSU-3F18",
            "title": "New Release SOUTH TECHNO THRILLER TRENDING 2025 Hindi Dubbed Movie Full 4K | Kalaiyarasan, Priyalaya",
            "url": "https://www.youtube.com/watch?v=EUPjSU-3F18",
            "duration": 7780.0,
            "view_count": 3553726,
            "uploader": "Ultra 4K Movies",
            "category": "hindi",
            "thumbnail": "https://i.ytimg.com/vi/EUPjSU-3F18/hq720.jpg?sqp=-oaymwEcCNAFEJQDSFXyq4qpAw4IARUAAIhCGAFwAcABBg==&rs=AOn4CLB8L0b-73pA4tORIzFQiCgtq5XS0g",
            "added_date": "2026-04-16T07:30:58.003910Z",
            "source": "youtube",
            "dubbed": "hindi"
        },
        {
            "id": "Tu70w4SgRNo",
            "title": "Raanjhanaa Full Movie | Romantic Bollywood Movie | Dhanush, Sonam Kapoor, Abhay Deol (HD)",
            "url": "https://www.youtube.com/watch?v=Tu70w4SgRNo",
            "duration": 7965.0,
            "view_count": 5017432,
            "uploader": "Eros Universe Movies & Clips",
            "category": "hindi",
            "thumbnail": "https://i.ytimg.com/vi/Tu70w4SgRNo/hq720.jpg"
        },
        {
            "id": "_OJpWNUBKuI",
            "title": "Dhurandhar 2 Full Movie Hindi | #dhurandhar #ranveersingh #hindimotivation #josh ",
            "url": "https://www.youtube.com/watch?v=_OJpWNUBKuI",
            "duration": 13411.0,
            "view_count": 376,
            "uploader": "Life with Akash😎",
            "category": "hindi",
            "thumbnail": "https://i.ytimg.com/vi/_OJpWNUBKuI/hq720.jpg"
        },
        {
            "id": "__VBnFtu0Lo",
            "title": "Good Boy Bad Boy ( गुड बॉय बेड बॉय ) 4K Full Movie | Emraan Hashmi & Tanushree Dutta | Tushar Kapoor",
            "url": "https://www.youtube.com/watch?v=__VBnFtu0Lo",
            "duration": 6615.0,
            "view_count": 2155633,
            "uploader": "Ultra Movie Parlour",
            "category": "hindi",
            "thumbnail": "https://i.ytimg.com/vi/__VBnFtu0Lo/hq720.jpg"
        },
        {
            "id": "kXqG-iAg4aw",
            "title": "Jaat Full Movie In Hindi 2026 || Jaat movie By Sunny Deol | Jaat Full Movie Hd 1080P",
            "url": "https://www.youtube.com/watch?v=kXqG-iAg4aw",
            "duration": 10101.0,
            "view_count": 784217,
            "uploader": "Irfan Auto Mechanic",
            "category": "hindi",
            "thumbnail": "https://i.ytimg.com/vi/kXqG-iAg4aw/hq720.jpg"
        },
        {
            "id": "vHIHBAJoVKY",
            "title": "DHURANDHAR THE REVENGE 2026 Full Movie Hindi HD | New Action Thriller 🔥🔥",
            "url": "https://www.youtube.com/watch?v=vHIHBAJoVKY",
            "duration": 13738.0,
            "view_count": 1779,
            "uploader": "jacksoaro",
            "category": "hindi",
            "thumbnail": "https://i.ytimg.com/vi/vHIHBAJoVKY/hq720.jpg"
        }
    ]
}