{
    "page": 37,
    "total_pages": 103,
    "total_items": 5125,
    "items": [
        {
            "id": "5pSMzdti1Ag",
            "title": "Jethalal ke pass kaha se aaya ye अनमोल रत्न ? | FULL MOVIE | Taarak Mehta Ka Ooltah Chashmah",
            "url": "https://www.youtube.com/watch?v=5pSMzdti1Ag",
            "duration": 3538.0,
            "view_count": 86305,
            "uploader": "Taarak Mehta Ka Ooltah Chashmah",
            "category": "taarak_mehta",
            "thumbnail": "https://i.ytimg.com/vi/5pSMzdti1Ag/hq720.jpg"
        },
        {
            "id": "bwCG4V0kdv0",
            "title": "FULL EPISODE! 4651 -  Babita Ji Ko Dhoond Payega Jethalal? | Taarak Mehta Ka Ooltah Chashmah",
            "url": "https://www.youtube.com/watch?v=bwCG4V0kdv0",
            "duration": 1331.0,
            "view_count": 19127,
            "uploader": "Taarak Mehta Ka Ooltah Chashmah",
            "category": "taarak_mehta",
            "thumbnail": "https://i.ytimg.com/vi/bwCG4V0kdv0/hq720.jpg"
        },
        {
            "id": "UTErPkUVpIg",
            "title": "Haathi ne kiya Popat ka Ilaaj | Taarak Mehta Ka Ooltah Chashmah | Full Movie",
            "url": "https://www.youtube.com/watch?v=UTErPkUVpIg",
            "duration": 2892.0,
            "view_count": 30405,
            "uploader": "Taarak Mehta Ka Ooltah Chashmah Episodes",
            "category": "taarak_mehta",
            "thumbnail": "https://i.ytimg.com/vi/UTErPkUVpIg/hq720.jpg"
        },
        {
            "id": "iP1HrrIYhW4",
            "title": "Kisse marne Dauda Jethalal | Taarak Mehta Ka Ooltah Chashmah | Full Movie",
            "url": "https://www.youtube.com/watch?v=iP1HrrIYhW4",
            "duration": 2771.0,
            "view_count": 8868,
            "uploader": "Taarak Mehta Ka Ooltah Chashmah Episodes",
            "category": "taarak_mehta",
            "thumbnail": "https://i.ytimg.com/vi/iP1HrrIYhW4/hq720.jpg"
        },
        {
            "id": "QvKj7uYEMVk",
            "title": "Search For A Contractor | Taarak Mehta Ka Ooltah Chashmah | Full Ep 4681 | 10 Apr 2026 | New Episode",
            "url": "https://www.youtube.com/watch?v=QvKj7uYEMVk",
            "duration": 841.0,
            "view_count": 831881,
            "uploader": "Taarak Mehta Ka Ooltah Chashmah Episodes",
            "category": "taarak_mehta",
            "thumbnail": "https://i.ytimg.com/vi/QvKj7uYEMVk/hqdefault.jpg"
        },
        {
            "id": "OnzXJ9ubtwc",
            "title": "Tempo me बैठकर Kyu aaye Jetha aur Popatlal! | FULL MOVIE | Taarak Mehta Ka Ooltah Chashmah",
            "url": "https://www.youtube.com/watch?v=OnzXJ9ubtwc",
            "duration": 3359.0,
            "view_count": 155794,
            "uploader": "Taarak Mehta Ka Ooltah Chashmah",
            "category": "taarak_mehta",
            "thumbnail": "https://i.ytimg.com/vi/OnzXJ9ubtwc/hq720.jpg?sqp=-oaymwEcCNAFEJQDSFXyq4qpAw4IARUAAIhCGAFwAcABBg==&rs=AOn4CLCjzGWQHTw9nO-kV9MNkiL8aWqsaA",
            "added_date": "2026-04-16T07:31:42.170945Z",
            "source": "youtube"
        },
        {
            "id": "bBZy8s6Pl68",
            "title": "कैसी होगी Gokuldham वालों की Surprise Ice Cream Party? | Taarak Mehta Ka Ooltah Chashmah | Party",
            "url": "https://www.youtube.com/watch?v=bBZy8s6Pl68",
            "duration": 2424.0,
            "view_count": 87288,
            "uploader": "Taarak Mehta Ka Ooltah Chashmah Episodes",
            "category": "taarak_mehta",
            "thumbnail": "https://i.ytimg.com/vi/bBZy8s6Pl68/hq720.jpg"
        },
        {
            "id": "F6yvl9ksbEo",
            "title": "Bhide ने क्यों बुलाई Society की Urgent Meeting | Taarak Mehta Ka Ooltah Chashmah | Abdul Missing",
            "url": "https://www.youtube.com/watch?v=F6yvl9ksbEo",
            "duration": 3685.0,
            "view_count": 5837,
            "uploader": "Taarak Mehta Ka Ooltah Chashmah Episodes",
            "category": "taarak_mehta",
            "thumbnail": "https://i.ytimg.com/vi/F6yvl9ksbEo/hq720.jpg"
        },
        {
            "id": "aLmI7j0AM64",
            "title": "Jethalal Is Worried | Taarak Mehta Ka Ooltah Chashmah | Full Episode",
            "url": "https://www.youtube.com/watch?v=aLmI7j0AM64",
            "duration": 1224.0,
            "view_count": 4217,
            "uploader": "Taarak Mehta Ka Ooltah Chashmah Episodes",
            "category": "taarak_mehta",
            "thumbnail": "https://i.ytimg.com/vi/aLmI7j0AM64/hq720.jpg"
        },
        {
            "id": "t-3ULDykfsU",
            "title": "Bhide ने समझाया Ganpat को लड़कियों की पढ़ाई का महत्व | Taarak Mehta Ka Ooltah Chashmah | Education",
            "url": "https://www.youtube.com/watch?v=t-3ULDykfsU",
            "duration": 3595.0,
            "view_count": 11317,
            "uploader": "Taarak Mehta Ka Ooltah Chashmah Episodes",
            "category": "taarak_mehta",
            "thumbnail": "https://i.ytimg.com/vi/t-3ULDykfsU/hq720.jpg"
        },
        {
            "id": "tA6DtgtIIUw",
            "title": "Daya ne liya Jethalali ka Interview | Taarak Mehta Ka Ooltah Chashmah | Full Movie",
            "url": "https://www.youtube.com/watch?v=tA6DtgtIIUw",
            "duration": 3304.0,
            "view_count": 6665,
            "uploader": "Taarak Mehta Ka Ooltah Chashmah Episodes",
            "category": "taarak_mehta",
            "thumbnail": "https://i.ytimg.com/vi/tA6DtgtIIUw/hq720.jpg"
        },
        {
            "id": "R13_-qIIB30",
            "title": "Iyer ne maari Tapli | Taarak Mehta Ka Ooltah Chashmah | Full Movie",
            "url": "https://www.youtube.com/watch?v=R13_-qIIB30",
            "duration": 3346.0,
            "view_count": 20928,
            "uploader": "Taarak Mehta Ka Ooltah Chashmah Episodes",
            "category": "taarak_mehta",
            "thumbnail": "https://i.ytimg.com/vi/R13_-qIIB30/hq720.jpg"
        },
        {
            "id": "GpTXjoTjmbU",
            "title": "Tapu Sena को ढूँढने निकली Purush Mandali | Taarak Mehta Ka Ooltah Chashmah | Mission Hathoda",
            "url": "https://www.youtube.com/watch?v=GpTXjoTjmbU",
            "duration": 2481.0,
            "view_count": 20002,
            "uploader": "Taarak Mehta Ka Ooltah Chashmah Episodes",
            "category": "taarak_mehta",
            "thumbnail": "https://i.ytimg.com/vi/GpTXjoTjmbU/hq720.jpg"
        },
        {
            "id": "vyiQcvmqsx8",
            "title": "Morning Walk Bolkar kaha Ja rahe hai Purush Mandli ? | FULL MOVIE | Taarak Mehta Ka Ooltah Chashmah",
            "url": "https://www.youtube.com/watch?v=vyiQcvmqsx8",
            "duration": 3518.0,
            "view_count": 338916,
            "uploader": "Taarak Mehta Ka Ooltah Chashmah",
            "category": "taarak_mehta",
            "thumbnail": "https://i.ytimg.com/vi/vyiQcvmqsx8/hq720.jpg"
        },
        {
            "id": "Xg7WkxRvQA4",
            "title": "Kyu kiya Tapu ne sir Ganjaa | Taarak Mehta Ka Ooltah Chashmah | Full Movie",
            "url": "https://www.youtube.com/watch?v=Xg7WkxRvQA4",
            "duration": 2948.0,
            "view_count": 3218,
            "uploader": "Taarak Mehta Ka Ooltah Chashmah Episodes",
            "category": "taarak_mehta",
            "thumbnail": "https://i.ytimg.com/vi/Xg7WkxRvQA4/hq720.jpg"
        },
        {
            "id": "lUKWBDZ_9Ms",
            "title": "Sodhi और Roshan की हुई लड़ाई, पूरी Colony परेशान | Taarak Mehta Ka Ooltah Chashmah | Bhide's Advice",
            "url": "https://www.youtube.com/watch?v=lUKWBDZ_9Ms",
            "duration": 3615.0,
            "view_count": 9100,
            "uploader": "Taarak Mehta Ka Ooltah Chashmah Episodes",
            "category": "taarak_mehta",
            "thumbnail": "https://i.ytimg.com/vi/lUKWBDZ_9Ms/hq720.jpg"
        },
        {
            "id": "hfBS8dTYYyg",
            "title": "Jetha ने दिखाई Bapuji को कैसी Advertisement? | Taarak Mehta Ka Ooltah Chashmah | Renovation Chaos",
            "url": "https://www.youtube.com/watch?v=hfBS8dTYYyg",
            "duration": 2287.0,
            "view_count": 1865,
            "uploader": "Taarak Mehta Ka Ooltah Chashmah Episodes",
            "category": "taarak_mehta",
            "thumbnail": "https://i.ytimg.com/vi/hfBS8dTYYyg/hq720.jpg"
        },
        {
            "id": "f6rTbn6vXPA",
            "title": "Bhide की नसीब चमकी, मिले एक लाख | Taarak Mehta Ka Ooltah Chashmah | Bhide Gets Lucky",
            "url": "https://www.youtube.com/watch?v=f6rTbn6vXPA",
            "duration": 3664.0,
            "view_count": 38306,
            "uploader": "Taarak Mehta Ka Ooltah Chashmah Episodes",
            "category": "taarak_mehta",
            "thumbnail": "https://i.ytimg.com/vi/f6rTbn6vXPA/hq720.jpg"
        },
        {
            "id": "oEJMpznpbUU",
            "title": "Kaise Hui Goli ke ye halat ? | FULL MOVIE | Taarak Mehta Ka Ooltah Chashmah",
            "url": "https://www.youtube.com/watch?v=oEJMpznpbUU",
            "duration": 3042.0,
            "view_count": 293291,
            "uploader": "Taarak Mehta Ka Ooltah Chashmah",
            "category": "taarak_mehta",
            "thumbnail": "https://i.ytimg.com/vi/oEJMpznpbUU/hq720.jpg"
        },
        {
            "id": "gYnCGk_lKLk",
            "title": "Society Maintenance | Taarak Mehta Ka Ooltah Chashmah | Full Ep 4682 | 11 Apr 2026 | New Episode",
            "url": "https://www.youtube.com/watch?v=gYnCGk_lKLk",
            "duration": 1106.0,
            "view_count": 983077,
            "uploader": "Taarak Mehta Ka Ooltah Chashmah Episodes",
            "category": "taarak_mehta",
            "thumbnail": "https://i.ytimg.com/vi/gYnCGk_lKLk/hq720.jpg"
        },
        {
            "id": "3fWg28dc35A",
            "title": "Undercover Police | Taarak Mehta Ka Ooltah Chashmah | Full Movie",
            "url": "https://www.youtube.com/watch?v=3fWg28dc35A",
            "duration": 3415.0,
            "view_count": 61262,
            "uploader": "Taarak Mehta Ka Ooltah Chashmah Episodes",
            "category": "taarak_mehta",
            "thumbnail": "https://i.ytimg.com/vi/3fWg28dc35A/hq720.jpg"
        },
        {
            "id": "EFKvP_4Y0TA",
            "title": "Bapuji ne Kyu Pehnaya Jethalal ko Medal ! | FULL MOVIE | Taarak Mehta Ka Ooltah Chashmah",
            "url": "https://www.youtube.com/watch?v=EFKvP_4Y0TA",
            "duration": 2248.0,
            "view_count": 199668,
            "uploader": "Taarak Mehta Ka Ooltah Chashmah",
            "category": "taarak_mehta",
            "thumbnail": "https://i.ytimg.com/vi/EFKvP_4Y0TA/hq720.jpg"
        },
        {
            "id": "G_MN7iQpRkk",
            "title": "Bhide ne kyu rulaya Madhavi ko | Taarak Mehta Ka Ooltah Chashmah | Full Movie",
            "url": "https://www.youtube.com/watch?v=G_MN7iQpRkk",
            "duration": 2822.0,
            "view_count": 67156,
            "uploader": "Taarak Mehta Ka Ooltah Chashmah Episodes",
            "category": "taarak_mehta",
            "thumbnail": "https://i.ytimg.com/vi/G_MN7iQpRkk/hq720.jpg"
        },
        {
            "id": "e3bg0jsKHXY",
            "title": "Madhavi और Bhide की लड़ाई, क्या Solve होगा Issue? | Taarak Mehta Ka Ooltah Chashmah | Bhide Upset",
            "url": "https://www.youtube.com/watch?v=e3bg0jsKHXY",
            "duration": 4580.0,
            "view_count": 60425,
            "uploader": "Taarak Mehta Ka Ooltah Chashmah Episodes",
            "category": "taarak_mehta",
            "thumbnail": "https://i.ytimg.com/vi/e3bg0jsKHXY/hqdefault.jpg"
        },
        {
            "id": "qommdCE6nPc",
            "title": "Tanvi के लिए Madhavi और Bhide ने बदला भेष | Taarak Mehta Ka Ooltah Chashmah | Education",
            "url": "https://www.youtube.com/watch?v=qommdCE6nPc",
            "duration": 3661.0,
            "view_count": 289351,
            "uploader": "Taarak Mehta Ka Ooltah Chashmah Episodes",
            "category": "taarak_mehta",
            "thumbnail": "https://i.ytimg.com/vi/qommdCE6nPc/hq720.jpg"
        },
        {
            "id": "nOytmCym9_E",
            "title": "Kisne kiya Bhide ko Statue | Taarak Mehta Ka Ooltah Chashmah | Full Movie",
            "url": "https://www.youtube.com/watch?v=nOytmCym9_E",
            "duration": 3441.0,
            "view_count": 71821,
            "uploader": "Taarak Mehta Ka Ooltah Chashmah Episodes",
            "category": "taarak_mehta",
            "thumbnail": "https://i.ytimg.com/vi/nOytmCym9_E/hq720.jpg"
        },
        {
            "id": "HkMDCR7PGJ0",
            "title": "Weekly Reliv | Taarak Mehta Ka Ooltah Chashmah - 4677 To 4682 | 6 Apr 2026 To 11 Apr 2026",
            "url": "https://www.youtube.com/watch?v=HkMDCR7PGJ0",
            "duration": 6867.0,
            "view_count": 7501,
            "uploader": "Taarak Mehta Ka Ooltah Chashmah Episodes",
            "category": "taarak_mehta",
            "thumbnail": "https://i.ytimg.com/vi/HkMDCR7PGJ0/hq720.jpg"
        },
        {
            "id": "h_xeurN6uEY",
            "title": "Bhide aur Jethalal ne try kiye 5 alag alag dishes! | Taarak Mehta Ka Ooltah Chashamh | Ep. 685",
            "url": "https://www.youtube.com/watch?v=h_xeurN6uEY",
            "duration": 618.0,
            "view_count": 49351,
            "uploader": "Taarak Mehta Ka Ooltah Chashmah Episodes",
            "category": "taarak_mehta",
            "thumbnail": "https://i.ytimg.com/vi/h_xeurN6uEY/hq720.jpg"
        },
        {
            "id": "n0XkVllGP1Q",
            "title": "Akhir Kyu Mara Daya ne Jethalal Ke Pairo per😂 | FULL MOVIE | Taarak Mehta Ka Ooltah Chashmah",
            "url": "https://www.youtube.com/watch?v=n0XkVllGP1Q",
            "duration": 4126.0,
            "view_count": 1122769,
            "uploader": "Taarak Mehta Ka Ooltah Chashmah",
            "category": "taarak_mehta",
            "thumbnail": "https://i.ytimg.com/vi/n0XkVllGP1Q/hq720.jpg"
        },
        {
            "id": "hT2HPz4hYms",
            "title": "Goli ne Sikhaya Bhide ko Manners | Taarak Mehta Ka Ooltah Chashmah | Full Movie",
            "url": "https://www.youtube.com/watch?v=hT2HPz4hYms",
            "duration": 2884.0,
            "view_count": 7067,
            "uploader": "Taarak Mehta Ka Ooltah Chashmah Episodes",
            "category": "taarak_mehta",
            "thumbnail": "https://i.ytimg.com/vi/hT2HPz4hYms/hq720.jpg"
        },
        {
            "id": "HKF8y9FxqSI",
            "title": "Jetha के गाल क्यों खींचने लगा Bagha प्यार से? | Taarak Mehta Ka Ooltah Chashmah | Hide And Seek",
            "url": "https://www.youtube.com/watch?v=HKF8y9FxqSI",
            "duration": 3457.0,
            "view_count": 11123,
            "uploader": "Taarak Mehta Ka Ooltah Chashmah Episodes",
            "category": "taarak_mehta",
            "thumbnail": "https://i.ytimg.com/vi/HKF8y9FxqSI/hq720.jpg"
        },
        {
            "id": "hbhNobDR_HA",
            "title": "Auto me Bhid gaye Iyyer aur Jetha | Taarak Mehta Ka Ooltah Chashmah | Full Movie",
            "url": "https://www.youtube.com/watch?v=hbhNobDR_HA",
            "duration": 3471.0,
            "view_count": 72645,
            "uploader": "Taarak Mehta Ka Ooltah Chashmah Episodes",
            "category": "taarak_mehta",
            "thumbnail": "https://i.ytimg.com/vi/hbhNobDR_HA/hq720.jpg"
        },
        {
            "id": "8b4zMrhUptA",
            "title": "Jethalal Shares His Worry With Gokuldham Men | Taarak Mehta Ka Ooltah Chashmah | Full Episode",
            "url": "https://www.youtube.com/watch?v=8b4zMrhUptA",
            "duration": 1215.0,
            "view_count": 10452,
            "uploader": "Taarak Mehta Ka Ooltah Chashmah Episodes",
            "category": "taarak_mehta",
            "thumbnail": "https://i.ytimg.com/vi/8b4zMrhUptA/hq720.jpg"
        },
        {
            "id": "cUb5gVZKK8o",
            "title": "NEW! Ep 4683 - Kis Khushi me Mahila Mandal ne Kiya Nach Gaana! | Taarak Mehta ka Ooltah Chasmah",
            "url": "https://www.youtube.com/watch?v=cUb5gVZKK8o",
            "duration": 633.0,
            "view_count": 185068,
            "uploader": "Taarak Mehta Ka Ooltah Chashmah",
            "category": "taarak_mehta",
            "thumbnail": "https://i.ytimg.com/vi/cUb5gVZKK8o/hq720.jpg"
        },
        {
            "id": "rTK88nCNRVg",
            "title": "NEW! Ep 4683 - Kis Khushi me Mahila Mandal ne Kiya Nach Gaana! | Taarak Mehta ka Ooltah Chasmah",
            "url": "https://www.youtube.com/watch?v=rTK88nCNRVg",
            "duration": 633.0,
            "view_count": 138044,
            "uploader": "Taarak Mehta Ka Ooltah Chashmah Episodes",
            "category": "taarak_mehta",
            "thumbnail": "https://i.ytimg.com/vi/rTK88nCNRVg/hq720.jpg"
        },
        {
            "id": "TaMCaZYii-8",
            "title": "Sapne Ki Baat Cheet | Taarak Mehta Ka Ooltah Chashmah | Full Ep 4683 | 13 Apr 2026 | New Episode",
            "url": "https://www.youtube.com/watch?v=TaMCaZYii-8",
            "duration": 1281.0,
            "view_count": 653388,
            "uploader": "Taarak Mehta Ka Ooltah Chashmah Episodes",
            "category": "taarak_mehta",
            "thumbnail": "https://i.ytimg.com/vi/TaMCaZYii-8/hq720.jpg?sqp=-oaymwEcCNAFEJQDSFXyq4qpAw4IARUAAIhCGAFwAcABBg==&rs=AOn4CLAUgQJtgOvCMj_KzpMVhuTHxPiMJw",
            "added_date": "2026-04-16T07:31:41.770185Z",
            "source": "youtube"
        },
        {
            "id": "Hd-YaCuAK4A",
            "title": "Mandir me mili Daya ko Khushi 🥲👩‍🍼 | Taarak Mehta Ka Ooltah Chashmah | Full Movie",
            "url": "https://www.youtube.com/watch?v=Hd-YaCuAK4A",
            "duration": 3318.0,
            "view_count": 7047,
            "uploader": "Taarak Mehta Ka Ooltah Chashmah Episodes",
            "category": "taarak_mehta",
            "thumbnail": "https://i.ytimg.com/vi/Hd-YaCuAK4A/hq720.jpg"
        },
        {
            "id": "lV1_l369fzY",
            "title": "Gokuldham Family Helps People | Taarak Mehta Ka Ooltah Chashmah | Full Episode",
            "url": "https://www.youtube.com/watch?v=lV1_l369fzY",
            "duration": 1242.0,
            "view_count": 2937,
            "uploader": "Taarak Mehta Ka Ooltah Chashmah Episodes",
            "category": "taarak_mehta",
            "thumbnail": "https://i.ytimg.com/vi/lV1_l369fzY/hq720.jpg"
        },
        {
            "id": "mYIh46KBTSA",
            "title": "Bapuji ne Kar ke Dikhaya Jethya ki Nakal !  | FULL MOVIE | Taarak Mehta Ka Ooltah Chashmah",
            "url": "https://www.youtube.com/watch?v=mYIh46KBTSA",
            "duration": 2271.0,
            "view_count": 419345,
            "uploader": "Taarak Mehta Ka Ooltah Chashmah",
            "category": "taarak_mehta",
            "thumbnail": "https://i.ytimg.com/vi/mYIh46KBTSA/hq720.jpg"
        },
        {
            "id": "UB_lsv9h6Wc",
            "title": "Jethalal nahi darta kisise bhi | Taarak Mehta Ka Ooltah Chashmah | Full Movie",
            "url": "https://www.youtube.com/watch?v=UB_lsv9h6Wc",
            "duration": 2753.0,
            "view_count": 67277,
            "uploader": "Taarak Mehta Ka Ooltah Chashmah Episodes",
            "category": "taarak_mehta",
            "thumbnail": "https://i.ytimg.com/vi/UB_lsv9h6Wc/hq720.jpg"
        },
        {
            "id": "LstW08PXg54",
            "title": "Jetha ने क्यों डाला Bhide के Sakharam पर पानी? | Taarak Mehta Ka Ooltah Chashmah | Bhide Gets Lucky",
            "url": "https://www.youtube.com/watch?v=LstW08PXg54",
            "duration": 3327.0,
            "view_count": 51618,
            "uploader": "Taarak Mehta Ka Ooltah Chashmah Episodes",
            "category": "taarak_mehta",
            "thumbnail": "https://i.ytimg.com/vi/LstW08PXg54/hq720.jpg?sqp=-oaymwEcCNAFEJQDSFXyq4qpAw4IARUAAIhCGAFwAcABBg==&rs=AOn4CLDcOxAlZ80mK-WV70_MWGqTAoE2PA",
            "added_date": "2026-04-16T07:31:41.169067Z",
            "source": "youtube"
        },
        {
            "id": "SkOBW11XxbM",
            "title": "Society वालों ने क्यों माँगी Bapuji से माफ़ी? | Taarak Mehta Ka Ooltah Chashmah | Garbage Problem",
            "url": "https://www.youtube.com/watch?v=SkOBW11XxbM",
            "duration": 3338.0,
            "view_count": 12602,
            "uploader": "Taarak Mehta Ka Ooltah Chashmah Episodes",
            "category": "taarak_mehta",
            "thumbnail": "https://i.ytimg.com/vi/SkOBW11XxbM/hq720.jpg"
        },
        {
            "id": "OrvsrvG33xc",
            "title": "फँस गया Popatlal, एक साथ आए 2 2 रिश्ते !  | FULL MOVIE | Taarak Mehta Ka Ooltah Chashmah",
            "url": "https://www.youtube.com/watch?v=OrvsrvG33xc",
            "duration": 3534.0,
            "view_count": 524928,
            "uploader": "Taarak Mehta Ka Ooltah Chashmah",
            "category": "taarak_mehta",
            "thumbnail": "https://i.ytimg.com/vi/OrvsrvG33xc/hq720.jpg"
        },
        {
            "id": "EzCVnL0yOUI",
            "title": "Tapu ne kiya Sonu ko Propose | Taarak Mehta Ka Ooltah Chashmah | Full Movie",
            "url": "https://www.youtube.com/watch?v=EzCVnL0yOUI",
            "duration": 3403.0,
            "view_count": 1087,
            "uploader": "Taarak Mehta Ka Ooltah Chashmah Episodes",
            "category": "taarak_mehta",
            "thumbnail": "https://i.ytimg.com/vi/EzCVnL0yOUI/hq720.jpg"
        },
        {
            "id": "-3fGXEQ9u7A",
            "title": "NEW! Ep 4685 - Kis Wajah Se Jethalal Hua Nattu Kaka Pe Gussa ! | Taarak Mehta ka Ooltah Chasmah",
            "url": "https://www.youtube.com/watch?v=-3fGXEQ9u7A",
            "duration": 603.0,
            "view_count": 183149,
            "uploader": "Taarak Mehta Ka Ooltah Chashmah",
            "category": "taarak_mehta",
            "thumbnail": "https://i.ytimg.com/vi/-3fGXEQ9u7A/hq720.jpg"
        },
        {
            "id": "6iyFG_qxIUo",
            "title": "Komal ne pehna bhindi wala Neckless | Taarak Mehta Ka Ooltah Chashmah | Full Movie",
            "url": "https://www.youtube.com/watch?v=6iyFG_qxIUo",
            "duration": 2899.0,
            "view_count": 6719,
            "uploader": "Taarak Mehta Ka Ooltah Chashmah Episodes",
            "category": "taarak_mehta",
            "thumbnail": "https://i.ytimg.com/vi/6iyFG_qxIUo/hq720.jpg?sqp=-oaymwEcCNAFEJQDSFXyq4qpAw4IARUAAIhCGAFwAcABBg==&rs=AOn4CLCI02rV_8dSpd_uZ7pC-aBYQlVsNQ",
            "added_date": "2026-04-16T07:31:40.567937Z",
            "source": "youtube"
        },
        {
            "id": "ms9B7u5EtqY",
            "title": "NEW! Ep 4685 - Kis Wajah Se Jethalal Hua Nattu Kaka Pe Gussa! | Taarak Mehta ka Ooltah Chasmah",
            "url": "https://www.youtube.com/watch?v=ms9B7u5EtqY",
            "duration": 603.0,
            "view_count": 18938,
            "uploader": "Taarak Mehta Ka Ooltah Chashmah Episodes",
            "category": "taarak_mehta",
            "thumbnail": "https://i.ytimg.com/vi/ms9B7u5EtqY/hq720.jpg?sqp=-oaymwEcCNAFEJQDSFXyq4qpAw4IARUAAIhCGAFwAcABBg==&rs=AOn4CLAKniDtjqVHphDPA1IFrCYlH1Ldew",
            "added_date": "2026-04-16T07:31:40.968686Z",
            "source": "youtube"
        },
        {
            "id": "Ylu3SewJEcE",
            "title": "Gokuldham में Renovation का हंगामा | Taarak Mehta Ka Ooltah Chashmah | Renovation",
            "url": "https://www.youtube.com/watch?v=Ylu3SewJEcE",
            "duration": 2376.0,
            "view_count": 1666,
            "uploader": "Taarak Mehta Ka Ooltah Chashmah Episodes",
            "category": "taarak_mehta",
            "thumbnail": "https://i.ytimg.com/vi/Ylu3SewJEcE/hq720.jpg"
        },
        {
            "id": "fV3ANnTY2Fo",
            "title": "BAAHUBALI 2 CONCLUSION FULL MOVIE IN TAMIL AUDIO RE -EDITED EXPERIENCE IN CINEMATIC 4K",
            "url": "https://www.youtube.com/watch?v=fV3ANnTY2Fo",
            "duration": 10059.0,
            "view_count": 2326130,
            "uploader": "Sri Kumaran ",
            "category": "tamil",
            "thumbnail": "https://i.ytimg.com/vi/fV3ANnTY2Fo/hqdefault.jpg"
        },
        {
            "id": "A53-NA2vu04",
            "title": "Nithiin & Sreeleela Tamil Dubbed Superhit Heist Action Comedy Full HD Movie || Tamil Full Movie",
            "url": "https://www.youtube.com/watch?v=A53-NA2vu04",
            "duration": 8059.0,
            "view_count": 544435,
            "uploader": "Comedy One",
            "category": "tamil",
            "thumbnail": "https://i.ytimg.com/vi/A53-NA2vu04/hq720.jpg"
        }
    ]
}