{
    "page": 80,
    "total_pages": 103,
    "total_items": 5125,
    "items": [
        {
            "id": "YykoZcVC0AA",
            "title": "Scary Fun Fair | Mr. Bean | Season 2 Compilation | Halloween Kids Videos | WildBrain Bananas",
            "url": "https://www.youtube.com/watch?v=YykoZcVC0AA",
            "duration": 12580.0,
            "view_count": 979576,
            "uploader": "WildBrain Circus ",
            "category": "cartoons/mr_bean",
            "thumbnail": "https://i.ytimg.com/vi/YykoZcVC0AA/hq720.jpg"
        },
        {
            "id": "3Ug9KIAMFcY",
            "title": "The Great Bottle Chase! | Mr Bean Animated Season 1 | Full Episodes | Mr Bean Official",
            "url": "https://www.youtube.com/watch?v=3Ug9KIAMFcY",
            "duration": 5167.0,
            "view_count": 2957363,
            "uploader": "Mr Bean",
            "category": "cartoons/various_cartoons",
            "thumbnail": "https://i.ytimg.com/vi/3Ug9KIAMFcY/hq720.jpg"
        },
        {
            "id": "Ih76cnYuEoY",
            "title": "Arcade Trouble | Mr Bean Animated  | New Episodes 2025 | Mr Bean",
            "url": "https://www.youtube.com/watch?v=Ih76cnYuEoY",
            "duration": 1297.0,
            "view_count": 1126686,
            "uploader": "Mr Bean",
            "category": "cartoons/mr_bean",
            "thumbnail": "https://i.ytimg.com/vi/Ih76cnYuEoY/hq720.jpg"
        },
        {
            "id": "QZI_nkGotGY",
            "title": "The Beanshank Redemption | Mr Bean Animated | Full Episode Compilation | Mr Bean World",
            "url": "https://www.youtube.com/watch?v=QZI_nkGotGY",
            "duration": 3229.0,
            "view_count": 8717644,
            "uploader": "Mr Bean World",
            "category": "cartoons/mr_bean",
            "thumbnail": "https://i.ytimg.com/vi/QZI_nkGotGY/hq720.jpg"
        },
        {
            "id": "mhE4i0Rxvok",
            "title": "मिस्टर बीन टर्की पकाते हैं 🍗 | धन्यवाद विशेष | मिस्टर बीन पूरा एपिसोड | मिस्टर बिन हिंदी",
            "url": "https://www.youtube.com/watch?v=mhE4i0Rxvok",
            "duration": 3242.0,
            "view_count": 814251,
            "uploader": "Mr Bean Hindi",
            "category": "cartoons/mr_bean",
            "thumbnail": "https://i.ytimg.com/vi/mhE4i0Rxvok/hq720.jpg"
        },
        {
            "id": "tI1jF98hlmM",
            "title": "Shopping For NEW YEAR! | Mr Bean Cartoon Season 1 | Full Episodes | Mr Bean Cartoon World",
            "url": "https://www.youtube.com/watch?v=tI1jF98hlmM",
            "duration": 2584.0,
            "view_count": 50518401,
            "uploader": "Mr Bean World",
            "category": "cartoons/mr_bean",
            "thumbnail": "https://i.ytimg.com/vi/tI1jF98hlmM/hq720.jpg"
        },
        {
            "id": "QsDsT6h1cgQ",
            "title": "Mr Bean Makes a Model! | Mr Bean Animated Cartoons | Mr Bean World",
            "url": "https://www.youtube.com/watch?v=QsDsT6h1cgQ",
            "duration": 2584.0,
            "view_count": 3527160,
            "uploader": "Mr Bean World",
            "category": "cartoons/mr_bean",
            "thumbnail": "https://i.ytimg.com/vi/QsDsT6h1cgQ/hq720.jpg"
        },
        {
            "id": "dqL9zNn2VDM",
            "title": "Mr Bean Animated | TAXI BEAN | Season 2 | Full Episodes Compilation | Cartoons for Children",
            "url": "https://www.youtube.com/watch?v=dqL9zNn2VDM",
            "duration": 676.0,
            "view_count": 47791008,
            "uploader": "WildBrain Circus ",
            "category": "cartoons/mr_bean",
            "thumbnail": "https://i.ytimg.com/vi/dqL9zNn2VDM/hqdefault.jpg"
        },
        {
            "id": "ofJ0_NbSQa0",
            "title": "Mr Bean Cooks CHRISTMAS DINNER | Mr Bean Cartoon Season 1 | Full Episodes | Mr Bean Official",
            "url": "https://www.youtube.com/watch?v=ofJ0_NbSQa0",
            "duration": 2583.0,
            "view_count": 16229321,
            "uploader": "Mr Bean",
            "category": "cartoons/mr_bean",
            "thumbnail": "https://i.ytimg.com/vi/ofJ0_NbSQa0/hq720.jpg"
        },
        {
            "id": "m1oPIrWKnf8",
            "title": "Mr Bean Cooks up A Feast 🥘 | Mr Bean Cartoons | Season 1 | Full Episodes | Cartoons for Kids",
            "url": "https://www.youtube.com/watch?v=m1oPIrWKnf8",
            "duration": 2582.0,
            "view_count": 10893405,
            "uploader": "Cartoons for Kids - Mr Bean",
            "category": "cartoons/mr_bean",
            "thumbnail": "https://i.ytimg.com/vi/m1oPIrWKnf8/hq720.jpg"
        },
        {
            "id": "5Q7h3GwihlY",
            "title": "Mr bean season 1 episode 3 in hindi",
            "url": "https://www.youtube.com/watch?v=5Q7h3GwihlY",
            "duration": 601.0,
            "view_count": 13781,
            "uploader": "mr bean topic",
            "category": "cartoons/mr_bean",
            "thumbnail": "https://i.ytimg.com/vi/5Q7h3GwihlY/hqdefault.jpg"
        },
        {
            "id": "Ok-92dycIp0",
            "title": "Mr Bean goes on a date as Mrs Wicket! | Mr Bean Animated Season 3 | Full Episodes | Mr Bean Official",
            "url": "https://www.youtube.com/watch?v=Ok-92dycIp0",
            "duration": 3303.0,
            "view_count": 1160490,
            "uploader": "Mr Bean",
            "category": "cartoons/mr_bean",
            "thumbnail": "https://i.ytimg.com/vi/Ok-92dycIp0/hq720.jpg"
        },
        {
            "id": "xRwIqdON1WM",
            "title": "When You Forget to Set the Timer! | Mr Bean Animated Season 3 | Full Episodes | Mr Bean",
            "url": "https://www.youtube.com/watch?v=xRwIqdON1WM",
            "duration": 3484.0,
            "view_count": 10207154,
            "uploader": "Mr Bean",
            "category": "cartoons/mr_bean",
            "thumbnail": "https://i.ytimg.com/vi/xRwIqdON1WM/hq720.jpg"
        },
        {
            "id": "rVmyZ-1achI",
            "title": "Garden Bean | Funny Episodes | Mr Bean Cartoon World",
            "url": "https://www.youtube.com/watch?v=rVmyZ-1achI",
            "duration": 2427.0,
            "view_count": 26661308,
            "uploader": "Mr Bean World",
            "category": "cartoons/mr_bean",
            "thumbnail": "https://i.ytimg.com/vi/rVmyZ-1achI/hq720.jpg"
        },
        {
            "id": "GsbJY-97WqE",
            "title": "IRMA'S NEW BOYFRIEND! (THIS IS BAD)! | Mr Bean | Cartoons For Kids | WildBrain Kids",
            "url": "https://www.youtube.com/watch?v=GsbJY-97WqE",
            "duration": 32646.0,
            "view_count": 7880616,
            "uploader": "WildBrain Kids",
            "category": "cartoons/mr_bean",
            "thumbnail": "https://i.ytimg.com/vi/GsbJY-97WqE/hq720.jpg"
        },
        {
            "id": "bmLklzwS1Wk",
            "title": "Mr HATES The Rain | Mr Bean Animated Season 2 | Full Episodes | Cartoons For Kids",
            "url": "https://www.youtube.com/watch?v=bmLklzwS1Wk",
            "duration": 3301.0,
            "view_count": 5203710,
            "uploader": "Cartoons for Kids - Mr Bean",
            "category": "cartoons/mr_bean",
            "thumbnail": "https://i.ytimg.com/vi/bmLklzwS1Wk/hq720.jpg"
        },
        {
            "id": "18pw1rQ33t0",
            "title": "Mr Bean Enters a HAUNTED HOUSE! | Mr Bean Animated Season 3 | Funny Clips | Mr Bean World",
            "url": "https://www.youtube.com/watch?v=18pw1rQ33t0",
            "duration": 3301.0,
            "view_count": 6269594,
            "uploader": "Mr Bean World",
            "category": "cartoons/mr_bean",
            "thumbnail": "https://i.ytimg.com/vi/18pw1rQ33t0/hq720.jpg"
        },
        {
            "id": "IQzDaJfnCvQ",
            "title": "The Hospital Isn't As Nice As It Seems... | Mr Bean Animated Season 1 | Full Episodes | Mr Bean",
            "url": "https://www.youtube.com/watch?v=IQzDaJfnCvQ",
            "duration": 5166.0,
            "view_count": 15448020,
            "uploader": "Mr Bean",
            "category": "cartoons/mr_bean",
            "thumbnail": "https://i.ytimg.com/vi/IQzDaJfnCvQ/hq720.jpg"
        },
        {
            "id": "CVOByo1n4NE",
            "title": "मिस्टर बीन बेघर हैं | मिस्टर बीन पूरा एपिसोड | मिस्टर बीन हिंदी",
            "url": "https://www.youtube.com/watch?v=CVOByo1n4NE",
            "duration": 3876.0,
            "view_count": 208437,
            "uploader": "Mr Bean Hindi",
            "category": "cartoons/mr_bean",
            "thumbnail": "https://i.ytimg.com/vi/CVOByo1n4NE/hq720.jpg"
        },
        {
            "id": "chDzys9QnIs",
            "title": "Chocolate Bean 🍫 | (Mr Bean Cartoon) | Mr Bean Full Episodes | Mr Bean Comedy",
            "url": "https://www.youtube.com/watch?v=chDzys9QnIs",
            "duration": 2599.0,
            "view_count": 27044633,
            "uploader": "Mr Bean",
            "category": "cartoons/mr_bean",
            "thumbnail": "https://i.ytimg.com/vi/chDzys9QnIs/hq720.jpg"
        },
        {
            "id": "Tm91mtdlkEc",
            "title": "Mr Bean's Car Wash 🚗🧼 | Mr Bean Animated Cartoons | Season 2 | Full Episodes | Cartoons for Kids",
            "url": "https://www.youtube.com/watch?v=Tm91mtdlkEc",
            "duration": 3302.0,
            "view_count": 17336019,
            "uploader": "Cartoons for Kids - Mr Bean",
            "category": "cartoons/mr_bean",
            "thumbnail": "https://i.ytimg.com/vi/Tm91mtdlkEc/hq720.jpg"
        },
        {
            "id": "HF48Ur2dbMM",
            "title": "LONDON Bean | Funny Episodes | Mr Bean Cartoon World",
            "url": "https://www.youtube.com/watch?v=HF48Ur2dbMM",
            "duration": 2657.0,
            "view_count": 35484450,
            "uploader": "Mr Bean World",
            "category": "cartoons/mr_bean",
            "thumbnail": "https://i.ytimg.com/vi/HF48Ur2dbMM/hq720.jpg"
        },
        {
            "id": "MGocTIbIWN4",
            "title": "Mr. Bean's Ages Quick | Mr Bean Animated Season 3 | Full Episodes | Mr Bean Cartoons",
            "url": "https://www.youtube.com/watch?v=MGocTIbIWN4",
            "duration": 3485.0,
            "view_count": 1370436,
            "uploader": "Mr Bean TV",
            "category": "cartoons/mr_bean",
            "thumbnail": "https://i.ytimg.com/vi/MGocTIbIWN4/hq720.jpg"
        },
        {
            "id": "on-UjA2CwmI",
            "title": "Clothes Shopping In The JANUARY SALES | Mr Bean Cartoon Season 2 | Mr Bean Official",
            "url": "https://www.youtube.com/watch?v=on-UjA2CwmI",
            "duration": 2658.0,
            "view_count": 14459937,
            "uploader": "Mr Bean",
            "category": "cartoons/mr_bean",
            "thumbnail": "https://i.ytimg.com/vi/on-UjA2CwmI/hq720.jpg"
        },
        {
            "id": "jcFebm5dgTw",
            "title": "Merry Christmas, Mr Bean 🎅🎄 | Mr Bean Animated Season 1 | Full Episodes | Cartoons For Kids",
            "url": "https://www.youtube.com/watch?v=jcFebm5dgTw",
            "duration": 2583.0,
            "view_count": 3878075,
            "uploader": "Cartoons for Kids - Mr Bean",
            "category": "cartoons/mr_bean",
            "thumbnail": "https://i.ytimg.com/vi/jcFebm5dgTw/hq720.jpg"
        },
        {
            "id": "W1TM9rhYu-E",
            "title": "Mr Bean's Home Movie | Mr Bean | Cartoons for Kids | WildBrain Kids",
            "url": "https://www.youtube.com/watch?v=W1TM9rhYu-E",
            "duration": 1890.0,
            "view_count": 114122205,
            "uploader": "WildBrain Kids",
            "category": "cartoons/mr_bean",
            "thumbnail": "https://i.ytimg.com/vi/W1TM9rhYu-E/hq720.jpg"
        },
        {
            "id": "mK_xnSMwb60",
            "title": "The OCTOPUS ROLLERCOASTER! | Mr Bean Animated Season 2 | Full Episodes | Mr Bean",
            "url": "https://www.youtube.com/watch?v=mK_xnSMwb60",
            "duration": 3300.0,
            "view_count": 1993942,
            "uploader": "Mr Bean",
            "category": "cartoons/mr_bean",
            "thumbnail": "https://i.ytimg.com/vi/mK_xnSMwb60/hq720.jpg"
        },
        {
            "id": "vTlx-pmjTkM",
            "title": "Safari Bean! | Mr Bean Animated Season 2 | Full Episodes | Mr Bean World",
            "url": "https://www.youtube.com/watch?v=vTlx-pmjTkM",
            "duration": 3301.0,
            "view_count": 8650837,
            "uploader": "Mr Bean World",
            "category": "cartoons/mr_bean",
            "thumbnail": "https://i.ytimg.com/vi/vTlx-pmjTkM/hq720.jpg"
        },
        {
            "id": "niVDwHZ8lh0",
            "title": "महा सफ़ाई | मिस्टर बीन एनिमेटेड | पूर्ण एपिसोड | मिस्टर बीन हिंदी",
            "url": "https://www.youtube.com/watch?v=niVDwHZ8lh0",
            "duration": 673.0,
            "view_count": 1114197,
            "uploader": "Mr Bean Hindi",
            "category": "cartoons/mr_bean",
            "thumbnail": "https://i.ytimg.com/vi/niVDwHZ8lh0/hq720.jpg"
        },
        {
            "id": "W2VWO13X7AQ",
            "title": "CHRISTMAS CRUISE! 🎅🛳 | Mr Bean Cartoon Season 2 | Full Episodes | Cartoons for Kids",
            "url": "https://www.youtube.com/watch?v=W2VWO13X7AQ",
            "duration": 2641.0,
            "view_count": 5568539,
            "uploader": "Cartoons for Kids - Mr Bean",
            "category": "cartoons/various_cartoons",
            "thumbnail": "https://i.ytimg.com/vi/W2VWO13X7AQ/hq720.jpg"
        },
        {
            "id": "48013shJrBs",
            "title": "Taxi Bean | Mr Bean Animated | Full Episode | Season 2 Episode 26 | Mr Bean",
            "url": "https://www.youtube.com/watch?v=48013shJrBs",
            "duration": 662.0,
            "view_count": 0,
            "uploader": "Mr Bean",
            "category": "cartoons/mr_bean",
            "thumbnail": "https://i.ytimg.com/vi/48013shJrBs/hq720.jpg"
        },
        {
            "id": "DsCkuZRnQUM",
            "title": "Mr.ben hindi hd full episode",
            "url": "https://www.youtube.com/watch?v=DsCkuZRnQUM",
            "duration": 613.0,
            "view_count": 305302,
            "uploader": "Cartoons for Kids - Mr Bean",
            "category": "cartoons/mr_bean",
            "thumbnail": "https://i.ytimg.com/vi/DsCkuZRnQUM/hq720.jpg"
        },
        {
            "id": "FIw3PvDjqi0",
            "title": "Spring Clean | Mr Bean Animated | Season 1 Episode 8 | Full Episode | Mr Bean And Teddy Cartoons",
            "url": "https://www.youtube.com/watch?v=FIw3PvDjqi0",
            "duration": 673.0,
            "view_count": 311827,
            "uploader": "Mr Bean And Teddy Cartoons",
            "category": "cartoons/mr_bean",
            "thumbnail": "https://i.ytimg.com/vi/FIw3PvDjqi0/hq720.jpg"
        },
        {
            "id": "fAMIh-GkJdg",
            "title": "Mr Bean new episodes in Hindi(2)",
            "url": "https://www.youtube.com/watch?v=fAMIh-GkJdg",
            "duration": 631.0,
            "view_count": 1839123,
            "uploader": "Cartoons for Kids - Mr Bean",
            "category": "cartoons/mr_bean",
            "thumbnail": "https://i.ytimg.com/vi/fAMIh-GkJdg/hqdefault.jpg"
        },
        {
            "id": "4Unv7rw5HNk",
            "title": "Mr Bean | Baking | Full Episodes Compilation | Cartoons for Children",
            "url": "https://www.youtube.com/watch?v=4Unv7rw5HNk",
            "duration": 646.0,
            "view_count": 23571035,
            "uploader": "WildBrain Circus ",
            "category": "cartoons/mr_bean",
            "thumbnail": "https://i.ytimg.com/vi/4Unv7rw5HNk/hq720.jpg"
        },
        {
            "id": "f1OvieYLHQE",
            "title": "Bed Time | Funny Episodes | Mr Bean Cartoon World",
            "url": "https://www.youtube.com/watch?v=f1OvieYLHQE",
            "duration": 2453.0,
            "view_count": 44935371,
            "uploader": "Mr Bean World",
            "category": "cartoons/mr_bean",
            "thumbnail": "https://i.ytimg.com/vi/f1OvieYLHQE/hq720.jpg"
        },
        {
            "id": "gxbRnnucIPU",
            "title": "Mr Bean Enters A Pie Eating Competition! |Mr Bean Animated | Full Episodes | Mr Bean World",
            "url": "https://www.youtube.com/watch?v=gxbRnnucIPU",
            "duration": 3300.0,
            "view_count": 5873180,
            "uploader": "Mr Bean World",
            "category": "cartoons/mr_bean",
            "thumbnail": "https://i.ytimg.com/vi/gxbRnnucIPU/hq720.jpg"
        },
        {
            "id": "MGX400LDfVU",
            "title": "BEAN BURGER! 🍔 | Mr Bean Cartoon Season 1 | Funny Clips | Mr Bean Cartoon World",
            "url": "https://www.youtube.com/watch?v=MGX400LDfVU",
            "duration": 2899.0,
            "view_count": 18118929,
            "uploader": "Mr Bean World",
            "category": "cartoons/mr_bean",
            "thumbnail": "https://i.ytimg.com/vi/MGX400LDfVU/hq720.jpg"
        },
        {
            "id": "7cLsFAhML8Y",
            "title": "SHARK ATTACK! | Mr Bean | WildBrain Kids",
            "url": "https://www.youtube.com/watch?v=7cLsFAhML8Y",
            "duration": 32646.0,
            "view_count": 7364027,
            "uploader": "WildBrain Kids",
            "category": "cartoons/mr_bean",
            "thumbnail": "https://i.ytimg.com/vi/7cLsFAhML8Y/hq720.jpg"
        },
        {
            "id": "Rwaaml11CCc",
            "title": "Mr Bean Vs Obstacle Course | Mr Bean Animated Season 3 | Full Episodes | Mr Bean Official",
            "url": "https://www.youtube.com/watch?v=Rwaaml11CCc",
            "duration": 3302.0,
            "view_count": 2797206,
            "uploader": "Mr Bean",
            "category": "cartoons/mr_bean",
            "thumbnail": "https://i.ytimg.com/vi/Rwaaml11CCc/hq720.jpg"
        },
        {
            "id": "2ta7fj0AFrM",
            "title": "Bean’s DIY Furniture Mission Gone Wrong | Mr Bean Animated Season 2  | Mr Bean World",
            "url": "https://www.youtube.com/watch?v=2ta7fj0AFrM",
            "duration": 2674.0,
            "view_count": 34503,
            "uploader": "Mr Bean World",
            "category": "cartoons/mr_bean",
            "thumbnail": "https://i.ytimg.com/vi/2ta7fj0AFrM/hq720.jpg"
        },
        {
            "id": "0YOgFYBF7uY",
            "title": "DIY Bean | (Mr Bean Cartoon) | Mr Bean Full Episodes | Mr Bean Comedy",
            "url": "https://www.youtube.com/watch?v=0YOgFYBF7uY",
            "duration": 2641.0,
            "view_count": 17386087,
            "uploader": "Mr Bean",
            "category": "cartoons/mr_bean",
            "thumbnail": "https://i.ytimg.com/vi/0YOgFYBF7uY/hq720.jpg"
        },
        {
            "id": "IuvPr6Y04b4",
            "title": "Hattori पड़ा Kenichi की पढ़ाई के पीछे 📚😅 | Ninja Hattori",
            "url": "https://www.youtube.com/watch?v=IuvPr6Y04b4",
            "duration": 2957.0,
            "view_count": 2350856,
            "uploader": "Sonic Gang",
            "category": "cartoons/ninja_hattori",
            "thumbnail": "https://i.ytimg.com/vi/IuvPr6Y04b4/hq720.jpg"
        },
        {
            "id": "bJ8NZHoJZlE",
            "title": "Ninja Hattori New Episode Without Zoom In Hindi.",
            "url": "https://www.youtube.com/watch?v=bJ8NZHoJZlE",
            "duration": 1117.0,
            "view_count": 4278,
            "uploader": "Ideal Animals",
            "category": "cartoons/ninja_hattori",
            "thumbnail": "https://i.ytimg.com/vi/bJ8NZHoJZlE/hqdefault.jpg"
        },
        {
            "id": "3vJiupiPAqY",
            "title": "Live Detective Mode With Ninja Hattori! | Ninja Hattori | Live |  @disneyindia",
            "url": "https://www.youtube.com/watch?v=3vJiupiPAqY",
            "duration": 10948.0,
            "view_count": 153894,
            "uploader": "Disney India",
            "category": "cartoons/ninja_hattori",
            "thumbnail": "https://i.ytimg.com/vi/3vJiupiPAqY/hq720.jpg"
        },
        {
            "id": "UsN9-u2nj8c",
            "title": "Kenichi का Homework Drama और Hattori की Advice | Ninja Hattori",
            "url": "https://www.youtube.com/watch?v=UsN9-u2nj8c",
            "duration": 2957.0,
            "view_count": 200651,
            "uploader": "Sonic Gang",
            "category": "cartoons/ninja_hattori",
            "thumbnail": "https://i.ytimg.com/vi/UsN9-u2nj8c/hq720.jpg"
        },
        {
            "id": "wHU9LxkljqU",
            "title": "Amara के Side में Yumiko? Kenichi Upset | Ninja Hattori",
            "url": "https://www.youtube.com/watch?v=wHU9LxkljqU",
            "duration": 1131.0,
            "view_count": 900706,
            "uploader": "Sonic Gang",
            "category": "cartoons/ninja_hattori",
            "thumbnail": "https://i.ytimg.com/vi/wHU9LxkljqU/hq720.jpg"
        },
        {
            "id": "VDKlf5EFqEQ",
            "title": "Ninja Hattori old episode in Hindi dubbed...recapture mom....",
            "url": "https://www.youtube.com/watch?v=VDKlf5EFqEQ",
            "duration": 1117.0,
            "view_count": 82895,
            "uploader": "The kids World",
            "category": "cartoons/ninja_hattori",
            "thumbnail": "https://i.ytimg.com/vi/VDKlf5EFqEQ/hqdefault.jpg"
        },
        {
            "id": "44iTTn9gNtM",
            "title": "Hattori और Kenichi ने Amara को कर दिया गंजा! | Ninja Hattori",
            "url": "https://www.youtube.com/watch?v=44iTTn9gNtM",
            "duration": 3733.0,
            "view_count": 524510,
            "uploader": "Sonic Gang",
            "category": "cartoons/ninja_hattori",
            "thumbnail": "https://i.ytimg.com/vi/44iTTn9gNtM/hq720.jpg"
        },
        {
            "id": "iygL2kCTWeY",
            "title": "Road trip की जगह comedy trip बन गया! | Ninja Hattori",
            "url": "https://www.youtube.com/watch?v=iygL2kCTWeY",
            "duration": 3372.0,
            "view_count": 205778,
            "uploader": "Sonic Gang",
            "category": "cartoons/ninja_hattori",
            "thumbnail": "https://i.ytimg.com/vi/iygL2kCTWeY/hq720.jpg"
        }
    ]
}