{
    "page": 88,
    "total_pages": 103,
    "total_items": 5125,
    "items": [
        {
            "id": "HOMU28Ye6QU",
            "title": "🔴 BRAND NEW PEPPA PIG TALES EPISODES 🐽 ALL New Season 3  ✨📺  | New House, New Car, New Bedroom!",
            "url": "https://www.youtube.com/watch?v=HOMU28Ye6QU",
            "duration": 0,
            "view_count": 0,
            "uploader": "Peppa Pig Tales",
            "category": "cartoons/peppa_pig",
            "thumbnail": "https://i.ytimg.com/vi/HOMU28Ye6QU/hq720.jpg"
        },
        {
            "id": "yy4YlXzjYSs",
            "title": "🔴  NEWEST Peppa Pig Episodes 2026 ✨ SEASON 10 Holiday Adventures ☀️ Kids Movie 🔴",
            "url": "https://www.youtube.com/watch?v=yy4YlXzjYSs",
            "duration": 0,
            "view_count": 0,
            "uploader": "Peppa Pig - Official Channel",
            "category": "cartoons/peppa_pig",
            "thumbnail": "https://i.ytimg.com/vi/yy4YlXzjYSs/hq720.jpg"
        },
        {
            "id": "JvI5XeOm6U0",
            "title": "🔴  NEWEST Peppa Pig Episodes 2026 ✨ SEASON 10 Holiday Adventures ☀️ Kids Movie 🔴",
            "url": "https://www.youtube.com/watch?v=JvI5XeOm6U0",
            "duration": 0,
            "view_count": 0,
            "uploader": "Peppa Pig - Official Channel",
            "category": "cartoons/peppa_pig",
            "thumbnail": "https://i.ytimg.com/vi/JvI5XeOm6U0/hq720.jpg"
        },
        {
            "id": "Zt7jYK5ke8I",
            "title": "Peppa Pig NEW BABY EVIE Episodes LIVE 🍼 Cutest & Funniest Moments 🥹💛 Kids Cartoons",
            "url": "https://www.youtube.com/watch?v=Zt7jYK5ke8I",
            "duration": 0,
            "view_count": 0,
            "uploader": "Peppa Pig - Official Channel",
            "category": "cartoons/peppa_pig",
            "thumbnail": "https://i.ytimg.com/vi/Zt7jYK5ke8I/hq720.jpg"
        },
        {
            "id": "xMiduiqJZR4",
            "title": "🔴  NEWEST Peppa Pig Episodes 2026 ✨ SEASON 10 Holiday Adventures ☀️ Kids Movie 🔴",
            "url": "https://www.youtube.com/watch?v=xMiduiqJZR4",
            "duration": 0,
            "view_count": 0,
            "uploader": "Peppa Pig - Official Channel",
            "category": "cartoons/peppa_pig",
            "thumbnail": "https://i.ytimg.com/vi/xMiduiqJZR4/hq720.jpg"
        },
        {
            "id": "E3Qc4C8H7_c",
            "title": "Peppa Pig in Hindi | चाँद पर सब्जियां | Hindi Cartoons for Kids",
            "url": "https://www.youtube.com/watch?v=E3Qc4C8H7_c",
            "duration": 3621.0,
            "view_count": 2278287,
            "uploader": "पेप्पा पिग हिंदी - आधिकारिक चैनल",
            "category": "cartoons/peppa_pig",
            "thumbnail": "https://i.ytimg.com/vi/E3Qc4C8H7_c/hq720.jpg"
        },
        {
            "id": "jOm6G0AsqaU",
            "title": "Peppa Pig NEW BABY EVIE Episodes LIVE 🍼 Cutest & Funniest Moments 🥹💛 Kids Cartoons",
            "url": "https://www.youtube.com/watch?v=jOm6G0AsqaU",
            "duration": 0,
            "view_count": 0,
            "uploader": "Peppa Pig - Official Channel",
            "category": "cartoons/peppa_pig",
            "thumbnail": "https://i.ytimg.com/vi/jOm6G0AsqaU/hq720.jpg"
        },
        {
            "id": "THs6QRlbxMU",
            "title": "🔴  NEWEST Peppa Pig Episodes 2026 ✨ SEASON 10 Holiday Adventures ☀️ Kids Movie 🔴",
            "url": "https://www.youtube.com/watch?v=THs6QRlbxMU",
            "duration": 0,
            "view_count": 0,
            "uploader": "Peppa Pig - Official Channel",
            "category": "cartoons/peppa_pig",
            "thumbnail": "https://i.ytimg.com/vi/THs6QRlbxMU/hq720.jpg"
        },
        {
            "id": "5s5OGEI1sRc",
            "title": "Daddy Pig Marathon Training LIVE 🏃 🔴 GO DADDY PIG! 🏁 Kids Cartoons 🔴",
            "url": "https://www.youtube.com/watch?v=5s5OGEI1sRc",
            "duration": 0,
            "view_count": 0,
            "uploader": "Peppa Pig - Official Channel",
            "category": "cartoons/peppa_pig",
            "thumbnail": "https://i.ytimg.com/vi/5s5OGEI1sRc/hq720.jpg"
        },
        {
            "id": "eVC_mswdrpA",
            "title": "🔴  NEWEST Peppa Pig Episodes 2026 ✨ SEASON 10 Holiday Adventures ☀️ Kids Movie 🔴",
            "url": "https://www.youtube.com/watch?v=eVC_mswdrpA",
            "duration": 0,
            "view_count": 0,
            "uploader": "Peppa Pig - Official Channel",
            "category": "cartoons/peppa_pig",
            "thumbnail": "https://i.ytimg.com/vi/eVC_mswdrpA/hq720.jpg"
        },
        {
            "id": "goY3MofZljs",
            "title": "Peppa Pig NEW BABY EVIE Episodes LIVE 🍼 Cutest & Funniest Moments 🥹💛 Kids Cartoons",
            "url": "https://www.youtube.com/watch?v=goY3MofZljs",
            "duration": 0,
            "view_count": 0,
            "uploader": "Peppa Pig - Official Channel",
            "category": "cartoons/peppa_pig",
            "thumbnail": "https://i.ytimg.com/vi/goY3MofZljs/hq720.jpg"
        },
        {
            "id": "x3GvI_mcZL4",
            "title": "Peppa Pig NEW BABY EVIE Episodes LIVE 🍼 Cutest & Funniest Moments 🥹💛 Kids Cartoons",
            "url": "https://www.youtube.com/watch?v=x3GvI_mcZL4",
            "duration": 0,
            "view_count": 0,
            "uploader": "Peppa Pig - Official Channel",
            "category": "cartoons/peppa_pig",
            "thumbnail": "https://i.ytimg.com/vi/x3GvI_mcZL4/hq720.jpg"
        },
        {
            "id": "rihKumsV0ro",
            "title": "Peppa Pig NEW BABY EVIE Episodes LIVE 🍼 Cutest & Funniest Moments 🥹💛 Kids Cartoons",
            "url": "https://www.youtube.com/watch?v=rihKumsV0ro",
            "duration": 0,
            "view_count": 0,
            "uploader": "Peppa Pig - Official Channel",
            "category": "cartoons/peppa_pig",
            "thumbnail": "https://i.ytimg.com/vi/rihKumsV0ro/hq720.jpg"
        },
        {
            "id": "EgeTkFPThj4",
            "title": "Peppa Pig NEW BABY EVIE Episodes LIVE 🍼 Cutest & Funniest Moments 🥹💛 Kids Cartoons",
            "url": "https://www.youtube.com/watch?v=EgeTkFPThj4",
            "duration": 0,
            "view_count": 0,
            "uploader": "Peppa Pig - Official Channel",
            "category": "cartoons/peppa_pig",
            "thumbnail": "https://i.ytimg.com/vi/EgeTkFPThj4/hq720.jpg"
        },
        {
            "id": "aC0x3r_2EEA",
            "title": "🔴  NEWEST Peppa Pig Episodes 2026 ✨ SEASON 10 Holiday Adventures ☀️ Kids Movie 🔴",
            "url": "https://www.youtube.com/watch?v=aC0x3r_2EEA",
            "duration": 0,
            "view_count": 0,
            "uploader": "Peppa Pig - Official Channel",
            "category": "cartoons/peppa_pig",
            "thumbnail": "https://i.ytimg.com/vi/aC0x3r_2EEA/hq720.jpg"
        },
        {
            "id": "T_d28FqO7MI",
            "title": "🔴  NEWEST Peppa Pig Episodes 2026 ✨ SEASON 10 Holiday Adventures ☀️ Kids Movie 🔴",
            "url": "https://www.youtube.com/watch?v=T_d28FqO7MI",
            "duration": 0,
            "view_count": 0,
            "uploader": "Peppa Pig - Official Channel",
            "category": "cartoons/peppa_pig",
            "thumbnail": "https://i.ytimg.com/vi/T_d28FqO7MI/hq720.jpg"
        },
        {
            "id": "nXDYOxKtQ0E",
            "title": "Peppa Pig NEW BABY EVIE Episodes LIVE 🍼 Cutest & Funniest Moments 🥹💛 Kids Cartoons",
            "url": "https://www.youtube.com/watch?v=nXDYOxKtQ0E",
            "duration": 0,
            "view_count": 0,
            "uploader": "Peppa Pig - Official Channel",
            "category": "cartoons/peppa_pig",
            "thumbnail": "https://i.ytimg.com/vi/nXDYOxKtQ0E/hq720.jpg"
        },
        {
            "id": "N00zK_KyoVg",
            "title": "🔴  NEWEST Peppa Pig Episodes 2026 ✨ SEASON 10 Holiday Adventures ☀️ Kids Movie 🔴",
            "url": "https://www.youtube.com/watch?v=N00zK_KyoVg",
            "duration": 0,
            "view_count": 0,
            "uploader": "Peppa Pig - Official Channel",
            "category": "cartoons/peppa_pig",
            "thumbnail": "https://i.ytimg.com/vi/N00zK_KyoVg/hq720.jpg"
        },
        {
            "id": "22IStQAvw6M",
            "title": "🔴  NEWEST Peppa Pig Episodes 2026 ✨ SEASON 10 Holiday Adventures ☀️ Kids Movie 🔴",
            "url": "https://www.youtube.com/watch?v=22IStQAvw6M",
            "duration": 0,
            "view_count": 0,
            "uploader": "Peppa Pig - Official Channel",
            "category": "cartoons/peppa_pig",
            "thumbnail": "https://i.ytimg.com/vi/22IStQAvw6M/hq720.jpg"
        },
        {
            "id": "bQ4gHNYjzpA",
            "title": "Peppa Pig NEW BABY EVIE Episodes LIVE 🍼 Cutest & Funniest Moments 🥹💛 Kids Cartoons",
            "url": "https://www.youtube.com/watch?v=bQ4gHNYjzpA",
            "duration": 0,
            "view_count": 0,
            "uploader": "Peppa Pig - Official Channel",
            "category": "cartoons/peppa_pig",
            "thumbnail": "https://i.ytimg.com/vi/bQ4gHNYjzpA/hq720.jpg"
        },
        {
            "id": "67WHPWfoibM",
            "title": "Daddy Pig Marathon Training LIVE 🏃 🔴 GO DADDY PIG! 🏁 Kids Cartoons 🔴",
            "url": "https://www.youtube.com/watch?v=67WHPWfoibM",
            "duration": 0,
            "view_count": 0,
            "uploader": "Peppa Pig - Official Channel",
            "category": "cartoons/peppa_pig",
            "thumbnail": "https://i.ytimg.com/vi/67WHPWfoibM/hq720.jpg"
        },
        {
            "id": "2mm8cJu0alA",
            "title": "Peppa Pig NEW BABY EVIE Episodes LIVE 🍼 Cutest & Funniest Moments 🥹💛 Kids Cartoons",
            "url": "https://www.youtube.com/watch?v=2mm8cJu0alA",
            "duration": 0,
            "view_count": 0,
            "uploader": "Peppa Pig - Official Channel",
            "category": "cartoons/peppa_pig",
            "thumbnail": "https://i.ytimg.com/vi/2mm8cJu0alA/hq720.jpg"
        },
        {
            "id": "Yni8SkIz23I",
            "title": "🔴  NEWEST Peppa Pig Episodes 2026 ✨ SEASON 10 Holiday Adventures ☀️ Kids Movie 🔴",
            "url": "https://www.youtube.com/watch?v=Yni8SkIz23I",
            "duration": 0,
            "view_count": 0,
            "uploader": "Peppa Pig - Official Channel",
            "category": "cartoons/peppa_pig",
            "thumbnail": "https://i.ytimg.com/vi/Yni8SkIz23I/hq720.jpg"
        },
        {
            "id": "d6SHvVhjQ_w",
            "title": "Peppa Pig NEW BABY EVIE Episodes LIVE 🍼 Cutest & Funniest Moments 🥹💛 Kids Cartoons",
            "url": "https://www.youtube.com/watch?v=d6SHvVhjQ_w",
            "duration": 0,
            "view_count": 0,
            "uploader": "Peppa Pig - Official Channel",
            "category": "cartoons/peppa_pig",
            "thumbnail": "https://i.ytimg.com/vi/d6SHvVhjQ_w/hq720.jpg"
        },
        {
            "id": "sk9AScPi7Jc",
            "title": "Pokemon full in hindi || Season 1 episode 34 fully in hindi || #pokemon anime #Poke'Solo",
            "url": "https://www.youtube.com/watch?v=sk9AScPi7Jc",
            "duration": 1086.0,
            "view_count": 273581,
            "uploader": "Poke'Solo",
            "category": "cartoons/pokemon",
            "thumbnail": "https://i.ytimg.com/vi/sk9AScPi7Jc/hqdefault.jpg"
        },
        {
            "id": "1TlOcjJodHw",
            "title": "Here Comes the Squirtle Squad | POKÉMON FULL EPISODE 12 | Season 1",
            "url": "https://www.youtube.com/watch?v=1TlOcjJodHw",
            "duration": 1343.0,
            "view_count": 5538430,
            "uploader": "Pokémon TV",
            "category": "cartoons/pokemon",
            "thumbnail": "https://i.ytimg.com/vi/1TlOcjJodHw/hq720.jpg"
        },
        {
            "id": "RYdXQlBjjPI",
            "title": "The Flame Pokémon-athon! | FULL EPISODE 32 | Season 1",
            "url": "https://www.youtube.com/watch?v=RYdXQlBjjPI",
            "duration": 1343.0,
            "view_count": 2776456,
            "uploader": "Pokémon TV",
            "category": "cartoons/pokemon",
            "thumbnail": "https://i.ytimg.com/vi/RYdXQlBjjPI/hq720.jpg"
        },
        {
            "id": "dHPTV4AHUyc",
            "title": "Can't Beat the Heat | POKÉMON FULL EPISODE 60 | Season 5",
            "url": "https://www.youtube.com/watch?v=dHPTV4AHUyc",
            "duration": 1274.0,
            "view_count": 3083664,
            "uploader": "Pokémon TV",
            "category": "cartoons/pokemon",
            "thumbnail": "https://i.ytimg.com/vi/dHPTV4AHUyc/hq720.jpg"
        },
        {
            "id": "fokk0u5Yr5Y",
            "title": "Volcanic Panic  | POKÉMON FULL EPISODE 4 | Season 2",
            "url": "https://www.youtube.com/watch?v=fokk0u5Yr5Y",
            "duration": 1418.0,
            "view_count": 2852193,
            "uploader": "Pokémon TV",
            "category": "cartoons/pokemon",
            "thumbnail": "https://i.ytimg.com/vi/fokk0u5Yr5Y/hq720.jpg"
        },
        {
            "id": "Cd-3_QOIjgU",
            "title": "Electric Shock Showdown | POKÉMON FULL EPISODE 14 | Season 1",
            "url": "https://www.youtube.com/watch?v=Cd-3_QOIjgU",
            "duration": 1343.0,
            "view_count": 4166121,
            "uploader": "Pokémon TV",
            "category": "cartoons/pokemon",
            "thumbnail": "https://i.ytimg.com/vi/Cd-3_QOIjgU/hq720.jpg"
        },
        {
            "id": "z3hMX65Khtg",
            "title": "Pokémon - I Choose You! | FULL EPISODE 1 | Season 1",
            "url": "https://www.youtube.com/watch?v=z3hMX65Khtg",
            "duration": 1343.0,
            "view_count": 12115611,
            "uploader": "Pokémon TV",
            "category": "cartoons/pokemon",
            "thumbnail": "https://i.ytimg.com/vi/z3hMX65Khtg/hq720.jpg"
        },
        {
            "id": "jVcAehqB47M",
            "title": "Pokemon Battle Ash Charizard Vs Dragonite Orange League Final In Hindi",
            "url": "https://www.youtube.com/watch?v=jVcAehqB47M",
            "duration": 1168.0,
            "view_count": 204661,
            "uploader": "TNX PLS1!",
            "category": "cartoons/pokemon",
            "thumbnail": "https://i.ytimg.com/vi/jVcAehqB47M/hqdefault.jpg"
        },
        {
            "id": "4RW7HoRqqpU",
            "title": "हिंदी Pokemon Season 1 episode 1-🐮Pokémon INDIDO LEAGUE एपिसोड (1)  | Pokémon (HINDI)हिंदी  All in 1",
            "url": "https://www.youtube.com/watch?v=4RW7HoRqqpU",
            "duration": 1156.0,
            "view_count": 26559,
            "uploader": "Eox",
            "category": "cartoons/pokemon",
            "thumbnail": "https://i.ytimg.com/vi/4RW7HoRqqpU/hq720.jpg"
        },
        {
            "id": "8SJSS_CB6jE",
            "title": "ENTER PIKACHU!  [FULL EPISODE] 📺 | Pokémon Journeys: The Series Episode 1",
            "url": "https://www.youtube.com/watch?v=8SJSS_CB6jE",
            "duration": 1433.0,
            "view_count": 8442736,
            "uploader": "The Official Pokémon YouTube channel",
            "category": "cartoons/pokemon",
            "thumbnail": "https://i.ytimg.com/vi/8SJSS_CB6jE/hq720.jpg"
        },
        {
            "id": "yteSsb4_QTU",
            "title": "Ash & Pikachu Challenge the Pokémon League! | 3 HOURS | Pokémon Season 2",
            "url": "https://www.youtube.com/watch?v=yteSsb4_QTU",
            "duration": 10861.0,
            "view_count": 1513122,
            "uploader": "Pokémon TV",
            "category": "cartoons/pokemon",
            "thumbnail": "https://i.ytimg.com/vi/yteSsb4_QTU/hq720.jpg"
        },
        {
            "id": "9w9GtB0MdWY",
            "title": "Ash Vs Red Full Battle in Hindi | Mewtwo Vs Ash Greninja |Pokemon Battle| Pokemon episode in Hindi",
            "url": "https://www.youtube.com/watch?v=9w9GtB0MdWY",
            "duration": 649.0,
            "view_count": 99870,
            "uploader": "Cool Infernape",
            "category": "cartoons/pokemon",
            "thumbnail": "https://i.ytimg.com/vi/9w9GtB0MdWY/hq720.jpg"
        },
        {
            "id": "_JPnwf7Gwh4",
            "title": "POKEMON MOVIE [HINDI DUBBED] FULL 4K QUALITY #viral #movie",
            "url": "https://www.youtube.com/watch?v=_JPnwf7Gwh4",
            "duration": 3637.0,
            "view_count": 1377831,
            "uploader": "Mujeeb_FFx",
            "category": "cartoons/pokemon",
            "thumbnail": "https://i.ytimg.com/vi/_JPnwf7Gwh4/hqdefault.jpg"
        },
        {
            "id": "LJ-4GUuMtSA",
            "title": "Ash Vs Tobias Full Battle in Hindi | Charizard Vs Moltres | Full Battle | Pokemon in Hindi Greninja",
            "url": "https://www.youtube.com/watch?v=LJ-4GUuMtSA",
            "duration": 618.0,
            "view_count": 729172,
            "uploader": "Cool Infernape",
            "category": "cartoons/pokemon",
            "thumbnail": "https://i.ytimg.com/vi/LJ-4GUuMtSA/hqdefault.jpg"
        },
        {
            "id": "XaWreTXENiY",
            "title": "A Tail with a Twist | POKÉMON FULL EPISODE 8 | Season 6",
            "url": "https://www.youtube.com/watch?v=XaWreTXENiY",
            "duration": 1274.0,
            "view_count": 763031,
            "uploader": "Pokémon TV",
            "category": "cartoons/pokemon",
            "thumbnail": "https://i.ytimg.com/vi/XaWreTXENiY/hq720.jpg"
        },
        {
            "id": "SeJkcF6gYjA",
            "title": "Kalos, Where Dreams and Adventures Begin  [FULL EPISODE] 📺 | Pokémon the Series: XY Episode 1",
            "url": "https://www.youtube.com/watch?v=SeJkcF6gYjA",
            "duration": 1283.0,
            "view_count": 6780100,
            "uploader": "The Official Pokémon YouTube channel",
            "category": "cartoons/pokemon",
            "thumbnail": "https://i.ytimg.com/vi/SeJkcF6gYjA/hq720.jpg"
        },
        {
            "id": "3l1lSNQxJA0",
            "title": "Mystery at the Lighthouse | POKÉMON FULL EPISODE 13 | Season 1",
            "url": "https://www.youtube.com/watch?v=3l1lSNQxJA0",
            "duration": 1343.0,
            "view_count": 2640997,
            "uploader": "Pokémon TV",
            "category": "cartoons/pokemon",
            "thumbnail": "https://i.ytimg.com/vi/3l1lSNQxJA0/hq720.jpg"
        },
        {
            "id": "TGiNvLHQmNc",
            "title": "Ash Vs His Father Full Battle in Hindi | Who is Ash's Dad? Full Episode | Pokemon in Hindi Greninja",
            "url": "https://www.youtube.com/watch?v=TGiNvLHQmNc",
            "duration": 630.0,
            "view_count": 42499,
            "uploader": "Cool Infernape",
            "category": "cartoons/pokemon",
            "thumbnail": "https://i.ytimg.com/vi/TGiNvLHQmNc/hq720.jpg"
        },
        {
            "id": "pUsRMu_Oitk",
            "title": "Pokemon indigo league episode 2 in hindi",
            "url": "https://www.youtube.com/watch?v=pUsRMu_Oitk",
            "duration": 1108.0,
            "view_count": 18642,
            "uploader": "I am poke name",
            "category": "cartoons/pokemon",
            "thumbnail": "https://i.ytimg.com/vi/pUsRMu_Oitk/hqdefault.jpg"
        },
        {
            "id": "B31-iYmkdTw",
            "title": "Pokemon First Season best fight  Episode 7 Ash  GYM Battle In Hindi",
            "url": "https://www.youtube.com/watch?v=B31-iYmkdTw",
            "duration": 1161.0,
            "view_count": 60824,
            "uploader": "mostly champ",
            "category": "cartoons/pokemon",
            "thumbnail": "https://i.ytimg.com/vi/B31-iYmkdTw/hq720.jpg"
        },
        {
            "id": "AupFEoIkSAE",
            "title": "In the Shadow of Zekrom!  [FULL EPISODE] 📺 | Pokémon: Black & White Episode 1",
            "url": "https://www.youtube.com/watch?v=AupFEoIkSAE",
            "duration": 1282.0,
            "view_count": 10191553,
            "uploader": "The Official Pokémon YouTube channel",
            "category": "cartoons/pokemon",
            "thumbnail": "https://i.ytimg.com/vi/AupFEoIkSAE/hq720.jpg"
        },
        {
            "id": "AQ6w5_yTgxY",
            "title": "ASH VS KC ||EPISODE-2 || HINDI || JOHTO JOURNEY || ONE SIDED POKEON BATTLE ||",
            "url": "https://www.youtube.com/watch?v=AQ6w5_yTgxY",
            "duration": 1176.0,
            "view_count": 23459,
            "uploader": "POKEMON PLATFORM HINDI",
            "category": "cartoons/pokemon",
            "thumbnail": "https://i.ytimg.com/vi/AQ6w5_yTgxY/hq720.jpg"
        },
        {
            "id": "uiglJ_0aMg4",
            "title": "The Perfect Match | POKÉMON FULL EPISODE 8 | Season 5",
            "url": "https://www.youtube.com/watch?v=uiglJ_0aMg4",
            "duration": 1270.0,
            "view_count": 891015,
            "uploader": "Pokémon TV",
            "category": "cartoons/pokemon",
            "thumbnail": "https://i.ytimg.com/vi/uiglJ_0aMg4/hq720.jpg"
        },
        {
            "id": "0rjyfZXvh00",
            "title": "Pokemon Battle Ash Charizard vs Dragonite Orange League Final In Hindi",
            "url": "https://www.youtube.com/watch?v=0rjyfZXvh00",
            "duration": 1168.0,
            "view_count": 4539,
            "uploader": "ANIME-TOONS-HINDI",
            "category": "cartoons/pokemon",
            "thumbnail": "https://i.ytimg.com/vi/0rjyfZXvh00/hq720.jpg"
        },
        {
            "id": "d722bGusttw",
            "title": "Don’t Touch That ‘dile [FULL EPISODE] 📺 | Pokémon: The Johto Journeys Episode 1",
            "url": "https://www.youtube.com/watch?v=d722bGusttw",
            "duration": 1362.0,
            "view_count": 7483354,
            "uploader": "The Official Pokémon YouTube channel",
            "category": "cartoons/pokemon",
            "thumbnail": "https://i.ytimg.com/vi/d722bGusttw/hq720.jpg"
        },
        {
            "id": "7nbLB_KaSzE",
            "title": "Johto Photo Finish | POKÉMON FULL EPISODE 62 | Season 5",
            "url": "https://www.youtube.com/watch?v=7nbLB_KaSzE",
            "duration": 1269.0,
            "view_count": 761350,
            "uploader": "Pokémon TV",
            "category": "cartoons/pokemon",
            "thumbnail": "https://i.ytimg.com/vi/7nbLB_KaSzE/hq720.jpg"
        }
    ]
}