{
    "page": 23,
    "total_pages": 103,
    "total_items": 5125,
    "items": [
        {
            "id": "oEnHj_RTE3E",
            "title": "Veera Madakari Full Movie | Kiccha Sudeep Action Movie | Ragini Dwivedi | Sudeep Kannada Movies",
            "url": "https://www.youtube.com/watch?v=oEnHj_RTE3E",
            "duration": 10079.0,
            "view_count": 5958915,
            "uploader": "SGV Digital - Kannada Full Movies",
            "category": "kannada",
            "thumbnail": "https://i.ytimg.com/vi/oEnHj_RTE3E/hq720.jpg"
        },
        {
            "id": "7UGBwGznSpU",
            "title": "Suryavamsha | HD Kannada Full Movie | Dr.Vishnuvardhan | Isha Koppikar | Family Movie",
            "url": "https://www.youtube.com/watch?v=7UGBwGznSpU",
            "duration": 10498.0,
            "view_count": 72146744,
            "uploader": "SRS Media Vision | Kannada Full Movies",
            "category": "kannada",
            "thumbnail": "https://i.ytimg.com/vi/7UGBwGznSpU/hq720.jpg"
        },
        {
            "id": "YyI_2pbMmvA",
            "title": "Nayanthara Blockbuster Kannada Dubbed Full Movie 2025 || Latest Kannada Dubb Movies || Full HD",
            "url": "https://www.youtube.com/watch?v=YyI_2pbMmvA",
            "duration": 7472.0,
            "view_count": 1006592,
            "uploader": "Kannada Cinemas",
            "category": "kannada",
            "thumbnail": "https://i.ytimg.com/vi/YyI_2pbMmvA/hq720.jpg"
        },
        {
            "id": "Kep_Vc_ID74",
            "title": "ಅಯೋಮಯ (Ayomaya) Kannada Full Movie - Kannada Comedy Movie | Chikkanna, Sruthi Hariharan, Honnavalli",
            "url": "https://www.youtube.com/watch?v=Kep_Vc_ID74",
            "duration": 6685.0,
            "view_count": 1328069,
            "uploader": "Vee Kannada",
            "category": "kannada",
            "thumbnail": "https://i.ytimg.com/vi/Kep_Vc_ID74/hq720.jpg"
        },
        {
            "id": "YlL_02ijzqw",
            "title": "Odela Railway Station Latest Full Movie 4K | Hebah Patel | Vasishta N Simha | Kannada | Indian Films",
            "url": "https://www.youtube.com/watch?v=YlL_02ijzqw",
            "duration": 5161.0,
            "view_count": 1614165,
            "uploader": "Mango Indian Films",
            "category": "kannada",
            "thumbnail": "https://i.ytimg.com/vi/YlL_02ijzqw/hq720.jpg"
        },
        {
            "id": "L6aZQo97L74",
            "title": "Moggina Manasu || Kannada HD Movie || Mr & Mrs Ramachari Yash & Radhika Pandit || Romantic Movie",
            "url": "https://www.youtube.com/watch?v=L6aZQo97L74",
            "duration": 8937.0,
            "view_count": 17909647,
            "uploader": "Anand Audio",
            "category": "kannada",
            "thumbnail": "https://i.ytimg.com/vi/L6aZQo97L74/hq720.jpg"
        },
        {
            "id": "fVwh1VArx7E",
            "title": "Land Lord Kannada full movie 2026 | Duniya Vijay | Rachita Ram | Raj B Shetty |",
            "url": "https://www.youtube.com/watch?v=fVwh1VArx7E",
            "duration": 8609.0,
            "view_count": 153,
            "uploader": "spkannadamovies ",
            "category": "kannada",
            "thumbnail": "https://i.ytimg.com/vi/fVwh1VArx7E/hq720.jpg"
        },
        {
            "id": "7gLaFAhCHgU",
            "title": "Rajahuli | Kannada Full Movie | Rocking Star Yash | Meghana Raj | Chikkanna | Guru Deshpande",
            "url": "https://www.youtube.com/watch?v=7gLaFAhCHgU",
            "duration": 8951.0,
            "view_count": 10700900,
            "uploader": "Lotus Kannada Movies",
            "category": "kannada",
            "thumbnail": "https://i.ytimg.com/vi/7gLaFAhCHgU/hq720.jpg?sqp=-oaymwEcCNAFEJQDSFXyq4qpAw4IARUAAIhCGAFwAcABBg==&rs=AOn4CLAIIlKIPpUvmrknGAfGOqeighh-Uw",
            "added_date": "2026-04-16T07:31:20.878014Z",
            "source": "youtube"
        },
        {
            "id": "ZxNCzwWL_bo",
            "title": "Shabaash Baddi Magane Kannada Full Movie 4K | Pramod Shetty | Adya Priya | Samrat Shetty | Kavya",
            "url": "https://www.youtube.com/watch?v=ZxNCzwWL_bo",
            "duration": 8455.0,
            "view_count": 1279214,
            "uploader": "Kannada HD Movies",
            "category": "kannada",
            "thumbnail": "https://i.ytimg.com/vi/ZxNCzwWL_bo/hq720.jpg?sqp=-oaymwEcCNAFEJQDSFXyq4qpAw4IARUAAIhCGAFwAcABBg==&rs=AOn4CLAfJjXYT5BYPwXMknvQ3h8D2l07cQ",
            "added_date": "2026-04-16T07:31:20.076594Z",
            "source": "youtube"
        },
        {
            "id": "_DquxypFxvE",
            "title": "Tarak Kannada Full Movie | Darshan | Devaraj | Shruthi Hariharan | Shanvi Srivasthav",
            "url": "https://www.youtube.com/watch?v=_DquxypFxvE",
            "duration": 8703.0,
            "view_count": 1975938,
            "uploader": "SGV Digital - Kannada Full Movies",
            "category": "kannada",
            "thumbnail": "https://i.ytimg.com/vi/_DquxypFxvE/hq720.jpg"
        },
        {
            "id": "fFwYC_eAdU0",
            "title": "U235 kannada full movie | Vivek | SnigdhaSoppa | Devaraj | Channe Gowda C.N |Ronada Bakkesh",
            "url": "https://www.youtube.com/watch?v=fFwYC_eAdU0",
            "duration": 7172.0,
            "view_count": 263677,
            "uploader": "Channegowda CN",
            "category": "kannada",
            "thumbnail": "https://i.ytimg.com/vi/fFwYC_eAdU0/hqdefault.jpg"
        },
        {
            "id": "QWlMUCSyVEo",
            "title": "Nanna Preethiya Hudugi | Kannada Full Movie | Dhyan | Deepali | Nagathihalli Chandrashekhar",
            "url": "https://www.youtube.com/watch?v=QWlMUCSyVEo",
            "duration": 9324.0,
            "view_count": 2513504,
            "uploader": "SGV Digital - Kannada Full Movies",
            "category": "kannada",
            "thumbnail": "https://i.ytimg.com/vi/QWlMUCSyVEo/hq720.jpg"
        },
        {
            "id": "Xfc8PWoDuFM",
            "title": "Maargan - Kannada Full Movie | 4K | Vijay Antony | Leo John Paul | Fatima Vijay Antony",
            "url": "https://www.youtube.com/watch?v=Xfc8PWoDuFM",
            "duration": 7800.0,
            "view_count": 2141118,
            "uploader": "Vijay Antony",
            "category": "kannada",
            "thumbnail": "https://i.ytimg.com/vi/Xfc8PWoDuFM/hq720.jpg?sqp=-oaymwEcCNAFEJQDSFXyq4qpAw4IARUAAIhCGAFwAcABBg==&rs=AOn4CLAkFSkZPXjHnpTGIRb0J-ebVU7HQw",
            "added_date": "2026-04-16T07:31:22.480976Z",
            "source": "youtube"
        },
        {
            "id": "9Ww09_NhGz4",
            "title": "Yajamana    ಯಜಮಾನ 2019 Kannada Full HD Chaleginga Star Darshan Rashmika Mandana Kannada Full movie",
            "url": "https://www.youtube.com/watch?v=9Ww09_NhGz4",
            "duration": 9697.0,
            "view_count": 162142,
            "uploader": "DKM Digital - Kannada Full Movies",
            "category": "kannada",
            "thumbnail": "https://i.ytimg.com/vi/9Ww09_NhGz4/hq720.jpg"
        },
        {
            "id": "1iCKfBIbK-s",
            "title": "Chamak Kannada HD Movie | Golden Star Ganesh | Rashmika Mandanna | Romantic Comedy Film",
            "url": "https://www.youtube.com/watch?v=1iCKfBIbK-s",
            "duration": 8343.0,
            "view_count": 1171488,
            "uploader": "SGV Digital - Kannada Full Movies",
            "category": "kannada",
            "thumbnail": "https://i.ytimg.com/vi/1iCKfBIbK-s/hq720.jpg"
        },
        {
            "id": "icvr4vBDLMU",
            "title": "Googly - ಗೂಗ್ಲಿ |  Kannada Full HD Movie | Kannada New Movies | Yash, Kriti Kharbanda",
            "url": "https://www.youtube.com/watch?v=icvr4vBDLMU",
            "duration": 8551.0,
            "view_count": 76156950,
            "uploader": "Sri Ganesh Videos",
            "category": "kannada",
            "thumbnail": "https://i.ytimg.com/vi/icvr4vBDLMU/hq720.jpg"
        },
        {
            "id": "BwJutIBXc84",
            "title": "Rakshit Shetty, Shanvi Srivastava Kannada Full Length HD Movie | TRP Entertainments",
            "url": "https://www.youtube.com/watch?v=BwJutIBXc84",
            "duration": 10473.0,
            "view_count": 332872,
            "uploader": "TRP Entertainments",
            "category": "kannada",
            "thumbnail": "https://i.ytimg.com/vi/BwJutIBXc84/hq720.jpg"
        },
        {
            "id": "yiYMDyyGZLE",
            "title": "Kotigobba | Kannada Full Movie | Dr.Vishnuvardhan | Priyanka | Abhijit | Action Movie",
            "url": "https://www.youtube.com/watch?v=yiYMDyyGZLE",
            "duration": 10020.0,
            "view_count": 1786963,
            "uploader": "SRS Media Vision | Kannada Full Movies",
            "category": "kannada",
            "thumbnail": "https://i.ytimg.com/vi/yiYMDyyGZLE/hq720.jpg"
        },
        {
            "id": "oVssfXZambQ",
            "title": "Bul Bul - Kannada Full Movie | Darshan, Rachita Ram, Ambareesh | 2013 Blockbuster Hit Movie",
            "url": "https://www.youtube.com/watch?v=oVssfXZambQ",
            "duration": 9522.0,
            "view_count": 36512261,
            "uploader": "SGV Digital - Kannada Full Movies",
            "category": "kannada",
            "thumbnail": "https://i.ytimg.com/vi/oVssfXZambQ/hq720.jpg"
        },
        {
            "id": "ynmr70TE7sk",
            "title": "Lucky – ಲಕ್ಕಿ | Kannada Full HD Movie | Yash | Ramya | Sadhu Kokila | Sharan | Arjun Janya",
            "url": "https://www.youtube.com/watch?v=ynmr70TE7sk",
            "duration": 8823.0,
            "view_count": 23100287,
            "uploader": "Anand Audio",
            "category": "kannada",
            "thumbnail": "https://i.ytimg.com/vi/ynmr70TE7sk/hq720.jpg"
        },
        {
            "id": "gvIN8dznwm4",
            "title": "Mr & Mrs Ramachari | Kannada Full Movie | Yash | Radhika Pandit | Santhosh Ananddram",
            "url": "https://www.youtube.com/watch?v=gvIN8dznwm4",
            "duration": 9262.0,
            "view_count": 104292212,
            "uploader": "Sri Ganesh Videos",
            "category": "kannada",
            "thumbnail": "https://i.ytimg.com/vi/gvIN8dznwm4/hq720.jpg"
        },
        {
            "id": "AVm8bOy8zrE",
            "title": "Addhuri | ಅದ್ದೂರಿ | Kannada Full HD Movie | Dhruva Sarja | Radhika Pandit | AP Arjun | V.Harikrishna",
            "url": "https://www.youtube.com/watch?v=AVm8bOy8zrE",
            "duration": 7946.0,
            "view_count": 11312497,
            "uploader": "SRS Media Vision | Kannada Full Movies",
            "category": "kannada",
            "thumbnail": "https://i.ytimg.com/vi/AVm8bOy8zrE/hq720.jpg"
        },
        {
            "id": "jl2kdGIGD8c",
            "title": "Navagraha | ನವಗ್ರಹ | Kannada Full HD Movie | Challenging Star Darshan | Action Movie",
            "url": "https://www.youtube.com/watch?v=jl2kdGIGD8c",
            "duration": 8989.0,
            "view_count": 18884687,
            "uploader": "Anand Audio",
            "category": "kannada",
            "thumbnail": "https://i.ytimg.com/vi/jl2kdGIGD8c/hq720.jpg"
        },
        {
            "id": "4Pybl8dNM7M",
            "title": "Ranna - Kannada Full HD Movie | Kannada New Movies | Sudeep, Rachitha Ram, Chikkanna, Prakash Rai",
            "url": "https://www.youtube.com/watch?v=4Pybl8dNM7M",
            "duration": 9159.0,
            "view_count": 52098903,
            "uploader": "Sri Ganesh Videos",
            "category": "kannada",
            "thumbnail": "https://i.ytimg.com/vi/4Pybl8dNM7M/hq720.jpg"
        },
        {
            "id": "fv1NClcpgc4",
            "title": "Asathoma Sadhgamaya | Kannada Full Movie | Lasya Nagaraj, Radhika Narayan, Kiran Raj",
            "url": "https://www.youtube.com/watch?v=fv1NClcpgc4",
            "duration": 8058.0,
            "view_count": 866176,
            "uploader": "Kannada Movie Factory",
            "category": "kannada",
            "thumbnail": "https://i.ytimg.com/vi/fv1NClcpgc4/hq720.jpg?sqp=-oaymwEcCNAFEJQDSFXyq4qpAw4IARUAAIhCGAFwAcABBg==&rs=AOn4CLAg2T-xG46ksR6528JiEAjXyW9pRw",
            "added_date": "2026-04-16T07:31:22.681338Z",
            "source": "youtube"
        },
        {
            "id": "Ho1C_XhmOVc",
            "title": "Namo Venkatesha Full Movie | Venkatesh | Trisha | DSP | Kannada Movies 2024 | Mango Kannada",
            "url": "https://www.youtube.com/watch?v=Ho1C_XhmOVc",
            "duration": 9515.0,
            "view_count": 1178949,
            "uploader": "Mango Kannada",
            "category": "kannada",
            "thumbnail": "https://i.ytimg.com/vi/Ho1C_XhmOVc/hq720.jpg"
        },
        {
            "id": "vA4NS_S8h1s",
            "title": "Brundavana Kannada Full Movie | Darshan | Karthika Nair | Milana Nagaraj | Saikumar",
            "url": "https://www.youtube.com/watch?v=vA4NS_S8h1s",
            "duration": 10512.0,
            "view_count": 26833096,
            "uploader": "Shemaroo Kannada",
            "category": "kannada",
            "thumbnail": "https://i.ytimg.com/vi/vA4NS_S8h1s/hq720.jpg"
        },
        {
            "id": "pAyXCLzFuMs",
            "title": "Fidaa Kannada Dubbed Full Length HD Movie | Varun Tej | Sai Pallavi | TRP Entertainments |",
            "url": "https://www.youtube.com/watch?v=pAyXCLzFuMs",
            "duration": 7024.0,
            "view_count": 1339190,
            "uploader": "TRP Entertainments",
            "category": "kannada",
            "thumbnail": "https://i.ytimg.com/vi/pAyXCLzFuMs/hq720.jpg"
        },
        {
            "id": "8sm0wIaEC5g",
            "title": "Dilli 2K Kannada Latest Dubbed Full Movies HD | Superhit | Mass Movie |Karthi Arjun Das Yogi Babu | ",
            "url": "https://www.youtube.com/watch?v=8sm0wIaEC5g",
            "duration": 8665.0,
            "view_count": 48981,
            "uploader": "KARNA MOVIES 365",
            "category": "kannada",
            "thumbnail": "https://i.ytimg.com/vi/8sm0wIaEC5g/hq720.jpg"
        },
        {
            "id": "dON3RPi-sEU",
            "title": "Tenali Rama ತೆನಾಲಿ ರಾಮ 2006 Kannada Comedy Full Movie | Ramesh Aravind, Jaggesh",
            "url": "https://www.youtube.com/watch?v=dON3RPi-sEU",
            "duration": 9865.0,
            "view_count": 1655461,
            "uploader": "Movies Powered By Think Music",
            "category": "kannada",
            "thumbnail": "https://i.ytimg.com/vi/dON3RPi-sEU/hq720.jpg"
        },
        {
            "id": "RU32cjyoF0Y",
            "title": "Galipata Kannada Full Movie | Ganesh | Ananthnag | Rajesh Krishnan | Diganth | Yogaraj Bhat",
            "url": "https://www.youtube.com/watch?v=RU32cjyoF0Y",
            "duration": 8740.0,
            "view_count": 1277558,
            "uploader": "SGV Digital - Kannada Full Movies",
            "category": "kannada",
            "thumbnail": "https://i.ytimg.com/vi/RU32cjyoF0Y/hq720.jpg"
        },
        {
            "id": "7AfzCZu-PwI",
            "title": "Annavru Kannada Full Movie | Darshan | Ambarish | Kaniha | Blockbuster Kannada Hit Movie",
            "url": "https://www.youtube.com/watch?v=7AfzCZu-PwI",
            "duration": 9179.0,
            "view_count": 617847,
            "uploader": "Lotus Entertainment",
            "category": "kannada",
            "thumbnail": "https://i.ytimg.com/vi/7AfzCZu-PwI/hq720.jpg"
        },
        {
            "id": "qjpLGvRQatA",
            "title": "ಬಂಧು ಬಳಗ | Kannada Family Entertainment Full Movie | Dr.Shivarajkumar | Poonam Kaur  | Hamsalekha",
            "url": "https://www.youtube.com/watch?v=qjpLGvRQatA",
            "duration": 9304.0,
            "view_count": 845039,
            "uploader": "SRS Media Vision Sandalwood Films",
            "category": "kannada",
            "thumbnail": "https://i.ytimg.com/vi/qjpLGvRQatA/hq720.jpg"
        },
        {
            "id": "OYTcdkQwL9U",
            "title": "Crime Investigation Thriller Sedu Kannada Dubbed Full Movie 4K | M.S.Bhaskar |  Arun K Prasad | UHD",
            "url": "https://www.youtube.com/watch?v=OYTcdkQwL9U",
            "duration": 6318.0,
            "view_count": 118094,
            "uploader": "MovieFlix Kannada",
            "category": "kannada",
            "thumbnail": "https://i.ytimg.com/vi/OYTcdkQwL9U/hq720.jpg"
        },
        {
            "id": "Qy8sCZJwjcI",
            "title": "Prema Kadambari Full Movie | Ambarish | Lakshmi | Jeevitha | Old Kannada Movie",
            "url": "https://www.youtube.com/watch?v=Qy8sCZJwjcI",
            "duration": 8741.0,
            "view_count": 283486,
            "uploader": "Lotus Entertainment",
            "category": "kannada",
            "thumbnail": "https://i.ytimg.com/vi/Qy8sCZJwjcI/hq720.jpg"
        },
        {
            "id": "sIbJVRxfsKo",
            "title": "Sahara Kannada Full Movie 4K | Ankush Rajath | Sarika Rao | Manjula | New Released Kannada Movie",
            "url": "https://www.youtube.com/watch?v=sIbJVRxfsKo",
            "duration": 7900.0,
            "view_count": 365908,
            "uploader": "Kannada HD Movies",
            "category": "kannada",
            "thumbnail": "https://i.ytimg.com/vi/sIbJVRxfsKo/hq720.jpg"
        },
        {
            "id": "qdY6M65qFow",
            "title": "Bazaar Kannada Action Full Length HD Movie | Dhanveer Gowda | Aditi Prabhudeva | TRP Entertainments",
            "url": "https://www.youtube.com/watch?v=qdY6M65qFow",
            "duration": 7869.0,
            "view_count": 336781,
            "uploader": "TRP Entertainments",
            "category": "kannada",
            "thumbnail": "https://i.ytimg.com/vi/qdY6M65qFow/hq720.jpg"
        },
        {
            "id": "HtHyfUva47w",
            "title": "DIGGAJARU-kannada full HD Movie(2001) Vishnuvardhan |Ambarish |Balajicreation movies",
            "url": "https://www.youtube.com/watch?v=HtHyfUva47w",
            "duration": 9812.0,
            "view_count": 366882,
            "uploader": "BALAJI CREATIONS",
            "category": "kannada",
            "thumbnail": "https://i.ytimg.com/vi/HtHyfUva47w/hq720.jpg"
        },
        {
            "id": "QxgUQp-u194",
            "title": "Balwanth Full Movie | Ram | Kriti Kharbanda | Prakash Raj | New Kannada Movies 2025 | Mango Kannada",
            "url": "https://www.youtube.com/watch?v=QxgUQp-u194",
            "duration": 9424.0,
            "view_count": 474664,
            "uploader": "Mango Kannada",
            "category": "kannada",
            "thumbnail": "https://i.ytimg.com/vi/QxgUQp-u194/hq720.jpg"
        },
        {
            "id": "dwbOoY5PaCc",
            "title": "Darbar Full Movie (Kannada) | Rajinikanth | Nayanthara | AR Murugadoss | Anirudh | Lyca Productions",
            "url": "https://www.youtube.com/watch?v=dwbOoY5PaCc",
            "duration": 9467.0,
            "view_count": 7971370,
            "uploader": "Lyca Productions",
            "category": "kannada",
            "thumbnail": "https://i.ytimg.com/vi/dwbOoY5PaCc/hq720.jpg"
        },
        {
            "id": "d9MNRFm_YQg",
            "title": "Hetta Karalu Kannada Full Movie | Devaraj, Shruthi, Thara, Sai Kumar",
            "url": "https://www.youtube.com/watch?v=d9MNRFm_YQg",
            "duration": 8257.0,
            "view_count": 1557086,
            "uploader": "Movies Powered By Think Music",
            "category": "kannada",
            "thumbnail": "https://i.ytimg.com/vi/d9MNRFm_YQg/hq720.jpg"
        },
        {
            "id": "cEG3pc-P6Xs",
            "title": "Anjada Gandu – ಅಂಜದ ಗಂಡು | Kannada Full Movie | Ravichandran, Kushbu, Master Manjunath, Devaraj",
            "url": "https://www.youtube.com/watch?v=cEG3pc-P6Xs",
            "duration": 7652.0,
            "view_count": 13615177,
            "uploader": "SRS Media Vision | Kannada Full Movies",
            "category": "kannada",
            "thumbnail": "https://i.ytimg.com/vi/cEG3pc-P6Xs/hq720.jpg"
        },
        {
            "id": "HGS8Bijr324",
            "title": "Gowramma Kannada Full Movie | Upendra | Ramya | Srinivasa Murthy | Chithra Shenoy | Sadhu Kokila",
            "url": "https://www.youtube.com/watch?v=HGS8Bijr324",
            "duration": 9723.0,
            "view_count": 1359422,
            "uploader": "SGV Digital - Kannada Full Movies",
            "category": "kannada",
            "thumbnail": "https://i.ytimg.com/vi/HGS8Bijr324/hq720.jpg"
        },
        {
            "id": "Tc_7t_yTQkQ",
            "title": "For Regn (For Registration) - Full Movie 4K Kannada | Pruthvi Ambaar, Milana Nagaraj | Jhankar Music",
            "url": "https://www.youtube.com/watch?v=Tc_7t_yTQkQ",
            "duration": 8293.0,
            "view_count": 1868735,
            "uploader": "Jhankar Music Movies",
            "category": "kannada",
            "thumbnail": "https://i.ytimg.com/vi/Tc_7t_yTQkQ/hq720.jpg"
        },
        {
            "id": "8eiz0nVRl-I",
            "title": "Gokula Kannada Full Movie | Vijay Raghavendra | Yash | Pooja Gandhi | Milana Prakash",
            "url": "https://www.youtube.com/watch?v=8eiz0nVRl-I",
            "duration": 8122.0,
            "view_count": 812857,
            "uploader": "Lotus Entertainment",
            "category": "kannada",
            "thumbnail": "https://i.ytimg.com/vi/8eiz0nVRl-I/hq720.jpg"
        },
        {
            "id": "LNU9ATqktjY",
            "title": "Banda Namma Sarrainodu Superhit Kannada Full Action HD Movie | Allu Arjun | Rakul Preet Singh",
            "url": "https://www.youtube.com/watch?v=LNU9ATqktjY",
            "duration": 8911.0,
            "view_count": 3736549,
            "uploader": "TRP Entertainments",
            "category": "kannada",
            "thumbnail": "https://i.ytimg.com/vi/LNU9ATqktjY/hq720.jpg"
        },
        {
            "id": "qfuJFSpIZPs",
            "title": "Karataka Damanaka Superhit Kannada Action Full HD Movie | Shiva Rajkumar | Prabhu Deva | Priya Anand",
            "url": "https://www.youtube.com/watch?v=qfuJFSpIZPs",
            "duration": 7516.0,
            "view_count": 502429,
            "uploader": "TRP Entertainments",
            "category": "kannada",
            "thumbnail": "https://i.ytimg.com/vi/qfuJFSpIZPs/hq720.jpg"
        },
        {
            "id": "llwWzWC9tYA",
            "title": "Darling Krishna new Movie | Love mocktail 3 Kannada Movie | Milana Nagaraj",
            "url": "https://www.youtube.com/watch?v=llwWzWC9tYA",
            "duration": 6213.0,
            "view_count": 752180,
            "uploader": "Me Krrish",
            "category": "kannada",
            "thumbnail": "https://i.ytimg.com/vi/llwWzWC9tYA/hq720.jpg"
        },
        {
            "id": "3pQuOJSxC1o",
            "title": "Drama – Kannada Full HD Movie | Yash, Radhika Pandith, Sathish | Rocking Star Yash Kannada Movies",
            "url": "https://www.youtube.com/watch?v=3pQuOJSxC1o",
            "duration": 8915.0,
            "view_count": 9826125,
            "uploader": "Sri Ganesh Videos",
            "category": "kannada",
            "thumbnail": "https://i.ytimg.com/vi/3pQuOJSxC1o/hq720.jpg"
        },
        {
            "id": "q7MKaiAS8w4",
            "title": "Sahukara Kannada Full Movie - Ravichandran, Vishnuvardhan, Shashikumar, Rambha, Anu Prabhakar",
            "url": "https://www.youtube.com/watch?v=q7MKaiAS8w4",
            "duration": 9861.0,
            "view_count": 4405402,
            "uploader": "Lotus Entertainment",
            "category": "kannada",
            "thumbnail": "https://i.ytimg.com/vi/q7MKaiAS8w4/hq720.jpg"
        }
    ]
}