{
    "page": 74,
    "total_pages": 103,
    "total_items": 5125,
    "items": [
        {
            "id": "TeFRlF_NO78",
            "title": "माशा एंड द बेयर 👱‍♀️🐻 बहुत ही अजीब घटना 👀😮 Masha and the Bear in Hindi",
            "url": "https://www.youtube.com/watch?v=TeFRlF_NO78",
            "duration": 1945.0,
            "view_count": 5123825,
            "uploader": "माशा एंड द बेयर",
            "category": "cartoons/masha_and_the_bear",
            "thumbnail": "https://i.ytimg.com/vi/TeFRlF_NO78/hq720.jpg"
        },
        {
            "id": "PFMiO_LgW3Y",
            "title": "मैराथन के सभी एपिसोड।पार्ट 1🎬1️⃣ Masha and the Bear in Hindi 2025 👱‍♀️🐻 माशा एंड द बेयर",
            "url": "https://www.youtube.com/watch?v=PFMiO_LgW3Y",
            "duration": 3841.0,
            "view_count": 561364,
            "uploader": "माशा एंड द बेयर",
            "category": "cartoons/masha_and_the_bear",
            "thumbnail": "https://i.ytimg.com/vi/PFMiO_LgW3Y/hq720.jpg"
        },
        {
            "id": "gzAv0s_cHiY",
            "title": "🔴 LIVE STREAM! माशा एंड द बेयर 🤪🕵️🎩 सबसे अजीब बातें 📺 Masha and the Bear in Hindi",
            "url": "https://www.youtube.com/watch?v=gzAv0s_cHiY",
            "duration": 40440.0,
            "view_count": 1995679,
            "uploader": "माशा एंड द बेयर",
            "category": "cartoons/masha_and_the_bear",
            "thumbnail": "https://i.ytimg.com/vi/gzAv0s_cHiY/hq720.jpg"
        },
        {
            "id": "wT2m8ayFi7E",
            "title": "आउटडोर सेफ्टी के रूल्स 🌳✅ Masha and the Bear in Hindi 2026 👱‍♀️🐻 माशा एंड द बेयर",
            "url": "https://www.youtube.com/watch?v=wT2m8ayFi7E",
            "duration": 3926.0,
            "view_count": 749178,
            "uploader": "माशा एंड द बेयर",
            "category": "cartoons/masha_and_the_bear",
            "thumbnail": "https://i.ytimg.com/vi/wT2m8ayFi7E/hq720.jpg"
        },
        {
            "id": "Cm3Oa7PeIrs",
            "title": "माशा एंड द बेयर 👱‍♀️🐻 💥2025 का नया एपिसोड💥 बबल करे कमाल 🐰🐻🏠 (एपिसोड 127)",
            "url": "https://www.youtube.com/watch?v=Cm3Oa7PeIrs",
            "duration": 2050.0,
            "view_count": 7351969,
            "uploader": "माशा एंड द बेयर",
            "category": "cartoons/masha_and_the_bear",
            "thumbnail": "https://i.ytimg.com/vi/Cm3Oa7PeIrs/hq720.jpg"
        },
        {
            "id": "wNJ2cTza0Hw",
            "title": "किस्सा बिच  का 🏖️🌊 नया एपिसोड 2025 👱‍♀️🐻 कार्टून का कलेक्शन 💥 माशा एंड द बेयर",
            "url": "https://www.youtube.com/watch?v=wNJ2cTza0Hw",
            "duration": 4019.0,
            "view_count": 4383116,
            "uploader": "माशा एंड द बेयर",
            "category": "cartoons/masha_and_the_bear",
            "thumbnail": "https://i.ytimg.com/vi/wNJ2cTza0Hw/hq720.jpg"
        },
        {
            "id": "-E1Grox2hrg",
            "title": "माशा एंड द बेयर 👱‍♀️🐻 💥2026 का नया एपिसोड💥 कलेक्शन बना पैशन  🍅😁 (एपिसोड 121)",
            "url": "https://www.youtube.com/watch?v=-E1Grox2hrg",
            "duration": 1316.0,
            "view_count": 3618588,
            "uploader": "माशा एंड द बेयर",
            "category": "cartoons/masha_and_the_bear",
            "thumbnail": "https://i.ytimg.com/vi/-E1Grox2hrg/hq720.jpg"
        },
        {
            "id": "JjNgF29b40k",
            "title": "माशा एंड द बेयर 👱‍♀️🐻 💥2024 का नया एपिसोड💥 सबसे प्यारा पंछी 🐦🐧 (एपिसोड 82)",
            "url": "https://www.youtube.com/watch?v=JjNgF29b40k",
            "duration": 869.0,
            "view_count": 5349696,
            "uploader": "माशा एंड द बेयर",
            "category": "cartoons/masha_and_the_bear",
            "thumbnail": "https://i.ytimg.com/vi/JjNgF29b40k/hq720.jpg"
        },
        {
            "id": "WDopcwb3hXI",
            "title": "माशा एंड द बेयर 💥 नया एपिसोड 2022 👱‍♀️🐻 मैं कौन हूँ 👧❓ कार्टून का कलेक्शन",
            "url": "https://www.youtube.com/watch?v=WDopcwb3hXI",
            "duration": 3963.0,
            "view_count": 15474411,
            "uploader": "माशा एंड द बेयर",
            "category": "cartoons/masha_and_the_bear",
            "thumbnail": "https://i.ytimg.com/vi/WDopcwb3hXI/hqdefault.jpg"
        },
        {
            "id": "FTn6FVoFzaI",
            "title": "माशा एंड द बेयर 💥 नया एपिसोड 2025 👱‍♀️🐻 बेयर का सच्चा प्यार 🧸💞 कार्टून का कलेक्शन",
            "url": "https://www.youtube.com/watch?v=FTn6FVoFzaI",
            "duration": 4010.0,
            "view_count": 3117543,
            "uploader": "माशा एंड द बेयर",
            "category": "cartoons/masha_and_the_bear",
            "thumbnail": "https://i.ytimg.com/vi/FTn6FVoFzaI/hq720.jpg"
        },
        {
            "id": "obdhaedYprU",
            "title": "🔴 LIVE STREAM! माशा एंड द बेयर 🆕 नया एपिसोड 🥀 पौधे का खाना है मस्ताना 😋 Masha and the Bear in Hindi",
            "url": "https://www.youtube.com/watch?v=obdhaedYprU",
            "duration": 40472.0,
            "view_count": 1667455,
            "uploader": "माशा एंड द बेयर",
            "category": "cartoons/masha_and_the_bear",
            "thumbnail": "https://i.ytimg.com/vi/obdhaedYprU/hq720.jpg"
        },
        {
            "id": "ZyHfAq7aYa4",
            "title": "🔴 LIVE STREAM 🎬 Masha and the Bear 🧜‍♂️🌊 Something Looks Fishy Here! 🐠🏖",
            "url": "https://www.youtube.com/watch?v=ZyHfAq7aYa4",
            "duration": 0,
            "view_count": 0,
            "uploader": "Masha and The Bear",
            "category": "cartoons/masha_and_the_bear",
            "thumbnail": "https://i.ytimg.com/vi/ZyHfAq7aYa4/hq720.jpg"
        },
        {
            "id": "9caS1u2UYsg",
            "title": "🔴 LIVE STREAM! TV 📺 माशा एंड द बेयर ✨ आपके लिए 🌸 Masha and the Bear in Hindi",
            "url": "https://www.youtube.com/watch?v=9caS1u2UYsg",
            "duration": 40481.0,
            "view_count": 148189,
            "uploader": "माशा एंड द बेयर",
            "category": "cartoons/masha_and_the_bear",
            "thumbnail": "https://i.ytimg.com/vi/9caS1u2UYsg/hq720.jpg"
        },
        {
            "id": "JOyc32EaleY",
            "title": "आपके लिए ✨🌸 Masha and the Bear in Hindi 2026 👱‍♀️🐻 माशा एंड द बेयर",
            "url": "https://www.youtube.com/watch?v=JOyc32EaleY",
            "duration": 4127.0,
            "view_count": 365308,
            "uploader": "माशा एंड द बेयर",
            "category": "cartoons/masha_and_the_bear",
            "thumbnail": "https://i.ytimg.com/vi/JOyc32EaleY/hq720.jpg"
        },
        {
            "id": "L66yBdXPB8w",
            "title": "माशा एंड द बेयर 👱‍♀️🐻 💥2026 का नया एपिसोड💥 खुशियों की बौछार  🛁🧼 (एपिसोड 113)",
            "url": "https://www.youtube.com/watch?v=L66yBdXPB8w",
            "duration": 1172.0,
            "view_count": 4443837,
            "uploader": "माशा एंड द बेयर",
            "category": "cartoons/masha_and_the_bear",
            "thumbnail": "https://i.ytimg.com/vi/L66yBdXPB8w/hq720.jpg"
        },
        {
            "id": "ZURNKrycMoo",
            "title": "🔴 LIVE STREAM! माशा एंड द बेयर 🔎 माशा के साथ नई चीजें सीखें  🔤 Masha and the Bear in Hindi",
            "url": "https://www.youtube.com/watch?v=ZURNKrycMoo",
            "duration": 40495.0,
            "view_count": 8041197,
            "uploader": "माशा एंड द बेयर",
            "category": "cartoons/masha_and_the_bear",
            "thumbnail": "https://i.ytimg.com/vi/ZURNKrycMoo/hq720.jpg"
        },
        {
            "id": "VUNUzvssGrM",
            "title": "🌹💓 माशा एंड द बेयर 💐 स्पेशल एपिसोड! 👱🏻‍♀️ कहो चीज़! 📸 💥 YouTube पर पहले से ही उपलब्ध! 💥",
            "url": "https://www.youtube.com/watch?v=VUNUzvssGrM",
            "duration": 1506.0,
            "view_count": 43440810,
            "uploader": "माशा एंड द बेयर",
            "category": "cartoons/masha_and_the_bear",
            "thumbnail": "https://i.ytimg.com/vi/VUNUzvssGrM/hq720.jpg"
        },
        {
            "id": "HmFJIqnebGI",
            "title": "माशा एंड द बेयर 👱‍♀️🐻 चलो एक साथ जश्न मनाएँ! 🥳🎊 Masha and the Bear in Hindi 2024",
            "url": "https://www.youtube.com/watch?v=HmFJIqnebGI",
            "duration": 4007.0,
            "view_count": 2321989,
            "uploader": "माशा एंड द बेयर",
            "category": "cartoons/masha_and_the_bear",
            "thumbnail": "https://i.ytimg.com/vi/HmFJIqnebGI/hq720.jpg"
        },
        {
            "id": "1Q4JTXjqTcI",
            "title": "माशा एंड द बेयर 👱‍♀️🐻 संग्रह 2023 📺 बड़ा टैलेंट 👑 Masha and the Bear in Hindi",
            "url": "https://www.youtube.com/watch?v=1Q4JTXjqTcI",
            "duration": 2177.0,
            "view_count": 5914129,
            "uploader": "माशा एंड द बेयर",
            "category": "cartoons/masha_and_the_bear",
            "thumbnail": "https://i.ytimg.com/vi/1Q4JTXjqTcI/hq720.jpg"
        },
        {
            "id": "gv75d_-CdCM",
            "title": "सब कुछ गलत हो जाता है! 🤯🤡 Masha and the Bear in Hindi 2026 👱‍♀️🐻 माशा एंड द बेयर",
            "url": "https://www.youtube.com/watch?v=gv75d_-CdCM",
            "duration": 3927.0,
            "view_count": 461500,
            "uploader": "माशा एंड द बेयर",
            "category": "cartoons/masha_and_the_bear",
            "thumbnail": "https://i.ytimg.com/vi/gv75d_-CdCM/hq720.jpg"
        },
        {
            "id": "5nT58x8BP8k",
            "title": "सभी स्पेशल एपिसोड | All special episodes 🥰❤️‍🔥Masha and the Bear in Hindi 2025 👱‍♀️🐻 माशा एंड द बेयर",
            "url": "https://www.youtube.com/watch?v=5nT58x8BP8k",
            "duration": 2638.0,
            "view_count": 1395050,
            "uploader": "माशा एंड द बेयर",
            "category": "cartoons/masha_and_the_bear",
            "thumbnail": "https://i.ytimg.com/vi/5nT58x8BP8k/hq720.jpg"
        },
        {
            "id": "EH_bQkEP9lw",
            "title": "माशा एंड द बेयर 💥 नया एपिसोड 2024 👱‍♀️🐻 अंदर नया एपिसोड है! 🤩 कौन अधिक कूल है? 😎 😏",
            "url": "https://www.youtube.com/watch?v=EH_bQkEP9lw",
            "duration": 3945.0,
            "view_count": 2606829,
            "uploader": "माशा एंड द बेयर",
            "category": "cartoons/masha_and_the_bear",
            "thumbnail": "https://i.ytimg.com/vi/EH_bQkEP9lw/hq720.jpg"
        },
        {
            "id": "jzlqkHSRelk",
            "title": "माशा एंड द बेयर 🧼🚿 धुलाई 👱‍♀️👗 संग्रह 12⏱ 30 मिनट",
            "url": "https://www.youtube.com/watch?v=jzlqkHSRelk",
            "duration": 1874.0,
            "view_count": 6308695,
            "uploader": "माशा एंड द बेयर",
            "category": "cartoons/masha_and_the_bear",
            "thumbnail": "https://i.ytimg.com/vi/jzlqkHSRelk/hq720.jpg"
        },
        {
            "id": "M44BHA9EyaQ",
            "title": "🔴 LIVE STREAM 🎬 Masha and the Bear 👧🐻 Season 3: All episodes 🌼🌿",
            "url": "https://www.youtube.com/watch?v=M44BHA9EyaQ",
            "duration": 0,
            "view_count": 0,
            "uploader": "Masha and The Bear",
            "category": "cartoons/masha_and_the_bear",
            "thumbnail": "https://i.ytimg.com/vi/M44BHA9EyaQ/hq720.jpg"
        },
        {
            "id": "oVkOvy6ByH0",
            "title": "फल खट्टे क्यों होते हैं? 🍋😝 Masha and the Bear in Hindi 2025 👱‍♀️🐻 माशा एंड द बेयर",
            "url": "https://www.youtube.com/watch?v=oVkOvy6ByH0",
            "duration": 1234.0,
            "view_count": 11029942,
            "uploader": "माशा एंड द बेयर",
            "category": "cartoons/masha_and_the_bear",
            "thumbnail": "https://i.ytimg.com/vi/oVkOvy6ByH0/hq720.jpg"
        },
        {
            "id": "zcs84S08he8",
            "title": "माशा एंड द बेयर 👱‍♀️🐻  सफ़ेद मूँछ, काली धारियाँ 🤪 संग्रह 35 ⏱ 30 मिनट 🎉 Masha and the Bear in Hindi",
            "url": "https://www.youtube.com/watch?v=zcs84S08he8",
            "duration": 1919.0,
            "view_count": 7621664,
            "uploader": "माशा एंड द बेयर",
            "category": "cartoons/masha_and_the_bear",
            "thumbnail": "https://i.ytimg.com/vi/zcs84S08he8/hq720.jpg"
        },
        {
            "id": "88UOH1lCtKw",
            "title": "माशा एंड द बेयर 👱‍♀️🐻 ईस्टर एग हंट! 🐰🌸🐣 Masha and the Bear in Hindi 2025",
            "url": "https://www.youtube.com/watch?v=88UOH1lCtKw",
            "duration": 3861.0,
            "view_count": 2516478,
            "uploader": "माशा एंड द बेयर",
            "category": "cartoons/masha_and_the_bear",
            "thumbnail": "https://i.ytimg.com/vi/88UOH1lCtKw/hq720.jpg"
        },
        {
            "id": "AojlKJT5otc",
            "title": "माशा एंड द बेयर ✨ NEW✨👱‍♀️🐻 खा लो, मज़ा आएगा! 👩‍🍳 (एपिसोड 24) Masha and the Bear",
            "url": "https://www.youtube.com/watch?v=AojlKJT5otc",
            "duration": 780.0,
            "view_count": 82449211,
            "uploader": "माशा एंड द बेयर",
            "category": "cartoons/masha_and_the_bear",
            "thumbnail": "https://i.ytimg.com/vi/AojlKJT5otc/hqdefault.jpg"
        },
        {
            "id": "_1FjVeSar80",
            "title": "माशा एंड द बेयर 💥 2024 का नया एपिसोड💥 मेरे कंट्रोल में 👍 👧 (ट्रेलर) 👱‍♀️🐻 26 अप्रैल को आ रहा है!",
            "url": "https://www.youtube.com/watch?v=_1FjVeSar80",
            "duration": 4019.0,
            "view_count": 1748388,
            "uploader": "माशा एंड द बेयर",
            "category": "cartoons/masha_and_the_bear",
            "thumbnail": "https://i.ytimg.com/vi/_1FjVeSar80/hq720.jpg"
        },
        {
            "id": "EewpDJfo2LA",
            "title": "माशा एंड द बेयर 👱‍♀️🐻  सुर्खियों में लेडी बेयर 👒🌷 Masha and the Bear in Hindi",
            "url": "https://www.youtube.com/watch?v=EewpDJfo2LA",
            "duration": 1901.0,
            "view_count": 2169516,
            "uploader": "माशा एंड द बेयर",
            "category": "cartoons/masha_and_the_bear",
            "thumbnail": "https://i.ytimg.com/vi/EewpDJfo2LA/hq720.jpg"
        },
        {
            "id": "7mEVZAdVK8E",
            "title": "बेहतरीन एपिसोड! | Best episode! 🌟🏆 Masha and the Bear in Hindi 2026 👱‍♀️🐻 माशा एंड द बेयर",
            "url": "https://www.youtube.com/watch?v=7mEVZAdVK8E",
            "duration": 3584.0,
            "view_count": 587902,
            "uploader": "माशा एंड द बेयर",
            "category": "cartoons/masha_and_the_bear",
            "thumbnail": "https://i.ytimg.com/vi/7mEVZAdVK8E/hq720.jpg"
        },
        {
            "id": "h1T3V3_64nI",
            "title": "हमें दलिया क्यों खाना चाहिए? 🥣😋 Masha and the Bear in Hindi 2026 👱‍♀️🐻 माशा एंड द बेयर",
            "url": "https://www.youtube.com/watch?v=h1T3V3_64nI",
            "duration": 4193.0,
            "view_count": 637006,
            "uploader": "माशा एंड द बेयर",
            "category": "cartoons/masha_and_the_bear",
            "thumbnail": "https://i.ytimg.com/vi/h1T3V3_64nI/hq720.jpg"
        },
        {
            "id": "taAU0ZJ4IBY",
            "title": "Masha and the Bear 🎉 NEW EPISODE 2026 🥳 April Fool's Day 🤪👋 (Episode 143)",
            "url": "https://www.youtube.com/watch?v=taAU0ZJ4IBY",
            "duration": 834.0,
            "view_count": 4074467,
            "uploader": "Masha and The Bear",
            "category": "cartoons/masha_and_the_bear",
            "thumbnail": "https://i.ytimg.com/vi/taAU0ZJ4IBY/hq720.jpg"
        },
        {
            "id": "H2LPe9Z1Sw8",
            "title": "डरावनी माशा! | Scary Masha! 👧👻 Masha and the Bear in Hindi 2025 👱‍♀️🐻 माशा एंड द बेयर",
            "url": "https://www.youtube.com/watch?v=H2LPe9Z1Sw8",
            "duration": 1275.0,
            "view_count": 1738860,
            "uploader": "माशा एंड द बेयर",
            "category": "cartoons/masha_and_the_bear",
            "thumbnail": "https://i.ytimg.com/vi/H2LPe9Z1Sw8/hq720.jpg"
        },
        {
            "id": "umsCu5a8LSs",
            "title": "माशा एंड द बेयर 💥 नया एपिसोड 2024 👱‍♀️🐻 बंदर या इंसान 🐒 🎪 (एपिसोड 74) कार्टून का कलेक्शन",
            "url": "https://www.youtube.com/watch?v=umsCu5a8LSs",
            "duration": 3930.0,
            "view_count": 2908219,
            "uploader": "माशा एंड द बेयर",
            "category": "cartoons/masha_and_the_bear",
            "thumbnail": "https://i.ytimg.com/vi/umsCu5a8LSs/hq720.jpg"
        },
        {
            "id": "hXxit2GoGLM",
            "title": "🔴 LIVE STREAM TV! माशा एंड द बेयर 🆕 नया एपिसोड 🎡🎠 वंडर पार्क 🌟😄 Masha and the Bear",
            "url": "https://www.youtube.com/watch?v=hXxit2GoGLM",
            "duration": 40444.0,
            "view_count": 30490,
            "uploader": "माशा एंड द बेयर",
            "category": "cartoons/masha_and_the_bear",
            "thumbnail": "https://i.ytimg.com/vi/hXxit2GoGLM/hq720.jpg"
        },
        {
            "id": "mfyQhxrrijA",
            "title": "वह क्या था? | What Was That? 🐋😵‍💫 Masha and the Bear in Hindi 2026 👱‍♀️🐻 माशा एंड द बेयर",
            "url": "https://www.youtube.com/watch?v=mfyQhxrrijA",
            "duration": 3995.0,
            "view_count": 375375,
            "uploader": "माशा एंड द बेयर",
            "category": "cartoons/masha_and_the_bear",
            "thumbnail": "https://i.ytimg.com/vi/mfyQhxrrijA/hq720.jpg"
        },
        {
            "id": "vtG1jwJRGzU",
            "title": "Masha and the Bear 2023 ☔ Worm weather 🌧️🪱 Best episodes cartoon collection 🎬",
            "url": "https://www.youtube.com/watch?v=vtG1jwJRGzU",
            "duration": 1962.0,
            "view_count": 138020520,
            "uploader": "Masha and The Bear",
            "category": "cartoons/masha_and_the_bear",
            "thumbnail": "https://i.ytimg.com/vi/vtG1jwJRGzU/hq720.jpg"
        },
        {
            "id": "OaBlPz-m__0",
            "title": "🔴 LIVE STREAM 🎬 Masha and the Bear 💖🐰 My Lucky Fluffy 🐶🐩",
            "url": "https://www.youtube.com/watch?v=OaBlPz-m__0",
            "duration": 0,
            "view_count": 0,
            "uploader": "Masha and The Bear",
            "category": "cartoons/masha_and_the_bear",
            "thumbnail": "https://i.ytimg.com/vi/OaBlPz-m__0/hq720.jpg"
        },
        {
            "id": "vgRHDhgFOB4",
            "title": "🔴 LIVE STREAM 🎬 Masha and the Bear 👧🐻 Season 1: All episodes 🍓🦋",
            "url": "https://www.youtube.com/watch?v=vgRHDhgFOB4",
            "duration": 0,
            "view_count": 0,
            "uploader": "Masha and The Bear",
            "category": "cartoons/masha_and_the_bear",
            "thumbnail": "https://i.ytimg.com/vi/vgRHDhgFOB4/hq720.jpg"
        },
        {
            "id": "iYEGMCUdNVc",
            "title": "माशा एंड द बेयर 👱‍♀️🐻 सारे फूल खिलने दो🌼🌸 Masha and the Bear in Hindi",
            "url": "https://www.youtube.com/watch?v=iYEGMCUdNVc",
            "duration": 1900.0,
            "view_count": 4138986,
            "uploader": "माशा एंड द बेयर",
            "category": "cartoons/masha_and_the_bear",
            "thumbnail": "https://i.ytimg.com/vi/iYEGMCUdNVc/hq720.jpg"
        },
        {
            "id": "ZPMjTqtS08I",
            "title": "पहले सुरक्षा क्यों… | Why Safety First… 🤔💭 Masha and the Bear in Hindi 2026 👱‍♀️🐻 माशा एंड द बेयर",
            "url": "https://www.youtube.com/watch?v=ZPMjTqtS08I",
            "duration": 4167.0,
            "view_count": 199608,
            "uploader": "माशा एंड द बेयर",
            "category": "cartoons/masha_and_the_bear",
            "thumbnail": "https://i.ytimg.com/vi/ZPMjTqtS08I/hq720.jpg"
        },
        {
            "id": "IJwvwTvSeOY",
            "title": "माशा एंड द बेयर 👱‍♀️🐻 स्कूल के दिन 🧸 Masha and the Bear in Hindi",
            "url": "https://www.youtube.com/watch?v=IJwvwTvSeOY",
            "duration": 1850.0,
            "view_count": 40700522,
            "uploader": "माशा एंड द बेयर",
            "category": "cartoons/masha_and_the_bear",
            "thumbnail": "https://i.ytimg.com/vi/IJwvwTvSeOY/hq720.jpg"
        },
        {
            "id": "3hKKUGkbylo",
            "title": "🔴 LIVE STREAM! TV 📺 माशा एंड द बेयर 🤣 सबसे मज़ेदार एपिसोड! 🍿 Masha and the Bear in Hindi",
            "url": "https://www.youtube.com/watch?v=3hKKUGkbylo",
            "duration": 40443.0,
            "view_count": 96272,
            "uploader": "माशा एंड द बेयर",
            "category": "cartoons/masha_and_the_bear",
            "thumbnail": "https://i.ytimg.com/vi/3hKKUGkbylo/hq720.jpg"
        },
        {
            "id": "jCvSEuHms5M",
            "title": "Masha And The Bear - 🌞🏖 Summer Holidays🏖🌞",
            "url": "https://www.youtube.com/watch?v=jCvSEuHms5M",
            "duration": 1747.0,
            "view_count": 424586490,
            "uploader": "Masha and The Bear",
            "category": "cartoons/masha_and_the_bear",
            "thumbnail": "https://i.ytimg.com/vi/jCvSEuHms5M/hq720.jpg"
        },
        {
            "id": "RIc9ZPPKeO4",
            "title": "माशा एंड द बेयर 🎡🎠 वंडर पार्क 🌟😄 अभी प्रीमियर देखें! 💥 स्पेशल एपिसोड! 🔥 अभी देखें!",
            "url": "https://www.youtube.com/watch?v=RIc9ZPPKeO4",
            "duration": 1433.0,
            "view_count": 3496168,
            "uploader": "माशा एंड द बेयर",
            "category": "cartoons/masha_and_the_bear",
            "thumbnail": "https://i.ytimg.com/vi/RIc9ZPPKeO4/hq720.jpg"
        },
        {
            "id": "zxSkh8ru-Mo",
            "title": "खुशियों की बौछार  🛁🧼  नया एपिसोड 2026 👱‍♀️🐻 कार्टून का कलेक्शन 💥 माशा एंड द बेयर",
            "url": "https://www.youtube.com/watch?v=zxSkh8ru-Mo",
            "duration": 4189.0,
            "view_count": 1534421,
            "uploader": "माशा एंड द बेयर",
            "category": "cartoons/masha_and_the_bear",
            "thumbnail": "https://i.ytimg.com/vi/zxSkh8ru-Mo/hq720.jpg"
        },
        {
            "id": "OpBo4trl-pU",
            "title": "Masha and the Bear 2026 🌈🗻 Why Should We Protect Planet Earth? 🥾🌍 Best episodes collection 🎬",
            "url": "https://www.youtube.com/watch?v=OpBo4trl-pU",
            "duration": 1355.0,
            "view_count": 181045,
            "uploader": "Masha and The Bear",
            "category": "cartoons/masha_and_the_bear",
            "thumbnail": "https://i.ytimg.com/vi/OpBo4trl-pU/hq720.jpg"
        },
        {
            "id": "TMsUL8SucxU",
            "title": "माशा एंड द बेयर 🧼🚿धुलाई 👱‍♀️👗(एपिसोड 18)",
            "url": "https://www.youtube.com/watch?v=TMsUL8SucxU",
            "duration": 742.0,
            "view_count": 32103102,
            "uploader": "माशा एंड द बेयर",
            "category": "cartoons/masha_and_the_bear",
            "thumbnail": "https://i.ytimg.com/vi/TMsUL8SucxU/hq720.jpg"
        },
        {
            "id": "GbZoHi2iGiE",
            "title": "🔴 LIVE STREAM TV! माशा एंड द बेयर 🆕 नया एपिसोड💃 टूटता तारा लगे बड़ा प्यारा✨🎉Masha and the Bear",
            "url": "https://www.youtube.com/watch?v=GbZoHi2iGiE",
            "duration": 40486.0,
            "view_count": 90176,
            "uploader": "माशा एंड द बेयर",
            "category": "cartoons/masha_and_the_bear",
            "thumbnail": "https://i.ytimg.com/vi/GbZoHi2iGiE/hq720.jpg"
        }
    ]
}