{
    "page": 25,
    "total_pages": 103,
    "total_items": 5125,
    "items": [
        {
            "id": "zlprhMqt9t0",
            "title": "Love Mocktail 3 Kannada Movie 2026 | Full Movie HD | Darling Krishna | Milana Nagraj |",
            "url": "https://www.youtube.com/watch?v=zlprhMqt9t0",
            "duration": 7933.0,
            "view_count": 82,
            "uploader": "ZH2KannadaMovie",
            "category": "kannada",
            "thumbnail": "https://i.ytimg.com/vi/zlprhMqt9t0/hqdefault.jpg"
        },
        {
            "id": "JgEqVDpy7mg",
            "title": "Benki Full Movie | Ravi Teja | Shruti Haasan | Anjali | Kannada Movies 2026",
            "url": "https://www.youtube.com/watch?v=JgEqVDpy7mg",
            "duration": 9024.0,
            "view_count": 475735,
            "uploader": "Mango Kannada",
            "category": "kannada",
            "thumbnail": "https://i.ytimg.com/vi/JgEqVDpy7mg/hq720.jpg"
        },
        {
            "id": "HWRaSU8XnkM",
            "title": "Trunk (2018) | Nihal Rajput, Vaishali Deepak | Thriller Horror | Kannada Full Movie (HD)",
            "url": "https://www.youtube.com/watch?v=HWRaSU8XnkM",
            "duration": 8349.0,
            "view_count": 8807,
            "uploader": "Eros Universe South",
            "category": "kannada",
            "thumbnail": "https://i.ytimg.com/vi/HWRaSU8XnkM/hq720.jpg"
        },
        {
            "id": "Xtq_st3mxeQ",
            "title": "Pailwan Kannada Full Movie | Sudeep |  Pailwan Kannada Full HD Movie 2019",
            "url": "https://www.youtube.com/watch?v=Xtq_st3mxeQ",
            "duration": 9824.0,
            "view_count": 3466951,
            "uploader": " Dk Kannada movie ",
            "category": "kannada",
            "thumbnail": "https://i.ytimg.com/vi/Xtq_st3mxeQ/hq720.jpg"
        },
        {
            "id": "7aQ4UgDHznI",
            "title": "BIRBAL Trilogy - (Kannada) Full Movie | Srini | Rukmini Vasanth | Dr.TR Chandrashekaar",
            "url": "https://www.youtube.com/watch?v=7aQ4UgDHznI",
            "duration": 8503.0,
            "view_count": 3611938,
            "uploader": "Crystal Music",
            "category": "kannada",
            "thumbnail": "https://i.ytimg.com/vi/7aQ4UgDHznI/hq720.jpg"
        },
        {
            "id": "gJEStssoW7M",
            "title": "Bharrate Kannada Full Movie 2019 Sri Muruli",
            "url": "https://www.youtube.com/watch?v=gJEStssoW7M",
            "duration": 9865.0,
            "view_count": 527279,
            "uploader": "Kannada Movies",
            "category": "kannada",
            "thumbnail": "https://i.ytimg.com/vi/gJEStssoW7M/hqdefault.jpg"
        },
        {
            "id": "ErtrtdNIcjs",
            "title": "Vanamagan (HD) Adventure Movie In Kannada Dubbed l Jayam Ravi, Sayyeshaa Saigal, Prakash Raj",
            "url": "https://www.youtube.com/watch?v=ErtrtdNIcjs",
            "duration": 6552.0,
            "view_count": 361030,
            "uploader": "Sumeet Arts Films",
            "category": "kannada",
            "thumbnail": "https://i.ytimg.com/vi/ErtrtdNIcjs/hq720.jpg"
        },
        {
            "id": "yEihJexqFcg",
            "title": "Apthamitra Kannada FULL HD Movie Vishnuvardhan, Ramesh Aravind, Soundarya, Prema, Dwarakish",
            "url": "https://www.youtube.com/watch?v=yEihJexqFcg",
            "duration": 8827.0,
            "view_count": 835988,
            "uploader": "Dr. Vishnuvardhan Hits - SGV",
            "category": "kannada",
            "thumbnail": "https://i.ytimg.com/vi/yEihJexqFcg/hq720.jpg"
        },
        {
            "id": "klPOGjI4fp0",
            "title": "Akash (2005) Full Movie HD | Power Star Puneeth Rajkumar Ramya | Sandalwood Classic Blockbuster Hit ",
            "url": "https://www.youtube.com/watch?v=klPOGjI4fp0",
            "duration": 9036.0,
            "view_count": 230817,
            "uploader": "Karna Movies 365",
            "category": "kannada",
            "thumbnail": "https://i.ytimg.com/vi/klPOGjI4fp0/hq720.jpg"
        },
        {
            "id": "Ny1tjdST1jk",
            "title": "Pataki - ಪಟಾಕಿ - Kannada Full Movie | HD | Ganesh | Saikumar | Ranya Rao | Arjun Janya |  Movies",
            "url": "https://www.youtube.com/watch?v=Ny1tjdST1jk",
            "duration": 8411.0,
            "view_count": 7915794,
            "uploader": "Movies Powered By Think Music",
            "category": "kannada",
            "thumbnail": "https://i.ytimg.com/vi/Ny1tjdST1jk/hq720.jpg"
        },
        {
            "id": "orP__Gbot5Q",
            "title": "Rowdy Aliya – ರೌಡಿ ಆಳಿಯ | Kannada Full Movie | Shivarajkumar | Priyanka | Romantic & Action",
            "url": "https://www.youtube.com/watch?v=orP__Gbot5Q",
            "duration": 9493.0,
            "view_count": 8101615,
            "uploader": "SRS Media Vision | Kannada Full Movies",
            "category": "kannada",
            "thumbnail": "https://i.ytimg.com/vi/orP__Gbot5Q/hq720.jpg"
        },
        {
            "id": "b7FCesal_ZQ",
            "title": "Shourya | Kannada Full Movie | Darshan | MadalsaSharma | Sampath Kumar | John Kokken | Sadhu Kokila",
            "url": "https://www.youtube.com/watch?v=b7FCesal_ZQ",
            "duration": 8702.0,
            "view_count": 3084632,
            "uploader": "SGV Digital - Kannada Full Movies",
            "category": "kannada",
            "thumbnail": "https://i.ytimg.com/vi/b7FCesal_ZQ/hq720.jpg"
        },
        {
            "id": "2etZ0bs5ikE",
            "title": "Just Married Full Movie | Kannada Movies | Sheetal Gauthaman | Rishi Narayan | Infinitum Kannada",
            "url": "https://www.youtube.com/watch?v=2etZ0bs5ikE",
            "duration": 19973.0,
            "view_count": 694551,
            "uploader": "Infinitum Kannada",
            "category": "kannada",
            "thumbnail": "https://i.ytimg.com/vi/2etZ0bs5ikE/hq720.jpg?sqp=-oaymwEcCNAFEJQDSFXyq4qpAw4IARUAAIhCGAFwAcABBg==&rs=AOn4CLBffEGjHhwkM-JzDq8sImw7nDsCug",
            "added_date": "2026-04-16T07:31:21.278740Z",
            "source": "youtube"
        },
        {
            "id": "HdBcq5-rvmg",
            "title": "New Kannada Action Thriller Movie | Varalaxmi Sarathkumar | Mr.Celebrity Kannada Full Movie 4K",
            "url": "https://www.youtube.com/watch?v=HdBcq5-rvmg",
            "duration": 7469.0,
            "view_count": 394451,
            "uploader": "Kannada HD Movies",
            "category": "kannada",
            "thumbnail": "https://i.ytimg.com/vi/HdBcq5-rvmg/hq720.jpg"
        },
        {
            "id": "wQOMwf7pcQM",
            "title": "Dhurandhar 2 The Revenge | kannada Full Movie | Ranveer Singh, Sanjay Dutt | Movie HD",
            "url": "https://www.youtube.com/watch?v=wQOMwf7pcQM",
            "duration": 13475.0,
            "view_count": 85,
            "uploader": "Cinema Vault Kannada",
            "category": "kannada",
            "thumbnail": "https://i.ytimg.com/vi/wQOMwf7pcQM/hqdefault.jpg"
        },
        {
            "id": "GTZBVDLy5sE",
            "title": "Yarige Salutthe Sambala | Kannada Full HD Movie | Shashikumar, Mohan, Karibasavaiah | Comedy Movie",
            "url": "https://www.youtube.com/watch?v=GTZBVDLy5sE",
            "duration": 9140.0,
            "view_count": 7165695,
            "uploader": "SGV Digital - Kannada Full Movies",
            "category": "kannada",
            "thumbnail": "https://i.ytimg.com/vi/GTZBVDLy5sE/hq720.jpg"
        },
        {
            "id": "KEvr4aKRbBY",
            "title": "Badri Kannada Full Movie | Thalapathy Vijay | Bhumika | Kannada Dubbed Movies 2024 | Mango Kannada",
            "url": "https://www.youtube.com/watch?v=KEvr4aKRbBY",
            "duration": 9805.0,
            "view_count": 1642652,
            "uploader": "Mango Kannada",
            "category": "kannada",
            "thumbnail": "https://i.ytimg.com/vi/KEvr4aKRbBY/hq720.jpg"
        },
        {
            "id": "-6FS7VXFb0A",
            "title": "Eradane Janma (Randaam Yaamam) | Kannada Dubbed Full Movie | Swasika | Dhruvan | Video Park Kannada",
            "url": "https://www.youtube.com/watch?v=-6FS7VXFb0A",
            "duration": 7758.0,
            "view_count": 537901,
            "uploader": "Video Park Kannada",
            "category": "kannada",
            "thumbnail": "https://i.ytimg.com/vi/-6FS7VXFb0A/hq720.jpg"
        },
        {
            "id": "nzJKSKCIYUk",
            "title": "ಮಾರ್ಕ್ Kannada Full Movie 2025 | Kiccha Sudeep | Kannada New Movies | Kannada Movie | Mark Movie ",
            "url": "https://www.youtube.com/watch?v=nzJKSKCIYUk",
            "duration": 8705.0,
            "view_count": 21971,
            "uploader": "cine takies",
            "category": "kannada",
            "thumbnail": "https://i.ytimg.com/vi/nzJKSKCIYUk/hq720.jpg"
        },
        {
            "id": "_E8oS_8ZbjU",
            "title": "Shreemathi Full Movie | Madhavi | Sridhar | Janaki | Kannada Family Picture",
            "url": "https://www.youtube.com/watch?v=_E8oS_8ZbjU",
            "duration": 8797.0,
            "view_count": 505838,
            "uploader": "SGV Digital - Kannada Full Movies",
            "category": "kannada",
            "thumbnail": "https://i.ytimg.com/vi/_E8oS_8ZbjU/hq720.jpg"
        },
        {
            "id": "o0814sKXyLQ",
            "title": "Udbhava Kannada Full Movie | Ananthnag | Balakrishna | K S Ashwath | Kodlu Ramakrishna",
            "url": "https://www.youtube.com/watch?v=o0814sKXyLQ",
            "duration": 8120.0,
            "view_count": 605975,
            "uploader": "SGV Digital - Kannada Full Movies",
            "category": "kannada",
            "thumbnail": "https://i.ytimg.com/vi/o0814sKXyLQ/hq720.jpg"
        },
        {
            "id": "WG6xGtBuOnM",
            "title": "Masterpiece - Kannada Full HD Movie | Yash, Shanvi Srivastava | Blockbuster Kannada New Movies",
            "url": "https://www.youtube.com/watch?v=WG6xGtBuOnM",
            "duration": 9185.0,
            "view_count": 52191951,
            "uploader": "Sri Ganesh Videos",
            "category": "kannada",
            "thumbnail": "https://i.ytimg.com/vi/WG6xGtBuOnM/hq720.jpg"
        },
        {
            "id": "ve71uE3Nlo0",
            "title": "ಧೈರ್ಯ (Dhairya) Kannada Full Movie | Darshan | Kannada Super Hit Action Movie | Sadhu Kokila",
            "url": "https://www.youtube.com/watch?v=ve71uE3Nlo0",
            "duration": 8340.0,
            "view_count": 185667,
            "uploader": "Vee Kannada",
            "category": "kannada",
            "thumbnail": "https://i.ytimg.com/vi/ve71uE3Nlo0/hq720.jpg"
        },
        {
            "id": "k7-PP-xnxyw",
            "title": "Rama Krishna Kannada Full Movie | Ravichandran | Jaggesh | Kaveri | Laila | Doddanna | Sadhu Kokila",
            "url": "https://www.youtube.com/watch?v=k7-PP-xnxyw",
            "duration": 8788.0,
            "view_count": 3033688,
            "uploader": "SGV Digital - Kannada Full Movies",
            "category": "kannada",
            "thumbnail": "https://i.ytimg.com/vi/k7-PP-xnxyw/hq720.jpg"
        },
        {
            "id": "jWO7Ezm7pvM",
            "title": "45 kannada new movies 2025 / kannada movie / kannada new movies #kannadanewmovies ",
            "url": "https://www.youtube.com/watch?v=jWO7Ezm7pvM",
            "duration": 6878.0,
            "view_count": 172404,
            "uploader": "movie time kannada ",
            "category": "kannada",
            "thumbnail": "https://i.ytimg.com/vi/jWO7Ezm7pvM/hqdefault.jpg"
        },
        {
            "id": "7fvKsGY_VlA",
            "title": "Bengaluru 560023 I Kannada HD Full Movie I Jayaram Karthik I Pradeep Raj I   Arun Andrew",
            "url": "https://www.youtube.com/watch?v=7fvKsGY_VlA",
            "duration": 7788.0,
            "view_count": 1369314,
            "uploader": "SRS Media Vision | Kannada Full Movies",
            "category": "kannada",
            "thumbnail": "https://i.ytimg.com/vi/7fvKsGY_VlA/hq720.jpg"
        },
        {
            "id": "9ftOiCr4DtU",
            "title": "Mishan Impossible Full Movie | Taapsee Pannu | Harsh Roshan | Kannada Movies 2025 | Mango Kannada",
            "url": "https://www.youtube.com/watch?v=9ftOiCr4DtU",
            "duration": 7866.0,
            "view_count": 936319,
            "uploader": "Mango Kannada",
            "category": "kannada",
            "thumbnail": "https://i.ytimg.com/vi/9ftOiCr4DtU/hq720.jpg"
        },
        {
            "id": "23mlY8HNBI8",
            "title": "Blockbuster Hit South Kannada Movie Hindi Dubbed |Puneeth Rajkumar |Anjaniputra | South Indian Movie",
            "url": "https://www.youtube.com/watch?v=23mlY8HNBI8",
            "duration": 7302.0,
            "view_count": 550070,
            "uploader": "Dumdar HD Movies",
            "category": "kannada",
            "thumbnail": "https://i.ytimg.com/vi/23mlY8HNBI8/hq720.jpg"
        },
        {
            "id": "jfZLLLnIClI",
            "title": "Anthu Inthu Preethi Banthu | Kannada Full HD Movie | Ramya | Adithya Babu | Harish Raj | Family Film",
            "url": "https://www.youtube.com/watch?v=jfZLLLnIClI",
            "duration": 8950.0,
            "view_count": 3132504,
            "uploader": "SGV Digital - Kannada Full Movies",
            "category": "kannada",
            "thumbnail": "https://i.ytimg.com/vi/jfZLLLnIClI/hq720.jpg"
        },
        {
            "id": "rIbbGqTKQcI",
            "title": "Ayushman Bhava Superhit Kannada Full Length HD Movie | Shiva Rajkumar | Rachitha Ram |",
            "url": "https://www.youtube.com/watch?v=rIbbGqTKQcI",
            "duration": 7381.0,
            "view_count": 569577,
            "uploader": "TRP Entertainments",
            "category": "kannada",
            "thumbnail": "https://i.ytimg.com/vi/rIbbGqTKQcI/hq720.jpg"
        },
        {
            "id": "yZJXtHSlvYQ",
            "title": "Tande Aadre Tondre Full Movie | Suhas | Sangeerthana Vipin | New Kannada Movies 2025 | Mango Kannada",
            "url": "https://www.youtube.com/watch?v=yZJXtHSlvYQ",
            "duration": 8263.0,
            "view_count": 149442,
            "uploader": "Mango Kannada",
            "category": "kannada",
            "thumbnail": "https://i.ytimg.com/vi/yZJXtHSlvYQ/hqdefault.jpg"
        },
        {
            "id": "XpWr5Ho1ltw",
            "title": "Ekka Kannada HD Full Movies 2026 | Yuva rajKumar |Sanjana Ananda | New Kannada HD Full Movies ",
            "url": "https://www.youtube.com/watch?v=XpWr5Ho1ltw",
            "duration": 7332.0,
            "view_count": 340,
            "uploader": "Cine Vibe Kannada",
            "category": "kannada",
            "thumbnail": "https://i.ytimg.com/vi/XpWr5Ho1ltw/hq720.jpg"
        },
        {
            "id": "4rYYiPJHiMA",
            "title": "Cult New Kannada HD Full Movie | Zaid Khan 2026  | Rachita Ram | All OK | Kannada HD Full Movie",
            "url": "https://www.youtube.com/watch?v=4rYYiPJHiMA",
            "duration": 9651.0,
            "view_count": 289,
            "uploader": "Cine Vibe Kannada",
            "category": "kannada",
            "thumbnail": "https://i.ytimg.com/vi/4rYYiPJHiMA/hq720.jpg"
        },
        {
            "id": "7VK5PoHPQYg",
            "title": "Veera Ranachandi HD Movie | DRagini Dwivedi | Nagashekar | Ramesh Bhat | Anand P Raju |V Kuppu Swamy",
            "url": "https://www.youtube.com/watch?v=7VK5PoHPQYg",
            "duration": 8258.0,
            "view_count": 364733,
            "uploader": "SRS Media Vision | Kannada Full Movies",
            "category": "kannada",
            "thumbnail": "https://i.ytimg.com/vi/7VK5PoHPQYg/hq720.jpg"
        },
        {
            "id": "zhg8Op8DMh0",
            "title": "New kannada dubbed movie | kannada movies | Dhanush and Sanjay Dutt ",
            "url": "https://www.youtube.com/watch?v=zhg8Op8DMh0",
            "duration": 6993.0,
            "view_count": 289264,
            "uploader": "ADITYA MOVIES KANNADA",
            "category": "kannada",
            "thumbnail": "https://i.ytimg.com/vi/zhg8Op8DMh0/hq720.jpg?sqp=-oaymwEcCNAFEJQDSFXyq4qpAw4IARUAAIhCGAFwAcABBg==&rs=AOn4CLCjA2oQJCv4y1evjgOQ6SFlr7d1ng",
            "added_date": "2026-04-16T07:31:21.479087Z",
            "source": "youtube"
        },
        {
            "id": "U7lLq4W67wg",
            "title": "Yaaradi Nee Mohini - Kannada Romantic/Comedy Full HD Movie | Dhanush, Nayanthara, Saranya Mohan",
            "url": "https://www.youtube.com/watch?v=U7lLq4W67wg",
            "duration": 8473.0,
            "view_count": 376931,
            "uploader": "Peppermint Studioz",
            "category": "kannada",
            "thumbnail": "https://i.ytimg.com/vi/U7lLq4W67wg/hq720.jpg"
        },
        {
            "id": "yRSh4pP49LE",
            "title": "Kannada Movie | Gubbachi Kannada Dubbed Movie | Kannada Full Movie | Ilayaraja | Feel Good Kannada |",
            "url": "https://www.youtube.com/watch?v=yRSh4pP49LE",
            "duration": 6216.0,
            "view_count": 1287357,
            "uploader": "MovieFlix Kannada",
            "category": "kannada",
            "thumbnail": "https://i.ytimg.com/vi/yRSh4pP49LE/hq720.jpg"
        },
        {
            "id": "MBVLalinj7s",
            "title": "Rider Kannada full movie 2021 || kannada movie 2021 ||kannada movies#kanndamovies",
            "url": "https://www.youtube.com/watch?v=MBVLalinj7s",
            "duration": 8739.0,
            "view_count": 3350477,
            "uploader": "RE entertainment",
            "category": "kannada",
            "thumbnail": "https://i.ytimg.com/vi/MBVLalinj7s/hqdefault.jpg"
        },
        {
            "id": "kAfQ24NhU_A",
            "title": "Jothegara Kannada Full Movie | Lovely Star Prem | Ramya | Super Hit Kannada Movies",
            "url": "https://www.youtube.com/watch?v=kAfQ24NhU_A",
            "duration": 7869.0,
            "view_count": 653263,
            "uploader": "SGV Digital - Kannada Full Movies",
            "category": "kannada",
            "thumbnail": "https://i.ytimg.com/vi/kAfQ24NhU_A/hq720.jpg"
        },
        {
            "id": "SIieTJe8iU0",
            "title": "ಮೈ ಆಟೋಗ್ರಾಫ್ - MY AUTOGRAPH Kannada Full Movie | Kiccha Sudeep, Sridevika | Sudeep Kannada Movie",
            "url": "https://www.youtube.com/watch?v=SIieTJe8iU0",
            "duration": 8703.0,
            "view_count": 1871749,
            "uploader": "Vee Kannada and Global Kannada Entertainment",
            "category": "kannada",
            "thumbnail": "https://i.ytimg.com/vi/SIieTJe8iU0/hq720.jpg"
        },
        {
            "id": "r8WrxC_IZPA",
            "title": "Savitri | Kannada 2K HD Movie | Vijay Raghavendra | Urvashi Rai | Horror Movie",
            "url": "https://www.youtube.com/watch?v=r8WrxC_IZPA",
            "duration": 6099.0,
            "view_count": 2428340,
            "uploader": "SRS Media Vision | Kannada Full Movies",
            "category": "kannada",
            "thumbnail": "https://i.ytimg.com/vi/r8WrxC_IZPA/hq720.jpg"
        },
        {
            "id": "kADswksciwA",
            "title": "Brundhavana | Kannada Movie Full HD | Darshan, Karthika Nair, Milana Nagaraj, Saikumar",
            "url": "https://www.youtube.com/watch?v=kADswksciwA",
            "duration": 10510.0,
            "view_count": 23844275,
            "uploader": "SGV Digital - Kannada Full Movies",
            "category": "kannada",
            "thumbnail": "https://i.ytimg.com/vi/kADswksciwA/hq720.jpg"
        },
        {
            "id": "38jCCwY10b0",
            "title": "Banni Sambramisona Full Movie | Naga Chaitanya | Rakul Preet | Kannada Movies 2024 | Mango Kannada",
            "url": "https://www.youtube.com/watch?v=38jCCwY10b0",
            "duration": 8650.0,
            "view_count": 2317804,
            "uploader": "Mango Kannada",
            "category": "kannada",
            "thumbnail": "https://i.ytimg.com/vi/38jCCwY10b0/hq720.jpg"
        },
        {
            "id": "fslhmEc-0jo",
            "title": "Shivangi | ಶಿವಾಂಗಿ | Kannada Dubbed Movie | Drama Thriller | Divo Kannada",
            "url": "https://www.youtube.com/watch?v=fslhmEc-0jo",
            "duration": 7361.0,
            "view_count": 186434,
            "uploader": "Divo Movies Kannada",
            "category": "kannada",
            "thumbnail": "https://i.ytimg.com/vi/fslhmEc-0jo/hq720.jpg"
        },
        {
            "id": "OlgNVaPfkm4",
            "title": "Kannada dubbed love story movie Kali 2026  kannada New Dubbed Full Movie  DulquerSalmaan Sai Pallavi",
            "url": "https://www.youtube.com/watch?v=OlgNVaPfkm4",
            "duration": 7804.0,
            "view_count": 232523,
            "uploader": "Yash movie ",
            "category": "kannada",
            "thumbnail": "https://i.ytimg.com/vi/OlgNVaPfkm4/hq720.jpg"
        },
        {
            "id": "FNzkm1NkHoc",
            "title": "Habba - ಹಬ್ಬ | Kannada Full HD Movie | Dr.Vishnuvardhan, Ambarish, Devaraj, Shashikumar, Ramkumar",
            "url": "https://www.youtube.com/watch?v=FNzkm1NkHoc",
            "duration": 8240.0,
            "view_count": 12432538,
            "uploader": "SGV Digital - Kannada Full Movies",
            "category": "kannada",
            "thumbnail": "https://i.ytimg.com/vi/FNzkm1NkHoc/hq720.jpg"
        },
        {
            "id": "IUJwSG1d1no",
            "title": "Swalpa Adjust Madkolli Kannada Comedy Movie | Ananthnag | Ramkumar | Ramakrishna | Suhasini",
            "url": "https://www.youtube.com/watch?v=IUJwSG1d1no",
            "duration": 8131.0,
            "view_count": 893854,
            "uploader": "SGV - Kannada Comedy Movies",
            "category": "kannada",
            "thumbnail": "https://i.ytimg.com/vi/IUJwSG1d1no/hq720.jpg"
        },
        {
            "id": "uzR3wTEXphY",
            "title": "Chapala Chennigaraya | ಚಪಲ ಚೆನ್ನಿಗರಾಯ | Kannada Full Movie | Kashinath | Vanitha Vasu | Kalpana",
            "url": "https://www.youtube.com/watch?v=uzR3wTEXphY",
            "duration": 7407.0,
            "view_count": 5551843,
            "uploader": "SRS Media Vision | Kannada Full Movies",
            "category": "kannada",
            "thumbnail": "https://i.ytimg.com/vi/uzR3wTEXphY/hq720.jpg"
        },
        {
            "id": "U8TvN_4iHaY",
            "title": "Ninne Preethisuve | Kannada Full Movie | Shivarajkumar | Ramesh Aravind | Rashi | Love Story Movie",
            "url": "https://www.youtube.com/watch?v=U8TvN_4iHaY",
            "duration": 9720.0,
            "view_count": 3555964,
            "uploader": "Sri Ganesh Videos",
            "category": "kannada",
            "thumbnail": "https://i.ytimg.com/vi/U8TvN_4iHaY/hq720.jpg"
        },
        {
            "id": "gPrCnoLQiPQ",
            "title": "Upendra | Kannada Full HD Movie | Real Star Upendra | Raveena Tandon | Prema | Dhamini",
            "url": "https://www.youtube.com/watch?v=gPrCnoLQiPQ",
            "duration": 8213.0,
            "view_count": 8751927,
            "uploader": "SGV Digital - Kannada Full Movies",
            "category": "kannada",
            "thumbnail": "https://i.ytimg.com/vi/gPrCnoLQiPQ/hq720.jpg"
        }
    ]
}