{
    "page": 57,
    "total_pages": 103,
    "total_items": 5125,
    "items": [
        {
            "id": "x9686DovlFk",
            "title": "Doraemon in Hindi Full Episode | Magic Vending Machine | Doraemon Old Episodes",
            "url": "https://www.youtube.com/watch?v=x9686DovlFk",
            "duration": 633.0,
            "view_count": 389554,
            "uploader": "UltraToonix",
            "category": "cartoons/doraemon",
            "thumbnail": "https://i.ytimg.com/vi/x9686DovlFk/hq720.jpg"
        },
        {
            "id": "lxSD1vOW_Ew",
            "title": "Doraemon New Episode In Hindi | Doraemon Cartoon Today Full Episode",
            "url": "https://www.youtube.com/watch?v=lxSD1vOW_Ew",
            "duration": 1547.0,
            "view_count": 33175,
            "uploader": "victum fun",
            "category": "cartoons/doraemon",
            "thumbnail": "https://i.ytimg.com/vi/lxSD1vOW_Ew/hqdefault.jpg"
        },
        {
            "id": "YcXLHUVe_o0",
            "title": "Doraemon HINDI Old Episode Season 10 'Comedy Rock'   HD",
            "url": "https://www.youtube.com/watch?v=YcXLHUVe_o0",
            "duration": 636.0,
            "view_count": 147321,
            "uploader": "Cartoon_Cuddle",
            "category": "cartoons/doraemon",
            "thumbnail": "https://i.ytimg.com/vi/YcXLHUVe_o0/hq720.jpg"
        },
        {
            "id": "Hy4rCXiPA9I",
            "title": "Doraemon Today New Episode in hindi | New episodes of Doraemon",
            "url": "https://www.youtube.com/watch?v=Hy4rCXiPA9I",
            "duration": 713.0,
            "view_count": 30118,
            "uploader": "ZYAR SKILLS",
            "category": "cartoons/doraemon",
            "thumbnail": "https://i.ytimg.com/vi/Hy4rCXiPA9I/hqdefault.jpg"
        },
        {
            "id": "gMUwwwFiRAc",
            "title": "Doraemon new episode -11/09/2023-Doraemon Cartoon -Doraemon in Hindi",
            "url": "https://www.youtube.com/watch?v=gMUwwwFiRAc",
            "duration": 670.0,
            "view_count": 192198,
            "uploader": "Cartoon adda",
            "category": "cartoons/doraemon",
            "thumbnail": "https://i.ytimg.com/vi/gMUwwwFiRAc/hq720.jpg"
        },
        {
            "id": "9EEsaGCk2N8",
            "title": "Doraemon new episode in hindi | New episodes of Doraemon",
            "url": "https://www.youtube.com/watch?v=9EEsaGCk2N8",
            "duration": 1472.0,
            "view_count": 318502,
            "uploader": "ExtroVert Ladke",
            "category": "cartoons/doraemon",
            "thumbnail": "https://i.ytimg.com/vi/9EEsaGCk2N8/hq720.jpg"
        },
        {
            "id": "rdELrdOK-EA",
            "title": "Doremon New Episode In Hindi 🔥 | Subscribe For More ",
            "url": "https://www.youtube.com/watch?v=rdELrdOK-EA",
            "duration": 2493.0,
            "view_count": 3269047,
            "uploader": "Saurav Gaming99",
            "category": "cartoons/doraemon",
            "thumbnail": "https://i.ytimg.com/vi/rdELrdOK-EA/hqdefault.jpg"
        },
        {
            "id": "8lWGnupVNVo",
            "title": "Doraemon Hindi cartoon 2024 episode 1 season 19 doremon movie Hindi cartoon",
            "url": "https://www.youtube.com/watch?v=8lWGnupVNVo",
            "duration": 1105.0,
            "view_count": 910168,
            "uploader": "NOW KIDZ HINDI",
            "category": "cartoons/doraemon",
            "thumbnail": "https://i.ytimg.com/vi/8lWGnupVNVo/hqdefault.jpg"
        },
        {
            "id": "EKoWEX6eTHE",
            "title": "Dreamon aur Nobita ne Gian ko Mara Full Episode in Hindi",
            "url": "https://www.youtube.com/watch?v=EKoWEX6eTHE",
            "duration": 1105.0,
            "view_count": 1617441,
            "uploader": "Doraemon",
            "category": "cartoons/doraemon",
            "thumbnail": "https://i.ytimg.com/vi/EKoWEX6eTHE/hqdefault.jpg"
        },
        {
            "id": "OWbHksi47wU",
            "title": "Doraemon New Episode 343 in Hindi | Doraemon Cartoon 2025 | Latest Doraemon Episode in Hindi",
            "url": "https://www.youtube.com/watch?v=OWbHksi47wU",
            "duration": 1667.0,
            "view_count": 44874,
            "uploader": "SSC Warriors",
            "category": "cartoons/doraemon",
            "thumbnail": "https://i.ytimg.com/vi/OWbHksi47wU/hq720.jpg"
        },
        {
            "id": "P45KdaBuzXk",
            "title": "Doraemon in hindi | Full episode | season 9 episode 05 | Okazaki",
            "url": "https://www.youtube.com/watch?v=P45KdaBuzXk",
            "duration": 1261.0,
            "view_count": 137421,
            "uploader": "Okazaki",
            "category": "cartoons/doraemon",
            "thumbnail": "https://i.ytimg.com/vi/P45KdaBuzXk/hqdefault.jpg"
        },
        {
            "id": "Z-lhjsqiJU0",
            "title": "Doraemon in hindi | Full episode | season 9 episode 04 | Okazaki",
            "url": "https://www.youtube.com/watch?v=Z-lhjsqiJU0",
            "duration": 1262.0,
            "view_count": 56670,
            "uploader": "Okazaki",
            "category": "cartoons/doraemon",
            "thumbnail": "https://i.ytimg.com/vi/Z-lhjsqiJU0/hqdefault.jpg"
        },
        {
            "id": "9dLlEfdqSyg",
            "title": "Doraemon Old Episode In Hindi Full Episode Without Zoom Effect",
            "url": "https://www.youtube.com/watch?v=9dLlEfdqSyg",
            "duration": 1324.0,
            "view_count": 128651,
            "uploader": "Relaxing Corner",
            "category": "cartoons/doraemon",
            "thumbnail": "https://i.ytimg.com/vi/9dLlEfdqSyg/hqdefault.jpg"
        },
        {
            "id": "TNW-VtwqfTg",
            "title": "Doraemon hindi |  NO ZOOM EFFECT | Anokha robot",
            "url": "https://www.youtube.com/watch?v=TNW-VtwqfTg",
            "duration": 1253.0,
            "view_count": 205531,
            "uploader": "Cartoon Mania",
            "category": "cartoons/doraemon",
            "thumbnail": "https://i.ytimg.com/vi/TNW-VtwqfTg/hq720.jpg"
        },
        {
            "id": "-s0gDxTowV8",
            "title": "Doraemon Old Episodes in Hindi | Nostalgic Moments",
            "url": "https://www.youtube.com/watch?v=-s0gDxTowV8",
            "duration": 1250.0,
            "view_count": 106473,
            "uploader": "Mind Growth Hub",
            "category": "cartoons/doraemon",
            "thumbnail": "https://i.ytimg.com/vi/-s0gDxTowV8/hqdefault.jpg"
        },
        {
            "id": "SvPpdqcAsck",
            "title": "Doraemon new episode in Hindi | season 9 episode 03 |  Okazaki",
            "url": "https://www.youtube.com/watch?v=SvPpdqcAsck",
            "duration": 1286.0,
            "view_count": 85769,
            "uploader": "Okazaki",
            "category": "cartoons/doraemon",
            "thumbnail": "https://i.ytimg.com/vi/SvPpdqcAsck/hqdefault.jpg"
        },
        {
            "id": "dEVoB8wEsMo",
            "title": "Doraemon New Episode 19-1-2026-Episode 12-Doraemon Cartoon - Doraemon In Hindi -Doraemon Movie",
            "url": "https://www.youtube.com/watch?v=dEVoB8wEsMo",
            "duration": 818.0,
            "view_count": 62879,
            "uploader": "leakerforyou ",
            "category": "cartoons/doraemon",
            "thumbnail": "https://i.ytimg.com/vi/dEVoB8wEsMo/hq720.jpg"
        },
        {
            "id": "ywYf8Fsb6QA",
            "title": "Doraemon new episode in hindi | New episodes of Doraemon",
            "url": "https://www.youtube.com/watch?v=ywYf8Fsb6QA",
            "duration": 2269.0,
            "view_count": 62410,
            "uploader": "Islamic Video Vibes ",
            "category": "cartoons/doraemon",
            "thumbnail": "https://i.ytimg.com/vi/ywYf8Fsb6QA/hqdefault.jpg"
        },
        {
            "id": "B8Jr34UL3x8",
            "title": "Doraemon In hindi without zoom all favorite episodes.    doraemon special 1.5 hours",
            "url": "https://www.youtube.com/watch?v=B8Jr34UL3x8",
            "duration": 4663.0,
            "view_count": 259073,
            "uploader": "All the Help",
            "category": "cartoons/various_cartoons",
            "thumbnail": "https://i.ytimg.com/vi/B8Jr34UL3x8/hqdefault.jpg"
        },
        {
            "id": "sXcT7eBpCMI",
            "title": "Doraemon new Episode In Hindi - Doraemon Latest Hindi Episode 2025",
            "url": "https://www.youtube.com/watch?v=sXcT7eBpCMI",
            "duration": 1284.0,
            "view_count": 255185,
            "uploader": "The Scene Forever",
            "category": "cartoons/doraemon",
            "thumbnail": "https://i.ytimg.com/vi/sXcT7eBpCMI/hq720.jpg"
        },
        {
            "id": "0BknTD1hGIc",
            "title": "Doraemon New Episode In Hindi | Doraemon Cartoon Today Full Episode",
            "url": "https://www.youtube.com/watch?v=0BknTD1hGIc",
            "duration": 2190.0,
            "view_count": 50158,
            "uploader": "eysha Islamic ",
            "category": "cartoons/doraemon",
            "thumbnail": "https://i.ytimg.com/vi/0BknTD1hGIc/hq720_custom_3.jpg"
        },
        {
            "id": "A0WoQh3X7ts",
            "title": "Doraemon Today New Episode in hindi | New episodes of Doraemon",
            "url": "https://www.youtube.com/watch?v=A0WoQh3X7ts",
            "duration": 1053.0,
            "view_count": 78638,
            "uploader": "Ai Masala",
            "category": "cartoons/doraemon",
            "thumbnail": "https://i.ytimg.com/vi/A0WoQh3X7ts/hq720.jpg"
        },
        {
            "id": "NTryftiRQb8",
            "title": "Doraemon New Episode In Hindi | Doraemon Cartoon Today Full Episode",
            "url": "https://www.youtube.com/watch?v=NTryftiRQb8",
            "duration": 1414.0,
            "view_count": 573,
            "uploader": "Islamic channel ",
            "category": "cartoons/doraemon",
            "thumbnail": "https://i.ytimg.com/vi/NTryftiRQb8/hqdefault.jpg"
        },
        {
            "id": "Abv6N3qBmfw",
            "title": "Doraemon Today New Episode in hindi | New episodes of Doraemon",
            "url": "https://www.youtube.com/watch?v=Abv6N3qBmfw",
            "duration": 2899.0,
            "view_count": 45662,
            "uploader": "SM islami writes ♥️",
            "category": "cartoons/doraemon",
            "thumbnail": "https://i.ytimg.com/vi/Abv6N3qBmfw/hq720.jpg"
        },
        {
            "id": "944Uu-7xg8Q",
            "title": "Doraemon Old Episodes in Hindi - $3 EP50 Without ZoomEffect. Doraemon in Hindi",
            "url": "https://www.youtube.com/watch?v=944Uu-7xg8Q",
            "duration": 1271.0,
            "view_count": 297396,
            "uploader": "HindiCartoons",
            "category": "cartoons/doraemon",
            "thumbnail": "https://i.ytimg.com/vi/944Uu-7xg8Q/hqdefault.jpg"
        },
        {
            "id": "4hLE8Jp2AyQ",
            "title": "doraemon new episode | doremon in hindi without zoom effect | NG X 97",
            "url": "https://www.youtube.com/watch?v=4hLE8Jp2AyQ",
            "duration": 638.0,
            "view_count": 426331,
            "uploader": "NG X 97",
            "category": "cartoons/doraemon",
            "thumbnail": "https://i.ytimg.com/vi/4hLE8Jp2AyQ/hq720.jpg"
        },
        {
            "id": "GbL4e22eGBM",
            "title": "Doreamon full new episode in hindi without zoom effect#doreamon#cartoon#funny#nobita#doremon#viral",
            "url": "https://www.youtube.com/watch?v=GbL4e22eGBM",
            "duration": 656.0,
            "view_count": 214703,
            "uploader": "Drama Drop Edits",
            "category": "cartoons/doraemon",
            "thumbnail": "https://i.ytimg.com/vi/GbL4e22eGBM/hqdefault.jpg"
        },
        {
            "id": "kZWnbUE-5dg",
            "title": "Doraemon New Episode In Hindi | Doraemon Cartoon Today Full Episode",
            "url": "https://www.youtube.com/watch?v=kZWnbUE-5dg",
            "duration": 1157.0,
            "view_count": 14643,
            "uploader": "CN Rn David ",
            "category": "cartoons/doraemon",
            "thumbnail": "https://i.ytimg.com/vi/kZWnbUE-5dg/hqdefault.jpg"
        },
        {
            "id": "jmPqaiOnkk0",
            "title": "doremon new episode 1 23 September 2024 full episode",
            "url": "https://www.youtube.com/watch?v=jmPqaiOnkk0",
            "duration": 1299.0,
            "view_count": 161705,
            "uploader": "IMAMBUX7331 Sahtio (Imambux7331)",
            "category": "cartoons/doraemon",
            "thumbnail": "https://i.ytimg.com/vi/jmPqaiOnkk0/hqdefault.jpg"
        },
        {
            "id": "naiAWsIOsno",
            "title": "Doraemon Latest Episode - In Hindi 2026 Doraemon Latest Episode - In Hindi 2026 |",
            "url": "https://www.youtube.com/watch?v=naiAWsIOsno",
            "duration": 2276.0,
            "view_count": 10811,
            "uploader": "Happy Kids 3D",
            "category": "cartoons/doraemon",
            "thumbnail": "https://i.ytimg.com/vi/naiAWsIOsno/hqdefault.jpg"
        },
        {
            "id": "wnuSygbdxLw",
            "title": "Doraemon New Episode In Hindi | Doraemon Cartoon Today Full Episode",
            "url": "https://www.youtube.com/watch?v=wnuSygbdxLw",
            "duration": 1515.0,
            "view_count": 883,
            "uploader": "Simple Gaming ",
            "category": "cartoons/doraemon",
            "thumbnail": "https://i.ytimg.com/vi/wnuSygbdxLw/hqdefault.jpg"
        },
        {
            "id": "kVUOY8n46xI",
            "title": "Doraemon New Episode 05-03-2024 - Episode 01 - Doraemon Cartoon - Doraemon In Hindi - Doraemon",
            "url": "https://www.youtube.com/watch?v=kVUOY8n46xI",
            "duration": 1354.0,
            "view_count": 2455481,
            "uploader": "Mr Gourav",
            "category": "cartoons/doraemon",
            "thumbnail": "https://i.ytimg.com/vi/kVUOY8n46xI/hq720.jpg"
        },
        {
            "id": "BTTlQxailpk",
            "title": "Doraemon Season 10 Episode 59 - Full Episode in Hindi Without Zoom Effects",
            "url": "https://www.youtube.com/watch?v=BTTlQxailpk",
            "duration": 644.0,
            "view_count": 108808,
            "uploader": "Muhammad Yeasin",
            "category": "cartoons/doraemon",
            "thumbnail": "https://i.ytimg.com/vi/BTTlQxailpk/hqdefault.jpg"
        },
        {
            "id": "GzzbnRXhQHw",
            "title": "Doraemon Latest Episode 2026 | Dubbed | No Zoom Effect Full episode Hindi",
            "url": "https://www.youtube.com/watch?v=GzzbnRXhQHw",
            "duration": 2445.0,
            "view_count": 2910,
            "uploader": "AMADER ISALM 0051",
            "category": "cartoons/doraemon",
            "thumbnail": "https://i.ytimg.com/vi/GzzbnRXhQHw/hqdefault.jpg"
        },
        {
            "id": "gbnr7qXayzM",
            "title": "Doreamon Season 21 episode 18 in Hindi dubbed #doreamon #nobita #doreamon",
            "url": "https://www.youtube.com/watch?v=gbnr7qXayzM",
            "duration": 1291.0,
            "view_count": 2681753,
            "uploader": "Creative Clip Art ",
            "category": "cartoons/doraemon",
            "thumbnail": "https://i.ytimg.com/vi/gbnr7qXayzM/hq720.jpg"
        },
        {
            "id": "K9GHAOnGBow",
            "title": "Doraemon New Episode |Doraemon In Hindi| Without Zoom | Doraemon Cartoon |Doraemon Movie",
            "url": "https://www.youtube.com/watch?v=K9GHAOnGBow",
            "duration": 753.0,
            "view_count": 314315,
            "uploader": "Navin Bangla",
            "category": "cartoons/doraemon",
            "thumbnail": "https://i.ytimg.com/vi/K9GHAOnGBow/hqdefault.jpg"
        },
        {
            "id": "Z4kRIcFxyaE",
            "title": "Doraemon old episode season 9 Doraemon starring Doraemon new episode cartoon and stored present",
            "url": "https://www.youtube.com/watch?v=Z4kRIcFxyaE",
            "duration": 1297.0,
            "view_count": 776264,
            "uploader": "the ultimate fun",
            "category": "cartoons/doraemon",
            "thumbnail": "https://i.ytimg.com/vi/Z4kRIcFxyaE/hqdefault.jpg"
        },
        {
            "id": "dsjTveUDQts",
            "title": "Doraemon new episode in hindi without zooming episode The Long Long First Three Days of the New Year",
            "url": "https://www.youtube.com/watch?v=dsjTveUDQts",
            "duration": 1429.0,
            "view_count": 1750889,
            "uploader": "pokemon unite",
            "category": "cartoons/doraemon",
            "thumbnail": "https://i.ytimg.com/vi/dsjTveUDQts/hqdefault.jpg"
        },
        {
            "id": "hDT3BDO3LlI",
            "title": "Doremon New Episode ||Magical Eating Table Cloth || No Corp No Video Cutting || Friends Subscribe🙏",
            "url": "https://www.youtube.com/watch?v=hDT3BDO3LlI",
            "duration": 631.0,
            "view_count": 379313,
            "uploader": "Najmul Trends (Hindi Studio)",
            "category": "cartoons/doraemon",
            "thumbnail": "https://i.ytimg.com/vi/hDT3BDO3LlI/hq720.jpg"
        },
        {
            "id": "_0i402hDkrg",
            "title": "Doremon New Episode In Hindi 27/5/2024",
            "url": "https://www.youtube.com/watch?v=_0i402hDkrg",
            "duration": 1499.0,
            "view_count": 128701,
            "uploader": "Cartone Oficial Channal 3",
            "category": "cartoons/doraemon",
            "thumbnail": "https://i.ytimg.com/vi/_0i402hDkrg/hq720.jpg"
        },
        {
            "id": "OVr_3EGoeh0",
            "title": "Doraemon New Episode 2026 - Doraemon Cartoon Hindi - Doraemon In Hindi - Doraemon Now Movie",
            "url": "https://www.youtube.com/watch?v=OVr_3EGoeh0",
            "duration": 2633.0,
            "view_count": 28886,
            "uploader": "ALLAH MAALIK",
            "category": "cartoons/doraemon",
            "thumbnail": "https://i.ytimg.com/vi/OVr_3EGoeh0/hqdefault.jpg"
        },
        {
            "id": "oqpGIgDq5Cw",
            "title": "Doraemon Special Episode season 19",
            "url": "https://www.youtube.com/watch?v=oqpGIgDq5Cw",
            "duration": 1080.0,
            "view_count": 245015,
            "uploader": "Prabhakar Singh",
            "category": "cartoons/doraemon",
            "thumbnail": "https://i.ytimg.com/vi/oqpGIgDq5Cw/hq720.jpg"
        },
        {
            "id": "Y2P02Kwo1dk",
            "title": "Doraemon new episode in hindi | New episodes of Doraemon",
            "url": "https://www.youtube.com/watch?v=Y2P02Kwo1dk",
            "duration": 2466.0,
            "view_count": 28394,
            "uploader": "Tahir Khan",
            "category": "cartoons/doraemon",
            "thumbnail": "https://i.ytimg.com/vi/Y2P02Kwo1dk/hqdefault.jpg"
        },
        {
            "id": "ui7I7pTHAHg",
            "title": "Doremon New Episode In Hindi Without Zoom Effect |",
            "url": "https://www.youtube.com/watch?v=ui7I7pTHAHg",
            "duration": 2234.0,
            "view_count": 20185,
            "uploader": "Swaira Ch",
            "category": "cartoons/shinchan",
            "thumbnail": "https://i.ytimg.com/vi/ui7I7pTHAHg/hq720.jpg"
        },
        {
            "id": "6VJkwgvgblg",
            "title": "Doraemon New Episode In Hindi | Doraemon Cartoon Today Full Episode",
            "url": "https://www.youtube.com/watch?v=6VJkwgvgblg",
            "duration": 2214.0,
            "view_count": 29852,
            "uploader": "Islamic Girl",
            "category": "cartoons/doraemon",
            "thumbnail": "https://i.ytimg.com/vi/6VJkwgvgblg/hq720_custom_2.jpg"
        },
        {
            "id": "VXQsQAVVCAY",
            "title": "DOREMON OLD EPISODES IN HINDI (1975)",
            "url": "https://www.youtube.com/watch?v=VXQsQAVVCAY",
            "duration": 1777.0,
            "view_count": 696520,
            "uploader": "Cartoons World",
            "category": "cartoons/doraemon",
            "thumbnail": "https://i.ytimg.com/vi/VXQsQAVVCAY/hqdefault.jpg"
        },
        {
            "id": "DCQD-tnML6g",
            "title": "Doramon old episode ",
            "url": "https://www.youtube.com/watch?v=DCQD-tnML6g",
            "duration": 1342.0,
            "view_count": 779467,
            "uploader": "bad gamer Army•. 23k views• 1 hours ago ",
            "category": "cartoons/doraemon",
            "thumbnail": "https://i.ytimg.com/vi/DCQD-tnML6g/hqdefault.jpg"
        },
        {
            "id": "MbNszikRrDM",
            "title": "Doraemon Cartoon Today New Episode 2026",
            "url": "https://www.youtube.com/watch?v=MbNszikRrDM",
            "duration": 2226.0,
            "view_count": 16315,
            "uploader": "Muslim Man",
            "category": "cartoons/shinchan",
            "thumbnail": "https://i.ytimg.com/vi/MbNszikRrDM/hq720.jpg"
        },
        {
            "id": "eiqeZvcWGbA",
            "title": "Doraemon Latest Episode 2026 | Dubbed | No Zoom Effect Full episode Hindi",
            "url": "https://www.youtube.com/watch?v=eiqeZvcWGbA",
            "duration": 2331.0,
            "view_count": 739,
            "uploader": "AMADER ISALM 0051",
            "category": "cartoons/doraemon",
            "thumbnail": "https://i.ytimg.com/vi/eiqeZvcWGbA/hqdefault.jpg"
        },
        {
            "id": "N0aGwFKr-Q4",
            "title": "Doraemon New Episode In Hindi Today Full Episode 2026",
            "url": "https://www.youtube.com/watch?v=N0aGwFKr-Q4",
            "duration": 1378.0,
            "view_count": 6475,
            "uploader": "Emoji era",
            "category": "cartoons/doraemon",
            "thumbnail": "https://i.ytimg.com/vi/N0aGwFKr-Q4/hq720.jpg"
        }
    ]
}