{
    "page": 17,
    "total_pages": 103,
    "total_items": 5125,
    "items": [
        {
            "id": "w0rFlZO4ejM",
            "title": "Dhurandhar 2 The Revenge (2026) Ranveer Singh | Arjun | R Madhavan | Sanjay  Full Hindi Dubbed Movie",
            "url": "https://www.youtube.com/watch?v=w0rFlZO4ejM",
            "duration": 6520.0,
            "view_count": 6594,
            "uploader": "Hindi Movie Cinema",
            "category": "hindi",
            "thumbnail": "https://i.ytimg.com/vi/w0rFlZO4ejM/hq720_custom_2.jpg"
        },
        {
            "id": "2d1_1qDLty0",
            "title": "OMKARA (Full Movie) Hindi -  Ajay Devgan, Saif Ali Khan, Pankaj Tripathi, Kareena Kapoor Khan",
            "url": "https://www.youtube.com/watch?v=2d1_1qDLty0",
            "duration": 9130.0,
            "view_count": 8946926,
            "uploader": "Eros Universe Big Picture",
            "category": "hindi",
            "thumbnail": "https://i.ytimg.com/vi/2d1_1qDLty0/hq720.jpg"
        },
        {
            "id": "jSTUAnamRDE",
            "title": "VIKRAM | Kamal Haasan, Vijay Sethupathi | New Released Hindi Action Crime Thriller Movie | Full HD",
            "url": "https://www.youtube.com/watch?v=jSTUAnamRDE",
            "duration": 10375.0,
            "view_count": 44912,
            "uploader": "PlayNation",
            "category": "hindi",
            "thumbnail": "https://i.ytimg.com/vi/jSTUAnamRDE/hq720.jpg"
        },
        {
            "id": "9AMdZ_wRgr8",
            "title": "llu Arjun & Samantha ⚡ 2026 South Blockbuster Action | Full Movie Hindi Dubbed",
            "url": "https://www.youtube.com/watch?v=9AMdZ_wRgr8",
            "duration": 9534.0,
            "view_count": 8419,
            "uploader": "Mixx Media Music",
            "category": "hindi",
            "thumbnail": "https://i.ytimg.com/vi/9AMdZ_wRgr8/hq720.jpg"
        },
        {
            "id": "veWbIdLK7Q4",
            "title": "All the Best: Fun Begins (2009) Full Movie Hindi HD | Ajay Devgn, Sanjay Dutt | Full Comedy Film 😂",
            "url": "https://www.youtube.com/watch?v=veWbIdLK7Q4",
            "duration": 8130.0,
            "view_count": 134476,
            "uploader": "Bollywood Comedy ",
            "category": "hindi",
            "thumbnail": "https://i.ytimg.com/vi/veWbIdLK7Q4/hq720.jpg"
        },
        {
            "id": "42z2Lk-ZNLc",
            "title": "Rowdy Janardhana Full Movie Hindi Dubbed 2026 | Vijay Devarakonda | New South Indian Movies 2026",
            "url": "https://www.youtube.com/watch?v=42z2Lk-ZNLc",
            "duration": 7217.0,
            "view_count": 34178,
            "uploader": "21 Pictures",
            "category": "hindi",
            "thumbnail": "https://i.ytimg.com/vi/42z2Lk-ZNLc/hq720.jpg"
        },
        {
            "id": "G9AJRsicbxs",
            "title": "ACTION JACKSON Full Hindi Movie (4K) | Bollywood Blockbuster | Ajay Devgn, Sonakshi Sinha",
            "url": "https://www.youtube.com/watch?v=G9AJRsicbxs",
            "duration": 7971.0,
            "view_count": 938945,
            "uploader": "4K Movies Hub",
            "category": "hindi",
            "thumbnail": "https://i.ytimg.com/vi/G9AJRsicbxs/hq720.jpg"
        },
        {
            "id": "Plrg0XP6gZg",
            "title": "Naam Shabana 2017 Action Full Movie 4K | Akshay Kumar, Taapsee Pannu, Manoj Bajpayee, Prithviraj",
            "url": "https://www.youtube.com/watch?v=Plrg0XP6gZg",
            "duration": 8871.0,
            "view_count": 7096791,
            "uploader": "Ultra 4K Movies",
            "category": "hindi",
            "thumbnail": "https://i.ytimg.com/vi/Plrg0XP6gZg/hq720.jpg"
        },
        {
            "id": "dRXHDFB6sfY",
            "title": "Vijay Antony’s Powerful Action Thriller | Tamilarasan Hindi Dubbed Full Movie | Sonu Sood",
            "url": "https://www.youtube.com/watch?v=dRXHDFB6sfY",
            "duration": 7497.0,
            "view_count": 2335,
            "uploader": "Hindi Movies",
            "category": "hindi",
            "thumbnail": "https://i.ytimg.com/vi/dRXHDFB6sfY/hq720.jpg"
        },
        {
            "id": "SYKMOzelekg",
            "title": "CARTEL | Suriya, Kajal Agarwal | New (2026) Released Hindi Action Crime Thriller Movie | Full HD",
            "url": "https://www.youtube.com/watch?v=SYKMOzelekg",
            "duration": 8664.0,
            "view_count": 5535891,
            "uploader": "PlayNation",
            "category": "hindi",
            "thumbnail": "https://i.ytimg.com/vi/SYKMOzelekg/hq720.jpg"
        },
        {
            "id": "Y4_3Hu6jP5A",
            "title": "🎬 Jab We Met (2007) | Full Movie | Kareena Kapoor | Shahid Kapoor | Bollywood Movie 💖✨",
            "url": "https://www.youtube.com/watch?v=Y4_3Hu6jP5A",
            "duration": 8208.0,
            "view_count": 347966,
            "uploader": "Babel Bollywood",
            "category": "hindi",
            "thumbnail": "https://i.ytimg.com/vi/Y4_3Hu6jP5A/hq720.jpg"
        },
        {
            "id": "X_5Q9-GZYq0",
            "title": "Rustom Full Hindi Movie | Akshay Kumar, Ileana D'Cruz, Esha Gupta | Bollywood Crime Thriller HD",
            "url": "https://www.youtube.com/watch?v=X_5Q9-GZYq0",
            "duration": 7884.0,
            "view_count": 2073290,
            "uploader": "BollywoodWala Adda",
            "category": "hindi",
            "thumbnail": "https://i.ytimg.com/vi/X_5Q9-GZYq0/hq720.jpg"
        },
        {
            "id": "A2R0Ggvda3U",
            "title": "Tanu Weds Manu Returns - Full Movie HD | Kangana Ranaut | R. Madhavan | Bollywood Romantic Comedy",
            "url": "https://www.youtube.com/watch?v=A2R0Ggvda3U",
            "duration": 7343.0,
            "view_count": 3185906,
            "uploader": "Eros Universe",
            "category": "hindi",
            "thumbnail": "https://i.ytimg.com/vi/A2R0Ggvda3U/hq720.jpg?sqp=-oaymwEcCNAFEJQDSFXyq4qpAw4IARUAAIhCGAFwAcABBg==&rs=AOn4CLBKACCaE7DQWh21_h2KmIQUuRewgg",
            "added_date": "2026-04-16T07:30:56.801775Z",
            "source": "youtube"
        },
        {
            "id": "ZM2svdjWbVw",
            "title": "Gunda Gardi - Hindi Dubbed Full Movie | Saran Shakthi, Ayra, Kishore D.S. | Action Romantic Movie",
            "url": "https://www.youtube.com/watch?v=ZM2svdjWbVw",
            "duration": 5983.0,
            "view_count": 17151,
            "uploader": "Primetime Action Movies",
            "category": "hindi",
            "thumbnail": "https://i.ytimg.com/vi/ZM2svdjWbVw/hq720.jpg"
        },
        {
            "id": "-tsakh_u-Uo",
            "title": "#AK47 Full Movie Hindi Dubbed | Ajith Kumar | Jagapathi Babu | Latest South Indian Action Movie 2026",
            "url": "https://www.youtube.com/watch?v=-tsakh_u-Uo",
            "duration": 7568.0,
            "view_count": 572444,
            "uploader": "Bolly Pictures Point",
            "category": "hindi",
            "thumbnail": "https://i.ytimg.com/vi/-tsakh_u-Uo/hq720.jpg"
        },
        {
            "id": "VYOvFsftR98",
            "title": "Pushpa 3 (Hindi Dubbed) Full Movie | Allu Arjun, Rashmika Mandanna | Action Thriller 2025",
            "url": "https://www.youtube.com/watch?v=VYOvFsftR98",
            "duration": 9698.0,
            "view_count": 5954,
            "uploader": "PlayNation",
            "category": "hindi",
            "thumbnail": "https://i.ytimg.com/vi/VYOvFsftR98/hq720.jpg"
        },
        {
            "id": "FFpSMHnKzO4",
            "title": "Nayanthara POLICE Full Movie Hindi Dubbed 2026 | New Released Full Hindi Dubbed Action Movie 2026",
            "url": "https://www.youtube.com/watch?v=FFpSMHnKzO4",
            "duration": 7460.0,
            "view_count": 6197720,
            "uploader": "FilmyJunction",
            "category": "hindi",
            "thumbnail": "https://i.ytimg.com/vi/FFpSMHnKzO4/hq720.jpg"
        },
        {
            "id": "ga1PMLM0Op4",
            "title": "Uri : The Surgical Strike - Hindi Patriotic Full Movie - Vicky Kaushal, Yami Gautam, Paresh Rawal",
            "url": "https://www.youtube.com/watch?v=ga1PMLM0Op4",
            "duration": 7956.0,
            "view_count": 37145628,
            "uploader": "Zee Studios",
            "category": "hindi",
            "thumbnail": "https://i.ytimg.com/vi/ga1PMLM0Op4/hqdefault.jpg"
        },
        {
            "id": "Cwy90fDOTBc",
            "title": "Dhurandhar 2 - The Revenge | Full Action Movie | New Hindi Dubbed Movie 2026",
            "url": "https://www.youtube.com/watch?v=Cwy90fDOTBc",
            "duration": 13411.0,
            "view_count": 768,
            "uploader": "Himanshu Aggarwal Raw",
            "category": "hindi",
            "thumbnail": "https://i.ytimg.com/vi/Cwy90fDOTBc/hq720.jpg"
        },
        {
            "id": "BKCQhfTmfSw",
            "title": "#AK65 Full Movie Hindi Dubbed | Ajith Kumar | Jagapathi Babu | Latest South Indian Action Movie 2026",
            "url": "https://www.youtube.com/watch?v=BKCQhfTmfSw",
            "duration": 7568.0,
            "view_count": 465733,
            "uploader": "Power Star Pictures",
            "category": "hindi",
            "thumbnail": "https://i.ytimg.com/vi/BKCQhfTmfSw/hq720.jpg"
        },
        {
            "id": "bPbd6oeESxM",
            "title": "Gambler (1995) Hindi Full Movie - Action Comedy Movie - Govinda, Shilpa Shetty, Aditya Pancholi",
            "url": "https://www.youtube.com/watch?v=bPbd6oeESxM",
            "duration": 10166.0,
            "view_count": 84058,
            "uploader": "90s Ki Heroine",
            "category": "hindi",
            "thumbnail": "https://i.ytimg.com/vi/bPbd6oeESxM/hq720.jpg"
        },
        {
            "id": "ar7i0kLxvLo",
            "title": "New Blockbuster Hindi Dubbed Action Movie _ New South Indian Movies Dubbed In Hindi 2026 Full",
            "url": "https://www.youtube.com/watch?v=ar7i0kLxvLo",
            "duration": 8490.0,
            "view_count": 289208,
            "uploader": "Super Movies Dhamaka",
            "category": "hindi",
            "thumbnail": "https://i.ytimg.com/vi/ar7i0kLxvLo/hq720.jpg"
        },
        {
            "id": "2mMwAvBRPsk",
            "title": "Aaj Ka Brahma  (HD) Superhit Indian Blockbuster Hindi Dubbed Action Movie | Sunil, Sushma Raj, Richa",
            "url": "https://www.youtube.com/watch?v=2mMwAvBRPsk",
            "duration": 7467.0,
            "view_count": 512858,
            "uploader": "Dumdar HD Movies",
            "category": "hindi",
            "thumbnail": "https://i.ytimg.com/vi/2mMwAvBRPsk/hq720.jpg"
        },
        {
            "id": "GCW0lWerCd8",
            "title": "Fortuner\" (HD) Telugu Released Hindi Dubbed Movies | South Indian Movies | Naga Shourya, Sonarika",
            "url": "https://www.youtube.com/watch?v=GCW0lWerCd8",
            "duration": 7183.0,
            "view_count": 26049,
            "uploader": "RDC Express",
            "category": "hindi",
            "thumbnail": "https://i.ytimg.com/vi/GCW0lWerCd8/hq720.jpg"
        },
        {
            "id": "JPGP9Xetm1s",
            "title": "PUSHPA 3 The Rampage : Full Movie | Allu Arjun | Rashmika Mandana | Latest Full Action Movie 2026",
            "url": "https://www.youtube.com/watch?v=JPGP9Xetm1s",
            "duration": 9116.0,
            "view_count": 4107,
            "uploader": "Ranita Studio",
            "category": "hindi",
            "thumbnail": "https://i.ytimg.com/vi/JPGP9Xetm1s/hq720.jpg"
        },
        {
            "id": "LRJvXaPA5u4",
            "title": "#AK65 Full Movie Hindi Dubbed | Ajith Kumar | Jagapathi Babu | Latest South Indian Action Movie 2026",
            "url": "https://www.youtube.com/watch?v=LRJvXaPA5u4",
            "duration": 7568.0,
            "view_count": 445728,
            "uploader": "D Action Pictures",
            "category": "hindi",
            "thumbnail": "https://i.ytimg.com/vi/LRJvXaPA5u4/hq720.jpg"
        },
        {
            "id": "JFTKDz_hD_4",
            "title": "Vijay Thalapathy Hindi Dubbed Movie Full Love Story-  Kajal Agarwal | New Movie 2026",
            "url": "https://www.youtube.com/watch?v=JFTKDz_hD_4",
            "duration": 8926.0,
            "view_count": 164350,
            "uploader": "Super Movies Dhamaka",
            "category": "hindi",
            "thumbnail": "https://i.ytimg.com/vi/JFTKDz_hD_4/hq720.jpg"
        },
        {
            "id": "F-3msnf5m04",
            "title": "Rockstar (HD) | Ranbir Kapoor, Nargis Fakhri | Imtiaz Ali | A. R. Rahman Musical Hit Full Movie",
            "url": "https://www.youtube.com/watch?v=F-3msnf5m04",
            "duration": 9109.0,
            "view_count": 3533429,
            "uploader": "Eros Universe",
            "category": "hindi",
            "thumbnail": "https://i.ytimg.com/vi/F-3msnf5m04/hq720.jpg"
        },
        {
            "id": "232DJWzedT0",
            "title": "New Movie 2026 Superhit (HD) Blockbuster South Indian Hindi Dubbed Action Movie || Achamindri",
            "url": "https://www.youtube.com/watch?v=232DJWzedT0",
            "duration": 6119.0,
            "view_count": 5717,
            "uploader": "CINE MAGIC",
            "category": "hindi",
            "thumbnail": "https://i.ytimg.com/vi/232DJWzedT0/hq720.jpg"
        },
        {
            "id": "ysII1LtqV4o",
            "title": "2026 Thalapathy Vijay Hindi Dubbed Blockbuster Action Movie Full HD 1080p | Kajal Agarwal | Action",
            "url": "https://www.youtube.com/watch?v=ysII1LtqV4o",
            "duration": 8926.0,
            "view_count": 216473,
            "uploader": "Super Movies Dhamaka",
            "category": "hindi",
            "thumbnail": "https://i.ytimg.com/vi/ysII1LtqV4o/hq720.jpg"
        },
        {
            "id": "Ugx5N__5lNM",
            "title": "LOVE EXPRESS | South Hindi Dubbed Action Romantic Movie Full HD 1080p | Naga Shaurya, Sana New Movie",
            "url": "https://www.youtube.com/watch?v=Ugx5N__5lNM",
            "duration": 7621.0,
            "view_count": 46533,
            "uploader": "MIX Movies Entertainment",
            "category": "hindi",
            "thumbnail": "https://i.ytimg.com/vi/Ugx5N__5lNM/hq720.jpg"
        },
        {
            "id": "nzpyeINh2xI",
            "title": "RAAYAN | Dhanush, S.J. Suryah | New (2026) Released Hindi Action Crime Thriller Movie | Full HD",
            "url": "https://www.youtube.com/watch?v=nzpyeINh2xI",
            "duration": 8518.0,
            "view_count": 22003,
            "uploader": "PlayNation",
            "category": "hindi",
            "thumbnail": "https://i.ytimg.com/vi/nzpyeINh2xI/hq720.jpg"
        },
        {
            "id": "5VgwOenJy_o",
            "title": "South Hindi Dubbed Action Romantic Movie Full HD 1080p | Nandakishore, Sirihanmanth | New Movie",
            "url": "https://www.youtube.com/watch?v=5VgwOenJy_o",
            "duration": 4765.0,
            "view_count": 11683,
            "uploader": "Sur Movies Multiplex",
            "category": "hindi",
            "thumbnail": "https://i.ytimg.com/vi/5VgwOenJy_o/hq720.jpg"
        },
        {
            "id": "7RzRxbYHfoc",
            "title": "Dhurandhar 2 full movie hindi Dubbed | Ranveer singh Akshay khanna | New Hindi Action Movie |",
            "url": "https://www.youtube.com/watch?v=7RzRxbYHfoc",
            "duration": 13216.0,
            "view_count": 162,
            "uploader": "SPY-Ranveer",
            "category": "hindi",
            "thumbnail": "https://i.ytimg.com/vi/7RzRxbYHfoc/hqdefault.jpg"
        },
        {
            "id": "4CkNoBsRwRc",
            "title": "Judgementall Hai Kya (2019) New Full Hindi Movie | जजमेंटल है क्या? | Rajkummar Rao | Kangana Ranaut",
            "url": "https://www.youtube.com/watch?v=4CkNoBsRwRc",
            "duration": 7264.0,
            "view_count": 2180264,
            "uploader": "Ultra Bollywood",
            "category": "hindi",
            "thumbnail": "https://i.ytimg.com/vi/4CkNoBsRwRc/hq720.jpg"
        },
        {
            "id": "qO3zidZ_GUM",
            "title": "MISSION 71 | Akshay Kumar, Vidyut Jammwal | Hindi Dubbed Action Spy Thriller Movie | Full HD Movie",
            "url": "https://www.youtube.com/watch?v=qO3zidZ_GUM",
            "duration": 6151.0,
            "view_count": 6954261,
            "uploader": "PlayNation",
            "category": "hindi",
            "thumbnail": "https://i.ytimg.com/vi/qO3zidZ_GUM/hq720.jpg"
        },
        {
            "id": "dzebY2AXo00",
            "title": "NAAGRAJ 2 Full Movie Hindi Dubbed | Prabhas & Tamannaah | Latest South Indian Anaconda Movie 2026",
            "url": "https://www.youtube.com/watch?v=dzebY2AXo00",
            "duration": 8832.0,
            "view_count": 107173,
            "uploader": "Ranita Studio",
            "category": "hindi",
            "thumbnail": "https://i.ytimg.com/vi/dzebY2AXo00/hq720.jpg"
        },
        {
            "id": "xlJ0SjE0z5w",
            "title": "Tere Naam (2003) - Full Hindi Movie 8K/4K Ultra HD |Salman Khan & Bhumika Chawla |Hit Romantic Drama",
            "url": "https://www.youtube.com/watch?v=xlJ0SjE0z5w",
            "duration": 8240.0,
            "view_count": 290917,
            "uploader": "Eros Universe",
            "category": "hindi",
            "thumbnail": "https://i.ytimg.com/vi/xlJ0SjE0z5w/hq720.jpg"
        },
        {
            "id": "gQEUkqZ33IA",
            "title": "Zindagi Na Milegi Dobara 2011 Full Hindi Movie",
            "url": "https://www.youtube.com/watch?v=gQEUkqZ33IA",
            "duration": 9264.0,
            "view_count": 5501140,
            "uploader": "As You Wish",
            "category": "hindi",
            "thumbnail": "https://i.ytimg.com/vi/gQEUkqZ33IA/hqdefault.jpg"
        },
        {
            "id": "8vkHX7leEBc",
            "title": "AK47 Full Movie Hindi Dubbed | Ajith Kumar | Jagapathi Babu Latest South Indian Action Movie 2026",
            "url": "https://www.youtube.com/watch?v=8vkHX7leEBc",
            "duration": 9403.0,
            "view_count": 19308,
            "uploader": "H Islamic ",
            "category": "hindi",
            "thumbnail": "https://i.ytimg.com/vi/8vkHX7leEBc/hqdefault.jpg"
        },
        {
            "id": "0VBZi5UH8fw",
            "title": "Desi Boyz (2011) | Akshay Kumar, John Abraham, Deepika Padukone | Hindi Comedy Full Movie (HD)",
            "url": "https://www.youtube.com/watch?v=0VBZi5UH8fw",
            "duration": 7315.0,
            "view_count": 114565,
            "uploader": "Eros Universe Showtime",
            "category": "hindi",
            "thumbnail": "https://i.ytimg.com/vi/0VBZi5UH8fw/hq720.jpg"
        },
        {
            "id": "yk-308TrThw",
            "title": "Pushpa 3 Full Movie Hindi Dubbed 2026 | Allu Arjun New Movie | Latest Superhit South Movie 2026",
            "url": "https://www.youtube.com/watch?v=yk-308TrThw",
            "duration": 8932.0,
            "view_count": 1840,
            "uploader": "21 Pictures",
            "category": "hindi",
            "thumbnail": "https://i.ytimg.com/vi/yk-308TrThw/hq720.jpg"
        },
        {
            "id": "1Bq1ISI1inQ",
            "title": "2026 New Blockbuster Hindi Dubbed Action Movie _ New South Indian Movies Dubbed In Hindi 2026 Full",
            "url": "https://www.youtube.com/watch?v=1Bq1ISI1inQ",
            "duration": 8926.0,
            "view_count": 919219,
            "uploader": "Super Movies Dhamaka",
            "category": "hindi",
            "thumbnail": "https://i.ytimg.com/vi/1Bq1ISI1inQ/hq720.jpg"
        },
        {
            "id": "R4uRmeL6zMw",
            "title": "2026 New Blockbuster Hindi Dubbed Action Movie _ New South Indian Movies Dubbed In Hindi 2026 Full",
            "url": "https://www.youtube.com/watch?v=R4uRmeL6zMw",
            "duration": 9836.0,
            "view_count": 6112,
            "uploader": "Super Movies Dhamaka",
            "category": "hindi",
            "thumbnail": "https://i.ytimg.com/vi/R4uRmeL6zMw/hq720.jpg"
        },
        {
            "id": "TB4epGgNtrw",
            "title": "Toxic Full Movie Hindi Dubbed 2026 | Yash | Kiara | Huma | Nayanthara | South Action Full HD Movie",
            "url": "https://www.youtube.com/watch?v=TB4epGgNtrw",
            "duration": 7444.0,
            "view_count": 112524,
            "uploader": "Pixel Picture House ",
            "category": "hindi",
            "thumbnail": "https://i.ytimg.com/vi/TB4epGgNtrw/hq720.jpg"
        },
        {
            "id": "rR1LQoOTCgk",
            "title": "Dhurandhar 2 the revenge full movie in Hindi",
            "url": "https://www.youtube.com/watch?v=rR1LQoOTCgk",
            "duration": 13738.0,
            "view_count": 1042,
            "uploader": "Indian movies corner",
            "category": "hindi",
            "thumbnail": "https://i.ytimg.com/vi/rR1LQoOTCgk/hq720.jpg"
        },
        {
            "id": "h4LJn8_Hodw",
            "title": "Toxic Full Movie Hindi Dubbed 2026 | Yash | Kiara | Huma | Nayanthara | South Action Full HD Movie",
            "url": "https://www.youtube.com/watch?v=h4LJn8_Hodw",
            "duration": 8156.0,
            "view_count": 100396,
            "uploader": "Bolly Pictures Point",
            "category": "hindi",
            "thumbnail": "https://i.ytimg.com/vi/h4LJn8_Hodw/hq720.jpg"
        },
        {
            "id": "YaHPnjinJpE",
            "title": "VERNA Full Movie Hindi Dubbed | Allu Arjun & Sreeleela | Latest South Indian Full Action Movie 2026",
            "url": "https://www.youtube.com/watch?v=YaHPnjinJpE",
            "duration": 8717.0,
            "view_count": 89733,
            "uploader": "4x Cinema",
            "category": "hindi",
            "thumbnail": "https://i.ytimg.com/vi/YaHPnjinJpE/hq720.jpg"
        },
        {
            "id": "GYJeCObuuB0",
            "title": "Ranga Ranga (2025) New Released Hindi Dubbed Movie | Panja Vaisshnav Tej, Ketika Sharma",
            "url": "https://www.youtube.com/watch?v=GYJeCObuuB0",
            "duration": 7485.0,
            "view_count": 63940652,
            "uploader": "Goldmines",
            "category": "hindi",
            "thumbnail": "https://i.ytimg.com/vi/GYJeCObuuB0/hq720.jpg"
        },
        {
            "id": "MC6lLcxru9c",
            "title": "Dhurandhar 2 the revenge full movie in hindi ",
            "url": "https://www.youtube.com/watch?v=MC6lLcxru9c",
            "duration": 13411.0,
            "view_count": 6808,
            "uploader": "Victory technical ",
            "category": "hindi",
            "thumbnail": "https://i.ytimg.com/vi/MC6lLcxru9c/hqdefault.jpg"
        }
    ]
}