{
    "page": 24,
    "total_pages": 103,
    "total_items": 5125,
    "items": [
        {
            "id": "F0a39LAtCfg",
            "title": "Cult New Kannada full movie 2026 | Zaid Khan | Rachita Ram | All OK | Rangayana Raghu | Maliaka  |",
            "url": "https://www.youtube.com/watch?v=F0a39LAtCfg",
            "duration": 8387.0,
            "view_count": 399618,
            "uploader": "spkannadamovies ",
            "category": "kannada",
            "thumbnail": "https://i.ytimg.com/vi/F0a39LAtCfg/hq720.jpg"
        },
        {
            "id": "IxrbHYmd1DM",
            "title": "Bhanu Weds Bhoomi Full Movie | ಬಾನು ವೆಡ್ಸ್ ಭೂಮಿ | New Released Kannada Romantic Drama |  Ultra HD",
            "url": "https://www.youtube.com/watch?v=IxrbHYmd1DM",
            "duration": 7925.0,
            "view_count": 9610,
            "uploader": "Kannada Matinee",
            "category": "kannada",
            "thumbnail": "https://i.ytimg.com/vi/IxrbHYmd1DM/hq720.jpg"
        },
        {
            "id": "_qmW2aRJ5Zc",
            "title": "ಚಕ್ರ - CHAKRA Kannada Full Movie | Darshan Thogudeepa | Vijay Raghavendra | Kannada Movie | HD",
            "url": "https://www.youtube.com/watch?v=_qmW2aRJ5Zc",
            "duration": 7118.0,
            "view_count": 294669,
            "uploader": "Kothari Video Kannada",
            "category": "kannada",
            "thumbnail": "https://i.ytimg.com/vi/_qmW2aRJ5Zc/hq720.jpg"
        },
        {
            "id": "54FurbXAOik",
            "title": "Anaatha Kannada Full Movie (4k) | Sri Indra | Nikitha Swamy | Yukta Pervi | Shobraj | Sangeetha |",
            "url": "https://www.youtube.com/watch?v=54FurbXAOik",
            "duration": 8403.0,
            "view_count": 9466,
            "uploader": "Gonendra Films",
            "category": "kannada",
            "thumbnail": "https://i.ytimg.com/vi/54FurbXAOik/hqdefault.jpg"
        },
        {
            "id": "seW5ZA0BGo4",
            "title": "Bombat Hendthi – ಬೊಂಬಾಟ್ ಹೆಂಡ್ತಿ | Kannada Full Movie | Sridhar | Shruthi | Comedy Movie",
            "url": "https://www.youtube.com/watch?v=seW5ZA0BGo4",
            "duration": 8322.0,
            "view_count": 1181716,
            "uploader": "SRS Media Vision | Kannada Full Movies",
            "category": "kannada",
            "thumbnail": "https://i.ytimg.com/vi/seW5ZA0BGo4/hq720.jpg"
        },
        {
            "id": "yucFmllD0rA",
            "title": "PYARE - Kannada Full Movie | Komal Kumar, Prathana Prabhu | New Kannada Movies",
            "url": "https://www.youtube.com/watch?v=yucFmllD0rA",
            "duration": 6951.0,
            "view_count": 85472,
            "uploader": "Kothari Video Kannada",
            "category": "kannada",
            "thumbnail": "https://i.ytimg.com/vi/yucFmllD0rA/hq720.jpg"
        },
        {
            "id": "4Y3v2kWxj3E",
            "title": "Porki | Kannada Full Movie | Darshan | Pranitha Subhash | Devaraj | Ashish Vidyarthi",
            "url": "https://www.youtube.com/watch?v=4Y3v2kWxj3E",
            "duration": 8783.0,
            "view_count": 8173751,
            "uploader": "SGV Digital - Kannada Full Movies",
            "category": "kannada",
            "thumbnail": "https://i.ytimg.com/vi/4Y3v2kWxj3E/hq720.jpg"
        },
        {
            "id": "aI-hjTrEBPE",
            "title": "Andhagaara Kannada Full Movie | Best Crime Thriller Film | Sowmya Gowda | Harish Gunger | Jithendra",
            "url": "https://www.youtube.com/watch?v=aI-hjTrEBPE",
            "duration": 6539.0,
            "view_count": 749,
            "uploader": "Kannada Movie Junction",
            "category": "kannada",
            "thumbnail": "https://i.ytimg.com/vi/aI-hjTrEBPE/hq720.jpg"
        },
        {
            "id": "d_RvKx3oCB0",
            "title": "TRIPLE RIDING | New Kannada Full Movie |⭐ Ganesh | Megha Shetty, Aditi Prabudeva, Rachana Inder",
            "url": "https://www.youtube.com/watch?v=d_RvKx3oCB0",
            "duration": 8984.0,
            "view_count": 7335421,
            "uploader": "Krupalu Entertainments",
            "category": "kannada",
            "thumbnail": "https://i.ytimg.com/vi/d_RvKx3oCB0/hq720.jpg"
        },
        {
            "id": "xKe_Cozwbic",
            "title": "Arindam  - Kannada Full Movie | Kalki Agasthya | Sawad M | Dream Duo | Angad Bhandare | Siri Music",
            "url": "https://www.youtube.com/watch?v=xKe_Cozwbic",
            "duration": 6010.0,
            "view_count": 43539,
            "uploader": "Siri Music and 2 more",
            "category": "kannada",
            "thumbnail": "https://i.ytimg.com/vi/xKe_Cozwbic/hq720.jpg"
        },
        {
            "id": "lwhlCXCwCNQ",
            "title": "Nimde Kathe | Kannada Full 4K Movie | Abhilash Dalapathi | Rashika Shetty |  Sihi Kahi Chandru |",
            "url": "https://www.youtube.com/watch?v=lwhlCXCwCNQ",
            "duration": 7695.0,
            "view_count": 977518,
            "uploader": "Blue Sky Studios",
            "category": "kannada",
            "thumbnail": "https://i.ytimg.com/vi/lwhlCXCwCNQ/hq720.jpg"
        },
        {
            "id": "FUvC5Q2mEXc",
            "title": "ಮಂತ್ರಂ Manthram Full Movie | Horrror Thriller Kannada Movie 2025 | Shamanth Shetty, Pallavi Raju",
            "url": "https://www.youtube.com/watch?v=FUvC5Q2mEXc",
            "duration": 6505.0,
            "view_count": 178067,
            "uploader": "SGV Digital - Kannada Full Movies",
            "category": "kannada",
            "thumbnail": "https://i.ytimg.com/vi/FUvC5Q2mEXc/hq720.jpg"
        },
        {
            "id": "X-unbS7ifso",
            "title": "Arasu – ಅರಸು | Kannada Full HD Movie | Puneeth Rajkumar | Meera Jasmine | Ramya | Mahesh Babu",
            "url": "https://www.youtube.com/watch?v=X-unbS7ifso",
            "duration": 9096.0,
            "view_count": 37104190,
            "uploader": "SGV Digital - Kannada Full Movies",
            "category": "kannada",
            "thumbnail": "https://i.ytimg.com/vi/X-unbS7ifso/hq720.jpg"
        },
        {
            "id": "BS12fzB1s7U",
            "title": "New Kannada College Love Story Movie | Leharaayi Kannada Full Movie | Ranjith Sommi | Sowmya Menon",
            "url": "https://www.youtube.com/watch?v=BS12fzB1s7U",
            "duration": 8272.0,
            "view_count": 1780176,
            "uploader": "Kannada HD Movies",
            "category": "kannada",
            "thumbnail": "https://i.ytimg.com/vi/BS12fzB1s7U/hq720.jpg"
        },
        {
            "id": "pFOLGeQuBXQ",
            "title": "Chennamma IPS Kannada Full Movie | Ayesha, P N Sathya | Super Hit Kannada Action Movie",
            "url": "https://www.youtube.com/watch?v=pFOLGeQuBXQ",
            "duration": 8148.0,
            "view_count": 229850,
            "uploader": "SGV Digital - Kannada Full Movies",
            "category": "kannada",
            "thumbnail": "https://i.ytimg.com/vi/pFOLGeQuBXQ/hq720.jpg"
        },
        {
            "id": "W8y34AJ55_o",
            "title": "New Kannada Full Movie | Dhanveerah &Reeshma Nanaiah | 2025 Latest KannadaMovies |",
            "url": "https://www.youtube.com/watch?v=W8y34AJ55_o",
            "duration": 6935.0,
            "view_count": 84594,
            "uploader": "pavanking4793 ",
            "category": "kannada",
            "thumbnail": "https://i.ytimg.com/vi/W8y34AJ55_o/hq720.jpg"
        },
        {
            "id": "PV4rXQgFm2E",
            "title": "Chandra Chakori - Kannada Full Movie | Sri Murali, Priya | Blockbuster Kannada Movies",
            "url": "https://www.youtube.com/watch?v=PV4rXQgFm2E",
            "duration": 9778.0,
            "view_count": 22206902,
            "uploader": "SGV Digital - Kannada Full Movies",
            "category": "kannada",
            "thumbnail": "https://i.ytimg.com/vi/PV4rXQgFm2E/hq720.jpg"
        },
        {
            "id": "jZvFFbyF5rQ",
            "title": "ಡುಮ್ಮಿ ಜೋಕೆರ್ - DUMMY JOCKER Kannada Full Movie | Kannada Comedy Movie | SK Ram , Namma kumar | HD",
            "url": "https://www.youtube.com/watch?v=jZvFFbyF5rQ",
            "duration": 6379.0,
            "view_count": 205869,
            "uploader": "Shreya Movies Kannada",
            "category": "kannada",
            "thumbnail": "https://i.ytimg.com/vi/jZvFFbyF5rQ/hq720.jpg"
        },
        {
            "id": "akeMYbLnwWo",
            "title": "Tharle Nan Maga Kannada Full Movie | Jaggesh | Anjali Sudhakar | Nithya | Upendra",
            "url": "https://www.youtube.com/watch?v=akeMYbLnwWo",
            "duration": 8021.0,
            "view_count": 2889868,
            "uploader": "Jaggesh Hits - SGV",
            "category": "kannada",
            "thumbnail": "https://i.ytimg.com/vi/akeMYbLnwWo/hq720.jpg"
        },
        {
            "id": "iwQX9OYS9pQ",
            "title": "Ugram | ಉಗ್ರಂ || Kannada Full HD Movie || Sri Murali || Action Movie || Prashanth Neel | Ravi Basrur",
            "url": "https://www.youtube.com/watch?v=iwQX9OYS9pQ",
            "duration": 7937.0,
            "view_count": 58918375,
            "uploader": "SRS Media Vision | Kannada Full Movies",
            "category": "kannada",
            "thumbnail": "https://i.ytimg.com/vi/iwQX9OYS9pQ/hq720.jpg"
        },
        {
            "id": "WN8FagTzpPE",
            "title": "Chanakya Kannada Full Movie Vishnuvardhan, Madhavi, Vajramuni - Super Hit Classic Picture",
            "url": "https://www.youtube.com/watch?v=WN8FagTzpPE",
            "duration": 9658.0,
            "view_count": 298048,
            "uploader": "Dr. Vishnuvardhan Hits - SGV",
            "category": "kannada",
            "thumbnail": "https://i.ytimg.com/vi/WN8FagTzpPE/hq720.jpg"
        },
        {
            "id": "Lkvhd0EWz8E",
            "title": "Chora Chittha Chora – ಚೋರ ಚಿತ್ತ ಚೋರ | Kannada Full HD Movie | Ravichandran | Namratha Shirodkar",
            "url": "https://www.youtube.com/watch?v=Lkvhd0EWz8E",
            "duration": 7940.0,
            "view_count": 2099346,
            "uploader": "SGV Digital - Kannada Full Movies",
            "category": "kannada",
            "thumbnail": "https://i.ytimg.com/vi/Lkvhd0EWz8E/hq720.jpg"
        },
        {
            "id": "nALqwYsjMeA",
            "title": "Prema Sangama | Kannada Full Movie | Dr.Ambarish | Malashree | Jai Jagadish | Bhargav",
            "url": "https://www.youtube.com/watch?v=nALqwYsjMeA",
            "duration": 7779.0,
            "view_count": 559202,
            "uploader": "SGV Digital - Kannada Full Movies",
            "category": "kannada",
            "thumbnail": "https://i.ytimg.com/vi/nALqwYsjMeA/hq720.jpg"
        },
        {
            "id": "yJlOp0m0HQE",
            "title": "THEY CALL HIM OG KANNADA FULL LENGTH MOVIE HD ",
            "url": "https://www.youtube.com/watch?v=yJlOp0m0HQE",
            "duration": 9063.0,
            "view_count": 89,
            "uploader": "All Pictures HD ",
            "category": "kannada",
            "thumbnail": "https://i.ytimg.com/vi/yJlOp0m0HQE/hqdefault.jpg"
        },
        {
            "id": "mpZAoWardmM",
            "title": "Nandi | Kannada HD Full Movie | Sudeep | Sindhu Menon | Action Movie |@PaceDigitalMusic",
            "url": "https://www.youtube.com/watch?v=mpZAoWardmM",
            "duration": 7567.0,
            "view_count": 164547,
            "uploader": "PaceDigitalMusic",
            "category": "kannada",
            "thumbnail": "https://i.ytimg.com/vi/mpZAoWardmM/hq720.jpg"
        },
        {
            "id": "991-O6qj-80",
            "title": "Dhanush Kannada Full Movie | Dhanush, Shruti Haasan, Sivakarthikeyan, Sunder Ramu Prabhu | Full HD",
            "url": "https://www.youtube.com/watch?v=991-O6qj-80",
            "duration": 7396.0,
            "view_count": 971963,
            "uploader": "Peppermint Studioz",
            "category": "kannada",
            "thumbnail": "https://i.ytimg.com/vi/991-O6qj-80/hq720.jpg?sqp=-oaymwEcCNAFEJQDSFXyq4qpAw4IARUAAIhCGAFwAcABBg==&rs=AOn4CLATJGXg2oRBhveCqz6iP8DGNmTDdA",
            "added_date": "2026-04-16T07:31:22.280647Z",
            "source": "youtube"
        },
        {
            "id": "c95RkEQov-g",
            "title": "Mystery Horror Thriller Kannada Full Movie 4K | Experiment 5 |",
            "url": "https://www.youtube.com/watch?v=c95RkEQov-g",
            "duration": 7378.0,
            "view_count": 197693,
            "uploader": "MovieFlix Kannada",
            "category": "kannada",
            "thumbnail": "https://i.ytimg.com/vi/c95RkEQov-g/hq720.jpg"
        },
        {
            "id": "C3IWeg846KA",
            "title": "Software Ganda Kannada Full Movie | Jaggesh | Nikita Thukral | Kuri Prathap | Comedy Movie",
            "url": "https://www.youtube.com/watch?v=C3IWeg846KA",
            "duration": 7794.0,
            "view_count": 1011226,
            "uploader": "SGV Digital - Kannada Full Movies",
            "category": "kannada",
            "thumbnail": "https://i.ytimg.com/vi/C3IWeg846KA/hq720.jpg"
        },
        {
            "id": "hbjzzp99R8c",
            "title": "Annayya | Kannada Full Movie | Ravichandran | Madhoo | Aruna Irani | Srinath | Dheerendra Gopal",
            "url": "https://www.youtube.com/watch?v=hbjzzp99R8c",
            "duration": 8861.0,
            "view_count": 8269329,
            "uploader": "SGV Digital - Kannada Full Movies",
            "category": "kannada",
            "thumbnail": "https://i.ytimg.com/vi/hbjzzp99R8c/hq720.jpg"
        },
        {
            "id": "lZD3cuglLB4",
            "title": "Ganesh Kannada Movie 'Govinda' | Kannada Full Movie | Ganesh | Amulya | Sadhu Kokila | Kannada Movie",
            "url": "https://www.youtube.com/watch?v=lZD3cuglLB4",
            "duration": 7915.0,
            "view_count": 980844,
            "uploader": "Vee Kannada and Global Kannada Entertainment",
            "category": "kannada",
            "thumbnail": "https://i.ytimg.com/vi/lZD3cuglLB4/hq720.jpg"
        },
        {
            "id": "JTBlOKjPZus",
            "title": "GST kannada movie",
            "url": "https://www.youtube.com/watch?v=JTBlOKjPZus",
            "duration": 7328.0,
            "view_count": 415058,
            "uploader": "SMD Movie World",
            "category": "kannada",
            "thumbnail": "https://i.ytimg.com/vi/JTBlOKjPZus/hqdefault.jpg"
        },
        {
            "id": "4YFd0rGKffM",
            "title": "Mugila Mallige – ಮುಗಿಲ ಮಲ್ಲಿಗೆ | Kannada Full Movie|| FEAT. Srinath, Saritha, Ashok",
            "url": "https://www.youtube.com/watch?v=4YFd0rGKffM",
            "duration": 9179.0,
            "view_count": 1649043,
            "uploader": "SRS Media Vision | Kannada Full Movies",
            "category": "kannada",
            "thumbnail": "https://i.ytimg.com/vi/4YFd0rGKffM/hq720.jpg"
        },
        {
            "id": "w_z4-OJlz38",
            "title": "Aishwarya – ಐಶ್ವರ್ಯ | Kannada Full HD Movie | Upendra, Deepika Padukone, Daisy Bopanna",
            "url": "https://www.youtube.com/watch?v=w_z4-OJlz38",
            "duration": 8082.0,
            "view_count": 4999747,
            "uploader": "SGV Digital - Kannada Full Movies",
            "category": "kannada",
            "thumbnail": "https://i.ytimg.com/vi/w_z4-OJlz38/hq720.jpg"
        },
        {
            "id": "s1LqXWHpCb0",
            "title": "Milana Kannada Full Movie | Puneeth Rajkumar | Parvathi Menon | Mano Murthy | Prakash",
            "url": "https://www.youtube.com/watch?v=s1LqXWHpCb0",
            "duration": 9325.0,
            "view_count": 8851329,
            "uploader": "Lotus Kannada Movies",
            "category": "kannada",
            "thumbnail": "https://i.ytimg.com/vi/s1LqXWHpCb0/hq720.jpg"
        },
        {
            "id": "SAYIz0FKsZw",
            "title": "Rashmika Mandanna Latest Super Hit Kannada Movie | Chalo | Naga Shourya | 2022 Kannada Full Movies",
            "url": "https://www.youtube.com/watch?v=SAYIz0FKsZw",
            "duration": 8356.0,
            "view_count": 12433900,
            "uploader": "BhavaniHD Movies",
            "category": "kannada",
            "thumbnail": "https://i.ytimg.com/vi/SAYIz0FKsZw/hq720.jpg"
        },
        {
            "id": "BaZzD7FJqIs",
            "title": "RETRO 2 Kannada Full HD Movie || Super Hit Kannada Action Movie 2026 || Trisha, Suriya, Vadivelu",
            "url": "https://www.youtube.com/watch?v=BaZzD7FJqIs",
            "duration": 9186.0,
            "view_count": 217028,
            "uploader": "Kannada Cinemas",
            "category": "kannada",
            "thumbnail": "https://i.ytimg.com/vi/BaZzD7FJqIs/hq720.jpg"
        },
        {
            "id": "veXK83scD1M",
            "title": "Krishna Kannada Full Movie | Golden Star Ganesh | Sharan | Pooja Gandhi | Sharmila Mandre",
            "url": "https://www.youtube.com/watch?v=veXK83scD1M",
            "duration": 7490.0,
            "view_count": 511753,
            "uploader": "SGV Digital - Kannada Full Movies",
            "category": "kannada",
            "thumbnail": "https://i.ytimg.com/vi/veXK83scD1M/hq720.jpg"
        },
        {
            "id": "Xc5-kQbw-jM",
            "title": "Preethiya Rayabhari Kannada Full Movie | Nakul Gowda, Anjana Deshpande, Charan Raj",
            "url": "https://www.youtube.com/watch?v=Xc5-kQbw-jM",
            "duration": 8189.0,
            "view_count": 403700,
            "uploader": "Kannada Movie Factory",
            "category": "kannada",
            "thumbnail": "https://i.ytimg.com/vi/Xc5-kQbw-jM/hq720.jpg"
        },
        {
            "id": "rL4rI7PRCXM",
            "title": "Preethiya Rayabhari - ಪ್ರೀತಿಯ ರಾಯಭಾರಿ | Nakul Gowda, Anjana Deshpande | Kannada Full Movie (HD)",
            "url": "https://www.youtube.com/watch?v=rL4rI7PRCXM",
            "duration": 8198.0,
            "view_count": 29391,
            "uploader": "Eros Universe South",
            "category": "kannada",
            "thumbnail": "https://i.ytimg.com/vi/rL4rI7PRCXM/hq720.jpg"
        },
        {
            "id": "c_aqBQnN-j4",
            "title": "ಹನ್ನೊಂದು | Eleven | Kannada  Dubbed 4K Full Movie  |  | Naveen Chandra | Reyaa Hari",
            "url": "https://www.youtube.com/watch?v=c_aqBQnN-j4",
            "duration": 7966.0,
            "view_count": 423669,
            "uploader": "API Indian Movie Hub",
            "category": "kannada",
            "thumbnail": "https://i.ytimg.com/vi/c_aqBQnN-j4/hq720.jpg"
        },
        {
            "id": "9-VRsDLSGLE",
            "title": "Kannada Full Movie Womens day Special Sahara 4K | Cricket Biopic | Kannada Cinema | UHD |",
            "url": "https://www.youtube.com/watch?v=9-VRsDLSGLE",
            "duration": 7900.0,
            "view_count": 396189,
            "uploader": "MovieFlix Kannada",
            "category": "kannada",
            "thumbnail": "https://i.ytimg.com/vi/9-VRsDLSGLE/hq720.jpg"
        },
        {
            "id": "iqSbhDSQ5P0",
            "title": "Crime Mystery Thriller Kannada Dubbed Full Movie Devil 4K | Shamna Kasim | Vidharth | Mysskin | UHD",
            "url": "https://www.youtube.com/watch?v=iqSbhDSQ5P0",
            "duration": 6981.0,
            "view_count": 204584,
            "uploader": "MovieFlix Kannada",
            "category": "kannada",
            "thumbnail": "https://i.ytimg.com/vi/iqSbhDSQ5P0/hq720.jpg"
        },
        {
            "id": "DFle3bJKiNw",
            "title": "Forest kannada full movie Chikkanna rangayana raghu KFI.",
            "url": "https://www.youtube.com/watch?v=DFle3bJKiNw",
            "duration": 8179.0,
            "view_count": 372,
            "uploader": "@Movies Adda....",
            "category": "kannada",
            "thumbnail": "https://i.ytimg.com/vi/DFle3bJKiNw/hqdefault.jpg"
        },
        {
            "id": "qeErT74GGgk",
            "title": "Madagaja Kannada Full Movie  2019",
            "url": "https://www.youtube.com/watch?v=qeErT74GGgk",
            "duration": 7826.0,
            "view_count": 1361248,
            "uploader": "Kannada Movies",
            "category": "kannada",
            "thumbnail": "https://i.ytimg.com/vi/qeErT74GGgk/hqdefault.jpg"
        },
        {
            "id": "Z_iBfKfyX-g",
            "title": "Naanenu Madlilla Kannada Full Comedy Movie - Ananthnag, Ramakrishna, Ramkumar, Sudharani, Shilpa",
            "url": "https://www.youtube.com/watch?v=Z_iBfKfyX-g",
            "duration": 7972.0,
            "view_count": 190432,
            "uploader": "Lotus Entertainment",
            "category": "kannada",
            "thumbnail": "https://i.ytimg.com/vi/Z_iBfKfyX-g/hq720.jpg"
        },
        {
            "id": "GISgimRNE9U",
            "title": "VAAMA - Kannada Full Movie | Prajwal Devaraj | Radhika Pandit | Haripriya | HD Movie",
            "url": "https://www.youtube.com/watch?v=GISgimRNE9U",
            "duration": 7720.0,
            "view_count": 815793,
            "uploader": "Shreya Movies Kannada",
            "category": "kannada",
            "thumbnail": "https://i.ytimg.com/vi/GISgimRNE9U/hq720.jpg"
        },
        {
            "id": "nh-4cSKZ4UU",
            "title": "Chandra Chakori | Kannada Full Movie | Sri Murali, Priya | Blockbuster Kannada Movies #kuhukhukogile",
            "url": "https://www.youtube.com/watch?v=nh-4cSKZ4UU",
            "duration": 9778.0,
            "view_count": 53213,
            "uploader": "TitleTalkies ",
            "category": "kannada",
            "thumbnail": "https://i.ytimg.com/vi/nh-4cSKZ4UU/hqdefault.jpg"
        },
        {
            "id": "nI0qnhIb2Hc",
            "title": "Avane Nanna Ganda Kannada Full Movie | Kashinath | Sudharani | Vanitha Vasu | M P Shankar",
            "url": "https://www.youtube.com/watch?v=nI0qnhIb2Hc",
            "duration": 7983.0,
            "view_count": 642973,
            "uploader": "SGV Digital - Kannada Full Movies",
            "category": "kannada",
            "thumbnail": "https://i.ytimg.com/vi/nI0qnhIb2Hc/hq720.jpg"
        },
        {
            "id": "dIePz5Q_bCc",
            "title": "Rathnan Prapancha Kannada Full Length HD Movie | Dhananjay | Reba | TRP Entertainments |",
            "url": "https://www.youtube.com/watch?v=dIePz5Q_bCc",
            "duration": 7829.0,
            "view_count": 208819,
            "uploader": "TRP Entertainments",
            "category": "kannada",
            "thumbnail": "https://i.ytimg.com/vi/dIePz5Q_bCc/hq720.jpg"
        },
        {
            "id": "hxTa5MJfXi4",
            "title": "Maurya (2019) New kannada Full MovieI Puneeth Rajkumar, Meera Jasmine, Roja",
            "url": "https://www.youtube.com/watch?v=hxTa5MJfXi4",
            "duration": 7440.0,
            "view_count": 1057997,
            "uploader": "THUNDERFILMS02",
            "category": "kannada",
            "thumbnail": "https://i.ytimg.com/vi/hxTa5MJfXi4/hq720.jpg"
        }
    ]
}