{
    "page": 60,
    "total_pages": 103,
    "total_items": 5125,
    "items": [
        {
            "id": "fxm6L7BXJuU",
            "title": "Eena Meena Deeka Hindi 4K Full Movie | Rishi Kapoor comedy Film | Vinod Khanna | Juhi Chawla",
            "url": "https://www.youtube.com/watch?v=fxm6L7BXJuU",
            "duration": 8092.0,
            "view_count": 725693,
            "uploader": "Film City HD",
            "category": "cartoons/eena_meena_deeka",
            "thumbnail": "https://i.ytimg.com/vi/fxm6L7BXJuU/hq720.jpg"
        },
        {
            "id": "Y7IPIOw4Bpo",
            "title": "Bollywood Dangal - Up The Hill | The Lemonade Stand - Eena Meena Deeka",
            "url": "https://www.youtube.com/watch?v=Y7IPIOw4Bpo",
            "duration": 895.0,
            "view_count": 355598,
            "uploader": "WowKidz",
            "category": "cartoons/eena_meena_deeka",
            "thumbnail": "https://i.ytimg.com/vi/Y7IPIOw4Bpo/hq720.jpg"
        },
        {
            "id": "ixPKX3TJ_sc",
            "title": "Eena Meena Deeka 1994 Comedy Full Movie 4K | Vinod Khanna, Rishi Kapoor, Juhi Chawla | 90s Bollywood",
            "url": "https://www.youtube.com/watch?v=ixPKX3TJ_sc",
            "duration": 8501.0,
            "view_count": 654311,
            "uploader": "Ultra 4K Movies",
            "category": "cartoons/eena_meena_deeka",
            "thumbnail": "https://i.ytimg.com/vi/ixPKX3TJ_sc/hq720.jpg"
        },
        {
            "id": "ZOG47rUqL0w",
            "title": "Eena Meena Deeka 8 episodes in 1 hour | 3D Animation for kids | #12",
            "url": "https://www.youtube.com/watch?v=ZOG47rUqL0w",
            "duration": 4890.0,
            "view_count": 26576005,
            "uploader": "WowKidz",
            "category": "cartoons/eena_meena_deeka",
            "thumbnail": "https://i.ytimg.com/vi/ZOG47rUqL0w/hq720.jpg"
        },
        {
            "id": "qb-XbRWTqhM",
            "title": "Boollywood Dangal - Centre of the Earth | Toothache - Eena Meena Deeka",
            "url": "https://www.youtube.com/watch?v=qb-XbRWTqhM",
            "duration": 896.0,
            "view_count": 3863915,
            "uploader": "WowKidz",
            "category": "cartoons/eena_meena_deeka",
            "thumbnail": "https://i.ytimg.com/vi/qb-XbRWTqhM/hq720.jpg"
        },
        {
            "id": "fay5ZGAteNw",
            "title": "Bollywood Dangal - Fashion Show | Ocean Liner - Eena Meena Deeka",
            "url": "https://www.youtube.com/watch?v=fay5ZGAteNw",
            "duration": 955.0,
            "view_count": 476633,
            "uploader": "WowKidz",
            "category": "cartoons/eena_meena_deeka",
            "thumbnail": "https://i.ytimg.com/vi/fay5ZGAteNw/hq720.jpg"
        },
        {
            "id": "3-G1sIckCr0",
            "title": "Bollywood Dangal - The Train Journey | The Library - Eena Meena Deeka",
            "url": "https://www.youtube.com/watch?v=3-G1sIckCr0",
            "duration": 940.0,
            "view_count": 632822,
            "uploader": "WowKidz",
            "category": "cartoons/eena_meena_deeka",
            "thumbnail": "https://i.ytimg.com/vi/3-G1sIckCr0/hq720.jpg"
        },
        {
            "id": "Bb6R1SfWJMI",
            "title": "इना मीना डीका 4K : Eena Meena Deeka Full Comedy Movie | Rishi Kapoor | Vinod Khanna | Juhi Chawla",
            "url": "https://www.youtube.com/watch?v=Bb6R1SfWJMI",
            "duration": 8080.0,
            "view_count": 1223820,
            "uploader": "Comedy Super Kings",
            "category": "cartoons/eena_meena_deeka",
            "thumbnail": "https://i.ytimg.com/vi/Bb6R1SfWJMI/hq720.jpg"
        },
        {
            "id": "2D6xFJ0DDqg",
            "title": "Bollywood Dangal - Automobile Factory | Snake Chamber - Eena Meena Deeka",
            "url": "https://www.youtube.com/watch?v=2D6xFJ0DDqg",
            "duration": 893.0,
            "view_count": 764059,
            "uploader": "WowKidz",
            "category": "cartoons/eena_meena_deeka",
            "thumbnail": "https://i.ytimg.com/vi/2D6xFJ0DDqg/hq720.jpg"
        },
        {
            "id": "FTwz4EZUmHo",
            "title": "Eena Meena Deeka 8 episodes in 1 hour | 3D Animation for kids | #1",
            "url": "https://www.youtube.com/watch?v=FTwz4EZUmHo",
            "duration": 3475.0,
            "view_count": 12412236,
            "uploader": "WowKidz",
            "category": "cartoons/eena_meena_deeka",
            "thumbnail": "https://i.ytimg.com/vi/FTwz4EZUmHo/hq720.jpg"
        },
        {
            "id": "VU_HQfzG1Ko",
            "title": "Eena Meena Deeka 8 episodes in 1 hour | 3D Animation for kids | #7",
            "url": "https://www.youtube.com/watch?v=VU_HQfzG1Ko",
            "duration": 3919.0,
            "view_count": 17407493,
            "uploader": "WowKidz",
            "category": "cartoons/eena_meena_deeka",
            "thumbnail": "https://i.ytimg.com/vi/VU_HQfzG1Ko/hq720.jpg"
        },
        {
            "id": "_j_BcUdZaRs",
            "title": "Hide And Seek! | Eena Meena Deeka | Full Episodes | Cartoons For Kids",
            "url": "https://www.youtube.com/watch?v=_j_BcUdZaRs",
            "duration": 5064.0,
            "view_count": 21667,
            "uploader": "Eena Meena Deeka",
            "category": "cartoons/eena_meena_deeka",
            "thumbnail": "https://i.ytimg.com/vi/_j_BcUdZaRs/hq720.jpg"
        },
        {
            "id": "R5PLr4pyr4E",
            "title": "Sports Day | Eena Meena Deeka | Cartoons for Kids | WildBrain Bananas",
            "url": "https://www.youtube.com/watch?v=R5PLr4pyr4E",
            "duration": 1306.0,
            "view_count": 36604070,
            "uploader": "WildBrain Circus ",
            "category": "cartoons/eena_meena_deeka",
            "thumbnail": "https://i.ytimg.com/vi/R5PLr4pyr4E/hq720.jpg"
        },
        {
            "id": "VgSROgWVcAg",
            "title": "Sports Day | Eena Meena Deeka Compilation | Funny Cartoons",
            "url": "https://www.youtube.com/watch?v=VgSROgWVcAg",
            "duration": 1305.0,
            "view_count": 12837851,
            "uploader": "Eena Meena Deeka",
            "category": "cartoons/eena_meena_deeka",
            "thumbnail": "https://i.ytimg.com/vi/VgSROgWVcAg/hq720.jpg"
        },
        {
            "id": "PvHDOTNDN9g",
            "title": "Ghost spooky Foxie 👻| Eena Meena Deeka | Videos for kids",
            "url": "https://www.youtube.com/watch?v=PvHDOTNDN9g",
            "duration": 3753.0,
            "view_count": 668460,
            "uploader": "Eena Meena Deeka",
            "category": "cartoons/eena_meena_deeka",
            "thumbnail": "https://i.ytimg.com/vi/PvHDOTNDN9g/hq720.jpg"
        },
        {
            "id": "jThxTIPTfyA",
            "title": "Giant Meena! | Eena Meena Deeka | Cartoons for Kids | WildBrain Zoo",
            "url": "https://www.youtube.com/watch?v=jThxTIPTfyA",
            "duration": 1266.0,
            "view_count": 8475019,
            "uploader": "WildBrain Zoo",
            "category": "cartoons/eena_meena_deeka",
            "thumbnail": "https://i.ytimg.com/vi/jThxTIPTfyA/hq720.jpg"
        },
        {
            "id": "EwrVCEYsvk8",
            "title": "Eena Meena Deeka In Hindi | Funny Animated Series | Compilation 05 | Wow Kidz",
            "url": "https://www.youtube.com/watch?v=EwrVCEYsvk8",
            "duration": 835.0,
            "view_count": 4336,
            "uploader": "waqasbutt 57",
            "category": "cartoons/eena_meena_deeka",
            "thumbnail": "https://i.ytimg.com/vi/EwrVCEYsvk8/hqdefault.jpg"
        },
        {
            "id": "GIcHEGzH7g4",
            "title": "Pizza Maza | Eena Meena Deeka | Videos for kids",
            "url": "https://www.youtube.com/watch?v=GIcHEGzH7g4",
            "duration": 6994.0,
            "view_count": 429877,
            "uploader": "Eena Meena Deeka",
            "category": "cartoons/eena_meena_deeka",
            "thumbnail": "https://i.ytimg.com/vi/GIcHEGzH7g4/hq720.jpg"
        },
        {
            "id": "mKOASG2fMW8",
            "title": "Rainy Day ☔️ | Eena Meena Deeka | Full Episodes | Cartoons For Kids",
            "url": "https://www.youtube.com/watch?v=mKOASG2fMW8",
            "duration": 5986.0,
            "view_count": 13566,
            "uploader": "Eena Meena Deeka",
            "category": "cartoons/eena_meena_deeka",
            "thumbnail": "https://i.ytimg.com/vi/mKOASG2fMW8/hq720.jpg"
        },
        {
            "id": "8-b7JjtIoh8",
            "title": "Chocolate Factory | Eena Meena Deeka | Full Episodes | Cartoons For Kids",
            "url": "https://www.youtube.com/watch?v=8-b7JjtIoh8",
            "duration": 4998.0,
            "view_count": 13907,
            "uploader": "Eena Meena Deeka",
            "category": "cartoons/eena_meena_deeka",
            "thumbnail": "https://i.ytimg.com/vi/8-b7JjtIoh8/hq720.jpg"
        },
        {
            "id": "CqY-rZ8vtkQ",
            "title": "Bollywood Dangal - Dahi Handi | Dhaba - Eena Meena Deeka",
            "url": "https://www.youtube.com/watch?v=CqY-rZ8vtkQ",
            "duration": 904.0,
            "view_count": 502473,
            "uploader": "WowKidz",
            "category": "cartoons/eena_meena_deeka",
            "thumbnail": "https://i.ytimg.com/vi/CqY-rZ8vtkQ/hq720.jpg"
        },
        {
            "id": "tx4AzdHWVDA",
            "title": "Bollywood Dangal - Formula No 1 | Triple Seat - Eena Meena Deeka",
            "url": "https://www.youtube.com/watch?v=tx4AzdHWVDA",
            "duration": 906.0,
            "view_count": 870217,
            "uploader": "WowKidz",
            "category": "cartoons/eena_meena_deeka",
            "thumbnail": "https://i.ytimg.com/vi/tx4AzdHWVDA/hq720.jpg"
        },
        {
            "id": "X-JMuSG_Rmc",
            "title": "Bollywood Dangtal - Magic Lamp | Carpernter Shop - Eena Meena Deeka",
            "url": "https://www.youtube.com/watch?v=X-JMuSG_Rmc",
            "duration": 951.0,
            "view_count": 1240809,
            "uploader": "WowKidz",
            "category": "cartoons/eena_meena_deeka",
            "thumbnail": "https://i.ytimg.com/vi/X-JMuSG_Rmc/hq720.jpg"
        },
        {
            "id": "5bk2XLrcEkg",
            "title": "Bollywood Dangal - Robot Foxie | Kung Fu - Eena Meena Deeka",
            "url": "https://www.youtube.com/watch?v=5bk2XLrcEkg",
            "duration": 899.0,
            "view_count": 1196134,
            "uploader": "WowKidz",
            "category": "cartoons/eena_meena_deeka",
            "thumbnail": "https://i.ytimg.com/vi/5bk2XLrcEkg/hq720.jpg"
        },
        {
            "id": "mG8FC5ZZl2U",
            "title": "Bollywood Dangal - Double Trouble | Strike - Eena Meena Deeka",
            "url": "https://www.youtube.com/watch?v=mG8FC5ZZl2U",
            "duration": 933.0,
            "view_count": 1429595,
            "uploader": "WowKidz",
            "category": "cartoons/eena_meena_deeka",
            "thumbnail": "https://i.ytimg.com/vi/mG8FC5ZZl2U/hq720.jpg"
        },
        {
            "id": "S0oeDfdzmfo",
            "title": "Birthday Girl | Eena Meena Deeka Season 3 Compilation | Funny Cartoons",
            "url": "https://www.youtube.com/watch?v=S0oeDfdzmfo",
            "duration": 6695.0,
            "view_count": 655897,
            "uploader": "Eena Meena Deeka",
            "category": "cartoons/eena_meena_deeka",
            "thumbnail": "https://i.ytimg.com/vi/S0oeDfdzmfo/hq720.jpg"
        },
        {
            "id": "pJlEiDwclX0",
            "title": "Fukrey Boyzzz 🤩| Choocha Ke Sapnon Ka Paradise! | Compilation | @DiscoveryKidsIN",
            "url": "https://www.youtube.com/watch?v=pJlEiDwclX0",
            "duration": 1568.0,
            "view_count": 2869382,
            "uploader": "Discovery Kids In",
            "category": "cartoons/fukrey_boyzzz",
            "thumbnail": "https://i.ytimg.com/vi/pJlEiDwclX0/hq720.jpg"
        },
        {
            "id": "_T1HCHfEixo",
            "title": "Fukrey Boyzzz 🤩| Chooche Ki Funny Hindi Speech! 🎤 | Hindi Diwas | Cartoon | @DiscoveryKidsIN",
            "url": "https://www.youtube.com/watch?v=_T1HCHfEixo",
            "duration": 1173.0,
            "view_count": 356669,
            "uploader": "Discovery Kids In",
            "category": "cartoons/fukrey_boyzzz",
            "thumbnail": "https://i.ytimg.com/vi/_T1HCHfEixo/hq720.jpg"
        },
        {
            "id": "RTIWj7BCNBs",
            "title": "Fukrey Boyzzz 😆 | Fukrapanti Unlimited 🤪| Non-stop Fun 🤩 | Cartoon for Kids ✨| Discovery Kids India",
            "url": "https://www.youtube.com/watch?v=RTIWj7BCNBs",
            "duration": 1483.0,
            "view_count": 3487751,
            "uploader": "Discovery Kids In",
            "category": "cartoons/fukrey_boyzzz",
            "thumbnail": "https://i.ytimg.com/vi/RTIWj7BCNBs/hq720.jpg"
        },
        {
            "id": "mcyFWgcemmI",
            "title": "Fukrey Boyzzz 😍| Logic Gone, Adventure On! | Cartoon for Kids ✨| #fukrapantiunlimited",
            "url": "https://www.youtube.com/watch?v=mcyFWgcemmI",
            "duration": 1407.0,
            "view_count": 201958,
            "uploader": "Discovery Kids In",
            "category": "cartoons/fukrey_boyzzz",
            "thumbnail": "https://i.ytimg.com/vi/mcyFWgcemmI/hq720.jpg"
        },
        {
            "id": "nELjRGTOtAg",
            "title": "Fukrey Boyzzz 👊| Choocha Ka Crazy Dreamland! | Cartoon for Kids | Funny Cartoons | @DiscoveryKidsIN",
            "url": "https://www.youtube.com/watch?v=nELjRGTOtAg",
            "duration": 1486.0,
            "view_count": 90133,
            "uploader": "Discovery Kids In",
            "category": "cartoons/fukrey_boyzzz",
            "thumbnail": "https://i.ytimg.com/vi/nELjRGTOtAg/hq720.jpg"
        },
        {
            "id": "t5MnLZnEI-4",
            "title": "Fukrey Boyzzz 😍| Yahan Logic Nahi, Sirf Masti Chalegi! | Best Cartoons 😍| @DiscoveryKidsIN",
            "url": "https://www.youtube.com/watch?v=t5MnLZnEI-4",
            "duration": 1232.0,
            "view_count": 196660,
            "uploader": "Discovery Kids In",
            "category": "cartoons/fukrey_boyzzz",
            "thumbnail": "https://i.ytimg.com/vi/t5MnLZnEI-4/hq720.jpg"
        },
        {
            "id": "AIMLUHQiC9E",
            "title": "Fukrey Boyzzz  🤩| Chooche ke Sapno ka Wonderland! 🤩 | Non-stop Episode 😆| Funny Compilation 😆",
            "url": "https://www.youtube.com/watch?v=AIMLUHQiC9E",
            "duration": 1428.0,
            "view_count": 491011,
            "uploader": "Discovery Kids In",
            "category": "cartoons/fukrey_boyzzz",
            "thumbnail": "https://i.ytimg.com/vi/AIMLUHQiC9E/hq720.jpg"
        },
        {
            "id": "q7M9HN5w_ZM",
            "title": "Masti Ki Paathshala! 🏫 | Fukrey Boyzzz | Kris Roll No 21 | Discovery Kids India",
            "url": "https://www.youtube.com/watch?v=q7M9HN5w_ZM",
            "duration": 857.0,
            "view_count": 344488,
            "uploader": "Discovery Kids In",
            "category": "cartoons/fukrey_boyzzz",
            "thumbnail": "https://i.ytimg.com/vi/q7M9HN5w_ZM/hq720.jpg"
        },
        {
            "id": "LplY9a79q8Y",
            "title": "Fukrey Boyzzz 😍| Fukrapanti Ka Explosion! 💣 | Best Cartoon 😍| @DiscoveryKidsIN",
            "url": "https://www.youtube.com/watch?v=LplY9a79q8Y",
            "duration": 1234.0,
            "view_count": 31075,
            "uploader": "Discovery Kids In",
            "category": "cartoons/fukrey_boyzzz",
            "thumbnail": "https://i.ytimg.com/vi/LplY9a79q8Y/hq720.jpg"
        },
        {
            "id": "O714PQZmHhY",
            "title": "Fukrey Boyzzz | Choocha Bana Bhoot 😈| Full episode | Non-Stop Fun | Discovery Kids India",
            "url": "https://www.youtube.com/watch?v=O714PQZmHhY",
            "duration": 689.0,
            "view_count": 554381,
            "uploader": "Discovery Kids In",
            "category": "cartoons/fukrey_boyzzz",
            "thumbnail": "https://i.ytimg.com/vi/O714PQZmHhY/hq720.jpg"
        },
        {
            "id": "5FWivsjYA3g",
            "title": "Fukrey Boyzzz😍| Fukron Ka Republic Day Celebration!🫡| Compilation | Republic Day | @DiscoveryKidsIN​",
            "url": "https://www.youtube.com/watch?v=5FWivsjYA3g",
            "duration": 1704.0,
            "view_count": 335257,
            "uploader": "Discovery Kids In",
            "category": "cartoons/fukrey_boyzzz",
            "thumbnail": "https://i.ytimg.com/vi/5FWivsjYA3g/hq720.jpg"
        },
        {
            "id": "ERg70uIlGNc",
            "title": "Fukrey Boyzzz😍| Choocha Ka Crazy Sapno Ka Safar🥰| Compilation | Cartoon for Kids✨| @DiscoveryKidsIN",
            "url": "https://www.youtube.com/watch?v=ERg70uIlGNc",
            "duration": 1436.0,
            "view_count": 242652,
            "uploader": "Discovery Kids In",
            "category": "cartoons/fukrey_boyzzz",
            "thumbnail": "https://i.ytimg.com/vi/ERg70uIlGNc/hq720.jpg"
        },
        {
            "id": "kD_51jy6N7o",
            "title": "Fukrey Boyzzz!😍| Special Parade, Sneaky Trouble! 🤫🎉| Happy Republic Day✨| @DiscoveryKidsIN",
            "url": "https://www.youtube.com/watch?v=kD_51jy6N7o",
            "duration": 1809.0,
            "view_count": 46953,
            "uploader": "Discovery Kids In",
            "category": "cartoons/fukrey_boyzzz",
            "thumbnail": "https://i.ytimg.com/vi/kD_51jy6N7o/hq720.jpg"
        },
        {
            "id": "xKBiJWqISog",
            "title": "Fukrey Boyzzz | New Fukrapanti Nonstop 😂| Best Cartoon | Funny Cartoons | Discovery Kids India",
            "url": "https://www.youtube.com/watch?v=xKBiJWqISog",
            "duration": 1181.0,
            "view_count": 496213,
            "uploader": "Discovery Kids In",
            "category": "cartoons/fukrey_boyzzz",
            "thumbnail": "https://i.ytimg.com/vi/xKBiJWqISog/hq720.jpg"
        },
        {
            "id": "fG5dQ648UyU",
            "title": "Chooche ke Choochastic Sapne 🤩 | Funny complication 😆 | Fukrey Boyzzz | Discovery Kids India",
            "url": "https://www.youtube.com/watch?v=fG5dQ648UyU",
            "duration": 3358.0,
            "view_count": 132763,
            "uploader": "Discovery Kids In",
            "category": "cartoons/fukrey_boyzzz",
            "thumbnail": "https://i.ytimg.com/vi/fG5dQ648UyU/hq720.jpg"
        },
        {
            "id": "H4ZfDE_mI1Q",
            "title": "Fukrey Boyzzz 😍| Masti Ka Mega Blast! | Cartoon Videos 😍| @DiscoveryKidsIN",
            "url": "https://www.youtube.com/watch?v=H4ZfDE_mI1Q",
            "duration": 1524.0,
            "view_count": 159410,
            "uploader": "Discovery Kids In",
            "category": "cartoons/fukrey_boyzzz",
            "thumbnail": "https://i.ytimg.com/vi/H4ZfDE_mI1Q/hq720.jpg"
        },
        {
            "id": "vukS5DqRGzk",
            "title": "Fukrey Boyzzz 😍| Fukrapanti On, Boredom Gone! 🥳| Watch Cartoon | Kids Cartoon | @DiscoveryKidsIN",
            "url": "https://www.youtube.com/watch?v=vukS5DqRGzk",
            "duration": 1909.0,
            "view_count": 137302,
            "uploader": "Discovery Kids In",
            "category": "cartoons/fukrey_boyzzz",
            "thumbnail": "https://i.ytimg.com/vi/vukS5DqRGzk/hq720.jpg"
        },
        {
            "id": "kwUe6pe63Ik",
            "title": "Fukrey Boyzzz 🤩| Fukron Ka Funtime! 🤪 | Funny Cartoon | Cartoon for Kids | @DiscoveryKidsIN",
            "url": "https://www.youtube.com/watch?v=kwUe6pe63Ik",
            "duration": 1824.0,
            "view_count": 866873,
            "uploader": "Discovery Kids In",
            "category": "cartoons/fukrey_boyzzz",
            "thumbnail": "https://i.ytimg.com/vi/kwUe6pe63Ik/hq720.jpg"
        },
        {
            "id": "-FJujS83T-g",
            "title": "Fukrey Boyzzz 🤩| Sapno Ki Udaan! | Cartoon for Kids 🤩| Fukron Ki Fukrapanti | @DiscoveryKidsIN",
            "url": "https://www.youtube.com/watch?v=-FJujS83T-g",
            "duration": 1491.0,
            "view_count": 285173,
            "uploader": "Discovery Kids In",
            "category": "cartoons/fukrey_boyzzz",
            "thumbnail": "https://i.ytimg.com/vi/-FJujS83T-g/hq720.jpg"
        },
        {
            "id": "itn3zZcnXow",
            "title": "Fukrey Boyzzz 😍| Hasi Unlimited, Fukrapanti Unstoppable! | Kids Cartoon 😍| @DiscoveryKidsIN",
            "url": "https://www.youtube.com/watch?v=itn3zZcnXow",
            "duration": 1800.0,
            "view_count": 405157,
            "uploader": "Discovery Kids In",
            "category": "cartoons/fukrey_boyzzz",
            "thumbnail": "https://i.ytimg.com/vi/itn3zZcnXow/hq720.jpg"
        },
        {
            "id": "hmLLAKsFz_c",
            "title": "Fukrey Boyzzz 🤩| Fukron Ki Dhamaal! 🤪| Cartoon for Kids | Nonstop Masti 😆| @DiscoveryKidsIN",
            "url": "https://www.youtube.com/watch?v=hmLLAKsFz_c",
            "duration": 1522.0,
            "view_count": 646085,
            "uploader": "Discovery Kids In",
            "category": "cartoons/fukrey_boyzzz",
            "thumbnail": "https://i.ytimg.com/vi/hmLLAKsFz_c/hq720.jpg"
        },
        {
            "id": "HSWYmb8v8Kg",
            "title": "Fukrey Boyzzz 👊| Fukron Ki Tadka, Masti Ka Dhamaka! | Best Cartoon 😍 | @DiscoveryKidsIN",
            "url": "https://www.youtube.com/watch?v=HSWYmb8v8Kg",
            "duration": 1480.0,
            "view_count": 33168,
            "uploader": "Discovery Kids In",
            "category": "cartoons/fukrey_boyzzz",
            "thumbnail": "https://i.ytimg.com/vi/HSWYmb8v8Kg/hq720.jpg"
        },
        {
            "id": "pXa0qVd7bUI",
            "title": "Fukrey Boyzzz 🤩| Choocha Ka Dreamland | Funny Cartoons | @DiscoveryKidsIN",
            "url": "https://www.youtube.com/watch?v=pXa0qVd7bUI",
            "duration": 3358.0,
            "view_count": 165604,
            "uploader": "Discovery Kids In",
            "category": "cartoons/fukrey_boyzzz",
            "thumbnail": "https://i.ytimg.com/vi/pXa0qVd7bUI/hq720.jpg"
        },
        {
            "id": "7Eh8kktuJcs",
            "title": "Fukrey Boyzzz 😍| Fukron Ki Superhit Waali Masti | Cartoon Videos | Best Cartoon | @DiscoveryKidsIN",
            "url": "https://www.youtube.com/watch?v=7Eh8kktuJcs",
            "duration": 1839.0,
            "view_count": 61541,
            "uploader": "Discovery Kids In",
            "category": "cartoons/fukrey_boyzzz",
            "thumbnail": "https://i.ytimg.com/vi/7Eh8kktuJcs/hq720.jpg"
        }
    ]
}