{
    "page": 84,
    "total_pages": 103,
    "total_items": 5125,
    "items": [
        {
            "id": "DagzzkrCVkU",
            "title": "PAKDAM PAKDAI SPACE ATTACK FULL MOVIE HD | DOGGY DON AUR COLONEL KA NAYA SPACE MISSION!",
            "url": "https://www.youtube.com/watch?v=DagzzkrCVkU",
            "duration": 3264.0,
            "view_count": 187617,
            "uploader": "Pakdai Party",
            "category": "cartoons/pakdam_pakdai",
            "thumbnail": "https://i.ytimg.com/vi/DagzzkrCVkU/hq720.jpg"
        },
        {
            "id": "wMRhi-F6Zdw",
            "title": "Pakdam Pakdai | Full Episode | Mice Brothers की मस्ती: Doggy Don और Colonel को डराना! 🐭😱",
            "url": "https://www.youtube.com/watch?v=wMRhi-F6Zdw",
            "duration": 1060.0,
            "view_count": 466326,
            "uploader": "Sonic Gang",
            "category": "cartoons/pakdam_pakdai",
            "thumbnail": "https://i.ytimg.com/vi/wMRhi-F6Zdw/hq720.jpg"
        },
        {
            "id": "7hmV_b7Sqdc",
            "title": "Pakdam Pakdai | Full Episode | Doggy Don बना Rajdhani, पूँछ में आग लगने पर 🚂🔥🐾",
            "url": "https://www.youtube.com/watch?v=7hmV_b7Sqdc",
            "duration": 891.0,
            "view_count": 208950,
            "uploader": "Sonic Gang",
            "category": "cartoons/pakdam_pakdai",
            "thumbnail": "https://i.ytimg.com/vi/7hmV_b7Sqdc/hq720.jpg"
        },
        {
            "id": "_X1KTp2MBso",
            "title": "Doggy Don और चूहे साथ मे रोए | Pakdam Pakdai",
            "url": "https://www.youtube.com/watch?v=_X1KTp2MBso",
            "duration": 1402.0,
            "view_count": 108939,
            "uploader": "Pakdam Pakdai",
            "category": "cartoons/pakdam_pakdai",
            "thumbnail": "https://i.ytimg.com/vi/_X1KTp2MBso/hq720.jpg"
        },
        {
            "id": "ZdvQj7PzFfM",
            "title": "Ballu ने दी Doggy Don को सज़ा | Pakdam Pakdai",
            "url": "https://www.youtube.com/watch?v=ZdvQj7PzFfM",
            "duration": 1269.0,
            "view_count": 500925,
            "uploader": "Pakdam Pakdai",
            "category": "cartoons/pakdam_pakdai",
            "thumbnail": "https://i.ytimg.com/vi/ZdvQj7PzFfM/hq720.jpg"
        },
        {
            "id": "Mefm8n-nOd4",
            "title": "चूहा पार्टी ने किया Doggy Don की नाक में Dum | Pakdam Pakdai",
            "url": "https://www.youtube.com/watch?v=Mefm8n-nOd4",
            "duration": 1285.0,
            "view_count": 733786,
            "uploader": "Pakdam Pakdai",
            "category": "cartoons/pakdam_pakdai",
            "thumbnail": "https://i.ytimg.com/vi/Mefm8n-nOd4/hq720.jpg"
        },
        {
            "id": "xCn188Ak20M",
            "title": "Doggy Don और चूहा party फसे underwater | Pakdam Pakdai",
            "url": "https://www.youtube.com/watch?v=xCn188Ak20M",
            "duration": 1231.0,
            "view_count": 96958,
            "uploader": "Pakdam Pakdai",
            "category": "cartoons/pakdam_pakdai",
            "thumbnail": "https://i.ytimg.com/vi/xCn188Ak20M/hq720.jpg"
        },
        {
            "id": "dLJUe1HUyVw",
            "title": "Pakdam Pakdai | Full Episode | चूहा Party हुई Crazy, ढेर सारे पैसे देखकर",
            "url": "https://www.youtube.com/watch?v=dLJUe1HUyVw",
            "duration": 1060.0,
            "view_count": 1237545,
            "uploader": "Sonic Gang",
            "category": "cartoons/pakdam_pakdai",
            "thumbnail": "https://i.ytimg.com/vi/dLJUe1HUyVw/hq720.jpg"
        },
        {
            "id": "7SplSrjetxU",
            "title": "Doggy Don और चूहो की हुई बदमाशी शांत | Pakdam Pakdai",
            "url": "https://www.youtube.com/watch?v=7SplSrjetxU",
            "duration": 1369.0,
            "view_count": 89548,
            "uploader": "Pakdam Pakdai",
            "category": "cartoons/pakdam_pakdai",
            "thumbnail": "https://i.ytimg.com/vi/7SplSrjetxU/hq720.jpg"
        },
        {
            "id": "OD9xUGNUVj0",
            "title": "Pakdam Pakdai | Full Episode | Doggy Don और Colonel का Movie Night में धमाल! 🎬😂",
            "url": "https://www.youtube.com/watch?v=OD9xUGNUVj0",
            "duration": 1063.0,
            "view_count": 341296,
            "uploader": "Sonic Gang",
            "category": "cartoons/pakdam_pakdai",
            "thumbnail": "https://i.ytimg.com/vi/OD9xUGNUVj0/hq720.jpg"
        },
        {
            "id": "ohPhej9f-MY",
            "title": "Peppa Pig in Hindi - Chokalet Phaiktree - हिंदी Kahaniya - Hindi Cartoons for Kids",
            "url": "https://www.youtube.com/watch?v=ohPhej9f-MY",
            "duration": 7274.0,
            "view_count": 7058203,
            "uploader": "पेप्पा पिग हिंदी - आधिकारिक चैनल",
            "category": "cartoons/peppa_pig",
            "thumbnail": "https://i.ytimg.com/vi/ohPhej9f-MY/hq720.jpg"
        },
        {
            "id": "TUxsRg6yu1o",
            "title": "Peppa Pig in Hindi | तकिए का महल | Hindi Cartoons for Kids",
            "url": "https://www.youtube.com/watch?v=TUxsRg6yu1o",
            "duration": 1960.0,
            "view_count": 34790987,
            "uploader": "पेप्पा पिग हिंदी - आधिकारिक चैनल",
            "category": "cartoons/peppa_pig",
            "thumbnail": "https://i.ytimg.com/vi/TUxsRg6yu1o/hq720.jpg"
        },
        {
            "id": "pTXeqx73p44",
            "title": "Peppa Starts a Backyard BAND 🥁🎶 Peppa Pig Full Episodes | 4 Hour of Kids Cartoons",
            "url": "https://www.youtube.com/watch?v=pTXeqx73p44",
            "duration": 7548.0,
            "view_count": 441861,
            "uploader": "Peppa Pig - Official Channel",
            "category": "cartoons/peppa_pig",
            "thumbnail": "https://i.ytimg.com/vi/pTXeqx73p44/hq720.jpg"
        },
        {
            "id": "_3xWK2FY9BI",
            "title": "Ball Game MAYHEM!! 🏓 | Summer Fun 🌞 | Peppa Pig Full Episodes | 4 Hours of Kids Cartoons",
            "url": "https://www.youtube.com/watch?v=_3xWK2FY9BI",
            "duration": 14553.0,
            "view_count": 5345457,
            "uploader": "Peppa Pig - Official Channel",
            "category": "cartoons/peppa_pig",
            "thumbnail": "https://i.ytimg.com/vi/_3xWK2FY9BI/hq720.jpg"
        },
        {
            "id": "vKhTAaRUpvw",
            "title": "Peppa Pig in Hindi - Mammee Pig Ka Barthade - हिंदी Kahaniya - Hindi Cartoons for Kids",
            "url": "https://www.youtube.com/watch?v=vKhTAaRUpvw",
            "duration": 3738.0,
            "view_count": 6469421,
            "uploader": "पेप्पा पिग हिंदी - आधिकारिक चैनल",
            "category": "cartoons/peppa_pig",
            "thumbnail": "https://i.ytimg.com/vi/vKhTAaRUpvw/hq720.jpg"
        },
        {
            "id": "B05_Z0ih_ss",
            "title": "Peppa Pig in Hindi - Tabiyat Theek Nahin - हिंदी Kahaniya - Hindi Cartoons for Kids",
            "url": "https://www.youtube.com/watch?v=B05_Z0ih_ss",
            "duration": 3741.0,
            "view_count": 6670217,
            "uploader": "पेप्पा पिग हिंदी - आधिकारिक चैनल",
            "category": "cartoons/peppa_pig",
            "thumbnail": "https://i.ytimg.com/vi/B05_Z0ih_ss/hq720.jpg"
        },
        {
            "id": "5CjF89T6uwM",
            "title": "Peppa Pig in Hindi - Dera Daalana - हिंदी Kahaniya - Hindi Cartoons for Kids",
            "url": "https://www.youtube.com/watch?v=5CjF89T6uwM",
            "duration": 4001.0,
            "view_count": 14555226,
            "uploader": "पेप्पा पिग हिंदी - आधिकारिक चैनल",
            "category": "cartoons/peppa_pig",
            "thumbnail": "https://i.ytimg.com/vi/5CjF89T6uwM/hq720.jpg"
        },
        {
            "id": "Z5lXWRyDC7w",
            "title": "Peppa Pig in Hindi | वॉटर स्लाइड्स | Hindi Cartoons for Kids",
            "url": "https://www.youtube.com/watch?v=Z5lXWRyDC7w",
            "duration": 1820.0,
            "view_count": 7061932,
            "uploader": "पेप्पा पिग हिंदी - आधिकारिक चैनल",
            "category": "cartoons/peppa_pig",
            "thumbnail": "https://i.ytimg.com/vi/Z5lXWRyDC7w/hq720.jpg"
        },
        {
            "id": "M3bCAtIzgDw",
            "title": "Peppa Pig in Hindi - Takeaway - टेक अवे - हिंदी Kahaniya - Hindi Cartoons for Kids",
            "url": "https://www.youtube.com/watch?v=M3bCAtIzgDw",
            "duration": 3626.0,
            "view_count": 1343005,
            "uploader": "पेप्पा पिग हिंदी - आधिकारिक चैनल",
            "category": "cartoons/peppa_pig",
            "thumbnail": "https://i.ytimg.com/vi/M3bCAtIzgDw/hq720.jpg"
        },
        {
            "id": "w6rTBV0lvRg",
            "title": "Peppa Pig in Hindi - Bhoot Kee Talaash - हिंदी Kahaniya - Hindi Cartoons for Kids",
            "url": "https://www.youtube.com/watch?v=w6rTBV0lvRg",
            "duration": 7267.0,
            "view_count": 3813308,
            "uploader": "पेप्पा पिग हिंदी - आधिकारिक चैनल",
            "category": "cartoons/peppa_pig",
            "thumbnail": "https://i.ytimg.com/vi/w6rTBV0lvRg/hq720.jpg"
        },
        {
            "id": "xUnY-439kLc",
            "title": "Peppa Falls in BOUNCY CASTLE 🏰 Peppa Pig Full Episodes | 2 Hours of Kids Cartoons",
            "url": "https://www.youtube.com/watch?v=xUnY-439kLc",
            "duration": 7223.0,
            "view_count": 320011,
            "uploader": "Peppa Pig - Official Channel",
            "category": "cartoons/peppa_pig",
            "thumbnail": "https://i.ytimg.com/vi/xUnY-439kLc/hq720.jpg"
        },
        {
            "id": "b_kKQ2nDeM8",
            "title": "Peppa Pig Learns How to Make LUNCH 🍕 | Cooking Pizza & Salad | Full Episodes | Cartoon | 20 Minutes",
            "url": "https://www.youtube.com/watch?v=b_kKQ2nDeM8",
            "duration": 1075.0,
            "view_count": 48748531,
            "uploader": "Toys and Colours",
            "category": "cartoons/peppa_pig",
            "thumbnail": "https://i.ytimg.com/vi/b_kKQ2nDeM8/hq720.jpg"
        },
        {
            "id": "f0VCHTeoOTs",
            "title": "Peppa Pig in Hindi - Naav Bufe - हिंदी Kahaniya - Hindi Cartoons for Kids",
            "url": "https://www.youtube.com/watch?v=f0VCHTeoOTs",
            "duration": 3619.0,
            "view_count": 9445716,
            "uploader": "पेप्पा पिग हिंदी - आधिकारिक चैनल",
            "category": "cartoons/peppa_pig",
            "thumbnail": "https://i.ytimg.com/vi/f0VCHTeoOTs/hq720.jpg"
        },
        {
            "id": "u_ops_VtuKE",
            "title": "Peppa Pig in Hindi - Khel ka Maidan - हिंदी Kahaniya - Hindi Cartoons for Kids",
            "url": "https://www.youtube.com/watch?v=u_ops_VtuKE",
            "duration": 3271.0,
            "view_count": 32666407,
            "uploader": "पेप्पा पिग हिंदी - आधिकारिक चैनल",
            "category": "cartoons/peppa_pig",
            "thumbnail": "https://i.ytimg.com/vi/u_ops_VtuKE/hq720.jpg"
        },
        {
            "id": "LIBbAL2MAsE",
            "title": "Peppa Pig in Hindi - Fancy Dress - हिंदी Kahaniya - Hindi Cartoons for Kids",
            "url": "https://www.youtube.com/watch?v=LIBbAL2MAsE",
            "duration": 3545.0,
            "view_count": 28765303,
            "uploader": "पेप्पा पिग हिंदी - आधिकारिक चैनल",
            "category": "cartoons/peppa_pig",
            "thumbnail": "https://i.ytimg.com/vi/LIBbAL2MAsE/hq720.jpg"
        },
        {
            "id": "PvOaiV8dx54",
            "title": "Peppa Pig in Hindi - Khareedaaree - हिंदी Kahaniya - Hindi Cartoons for Kids",
            "url": "https://www.youtube.com/watch?v=PvOaiV8dx54",
            "duration": 3744.0,
            "view_count": 32075011,
            "uploader": "पेप्पा पिग हिंदी - आधिकारिक चैनल",
            "category": "cartoons/peppa_pig",
            "thumbnail": "https://i.ytimg.com/vi/PvOaiV8dx54/hq720.jpg"
        },
        {
            "id": "n601L_rRMSY",
            "title": "Dopahar ka Khaana - Peppa Pig in Hindi - Lunch - हिंदी Kahaniya - Hindi Cartoons for Kids",
            "url": "https://www.youtube.com/watch?v=n601L_rRMSY",
            "duration": 3805.0,
            "view_count": 22758457,
            "uploader": "पेप्पा पिग हिंदी - आधिकारिक चैनल",
            "category": "cartoons/various_cartoons",
            "thumbnail": "https://i.ytimg.com/vi/n601L_rRMSY/hq720.jpg"
        },
        {
            "id": "x9txgp18Qog",
            "title": "Peppa Pig in Hindi - Vrksh Bageecha - हिंदी Kahaniya - Hindi Cartoons for Kids",
            "url": "https://www.youtube.com/watch?v=x9txgp18Qog",
            "duration": 3738.0,
            "view_count": 25604149,
            "uploader": "पेप्पा पिग हिंदी - आधिकारिक चैनल",
            "category": "cartoons/peppa_pig",
            "thumbnail": "https://i.ytimg.com/vi/x9txgp18Qog/hq720.jpg"
        },
        {
            "id": "qPD8tNE3ftQ",
            "title": "Peppa Pig in Hindi - Khareedaaree - हिंदी Kahaniya - Hindi Cartoons for Kids",
            "url": "https://www.youtube.com/watch?v=qPD8tNE3ftQ",
            "duration": 3744.0,
            "view_count": 16919777,
            "uploader": "पेप्पा पिग हिंदी - आधिकारिक चैनल",
            "category": "cartoons/peppa_pig",
            "thumbnail": "https://i.ytimg.com/vi/qPD8tNE3ftQ/hq720.jpg"
        },
        {
            "id": "GeWMYHp2bXA",
            "title": "Peppa Pig in Hindi - Spa Din - हिंदी Kahaniya - Hindi Cartoons for Kids",
            "url": "https://www.youtube.com/watch?v=GeWMYHp2bXA",
            "duration": 7296.0,
            "view_count": 1926324,
            "uploader": "पेप्पा पिग हिंदी - आधिकारिक चैनल",
            "category": "cartoons/peppa_pig",
            "thumbnail": "https://i.ytimg.com/vi/GeWMYHp2bXA/hq720.jpg"
        },
        {
            "id": "FXeYHUyYhAw",
            "title": "Peppa Pig in Hindi - Skool Kee Naee Bas - हिंदी Kahaniya - Hindi Cartoons for Kids",
            "url": "https://www.youtube.com/watch?v=FXeYHUyYhAw",
            "duration": 7273.0,
            "view_count": 1818268,
            "uploader": "पेप्पा पिग हिंदी - आधिकारिक चैनल",
            "category": "cartoons/peppa_pig",
            "thumbnail": "https://i.ytimg.com/vi/FXeYHUyYhAw/hq720.jpg"
        },
        {
            "id": "ki2b22bzzcA",
            "title": "Peppa Pig in Hindi - Khilaunon Kee Dukaan - हिंदी Kahaniya - Hindi Cartoons for Kids",
            "url": "https://www.youtube.com/watch?v=ki2b22bzzcA",
            "duration": 7307.0,
            "view_count": 21053222,
            "uploader": "पेप्पा पिग हिंदी - आधिकारिक चैनल",
            "category": "cartoons/peppa_pig",
            "thumbnail": "https://i.ytimg.com/vi/ki2b22bzzcA/hq720.jpg"
        },
        {
            "id": "kSr_SWZHmEU",
            "title": "Peppa Pig in Hindi - Ek Tasveer Latakaana - हिंदी Kahaniya - Cartoons for Kids",
            "url": "https://www.youtube.com/watch?v=kSr_SWZHmEU",
            "duration": 3745.0,
            "view_count": 5055868,
            "uploader": "पेप्पा पिग हिंदी - आधिकारिक चैनल",
            "category": "cartoons/peppa_pig",
            "thumbnail": "https://i.ytimg.com/vi/kSr_SWZHmEU/hq720.jpg"
        },
        {
            "id": "jAFlldAIqW4",
            "title": "Peppa Pig in Hindi - Kaimping Avakaash - हिंदी Kahaniya - Hindi Cartoons for Kids",
            "url": "https://www.youtube.com/watch?v=jAFlldAIqW4",
            "duration": 4001.0,
            "view_count": 10314661,
            "uploader": "पेप्पा पिग हिंदी - आधिकारिक चैनल",
            "category": "cartoons/peppa_pig",
            "thumbnail": "https://i.ytimg.com/vi/jAFlldAIqW4/hq720.jpg"
        },
        {
            "id": "ZBbPorWVRGI",
            "title": "Peppa Pig in Hindi - Lunch - Dopahar ka Khaana - हिंदी Kahaniya - Hindi Cartoons for Kids",
            "url": "https://www.youtube.com/watch?v=ZBbPorWVRGI",
            "duration": 3805.0,
            "view_count": 12387617,
            "uploader": "पेप्पा पिग हिंदी - आधिकारिक चैनल",
            "category": "cartoons/peppa_pig",
            "thumbnail": "https://i.ytimg.com/vi/ZBbPorWVRGI/hq720.jpg"
        },
        {
            "id": "jTxUlGQWDt4",
            "title": "Peppa Pig in Hindi - Vrkshagrh - हिंदी Kahaniya - Hindi Cartoons for Kids |",
            "url": "https://www.youtube.com/watch?v=jTxUlGQWDt4",
            "duration": 3738.0,
            "view_count": 2267936,
            "uploader": "पेप्पा पिग हिंदी - आधिकारिक चैनल",
            "category": "cartoons/peppa_pig",
            "thumbnail": "https://i.ytimg.com/vi/jTxUlGQWDt4/hq720.jpg"
        },
        {
            "id": "U_A-juFvzQg",
            "title": "Peppa Pig in Hindi - Tren Mein Raat Bhar Sona - हिंदी Kahaniya - Hindi Cartoons for Kids",
            "url": "https://www.youtube.com/watch?v=U_A-juFvzQg",
            "duration": 7333.0,
            "view_count": 4594711,
            "uploader": "पेप्पा पिग हिंदी - आधिकारिक चैनल",
            "category": "cartoons/peppa_pig",
            "thumbnail": "https://i.ytimg.com/vi/U_A-juFvzQg/hq720.jpg"
        },
        {
            "id": "y0QunZ4C8ug",
            "title": "Peppa Pig in Hindi - Khel Ka Maidaan - हिंदी Kahaniya - Hindi Cartoons for Kids",
            "url": "https://www.youtube.com/watch?v=y0QunZ4C8ug",
            "duration": 3748.0,
            "view_count": 5816707,
            "uploader": "पेप्पा पिग हिंदी - आधिकारिक चैनल",
            "category": "cartoons/peppa_pig",
            "thumbnail": "https://i.ytimg.com/vi/y0QunZ4C8ug/hq720.jpg"
        },
        {
            "id": "BikK5oR-U48",
            "title": "Peppa Pig in Hindi - Daraavane Toofaan - हिंदी Kahaniya - Hindi Cartoons for Kids",
            "url": "https://www.youtube.com/watch?v=BikK5oR-U48",
            "duration": 4008.0,
            "view_count": 6335327,
            "uploader": "पेप्पा पिग हिंदी - आधिकारिक चैनल",
            "category": "cartoons/peppa_pig",
            "thumbnail": "https://i.ytimg.com/vi/BikK5oR-U48/hq720.jpg"
        },
        {
            "id": "nxfvb1TiU5g",
            "title": "Peppa Pig in Hindi - Mahal Kee Raanee - हिंदी Kahaniya - Hindi Cartoons for Kids",
            "url": "https://www.youtube.com/watch?v=nxfvb1TiU5g",
            "duration": 3742.0,
            "view_count": 10996220,
            "uploader": "पेप्पा पिग हिंदी - आधिकारिक चैनल",
            "category": "cartoons/peppa_pig",
            "thumbnail": "https://i.ytimg.com/vi/nxfvb1TiU5g/hq720.jpg"
        },
        {
            "id": "QXSsQvhF_Ok",
            "title": "Peppa Pig NEW BABY EVIE Episodes LIVE 🍼 Cutest & Funniest Moments 🥹💛 Kids Cartoons",
            "url": "https://www.youtube.com/watch?v=QXSsQvhF_Ok",
            "duration": 0,
            "view_count": 0,
            "uploader": "Peppa Pig - Official Channel",
            "category": "cartoons/peppa_pig",
            "thumbnail": "https://i.ytimg.com/vi/QXSsQvhF_Ok/hq720.jpg"
        },
        {
            "id": "oEH2UstCHn0",
            "title": "🔴  NEWEST Peppa Pig Episodes 2026 ✨ SEASON 10 Holiday Adventures ☀️ Kids Movie 🔴",
            "url": "https://www.youtube.com/watch?v=oEH2UstCHn0",
            "duration": 0,
            "view_count": 0,
            "uploader": "Peppa Pig - Official Channel",
            "category": "cartoons/peppa_pig",
            "thumbnail": "https://i.ytimg.com/vi/oEH2UstCHn0/hq720.jpg"
        },
        {
            "id": "ptUDpEDyipA",
            "title": "Peppa Pig in Hindi - Bhoolabhulaiya - हिंदी Kahaniya - Hindi Cartoons for Kids",
            "url": "https://www.youtube.com/watch?v=ptUDpEDyipA",
            "duration": 7233.0,
            "view_count": 2240175,
            "uploader": "पेप्पा पिग हिंदी - आधिकारिक चैनल",
            "category": "cartoons/peppa_pig",
            "thumbnail": "https://i.ytimg.com/vi/ptUDpEDyipA/hq720.jpg"
        },
        {
            "id": "2Pu9zrx3TYU",
            "title": "🔴 BEST of George 2026 LIVE! 🦖 Peppa Pig Mini Movie 🍿 Kids Cartoons 🔴",
            "url": "https://www.youtube.com/watch?v=2Pu9zrx3TYU",
            "duration": 0,
            "view_count": 0,
            "uploader": "Peppa Pig - Official Channel",
            "category": "cartoons/peppa_pig",
            "thumbnail": "https://i.ytimg.com/vi/2Pu9zrx3TYU/hq720.jpg"
        },
        {
            "id": "um7S8KqAC-M",
            "title": "Peppa Pig in Hindi - Tachos - हिंदी Kahaniya - Hindi Cartoons for Kids",
            "url": "https://www.youtube.com/watch?v=um7S8KqAC-M",
            "duration": 7312.0,
            "view_count": 2211045,
            "uploader": "पेप्पा पिग हिंदी - आधिकारिक चैनल",
            "category": "cartoons/peppa_pig",
            "thumbnail": "https://i.ytimg.com/vi/um7S8KqAC-M/hq720.jpg"
        },
        {
            "id": "shuZf75ysqk",
            "title": "Peppa Pig in Hindi - Daddy Pig Frame Laga Rahe Hai - हिंदी Kahaniya - Hindi Cartoons for Kids",
            "url": "https://www.youtube.com/watch?v=shuZf75ysqk",
            "duration": 3802.0,
            "view_count": 21683839,
            "uploader": "पेप्पा पिग हिंदी - आधिकारिक चैनल",
            "category": "cartoons/peppa_pig",
            "thumbnail": "https://i.ytimg.com/vi/shuZf75ysqk/hq720.jpg"
        },
        {
            "id": "9-IU71xjyak",
            "title": "Peppa Pig in Hindi - Sports Day at Play Group - प्लेग्रुप का स्पोर्ट्स डे - हिंदी Kahaniya - Hindi",
            "url": "https://www.youtube.com/watch?v=9-IU71xjyak",
            "duration": 2368.0,
            "view_count": 3199349,
            "uploader": "पेप्पा पिग हिंदी - आधिकारिक चैनल",
            "category": "cartoons/peppa_pig",
            "thumbnail": "https://i.ytimg.com/vi/9-IU71xjyak/hq720.jpg"
        },
        {
            "id": "aLHWD9O2F1A",
            "title": "Peppa Pig NEW BABY EVIE Episodes LIVE 🍼 Cutest & Funniest Moments 🥹💛 Kids Cartoons",
            "url": "https://www.youtube.com/watch?v=aLHWD9O2F1A",
            "duration": 0,
            "view_count": 0,
            "uploader": "Peppa Pig - Official Channel",
            "category": "cartoons/peppa_pig",
            "thumbnail": "https://i.ytimg.com/vi/aLHWD9O2F1A/hq720.jpg"
        },
        {
            "id": "mwksgN_jH8I",
            "title": "Peppa Pig in Hindi | The Seasaw | सी-सॉ | Hindi Cartoons for Kids",
            "url": "https://www.youtube.com/watch?v=mwksgN_jH8I",
            "duration": 3640.0,
            "view_count": 271445,
            "uploader": "पेप्पा पिग हिंदी - आधिकारिक चैनल",
            "category": "cartoons/peppa_pig",
            "thumbnail": "https://i.ytimg.com/vi/mwksgN_jH8I/hq720.jpg"
        },
        {
            "id": "smYAlnKV3pQ",
            "title": "Peppa Pig Tales 2026 🚒  Fire Station SAFETY 🚨 BRAND NEW Peppa Pig Episodes",
            "url": "https://www.youtube.com/watch?v=smYAlnKV3pQ",
            "duration": 7269.0,
            "view_count": 677195,
            "uploader": "Peppa Pig - Official Channel",
            "category": "cartoons/peppa_pig",
            "thumbnail": "https://i.ytimg.com/vi/smYAlnKV3pQ/hq720.jpg"
        }
    ]
}