{
    "page": 66,
    "total_pages": 103,
    "total_items": 5125,
    "items": [
        {
            "id": "b7fJi3A3QuU",
            "title": "वैद्य भालू का नुस्खा IHunny Bunny Jholmaal Cartoons for kids Hindi|बच्चो की कहानियां |Sony YAY!",
            "url": "https://www.youtube.com/watch?v=b7fJi3A3QuU",
            "duration": 687.0,
            "view_count": 2335764,
            "uploader": "Sony YAY!",
            "category": "cartoons/honey_bunny_ka_jholmaal",
            "thumbnail": "https://i.ytimg.com/vi/b7fJi3A3QuU/hq720.jpg"
        },
        {
            "id": "v1FUjIUHzQk",
            "title": "हनी का जुड़वां | बच्चों के लिए चुटकुले | Stories for children | Kids videos | Honey Bunny Cartoon",
            "url": "https://www.youtube.com/watch?v=v1FUjIUHzQk",
            "duration": 1924.0,
            "view_count": 34405576,
            "uploader": "Sony YAY!",
            "category": "cartoons/honey_bunny_ka_jholmaal",
            "thumbnail": "https://i.ytimg.com/vi/v1FUjIUHzQk/hq720.jpg"
        },
        {
            "id": "9pF76WDIj98",
            "title": "चंकी करे मन की | Hunny Bunny Jholmaal Cartoons for kids Hindi | बच्चो की कहानियां | Sony YAY!",
            "url": "https://www.youtube.com/watch?v=9pF76WDIj98",
            "duration": 715.0,
            "view_count": 2286384,
            "uploader": "Sony YAY!",
            "category": "cartoons/honey_bunny_ka_jholmaal",
            "thumbnail": "https://i.ytimg.com/vi/9pF76WDIj98/hq720.jpg"
        },
        {
            "id": "3vhyesfnTYA",
            "title": "पग जल सेवा | Hunny Bunny Jholmaal Cartoons for kids Hindi | बच्चो की कहानियां | Sony YAY!",
            "url": "https://www.youtube.com/watch?v=3vhyesfnTYA",
            "duration": 645.0,
            "view_count": 2021596,
            "uploader": "Sony YAY!",
            "category": "cartoons/honey_bunny_ka_jholmaal",
            "thumbnail": "https://i.ytimg.com/vi/3vhyesfnTYA/hq720.jpg"
        },
        {
            "id": "eE998L2-sj0",
            "title": "दोस्त और दुश्मन का किस्सा IHunny Bunny Jholmaal Cartoons for kids Hindi|बच्चो की कहानियां |Sony YAY!",
            "url": "https://www.youtube.com/watch?v=eE998L2-sj0",
            "duration": 2892.0,
            "view_count": 6152850,
            "uploader": "Sony YAY!",
            "category": "cartoons/honey_bunny_ka_jholmaal",
            "thumbnail": "https://i.ytimg.com/vi/eE998L2-sj0/hq720.jpg"
        },
        {
            "id": "fmVFzGWppPg",
            "title": "रोबोट कुत्ता की कहानी | Hunny Bunny Jholmaal Cartoons for kids Hindi | बच्चो की कहानियां | Sony YAY!",
            "url": "https://www.youtube.com/watch?v=fmVFzGWppPg",
            "duration": 708.0,
            "view_count": 3359558,
            "uploader": "Sony YAY!",
            "category": "cartoons/honey_bunny_ka_jholmaal",
            "thumbnail": "https://i.ytimg.com/vi/fmVFzGWppPg/hq720.jpg"
        },
        {
            "id": "v4QiCxkKIA0",
            "title": "D.C. क्लब मैं खेल I Hunny Bunny Jholmaal Cartoons for kids Hindi |बच्चो की कहानियां | HB | Sony YAY!",
            "url": "https://www.youtube.com/watch?v=v4QiCxkKIA0",
            "duration": 1375.0,
            "view_count": 2787406,
            "uploader": "Sony YAY!",
            "category": "cartoons/honey_bunny_ka_jholmaal",
            "thumbnail": "https://i.ytimg.com/vi/v4QiCxkKIA0/hq720.jpg"
        },
        {
            "id": "LN5F1dNaaDg",
            "title": "बालों की  देखभाल ? I Hunny Bunny Jholmaal Cartoons for kids Hindi|बच्चो की कहानियां |Sony YAY!",
            "url": "https://www.youtube.com/watch?v=LN5F1dNaaDg",
            "duration": 1649.0,
            "view_count": 4364645,
            "uploader": "Sony YAY!",
            "category": "cartoons/honey_bunny_ka_jholmaal",
            "thumbnail": "https://i.ytimg.com/vi/LN5F1dNaaDg/hq720.jpg"
        },
        {
            "id": "-8A7HDdXRWI",
            "title": "सुखी परिवार का पुरस्कार I Hunny Bunny Jholmaal Cartoons for kids Hindi| बच्चो की कहानियां |Sony YAY!",
            "url": "https://www.youtube.com/watch?v=-8A7HDdXRWI",
            "duration": 1297.0,
            "view_count": 3347510,
            "uploader": "Sony YAY!",
            "category": "cartoons/honey_bunny_ka_jholmaal",
            "thumbnail": "https://i.ytimg.com/vi/-8A7HDdXRWI/hq720.jpg"
        },
        {
            "id": "AsOmEPfLGu4",
            "title": "डॉन गरमचंद | Hunny Bunny Jholmaal Cartoons for kids Hindi | बच्चो की कहानियां | Sony YAY!",
            "url": "https://www.youtube.com/watch?v=AsOmEPfLGu4",
            "duration": 689.0,
            "view_count": 16612402,
            "uploader": "Sony YAY!",
            "category": "cartoons/honey_bunny_ka_jholmaal",
            "thumbnail": "https://i.ytimg.com/vi/AsOmEPfLGu4/hq720.jpg"
        },
        {
            "id": "Yn73KNn0t_g",
            "title": "हनी बना Rapper | Honey Bunny Ka Jholmaal | Funny videos for kids in Hindi | बच्चों की कहानियाँ",
            "url": "https://www.youtube.com/watch?v=Yn73KNn0t_g",
            "duration": 876.0,
            "view_count": 25685661,
            "uploader": "Sony YAY!",
            "category": "cartoons/honey_bunny_ka_jholmaal",
            "thumbnail": "https://i.ytimg.com/vi/Yn73KNn0t_g/hq720.jpg"
        },
        {
            "id": "Qm1UYMnL8Aw",
            "title": "काटकर की secret नौकरी I Hunny Bunny Jholmaal Cartoons for kids Hindi | बच्चो की कहानियां | Sony YAY!",
            "url": "https://www.youtube.com/watch?v=Qm1UYMnL8Aw",
            "duration": 650.0,
            "view_count": 124248,
            "uploader": "Sony YAY!",
            "category": "cartoons/honey_bunny_ka_jholmaal",
            "thumbnail": "https://i.ytimg.com/vi/Qm1UYMnL8Aw/hq720.jpg"
        },
        {
            "id": "YovQ-lCquH4",
            "title": "डर्ट रेस I Hunny Bunny Jholmaal Cartoons for kids Hindi | बच्चो की कहानियां | Sony YAY!",
            "url": "https://www.youtube.com/watch?v=YovQ-lCquH4",
            "duration": 698.0,
            "view_count": 3178398,
            "uploader": "Sony YAY!",
            "category": "cartoons/honey_bunny_ka_jholmaal",
            "thumbnail": "https://i.ytimg.com/vi/YovQ-lCquH4/hq720.jpg"
        },
        {
            "id": "gsfm-ky1peI",
            "title": "गुड़िया प्रसिद्ध कौन है? IHunny Bunny Jholmaal Cartoons for kids Hindi|बच्चो की कहानियां |Sony YAY!",
            "url": "https://www.youtube.com/watch?v=gsfm-ky1peI",
            "duration": 721.0,
            "view_count": 2154916,
            "uploader": "Sony YAY!",
            "category": "cartoons/honey_bunny_ka_jholmaal",
            "thumbnail": "https://i.ytimg.com/vi/gsfm-ky1peI/hq720.jpg"
        },
        {
            "id": "Ce6Tfk6VIDg",
            "title": "\"हनी Version 2.0 I Hunny Bunny Jholmaal Cartoons for kids Hindi|बच्चो की कहानियां |Sony YAY! \"",
            "url": "https://www.youtube.com/watch?v=Ce6Tfk6VIDg",
            "duration": 1688.0,
            "view_count": 3091964,
            "uploader": "Sony YAY!",
            "category": "cartoons/honey_bunny_ka_jholmaal",
            "thumbnail": "https://i.ytimg.com/vi/Ce6Tfk6VIDg/hq720.jpg"
        },
        {
            "id": "wz5wMjfijhA",
            "title": "स्वीटी खतरे में | Hunny Bunny Jholmaal Cartoons for kids Hindi | बच्चो की कहानियां | Sony YAY!",
            "url": "https://www.youtube.com/watch?v=wz5wMjfijhA",
            "duration": 709.0,
            "view_count": 100123,
            "uploader": "Sony YAY!",
            "category": "cartoons/honey_bunny_ka_jholmaal",
            "thumbnail": "https://i.ytimg.com/vi/wz5wMjfijhA/hq720.jpg"
        },
        {
            "id": "k5ohJp1uVZI",
            "title": "लाजवाब बावर्ची का खाना I Hunny Bunny Jholmaal Cartoons for kids Hindi |बच्चो की कहानियां | Sony YAY!",
            "url": "https://www.youtube.com/watch?v=k5ohJp1uVZI",
            "duration": 670.0,
            "view_count": 470236,
            "uploader": "Sony YAY!",
            "category": "cartoons/honey_bunny_ka_jholmaal",
            "thumbnail": "https://i.ytimg.com/vi/k5ohJp1uVZI/hq720.jpg"
        },
        {
            "id": "o1d9mvmP-P0",
            "title": "बड़े भैया हनी I Hunny Bunny Jholmaal Cartoons for kids Hindi | बच्चो की कहानियां | Sony YAY",
            "url": "https://www.youtube.com/watch?v=o1d9mvmP-P0",
            "duration": 664.0,
            "view_count": 450574,
            "uploader": "Sony YAY!",
            "category": "cartoons/honey_bunny_ka_jholmaal",
            "thumbnail": "https://i.ytimg.com/vi/o1d9mvmP-P0/hq720.jpg"
        },
        {
            "id": "nE-BazklQ0I",
            "title": "शरारती बन्नी I Hunny Bunny Jholmaal Cartoons for kids Hindi | बच्चो की कहानियां | Sony YAY",
            "url": "https://www.youtube.com/watch?v=nE-BazklQ0I",
            "duration": 717.0,
            "view_count": 175357,
            "uploader": "Sony YAY!",
            "category": "cartoons/honey_bunny_ka_jholmaal",
            "thumbnail": "https://i.ytimg.com/vi/nE-BazklQ0I/hq720.jpg"
        },
        {
            "id": "nOFLuOxYFFA",
            "title": "स्वीटी मुसीबत में I Hunny Bunny Jholmaal Cartoons for kids Hindi | बच्चो की कहानियां | Sony YAY",
            "url": "https://www.youtube.com/watch?v=nOFLuOxYFFA",
            "duration": 689.0,
            "view_count": 193863,
            "uploader": "Sony YAY!",
            "category": "cartoons/honey_bunny_ka_jholmaal",
            "thumbnail": "https://i.ytimg.com/vi/nOFLuOxYFFA/hq720.jpg"
        },
        {
            "id": "adGDE9mrWDM",
            "title": "लाजवाब बावर्ची का खाना I Hunny Bunny Jholmaal Cartoons for kids Hindi | बच्चो की कहानियां |Sony YAY!",
            "url": "https://www.youtube.com/watch?v=adGDE9mrWDM",
            "duration": 670.0,
            "view_count": 0,
            "uploader": "Sony YAY!",
            "category": "cartoons/honey_bunny_ka_jholmaal",
            "thumbnail": "https://i.ytimg.com/vi/adGDE9mrWDM/hq720.jpg"
        },
        {
            "id": "Ago5On25DUk",
            "title": "बड़े भैया हनी I Hunny Bunny Jholmaal Cartoons for kids Hindi | बच्चो की कहानियां | Sony YAY",
            "url": "https://www.youtube.com/watch?v=Ago5On25DUk",
            "duration": 663.0,
            "view_count": 446440,
            "uploader": "Sony YAY!",
            "category": "cartoons/honey_bunny_ka_jholmaal",
            "thumbnail": "https://i.ytimg.com/vi/Ago5On25DUk/hq720.jpg"
        },
        {
            "id": "ZGwvaDhOal4",
            "title": "A.I. शांताबाई की कहानी I Hunny Bunny Jholmaal Cartoons for kids Hindi |बच्चो की कहानियां |Sony YAY!",
            "url": "https://www.youtube.com/watch?v=ZGwvaDhOal4",
            "duration": 726.0,
            "view_count": 731356,
            "uploader": "Sony YAY!",
            "category": "cartoons/honey_bunny_ka_jholmaal",
            "thumbnail": "https://i.ytimg.com/vi/ZGwvaDhOal4/hq720.jpg"
        },
        {
            "id": "KfoUNffOBXQ",
            "title": "हनी बनी असली सुपरस्टार I Hunny Bunny Jholmaal Cartoons for kids Hindi| बच्चो की कहानियां |Sony YAY!",
            "url": "https://www.youtube.com/watch?v=KfoUNffOBXQ",
            "duration": 2756.0,
            "view_count": 2311798,
            "uploader": "Sony YAY!",
            "category": "cartoons/honey_bunny_ka_jholmaal",
            "thumbnail": "https://i.ytimg.com/vi/KfoUNffOBXQ/hq720.jpg"
        },
        {
            "id": "93ViVuHr-6o",
            "title": "CM के लिए पत्र I Hunny Bunny Jholmaal Cartoons for kids Hindi|बच्चो की कहानियां |Sony YAY!",
            "url": "https://www.youtube.com/watch?v=93ViVuHr-6o",
            "duration": 1351.0,
            "view_count": 1220412,
            "uploader": "Sony YAY!",
            "category": "cartoons/honey_bunny_ka_jholmaal",
            "thumbnail": "https://i.ytimg.com/vi/93ViVuHr-6o/hq720.jpg"
        },
        {
            "id": "bGJdZKOS5AE",
            "title": "हनी बनी बने करोड़पति I Hunny Bunny Jholmaal Cartoons for kids Hindi|बच्चो की कहानियां |Sony YAY!",
            "url": "https://www.youtube.com/watch?v=bGJdZKOS5AE",
            "duration": 2966.0,
            "view_count": 6328771,
            "uploader": "Sony YAY!",
            "category": "cartoons/honey_bunny_ka_jholmaal",
            "thumbnail": "https://i.ytimg.com/vi/bGJdZKOS5AE/hq720.jpg"
        },
        {
            "id": "E7t5PvbEpk0",
            "title": "खजाने की खोज में हनी बनी I Hunny Bunny Jholmaal Cartoons for kids Hindi|बच्चो की कहानियां |Sony YAY!",
            "url": "https://www.youtube.com/watch?v=E7t5PvbEpk0",
            "duration": 2654.0,
            "view_count": 1703675,
            "uploader": "Sony YAY!",
            "category": "cartoons/honey_bunny_ka_jholmaal",
            "thumbnail": "https://i.ytimg.com/vi/E7t5PvbEpk0/hq720.jpg"
        },
        {
            "id": "CH8Zug69lE4",
            "title": "हनी बनी और नकली परिवार I Hunny Bunny Jholmaal Cartoons for kids Hindi |बच्चो की कहानियां | Sony YAY!",
            "url": "https://www.youtube.com/watch?v=CH8Zug69lE4",
            "duration": 2790.0,
            "view_count": 3701980,
            "uploader": "Sony YAY!",
            "category": "cartoons/honey_bunny_ka_jholmaal",
            "thumbnail": "https://i.ytimg.com/vi/CH8Zug69lE4/hq720.jpg"
        },
        {
            "id": "THBfX4YXCVc",
            "title": "ऑनलाइन घोटालेबीज़ी और झोल I Hunny Bunny Jholmaal Cartoons for kids Hindi|बच्चो की कहानियां |Sony YAY!",
            "url": "https://www.youtube.com/watch?v=THBfX4YXCVc",
            "duration": 2870.0,
            "view_count": 2180397,
            "uploader": "Sony YAY!",
            "category": "cartoons/honey_bunny_ka_jholmaal",
            "thumbnail": "https://i.ytimg.com/vi/THBfX4YXCVc/hq720.jpg"
        },
        {
            "id": "R4WZmPEpNCA",
            "title": "मैराथन की दौड़ | Hunny Bunny Jholmaal Cartoons for kids Hindi | बच्चो की कहानियां | Sony YAY!",
            "url": "https://www.youtube.com/watch?v=R4WZmPEpNCA",
            "duration": 715.0,
            "view_count": 8669275,
            "uploader": "Sony YAY!",
            "category": "cartoons/honey_bunny_ka_jholmaal",
            "thumbnail": "https://i.ytimg.com/vi/R4WZmPEpNCA/hq720.jpg"
        },
        {
            "id": "17Lrh4g8vC0",
            "title": "Mountain Hero! I HunnyBunny Jholmaal Cartoons for kids Hindi | बच्चो की कहानियां | SonyYAY!",
            "url": "https://www.youtube.com/watch?v=17Lrh4g8vC0",
            "duration": 1418.0,
            "view_count": 4293144,
            "uploader": "Sony YAY!",
            "category": "cartoons/honey_bunny_ka_jholmaal",
            "thumbnail": "https://i.ytimg.com/vi/17Lrh4g8vC0/hq720.jpg"
        },
        {
            "id": "-ISA-EXAl2E",
            "title": "डॉन गरमचंद I Hunny Bunny Jholmaal Cartoons for kids Hindi|बच्चो की कहानियां |Sony YAY!",
            "url": "https://www.youtube.com/watch?v=-ISA-EXAl2E",
            "duration": 676.0,
            "view_count": 364605,
            "uploader": "Sony YAY!",
            "category": "cartoons/honey_bunny_ka_jholmaal",
            "thumbnail": "https://i.ytimg.com/vi/-ISA-EXAl2E/hq720.jpg"
        },
        {
            "id": "9R0dJRCQX24",
            "title": "മാരത്തൺ ഓട്ടം | Honey Bunny Ka Jholmaal | Full Episode In Malayalam | Videos For Kids",
            "url": "https://www.youtube.com/watch?v=9R0dJRCQX24",
            "duration": 715.0,
            "view_count": 914840,
            "uploader": "Sony YAY! Malayalam",
            "category": "cartoons/honey_bunny_ka_jholmaal",
            "thumbnail": "https://i.ytimg.com/vi/9R0dJRCQX24/hq720.jpg"
        },
        {
            "id": "AJljmvRsX6c",
            "title": "ड्रैकुला का आक्रमण | Honey Bunny Ka Jholmaal | Funny videos for kids in Hindi | बच्चों की कहानियाँ",
            "url": "https://www.youtube.com/watch?v=AJljmvRsX6c",
            "duration": 717.0,
            "view_count": 13145306,
            "uploader": "Sony YAY!",
            "category": "cartoons/honey_bunny_ka_jholmaal",
            "thumbnail": "https://i.ytimg.com/vi/AJljmvRsX6c/hq720.jpg"
        },
        {
            "id": "1BHbHgaO-aU",
            "title": "काटकर की Secret नौकरी I Hunny Bunny Jholmaal Cartoons for kids Hindi | बच्चो की कहानियां | Sony YAY!",
            "url": "https://www.youtube.com/watch?v=1BHbHgaO-aU",
            "duration": 660.0,
            "view_count": 153813,
            "uploader": "Sony YAY!",
            "category": "cartoons/honey_bunny_ka_jholmaal",
            "thumbnail": "https://i.ytimg.com/vi/1BHbHgaO-aU/hq720.jpg"
        },
        {
            "id": "nwuCI8UMwJM",
            "title": "तांत्रिक का जादू | Honey Bunny Best Scenes | Only on Sony YAY!",
            "url": "https://www.youtube.com/watch?v=nwuCI8UMwJM",
            "duration": 667.0,
            "view_count": 442403,
            "uploader": "Sony YAY!",
            "category": "cartoons/honey_bunny_ka_jholmaal",
            "thumbnail": "https://i.ytimg.com/vi/nwuCI8UMwJM/hq720.jpg"
        },
        {
            "id": "ilxwGPnx7bc",
            "title": "चटनी इंसान I Hunny Bunny Jholmaal Cartoons for kids Hindi | बच्चो की कहानियां | Sony YAY!",
            "url": "https://www.youtube.com/watch?v=ilxwGPnx7bc",
            "duration": 701.0,
            "view_count": 2300275,
            "uploader": "Sony YAY!",
            "category": "cartoons/honey_bunny_ka_jholmaal",
            "thumbnail": "https://i.ytimg.com/vi/ilxwGPnx7bc/hq720.jpg"
        },
        {
            "id": "7RCm1Q8aLyY",
            "title": "जेल में नहीं मेल I Hunny Bunny Jholmaal Cartoons for kids Hindi | बच्चो की कहानियां | Sony YAY",
            "url": "https://www.youtube.com/watch?v=7RCm1Q8aLyY",
            "duration": 682.0,
            "view_count": 571804,
            "uploader": "Sony YAY!",
            "category": "cartoons/honey_bunny_ka_jholmaal",
            "thumbnail": "https://i.ytimg.com/vi/7RCm1Q8aLyY/hq720.jpg"
        },
        {
            "id": "vfBDzyBbJaA",
            "title": "स्कूबा डाइविंग समुन्दर मैं दुकी | Honey Bunny Best Scenes | Only on Sony YAY!",
            "url": "https://www.youtube.com/watch?v=vfBDzyBbJaA",
            "duration": 691.0,
            "view_count": 909493,
            "uploader": "Sony YAY!",
            "category": "cartoons/honey_bunny_ka_jholmaal",
            "thumbnail": "https://i.ytimg.com/vi/vfBDzyBbJaA/hq720.jpg"
        },
        {
            "id": "Kcf-iO3wZAo",
            "title": "डूगी बनाम गेंडा | Hunny Bunny Jholmaal Cartoons for kids Hindi | बच्चो की कहानियां | Sony YAY!",
            "url": "https://www.youtube.com/watch?v=Kcf-iO3wZAo",
            "duration": 1411.0,
            "view_count": 7765145,
            "uploader": "Sony YAY!",
            "category": "cartoons/honey_bunny_ka_jholmaal",
            "thumbnail": "https://i.ytimg.com/vi/Kcf-iO3wZAo/hq720.jpg"
        },
        {
            "id": "EtdDi5OgBZ0",
            "title": "पाँच नहीं तो कुछ नहीं I Hunny Bunny Jholmaal Cartoons for kids Hindi | बच्चो की कहानियां | Sony YAY",
            "url": "https://www.youtube.com/watch?v=EtdDi5OgBZ0",
            "duration": 713.0,
            "view_count": 158610,
            "uploader": "Sony YAY!",
            "category": "cartoons/honey_bunny_ka_jholmaal",
            "thumbnail": "https://i.ytimg.com/vi/EtdDi5OgBZ0/hq720.jpg"
        },
        {
            "id": "wzIy8PxcA5g",
            "title": "खन्ना साहब को किया रेस्क्यू | Hunny Bunny Jholmaal Cartoons for kids | बच्चो की कहानियां |Sony YAY!",
            "url": "https://www.youtube.com/watch?v=wzIy8PxcA5g",
            "duration": 714.0,
            "view_count": 3142605,
            "uploader": "Sony YAY!",
            "category": "cartoons/honey_bunny_ka_jholmaal",
            "thumbnail": "https://i.ytimg.com/vi/wzIy8PxcA5g/hq720.jpg"
        },
        {
            "id": "532IsclnIw4",
            "title": "आवाज़ का रियाज़ | Hunny Bunny Jholmaal Cartoons for kids Hindi|बच्चो की कहानियां | Sony YAY!",
            "url": "https://www.youtube.com/watch?v=532IsclnIw4",
            "duration": 726.0,
            "view_count": 1541588,
            "uploader": "Sony YAY!",
            "category": "cartoons/honey_bunny_ka_jholmaal",
            "thumbnail": "https://i.ytimg.com/vi/532IsclnIw4/hq720.jpg"
        },
        {
            "id": "1gGdUqZBpgw",
            "title": "टेडी बियर और भलो का किस्सा IHunny Bunny Jholmaal Cartoons for kids Hindi|बच्चो की कहानियां|Sony YAY!",
            "url": "https://www.youtube.com/watch?v=1gGdUqZBpgw",
            "duration": 1583.0,
            "view_count": 3349410,
            "uploader": "Sony YAY!",
            "category": "cartoons/honey_bunny_ka_jholmaal",
            "thumbnail": "https://i.ytimg.com/vi/1gGdUqZBpgw/hq720.jpg"
        },
        {
            "id": "S5DslkB-Quk",
            "title": "चॉकलेट चोर | Hunny Bunny Jholmaal Cartoons for kids Hindi | बच्चो की कहानियां | Sony YAY!",
            "url": "https://www.youtube.com/watch?v=S5DslkB-Quk",
            "duration": 1429.0,
            "view_count": 1631565,
            "uploader": "Sony YAY!",
            "category": "cartoons/honey_bunny_ka_jholmaal",
            "thumbnail": "https://i.ytimg.com/vi/S5DslkB-Quk/hq720.jpg"
        },
        {
            "id": "PqbvlS2G7uw",
            "title": "बिग भाई सीज़न का समापन I Hunny Bunny Jholmaal Cartoons for kids Hindi|बच्चो की कहानियां |Sony YAY!",
            "url": "https://www.youtube.com/watch?v=PqbvlS2G7uw",
            "duration": 1389.0,
            "view_count": 5133512,
            "uploader": "Sony YAY!",
            "category": "cartoons/honey_bunny_ka_jholmaal",
            "thumbnail": "https://i.ytimg.com/vi/PqbvlS2G7uw/hq720.jpg"
        },
        {
            "id": "jy6WRrGK5rg",
            "title": "नंदू नमक हलाल की कहानी  I Hunny Bunny Jholmaal Cartoons for kids Hindi|बच्चो की कहानियां |Sony YAY!",
            "url": "https://www.youtube.com/watch?v=jy6WRrGK5rg",
            "duration": 1282.0,
            "view_count": 2361728,
            "uploader": "Sony YAY!",
            "category": "cartoons/honey_bunny_ka_jholmaal",
            "thumbnail": "https://i.ytimg.com/vi/jy6WRrGK5rg/hq720.jpg"
        },
        {
            "id": "fCuGZu_sFiU",
            "title": "पोपट्स मम्मी पापा की कहानी | Honey Bunny Best Scenes | Only on Sony YAY!",
            "url": "https://www.youtube.com/watch?v=fCuGZu_sFiU",
            "duration": 639.0,
            "view_count": 2038392,
            "uploader": "Sony YAY!",
            "category": "cartoons/honey_bunny_ka_jholmaal",
            "thumbnail": "https://i.ytimg.com/vi/fCuGZu_sFiU/hq720.jpg"
        },
        {
            "id": "6opn_J1nbOg",
            "title": "हनी टॉप गियर्स में फुल पावरIHunny Bunny Jholmaal Cartoons for kids Hindi|बच्चो की कहानियां|Sony YAY!",
            "url": "https://www.youtube.com/watch?v=6opn_J1nbOg",
            "duration": 1572.0,
            "view_count": 1728660,
            "uploader": "Sony YAY!",
            "category": "cartoons/honey_bunny_ka_jholmaal",
            "thumbnail": "https://i.ytimg.com/vi/6opn_J1nbOg/hq720.jpg"
        },
        {
            "id": "N8Gx-LeAor4",
            "title": "सनी द डेयरडेविल I Hunny Bunny Jholmaal Cartoons for kids Hindi|बच्चो की कहानियां |Sony YAY!",
            "url": "https://www.youtube.com/watch?v=N8Gx-LeAor4",
            "duration": 1478.0,
            "view_count": 4225132,
            "uploader": "Sony YAY!",
            "category": "cartoons/honey_bunny_ka_jholmaal",
            "thumbnail": "https://i.ytimg.com/vi/N8Gx-LeAor4/hq720.jpg"
        }
    ]
}