{
    "page": 98,
    "total_pages": 103,
    "total_items": 5125,
    "items": [
        {
            "id": "uXxikS1hgdk",
            "title": "Tom and Jerry 😺🐭| Mischief with Jack in the Box 📦| Compilation | Cartoon for kids | @cnindia",
            "url": "https://www.youtube.com/watch?v=uXxikS1hgdk",
            "duration": 3785.0,
            "view_count": 2339692,
            "uploader": "Cartoon Network India",
            "category": "cartoons/tom_and_jerry",
            "thumbnail": "https://i.ytimg.com/vi/uXxikS1hgdk/hq720.jpg"
        },
        {
            "id": "x5Hwk_MeZho",
            "title": "Tom and Jerry 😺🐭| Tom’s Worst Day? Every Day!😆| Best Animations😆| @cnindia​",
            "url": "https://www.youtube.com/watch?v=x5Hwk_MeZho",
            "duration": 5115.0,
            "view_count": 1411800,
            "uploader": "Cartoon Network India",
            "category": "cartoons/tom_and_jerry",
            "thumbnail": "https://i.ytimg.com/vi/x5Hwk_MeZho/hq720.jpg"
        },
        {
            "id": "uaEQYtaJol4",
            "title": "Tom and Jerry | Mega Compilation | Vol. 2 | Warner Classics",
            "url": "https://www.youtube.com/watch?v=uaEQYtaJol4",
            "duration": 2917.0,
            "view_count": 9345125,
            "uploader": "Warner Bros. Classics",
            "category": "cartoons/tom_and_jerry",
            "thumbnail": "https://i.ytimg.com/vi/uaEQYtaJol4/hq720.jpg"
        },
        {
            "id": "AGBjI0x9VbM",
            "title": "Tom & Jerry | Best of Little Quacker | Classic Cartoon Compilation | WB Kids",
            "url": "https://www.youtube.com/watch?v=AGBjI0x9VbM",
            "duration": 1559.0,
            "view_count": 763546180,
            "uploader": "WB Kids",
            "category": "cartoons/tom_and_jerry",
            "thumbnail": "https://i.ytimg.com/vi/AGBjI0x9VbM/hq720.jpg"
        },
        {
            "id": "8OdMRdcIeII",
            "title": "Tom and Jerry | Mega Episode: Golden Era Vol. 5 | Warner Classics",
            "url": "https://www.youtube.com/watch?v=8OdMRdcIeII",
            "duration": 2994.0,
            "view_count": 10645371,
            "uploader": "Warner Bros. Classics",
            "category": "cartoons/tom_and_jerry",
            "thumbnail": "https://i.ytimg.com/vi/8OdMRdcIeII/hq720.jpg"
        },
        {
            "id": "0MtBg1bpMc0",
            "title": "Tom and Jerry 😺🐭| The Great Cat & Mouse Saga! 🐱🐭 | Compilation | Cartoon for Kids | @cnindia",
            "url": "https://www.youtube.com/watch?v=0MtBg1bpMc0",
            "duration": 3725.0,
            "view_count": 1946253,
            "uploader": "Cartoon Network India",
            "category": "cartoons/tom_and_jerry",
            "thumbnail": "https://i.ytimg.com/vi/0MtBg1bpMc0/hq720.jpg"
        },
        {
            "id": "JmUnQiJ4jAU",
            "title": "Tom and Jerry 😺🐭| Cat & Mouse’s Winter Mayhem! 🎿❄️| Cat and Mouse  | Compilation | @cnindia",
            "url": "https://www.youtube.com/watch?v=JmUnQiJ4jAU",
            "duration": 3549.0,
            "view_count": 2472490,
            "uploader": "Cartoon Network India",
            "category": "cartoons/tom_and_jerry",
            "thumbnail": "https://i.ytimg.com/vi/JmUnQiJ4jAU/hq720.jpg"
        },
        {
            "id": "Ph7iu3xlpFY",
            "title": "Tom and Jerry | Mega Episode: Golden Era Vol. 1 | Warner Classics",
            "url": "https://www.youtube.com/watch?v=Ph7iu3xlpFY",
            "duration": 3348.0,
            "view_count": 6200627,
            "uploader": "Warner Bros. Classics and Warner Bros. Entertainment",
            "category": "cartoons/tom_and_jerry",
            "thumbnail": "https://i.ytimg.com/vi/Ph7iu3xlpFY/hq720.jpg"
        },
        {
            "id": "hQBo1-Uuk3o",
            "title": "Tom and Jerry 😺🐭| Protecting Quacker at All Costs! 😍| Classic Cartoon😆| Cat & The Mouse | @cnindia​",
            "url": "https://www.youtube.com/watch?v=hQBo1-Uuk3o",
            "duration": 5055.0,
            "view_count": 280256,
            "uploader": "Cartoon Network India",
            "category": "cartoons/tom_and_jerry",
            "thumbnail": "https://i.ytimg.com/vi/hQBo1-Uuk3o/hq720.jpg"
        },
        {
            "id": "sHDr5iTf9jQ",
            "title": "Tom and Jerry | Mega Compilation | Vol. 13 | Warner Classics",
            "url": "https://www.youtube.com/watch?v=sHDr5iTf9jQ",
            "duration": 2838.0,
            "view_count": 6449393,
            "uploader": "Warner Bros. Classics",
            "category": "cartoons/tom_and_jerry",
            "thumbnail": "https://i.ytimg.com/vi/sHDr5iTf9jQ/hq720.jpg"
        },
        {
            "id": "i3zsFgUhh14",
            "title": "Tom and Jerry 😺🐭| Ultimate Prank Battle! | Cat and Mouse 😍| Funny Cartoon ✨| @cnindia",
            "url": "https://www.youtube.com/watch?v=i3zsFgUhh14",
            "duration": 3706.0,
            "view_count": 23606220,
            "uploader": "Cartoon Network India",
            "category": "cartoons/tom_and_jerry",
            "thumbnail": "https://i.ytimg.com/vi/i3zsFgUhh14/hq720.jpg"
        },
        {
            "id": "wczq7l5VHOg",
            "title": "टॉम एंड जेरी हिंदी में 🇮🇳 | बेस्ट ऑफ जेरी वैन माउसलिंग | संग्रह | WB Kids",
            "url": "https://www.youtube.com/watch?v=wczq7l5VHOg",
            "duration": 1179.0,
            "view_count": 1260135,
            "uploader": "WB Kids International",
            "category": "cartoons/tom_and_jerry",
            "thumbnail": "https://i.ytimg.com/vi/wczq7l5VHOg/hq720.jpg"
        },
        {
            "id": "SIj3_293ZYY",
            "title": "Tom and Jerry 🐭😺| The Great Milky Heist! 🐭😜| Compilation | Cartoon for Kids | @cnindia",
            "url": "https://www.youtube.com/watch?v=SIj3_293ZYY",
            "duration": 3578.0,
            "view_count": 13965990,
            "uploader": "Cartoon Network India",
            "category": "cartoons/tom_and_jerry",
            "thumbnail": "https://i.ytimg.com/vi/SIj3_293ZYY/hq720.jpg"
        },
        {
            "id": "tKIBAWGfUno",
            "title": "टॉम एंड जेरी हिंदी में 🇮🇳 | ये आई सर्दी! ☃️ | WB Kids",
            "url": "https://www.youtube.com/watch?v=tKIBAWGfUno",
            "duration": 1043.0,
            "view_count": 1192218,
            "uploader": "WB Kids International",
            "category": "cartoons/tom_and_jerry",
            "thumbnail": "https://i.ytimg.com/vi/tKIBAWGfUno/hq720.jpg"
        },
        {
            "id": "e1vDzOMmv3U",
            "title": "Awesome TOM and JERRY Moments | 1 Hour of Funny Episodes | Tom & Jerry in NY | @BoomerangUK",
            "url": "https://www.youtube.com/watch?v=e1vDzOMmv3U",
            "duration": 3897.0,
            "view_count": 3030179,
            "uploader": "Boomerang UK",
            "category": "cartoons/tom_and_jerry",
            "thumbnail": "https://i.ytimg.com/vi/e1vDzOMmv3U/hq720.jpg"
        },
        {
            "id": "3YHO81QWQmU",
            "title": "Tom and Jerry Singapore Full Episodes | Cartoon Network Asia | @wbkids​",
            "url": "https://www.youtube.com/watch?v=3YHO81QWQmU",
            "duration": 1451.0,
            "view_count": 88269573,
            "uploader": "WB Kids",
            "category": "cartoons/tom_and_jerry",
            "thumbnail": "https://i.ytimg.com/vi/3YHO81QWQmU/hq720.jpg"
        },
        {
            "id": "ONy9OXyj3aE",
            "title": "Tom and Jerry | Mega Episode: Golden Era Vol. 6 | Warner Classics",
            "url": "https://www.youtube.com/watch?v=ONy9OXyj3aE",
            "duration": 3197.0,
            "view_count": 6376980,
            "uploader": "Warner Bros. Classics",
            "category": "cartoons/tom_and_jerry",
            "thumbnail": "https://i.ytimg.com/vi/ONy9OXyj3aE/hq720.jpg"
        },
        {
            "id": "9fYNWfw1OcQ",
            "title": "Tom and Jerry | Mega Compilation | Vol. 5 | Warner Classics",
            "url": "https://www.youtube.com/watch?v=9fYNWfw1OcQ",
            "duration": 2463.0,
            "view_count": 16059661,
            "uploader": "Warner Bros. Classics",
            "category": "cartoons/tom_and_jerry",
            "thumbnail": "https://i.ytimg.com/vi/9fYNWfw1OcQ/hq720.jpg"
        },
        {
            "id": "rilFfbm7j8k",
            "title": "Tom & Jerry | Triple Trouble | Classic Cartoon Compilation | WB Kids",
            "url": "https://www.youtube.com/watch?v=rilFfbm7j8k",
            "duration": 1189.0,
            "view_count": 276342850,
            "uploader": "WB Kids",
            "category": "cartoons/tom_and_jerry",
            "thumbnail": "https://i.ytimg.com/vi/rilFfbm7j8k/hq720.jpg"
        },
        {
            "id": "SRX_qZGeXGE",
            "title": "Tom and Jerry 😺🐭| International Cat Day 😺| The OG Chaotic Besties!😆| Cat and the Mouse | @cnindia ​",
            "url": "https://www.youtube.com/watch?v=SRX_qZGeXGE",
            "duration": 5413.0,
            "view_count": 2922712,
            "uploader": "Cartoon Network India",
            "category": "cartoons/tom_and_jerry",
            "thumbnail": "https://i.ytimg.com/vi/SRX_qZGeXGE/hq720.jpg"
        },
        {
            "id": "3HxXuYSK-K4",
            "title": "Tom & Jerry | Spooky Silly Moments! 🦇👻 | Halloween | Classic Cartoon Compilation | @wbkids",
            "url": "https://www.youtube.com/watch?v=3HxXuYSK-K4",
            "duration": 1378.0,
            "view_count": 9876710,
            "uploader": "WB Kids",
            "category": "cartoons/tom_and_jerry",
            "thumbnail": "https://i.ytimg.com/vi/3HxXuYSK-K4/hq720.jpg"
        },
        {
            "id": "h4T2mt0p8LY",
            "title": "टॉम एंड जेरी हिंदी में 🇮🇳 | टॉम और जेरी घर पर | WB Kids",
            "url": "https://www.youtube.com/watch?v=h4T2mt0p8LY",
            "duration": 1037.0,
            "view_count": 2093540,
            "uploader": "WB Kids International",
            "category": "cartoons/tom_and_jerry",
            "thumbnail": "https://i.ytimg.com/vi/h4T2mt0p8LY/hq720.jpg"
        },
        {
            "id": "saBdzII5MB4",
            "title": "Tom & Jerry 😺🐭| Has Tom Finally Given Up? 😮| Compilation | Cat and Mouse | Funny Cartoon  | @cnindia",
            "url": "https://www.youtube.com/watch?v=saBdzII5MB4",
            "duration": 3743.0,
            "view_count": 8281282,
            "uploader": "Cartoon Network India",
            "category": "cartoons/tom_and_jerry",
            "thumbnail": "https://i.ytimg.com/vi/saBdzII5MB4/hq720.jpg"
        },
        {
            "id": "1AYl99d1O1k",
            "title": "Tom & Jerry 🐭😺| The Great Stache Showdown😍| Best Cartoon😆| Cat and The Mouse | @cnindia",
            "url": "https://www.youtube.com/watch?v=1AYl99d1O1k",
            "duration": 1714.0,
            "view_count": 2782819,
            "uploader": "Cartoon Network India",
            "category": "cartoons/tom_and_jerry",
            "thumbnail": "https://i.ytimg.com/vi/1AYl99d1O1k/hq720.jpg"
        },
        {
            "id": "GBlDgM6dCDU",
            "title": "Tom and Jerry 😺🐭| Frenemies Forever😍| Cartoon for Kids 😆| Cat & The Mouse | @cnindia",
            "url": "https://www.youtube.com/watch?v=GBlDgM6dCDU",
            "duration": 5092.0,
            "view_count": 5371348,
            "uploader": "Cartoon Network India",
            "category": "cartoons/tom_and_jerry",
            "thumbnail": "https://i.ytimg.com/vi/GBlDgM6dCDU/hq720.jpg"
        },
        {
            "id": "y4qTHiD3g7I",
            "title": "Tom and Jerry 😺🐭| When Tom & Jerry Take It Easy... 🛋️| Kids Cartoon 😍| Cat and The Mouse | @cnindia",
            "url": "https://www.youtube.com/watch?v=y4qTHiD3g7I",
            "duration": 3639.0,
            "view_count": 6162633,
            "uploader": "Cartoon Network India",
            "category": "cartoons/tom_and_jerry",
            "thumbnail": "https://i.ytimg.com/vi/y4qTHiD3g7I/hq720.jpg"
        },
        {
            "id": "YgDH-GhhqWU",
            "title": "Tom and Jerry | Mega Episode: Golden Era Vol. 10 | Warner Classics",
            "url": "https://www.youtube.com/watch?v=YgDH-GhhqWU",
            "duration": 3650.0,
            "view_count": 3596645,
            "uploader": "Warner Bros. Classics",
            "category": "cartoons/tom_and_jerry",
            "thumbnail": "https://i.ytimg.com/vi/YgDH-GhhqWU/hq720.jpg"
        },
        {
            "id": "X1tNoqx05Ok",
            "title": "Mythical Tales of ADVENTURE! 🦄🐉 | Tom & Jerry | #KidsCartoons @wbkids",
            "url": "https://www.youtube.com/watch?v=X1tNoqx05Ok",
            "duration": 3164.0,
            "view_count": 3897835,
            "uploader": "WB Kids",
            "category": "cartoons/tom_and_jerry",
            "thumbnail": "https://i.ytimg.com/vi/X1tNoqx05Ok/hq720.jpg"
        },
        {
            "id": "H_DfDbdgHXI",
            "title": "Tom and Jerry 😺🐭| The Purr-fect Rivalry!😍| Best Animations😆| Cat and Mouse  @cnindia​",
            "url": "https://www.youtube.com/watch?v=H_DfDbdgHXI",
            "duration": 5497.0,
            "view_count": 1827903,
            "uploader": "Cartoon Network India",
            "category": "cartoons/tom_and_jerry",
            "thumbnail": "https://i.ytimg.com/vi/H_DfDbdgHXI/hq720.jpg"
        },
        {
            "id": "qcU2Gk2diDY",
            "title": "16 March 2026 | Doreamon In Hindi | Doremoan Movie New Episode ",
            "url": "https://www.youtube.com/watch?v=qcU2Gk2diDY",
            "duration": 3653.0,
            "view_count": 582,
            "uploader": "Pratapgarh viral boy",
            "category": "cartoons/various_cartoons",
            "thumbnail": "https://i.ytimg.com/vi/qcU2Gk2diDY/hqdefault.jpg"
        },
        {
            "id": "M6gWY5lS9KU",
            "title": "A Monster?! 😱 | Jungle Beat: Munki & Trunk | Full Episodes | Kids Cartoon 2024",
            "url": "https://www.youtube.com/watch?v=M6gWY5lS9KU",
            "duration": 4986.0,
            "view_count": 17088774,
            "uploader": "Jungle Beat",
            "category": "cartoons",
            "thumbnail": "https://i.ytimg.com/vi/M6gWY5lS9KU/hq720.jpg?sqp=-oaymwEcCNAFEJQDSFXyq4qpAw4IARUAAIhCGAFwAcABBg==&rs=AOn4CLCgUteb7wKD2Kvrmy9UT3rqUyeUoQ",
            "added_date": "2026-04-16T07:31:52.496929Z",
            "source": "youtube"
        },
        {
            "id": "UkTwI2IdsHc",
            "title": "Bas Karo Henry की मस्ती | बच्चों के लिए कार्टून | पूरा एपिसोड",
            "url": "https://www.youtube.com/watch?v=UkTwI2IdsHc",
            "duration": 2691.0,
            "view_count": 1421935,
            "uploader": "Bas Karo Henry",
            "category": "cartoons/various_cartoons",
            "thumbnail": "https://i.ytimg.com/vi/UkTwI2IdsHc/hq720.jpg"
        },
        {
            "id": "HHG5u3pD8Dc",
            "title": "Johnny Test In Hindi (HD) | 1 Hour Marathon: Full Episodes Compilation | Cartoon Network India 💛🔰💚",
            "url": "https://www.youtube.com/watch?v=HHG5u3pD8Dc",
            "duration": 3750.0,
            "view_count": 1159230,
            "uploader": "PFR",
            "category": "cartoons/various_cartoons",
            "thumbnail": "https://i.ytimg.com/vi/HHG5u3pD8Dc/hq720.jpg"
        },
        {
            "id": "_HviSyC7zSU",
            "title": "🔴 LIVE! Phineas and Ferb Season 1 Full Episodes! | @disneychannelanimation  ​",
            "url": "https://www.youtube.com/watch?v=_HviSyC7zSU",
            "duration": 0,
            "view_count": 0,
            "uploader": "Disney Channel Animation",
            "category": "cartoons/various_cartoons",
            "thumbnail": "https://i.ytimg.com/vi/_HviSyC7zSU/hq720.jpg"
        },
        {
            "id": "p4JJgp4Oxqc",
            "title": "Pishachini - पिशाचिनी | All Episodes | Hindi Horror Stories |‪@skulltalesofficial‬",
            "url": "https://www.youtube.com/watch?v=p4JJgp4Oxqc",
            "duration": 3715.0,
            "view_count": 1226966,
            "uploader": "Skull Tales",
            "category": "cartoons/various_cartoons",
            "thumbnail": "https://i.ytimg.com/vi/p4JJgp4Oxqc/hq720.jpg"
        },
        {
            "id": "ZDwJDla4Bfg",
            "title": "Richie rich cartoon 3 episodes in Hindi & urdu (by pogo).",
            "url": "https://www.youtube.com/watch?v=ZDwJDla4Bfg",
            "duration": 2661.0,
            "view_count": 67113,
            "uploader": "sehgals world",
            "category": "cartoons/various_cartoons",
            "thumbnail": "https://i.ytimg.com/vi/ZDwJDla4Bfg/hqdefault.jpg"
        },
        {
            "id": "3oQeng2v6ik",
            "title": "हिन्दी The Daltons | HOW EVERYTHING STARTED 🌵 1H EPISODES 🌵 Hindi Cartoons for Kids",
            "url": "https://www.youtube.com/watch?v=3oQeng2v6ik",
            "duration": 3935.0,
            "view_count": 9086115,
            "uploader": "The Daltons Hindi - हिन्दी",
            "category": "cartoons/various_cartoons",
            "thumbnail": "https://i.ytimg.com/vi/3oQeng2v6ik/hq720.jpg"
        },
        {
            "id": "MtAz8GnhfSo",
            "title": "हिन्दी The Daltons | DANGEROUS GAME | THE BEST EPISODES OF 2019! Hindi Cartoons for Kids 2019",
            "url": "https://www.youtube.com/watch?v=MtAz8GnhfSo",
            "duration": 8766.0,
            "view_count": 5624098,
            "uploader": "The Daltons Hindi - हिन्दी",
            "category": "cartoons/various_cartoons",
            "thumbnail": "https://i.ytimg.com/vi/MtAz8GnhfSo/hq720.jpg"
        },
        {
            "id": "JQmx8t2Ijtk",
            "title": "The Land Before Time Full Episodes | Stranger from the Mysterious Above 117 | HD | Cartoon for Kids",
            "url": "https://www.youtube.com/watch?v=JQmx8t2Ijtk",
            "duration": 4080.0,
            "view_count": 18292619,
            "uploader": "The Land Before Time",
            "category": "cartoons/various_cartoons",
            "thumbnail": "https://i.ytimg.com/vi/JQmx8t2Ijtk/hq720.jpg"
        },
        {
            "id": "ZgnCiZhOXoM",
            "title": "The Vault! | (Mr Bean Cartoon) | Mr Bean Full Episodes | Mr Bean Comedy",
            "url": "https://www.youtube.com/watch?v=ZgnCiZhOXoM",
            "duration": 3318.0,
            "view_count": 13286128,
            "uploader": "Mr Bean",
            "category": "cartoons/various_cartoons",
            "thumbnail": "https://i.ytimg.com/vi/ZgnCiZhOXoM/hq720.jpg"
        },
        {
            "id": "GI8n08_lWS8",
            "title": " 🔥 Tokyo Revengers Season 1 Complete Series Hindi Dub | Full Episodes in HD",
            "url": "https://www.youtube.com/watch?v=GI8n08_lWS8",
            "duration": 33971.0,
            "view_count": 745578,
            "uploader": "Rajeswori das",
            "category": "cartoons/various_cartoons",
            "thumbnail": "https://i.ytimg.com/vi/GI8n08_lWS8/hqdefault.jpg"
        },
        {
            "id": "ldouKXyJQZM",
            "title": "OGGY'S NEW HOME 😱 Oggy and the Cockroaches  - Full Episodes HD",
            "url": "https://www.youtube.com/watch?v=ldouKXyJQZM",
            "duration": 3684.0,
            "view_count": 4901417,
            "uploader": "Oggy & his friends",
            "category": "cartoons/various_cartoons",
            "thumbnail": "https://i.ytimg.com/vi/ldouKXyJQZM/hq720.jpg"
        },
        {
            "id": "bppulSQPyzw",
            "title": "Shaun the Sheep 🐑 Full Episodes 🍨 Food & Giant Sheep 🍅 Cartoons for Kids",
            "url": "https://www.youtube.com/watch?v=bppulSQPyzw",
            "duration": 4338.0,
            "view_count": 63002933,
            "uploader": "Shaun the Sheep Official",
            "category": "cartoons/various_cartoons",
            "thumbnail": "https://i.ytimg.com/vi/bppulSQPyzw/hq720.jpg"
        },
        {
            "id": "ajedrvlTeEo",
            "title": "Vrindavan Mein Non-Stop Masti!🦚😄| Little Krishna🪈| Hindi Cartoon Stories😍| @PogoChannel​",
            "url": "https://www.youtube.com/watch?v=ajedrvlTeEo",
            "duration": 3610.0,
            "view_count": 13755,
            "uploader": "Pogo",
            "category": "cartoons/various_cartoons",
            "thumbnail": "https://i.ytimg.com/vi/ajedrvlTeEo/hq720.jpg"
        },
        {
            "id": "1Q0f5COK-NE",
            "title": "Vir The Robot Boy | Hindi Cartoon For Kids | ViR ka sapna | Animated Series| Wow Kidz",
            "url": "https://www.youtube.com/watch?v=1Q0f5COK-NE",
            "duration": 675.0,
            "view_count": 43582839,
            "uploader": "WowKidz",
            "category": "cartoons/vir_the_robot_boy",
            "thumbnail": "https://i.ytimg.com/vi/1Q0f5COK-NE/hq720.jpg"
        },
        {
            "id": "l2CzFkGOmBE",
            "title": "Mahayoddha Vir - Full Movie | Vir : The Robot Boy in Hindi | Wow Kidz Movies",
            "url": "https://www.youtube.com/watch?v=l2CzFkGOmBE",
            "duration": 2715.0,
            "view_count": 23434868,
            "uploader": "Wow Kidz Movie",
            "category": "cartoons/vir_the_robot_boy",
            "thumbnail": "https://i.ytimg.com/vi/l2CzFkGOmBE/hq720.jpg"
        },
        {
            "id": "352rNB1y9lE",
            "title": "कैसे पोहोछा Vir Dadaji के Dimag मैं? | Best Of Vir | 75 |Hindi Kahani | Wow Kidz Action | #spot",
            "url": "https://www.youtube.com/watch?v=352rNB1y9lE",
            "duration": 1337.0,
            "view_count": 31089882,
            "uploader": "Wow Kidz Action",
            "category": "cartoons/vir_the_robot_boy",
            "thumbnail": "https://i.ytimg.com/vi/352rNB1y9lE/hq720.jpg"
        },
        {
            "id": "qJr58EXss90",
            "title": "Vir और Imli का सुपर Dance Performace! | 40 | Hindi Kahani |Wow Kidz Action Dance Competition | #spot",
            "url": "https://www.youtube.com/watch?v=qJr58EXss90",
            "duration": 1343.0,
            "view_count": 8407058,
            "uploader": "Wow Kidz Action",
            "category": "cartoons/vir_the_robot_boy",
            "thumbnail": "https://i.ytimg.com/vi/qJr58EXss90/hq720.jpg"
        },
        {
            "id": "eZIRwMoxz0I",
            "title": "Vir The Robot Boy New Compilation | 08 | Hindi Kahani | Wow Kidz Action | #spot",
            "url": "https://www.youtube.com/watch?v=eZIRwMoxz0I",
            "duration": 1318.0,
            "view_count": 16767373,
            "uploader": "Wow Kidz Action",
            "category": "cartoons/vir_the_robot_boy",
            "thumbnail": "https://i.ytimg.com/vi/eZIRwMoxz0I/hq720.jpg"
        },
        {
            "id": "nXQpxGE_3IA",
            "title": "Vir Vs Robot  | Vir: The Robot Boy | 132 | Hindi Cartoons For Kids| WowKidz Action #animation",
            "url": "https://www.youtube.com/watch?v=nXQpxGE_3IA",
            "duration": 1224.0,
            "view_count": 4016962,
            "uploader": "Wow Kidz Action",
            "category": "cartoons/vir_the_robot_boy",
            "thumbnail": "https://i.ytimg.com/vi/nXQpxGE_3IA/hq720.jpg"
        }
    ]
}