{
    "page": 64,
    "total_pages": 103,
    "total_items": 5125,
    "items": [
        {
            "id": "xJVuLJQw0pc",
            "title": "Guru Aur Bhole In Alien Busters I Guru Bhole New Hindi Movie I Kids Galaxy",
            "url": "https://www.youtube.com/watch?v=xJVuLJQw0pc",
            "duration": 4443.0,
            "view_count": 783888,
            "uploader": "Kids Galaxy",
            "category": "cartoons/guru_aur_bhole",
            "thumbnail": "https://i.ytimg.com/vi/xJVuLJQw0pc/hq720.jpg"
        },
        {
            "id": "T7cP-DeuwmA",
            "title": "अच्छा समय बुरा समय | Moral Stories for Children in Hindi | बच्चों की कहानियाँ | Cartoon for kids",
            "url": "https://www.youtube.com/watch?v=T7cP-DeuwmA",
            "duration": 1271.0,
            "view_count": 1081475,
            "uploader": "YAY! Time With Guru Bhole",
            "category": "cartoons/guru_aur_bhole",
            "thumbnail": "https://i.ytimg.com/vi/T7cP-DeuwmA/hq720.jpg"
        },
        {
            "id": "T8l4IwVPfGc",
            "title": "Guru Aur Bhole In Bermuda Triangle I Guru Bhole New Hindi Movie I Kids Galaxy",
            "url": "https://www.youtube.com/watch?v=T8l4IwVPfGc",
            "duration": 4756.0,
            "view_count": 249922,
            "uploader": "Kids Galaxy",
            "category": "cartoons/guru_aur_bhole",
            "thumbnail": "https://i.ytimg.com/vi/T8l4IwVPfGc/hq720.jpg"
        },
        {
            "id": "0hi_sWPg4Q0",
            "title": "Guru Aur Bhole In Magic Kingdom | Guru Bhole Full Movie Hindi | Kids Cartoon |Moral Stories For Kids",
            "url": "https://www.youtube.com/watch?v=0hi_sWPg4Q0",
            "duration": 3973.0,
            "view_count": 62376,
            "uploader": "Chillar Party",
            "category": "cartoons/guru_aur_bhole",
            "thumbnail": "https://i.ytimg.com/vi/0hi_sWPg4Q0/hq720.jpg"
        },
        {
            "id": "kcE0qKhMEtM",
            "title": "पहाड़ की चढाई का किस्सा | Moral Stories for Children in Hindi | बच्चों की कहानियाँ | Cartoon for kids",
            "url": "https://www.youtube.com/watch?v=kcE0qKhMEtM",
            "duration": 1333.0,
            "view_count": 215962,
            "uploader": "YAY! Time With Guru Bhole",
            "category": "cartoons/guru_aur_bhole",
            "thumbnail": "https://i.ytimg.com/vi/kcE0qKhMEtM/hq720.jpg"
        },
        {
            "id": "t-Uq3J5_5oM",
            "title": "भोले बना पटाखा | Moral Stories for Children in Hindi | बच्चों की कहानियाँ | Cartoon for kids",
            "url": "https://www.youtube.com/watch?v=t-Uq3J5_5oM",
            "duration": 2259.0,
            "view_count": 7302818,
            "uploader": "YAY! Time With Guru Bhole",
            "category": "cartoons/guru_aur_bhole",
            "thumbnail": "https://i.ytimg.com/vi/t-Uq3J5_5oM/hq720.jpg"
        },
        {
            "id": "URqc_dSoOb8",
            "title": "Bhole बना Batman | Guru Aur Bhole | Cartoon For Kids In Hindi | Moral Stories",
            "url": "https://www.youtube.com/watch?v=URqc_dSoOb8",
            "duration": 659.0,
            "view_count": 374623,
            "uploader": "Cartoon Dekho",
            "category": "cartoons/guru_aur_bhole",
            "thumbnail": "https://i.ytimg.com/vi/URqc_dSoOb8/hq720.jpg"
        },
        {
            "id": "AZMnqdqpjvs",
            "title": "जादुई टीवी रिमोट | Guru Aur Bhole | Hindi Moral Stories | Cartoon For Kids",
            "url": "https://www.youtube.com/watch?v=AZMnqdqpjvs",
            "duration": 1203.0,
            "view_count": 269799,
            "uploader": "Chillar Party",
            "category": "cartoons/guru_aur_bhole",
            "thumbnail": "https://i.ytimg.com/vi/AZMnqdqpjvs/hq720.jpg"
        },
        {
            "id": "bO6ju1S01eg",
            "title": "भोले बना सांड | Guru Aur Bhole | Cartoon for Kids",
            "url": "https://www.youtube.com/watch?v=bO6ju1S01eg",
            "duration": 676.0,
            "view_count": 58315,
            "uploader": "YAY! Time With Guru Bhole",
            "category": "cartoons/guru_aur_bhole",
            "thumbnail": "https://i.ytimg.com/vi/bO6ju1S01eg/hq720.jpg"
        },
        {
            "id": "XvHYa9xRr5A",
            "title": "गुरु का मूडी मौसम | Moral Stories for Children in Hindi | बच्चों की कहानियाँ | Cartoon for kids",
            "url": "https://www.youtube.com/watch?v=XvHYa9xRr5A",
            "duration": 694.0,
            "view_count": 1598747,
            "uploader": "YAY! Time With Guru Bhole",
            "category": "cartoons/guru_aur_bhole",
            "thumbnail": "https://i.ytimg.com/vi/XvHYa9xRr5A/hq720.jpg"
        },
        {
            "id": "dqOP4-yKM5Y",
            "title": "भोले बना बड़बोले | Moral Stories for Children in Hindi | बच्चों की कहानियाँ | Cartoon for kids",
            "url": "https://www.youtube.com/watch?v=dqOP4-yKM5Y",
            "duration": 664.0,
            "view_count": 3775570,
            "uploader": "YAY! Time With Guru Bhole",
            "category": "cartoons/guru_aur_bhole",
            "thumbnail": "https://i.ytimg.com/vi/dqOP4-yKM5Y/hq720.jpg"
        },
        {
            "id": "wAy9tr7rqGk",
            "title": "सुरताल नगर में आया Panther | Guru Aur Bhole | Hindi Moral Stories | Cartoon For Kids",
            "url": "https://www.youtube.com/watch?v=wAy9tr7rqGk",
            "duration": 1348.0,
            "view_count": 705542,
            "uploader": "Chillar Party",
            "category": "cartoons/guru_aur_bhole",
            "thumbnail": "https://i.ytimg.com/vi/wAy9tr7rqGk/hq720.jpg"
        },
        {
            "id": "8bX7b_Zi0Gg",
            "title": "Guru Aur Bhole In Magic Kingdom I Guru Bhole New Hindi Movie I Kids Galaxy",
            "url": "https://www.youtube.com/watch?v=8bX7b_Zi0Gg",
            "duration": 3973.0,
            "view_count": 420710,
            "uploader": "Kids Galaxy",
            "category": "cartoons/guru_aur_bhole",
            "thumbnail": "https://i.ytimg.com/vi/8bX7b_Zi0Gg/hq720.jpg"
        },
        {
            "id": "TqRvZlyxTG8",
            "title": "रोबोटिक आइलैंड की कहानी | Moral Stories for Children in Hindi | बच्चों की कहानियाँ |Cartoon for kids",
            "url": "https://www.youtube.com/watch?v=TqRvZlyxTG8",
            "duration": 1331.0,
            "view_count": 14436974,
            "uploader": "YAY! Time With Guru Bhole",
            "category": "cartoons/guru_aur_bhole",
            "thumbnail": "https://i.ytimg.com/vi/TqRvZlyxTG8/hq720.jpg"
        },
        {
            "id": "WaJH-re_I6M",
            "title": "Guru Aur Bhole The Gladiators I Guru Bhole New Hindi Movie I Kids Galaxy",
            "url": "https://www.youtube.com/watch?v=WaJH-re_I6M",
            "duration": 4470.0,
            "view_count": 499030,
            "uploader": "Kids Galaxy",
            "category": "cartoons/guru_aur_bhole",
            "thumbnail": "https://i.ytimg.com/vi/WaJH-re_I6M/hq720.jpg"
        },
        {
            "id": "vh39bt31yyY",
            "title": "Mausamo Meter | Guru Aur Bhole | Moral Stories | Cartoon For Kids In Hindi",
            "url": "https://www.youtube.com/watch?v=vh39bt31yyY",
            "duration": 662.0,
            "view_count": 29390,
            "uploader": "Cartoon Dekho",
            "category": "cartoons/guru_aur_bhole",
            "thumbnail": "https://i.ytimg.com/vi/vh39bt31yyY/hq720.jpg"
        },
        {
            "id": "xL2GQ0O7z0s",
            "title": "भोले ने बनाये बुलबुले I Moral Stories for Children in Hindi | बच्चों की कहानियाँ | Cartoon for kids",
            "url": "https://www.youtube.com/watch?v=xL2GQ0O7z0s",
            "duration": 682.0,
            "view_count": 202288,
            "uploader": "YAY! Time With Guru Bhole",
            "category": "cartoons/guru_aur_bhole",
            "thumbnail": "https://i.ytimg.com/vi/xL2GQ0O7z0s/hq720.jpg"
        },
        {
            "id": "9G-u4Nhy3Fw",
            "title": "रोबोट द्वीप | Moral Stories for Children in Hindi | बच्चों की कहानियाँ | Cartoon for kids",
            "url": "https://www.youtube.com/watch?v=9G-u4Nhy3Fw",
            "duration": 1333.0,
            "view_count": 17242260,
            "uploader": "YAY! Time With Guru Bhole",
            "category": "cartoons/guru_aur_bhole",
            "thumbnail": "https://i.ytimg.com/vi/9G-u4Nhy3Fw/hq720.jpg"
        },
        {
            "id": "Smy8eFfLryE",
            "title": "Guru Aur Bhole And Hawa Hawai I Guru Bhole New Hindi Movie I Kids Galaxy",
            "url": "https://www.youtube.com/watch?v=Smy8eFfLryE",
            "duration": 3645.0,
            "view_count": 856477,
            "uploader": "Kids Galaxy",
            "category": "cartoons/guru_aur_bhole",
            "thumbnail": "https://i.ytimg.com/vi/Smy8eFfLryE/hq720.jpg"
        },
        {
            "id": "7jo7CCEqrjg",
            "title": "फुटबॉल का झोल | Moral Stories for Children in Hindi | बच्चों की कहानियाँ | Cartoon for kids",
            "url": "https://www.youtube.com/watch?v=7jo7CCEqrjg",
            "duration": 1360.0,
            "view_count": 1581747,
            "uploader": "YAY! Time With Guru Bhole",
            "category": "cartoons/guru_aur_bhole",
            "thumbnail": "https://i.ytimg.com/vi/7jo7CCEqrjg/hq720.jpg"
        },
        {
            "id": "PR2cwVR5fe8",
            "title": "रेत का दानव | Moral Stories for Children in Hindi | बच्चों की कहानियाँ | Cartoon for kids",
            "url": "https://www.youtube.com/watch?v=PR2cwVR5fe8",
            "duration": 687.0,
            "view_count": 2568389,
            "uploader": "YAY! Time With Guru Bhole",
            "category": "cartoons/guru_aur_bhole",
            "thumbnail": "https://i.ytimg.com/vi/PR2cwVR5fe8/hq720.jpg"
        },
        {
            "id": "TPYYi30vbII",
            "title": "होली का झोल | Moral Stories for Children in Hindi | बच्चों की कहानियाँ | Cartoon for kids",
            "url": "https://www.youtube.com/watch?v=TPYYi30vbII",
            "duration": 706.0,
            "view_count": 1633913,
            "uploader": "YAY! Time With Guru Bhole",
            "category": "cartoons/guru_aur_bhole",
            "thumbnail": "https://i.ytimg.com/vi/TPYYi30vbII/hq720.jpg"
        },
        {
            "id": "20V0Cvfsusg",
            "title": "Mermaid | Guru Aur Bhole | Best Kids Moral Stories In Hindi | Cartoon",
            "url": "https://www.youtube.com/watch?v=20V0Cvfsusg",
            "duration": 678.0,
            "view_count": 565156,
            "uploader": "Chillar Party",
            "category": "cartoons/guru_aur_bhole",
            "thumbnail": "https://i.ytimg.com/vi/20V0Cvfsusg/hq720.jpg"
        },
        {
            "id": "9a1BwB5oeRM",
            "title": "दिन रात स्विच की गड़बड़ | Guru Aur Bhole | Cartoon for Kids",
            "url": "https://www.youtube.com/watch?v=9a1BwB5oeRM",
            "duration": 674.0,
            "view_count": 12900,
            "uploader": "YAY! Time With Guru Bhole",
            "category": "cartoons/guru_aur_bhole",
            "thumbnail": "https://i.ytimg.com/vi/9a1BwB5oeRM/hq720.jpg"
        },
        {
            "id": "_UthrlCflXE",
            "title": "जादुई चश्मा | Moral Stories For Kids | Kids Videos",
            "url": "https://www.youtube.com/watch?v=_UthrlCflXE",
            "duration": 682.0,
            "view_count": 6479621,
            "uploader": "YAY! Time With Guru Bhole",
            "category": "cartoons/guru_aur_bhole",
            "thumbnail": "https://i.ytimg.com/vi/_UthrlCflXE/hq720.jpg"
        },
        {
            "id": "jgag8QfwfX0",
            "title": "Guru Aur Bhole In Alien Busters | Guru Bhole New Movies In Hindi | Cartoon Movie For Kids",
            "url": "https://www.youtube.com/watch?v=jgag8QfwfX0",
            "duration": 4443.0,
            "view_count": 972015,
            "uploader": "Cartoon Dekho",
            "category": "cartoons/guru_aur_bhole",
            "thumbnail": "https://i.ytimg.com/vi/jgag8QfwfX0/hq720.jpg"
        },
        {
            "id": "16hw4h4sF2Y",
            "title": "भोले बना सांड | Moral Stories for Children in Hindi | बच्चों की कहानियाँ | Cartoon for kids",
            "url": "https://www.youtube.com/watch?v=16hw4h4sF2Y",
            "duration": 674.0,
            "view_count": 5726500,
            "uploader": "YAY! Time With Guru Bhole",
            "category": "cartoons/guru_aur_bhole",
            "thumbnail": "https://i.ytimg.com/vi/16hw4h4sF2Y/hq720.jpg"
        },
        {
            "id": "XZJZnO2FXrA",
            "title": "गरमा गरम भोले | Moral Stories for Children in Hindi | बच्चों की कहानियाँ | Cartoon for kids",
            "url": "https://www.youtube.com/watch?v=XZJZnO2FXrA",
            "duration": 2028.0,
            "view_count": 21632119,
            "uploader": "YAY! Time With Guru Bhole",
            "category": "cartoons/guru_aur_bhole",
            "thumbnail": "https://i.ytimg.com/vi/XZJZnO2FXrA/hq720.jpg"
        },
        {
            "id": "-WR_ILaukaA",
            "title": "भोले नै किया झोल | Moral Stories for Children in Hindi | बच्चों की कहानियाँ | Cartoon for kids",
            "url": "https://www.youtube.com/watch?v=-WR_ILaukaA",
            "duration": 653.0,
            "view_count": 775015,
            "uploader": "YAY! Time With Guru Bhole",
            "category": "cartoons/guru_aur_bhole",
            "thumbnail": "https://i.ytimg.com/vi/-WR_ILaukaA/hq720.jpg"
        },
        {
            "id": "9Z5Bc-cM3d4",
            "title": "किचन का महायुद्ध | Guru Aur Bhole | Cartoon for Kids",
            "url": "https://www.youtube.com/watch?v=9Z5Bc-cM3d4",
            "duration": 714.0,
            "view_count": 605560,
            "uploader": "YAY! Time With Guru Bhole",
            "category": "cartoons/guru_aur_bhole",
            "thumbnail": "https://i.ytimg.com/vi/9Z5Bc-cM3d4/hq720.jpg"
        },
        {
            "id": "1ej5LdyMbZY",
            "title": "भोले भाले बबल्स | Guru Aur Bhole | Cartoon for Kids",
            "url": "https://www.youtube.com/watch?v=1ej5LdyMbZY",
            "duration": 654.0,
            "view_count": 12664,
            "uploader": "YAY! Time With Guru Bhole",
            "category": "cartoons/guru_aur_bhole",
            "thumbnail": "https://i.ytimg.com/vi/1ej5LdyMbZY/hq720.jpg"
        },
        {
            "id": "Z4LQF0A-ix8",
            "title": "आँख मेंचौली का किस्सा | Guru Aur Bhole | Cartoon for Kids",
            "url": "https://www.youtube.com/watch?v=Z4LQF0A-ix8",
            "duration": 667.0,
            "view_count": 120639,
            "uploader": "YAY! Time With Guru Bhole",
            "category": "cartoons/guru_aur_bhole",
            "thumbnail": "https://i.ytimg.com/vi/Z4LQF0A-ix8/hq720.jpg"
        },
        {
            "id": "zinFZQEtPMU",
            "title": "चुम्बक की तकलीफ | Moral Stories for Children in Hindi | बच्चों की कहानियाँ | Cartoon for kids",
            "url": "https://www.youtube.com/watch?v=zinFZQEtPMU",
            "duration": 1253.0,
            "view_count": 2591874,
            "uploader": "YAY! Time With Guru Bhole",
            "category": "cartoons/guru_aur_bhole",
            "thumbnail": "https://i.ytimg.com/vi/zinFZQEtPMU/hq720.jpg"
        },
        {
            "id": "V1MTp0-SWUI",
            "title": "मीठे का शौकीन  I Moral Stories for Children in Hindi | बच्चों की कहानियाँ | Cartoon for kids",
            "url": "https://www.youtube.com/watch?v=V1MTp0-SWUI",
            "duration": 691.0,
            "view_count": 1617007,
            "uploader": "YAY! Time With Guru Bhole",
            "category": "cartoons/guru_aur_bhole",
            "thumbnail": "https://i.ytimg.com/vi/V1MTp0-SWUI/hq720.jpg"
        },
        {
            "id": "qXtKPNaS-Pk",
            "title": "भोले बना चट्टान | Moral Stories for Children in Hindi | बच्चों की कहानियाँ | Cartoon for kids",
            "url": "https://www.youtube.com/watch?v=qXtKPNaS-Pk",
            "duration": 663.0,
            "view_count": 6294559,
            "uploader": "YAY! Time With Guru Bhole",
            "category": "cartoons/guru_aur_bhole",
            "thumbnail": "https://i.ytimg.com/vi/qXtKPNaS-Pk/hq720.jpg"
        },
        {
            "id": "Sh7qm3ZQRxk",
            "title": "जादुई टैटू का रहस्य | Moral Stories for Children in Hindi | बच्चों की कहानियाँ | Cartoon for kids",
            "url": "https://www.youtube.com/watch?v=Sh7qm3ZQRxk",
            "duration": 1343.0,
            "view_count": 2483447,
            "uploader": "YAY! Time With Guru Bhole",
            "category": "cartoons/guru_aur_bhole",
            "thumbnail": "https://i.ytimg.com/vi/Sh7qm3ZQRxk/hq720.jpg"
        },
        {
            "id": "cmNu6RVtdZg",
            "title": "अतरंगी टीशर्ट | Moral Stories for Children in Hindi | बच्चों की कहानियाँ | Cartoon for kids",
            "url": "https://www.youtube.com/watch?v=cmNu6RVtdZg",
            "duration": 680.0,
            "view_count": 3823799,
            "uploader": "YAY! Time With Guru Bhole",
            "category": "cartoons/guru_aur_bhole",
            "thumbnail": "https://i.ytimg.com/vi/cmNu6RVtdZg/hq720.jpg"
        },
        {
            "id": "PtZwfQHzYRM",
            "title": "मानव सीढ़ी| Moral Stories for Children in Hindi | बच्चों की कहानियाँ | Cartoon for kids",
            "url": "https://www.youtube.com/watch?v=PtZwfQHzYRM",
            "duration": 697.0,
            "view_count": 852234,
            "uploader": "YAY! Time With Guru Bhole",
            "category": "cartoons/guru_aur_bhole",
            "thumbnail": "https://i.ytimg.com/vi/PtZwfQHzYRM/hq720.jpg"
        },
        {
            "id": "pIniwQF7GaI",
            "title": "साइक्लेथॉन का किस्सा | Guru Aur Bhole | Cartoon for Kids",
            "url": "https://www.youtube.com/watch?v=pIniwQF7GaI",
            "duration": 649.0,
            "view_count": 91941,
            "uploader": "YAY! Time With Guru Bhole",
            "category": "cartoons/guru_aur_bhole",
            "thumbnail": "https://i.ytimg.com/vi/pIniwQF7GaI/hq720.jpg"
        },
        {
            "id": "BAJZE5fXHWs",
            "title": "आए आईना आए आईना | Moral Stories for Children in Hindi | बच्चों की कहानियाँ | Cartoon for kids",
            "url": "https://www.youtube.com/watch?v=BAJZE5fXHWs",
            "duration": 662.0,
            "view_count": 674444,
            "uploader": "YAY! Time With Guru Bhole",
            "category": "cartoons/guru_aur_bhole",
            "thumbnail": "https://i.ytimg.com/vi/BAJZE5fXHWs/hq720.jpg"
        },
        {
            "id": "Ip_A5oeNl2g",
            "title": "मनी प्लांट | Moral Stories for Children in Hindi | बच्चों की कहानियाँ | Cartoon for kids",
            "url": "https://www.youtube.com/watch?v=Ip_A5oeNl2g",
            "duration": 770.0,
            "view_count": 23493766,
            "uploader": "YAY! Time With Guru Bhole",
            "category": "cartoons/guru_aur_bhole",
            "thumbnail": "https://i.ytimg.com/vi/Ip_A5oeNl2g/hq720.jpg"
        },
        {
            "id": "HIQBmXWU8HU",
            "title": "एलियन प्रीमियर लीग का खेल I Moral Stories for Children in Hindi| बच्चों की कहानियाँ|Cartoon for kids",
            "url": "https://www.youtube.com/watch?v=HIQBmXWU8HU",
            "duration": 1293.0,
            "view_count": 8297565,
            "uploader": "YAY! Time With Guru Bhole",
            "category": "cartoons/guru_aur_bhole",
            "thumbnail": "https://i.ytimg.com/vi/HIQBmXWU8HU/hq720.jpg"
        },
        {
            "id": "XD1vHXeRhDI",
            "title": "भूत बंगला | Moral Stories for Children in Hindi | बच्चों की कहानियाँ | Cartoon for kids",
            "url": "https://www.youtube.com/watch?v=XD1vHXeRhDI",
            "duration": 743.0,
            "view_count": 1460918,
            "uploader": "YAY! Time With Guru Bhole",
            "category": "cartoons/guru_aur_bhole",
            "thumbnail": "https://i.ytimg.com/vi/XD1vHXeRhDI/hq720.jpg"
        },
        {
            "id": "ZkJq41EX9hI",
            "title": "नाव की रेस मैं कौन जीता ? |Moral Stories for Children in Hindi |बच्चों की कहानियाँ |Cartoon for kids",
            "url": "https://www.youtube.com/watch?v=ZkJq41EX9hI",
            "duration": 682.0,
            "view_count": 1470095,
            "uploader": "YAY! Time With Guru Bhole",
            "category": "cartoons/guru_aur_bhole",
            "thumbnail": "https://i.ytimg.com/vi/ZkJq41EX9hI/hq720.jpg"
        },
        {
            "id": "rf8K06XWKzE",
            "title": "Guru Aur Bhole In Bermuda Triangle | Guru Bhole Full Movie In Hindi | Kids Cartoon | Moral Stories",
            "url": "https://www.youtube.com/watch?v=rf8K06XWKzE",
            "duration": 4756.0,
            "view_count": 28712,
            "uploader": "Chillar Party",
            "category": "cartoons/guru_aur_bhole",
            "thumbnail": "https://i.ytimg.com/vi/rf8K06XWKzE/hq720.jpg"
        },
        {
            "id": "fw5l-Ocd2-w",
            "title": "जादुई होंठ बाम | Moral Stories for Children in Hindi | बच्चों की कहानियाँ | Cartoon for kids",
            "url": "https://www.youtube.com/watch?v=fw5l-Ocd2-w",
            "duration": 2009.0,
            "view_count": 15387777,
            "uploader": "YAY! Time With Guru Bhole",
            "category": "cartoons/guru_aur_bhole",
            "thumbnail": "https://i.ytimg.com/vi/fw5l-Ocd2-w/hq720.jpg"
        },
        {
            "id": "Yy2dJUxG1UQ",
            "title": "भोले जंगली | Guru Aur Bhole | हिंदी कार्टून | Moral Stories In Hindi | Cartoon For Kids In Hindi",
            "url": "https://www.youtube.com/watch?v=Yy2dJUxG1UQ",
            "duration": 611.0,
            "view_count": 189204,
            "uploader": "Cartoon Dekho",
            "category": "cartoons/guru_aur_bhole",
            "thumbnail": "https://i.ytimg.com/vi/Yy2dJUxG1UQ/hq720.jpg"
        },
        {
            "id": "TJ5G0MumSQs",
            "title": "Bhole fainted due to the smell of garbage | Guru Aur Bhole | Kids Cartoon | Moral Stories For Kids",
            "url": "https://www.youtube.com/watch?v=TJ5G0MumSQs",
            "duration": 667.0,
            "view_count": 186,
            "uploader": "Chillar Party",
            "category": "cartoons/guru_aur_bhole",
            "thumbnail": "https://i.ytimg.com/vi/TJ5G0MumSQs/hq720.jpg"
        },
        {
            "id": "t6GAKH_OTcQ",
            "title": "अनेकता में एकता | Moral Stories for Children in Hindi | बच्चों की कहानियाँ | Cartoon for kids",
            "url": "https://www.youtube.com/watch?v=t6GAKH_OTcQ",
            "duration": 665.0,
            "view_count": 1879541,
            "uploader": "YAY! Time With Guru Bhole",
            "category": "cartoons/guru_aur_bhole",
            "thumbnail": "https://i.ytimg.com/vi/t6GAKH_OTcQ/hq720.jpg"
        },
        {
            "id": "O008_qtWQPI",
            "title": "Guru Aur Bhole – Nursery Rhymes for Kids",
            "url": "https://www.youtube.com/watch?v=O008_qtWQPI",
            "duration": 813.0,
            "view_count": 3077898,
            "uploader": "Sony YAY!",
            "category": "cartoons/guru_aur_bhole",
            "thumbnail": "https://i.ytimg.com/vi/O008_qtWQPI/hq720.jpg"
        }
    ]
}