{
    "page": 68,
    "total_pages": 103,
    "total_items": 5125,
    "items": [
        {
            "id": "M9H57IJ6itM",
            "title": "নববর্ষের শুভেচ্ছা | Honey Bunny Ka Jholmaal",
            "url": "https://www.youtube.com/watch?v=M9H57IJ6itM",
            "duration": 723.0,
            "view_count": 21301,
            "uploader": "Sony YAY! Bangla",
            "category": "cartoons/honey_bunny_ka_jholmaal",
            "thumbnail": "https://i.ytimg.com/vi/M9H57IJ6itM/hq720.jpg"
        },
        {
            "id": "U73PbCjCLis",
            "title": "गर्ल्स डे आउट I Hunny Bunny Jholmaal Cartoons for kids Hindi | बच्चो की कहानियां | Sony YAY!",
            "url": "https://www.youtube.com/watch?v=U73PbCjCLis",
            "duration": 776.0,
            "view_count": 1671475,
            "uploader": "Sony YAY!",
            "category": "cartoons/honey_bunny_ka_jholmaal",
            "thumbnail": "https://i.ytimg.com/vi/U73PbCjCLis/hq720.jpg"
        },
        {
            "id": "2oRW-aV3CYs",
            "title": "মেয়েদের ডে আউট | Honey Bunny Ka Jholmaal",
            "url": "https://www.youtube.com/watch?v=2oRW-aV3CYs",
            "duration": 756.0,
            "view_count": 43525,
            "uploader": "Sony YAY! Bangla",
            "category": "cartoons/honey_bunny_ka_jholmaal",
            "thumbnail": "https://i.ytimg.com/vi/2oRW-aV3CYs/hq720.jpg"
        },
        {
            "id": "tAXdbGAJ3EY",
            "title": "പെൺകുട്ടികളുടെ ഔട്ടിംഗ് | Honey Bunny Ka Jholmaal",
            "url": "https://www.youtube.com/watch?v=tAXdbGAJ3EY",
            "duration": 756.0,
            "view_count": 26210,
            "uploader": "Sony YAY! Malayalam",
            "category": "cartoons/honey_bunny_ka_jholmaal",
            "thumbnail": "https://i.ytimg.com/vi/tAXdbGAJ3EY/hq720.jpg"
        },
        {
            "id": "J3bVEync3HM",
            "title": "Electric Bill | Honey Bunny ka Jholmaal",
            "url": "https://www.youtube.com/watch?v=J3bVEync3HM",
            "duration": 660.0,
            "view_count": 97402,
            "uploader": "Sony YAY!",
            "category": "cartoons/honey_bunny_ka_jholmaal",
            "thumbnail": "https://i.ytimg.com/vi/J3bVEync3HM/hq720.jpg"
        },
        {
            "id": "VTNJi2N2_eg",
            "title": "বিদ্যুৎ বিল | Honey Bunny Ka Jholmaal",
            "url": "https://www.youtube.com/watch?v=VTNJi2N2_eg",
            "duration": 660.0,
            "view_count": 26289,
            "uploader": "Sony YAY! Bangla",
            "category": "cartoons/honey_bunny_ka_jholmaal",
            "thumbnail": "https://i.ytimg.com/vi/VTNJi2N2_eg/hq720.jpg"
        },
        {
            "id": "Av24ucioNMc",
            "title": "വൈദ്യുതി ബിൽ | Honey Bunny Ka Jholmaal",
            "url": "https://www.youtube.com/watch?v=Av24ucioNMc",
            "duration": 660.0,
            "view_count": 23381,
            "uploader": "Sony YAY! Malayalam",
            "category": "cartoons/honey_bunny_ka_jholmaal",
            "thumbnail": "https://i.ytimg.com/vi/Av24ucioNMc/hq720.jpg"
        },
        {
            "id": "oHqukr2pFzQ",
            "title": "परिवर्तन और झोल? I Hunny Bunny Jholmaal Cartoons for kids Hindi | बच्चो की कहानियां | Sony YAY!",
            "url": "https://www.youtube.com/watch?v=oHqukr2pFzQ",
            "duration": 646.0,
            "view_count": 121211,
            "uploader": "Sony YAY!",
            "category": "cartoons/honey_bunny_ka_jholmaal",
            "thumbnail": "https://i.ytimg.com/vi/oHqukr2pFzQ/hq720.jpg"
        },
        {
            "id": "2y8WnOcKv_Q",
            "title": "বিদ্যুৎ বিল | Full Episode in Bengali | Videos For Kids | HB",
            "url": "https://www.youtube.com/watch?v=2y8WnOcKv_Q",
            "duration": 660.0,
            "view_count": 691503,
            "uploader": "Sony YAY! Bangla",
            "category": "cartoons/honey_bunny_ka_jholmaal",
            "thumbnail": "https://i.ytimg.com/vi/2y8WnOcKv_Q/hq720.jpg"
        },
        {
            "id": "KPVdtHl9AvQ",
            "title": "Nandu Babysitter | Honey Bunny ka Jholmaal",
            "url": "https://www.youtube.com/watch?v=KPVdtHl9AvQ",
            "duration": 673.0,
            "view_count": 38978,
            "uploader": "Sony YAY!",
            "category": "cartoons/honey_bunny_ka_jholmaal",
            "thumbnail": "https://i.ytimg.com/vi/KPVdtHl9AvQ/hq720.jpg"
        },
        {
            "id": "919F3XOj4No",
            "title": "The Lost Gattu | Honey Bunny ka Jholmaal",
            "url": "https://www.youtube.com/watch?v=919F3XOj4No",
            "duration": 694.0,
            "view_count": 95100,
            "uploader": "Sony YAY!",
            "category": "cartoons/honey_bunny_ka_jholmaal",
            "thumbnail": "https://i.ytimg.com/vi/919F3XOj4No/hq720.jpg"
        },
        {
            "id": "LzFMCYpbsJg",
            "title": "নন্দু বেবিসিটার | Honey Bunny Ka Jholmaal",
            "url": "https://www.youtube.com/watch?v=LzFMCYpbsJg",
            "duration": 673.0,
            "view_count": 63735,
            "uploader": "Sony YAY! Bangla",
            "category": "cartoons/honey_bunny_ka_jholmaal",
            "thumbnail": "https://i.ytimg.com/vi/LzFMCYpbsJg/hq720.jpg"
        },
        {
            "id": "zy4WVdZRvDk",
            "title": "रोबोट नानी I Hunny Bunny Jholmaal Cartoons for kids Hindi|बच्चो की कहानियां | Sony YAY!",
            "url": "https://www.youtube.com/watch?v=zy4WVdZRvDk",
            "duration": 1375.0,
            "view_count": 1832095,
            "uploader": "Sony YAY!",
            "category": "cartoons/honey_bunny_ka_jholmaal",
            "thumbnail": "https://i.ytimg.com/vi/zy4WVdZRvDk/hq720.jpg"
        },
        {
            "id": "hgBttrpd_PE",
            "title": "Truth or Dare | Honey Bunny ka Jholmaal",
            "url": "https://www.youtube.com/watch?v=hgBttrpd_PE",
            "duration": 696.0,
            "view_count": 67469,
            "uploader": "Sony YAY!",
            "category": "cartoons/honey_bunny_ka_jholmaal",
            "thumbnail": "https://i.ytimg.com/vi/hgBttrpd_PE/hq720.jpg"
        },
        {
            "id": "iXfejsUONec",
            "title": "സത്യമോ ധൈര്യമോ | Honey Bunny Ka Jholmaal",
            "url": "https://www.youtube.com/watch?v=iXfejsUONec",
            "duration": 696.0,
            "view_count": 15233,
            "uploader": "Sony YAY! Malayalam",
            "category": "cartoons/honey_bunny_ka_jholmaal",
            "thumbnail": "https://i.ytimg.com/vi/iXfejsUONec/hq720.jpg"
        },
        {
            "id": "cBPCHa3FGzA",
            "title": "সত্য না সাহস | Honey Bunny Ka Jholmaal",
            "url": "https://www.youtube.com/watch?v=cBPCHa3FGzA",
            "duration": 696.0,
            "view_count": 65741,
            "uploader": "Sony YAY! Bangla",
            "category": "cartoons/honey_bunny_ka_jholmaal",
            "thumbnail": "https://i.ytimg.com/vi/cBPCHa3FGzA/hq720.jpg"
        },
        {
            "id": "c7t3Ai69ETU",
            "title": "किटी की डॉल और रोबो में टक्कर | Honey Bunny Ka Jholmaal | Funny videos for kids | बच्चों की कहानियाँ",
            "url": "https://www.youtube.com/watch?v=c7t3Ai69ETU",
            "duration": 828.0,
            "view_count": 7649911,
            "uploader": "Sony YAY!",
            "category": "cartoons/honey_bunny_ka_jholmaal",
            "thumbnail": "https://i.ytimg.com/vi/c7t3Ai69ETU/hq720.jpg"
        },
        {
            "id": "CkDmuQgUN5k",
            "title": "राउडी पोपट की कहानी I Hunny Bunny Jholmaal Cartoons for kids Hindi|बच्चो की कहानियां | Sony YAY!",
            "url": "https://www.youtube.com/watch?v=CkDmuQgUN5k",
            "duration": 1452.0,
            "view_count": 1868456,
            "uploader": "Sony YAY!",
            "category": "cartoons/honey_bunny_ka_jholmaal",
            "thumbnail": "https://i.ytimg.com/vi/CkDmuQgUN5k/hq720.jpg"
        },
        {
            "id": "V6wqHM7GRHo",
            "title": "Well Cultured | Honey Bunny ka Jholmaal",
            "url": "https://www.youtube.com/watch?v=V6wqHM7GRHo",
            "duration": 709.0,
            "view_count": 51887,
            "uploader": "Sony YAY!",
            "category": "cartoons/honey_bunny_ka_jholmaal",
            "thumbnail": "https://i.ytimg.com/vi/V6wqHM7GRHo/hq720.jpg"
        },
        {
            "id": "4qyxenhZllI",
            "title": "Honey Bunny और सभ्यता I Hunny Bunny Jholmaal Cartoons for kids Hindi | बच्चो की कहानियां | Sony YAY!",
            "url": "https://www.youtube.com/watch?v=4qyxenhZllI",
            "duration": 729.0,
            "view_count": 347751,
            "uploader": "Sony YAY!",
            "category": "cartoons/honey_bunny_ka_jholmaal",
            "thumbnail": "https://i.ytimg.com/vi/4qyxenhZllI/hq720.jpg"
        },
        {
            "id": "7nUSQTwBVsw",
            "title": "Accidently Acrobatic | Honey Bunny ka Jholmaal",
            "url": "https://www.youtube.com/watch?v=7nUSQTwBVsw",
            "duration": 723.0,
            "view_count": 82944,
            "uploader": "Sony YAY!",
            "category": "cartoons/honey_bunny_ka_jholmaal",
            "thumbnail": "https://i.ytimg.com/vi/7nUSQTwBVsw/hq720.jpg"
        },
        {
            "id": "L3xPBnTFxs4",
            "title": "হঠাৎ অ্যাক্রোবেটিক | Honey Bunny Ka Jholmaal",
            "url": "https://www.youtube.com/watch?v=L3xPBnTFxs4",
            "duration": 723.0,
            "view_count": 46295,
            "uploader": "Sony YAY! Bangla",
            "category": "cartoons/honey_bunny_ka_jholmaal",
            "thumbnail": "https://i.ytimg.com/vi/L3xPBnTFxs4/hq720.jpg"
        },
        {
            "id": "bV56pupIDfs",
            "title": "അപ്രതീക്ഷിതമായി അക്രോബാറ്റിക് | Honey Bunny Ka Jholmaal",
            "url": "https://www.youtube.com/watch?v=bV56pupIDfs",
            "duration": 723.0,
            "view_count": 10472,
            "uploader": "Sony YAY! Malayalam",
            "category": "cartoons/honey_bunny_ka_jholmaal",
            "thumbnail": "https://i.ytimg.com/vi/bV56pupIDfs/hq720.jpg"
        },
        {
            "id": "V8NefyGaU3A",
            "title": "ভাল সংস্কৃতি | Honey Bunny Ka Jholmaal",
            "url": "https://www.youtube.com/watch?v=V8NefyGaU3A",
            "duration": 709.0,
            "view_count": 43601,
            "uploader": "Sony YAY! Bangla",
            "category": "cartoons/honey_bunny_ka_jholmaal",
            "thumbnail": "https://i.ytimg.com/vi/V8NefyGaU3A/hq720.jpg"
        },
        {
            "id": "RVQjPaF0Ny4",
            "title": "தற்செயலான அக்ரோபாட்டிக் | Honey Bunny Ka Jholmaal",
            "url": "https://www.youtube.com/watch?v=RVQjPaF0Ny4",
            "duration": 723.0,
            "view_count": 772,
            "uploader": "Sony YAY! Tamil",
            "category": "cartoons/honey_bunny_ka_jholmaal",
            "thumbnail": "https://i.ytimg.com/vi/RVQjPaF0Ny4/hq720.jpg"
        },
        {
            "id": "Okkp-ViudfE",
            "title": "Favourite Blanket | Honey Bunny ka Jholmaal",
            "url": "https://www.youtube.com/watch?v=Okkp-ViudfE",
            "duration": 665.0,
            "view_count": 91289,
            "uploader": "Sony YAY!",
            "category": "cartoons/honey_bunny_ka_jholmaal",
            "thumbnail": "https://i.ytimg.com/vi/Okkp-ViudfE/hq720.jpg"
        },
        {
            "id": "oRtUqIq-K9Q",
            "title": "पसंदीदा कंबल का जादू I Hunny Bunny Jholmaal Cartoons for kids Hindi | बच्चो की कहानियां | Sony YAY!",
            "url": "https://www.youtube.com/watch?v=oRtUqIq-K9Q",
            "duration": 685.0,
            "view_count": 2884209,
            "uploader": "Sony YAY!",
            "category": "cartoons/honey_bunny_ka_jholmaal",
            "thumbnail": "https://i.ytimg.com/vi/oRtUqIq-K9Q/hq720.jpg"
        },
        {
            "id": "iJmtpYOxKZU",
            "title": "अकस्मात् कलाबाजी का किस्सा IHunny Bunny Jholmaal Cartoons forkids Hindi|बच्चो की कहानियां |Sony YAY!",
            "url": "https://www.youtube.com/watch?v=iJmtpYOxKZU",
            "duration": 743.0,
            "view_count": 785183,
            "uploader": "Sony YAY!",
            "category": "cartoons/honey_bunny_ka_jholmaal",
            "thumbnail": "https://i.ytimg.com/vi/iJmtpYOxKZU/hq720.jpg"
        },
        {
            "id": "rVIUVrI1Agw",
            "title": "परिवर्तन और झोल? I Hunny Bunny Jholmaal Cartoons for kids Hindi | बच्चो की कहानियां | Sony YAY!",
            "url": "https://www.youtube.com/watch?v=rVIUVrI1Agw",
            "duration": 646.0,
            "view_count": 281558,
            "uploader": "Sony YAY!",
            "category": "cartoons/honey_bunny_ka_jholmaal",
            "thumbnail": "https://i.ytimg.com/vi/rVIUVrI1Agw/hq720.jpg"
        },
        {
            "id": "X6k2M3Y8quw",
            "title": "প্রিয় কম্বল | Honey Bunny Ka Jholmaal",
            "url": "https://www.youtube.com/watch?v=X6k2M3Y8quw",
            "duration": 665.0,
            "view_count": 91637,
            "uploader": "Sony YAY! Bangla",
            "category": "cartoons/honey_bunny_ka_jholmaal",
            "thumbnail": "https://i.ytimg.com/vi/X6k2M3Y8quw/hq720.jpg"
        },
        {
            "id": "9QsV9FreiKk",
            "title": "പ്രിയപ്പെട്ട പുതപ്പ് | Honey Bunny Ka Jholmaal",
            "url": "https://www.youtube.com/watch?v=9QsV9FreiKk",
            "duration": 665.0,
            "view_count": 32349,
            "uploader": "Sony YAY! Malayalam",
            "category": "cartoons/honey_bunny_ka_jholmaal",
            "thumbnail": "https://i.ytimg.com/vi/9QsV9FreiKk/hq720.jpg"
        },
        {
            "id": "AQu2OSy2VRc",
            "title": "Airport Drop | Honey Bunny ka Jholmaal",
            "url": "https://www.youtube.com/watch?v=AQu2OSy2VRc",
            "duration": 714.0,
            "view_count": 84910,
            "uploader": "Sony YAY!",
            "category": "cartoons/honey_bunny_ka_jholmaal",
            "thumbnail": "https://i.ytimg.com/vi/AQu2OSy2VRc/hq720.jpg"
        },
        {
            "id": "nuoZlOmMsio",
            "title": "এয়ারপোর্ট ড্রপ | Honey Bunny Ka Jholmaal",
            "url": "https://www.youtube.com/watch?v=nuoZlOmMsio",
            "duration": 714.0,
            "view_count": 38800,
            "uploader": "Sony YAY! Bangla",
            "category": "cartoons/honey_bunny_ka_jholmaal",
            "thumbnail": "https://i.ytimg.com/vi/nuoZlOmMsio/hq720.jpg"
        },
        {
            "id": "Y7P_QUzj1AQ",
            "title": "എയർപോർട്ട് ഡ്രോപ്പ് | Honey Bunny Ka Jholmaal",
            "url": "https://www.youtube.com/watch?v=Y7P_QUzj1AQ",
            "duration": 714.0,
            "view_count": 13351,
            "uploader": "Sony YAY! Malayalam",
            "category": "cartoons/honey_bunny_ka_jholmaal",
            "thumbnail": "https://i.ytimg.com/vi/Y7P_QUzj1AQ/hq720.jpg"
        },
        {
            "id": "CWuRFQPhl0g",
            "title": "हनी बनी साक्षात्कार I Hunny Bunny Jholmaal Cartoons for kids Hindi|बच्चो की कहानियां |Sony YAY!",
            "url": "https://www.youtube.com/watch?v=CWuRFQPhl0g",
            "duration": 2557.0,
            "view_count": 844684,
            "uploader": "Sony YAY!",
            "category": "cartoons/honey_bunny_ka_jholmaal",
            "thumbnail": "https://i.ytimg.com/vi/CWuRFQPhl0g/hq720.jpg"
        },
        {
            "id": "Fk16JF57luY",
            "title": "Entire Story of Honey Bunny ka Jholmaal in 14 Minutes | ANIARC",
            "url": "https://www.youtube.com/watch?v=Fk16JF57luY",
            "duration": 897.0,
            "view_count": 457493,
            "uploader": "AniArc",
            "category": "cartoons/honey_bunny_ka_jholmaal",
            "thumbnail": "https://i.ytimg.com/vi/Fk16JF57luY/hq720.jpg"
        },
        {
            "id": "fe1Ww-pnTIM",
            "title": "One Day Flower | Honey Bunny ka Jholmaal",
            "url": "https://www.youtube.com/watch?v=fe1Ww-pnTIM",
            "duration": 680.0,
            "view_count": 98573,
            "uploader": "Sony YAY!",
            "category": "cartoons/honey_bunny_ka_jholmaal",
            "thumbnail": "https://i.ytimg.com/vi/fe1Ww-pnTIM/hq720.jpg"
        },
        {
            "id": "2nvIyvmjy9w",
            "title": "এক দিনের ফুল | Honey Bunny Ka Jholmaal",
            "url": "https://www.youtube.com/watch?v=2nvIyvmjy9w",
            "duration": 680.0,
            "view_count": 59956,
            "uploader": "Sony YAY! Bangla",
            "category": "cartoons/honey_bunny_ka_jholmaal",
            "thumbnail": "https://i.ytimg.com/vi/2nvIyvmjy9w/hq720.jpg"
        },
        {
            "id": "czJ-2bjYXFw",
            "title": "ഒരു ദിവസത്തെ പൂവ് | Honey Bunny Ka Jholmaal",
            "url": "https://www.youtube.com/watch?v=czJ-2bjYXFw",
            "duration": 680.0,
            "view_count": 29353,
            "uploader": "Sony YAY! Malayalam",
            "category": "cartoons/honey_bunny_ka_jholmaal",
            "thumbnail": "https://i.ytimg.com/vi/czJ-2bjYXFw/hq720.jpg"
        },
        {
            "id": "_RA75Y_wy2g",
            "title": "Emotional Fools | Honey Bunny ka Jholmaal",
            "url": "https://www.youtube.com/watch?v=_RA75Y_wy2g",
            "duration": 687.0,
            "view_count": 38396,
            "uploader": "Sony YAY!",
            "category": "cartoons/honey_bunny_ka_jholmaal",
            "thumbnail": "https://i.ytimg.com/vi/_RA75Y_wy2g/hq720.jpg"
        },
        {
            "id": "f-C0Y7qm2Hw",
            "title": "ഭാവനാപരമായ മൂഢന്മാർ | Honey Bunny Ka Jholmaal",
            "url": "https://www.youtube.com/watch?v=f-C0Y7qm2Hw",
            "duration": 687.0,
            "view_count": 18638,
            "uploader": "Sony YAY! Malayalam",
            "category": "cartoons/honey_bunny_ka_jholmaal",
            "thumbnail": "https://i.ytimg.com/vi/f-C0Y7qm2Hw/hq720.jpg"
        },
        {
            "id": "OWjWj4amCNU",
            "title": "Bullet Train का सफर | Hunny Bunny Jholmaal Cartoons for kids Hindi | बच्चो की कहानियां",
            "url": "https://www.youtube.com/watch?v=OWjWj4amCNU",
            "duration": 1334.0,
            "view_count": 110960,
            "uploader": "Hunny Bunny Cartoon Adda",
            "category": "cartoons/honey_bunny_ka_jholmaal",
            "thumbnail": "https://i.ytimg.com/vi/OWjWj4amCNU/hq720.jpg"
        },
        {
            "id": "s4q585Jka-U",
            "title": "Diwali Friendshipwali | Honey Bunny ka Jholmaal",
            "url": "https://www.youtube.com/watch?v=s4q585Jka-U",
            "duration": 678.0,
            "view_count": 47456,
            "uploader": "Sony YAY!",
            "category": "cartoons/honey_bunny_ka_jholmaal",
            "thumbnail": "https://i.ytimg.com/vi/s4q585Jka-U/hq720.jpg"
        },
        {
            "id": "aeeUmxM0sKE",
            "title": "দীপাবলি বন্ধুত্ব | Honey Bunny Ka Jholmaal",
            "url": "https://www.youtube.com/watch?v=aeeUmxM0sKE",
            "duration": 678.0,
            "view_count": 10032,
            "uploader": "Sony YAY! Bangla",
            "category": "cartoons/honey_bunny_ka_jholmaal",
            "thumbnail": "https://i.ytimg.com/vi/aeeUmxM0sKE/hq720.jpg"
        },
        {
            "id": "eJfwEpRUnyM",
            "title": "ദീപാവലി സൗഹൃദം | Honey Bunny Ka Jholmaal",
            "url": "https://www.youtube.com/watch?v=eJfwEpRUnyM",
            "duration": 678.0,
            "view_count": 14717,
            "uploader": "Sony YAY! Malayalam",
            "category": "cartoons/honey_bunny_ka_jholmaal",
            "thumbnail": "https://i.ytimg.com/vi/eJfwEpRUnyM/hq720.jpg"
        },
        {
            "id": "vJCiPz922ug",
            "title": "Animated Series   Inspector Chingum  kids zone Hindi Cartoons For Kids 2022/23",
            "url": "https://www.youtube.com/watch?v=vJCiPz922ug",
            "duration": 1233.0,
            "view_count": 219260,
            "uploader": "CARTOON ZONE",
            "category": "cartoons/inspector_chingum",
            "thumbnail": "https://i.ytimg.com/vi/vJCiPz922ug/hq720.jpg"
        },
        {
            "id": "7H4OpsPIbdA",
            "title": "Animated Series | Inspector Chingum | Wow Kidz | Hindi Cartoons For Kids | Ep 51",
            "url": "https://www.youtube.com/watch?v=7H4OpsPIbdA",
            "duration": 1221.0,
            "view_count": 37941,
            "uploader": "HOST FIRE",
            "category": "cartoons/inspector_chingum",
            "thumbnail": "https://i.ytimg.com/vi/7H4OpsPIbdA/hqdefault.jpg"
        },
        {
            "id": "mu8p4Q3vVV0",
            "title": "Aakhri Ravan | Ep 01 | Inspector Chingum | 3D Comedy Cartoon In Hindi | Wow Comedy",
            "url": "https://www.youtube.com/watch?v=mu8p4Q3vVV0",
            "duration": 1296.0,
            "view_count": 91991,
            "uploader": "Wow Kidz Comedy",
            "category": "cartoons/inspector_chingum",
            "thumbnail": "https://i.ytimg.com/vi/mu8p4Q3vVV0/hq720.jpg"
        },
        {
            "id": "aiY81LO56RU",
            "title": "Animated Series | Inspector Chingum | Hindi Cartoons For Kids | Ep 20 | Wow Kidz",
            "url": "https://www.youtube.com/watch?v=aiY81LO56RU",
            "duration": 1258.0,
            "view_count": 432112,
            "uploader": "WowKidz",
            "category": "cartoons/inspector_chingum",
            "thumbnail": "https://i.ytimg.com/vi/aiY81LO56RU/hq720.jpg"
        },
        {
            "id": "IUIpigugpgk",
            "title": "Animated Series | Inspector Chingum | Hindi Cartoons For Kids | Ep 14 | Wow Kidz",
            "url": "https://www.youtube.com/watch?v=IUIpigugpgk",
            "duration": 1282.0,
            "view_count": 1453870,
            "uploader": "WowKidz",
            "category": "cartoons/inspector_chingum",
            "thumbnail": "https://i.ytimg.com/vi/IUIpigugpgk/hq720.jpg"
        }
    ]
}