{
    "page": 36,
    "total_pages": 103,
    "total_items": 5125,
    "items": [
        {
            "id": "7BB5EXjecBE",
            "title": "Jethalal को लगी जम के भूख | Taarak Mehta Ka Ooltah Chashmah | Jethalal Hungry",
            "url": "https://www.youtube.com/watch?v=7BB5EXjecBE",
            "duration": 3528.0,
            "view_count": 8667,
            "uploader": "Taarak Mehta Ka Ooltah Chashmah Episodes",
            "category": "taarak_mehta",
            "thumbnail": "https://i.ytimg.com/vi/7BB5EXjecBE/hq720.jpg"
        },
        {
            "id": "nzHeefLcxv8",
            "title": "Popat Lashes Out At Bhide | Taarak Mehta Ka Ooltah Chashmah| Full Ep 4676 | 4 Apr 2026 | New Episode",
            "url": "https://www.youtube.com/watch?v=nzHeefLcxv8",
            "duration": 1347.0,
            "view_count": 834657,
            "uploader": "Taarak Mehta Ka Ooltah Chashmah Episodes",
            "category": "taarak_mehta",
            "thumbnail": "https://i.ytimg.com/vi/nzHeefLcxv8/hq720.jpg"
        },
        {
            "id": "Vjw4U4Q_QrI",
            "title": "Bhide ko mili Punishment | Taarak Mehta Ka Ooltah Chashmah | Full Movie",
            "url": "https://www.youtube.com/watch?v=Vjw4U4Q_QrI",
            "duration": 3564.0,
            "view_count": 9733,
            "uploader": "Taarak Mehta Ka Ooltah Chashmah Episodes",
            "category": "taarak_mehta",
            "thumbnail": "https://i.ytimg.com/vi/Vjw4U4Q_QrI/hq720.jpg"
        },
        {
            "id": "_yFANVL2T_8",
            "title": "Jethalal Hai Pyar Ka Dushman ! | FULL MOVIE | Taarak Mehta Ka Ooltah Chashmah",
            "url": "https://www.youtube.com/watch?v=_yFANVL2T_8",
            "duration": 3586.0,
            "view_count": 31125,
            "uploader": "Taarak Mehta Ka Ooltah Chashmah",
            "category": "taarak_mehta",
            "thumbnail": "https://i.ytimg.com/vi/_yFANVL2T_8/hq720.jpg"
        },
        {
            "id": "Zgh9YKDiUA8",
            "title": "Who Will Help Gokuldham Members? | Taarak Mehta Ka Ooltah Chashmah | Full Episode",
            "url": "https://www.youtube.com/watch?v=Zgh9YKDiUA8",
            "duration": 1169.0,
            "view_count": 4362,
            "uploader": "Taarak Mehta Ka Ooltah Chashmah Episodes",
            "category": "taarak_mehta",
            "thumbnail": "https://i.ytimg.com/vi/Zgh9YKDiUA8/hq720.jpg"
        },
        {
            "id": "FWQiMPG7-Rc",
            "title": "Daya Ho gayi Out of Control | Taarak Mehta Ka Ooltah Chashmah | Full Movie",
            "url": "https://www.youtube.com/watch?v=FWQiMPG7-Rc",
            "duration": 3219.0,
            "view_count": 10322,
            "uploader": "Taarak Mehta Ka Ooltah Chashmah Episodes",
            "category": "taarak_mehta",
            "thumbnail": "https://i.ytimg.com/vi/FWQiMPG7-Rc/hq720.jpg"
        },
        {
            "id": "9qijQf_x6_g",
            "title": "Bhide पर क्यों हंस रही है Tapu Sena? | Taarak Mehta Ka Ooltah Chashmah | Renovation",
            "url": "https://www.youtube.com/watch?v=9qijQf_x6_g",
            "duration": 2407.0,
            "view_count": 57814,
            "uploader": "Taarak Mehta Ka Ooltah Chashmah Episodes",
            "category": "taarak_mehta",
            "thumbnail": "https://i.ytimg.com/vi/9qijQf_x6_g/hq720.jpg"
        },
        {
            "id": "8ei5n2gId54",
            "title": "Jethalal ne Phad Diya Bhide ka Kurta ! | FULL MOVIE | Taarak Mehta Ka Ooltah Chashmah",
            "url": "https://www.youtube.com/watch?v=8ei5n2gId54",
            "duration": 2167.0,
            "view_count": 1622377,
            "uploader": "Taarak Mehta Ka Ooltah Chashmah",
            "category": "taarak_mehta",
            "thumbnail": "https://i.ytimg.com/vi/8ei5n2gId54/hq720.jpg?sqp=-oaymwEcCNAFEJQDSFXyq4qpAw4IARUAAIhCGAFwAcABBg==&rs=AOn4CLBOJskpXix_SFmeP_Z4KENn-EEgUA",
            "added_date": "2026-04-16T07:31:41.369426Z",
            "source": "youtube"
        },
        {
            "id": "qvyvpuy1urE",
            "title": "Jetha And Daya Distribute Sweets | Taarak Mehta Ka Ooltah Chashmah | Full Episode",
            "url": "https://www.youtube.com/watch?v=qvyvpuy1urE",
            "duration": 1232.0,
            "view_count": 13763,
            "uploader": "Taarak Mehta Ka Ooltah Chashmah Episodes",
            "category": "taarak_mehta",
            "thumbnail": "https://i.ytimg.com/vi/qvyvpuy1urE/hq720.jpg"
        },
        {
            "id": "LxhwgjCuVK4",
            "title": "Kaun kar raha hai Madhavi ka Picha? | Taarak Mehta Ka Ooltah Chashmah | Full Movie",
            "url": "https://www.youtube.com/watch?v=LxhwgjCuVK4",
            "duration": 3145.0,
            "view_count": 208628,
            "uploader": "Taarak Mehta Ka Ooltah Chashmah Episodes",
            "category": "taarak_mehta",
            "thumbnail": "https://i.ytimg.com/vi/LxhwgjCuVK4/hq720.jpg"
        },
        {
            "id": "DhtPgBhMZ0k",
            "title": "Daya kaise hui Behosh? | Taarak Mehta Ka Ooltah Chashmah | Full Movie",
            "url": "https://www.youtube.com/watch?v=DhtPgBhMZ0k",
            "duration": 3812.0,
            "view_count": 115718,
            "uploader": "Taarak Mehta Ka Ooltah Chashmah Episodes",
            "category": "taarak_mehta",
            "thumbnail": "https://i.ytimg.com/vi/DhtPgBhMZ0k/hq720.jpg"
        },
        {
            "id": "ilsfiEcPhdk",
            "title": "Bagha Ke Karan Cancel Hui Deal ! | FULL MOVIE | Taarak Mehta Ka Ooltah Chashmah",
            "url": "https://www.youtube.com/watch?v=ilsfiEcPhdk",
            "duration": 2411.0,
            "view_count": 120962,
            "uploader": "Taarak Mehta Ka Ooltah Chashmah",
            "category": "taarak_mehta",
            "thumbnail": "https://i.ytimg.com/vi/ilsfiEcPhdk/hq720.jpg"
        },
        {
            "id": "JjoXQA8hrNA",
            "title": "क्यों की Jetha ने Meeting Cancel? | Taarak Mehta Ka Ooltah Chashmah | Godown Ki Chabi",
            "url": "https://www.youtube.com/watch?v=JjoXQA8hrNA",
            "duration": 2494.0,
            "view_count": 114823,
            "uploader": "Taarak Mehta Ka Ooltah Chashmah Episodes",
            "category": "taarak_mehta",
            "thumbnail": "https://i.ytimg.com/vi/JjoXQA8hrNA/hq720.jpg"
        },
        {
            "id": "unnZRiCBF6E",
            "title": "Daya ke khilaf hui Sajhish Shuru | Taarak Mehta Ka Ooltah Chashmah | Full Movie",
            "url": "https://www.youtube.com/watch?v=unnZRiCBF6E",
            "duration": 3498.0,
            "view_count": 5979,
            "uploader": "Taarak Mehta Ka Ooltah Chashmah Episodes",
            "category": "taarak_mehta",
            "thumbnail": "https://i.ytimg.com/vi/unnZRiCBF6E/hq720.jpg"
        },
        {
            "id": "mMzDYkiVvnU",
            "title": "Can Residents Save Babita And Iyer? | Taarak Mehta Ka Ooltah Chashmah | Jetha Bapuji Special",
            "url": "https://www.youtube.com/watch?v=mMzDYkiVvnU",
            "duration": 1190.0,
            "view_count": 1709,
            "uploader": "Taarak Mehta Ka Ooltah Chashmah Episodes",
            "category": "taarak_mehta",
            "thumbnail": "https://i.ytimg.com/vi/mMzDYkiVvnU/hq720.jpg"
        },
        {
            "id": "ibDvv51oels",
            "title": "NEW! Ep 4677 - Bhide ne Kyun Bulayi Apatkal Meeting! | Taarak Mehta ka Ooltah Chashmah",
            "url": "https://www.youtube.com/watch?v=ibDvv51oels",
            "duration": 609.0,
            "view_count": 1207035,
            "uploader": "Taarak Mehta Ka Ooltah Chashmah",
            "category": "taarak_mehta",
            "thumbnail": "https://i.ytimg.com/vi/ibDvv51oels/hq720.jpg"
        },
        {
            "id": "Bx-vWeOfzAA",
            "title": "Bhide के घर पहुँचे गुंडे ! | FULL MOVIE | Taarak Mehta Ka Ooltah Chashmah",
            "url": "https://www.youtube.com/watch?v=Bx-vWeOfzAA",
            "duration": 3528.0,
            "view_count": 53109,
            "uploader": "Taarak Mehta Ka Ooltah Chashmah",
            "category": "taarak_mehta",
            "thumbnail": "https://i.ytimg.com/vi/Bx-vWeOfzAA/hq720.jpg"
        },
        {
            "id": "_Bp5u9a_mRA",
            "title": "NEW! Ep 4677 - Bhide ne Kyun Bulayi Apatkal Meeting! | Taarak Mehta ka Ooltah Chashmah",
            "url": "https://www.youtube.com/watch?v=_Bp5u9a_mRA",
            "duration": 609.0,
            "view_count": 29356,
            "uploader": "Taarak Mehta Ka Ooltah Chashmah Episodes",
            "category": "taarak_mehta",
            "thumbnail": "https://i.ytimg.com/vi/_Bp5u9a_mRA/hq720.jpg"
        },
        {
            "id": "BHn-VgsbzVs",
            "title": "Bathroom से भागते हुए Balcony में क्यों आया Popatlal?| Taarak Mehta Ka Ooltah Chashmah|Abdul Missing",
            "url": "https://www.youtube.com/watch?v=BHn-VgsbzVs",
            "duration": 3521.0,
            "view_count": 17310,
            "uploader": "Taarak Mehta Ka Ooltah Chashmah Episodes",
            "category": "taarak_mehta",
            "thumbnail": "https://i.ytimg.com/vi/BHn-VgsbzVs/hq720.jpg"
        },
        {
            "id": "jD1ieerm5mE",
            "title": "Purush Mandali ने की Secret Party की Planning | Taarak Mehta Ka Ooltah Chashmah | New Year Party",
            "url": "https://www.youtube.com/watch?v=jD1ieerm5mE",
            "duration": 3123.0,
            "view_count": 4442,
            "uploader": "Taarak Mehta Ka Ooltah Chashmah Episodes",
            "category": "taarak_mehta",
            "thumbnail": "https://i.ytimg.com/vi/jD1ieerm5mE/hq720.jpg"
        },
        {
            "id": "KXlokx-hkl8",
            "title": "Taarak aur Iyer ki Naukri Khatre Mein! ! | FULL MOVIE | Taarak Mehta Ka Ooltah Chashmah",
            "url": "https://www.youtube.com/watch?v=KXlokx-hkl8",
            "duration": 2323.0,
            "view_count": 383387,
            "uploader": "Taarak Mehta Ka Ooltah Chashmah",
            "category": "taarak_mehta",
            "thumbnail": "https://i.ytimg.com/vi/KXlokx-hkl8/hq720.jpg"
        },
        {
            "id": "93lJflH6v_E",
            "title": "Mehta Ne Kyun Ki Boss Ke Sath Hatapayi  ! | FULL MOVIE | Taarak Mehta Ka Ooltah Chashmah",
            "url": "https://www.youtube.com/watch?v=93lJflH6v_E",
            "duration": 3544.0,
            "view_count": 120146,
            "uploader": "Taarak Mehta Ka Ooltah Chashmah",
            "category": "taarak_mehta",
            "thumbnail": "https://i.ytimg.com/vi/93lJflH6v_E/hq720.jpg"
        },
        {
            "id": "mIYzvhHxAGI",
            "title": "Bhide & Popatlal's Fight | Taarak Mehta Ka Ooltah Chashmah | Full Ep 4677 | 6 Apr 2026 | New Episode",
            "url": "https://www.youtube.com/watch?v=mIYzvhHxAGI",
            "duration": 1356.0,
            "view_count": 886756,
            "uploader": "Taarak Mehta Ka Ooltah Chashmah Episodes",
            "category": "taarak_mehta",
            "thumbnail": "https://i.ytimg.com/vi/mIYzvhHxAGI/hqdefault.jpg"
        },
        {
            "id": "id7yraRODzo",
            "title": "Jethalal और Popatlal क्यों बने कुल्फ़ी वाले? | Taarak Mehta Ka Ooltah Chashmah | Bhide In Tension",
            "url": "https://www.youtube.com/watch?v=id7yraRODzo",
            "duration": 3433.0,
            "view_count": 16582,
            "uploader": "Taarak Mehta Ka Ooltah Chashmah Episodes",
            "category": "taarak_mehta",
            "thumbnail": "https://i.ytimg.com/vi/id7yraRODzo/hq720.jpg"
        },
        {
            "id": "9jqdkHX7xBg",
            "title": "अपना Plan भूलकर Residents को हुई कचोरी की Craving | Taarak Mehta Ka Ooltah Chashmah | Abdul Missing",
            "url": "https://www.youtube.com/watch?v=9jqdkHX7xBg",
            "duration": 3658.0,
            "view_count": 87641,
            "uploader": "Taarak Mehta Ka Ooltah Chashmah Episodes",
            "category": "taarak_mehta",
            "thumbnail": "https://i.ytimg.com/vi/9jqdkHX7xBg/hq720.jpg"
        },
        {
            "id": "A9Wj5RPwWdM",
            "title": "Daya ने Jethalal को दिया ढेर सारा काम | Taarak Mehta Ka Ooltah Chashmah | Jethalal Hungry",
            "url": "https://www.youtube.com/watch?v=A9Wj5RPwWdM",
            "duration": 3414.0,
            "view_count": 5262,
            "uploader": "Taarak Mehta Ka Ooltah Chashmah Episodes",
            "category": "taarak_mehta",
            "thumbnail": "https://i.ytimg.com/vi/A9Wj5RPwWdM/hq720.jpg"
        },
        {
            "id": "WS94avQSfiQ",
            "title": "Kaise laga 440 Ka Jhatka? | Taarak Mehta Ka Ooltah Chashmah | Full Movie",
            "url": "https://www.youtube.com/watch?v=WS94avQSfiQ",
            "duration": 3389.0,
            "view_count": 15141,
            "uploader": "Taarak Mehta Ka Ooltah Chashmah Episodes",
            "category": "taarak_mehta",
            "thumbnail": "https://i.ytimg.com/vi/WS94avQSfiQ/hq720.jpg"
        },
        {
            "id": "yuY67Nls_kA",
            "title": "Episode 597 - Taarak Mehta Ka Ooltah Chashmah - Full Episode | तारक मेहता का उल्टा चश्मा",
            "url": "https://www.youtube.com/watch?v=yuY67Nls_kA",
            "duration": 1304.0,
            "view_count": 25583455,
            "uploader": "Taarak Mehta Ka Ooltah Chashmah",
            "category": "taarak_mehta",
            "thumbnail": "https://i.ytimg.com/vi/yuY67Nls_kA/hq720.jpg"
        },
        {
            "id": "AImXZRwtBC8",
            "title": "FULL EPISODE! 4648 किस सिलसिले me Chutki baba se Milne पहुचा Popat | Taarak Mehta Ka Ooltah Chashmah",
            "url": "https://www.youtube.com/watch?v=AImXZRwtBC8",
            "duration": 1347.0,
            "view_count": 17268,
            "uploader": "Taarak Mehta Ka Ooltah Chashmah",
            "category": "taarak_mehta",
            "thumbnail": "https://i.ytimg.com/vi/AImXZRwtBC8/hq720.jpg"
        },
        {
            "id": "oFTRgKMNBDc",
            "title": "Bapuji ne Kyu Bola Jethya ko Jyotishi! | FULL MOVIE | Taarak Mehta Ka Ooltah Chashmah",
            "url": "https://www.youtube.com/watch?v=oFTRgKMNBDc",
            "duration": 3501.0,
            "view_count": 5527527,
            "uploader": "Taarak Mehta Ka Ooltah Chashmah",
            "category": "taarak_mehta",
            "thumbnail": "https://i.ytimg.com/vi/oFTRgKMNBDc/hq720.jpg"
        },
        {
            "id": "KfXPRxM8zGo",
            "title": "Jetha aur Bapuji ko Pata Chali Bhide ki Problem ! | FULL MOVIE | Taarak Mehta Ka Ooltah Chashmah",
            "url": "https://www.youtube.com/watch?v=KfXPRxM8zGo",
            "duration": 3209.0,
            "view_count": 446599,
            "uploader": "Taarak Mehta Ka Ooltah Chashmah",
            "category": "taarak_mehta",
            "thumbnail": "https://i.ytimg.com/vi/KfXPRxM8zGo/hq720.jpg"
        },
        {
            "id": "wT_mZBMWl1I",
            "title": "Bhide's Resignation | Taarak Mehta Ka Ooltah Chashmah | Full Ep 4678 | 7 Apr 2026 | New Episode",
            "url": "https://www.youtube.com/watch?v=wT_mZBMWl1I",
            "duration": 1347.0,
            "view_count": 853037,
            "uploader": "Taarak Mehta Ka Ooltah Chashmah Episodes",
            "category": "taarak_mehta",
            "thumbnail": "https://i.ytimg.com/vi/wT_mZBMWl1I/hq720.jpg"
        },
        {
            "id": "Qr1DNji_CdI",
            "title": "Jetha & Bapuji Got Afraid | Taarak Mehta Ka Ooltah Chashmah | Jetha Bapuji Special",
            "url": "https://www.youtube.com/watch?v=Qr1DNji_CdI",
            "duration": 1178.0,
            "view_count": 2167,
            "uploader": "Taarak Mehta Ka Ooltah Chashmah Episodes",
            "category": "taarak_mehta",
            "thumbnail": "https://i.ytimg.com/vi/Qr1DNji_CdI/hq720.jpg"
        },
        {
            "id": "d3VghodRCDQ",
            "title": "Gunde ne Kyu Maroda Bhide ka Haath | Taarak Mehta Ka Ooltah Chashmah | Full Movie",
            "url": "https://www.youtube.com/watch?v=d3VghodRCDQ",
            "duration": 3385.0,
            "view_count": 11758,
            "uploader": "Taarak Mehta Ka Ooltah Chashmah Episodes",
            "category": "taarak_mehta",
            "thumbnail": "https://i.ytimg.com/vi/d3VghodRCDQ/hq720.jpg"
        },
        {
            "id": "mq2ugRvcE00",
            "title": "Bhide पर क्यों भड़के Bapuji? | Taarak Mehta Ka Ooltah Chashmah | Mission Hathoda",
            "url": "https://www.youtube.com/watch?v=mq2ugRvcE00",
            "duration": 3543.0,
            "view_count": 69103,
            "uploader": "Taarak Mehta Ka Ooltah Chashmah Episodes",
            "category": "taarak_mehta",
            "thumbnail": "https://i.ytimg.com/vi/mq2ugRvcE00/hq720.jpg"
        },
        {
            "id": "1Zn3DHEaX60",
            "title": "Sundar ne di Jethalal ko Dhamki | Taarak Mehta Ka Ooltah Chashmah | Full Movie",
            "url": "https://www.youtube.com/watch?v=1Zn3DHEaX60",
            "duration": 3390.0,
            "view_count": 39873,
            "uploader": "Taarak Mehta Ka Ooltah Chashmah Episodes",
            "category": "taarak_mehta",
            "thumbnail": "https://i.ytimg.com/vi/1Zn3DHEaX60/hq720.jpg"
        },
        {
            "id": "1oMHv1CK1xE",
            "title": "Jethalal ke Ghar चक्कर आके गिर गया Bhide 😮! | FULL MOVIE | Taarak Mehta Ka Ooltah Chashmah",
            "url": "https://www.youtube.com/watch?v=1oMHv1CK1xE",
            "duration": 3386.0,
            "view_count": 441913,
            "uploader": "Taarak Mehta Ka Ooltah Chashmah",
            "category": "taarak_mehta",
            "thumbnail": "https://i.ytimg.com/vi/1oMHv1CK1xE/hq720.jpg"
        },
        {
            "id": "YQQXx6lFLKs",
            "title": "Kisko Dekh kr Bhide Darr raha hai ! | FULL MOVIE | Taarak Mehta Ka Ooltah Chashmah",
            "url": "https://www.youtube.com/watch?v=YQQXx6lFLKs",
            "duration": 3523.0,
            "view_count": 23942,
            "uploader": "Taarak Mehta Ka Ooltah Chashmah",
            "category": "taarak_mehta",
            "thumbnail": "https://i.ytimg.com/vi/YQQXx6lFLKs/hq720.jpg"
        },
        {
            "id": "JRMUNeRZZW4",
            "title": "Popatlal kaise aaya Bhide ke scooter ke niche ? | FULL MOVIE | Taarak Mehta Ka Ooltah Chashmah",
            "url": "https://www.youtube.com/watch?v=JRMUNeRZZW4",
            "duration": 3604.0,
            "view_count": 111724,
            "uploader": "Taarak Mehta Ka Ooltah Chashmah",
            "category": "taarak_mehta",
            "thumbnail": "https://i.ytimg.com/vi/JRMUNeRZZW4/hq720.jpg"
        },
        {
            "id": "AcTZaGpXgfw",
            "title": "Bhide Blames Popatlal | Taarak Mehta Ka Ooltah Chashmah | Full Ep 4679 | 8 Apr 2026 | New Episode",
            "url": "https://www.youtube.com/watch?v=AcTZaGpXgfw",
            "duration": 1324.0,
            "view_count": 996294,
            "uploader": "Taarak Mehta Ka Ooltah Chashmah Episodes",
            "category": "taarak_mehta",
            "thumbnail": "https://i.ytimg.com/vi/AcTZaGpXgfw/hq720.jpg"
        },
        {
            "id": "CUoxpiDJeFw",
            "title": "Jethalal ne toda Nariyal | Taarak Mehta Ka Ooltah Chashmah | Full Movie",
            "url": "https://www.youtube.com/watch?v=CUoxpiDJeFw",
            "duration": 3106.0,
            "view_count": 37016,
            "uploader": "Taarak Mehta Ka Ooltah Chashmah Episodes",
            "category": "taarak_mehta",
            "thumbnail": "https://i.ytimg.com/vi/CUoxpiDJeFw/hq720.jpg"
        },
        {
            "id": "HdDamwjr2B4",
            "title": "Jethalal को पता चला Tapu का Secret Plan | Taarak Mehta Ka Ooltah Chashmah | Mission Hathoda",
            "url": "https://www.youtube.com/watch?v=HdDamwjr2B4",
            "duration": 3441.0,
            "view_count": 55307,
            "uploader": "Taarak Mehta Ka Ooltah Chashmah Episodes",
            "category": "taarak_mehta",
            "thumbnail": "https://i.ytimg.com/vi/HdDamwjr2B4/hq720.jpg"
        },
        {
            "id": "sN1QeOd4ZBM",
            "title": "Bhide को Don Baadal से वापस मिला Scooter | Taarak Mehta Ka Ooltah Chashmah | Bhide In Tension",
            "url": "https://www.youtube.com/watch?v=sN1QeOd4ZBM",
            "duration": 3094.0,
            "view_count": 14267,
            "uploader": "Taarak Mehta Ka Ooltah Chashmah Episodes",
            "category": "taarak_mehta",
            "thumbnail": "https://i.ytimg.com/vi/sN1QeOd4ZBM/hq720.jpg"
        },
        {
            "id": "R01WvKGiYiY",
            "title": "Jethalal Ke Bhaitne Par Tut Gaya Sofa ! | FULL MOVIE | Taarak Mehta Ka Ooltah Chashmah",
            "url": "https://www.youtube.com/watch?v=R01WvKGiYiY",
            "duration": 3303.0,
            "view_count": 739476,
            "uploader": "Taarak Mehta Ka Ooltah Chashmah",
            "category": "taarak_mehta",
            "thumbnail": "https://i.ytimg.com/vi/R01WvKGiYiY/hq720.jpg?sqp=-oaymwEcCNAFEJQDSFXyq4qpAw4IARUAAIhCGAFwAcABBg==&rs=AOn4CLAqt1YWrGp86s-wu70vqhe_jD6n2w",
            "added_date": "2026-04-16T07:31:41.970541Z",
            "source": "youtube"
        },
        {
            "id": "Pw08IJ70d-M",
            "title": "Kiska tiffin Jethalal chhin ke kha raha hai | Taarak Mehta Ka Ooltah Chashamh | Ep. 98",
            "url": "https://www.youtube.com/watch?v=Pw08IJ70d-M",
            "duration": 615.0,
            "view_count": 2251,
            "uploader": "Taarak Mehta Ka Ooltah Chashmah Episodes",
            "category": "taarak_mehta",
            "thumbnail": "https://i.ytimg.com/vi/Pw08IJ70d-M/hq720.jpg"
        },
        {
            "id": "wqIEnHfmio4",
            "title": "The Real Culprit Gets Arrested | Taarak Mehta Ka Ooltah Chashmah | Jetha Bapuji Special",
            "url": "https://www.youtube.com/watch?v=wqIEnHfmio4",
            "duration": 1094.0,
            "view_count": 2880,
            "uploader": "Taarak Mehta Ka Ooltah Chashmah Episodes",
            "category": "taarak_mehta",
            "thumbnail": "https://i.ytimg.com/vi/wqIEnHfmio4/hq720.jpg"
        },
        {
            "id": "2fv7Ofr_At8",
            "title": "Popat Apologizes To Bhide | Taarak Mehta Ka Ooltah Chashmah| Full Ep 4680 | 9 Apr 2026 | New Episode",
            "url": "https://www.youtube.com/watch?v=2fv7Ofr_At8",
            "duration": 1238.0,
            "view_count": 939857,
            "uploader": "Taarak Mehta Ka Ooltah Chashmah Episodes",
            "category": "taarak_mehta",
            "thumbnail": "https://i.ytimg.com/vi/2fv7Ofr_At8/hq720.jpg"
        },
        {
            "id": "pojjZfMqdPk",
            "title": "Bagha ne Jethalal ko Driving Seat se Kyu Utara | FULL MOVIE | Taarak Mehta Ka Ooltah Chashmah",
            "url": "https://www.youtube.com/watch?v=pojjZfMqdPk",
            "duration": 3336.0,
            "view_count": 9791,
            "uploader": "Taarak Mehta Ka Ooltah Chashmah",
            "category": "taarak_mehta",
            "thumbnail": "https://i.ytimg.com/vi/pojjZfMqdPk/hq720.jpg"
        },
        {
            "id": "eDMoFNK6LC8",
            "title": "Jethalal Gets Arrested | Taarak Mehta Ka Ooltah Chashmah | Full Episode",
            "url": "https://www.youtube.com/watch?v=eDMoFNK6LC8",
            "duration": 2314.0,
            "view_count": 12281,
            "uploader": "Taarak Mehta Ka Ooltah Chashmah Episodes",
            "category": "taarak_mehta",
            "thumbnail": "https://i.ytimg.com/vi/eDMoFNK6LC8/hq720.jpg"
        },
        {
            "id": "41QPnes59x0",
            "title": "Jethalal Konsi Scheme se hua Gussa ? | FULL MOVIE | Taarak Mehta Ka Ooltah Chashmah",
            "url": "https://www.youtube.com/watch?v=41QPnes59x0",
            "duration": 3349.0,
            "view_count": 49160,
            "uploader": "Taarak Mehta Ka Ooltah Chashmah",
            "category": "taarak_mehta",
            "thumbnail": "https://i.ytimg.com/vi/41QPnes59x0/hq720.jpg"
        }
    ]
}