{
    "page": 45,
    "total_pages": 103,
    "total_items": 5125,
    "items": [
        {
            "id": "GBgOsM95RiQ",
            "title": "Sabari Latest Telugu Suspense Thriller Full Movie | Varalaxmi Sarathkumar | 2026 New South Movies",
            "url": "https://www.youtube.com/watch?v=GBgOsM95RiQ",
            "duration": 7606.0,
            "view_count": 1602934,
            "uploader": "SriBalajiMovies and 4 more",
            "category": "telugu",
            "thumbnail": "https://i.ytimg.com/vi/GBgOsM95RiQ/hq720.jpg"
        },
        {
            "id": "y99RZSBoh-w",
            "title": "Maharshi Action Drama Telugu Full Movie | Mahesh Babu | Allari Naresh, Pooja Hegde@southcinemahall",
            "url": "https://www.youtube.com/watch?v=y99RZSBoh-w",
            "duration": 8683.0,
            "view_count": 264813,
            "uploader": "South Cinema Hall and 3 more",
            "category": "telugu",
            "thumbnail": "https://i.ytimg.com/vi/y99RZSBoh-w/hq720.jpg"
        },
        {
            "id": "rfupCVQzQQA",
            "title": "Trauma Telugu Full Movie | Crime Thriller | Vivek Prasanna | Chandini Tamilarasan | Ananth Nag",
            "url": "https://www.youtube.com/watch?v=rfupCVQzQQA",
            "duration": 6584.0,
            "view_count": 484714,
            "uploader": "BhavaniHD Movies",
            "category": "telugu",
            "thumbnail": "https://i.ytimg.com/vi/rfupCVQzQQA/hq720.jpg"
        },
        {
            "id": "n6cvc_vJ-_4",
            "title": "🎬 Kanulu Kanulanu Dochayante Telugu Full Movie | Dulquer Salmaan, Ritu Varma | Thriller Romance 💥",
            "url": "https://www.youtube.com/watch?v=n6cvc_vJ-_4",
            "duration": 8518.0,
            "view_count": 393095,
            "uploader": "Delugu Movies",
            "category": "telugu",
            "thumbnail": "https://i.ytimg.com/vi/n6cvc_vJ-_4/hq720.jpg"
        },
        {
            "id": "uPdXi6xIBlc",
            "title": "Balu ABCDEFG Telugu Full Length Movie || Pawan Kalyan,Shriya Saran",
            "url": "https://www.youtube.com/watch?v=uPdXi6xIBlc",
            "duration": 9676.0,
            "view_count": 9365907,
            "uploader": "Shalimar Telugu & Hindi Movies",
            "category": "telugu",
            "thumbnail": "https://i.ytimg.com/vi/uPdXi6xIBlc/hq720.jpg"
        },
        {
            "id": "XBFkIUfz5VA",
            "title": "Spy Action-Spy Telugu Full HD Film | Nikhil Siddhartha And Iswarya Menon | Abhinav Gomatam",
            "url": "https://www.youtube.com/watch?v=XBFkIUfz5VA",
            "duration": 7081.0,
            "view_count": 118458,
            "uploader": "Maa Cinemalu",
            "category": "telugu",
            "thumbnail": "https://i.ytimg.com/vi/XBFkIUfz5VA/hq720.jpg"
        },
        {
            "id": "n9U4hYytViQ",
            "title": "Nagarjuna And Karthi Super Hit Telugu Comedy Full Length Movie | Tamannaah Bhatia | Icon Videos",
            "url": "https://www.youtube.com/watch?v=n9U4hYytViQ",
            "duration": 7466.0,
            "view_count": 10965472,
            "uploader": "ICON VIDEOS",
            "category": "telugu",
            "thumbnail": "https://i.ytimg.com/vi/n9U4hYytViQ/hq720.jpg"
        },
        {
            "id": "lCX2Hy-Wfy0",
            "title": "Allari Naresh Latest Comedy Movie | Latest New Telugu Movies | Ganesh Videos",
            "url": "https://www.youtube.com/watch?v=lCX2Hy-Wfy0",
            "duration": 8601.0,
            "view_count": 8053669,
            "uploader": "Ganesh Videos",
            "category": "telugu",
            "thumbnail": "https://i.ytimg.com/vi/lCX2Hy-Wfy0/hq720.jpg"
        },
        {
            "id": "FCacbCPeV5c",
            "title": "COUPLE FRIENDLY full movie 2026 (telugu) | Romantic Love Story | Santhosh shoban | Latest new movie ",
            "url": "https://www.youtube.com/watch?v=FCacbCPeV5c",
            "duration": 6116.0,
            "view_count": 15131,
            "uploader": "Z Seriez",
            "category": "telugu",
            "thumbnail": "https://i.ytimg.com/vi/FCacbCPeV5c/hqdefault.jpg"
        },
        {
            "id": "DRoyjBDVYyw",
            "title": "ZERO HOUR (జీరో అవర్) | Chiyaan Vikram New Telugu Dubbed MASS Action PSYCHO Thriller | Full HD Movie",
            "url": "https://www.youtube.com/watch?v=DRoyjBDVYyw",
            "duration": 10616.0,
            "view_count": 848493,
            "uploader": "Andhra Talkies",
            "category": "telugu",
            "thumbnail": "https://i.ytimg.com/vi/DRoyjBDVYyw/hq720.jpg"
        },
        {
            "id": "SWEdcExye3I",
            "title": "Gulebakavali Katha Full Movie Telugu | NTR, Jamuna, Nagarathna | గులేబకావళి కథ.. TeluguOne",
            "url": "https://www.youtube.com/watch?v=SWEdcExye3I",
            "duration": 10013.0,
            "view_count": 0,
            "uploader": "TeluguOne",
            "category": "telugu",
            "thumbnail": "https://i.ytimg.com/vi/SWEdcExye3I/hq720.jpg"
        },
        {
            "id": "lBgef6ZPVog",
            "title": "Bhartha Mahasayulaku Wignyapthi telugu full movie 2026 Reaction &facts | Ravi Teja | Ashika | Dimple",
            "url": "https://www.youtube.com/watch?v=lBgef6ZPVog",
            "duration": 8303.0,
            "view_count": 32604,
            "uploader": "XpTV",
            "category": "telugu",
            "thumbnail": "https://i.ytimg.com/vi/lBgef6ZPVog/hq720.jpg"
        },
        {
            "id": "DGJhzUcpeo8",
            "title": "Leo Full Movie (Telugu) | Vijay | Lokesh Kanagaraj | Anirudh | Telugu Action Movie | Delugu Movies",
            "url": "https://www.youtube.com/watch?v=DGJhzUcpeo8",
            "duration": 8317.0,
            "view_count": 444390,
            "uploader": "Delugu Movies",
            "category": "telugu",
            "thumbnail": "https://i.ytimg.com/vi/DGJhzUcpeo8/hq720.jpg?sqp=-oaymwEcCNAFEJQDSFXyq4qpAw4IARUAAIhCGAFwAcABBg==&rs=AOn4CLAOq5SXGHisAYh1XZkpdPvy0jlzBw",
            "added_date": "2026-04-16T07:31:16.225653Z",
            "source": "youtube"
        },
        {
            "id": "zqgfNNbfTuk",
            "title": "Maska Full Movie Telugu | Ram, Hansika Motwani, Sheela Kaur, Sunil | TeluguOne",
            "url": "https://www.youtube.com/watch?v=zqgfNNbfTuk",
            "duration": 9346.0,
            "view_count": 1293132,
            "uploader": "TeluguOne",
            "category": "telugu",
            "thumbnail": "https://i.ytimg.com/vi/zqgfNNbfTuk/hq720.jpg?sqp=-oaymwEcCNAFEJQDSFXyq4qpAw4IARUAAIhCGAFwAcABBg==&rs=AOn4CLCRjiKBt-oyrST8tMLOY8kybXX0mQ",
            "added_date": "2026-04-16T07:31:17.027063Z",
            "source": "youtube"
        },
        {
            "id": "UUkEGyXn2pI",
            "title": "Chandi Chamundi Full Movie | Kavitha, Vijayalalitha, NuthanPrasad, Jeeva | ETV Cinema",
            "url": "https://www.youtube.com/watch?v=UUkEGyXn2pI",
            "duration": 8240.0,
            "view_count": 4222,
            "uploader": "ETV Cinema",
            "category": "telugu",
            "thumbnail": "https://i.ytimg.com/vi/UUkEGyXn2pI/hq720.jpg"
        },
        {
            "id": "M6RTMGhCGps",
            "title": "Dasavatharam (2008) Telugu Full Movie | Kamal Haasan in 10 Roles | Action Thriller | HD Cinema",
            "url": "https://www.youtube.com/watch?v=M6RTMGhCGps",
            "duration": 10527.0,
            "view_count": 630008,
            "uploader": "Delugu Movies",
            "category": "telugu",
            "thumbnail": "https://i.ytimg.com/vi/M6RTMGhCGps/hq720.jpg"
        },
        {
            "id": "ARDKlNep8r0",
            "title": "Varaprasad Ku Vadhuvu Kavalenu Full Movie || Telugu Full Movies || Jdv Prasad || Aiswarya || Soniya",
            "url": "https://www.youtube.com/watch?v=ARDKlNep8r0",
            "duration": 7371.0,
            "view_count": 28184,
            "uploader": "JDV Prasad ",
            "category": "telugu",
            "thumbnail": "https://i.ytimg.com/vi/ARDKlNep8r0/hq720.jpg"
        },
        {
            "id": "NQ8RteRUTJU",
            "title": "3 Telugu Full Movie 4K | Dhanush | Shruti Haasan | Siva Karthikeyan | Anirudh | Telugu New Movies",
            "url": "https://www.youtube.com/watch?v=NQ8RteRUTJU",
            "duration": 8861.0,
            "view_count": 4840511,
            "uploader": "Telugu Filmnagar",
            "category": "telugu",
            "thumbnail": "https://i.ytimg.com/vi/NQ8RteRUTJU/hq720.jpg"
        },
        {
            "id": "hyViXFdl5lY",
            "title": "Vikram Telugu Full Movie | Kamal Haasan | Vijay Sethupathi | Fahadh Faasil | LCU | Delugu Cinemas",
            "url": "https://www.youtube.com/watch?v=hyViXFdl5lY",
            "duration": 10260.0,
            "view_count": 473141,
            "uploader": "Delugu Movies",
            "category": "telugu",
            "thumbnail": "https://i.ytimg.com/vi/hyViXFdl5lY/hq720.jpg"
        },
        {
            "id": "PfJ8a58lWGc",
            "title": "SHADOW (షాడో) | Ajay, Vamsi & Swathi New Telugu Action Rivalry Drama | Full HD Movie",
            "url": "https://www.youtube.com/watch?v=PfJ8a58lWGc",
            "duration": 6089.0,
            "view_count": 16099,
            "uploader": "Andhra Talkies",
            "category": "telugu",
            "thumbnail": "https://i.ytimg.com/vi/PfJ8a58lWGc/hq720.jpg"
        },
        {
            "id": "qMeUSzc5C80",
            "title": "Varun Doctor (Telugu) Full Movie | Sivakarthikeyan | Anirudh Blockbuster Hit Action Thriller Movie",
            "url": "https://www.youtube.com/watch?v=qMeUSzc5C80",
            "duration": 9013.0,
            "view_count": 576966,
            "uploader": "Delugu Movies",
            "category": "telugu",
            "thumbnail": "https://i.ytimg.com/vi/qMeUSzc5C80/hq720.jpg"
        },
        {
            "id": "FTzgHa3Dz4M",
            "title": "Watch Maruthi Nagar Subramanyam Telugu Full Length Comedy Movie | Rao Ramesh | Anjana Productions |",
            "url": "https://www.youtube.com/watch?v=FTzgHa3Dz4M",
            "duration": 8607.0,
            "view_count": 255824,
            "uploader": "Anjana Productions",
            "category": "telugu",
            "thumbnail": "https://i.ytimg.com/vi/FTzgHa3Dz4M/hq720.jpg"
        },
        {
            "id": "ZKbydYg8R-E",
            "title": "Mahesh Babu's Brahmotsavam Telugu Full Movie | Samantha | Kajal Aggarwal | Pranitha | PVP Cinema",
            "url": "https://www.youtube.com/watch?v=ZKbydYg8R-E",
            "duration": 9239.0,
            "view_count": 48439264,
            "uploader": "PVP Cinema",
            "category": "telugu",
            "thumbnail": "https://i.ytimg.com/vi/ZKbydYg8R-E/hq720.jpg"
        },
        {
            "id": "6k0pvfZ0wuY",
            "title": "Dasara Superhit Telugu Action Full Length HD Movie | Nani | Keerthy Suresh | Tollywood Box Office |",
            "url": "https://www.youtube.com/watch?v=6k0pvfZ0wuY",
            "duration": 8059.0,
            "view_count": 3308100,
            "uploader": "Tollywood Box Office",
            "category": "telugu",
            "thumbnail": "https://i.ytimg.com/vi/6k0pvfZ0wuY/hq720.jpg"
        },
        {
            "id": "DK5ZHbgF2VE",
            "title": "Bellamkonda Sai Sreenivas Full HD Fantasy/Action Movie || Pooja Hegde || @JordaarMovies ​",
            "url": "https://www.youtube.com/watch?v=DK5ZHbgF2VE",
            "duration": 7933.0,
            "view_count": 164669,
            "uploader": "Jordaar Movies",
            "category": "telugu",
            "thumbnail": "https://i.ytimg.com/vi/DK5ZHbgF2VE/hq720.jpg"
        },
        {
            "id": "RXB7cxcZU2w",
            "title": "HATE (హేట్) | Subbu Mudhunuri, Seelam Srivalli New Telugu Action Drama | Full HD Movie",
            "url": "https://www.youtube.com/watch?v=RXB7cxcZU2w",
            "duration": 7684.0,
            "view_count": 15373,
            "uploader": "Andhra Talkies",
            "category": "telugu",
            "thumbnail": "https://i.ytimg.com/vi/RXB7cxcZU2w/hq720.jpg"
        },
        {
            "id": "pKUGLAAsILE",
            "title": "Yakshini \" The Villa \" Full movie HDR | Bharrathaneynenu | Thriller Film | 2026",
            "url": "https://www.youtube.com/watch?v=pKUGLAAsILE",
            "duration": 4061.0,
            "view_count": 7665,
            "uploader": "Bharrath Aney Nenu",
            "category": "telugu",
            "thumbnail": "https://i.ytimg.com/vi/pKUGLAAsILE/hq720.jpg"
        },
        {
            "id": "1VzFwLos1DE",
            "title": "Kathanayika Molla Telugu Full Movie | Padmanabham | Vanisri | Harinath | Gummadi | Sobhan Babu",
            "url": "https://www.youtube.com/watch?v=1VzFwLos1DE",
            "duration": 7998.0,
            "view_count": 1873,
            "uploader": "Telugu Movie Center",
            "category": "telugu",
            "thumbnail": "https://i.ytimg.com/vi/1VzFwLos1DE/hq720.jpg"
        },
        {
            "id": "xIQ-wtbxDfQ",
            "title": "Pushpaka Vimanam Telugu Full Length Movie | Anand Deverakonda Thriller/Suspense Movie | Matinee Show",
            "url": "https://www.youtube.com/watch?v=xIQ-wtbxDfQ",
            "duration": 7276.0,
            "view_count": 188149,
            "uploader": "Matinee Show",
            "category": "telugu",
            "thumbnail": "https://i.ytimg.com/vi/xIQ-wtbxDfQ/hq720.jpg"
        },
        {
            "id": "l_wA5a4mc-0",
            "title": "Dhurandhar telugu full movie 2026 | Ranveer Singh,Akshaye | Best Story Breakdown and Detailed Review",
            "url": "https://www.youtube.com/watch?v=l_wA5a4mc-0",
            "duration": 12056.0,
            "view_count": 19516,
            "uploader": "C Max",
            "category": "telugu",
            "thumbnail": "https://i.ytimg.com/vi/l_wA5a4mc-0/hq720.jpg"
        },
        {
            "id": "-v1STwpvDZQ",
            "title": "Dookudu Telugu Full Movie - Mahesh Babu, Samantha, Prakash Raj, Brahmanandam - Srinu Vaitla",
            "url": "https://www.youtube.com/watch?v=-v1STwpvDZQ",
            "duration": 10484.0,
            "view_count": 13979663,
            "uploader": "14reels",
            "category": "telugu",
            "thumbnail": "https://i.ytimg.com/vi/-v1STwpvDZQ/hq720.jpg"
        },
        {
            "id": "xIPOUCKzW8A",
            "title": "Love Today (Telugu) Full Movie | HD Romantic Comedy | Comedy Movie  | Delugu Movies",
            "url": "https://www.youtube.com/watch?v=xIPOUCKzW8A",
            "duration": 9150.0,
            "view_count": 117588,
            "uploader": "Delugu Movies",
            "category": "telugu",
            "thumbnail": "https://i.ytimg.com/vi/xIPOUCKzW8A/hq720.jpg?sqp=-oaymwEcCNAFEJQDSFXyq4qpAw4IARUAAIhCGAFwAcABBg==&rs=AOn4CLBAySJm_TM2qflaqsRpPOrjfBUnxw",
            "added_date": "2026-04-16T07:31:16.626369Z",
            "source": "youtube"
        },
        {
            "id": "3BFheth3O70",
            "title": "Thappu Ledu Premalo Full Movie || Telugu Movies 2026 || Madhan || Nikki || Madhumathi || Infinitum",
            "url": "https://www.youtube.com/watch?v=3BFheth3O70",
            "duration": 7750.0,
            "view_count": 18796,
            "uploader": "Infinitum Talkies",
            "category": "telugu",
            "thumbnail": "https://i.ytimg.com/vi/3BFheth3O70/hq720.jpg"
        },
        {
            "id": "iO1kjtcaRMI",
            "title": "Joruga Husharuga Telugu Full Movie | 4K | Viraj Ashwin | Pujita Ponnada | New Telugu Movies |3 Media",
            "url": "https://www.youtube.com/watch?v=iO1kjtcaRMI",
            "duration": 7996.0,
            "view_count": 114292,
            "uploader": "3 Media Telugu Movies",
            "category": "telugu",
            "thumbnail": "https://i.ytimg.com/vi/iO1kjtcaRMI/hq720.jpg"
        },
        {
            "id": "aWxoMxlqm_I",
            "title": "NGK Telugu Blockbuster Hit Action/Thriller Drama Full Length HD Movie || Suriya || Matinee Show",
            "url": "https://www.youtube.com/watch?v=aWxoMxlqm_I",
            "duration": 7853.0,
            "view_count": 46709,
            "uploader": "Matinee Show",
            "category": "telugu",
            "thumbnail": "https://i.ytimg.com/vi/aWxoMxlqm_I/hq720.jpg"
        },
        {
            "id": "IbiQv8356Xo",
            "title": "Veeran Superhero Action-Drama Telugu Movie | Hiphop Tamizha | Athira Raj @tfcmaacinemalu",
            "url": "https://www.youtube.com/watch?v=IbiQv8356Xo",
            "duration": 8757.0,
            "view_count": 145410,
            "uploader": "Maa Cinemalu",
            "category": "telugu",
            "thumbnail": "https://i.ytimg.com/vi/IbiQv8356Xo/hq720.jpg"
        },
        {
            "id": "zDHLCDysTGA",
            "title": "URI Telugu Full Movie | Aditya Dhar (Dhurandhar Movie Director) | Vicky Kaushal | Yami Gautam ",
            "url": "https://www.youtube.com/watch?v=zDHLCDysTGA",
            "duration": 7771.0,
            "view_count": 1237,
            "uploader": "Zing Clips",
            "category": "telugu",
            "thumbnail": "https://i.ytimg.com/vi/zDHLCDysTGA/hq720.jpg"
        },
        {
            "id": "W9koIsyBuVk",
            "title": "Hero Heroine Latest Telugu Full Movie 4K | Naveen Chandra | Pooja Jhaveri | Telugu New Movies | TFN",
            "url": "https://www.youtube.com/watch?v=W9koIsyBuVk",
            "duration": 7407.0,
            "view_count": 168898,
            "uploader": "Telugu Filmnagar",
            "category": "telugu",
            "thumbnail": "https://i.ytimg.com/vi/W9koIsyBuVk/hq720.jpg"
        },
        {
            "id": "9z2-hA5Amuc",
            "title": "Gharshana (HD) Telugu Full Movie | Venkatesh, Asin | South Indian Action Movies‪ @SriBalajiMovies",
            "url": "https://www.youtube.com/watch?v=9z2-hA5Amuc",
            "duration": 9487.0,
            "view_count": 811637,
            "uploader": "SriBalajiMovies",
            "category": "telugu",
            "thumbnail": "https://i.ytimg.com/vi/9z2-hA5Amuc/hq720.jpg"
        },
        {
            "id": "sTfrk4tASUY",
            "title": "Brahmachari Telugu Full Movie | Kamal Hassan, Simran, Sneha, Abbas | Sri Balaji Video",
            "url": "https://www.youtube.com/watch?v=sTfrk4tASUY",
            "duration": 9211.0,
            "view_count": 4033640,
            "uploader": "Sri Balaji Full Movies",
            "category": "telugu",
            "thumbnail": "https://i.ytimg.com/vi/sTfrk4tASUY/hq720.jpg"
        },
        {
            "id": "KF1D-ee-b7Y",
            "title": "35 Chinna Katha Kaadu Telugu Movie | Priyadarshi | Nivetha Thomas | Vishwadev ",
            "url": "https://www.youtube.com/watch?v=KF1D-ee-b7Y",
            "duration": 7896.0,
            "view_count": 528760,
            "uploader": "Telugu Cineplex",
            "category": "telugu",
            "thumbnail": "https://i.ytimg.com/vi/KF1D-ee-b7Y/hq720.jpg"
        },
        {
            "id": "1DIrsAOkx1c",
            "title": "Magadheera Telugu Full Movie | 4K | Dolby Audio | Ram Charan, Kajal Aggarwal, Dev Gill | SSRajamouli",
            "url": "https://www.youtube.com/watch?v=1DIrsAOkx1c",
            "duration": 9517.0,
            "view_count": 8883273,
            "uploader": "Geetha Arts ",
            "category": "telugu",
            "thumbnail": "https://i.ytimg.com/vi/1DIrsAOkx1c/hq720.jpg"
        },
        {
            "id": "gTVLCCCAN1U",
            "title": "Swagatham Telugu Full Movie 4K | Jagapathi Babu | Anushka Shetty | Arjun Sarja | Telugu FilmNagar",
            "url": "https://www.youtube.com/watch?v=gTVLCCCAN1U",
            "duration": 9509.0,
            "view_count": 122253,
            "uploader": "Telugu Filmnagar",
            "category": "telugu",
            "thumbnail": "https://i.ytimg.com/vi/gTVLCCCAN1U/hq720.jpg"
        },
        {
            "id": "OZaDOlNw8xc",
            "title": "Arunachalam Full Movie | Rajinikanth Soundarya Rambha | Raghuvaran  @skyvideostelugu",
            "url": "https://www.youtube.com/watch?v=OZaDOlNw8xc",
            "duration": 9352.0,
            "view_count": 4040684,
            "uploader": "SkyVideos Telugu",
            "category": "telugu",
            "thumbnail": "https://i.ytimg.com/vi/OZaDOlNw8xc/hq720.jpg"
        },
        {
            "id": "mSxNEzZLnOw",
            "title": "Andala Rakshasi Full Movie 4K | Naveen Chandra | Lavanya Tripathi | RahulRavindran | HanuRaghavapudi",
            "url": "https://www.youtube.com/watch?v=mSxNEzZLnOw",
            "duration": 8748.0,
            "view_count": 6553311,
            "uploader": "Telugu Filmnagar",
            "category": "telugu",
            "thumbnail": "https://i.ytimg.com/vi/mSxNEzZLnOw/hq720.jpg"
        },
        {
            "id": "ZpsaXOP8H64",
            "title": "Ee Nagaraniki Emaindhi Superhit Telugu Comedy Full Length HD Movie | Vishwak Sen | Simran Choudhary",
            "url": "https://www.youtube.com/watch?v=ZpsaXOP8H64",
            "duration": 6450.0,
            "view_count": 962867,
            "uploader": "Tollywood Box Office",
            "category": "telugu",
            "thumbnail": "https://i.ytimg.com/vi/ZpsaXOP8H64/hq720.jpg"
        },
        {
            "id": "lgHQ-u765HA",
            "title": "Brahmachari Telugu Full Movie | Kamal Hassan, Simran, Abbas, Sneha | Sri Balaji Video",
            "url": "https://www.youtube.com/watch?v=lgHQ-u765HA",
            "duration": 9211.0,
            "view_count": 9187212,
            "uploader": "SriBalajiMovies",
            "category": "telugu",
            "thumbnail": "https://i.ytimg.com/vi/lgHQ-u765HA/hq720.jpg"
        },
        {
            "id": "ITx2Gf0kpT0",
            "title": "Dear Comrade Telugu Full Length HD Movie || Vijay Deverakonda || Rashmika Mandanna || Matinee Show",
            "url": "https://www.youtube.com/watch?v=ITx2Gf0kpT0",
            "duration": 7996.0,
            "view_count": 6118059,
            "uploader": "Matinee Show",
            "category": "telugu",
            "thumbnail": "https://i.ytimg.com/vi/ITx2Gf0kpT0/hq720.jpg"
        },
        {
            "id": "IY4z_18-syA",
            "title": "Thiruguleni Manishi Super Hit Telugu Full Movie | NTR, Chiranjeevi | Rati Agnihotri",
            "url": "https://www.youtube.com/watch?v=IY4z_18-syA",
            "duration": 6903.0,
            "view_count": 1503,
            "uploader": "iDream HD Movies",
            "category": "telugu",
            "thumbnail": "https://i.ytimg.com/vi/IY4z_18-syA/hq720.jpg"
        },
        {
            "id": "iD86LNzMqSI",
            "title": "Aadivaram Adavallaku Selavu Telugu Full Movie 4K | Sivaji | Brahmanandam | Suhasini | Kovai Sarala",
            "url": "https://www.youtube.com/watch?v=iD86LNzMqSI",
            "duration": 8217.0,
            "view_count": 2657,
            "uploader": "Telugu Filmnagar",
            "category": "telugu",
            "thumbnail": "https://i.ytimg.com/vi/iD86LNzMqSI/hq720.jpg"
        }
    ]
}