{
    "page": 86,
    "total_pages": 103,
    "total_items": 5125,
    "items": [
        {
            "id": "oTCYuAL0dXk",
            "title": "Peppa Pig NEW BABY EVIE Episodes LIVE 🍼 Cutest & Funniest Moments 🥹💛 Kids Cartoons",
            "url": "https://www.youtube.com/watch?v=oTCYuAL0dXk",
            "duration": 0,
            "view_count": 0,
            "uploader": "Peppa Pig - Official Channel",
            "category": "cartoons/peppa_pig",
            "thumbnail": "https://i.ytimg.com/vi/oTCYuAL0dXk/hq720.jpg"
        },
        {
            "id": "v6QJWXnwuaM",
            "title": "Peppa Pig in Hindi - Dera Daalana - हिंदी Kahaniya - Hindi Cartoons for Kids |",
            "url": "https://www.youtube.com/watch?v=v6QJWXnwuaM",
            "duration": 4001.0,
            "view_count": 536822,
            "uploader": "पेप्पा पिग हिंदी - आधिकारिक चैनल",
            "category": "cartoons/peppa_pig",
            "thumbnail": "https://i.ytimg.com/vi/v6QJWXnwuaM/hq720.jpg"
        },
        {
            "id": "bnLSBFXAZtg",
            "title": "Peppa Pig NEW BABY EVIE Episodes LIVE 🍼 Cutest & Funniest Moments 🥹💛 Kids Cartoons",
            "url": "https://www.youtube.com/watch?v=bnLSBFXAZtg",
            "duration": 0,
            "view_count": 0,
            "uploader": "Peppa Pig - Official Channel",
            "category": "cartoons/peppa_pig",
            "thumbnail": "https://i.ytimg.com/vi/bnLSBFXAZtg/hq720.jpg"
        },
        {
            "id": "HPcP_rCz2ls",
            "title": "Peppa Pig NEW BABY EVIE Episodes LIVE 🍼 Cutest & Funniest Moments 🥹💛 Kids Cartoons",
            "url": "https://www.youtube.com/watch?v=HPcP_rCz2ls",
            "duration": 0,
            "view_count": 0,
            "uploader": "Peppa Pig - Official Channel",
            "category": "cartoons/peppa_pig",
            "thumbnail": "https://i.ytimg.com/vi/HPcP_rCz2ls/hq720.jpg"
        },
        {
            "id": "3mrNrTF2IF0",
            "title": "Peppa Pig NEW BABY EVIE Episodes LIVE 🍼 Cutest & Funniest Moments 🥹💛 Kids Cartoons",
            "url": "https://www.youtube.com/watch?v=3mrNrTF2IF0",
            "duration": 0,
            "view_count": 0,
            "uploader": "Peppa Pig - Official Channel",
            "category": "cartoons/peppa_pig",
            "thumbnail": "https://i.ytimg.com/vi/3mrNrTF2IF0/hq720.jpg"
        },
        {
            "id": "KULCvqtgE1o",
            "title": "🔴 BEST of George 2026 LIVE! 🦖 Peppa Pig Mini Movie 🍿 Kids Cartoons 🔴",
            "url": "https://www.youtube.com/watch?v=KULCvqtgE1o",
            "duration": 0,
            "view_count": 0,
            "uploader": "Peppa Pig - Official Channel",
            "category": "cartoons/peppa_pig",
            "thumbnail": "https://i.ytimg.com/vi/KULCvqtgE1o/hq720.jpg"
        },
        {
            "id": "7nLHFmnfafA",
            "title": "Peppa Pig NEW BABY EVIE Episodes LIVE 🍼 Cutest & Funniest Moments 🥹💛 Kids Cartoons",
            "url": "https://www.youtube.com/watch?v=7nLHFmnfafA",
            "duration": 0,
            "view_count": 0,
            "uploader": "Peppa Pig - Official Channel",
            "category": "cartoons/peppa_pig",
            "thumbnail": "https://i.ytimg.com/vi/7nLHFmnfafA/hq720.jpg"
        },
        {
            "id": "_8j4Vxb4DRI",
            "title": "Controlling the WEATHER 🌦️ HOT VS COLD 🔥 Peppa Pig Full Episodes | 45 Minutes Mini Movie",
            "url": "https://www.youtube.com/watch?v=_8j4Vxb4DRI",
            "duration": 2694.0,
            "view_count": 523422,
            "uploader": "Peppa Pig - Official Channel",
            "category": "cartoons/peppa_pig",
            "thumbnail": "https://i.ytimg.com/vi/_8j4Vxb4DRI/hq720.jpg"
        },
        {
            "id": "dsAtLI_3iGM",
            "title": "Peppa Pig Visits the Sweet Shop 🍭 | Tales Full Episodes | Cartoon for Kids | 15 Minutes",
            "url": "https://www.youtube.com/watch?v=dsAtLI_3iGM",
            "duration": 917.0,
            "view_count": 20246136,
            "uploader": "Toys and Colours",
            "category": "cartoons/peppa_pig",
            "thumbnail": "https://i.ytimg.com/vi/dsAtLI_3iGM/hq720.jpg"
        },
        {
            "id": "V0QA4hT8gTI",
            "title": "Peppa Pig NEW BABY EVIE Episodes LIVE 🍼 Cutest & Funniest Moments 🥹💛 Kids Cartoons",
            "url": "https://www.youtube.com/watch?v=V0QA4hT8gTI",
            "duration": 0,
            "view_count": 0,
            "uploader": "Peppa Pig - Official Channel",
            "category": "cartoons/peppa_pig",
            "thumbnail": "https://i.ytimg.com/vi/V0QA4hT8gTI/hq720.jpg"
        },
        {
            "id": "kMEnpmSX_hY",
            "title": "🔴 BEST of George 2026 LIVE! 🦖 Peppa Pig Mini Movie 🍿 Kids Cartoons 🔴",
            "url": "https://www.youtube.com/watch?v=kMEnpmSX_hY",
            "duration": 0,
            "view_count": 0,
            "uploader": "Peppa Pig - Official Channel",
            "category": "cartoons/peppa_pig",
            "thumbnail": "https://i.ytimg.com/vi/kMEnpmSX_hY/hq720.jpg"
        },
        {
            "id": "mK1xi7I_dfc",
            "title": "Peppa Pig NEW BABY EVIE Episodes LIVE 🍼 Cutest & Funniest Moments 🥹💛 Kids Cartoons",
            "url": "https://www.youtube.com/watch?v=mK1xi7I_dfc",
            "duration": 0,
            "view_count": 0,
            "uploader": "Peppa Pig - Official Channel",
            "category": "cartoons/peppa_pig",
            "thumbnail": "https://i.ytimg.com/vi/mK1xi7I_dfc/hq720.jpg"
        },
        {
            "id": "o12QpzU3tcw",
            "title": "🔴  NEWEST Peppa Pig Episodes 2026 ✨ SEASON 10 Holiday Adventures ☀️ Kids Movie 🔴",
            "url": "https://www.youtube.com/watch?v=o12QpzU3tcw",
            "duration": 0,
            "view_count": 0,
            "uploader": "Peppa Pig - Official Channel",
            "category": "cartoons/peppa_pig",
            "thumbnail": "https://i.ytimg.com/vi/o12QpzU3tcw/hq720.jpg"
        },
        {
            "id": "LvWmqmWfsKE",
            "title": "Peppa Pig NEW BABY EVIE Episodes LIVE 🍼 Cutest & Funniest Moments 🥹💛 Kids Cartoons",
            "url": "https://www.youtube.com/watch?v=LvWmqmWfsKE",
            "duration": 0,
            "view_count": 0,
            "uploader": "Peppa Pig - Official Channel",
            "category": "cartoons/peppa_pig",
            "thumbnail": "https://i.ytimg.com/vi/LvWmqmWfsKE/hq720.jpg"
        },
        {
            "id": "jphEbRSUsJo",
            "title": "Peppa Pig NEW BABY EVIE Episodes LIVE 🍼 Cutest & Funniest Moments 🥹💛 Kids Cartoons",
            "url": "https://www.youtube.com/watch?v=jphEbRSUsJo",
            "duration": 0,
            "view_count": 0,
            "uploader": "Peppa Pig - Official Channel",
            "category": "cartoons/peppa_pig",
            "thumbnail": "https://i.ytimg.com/vi/jphEbRSUsJo/hq720.jpg"
        },
        {
            "id": "3MMW14jMNEY",
            "title": "Peppa Picks Out NEW Bedroom 🛌 Peppa Pig Full Episodes | 4 Hours of Kids Cartoons",
            "url": "https://www.youtube.com/watch?v=3MMW14jMNEY",
            "duration": 14466.0,
            "view_count": 594902,
            "uploader": "Peppa Pig - Official Channel",
            "category": "cartoons/peppa_pig",
            "thumbnail": "https://i.ytimg.com/vi/3MMW14jMNEY/hq720.jpg"
        },
        {
            "id": "JzjeXct1uFM",
            "title": "🔴  NEWEST Peppa Pig Episodes 2026 ✨ SEASON 10 Holiday Adventures ☀️ Kids Movie 🔴",
            "url": "https://www.youtube.com/watch?v=JzjeXct1uFM",
            "duration": 0,
            "view_count": 0,
            "uploader": "Peppa Pig - Official Channel",
            "category": "cartoons/peppa_pig",
            "thumbnail": "https://i.ytimg.com/vi/JzjeXct1uFM/hq720.jpg"
        },
        {
            "id": "g7W6Oofa9Fo",
            "title": "Peppa Pig NEW BABY EVIE Episodes LIVE 🍼 Cutest & Funniest Moments 🥹💛 Kids Cartoons",
            "url": "https://www.youtube.com/watch?v=g7W6Oofa9Fo",
            "duration": 0,
            "view_count": 0,
            "uploader": "Peppa Pig - Official Channel",
            "category": "cartoons/various_cartoons",
            "thumbnail": "https://i.ytimg.com/vi/g7W6Oofa9Fo/hq720.jpg"
        },
        {
            "id": "0VxbS3llzN4",
            "title": "Peppa Pig NEW BABY EVIE Episodes LIVE 🍼 Cutest & Funniest Moments 🥹💛 Kids Cartoons",
            "url": "https://www.youtube.com/watch?v=0VxbS3llzN4",
            "duration": 0,
            "view_count": 0,
            "uploader": "Peppa Pig - Official Channel",
            "category": "cartoons/peppa_pig",
            "thumbnail": "https://i.ytimg.com/vi/0VxbS3llzN4/hq720.jpg"
        },
        {
            "id": "H2I_eYZSQ2I",
            "title": "🔴 BRAND NEW PEPPA PIG TALES EPISODES 🐽 ALL New Season 3  ✨📺  | New House, New Car, New Bedroom!",
            "url": "https://www.youtube.com/watch?v=H2I_eYZSQ2I",
            "duration": 0,
            "view_count": 0,
            "uploader": "Peppa Pig Tales",
            "category": "cartoons/peppa_pig",
            "thumbnail": "https://i.ytimg.com/vi/H2I_eYZSQ2I/hq720.jpg"
        },
        {
            "id": "dvo5_otgaqA",
            "title": "Peppa Pig NEW BABY EVIE Episodes LIVE 🍼 Cutest & Funniest Moments 🥹💛 Kids Cartoons",
            "url": "https://www.youtube.com/watch?v=dvo5_otgaqA",
            "duration": 0,
            "view_count": 0,
            "uploader": "Peppa Pig - Official Channel",
            "category": "cartoons/peppa_pig",
            "thumbnail": "https://i.ytimg.com/vi/dvo5_otgaqA/hq720.jpg"
        },
        {
            "id": "Rpskjol4IvE",
            "title": "🔴  NEWEST Peppa Pig Episodes 2026 ✨ SEASON 10 Holiday Adventures ☀️ Kids Movie 🔴",
            "url": "https://www.youtube.com/watch?v=Rpskjol4IvE",
            "duration": 0,
            "view_count": 0,
            "uploader": "Peppa Pig - Official Channel",
            "category": "cartoons/peppa_pig",
            "thumbnail": "https://i.ytimg.com/vi/Rpskjol4IvE/hq720.jpg"
        },
        {
            "id": "ckHE-eVOesE",
            "title": "🔴  NEWEST Peppa Pig Episodes 2026 ✨ SEASON 10 Holiday Adventures ☀️ Kids Movie 🔴",
            "url": "https://www.youtube.com/watch?v=ckHE-eVOesE",
            "duration": 0,
            "view_count": 0,
            "uploader": "Peppa Pig - Official Channel",
            "category": "cartoons/peppa_pig",
            "thumbnail": "https://i.ytimg.com/vi/ckHE-eVOesE/hq720.jpg"
        },
        {
            "id": "sHnvGVeEOdQ",
            "title": "Peppa Pig NEW BABY EVIE Episodes LIVE 🍼 Cutest & Funniest Moments 🥹💛 Kids Cartoons",
            "url": "https://www.youtube.com/watch?v=sHnvGVeEOdQ",
            "duration": 0,
            "view_count": 0,
            "uploader": "Peppa Pig - Official Channel",
            "category": "cartoons/peppa_pig",
            "thumbnail": "https://i.ytimg.com/vi/sHnvGVeEOdQ/hq720.jpg"
        },
        {
            "id": "1VHRTO6ZGQM",
            "title": "🔴  NEWEST Peppa Pig Episodes 2026 ✨ SEASON 10 Holiday Adventures ☀️ Kids Movie 🔴",
            "url": "https://www.youtube.com/watch?v=1VHRTO6ZGQM",
            "duration": 0,
            "view_count": 0,
            "uploader": "Peppa Pig - Official Channel",
            "category": "cartoons/peppa_pig",
            "thumbnail": "https://i.ytimg.com/vi/1VHRTO6ZGQM/hq720.jpg"
        },
        {
            "id": "waw9aySQ1Ko",
            "title": "Peppa Pig NEW BABY EVIE Episodes LIVE 🍼 Cutest & Funniest Moments 🥹💛 Kids Cartoons",
            "url": "https://www.youtube.com/watch?v=waw9aySQ1Ko",
            "duration": 0,
            "view_count": 0,
            "uploader": "Peppa Pig - Official Channel",
            "category": "cartoons/peppa_pig",
            "thumbnail": "https://i.ytimg.com/vi/waw9aySQ1Ko/hq720.jpg"
        },
        {
            "id": "2tLbAOKiIV8",
            "title": "Peppa Pig in Hindi - Mister Skinnylegs - Makdi - हिंदी Kahaniya - Hindi Cartoons for Kids",
            "url": "https://www.youtube.com/watch?v=2tLbAOKiIV8",
            "duration": 3822.0,
            "view_count": 63533926,
            "uploader": "पेप्पा पिग हिंदी - आधिकारिक चैनल",
            "category": "cartoons/peppa_pig",
            "thumbnail": "https://i.ytimg.com/vi/2tLbAOKiIV8/hq720.jpg"
        },
        {
            "id": "ZENsrcm2t5I",
            "title": "🔴  NEWEST Peppa Pig Episodes 2026 ✨ SEASON 10 Holiday Adventures ☀️ Kids Movie 🔴",
            "url": "https://www.youtube.com/watch?v=ZENsrcm2t5I",
            "duration": 0,
            "view_count": 0,
            "uploader": "Peppa Pig - Official Channel",
            "category": "cartoons/peppa_pig",
            "thumbnail": "https://i.ytimg.com/vi/ZENsrcm2t5I/hq720.jpg"
        },
        {
            "id": "qCtsISZFV8g",
            "title": "🔴  NEWEST Peppa Pig Episodes 2026 ✨ SEASON 10 Holiday Adventures ☀️ Kids Movie 🔴",
            "url": "https://www.youtube.com/watch?v=qCtsISZFV8g",
            "duration": 0,
            "view_count": 0,
            "uploader": "Peppa Pig - Official Channel",
            "category": "cartoons/peppa_pig",
            "thumbnail": "https://i.ytimg.com/vi/qCtsISZFV8g/hq720.jpg"
        },
        {
            "id": "AQ8WpLdUDUs",
            "title": "🔴  NEWEST Peppa Pig Episodes 2026 ✨ SEASON 10 Holiday Adventures ☀️ Kids Movie 🔴",
            "url": "https://www.youtube.com/watch?v=AQ8WpLdUDUs",
            "duration": 0,
            "view_count": 0,
            "uploader": "Peppa Pig - Official Channel",
            "category": "cartoons/peppa_pig",
            "thumbnail": "https://i.ytimg.com/vi/AQ8WpLdUDUs/hq720.jpg"
        },
        {
            "id": "oDHQ0j9ZFAs",
            "title": "Peppa Pig NEW BABY EVIE Episodes LIVE 🍼 Cutest & Funniest Moments 🥹💛 Kids Cartoons",
            "url": "https://www.youtube.com/watch?v=oDHQ0j9ZFAs",
            "duration": 0,
            "view_count": 0,
            "uploader": "Peppa Pig - Official Channel",
            "category": "cartoons/peppa_pig",
            "thumbnail": "https://i.ytimg.com/vi/oDHQ0j9ZFAs/hq720.jpg"
        },
        {
            "id": "YZD6airhqks",
            "title": "🔴 BRAND NEW PEPPA PIG TALES EPISODES 🐽 ALL New Season 3  ✨📺  | New House, New Car, New Bedroom!",
            "url": "https://www.youtube.com/watch?v=YZD6airhqks",
            "duration": 0,
            "view_count": 0,
            "uploader": "Peppa Pig Tales",
            "category": "cartoons/peppa_pig",
            "thumbnail": "https://i.ytimg.com/vi/YZD6airhqks/hq720.jpg"
        },
        {
            "id": "OQh7eSEzCcM",
            "title": "Hunt for SECRET Mystery Egg! 🥚 Easter Special 🐰 Peppa Pig Full Episodes | 2 Hours of Kids Cartoons",
            "url": "https://www.youtube.com/watch?v=OQh7eSEzCcM",
            "duration": 7264.0,
            "view_count": 68600,
            "uploader": "Peppa Pig - Official Channel",
            "category": "cartoons/peppa_pig",
            "thumbnail": "https://i.ytimg.com/vi/OQh7eSEzCcM/hq720.jpg"
        },
        {
            "id": "nl5ljIEMAEw",
            "title": "🔴 BRAND NEW PEPPA PIG TALES EPISODES 🐽 ALL New Season 3  ✨📺  | New House, New Car, New Bedroom!",
            "url": "https://www.youtube.com/watch?v=nl5ljIEMAEw",
            "duration": 0,
            "view_count": 0,
            "uploader": "Peppa Pig Tales",
            "category": "cartoons/peppa_pig",
            "thumbnail": "https://i.ytimg.com/vi/nl5ljIEMAEw/hq720.jpg"
        },
        {
            "id": "MmntXBjT_Cc",
            "title": "Peppa Pig NEW BABY EVIE Episodes LIVE 🍼 Cutest & Funniest Moments 🥹💛 Kids Cartoons",
            "url": "https://www.youtube.com/watch?v=MmntXBjT_Cc",
            "duration": 0,
            "view_count": 0,
            "uploader": "Peppa Pig - Official Channel",
            "category": "cartoons/peppa_pig",
            "thumbnail": "https://i.ytimg.com/vi/MmntXBjT_Cc/hq720.jpg"
        },
        {
            "id": "uG0EaG2ourc",
            "title": "Peppa Pig NEW BABY EVIE Episodes LIVE 🍼 Cutest & Funniest Moments 🥹💛 Kids Cartoons",
            "url": "https://www.youtube.com/watch?v=uG0EaG2ourc",
            "duration": 0,
            "view_count": 0,
            "uploader": "Peppa Pig - Official Channel",
            "category": "cartoons/peppa_pig",
            "thumbnail": "https://i.ytimg.com/vi/uG0EaG2ourc/hq720.jpg"
        },
        {
            "id": "Mu_nAWGSHPw",
            "title": "Peppa Pig in Hindi - Bade Logon Ke Kaam - हिंदी Kahaniya - Hindi Cartoons for Kids",
            "url": "https://www.youtube.com/watch?v=Mu_nAWGSHPw",
            "duration": 7324.0,
            "view_count": 2400410,
            "uploader": "पेप्पा पिग हिंदी - आधिकारिक चैनल",
            "category": "cartoons/peppa_pig",
            "thumbnail": "https://i.ytimg.com/vi/Mu_nAWGSHPw/hq720.jpg"
        },
        {
            "id": "I8xXN31IHCE",
            "title": "Peppa Pig NEW BABY EVIE Episodes LIVE 🍼 Cutest & Funniest Moments 🥹💛 Kids Cartoons",
            "url": "https://www.youtube.com/watch?v=I8xXN31IHCE",
            "duration": 0,
            "view_count": 0,
            "uploader": "Peppa Pig - Official Channel",
            "category": "cartoons/peppa_pig",
            "thumbnail": "https://i.ytimg.com/vi/I8xXN31IHCE/hq720.jpg"
        },
        {
            "id": "4O98SdXsxC0",
            "title": "🔴 BEST of George 2026 LIVE! 🦖 Peppa Pig Mini Movie 🍿 Kids Cartoons 🔴",
            "url": "https://www.youtube.com/watch?v=4O98SdXsxC0",
            "duration": 0,
            "view_count": 0,
            "uploader": "Peppa Pig - Official Channel",
            "category": "cartoons/peppa_pig",
            "thumbnail": "https://i.ytimg.com/vi/4O98SdXsxC0/hq720.jpg"
        },
        {
            "id": "ly2oSYc8xGA",
            "title": "PEPPA'S MOVING DAY 📦 The New Apartment 🏘️ Peppa Pig Full Episodes | 2 Hours",
            "url": "https://www.youtube.com/watch?v=ly2oSYc8xGA",
            "duration": 7279.0,
            "view_count": 5598641,
            "uploader": "Peppa Pig - Official Channel",
            "category": "cartoons/peppa_pig",
            "thumbnail": "https://i.ytimg.com/vi/ly2oSYc8xGA/hq720.jpg"
        },
        {
            "id": "CSXRCppOWoc",
            "title": "Peppa Pig in Hindi - Pancakes - हिंदी Kahaniya - Hindi Cartoons for Kids",
            "url": "https://www.youtube.com/watch?v=CSXRCppOWoc",
            "duration": 1930.0,
            "view_count": 121313848,
            "uploader": "पेप्पा पिग हिंदी - आधिकारिक चैनल",
            "category": "cartoons/peppa_pig",
            "thumbnail": "https://i.ytimg.com/vi/CSXRCppOWoc/hq720.jpg"
        },
        {
            "id": "ReEOlE8oS6M",
            "title": "🔴  NEWEST Peppa Pig Episodes 2026 ✨ SEASON 10 Holiday Adventures ☀️ Kids Movie 🔴",
            "url": "https://www.youtube.com/watch?v=ReEOlE8oS6M",
            "duration": 0,
            "view_count": 0,
            "uploader": "Peppa Pig - Official Channel",
            "category": "cartoons/peppa_pig",
            "thumbnail": "https://i.ytimg.com/vi/ReEOlE8oS6M/hq720.jpg"
        },
        {
            "id": "DYb3IQfQJKs",
            "title": "🔴 BEST of George 2026 LIVE! 🦖 Peppa Pig Mini Movie 🍿 Kids Cartoons 🔴",
            "url": "https://www.youtube.com/watch?v=DYb3IQfQJKs",
            "duration": 0,
            "view_count": 0,
            "uploader": "Peppa Pig - Official Channel",
            "category": "cartoons/peppa_pig",
            "thumbnail": "https://i.ytimg.com/vi/DYb3IQfQJKs/hq720.jpg"
        },
        {
            "id": "TZWjlfxj1S4",
            "title": "🔴 BRAND NEW PEPPA PIG TALES EPISODES 🐽 ALL New Season 3  ✨📺  | New House, New Car, New Bedroom!",
            "url": "https://www.youtube.com/watch?v=TZWjlfxj1S4",
            "duration": 0,
            "view_count": 0,
            "uploader": "Peppa Pig Tales",
            "category": "cartoons/peppa_pig",
            "thumbnail": "https://i.ytimg.com/vi/TZWjlfxj1S4/hq720.jpg"
        },
        {
            "id": "oeutxCiUaWo",
            "title": "🔴  NEWEST Peppa Pig Episodes 2026 ✨ SEASON 10 Holiday Adventures ☀️ Kids Movie 🔴",
            "url": "https://www.youtube.com/watch?v=oeutxCiUaWo",
            "duration": 0,
            "view_count": 0,
            "uploader": "Peppa Pig - Official Channel",
            "category": "cartoons/peppa_pig",
            "thumbnail": "https://i.ytimg.com/vi/oeutxCiUaWo/hq720.jpg"
        },
        {
            "id": "06-A2Akaasg",
            "title": "Peppa Pig NEW BABY EVIE Episodes LIVE 🍼 Cutest & Funniest Moments 🥹💛 Kids Cartoons",
            "url": "https://www.youtube.com/watch?v=06-A2Akaasg",
            "duration": 0,
            "view_count": 0,
            "uploader": "Peppa Pig - Official Channel",
            "category": "cartoons/peppa_pig",
            "thumbnail": "https://i.ytimg.com/vi/06-A2Akaasg/hq720.jpg"
        },
        {
            "id": "naYgtenXcHE",
            "title": "Peppa Pig NEW BABY EVIE Episodes LIVE 🍼 Cutest & Funniest Moments 🥹💛 Kids Cartoons",
            "url": "https://www.youtube.com/watch?v=naYgtenXcHE",
            "duration": 0,
            "view_count": 0,
            "uploader": "Peppa Pig - Official Channel",
            "category": "cartoons/peppa_pig",
            "thumbnail": "https://i.ytimg.com/vi/naYgtenXcHE/hq720.jpg"
        },
        {
            "id": "HbunSk8uIek",
            "title": "🔴  NEWEST Peppa Pig Episodes 2026 ✨ SEASON 10 Holiday Adventures ☀️ Kids Movie 🔴",
            "url": "https://www.youtube.com/watch?v=HbunSk8uIek",
            "duration": 0,
            "view_count": 0,
            "uploader": "Peppa Pig - Official Channel",
            "category": "cartoons/peppa_pig",
            "thumbnail": "https://i.ytimg.com/vi/HbunSk8uIek/hq720.jpg"
        },
        {
            "id": "KkZN5wWc-ys",
            "title": "Peppa Pig NEW BABY EVIE Episodes LIVE 🍼 Cutest & Funniest Moments 🥹💛 Kids Cartoons",
            "url": "https://www.youtube.com/watch?v=KkZN5wWc-ys",
            "duration": 0,
            "view_count": 0,
            "uploader": "Peppa Pig - Official Channel",
            "category": "cartoons/various_cartoons",
            "thumbnail": "https://i.ytimg.com/vi/KkZN5wWc-ys/hq720.jpg"
        },
        {
            "id": "uCBFfl-7Q-I",
            "title": "Peppa Pig NEW BABY EVIE Episodes LIVE 🍼 Cutest & Funniest Moments 🥹💛 Kids Cartoons",
            "url": "https://www.youtube.com/watch?v=uCBFfl-7Q-I",
            "duration": 0,
            "view_count": 0,
            "uploader": "Peppa Pig - Official Channel",
            "category": "cartoons/peppa_pig",
            "thumbnail": "https://i.ytimg.com/vi/uCBFfl-7Q-I/hq720.jpg"
        }
    ]
}