{
    "page": 94,
    "total_pages": 103,
    "total_items": 5125,
    "items": [
        {
            "id": "6PrvMqydyZU",
            "title": "Gold In The Dam | Shiva | शिवा | Ep 6 Funny Action Cartoon | Shiva TV Show 2024 Hindi",
            "url": "https://www.youtube.com/watch?v=6PrvMqydyZU",
            "duration": 1285.0,
            "view_count": 13767472,
            "uploader": "Shiva TV Show Hindi",
            "category": "cartoons/shiva",
            "thumbnail": "https://i.ytimg.com/vi/6PrvMqydyZU/hq720.jpg"
        },
        {
            "id": "XTJ29P6-uyo",
            "title": "Shiva का Rival Cyclist | Shiva",
            "url": "https://www.youtube.com/watch?v=XTJ29P6-uyo",
            "duration": 2126.0,
            "view_count": 506357,
            "uploader": "Shiva Hindi TV Show",
            "category": "cartoons/shiva",
            "thumbnail": "https://i.ytimg.com/vi/XTJ29P6-uyo/hq720.jpg"
        },
        {
            "id": "0wztU1J5gGs",
            "title": "Shiva | शिवा | Full Episode | The Resort",
            "url": "https://www.youtube.com/watch?v=0wztU1J5gGs",
            "duration": 1313.0,
            "view_count": 95993711,
            "uploader": "Sonic Gang",
            "category": "cartoons/shiva",
            "thumbnail": "https://i.ytimg.com/vi/0wztU1J5gGs/hq720.jpg"
        },
        {
            "id": "C6D6mz7R3Y8",
            "title": "Auto Rickshaw Gang | ऑटो रिक्शा गिरोह | Shiva Ep 111 | Fun 4 Kids - Hindi | Action Cartoon 2025",
            "url": "https://www.youtube.com/watch?v=C6D6mz7R3Y8",
            "duration": 1037.0,
            "view_count": 3957176,
            "uploader": "Fun 4 Kids - Hindi",
            "category": "cartoons/shiva",
            "thumbnail": "https://i.ytimg.com/vi/C6D6mz7R3Y8/hq720.jpg"
        },
        {
            "id": "6Kk1e6uXOE0",
            "title": "Shiva | शिवा | The Con Man Natwarlal | Episode 58 | Download Voot Kids App",
            "url": "https://www.youtube.com/watch?v=6Kk1e6uXOE0",
            "duration": 1344.0,
            "view_count": 9625432,
            "uploader": "JioHotstar Kids",
            "category": "cartoons/shiva",
            "thumbnail": "https://i.ytimg.com/vi/6Kk1e6uXOE0/hq720.jpg"
        },
        {
            "id": "WvwVIQl7It4",
            "title": "Shiva's Cycle Modified | Shiva",
            "url": "https://www.youtube.com/watch?v=WvwVIQl7It4",
            "duration": 1997.0,
            "view_count": 15545647,
            "uploader": "Shiva Hindi TV Show",
            "category": "cartoons/shiva",
            "thumbnail": "https://i.ytimg.com/vi/WvwVIQl7It4/hq720.jpg"
        },
        {
            "id": "mcnWOFTlPdQ",
            "title": "Bull हुआ Out of Control, सबकी नज़र Shiva पर | Shiva | शिवा",
            "url": "https://www.youtube.com/watch?v=mcnWOFTlPdQ",
            "duration": 3748.0,
            "view_count": 2994577,
            "uploader": "Sonic Gang",
            "category": "cartoons/shiva",
            "thumbnail": "https://i.ytimg.com/vi/mcnWOFTlPdQ/hq720.jpg"
        },
        {
            "id": "c52MmB_QZsk",
            "title": "Shiva Hypnotized Animal | जानवर पर हुआ शिवा का जादू | शिवा | Ep 215 | Shiva Show 2025 Hindi",
            "url": "https://www.youtube.com/watch?v=c52MmB_QZsk",
            "duration": 636.0,
            "view_count": 10687817,
            "uploader": "Shiva TV Show Hindi",
            "category": "cartoons/shiva",
            "thumbnail": "https://i.ytimg.com/vi/c52MmB_QZsk/hq720.jpg"
        },
        {
            "id": "FPLhy2aV3qU",
            "title": "Bus की Brakes फेल हो चुकी है, Oh No! Shiva बचाओ! | Shiva",
            "url": "https://www.youtube.com/watch?v=FPLhy2aV3qU",
            "duration": 1273.0,
            "view_count": 31212135,
            "uploader": "Shiva Hindi TV Show",
            "category": "cartoons/shiva",
            "thumbnail": "https://i.ytimg.com/vi/FPLhy2aV3qU/hq720.jpg"
        },
        {
            "id": "N9olk_-cPyM",
            "title": "The Con Man Natwarlal | शिवा | Full Super Episode 58 | Funny Action Cartoon | Shiva Show Hindi",
            "url": "https://www.youtube.com/watch?v=N9olk_-cPyM",
            "duration": 1331.0,
            "view_count": 26016118,
            "uploader": "Shiva TV Show Hindi",
            "category": "cartoons/shiva",
            "thumbnail": "https://i.ytimg.com/vi/N9olk_-cPyM/hq720.jpg"
        },
        {
            "id": "m-hNokrrRRM",
            "title": "Choti Gang | Shiva Ep 180 Action Cartoon Story For Kids | Shiva Cartoon | Boonie Bears Hindi",
            "url": "https://www.youtube.com/watch?v=m-hNokrrRRM",
            "duration": 1102.0,
            "view_count": 641604,
            "uploader": "Boonie Bears",
            "category": "cartoons/shiva",
            "thumbnail": "https://i.ytimg.com/vi/m-hNokrrRRM/hq720.jpg"
        },
        {
            "id": "iUH-3h7Pefs",
            "title": "Shiva और Palace के नीचे की दुनिया | Shiva : The Secret World Of Vedas City | Full Movie",
            "url": "https://www.youtube.com/watch?v=iUH-3h7Pefs",
            "duration": 4607.0,
            "view_count": 2001241,
            "uploader": "Sonic Gang Hindi Movies",
            "category": "cartoons/shiva",
            "thumbnail": "https://i.ytimg.com/vi/iUH-3h7Pefs/hq720.jpg"
        },
        {
            "id": "c_VypXtnYa4",
            "title": "Shiva's Cycle Has Been Upgraded | Shiva",
            "url": "https://www.youtube.com/watch?v=c_VypXtnYa4",
            "duration": 1106.0,
            "view_count": 18071911,
            "uploader": "Shiva Hindi TV Show",
            "category": "cartoons/shiva",
            "thumbnail": "https://i.ytimg.com/vi/c_VypXtnYa4/hq720.jpg"
        },
        {
            "id": "C2Vjx2xHPmY",
            "title": "Ladoo Singh ने कर दी Strict Duty | Shiva",
            "url": "https://www.youtube.com/watch?v=C2Vjx2xHPmY",
            "duration": 2214.0,
            "view_count": 95133,
            "uploader": "Shiva Hindi TV Show",
            "category": "cartoons/shiva",
            "thumbnail": "https://i.ytimg.com/vi/C2Vjx2xHPmY/hq720.jpg"
        },
        {
            "id": "Xcy7PQpfIpk",
            "title": "Shiva के Cycle मे लगे Super Wings | Shiva",
            "url": "https://www.youtube.com/watch?v=Xcy7PQpfIpk",
            "duration": 632.0,
            "view_count": 4280108,
            "uploader": "Shiva Hindi TV Show",
            "category": "cartoons/shiva",
            "thumbnail": "https://i.ytimg.com/vi/Xcy7PQpfIpk/hq720.jpg"
        },
        {
            "id": "oMhUDbcfROc",
            "title": "Shiva और Stone Man का राज़ | Shiva | शिवा",
            "url": "https://www.youtube.com/watch?v=oMhUDbcfROc",
            "duration": 3787.0,
            "view_count": 304864,
            "uploader": "Sonic Gang",
            "category": "cartoons/shiva",
            "thumbnail": "https://i.ytimg.com/vi/oMhUDbcfROc/hq720.jpg"
        },
        {
            "id": "XHpSG9QvOCc",
            "title": "छींक लाने वाला तारा | Sneeze Asteroid | शिवा | Ep 231 | Shiva Show 2025 Hindi | Super Action Cartoon",
            "url": "https://www.youtube.com/watch?v=XHpSG9QvOCc",
            "duration": 1245.0,
            "view_count": 17766849,
            "uploader": "Shiva TV Show Hindi",
            "category": "cartoons/shiva",
            "thumbnail": "https://i.ytimg.com/vi/XHpSG9QvOCc/hq720.jpg"
        },
        {
            "id": "WLZjZ5XGJzc",
            "title": "Shiva बनाम Krax... अंत तक कौन टिकेगा? | Shiva | शिवा",
            "url": "https://www.youtube.com/watch?v=WLZjZ5XGJzc",
            "duration": 3676.0,
            "view_count": 1836936,
            "uploader": "Sonic Gang",
            "category": "cartoons/shiva",
            "thumbnail": "https://i.ytimg.com/vi/WLZjZ5XGJzc/hq720.jpg"
        },
        {
            "id": "dBSReqetNrk",
            "title": "Shiva | शिवा | Full Episode | The Resort",
            "url": "https://www.youtube.com/watch?v=dBSReqetNrk",
            "duration": 1313.0,
            "view_count": 3217473,
            "uploader": "Sonic Gang",
            "category": "cartoons/shiva",
            "thumbnail": "https://i.ytimg.com/vi/dBSReqetNrk/hq720.jpg"
        },
        {
            "id": "lHCHHxUCb-0",
            "title": "Big Bang | महा विस्फोट | शिवा | Ep 234 | Shiva Tv Show 2025 Hindi | Super Action Cartoon",
            "url": "https://www.youtube.com/watch?v=lHCHHxUCb-0",
            "duration": 1241.0,
            "view_count": 2798602,
            "uploader": "Shiva TV Show Hindi",
            "category": "cartoons/shiva",
            "thumbnail": "https://i.ytimg.com/vi/lHCHHxUCb-0/hq720.jpg"
        },
        {
            "id": "3-aiE4uWp4Y",
            "title": "Shiva | शिवा | Full Episode | The Folding Tank",
            "url": "https://www.youtube.com/watch?v=3-aiE4uWp4Y",
            "duration": 1095.0,
            "view_count": 1139864,
            "uploader": "Sonic Gang",
            "category": "cartoons/shiva",
            "thumbnail": "https://i.ytimg.com/vi/3-aiE4uWp4Y/hq720.jpg"
        },
        {
            "id": "V05ZO1_XF18",
            "title": "City में चमगादड़ों का आतंक, Shiva बोले – मैं हूँ ना! 😎 | Shiva | शिवा",
            "url": "https://www.youtube.com/watch?v=V05ZO1_XF18",
            "duration": 3325.0,
            "view_count": 8742375,
            "uploader": "JioHotstar Kids",
            "category": "cartoons/shiva",
            "thumbnail": "https://i.ytimg.com/vi/V05ZO1_XF18/hq720.jpg"
        },
        {
            "id": "oMZS1ebZHKc",
            "title": "Shiva | शिवा | Finding Nana Ji | Episode 33 | Download Voot Kids App",
            "url": "https://www.youtube.com/watch?v=oMZS1ebZHKc",
            "duration": 1216.0,
            "view_count": 53686969,
            "uploader": "JioHotstar Kids",
            "category": "cartoons/shiva",
            "thumbnail": "https://i.ytimg.com/vi/oMZS1ebZHKc/hq720.jpg"
        },
        {
            "id": "AXPTNFsl5VQ",
            "title": "Shiva ने बनाया एक पागल भैंसे को दोस्त | Shiva",
            "url": "https://www.youtube.com/watch?v=AXPTNFsl5VQ",
            "duration": 1231.0,
            "view_count": 10236380,
            "uploader": "Shiva Hindi TV Show",
            "category": "cartoons/shiva",
            "thumbnail": "https://i.ytimg.com/vi/AXPTNFsl5VQ/hq720.jpg"
        },
        {
            "id": "YE2Wo5i4m7Q",
            "title": "Holi Hai | होली है | Shiva Tv Show 2026 Hindi | Full Action Ep | Shiva Super Action Ep",
            "url": "https://www.youtube.com/watch?v=YE2Wo5i4m7Q",
            "duration": 1075.0,
            "view_count": 95263,
            "uploader": "Shiva TV Show Hindi",
            "category": "cartoons/shiva",
            "thumbnail": "https://i.ytimg.com/vi/YE2Wo5i4m7Q/hq720.jpg"
        },
        {
            "id": "fXy80GHzc7Y",
            "title": "Shiva | Shiva Saves Airawant | शिवा | Episode 9 | Shiva TV Show 2024 Hindi",
            "url": "https://www.youtube.com/watch?v=fXy80GHzc7Y",
            "duration": 1265.0,
            "view_count": 30328855,
            "uploader": "Shiva TV Show Hindi",
            "category": "cartoons/shiva",
            "thumbnail": "https://i.ytimg.com/vi/fXy80GHzc7Y/hq720.jpg"
        },
        {
            "id": "1_5vFU7NU0o",
            "title": "Shiva का Storm Mission | Shiva | शिवा",
            "url": "https://www.youtube.com/watch?v=1_5vFU7NU0o",
            "duration": 3790.0,
            "view_count": 1057798,
            "uploader": "Sonic Gang",
            "category": "cartoons/shiva",
            "thumbnail": "https://i.ytimg.com/vi/1_5vFU7NU0o/hq720.jpg"
        },
        {
            "id": "lSkwTO9zNUg",
            "title": "Shiva - Full Episode 61 - The Secret Code",
            "url": "https://www.youtube.com/watch?v=lSkwTO9zNUg",
            "duration": 1299.0,
            "view_count": 48713334,
            "uploader": "JioHotstar Kids",
            "category": "cartoons/shiva",
            "thumbnail": "https://i.ytimg.com/vi/lSkwTO9zNUg/hq720.jpg"
        },
        {
            "id": "9cmjkg0h5Pg",
            "title": "Lobo ने मारा घूसा Laddoo Singh को | Shiva | शिवा",
            "url": "https://www.youtube.com/watch?v=9cmjkg0h5Pg",
            "duration": 3832.0,
            "view_count": 15375635,
            "uploader": "JioHotstar Kids",
            "category": "cartoons/shiva",
            "thumbnail": "https://i.ytimg.com/vi/9cmjkg0h5Pg/hq720.jpg"
        },
        {
            "id": "r-zsZLW6chE",
            "title": "Petrol Pump Robbery | पेट्रोल पंप डकैती | शिवा Ep 136 | Action Cartoon | Shiva TV Show 2024 Hindi",
            "url": "https://www.youtube.com/watch?v=r-zsZLW6chE",
            "duration": 1095.0,
            "view_count": 2809406,
            "uploader": "Shiva TV Show Hindi",
            "category": "cartoons/shiva",
            "thumbnail": "https://i.ytimg.com/vi/r-zsZLW6chE/hq720.jpg"
        },
        {
            "id": "b5oC4EFFX6U",
            "title": "Shiva vs बोलते बंदर – कौन जीतेगा? | Shiva | शिवा",
            "url": "https://www.youtube.com/watch?v=b5oC4EFFX6U",
            "duration": 3311.0,
            "view_count": 4269361,
            "uploader": "Sonic Gang",
            "category": "cartoons/shiva",
            "thumbnail": "https://i.ytimg.com/vi/b5oC4EFFX6U/hq720.jpg"
        },
        {
            "id": "7jnSo_731aw",
            "title": "जब Shiva ने Autobots को चौंका दिया 😱 | Shiva VS The Autobots | Full Movie",
            "url": "https://www.youtube.com/watch?v=7jnSo_731aw",
            "duration": 4720.0,
            "view_count": 543531,
            "uploader": "Sonic Gang Hindi Movies",
            "category": "cartoons/shiva",
            "thumbnail": "https://i.ytimg.com/vi/7jnSo_731aw/hq720.jpg"
        },
        {
            "id": "qd9IpP6D8tU",
            "title": "Shiva की School Fight | Shiva",
            "url": "https://www.youtube.com/watch?v=qd9IpP6D8tU",
            "duration": 1054.0,
            "view_count": 4302999,
            "uploader": "Shiva Hindi TV Show",
            "category": "cartoons/shiva",
            "thumbnail": "https://i.ytimg.com/vi/qd9IpP6D8tU/hq720.jpg"
        },
        {
            "id": "-UOzwAh1qYA",
            "title": "Shiva finds his secret hideout | Shiva",
            "url": "https://www.youtube.com/watch?v=-UOzwAh1qYA",
            "duration": 2222.0,
            "view_count": 8480376,
            "uploader": "Shiva Hindi TV Show",
            "category": "cartoons/shiva",
            "thumbnail": "https://i.ytimg.com/vi/-UOzwAh1qYA/hq720.jpg"
        },
        {
            "id": "YE47z3AS8E4",
            "title": "Shiva | शिवा | Dr. Earthquake | Full Episode 65 | Voot Kids",
            "url": "https://www.youtube.com/watch?v=YE47z3AS8E4",
            "duration": 1290.0,
            "view_count": 11575391,
            "uploader": "JioHotstar Kids",
            "category": "cartoons/shiva",
            "thumbnail": "https://i.ytimg.com/vi/YE47z3AS8E4/hq720.jpg"
        },
        {
            "id": "NdoyWNDNuOU",
            "title": "जलती हुई Oil Train को रोकने निकला Shiva | Shiva | शिवा",
            "url": "https://www.youtube.com/watch?v=NdoyWNDNuOU",
            "duration": 3805.0,
            "view_count": 1494231,
            "uploader": "Sonic Gang",
            "category": "cartoons/shiva",
            "thumbnail": "https://i.ytimg.com/vi/NdoyWNDNuOU/hq720.jpg"
        },
        {
            "id": "4t5OMLSShWc",
            "title": "Paper Gun | कागज़ की बंदूक | शिवा | Ep 228 | Shiva Show 2025 Hindi | Super Action Cartoon",
            "url": "https://www.youtube.com/watch?v=4t5OMLSShWc",
            "duration": 624.0,
            "view_count": 909491,
            "uploader": "Shiva TV Show Hindi",
            "category": "cartoons/shiva",
            "thumbnail": "https://i.ytimg.com/vi/4t5OMLSShWc/hq720.jpg"
        },
        {
            "id": "ZqzqhmxJWvw",
            "title": "Shiva और Kaviraj का खेल | 10 Din 10 Villain | Shiva | शिवा | Full Episode 30",
            "url": "https://www.youtube.com/watch?v=ZqzqhmxJWvw",
            "duration": 1272.0,
            "view_count": 105774,
            "uploader": "JioHotstar Kids",
            "category": "cartoons/shiva",
            "thumbnail": "https://i.ytimg.com/vi/ZqzqhmxJWvw/hq720.jpg"
        },
        {
            "id": "HvDlw6Py3Cg",
            "title": "Shiva हो गया गलत Train मे lock | Shiva",
            "url": "https://www.youtube.com/watch?v=HvDlw6Py3Cg",
            "duration": 2651.0,
            "view_count": 1949419,
            "uploader": "Shiva Hindi TV Show",
            "category": "cartoons/shiva",
            "thumbnail": "https://i.ytimg.com/vi/HvDlw6Py3Cg/hq720.jpg"
        },
        {
            "id": "iRDvF0b9JUM",
            "title": "Shiva and his friends disappear from the waterfall! | Shiva",
            "url": "https://www.youtube.com/watch?v=iRDvF0b9JUM",
            "duration": 657.0,
            "view_count": 3052025,
            "uploader": "Shiva Kids Club",
            "category": "cartoons/shiva",
            "thumbnail": "https://i.ytimg.com/vi/iRDvF0b9JUM/hq720.jpg"
        },
        {
            "id": "jeiJJJUGN0I",
            "title": "Shiva | शिवा | Full Episode | The Track Suit",
            "url": "https://www.youtube.com/watch?v=jeiJJJUGN0I",
            "duration": 1105.0,
            "view_count": 60151436,
            "uploader": "Sonic Gang",
            "category": "cartoons/shiva",
            "thumbnail": "https://i.ytimg.com/vi/jeiJJJUGN0I/hq720.jpg"
        },
        {
            "id": "rykp-Af8LOA",
            "title": "क्या Shiva जीत पाएगा Cooking Competition? 🍳🏆 | Shiva | शिवा",
            "url": "https://www.youtube.com/watch?v=rykp-Af8LOA",
            "duration": 1233.0,
            "view_count": 34873002,
            "uploader": "Sonic Gang",
            "category": "cartoons/shiva",
            "thumbnail": "https://i.ytimg.com/vi/rykp-Af8LOA/hq720.jpg"
        },
        {
            "id": "o-aTAieubOU",
            "title": "Shiva | शिवा | Full Episode | The Supermarket",
            "url": "https://www.youtube.com/watch?v=o-aTAieubOU",
            "duration": 1095.0,
            "view_count": 679004,
            "uploader": "Sonic Gang",
            "category": "cartoons/shiva",
            "thumbnail": "https://i.ytimg.com/vi/o-aTAieubOU/hq720.jpg"
        },
        {
            "id": "t_rKaDjNYw4",
            "title": "Robot Cops put Shiva in jail. Shiva",
            "url": "https://www.youtube.com/watch?v=t_rKaDjNYw4",
            "duration": 2289.0,
            "view_count": 1279595,
            "uploader": "Shiva Hindi TV Show",
            "category": "cartoons/shiva",
            "thumbnail": "https://i.ytimg.com/vi/t_rKaDjNYw4/hq720.jpg"
        },
        {
            "id": "dQ4JBUSR5Bg",
            "title": "Hypnotized ट्रेन, Digital Diamonds लूट, और Shiva की एक लड़ाई | Shiva | शिवा",
            "url": "https://www.youtube.com/watch?v=dQ4JBUSR5Bg",
            "duration": 3739.0,
            "view_count": 1155572,
            "uploader": "Sonic Gang",
            "category": "cartoons/shiva",
            "thumbnail": "https://i.ytimg.com/vi/dQ4JBUSR5Bg/hq720.jpg"
        },
        {
            "id": "0JenAUAzXFA",
            "title": "Shiva | शिवा | Full Episode | The Alien Robbers",
            "url": "https://www.youtube.com/watch?v=0JenAUAzXFA",
            "duration": 1071.0,
            "view_count": 1235274,
            "uploader": "Sonic Gang",
            "category": "cartoons/shiva",
            "thumbnail": "https://i.ytimg.com/vi/0JenAUAzXFA/hq720.jpg"
        },
        {
            "id": "Yw_jID1fDcI",
            "title": "जब Cobra Gang ने लूटा Bank... Shiva ने ली जिम्मेदारी! | Shiva | शिवा",
            "url": "https://www.youtube.com/watch?v=Yw_jID1fDcI",
            "duration": 3280.0,
            "view_count": 408744,
            "uploader": "JioHotstar Kids",
            "category": "cartoons/shiva",
            "thumbnail": "https://i.ytimg.com/vi/Yw_jID1fDcI/hq720.jpg"
        },
        {
            "id": "kCcHaNSP2Cg",
            "title": "Shiva vs Bats: Laddoo की जान खतरे में! 🦇😱 | Shiva | शिवा",
            "url": "https://www.youtube.com/watch?v=kCcHaNSP2Cg",
            "duration": 3345.0,
            "view_count": 1575096,
            "uploader": "Sonic Gang",
            "category": "cartoons/shiva",
            "thumbnail": "https://i.ytimg.com/vi/kCcHaNSP2Cg/hq720.jpg"
        },
        {
            "id": "EpTAlh9yy-o",
            "title": "Shiva की लड़ाई: Maya की Immortality रोको | Shiva | शिवा",
            "url": "https://www.youtube.com/watch?v=EpTAlh9yy-o",
            "duration": 3387.0,
            "view_count": 4660311,
            "uploader": "Sonic Gang",
            "category": "cartoons/shiva",
            "thumbnail": "https://i.ytimg.com/vi/EpTAlh9yy-o/hq720.jpg"
        },
        {
            "id": "nZJklqPNKCk",
            "title": "Shiva's friend Tarzan | Shiva",
            "url": "https://www.youtube.com/watch?v=nZJklqPNKCk",
            "duration": 653.0,
            "view_count": 74905,
            "uploader": "Shiva Hindi TV Show",
            "category": "cartoons/shiva",
            "thumbnail": "https://i.ytimg.com/vi/nZJklqPNKCk/hq720.jpg"
        }
    ]
}