{
    "page": 33,
    "total_pages": 103,
    "total_items": 5125,
    "items": [
        {
            "id": "uGb8NQDy16o",
            "title": "Gokuldham Men Cannot Sleep | Taarak Mehta Ka Ooltah Chashmah| Full Ep 4644| 26 Feb 2026| New Episode",
            "url": "https://www.youtube.com/watch?v=uGb8NQDy16o",
            "duration": 1311.0,
            "view_count": 986159,
            "uploader": "Taarak Mehta Ka Ooltah Chashmah Episodes",
            "category": "taarak_mehta",
            "thumbnail": "https://i.ytimg.com/vi/uGb8NQDy16o/hq720.jpg"
        },
        {
            "id": "CV7sL-zmGng",
            "title": "Gents Ne Bhide Ko Pehnai Sade Hue Aam Ki Maala ! | FULL MOVIE | Taarak Mehta Ka Ooltah Chashmah",
            "url": "https://www.youtube.com/watch?v=CV7sL-zmGng",
            "duration": 2753.0,
            "view_count": 281852,
            "uploader": "Taarak Mehta Ka Ooltah Chashmah",
            "category": "taarak_mehta",
            "thumbnail": "https://i.ytimg.com/vi/CV7sL-zmGng/hq720.jpg"
        },
        {
            "id": "ky4R6uuJWIg",
            "title": "Newspaper Me Chapa Bhide Ka Articlle  ! | FULL MOVIE | Taarak Mehta Ka Ooltah Chashmah",
            "url": "https://www.youtube.com/watch?v=ky4R6uuJWIg",
            "duration": 2692.0,
            "view_count": 17254,
            "uploader": "Taarak Mehta Ka Ooltah Chashmah",
            "category": "taarak_mehta",
            "thumbnail": "https://i.ytimg.com/vi/ky4R6uuJWIg/hq720.jpg"
        },
        {
            "id": "8mARzX4ZKD4",
            "title": "Jethalal se kis Baat ka चंदा माँग रहा है Bagha! | FULL MOVIE | Taarak Mehta Ka Ooltah Chashmah",
            "url": "https://www.youtube.com/watch?v=8mARzX4ZKD4",
            "duration": 2151.0,
            "view_count": 68954,
            "uploader": "Taarak Mehta Ka Ooltah Chashmah",
            "category": "taarak_mehta",
            "thumbnail": "https://i.ytimg.com/vi/8mARzX4ZKD4/hq720.jpg"
        },
        {
            "id": "C3qrhYsuH1w",
            "title": "Jetha और Bhide Society में रखे घर का कचरा | Taarak Mehta Ka Ooltah Chashmah | Garba Night",
            "url": "https://www.youtube.com/watch?v=C3qrhYsuH1w",
            "duration": 3593.0,
            "view_count": 97964,
            "uploader": "Taarak Mehta Ka Ooltah Chashmah Episodes",
            "category": "taarak_mehta",
            "thumbnail": "https://i.ytimg.com/vi/C3qrhYsuH1w/hqdefault.jpg"
        },
        {
            "id": "SHYFhpBF43g",
            "title": "Daya ने यूज किया अपना Sense Of Humour | Taarak Mehta Ka Ooltah Chashmah | Jethalal’s Missing Cheque",
            "url": "https://www.youtube.com/watch?v=SHYFhpBF43g",
            "duration": 2338.0,
            "view_count": 140032,
            "uploader": "Taarak Mehta Ka Ooltah Chashmah Episodes",
            "category": "taarak_mehta",
            "thumbnail": "https://i.ytimg.com/vi/SHYFhpBF43g/hq720.jpg"
        },
        {
            "id": "9eORQ1iFgzI",
            "title": "चूरमे के Ladoo के लिए Jetha ने खोला अपना मुँह |Taarak Mehta Ka Ooltah Chashmah | Anjali Ka Diet Plan",
            "url": "https://www.youtube.com/watch?v=9eORQ1iFgzI",
            "duration": 3712.0,
            "view_count": 2048,
            "uploader": "Taarak Mehta Ka Ooltah Chashmah Episodes",
            "category": "taarak_mehta",
            "thumbnail": "https://i.ytimg.com/vi/9eORQ1iFgzI/hqdefault.jpg"
        },
        {
            "id": "RXXPzlM-rjI",
            "title": "Daya ke Hath ka Nashta laga Jethya ko Yummy! | FULL MOVIE | Taarak Mehta Ka Ooltah Chashmah",
            "url": "https://www.youtube.com/watch?v=RXXPzlM-rjI",
            "duration": 2249.0,
            "view_count": 1304424,
            "uploader": "Taarak Mehta Ka Ooltah Chashmah",
            "category": "taarak_mehta",
            "thumbnail": "https://i.ytimg.com/vi/RXXPzlM-rjI/hq720.jpg"
        },
        {
            "id": "s6fV5EQXal0",
            "title": "Episode 897 - Taarak Mehta Ka Ooltah Chashmah - Full Episode | तारक मेहता का उल्टा चश्मा",
            "url": "https://www.youtube.com/watch?v=s6fV5EQXal0",
            "duration": 1217.0,
            "view_count": 44444914,
            "uploader": "Taarak Mehta Ka Ooltah Chashmah",
            "category": "taarak_mehta",
            "thumbnail": "https://i.ytimg.com/vi/s6fV5EQXal0/hq720.jpg"
        },
        {
            "id": "Wal2_WpgMM8",
            "title": "Bhide Hides The Jewellery | Taarak Mehta Ka Ooltah Chashmah| Full Ep 4662 | 19 Mar 2026| New Episode",
            "url": "https://www.youtube.com/watch?v=Wal2_WpgMM8",
            "duration": 1295.0,
            "view_count": 802133,
            "uploader": "Taarak Mehta Ka Ooltah Chashmah Episodes",
            "category": "taarak_mehta",
            "thumbnail": "https://i.ytimg.com/vi/Wal2_WpgMM8/hq720.jpg"
        },
        {
            "id": "DjgEafp8Gks",
            "title": "Jethalal & Iyer Receive A Punishment | Taarak Mehta Ka Ooltah Chashmah | Full Episode",
            "url": "https://www.youtube.com/watch?v=DjgEafp8Gks",
            "duration": 884.0,
            "view_count": 7423,
            "uploader": "Taarak Mehta Ka Ooltah Chashmah Episodes",
            "category": "taarak_mehta",
            "thumbnail": "https://i.ytimg.com/vi/DjgEafp8Gks/hq720.jpg"
        },
        {
            "id": "p_bA-Fdgotg",
            "title": "Balcony की Grill में कैसे फस गया Bhide? | Taarak Mehta Ka Ooltah Chashmah | Bhide Bana Crorepati",
            "url": "https://www.youtube.com/watch?v=p_bA-Fdgotg",
            "duration": 3525.0,
            "view_count": 12914,
            "uploader": "Taarak Mehta Ka Ooltah Chashmah Episodes",
            "category": "taarak_mehta",
            "thumbnail": "https://i.ytimg.com/vi/p_bA-Fdgotg/hqdefault.jpg"
        },
        {
            "id": "sJm3VZ2f2R4",
            "title": "Daya Gokuldham Kab Laut Rahi Hain | Haste Raho Hasate Raho | Taarak Mehta ka Ooltah Chashmah",
            "url": "https://www.youtube.com/watch?v=sJm3VZ2f2R4",
            "duration": 625.0,
            "view_count": 6028,
            "uploader": "Taarak Mehta Ka Ooltah Chashmah",
            "category": "taarak_mehta",
            "thumbnail": "https://i.ytimg.com/vi/sJm3VZ2f2R4/hq720.jpg"
        },
        {
            "id": "lrBlN91UDMM",
            "title": "Garmi Ki Wajah Se Kyu Pareshan Hai Nattu Kaka!! | FULL MOVIE | Taarak Mehta Ka Ooltah Chashmah",
            "url": "https://www.youtube.com/watch?v=lrBlN91UDMM",
            "duration": 2822.0,
            "view_count": 125639,
            "uploader": "Taarak Mehta Ka Ooltah Chashmah",
            "category": "taarak_mehta",
            "thumbnail": "https://i.ytimg.com/vi/lrBlN91UDMM/hq720.jpg"
        },
        {
            "id": "erErh9UxnVc",
            "title": "Water Crisis में फंसी पूरी Gokuldham Society! | Taarak Mehta Ka Ooltah Chashmah | Water Crisis",
            "url": "https://www.youtube.com/watch?v=erErh9UxnVc",
            "duration": 2232.0,
            "view_count": 73701,
            "uploader": "Taarak Mehta Ka Ooltah Chashmah Episodes",
            "category": "taarak_mehta",
            "thumbnail": "https://i.ytimg.com/vi/erErh9UxnVc/hq720.jpg"
        },
        {
            "id": "LLJoALtnp_I",
            "title": "Bhide & Madhvi In Trouble | Taarak Mehta Ka Ooltah Chashmah| Full Ep 4663 | 20 Mar 2026| New Episode",
            "url": "https://www.youtube.com/watch?v=LLJoALtnp_I",
            "duration": 1267.0,
            "view_count": 845164,
            "uploader": "Taarak Mehta Ka Ooltah Chashmah Episodes",
            "category": "taarak_mehta",
            "thumbnail": "https://i.ytimg.com/vi/LLJoALtnp_I/hqdefault.jpg"
        },
        {
            "id": "qmopxgz1RzE",
            "title": "Kis Bat se Irritate Hua Jethalal ! | FULL MOVIE | Taarak Mehta Ka Ooltah Chashmah",
            "url": "https://www.youtube.com/watch?v=qmopxgz1RzE",
            "duration": 4744.0,
            "view_count": 69958,
            "uploader": "Taarak Mehta Ka Ooltah Chashmah",
            "category": "taarak_mehta",
            "thumbnail": "https://i.ytimg.com/vi/qmopxgz1RzE/hq720.jpg"
        },
        {
            "id": "Jj8Qtr5Sijw",
            "title": "Jail में Madhavi लेकर आई Bhide के लिए खाना | Taarak Mehta Ka Ooltah Chashmah | Bhide Bana Crorepati",
            "url": "https://www.youtube.com/watch?v=Jj8Qtr5Sijw",
            "duration": 3631.0,
            "view_count": 4845,
            "uploader": "Taarak Mehta Ka Ooltah Chashmah Episodes",
            "category": "taarak_mehta",
            "thumbnail": "https://i.ytimg.com/vi/Jj8Qtr5Sijw/hqdefault.jpg"
        },
        {
            "id": "m4xNgbQcB8A",
            "title": "Residents Make A Decision | Taarak Mehta Ka Ooltah Chashmah | Full Episode",
            "url": "https://www.youtube.com/watch?v=m4xNgbQcB8A",
            "duration": 1217.0,
            "view_count": 18015,
            "uploader": "Taarak Mehta Ka Ooltah Chashmah Episodes",
            "category": "taarak_mehta",
            "thumbnail": "https://i.ytimg.com/vi/m4xNgbQcB8A/hq720.jpg"
        },
        {
            "id": "pN6n2Ztprqk",
            "title": "Jethalal Bamboo Leke Kiske Piche Bhag Raha Hai!!! | FULL MOVIE | Taarak Mehta Ka Ooltah Chashmah",
            "url": "https://www.youtube.com/watch?v=pN6n2Ztprqk",
            "duration": 2771.0,
            "view_count": 17677,
            "uploader": "Taarak Mehta Ka Ooltah Chashmah",
            "category": "taarak_mehta",
            "thumbnail": "https://i.ytimg.com/vi/pN6n2Ztprqk/hq720.jpg"
        },
        {
            "id": "uhywt8AveGs",
            "title": "Soda Shop Par Jethalal Ne Kisko Kaha Chapli ! | FULL MOVIE | Taarak Mehta Ka Ooltah Chashmah",
            "url": "https://www.youtube.com/watch?v=uhywt8AveGs",
            "duration": 2983.0,
            "view_count": 1016982,
            "uploader": "Taarak Mehta Ka Ooltah Chashmah",
            "category": "taarak_mehta",
            "thumbnail": "https://i.ytimg.com/vi/uhywt8AveGs/hq720.jpg"
        },
        {
            "id": "27bu_w6SzIA",
            "title": "NEW! Ep 4664 - Chori ke Chakkar me Bhide Pohcha Jail! | Taarak Mehta ka Ooltah  Chashmah",
            "url": "https://www.youtube.com/watch?v=27bu_w6SzIA",
            "duration": 604.0,
            "view_count": 1791746,
            "uploader": "Taarak Mehta Ka Ooltah Chashmah",
            "category": "taarak_mehta",
            "thumbnail": "https://i.ytimg.com/vi/27bu_w6SzIA/hq720.jpg"
        },
        {
            "id": "eBxWmS-r4t8",
            "title": "FULL EPISODE! 4634 - Gada Electronic me Party Sharty! | Taarak Mehta Ka Ooltah Chashmah",
            "url": "https://www.youtube.com/watch?v=eBxWmS-r4t8",
            "duration": 1260.0,
            "view_count": 8037,
            "uploader": "Taarak Mehta Ka Ooltah Chashmah",
            "category": "taarak_mehta",
            "thumbnail": "https://i.ytimg.com/vi/eBxWmS-r4t8/hq720.jpg"
        },
        {
            "id": "L8kQFqcPnPI",
            "title": "Jethalal Falls Asleep | Taarak Mehta Ka Ooltah Chashmah | Full Ep 4634 | 14 Feb 2026 | New Episode",
            "url": "https://www.youtube.com/watch?v=L8kQFqcPnPI",
            "duration": 1243.0,
            "view_count": 941424,
            "uploader": "Taarak Mehta Ka Ooltah Chashmah Episodes",
            "category": "taarak_mehta",
            "thumbnail": "https://i.ytimg.com/vi/L8kQFqcPnPI/hq720.jpg"
        },
        {
            "id": "BFCuA0iwozE",
            "title": "Bhide Gets Arrested | Taarak Mehta Ka Ooltah Chashmah | Full Ep 4664 | 21 Mar 2026 | New Episode",
            "url": "https://www.youtube.com/watch?v=BFCuA0iwozE",
            "duration": 1315.0,
            "view_count": 990619,
            "uploader": "Taarak Mehta Ka Ooltah Chashmah Episodes",
            "category": "taarak_mehta",
            "thumbnail": "https://i.ytimg.com/vi/BFCuA0iwozE/hq720.jpg"
        },
        {
            "id": "47OtHKq9GY4",
            "title": "Iyer Bhide Aur Sodhi Ne Kyu Pheni Hai Saadi  !!! | FULL MOVIE | Taarak Mehta Ka Ooltah Chashmah",
            "url": "https://www.youtube.com/watch?v=47OtHKq9GY4",
            "duration": 3304.0,
            "view_count": 24653,
            "uploader": "Taarak Mehta Ka Ooltah Chashmah",
            "category": "taarak_mehta",
            "thumbnail": "https://i.ytimg.com/vi/47OtHKq9GY4/hq720.jpg"
        },
        {
            "id": "t73FIJD_jTM",
            "title": "किसे Trap करने के लिए Popatlal बना Jeweller? | Taarak Mehta Ka Ooltah Chashmah| Bhide Bana Crorepati",
            "url": "https://www.youtube.com/watch?v=t73FIJD_jTM",
            "duration": 3631.0,
            "view_count": 172383,
            "uploader": "Taarak Mehta Ka Ooltah Chashmah Episodes",
            "category": "taarak_mehta",
            "thumbnail": "https://i.ytimg.com/vi/t73FIJD_jTM/hq720.jpg"
        },
        {
            "id": "Aj6xPy3BQRY",
            "title": "Gokuldham Men Lie To Their Wives | Taarak Mehta Ka Ooltah Chashmah | Full Episode",
            "url": "https://www.youtube.com/watch?v=Aj6xPy3BQRY",
            "duration": 1135.0,
            "view_count": 7707,
            "uploader": "Taarak Mehta Ka Ooltah Chashmah Episodes",
            "category": "taarak_mehta",
            "thumbnail": "https://i.ytimg.com/vi/Aj6xPy3BQRY/hq720.jpg"
        },
        {
            "id": "5DYsPHDcFR8",
            "title": "Weekly Reliv - Taarak Mehta Ka Ooltah Chashmah - 4659 To 4664 | 16 Mar 2026 To 21 Mar 2026",
            "url": "https://www.youtube.com/watch?v=5DYsPHDcFR8",
            "duration": 7328.0,
            "view_count": 13053,
            "uploader": "Taarak Mehta Ka Ooltah Chashmah Episodes",
            "category": "taarak_mehta",
            "thumbnail": "https://i.ytimg.com/vi/5DYsPHDcFR8/hq720.jpg"
        },
        {
            "id": "z_wbSjn-j0g",
            "title": "NEW! Ep 4664 -Kya Bhide kar Raha tha Police ki Gadi Chori! | Taarak Mehta ka Ooltah  Chashmah",
            "url": "https://www.youtube.com/watch?v=z_wbSjn-j0g",
            "duration": 604.0,
            "view_count": 193843,
            "uploader": "TMKOC - MINISODES",
            "category": "taarak_mehta",
            "thumbnail": "https://i.ytimg.com/vi/z_wbSjn-j0g/hq720.jpg"
        },
        {
            "id": "nIFc6tyBV7o",
            "title": "Aam Ras dekh Lalchaya Jethya ka mann !!! | FULL MOVIE | Taarak Mehta Ka Ooltah Chashmah",
            "url": "https://www.youtube.com/watch?v=nIFc6tyBV7o",
            "duration": 2319.0,
            "view_count": 86119,
            "uploader": "Taarak Mehta Ka Ooltah Chashmah",
            "category": "taarak_mehta",
            "thumbnail": "https://i.ytimg.com/vi/nIFc6tyBV7o/hq720.jpg"
        },
        {
            "id": "Qwg0c447yuA",
            "title": "Bapuji Kyu Hue Jethalal Pe ghussa?!| FULL MOVIE | Taarak Mehta Ka Ooltah Chashmah",
            "url": "https://www.youtube.com/watch?v=Qwg0c447yuA",
            "duration": 3097.0,
            "view_count": 3155980,
            "uploader": "Taarak Mehta Ka Ooltah Chashmah",
            "category": "taarak_mehta",
            "thumbnail": "https://i.ytimg.com/vi/Qwg0c447yuA/hq720.jpg"
        },
        {
            "id": "Oj5oNxt_LR0",
            "title": "Daya ने पी ली Jetha की चाय! | FULL MOVIE | Taarak Mehta Ka Ooltah Chashmah",
            "url": "https://www.youtube.com/watch?v=Oj5oNxt_LR0",
            "duration": 3372.0,
            "view_count": 2131476,
            "uploader": "Taarak Mehta Ka Ooltah Chashmah",
            "category": "taarak_mehta",
            "thumbnail": "https://i.ytimg.com/vi/Oj5oNxt_LR0/hq720.jpg"
        },
        {
            "id": "qTDgpWrMsi0",
            "title": "Jetha Babita Ko Saath Dekh Iyer Ko Hui Jalan  !!! | FULL MOVIE | Taarak Mehta Ka Ooltah Chashmah",
            "url": "https://www.youtube.com/watch?v=qTDgpWrMsi0",
            "duration": 3346.0,
            "view_count": 267930,
            "uploader": "Taarak Mehta Ka Ooltah Chashmah",
            "category": "taarak_mehta",
            "thumbnail": "https://i.ytimg.com/vi/qTDgpWrMsi0/hq720.jpg"
        },
        {
            "id": "SF8o-Pxcbcs",
            "title": "Kisne Di Bhide ko Kam Rukwane ki Dhamki !!! | FULL MOVIE | Taarak Mehta Ka Ooltah Chashmah",
            "url": "https://www.youtube.com/watch?v=SF8o-Pxcbcs",
            "duration": 3436.0,
            "view_count": 401338,
            "uploader": "Taarak Mehta Ka Ooltah Chashmah",
            "category": "taarak_mehta",
            "thumbnail": "https://i.ytimg.com/vi/SF8o-Pxcbcs/hq720.jpg"
        },
        {
            "id": "9S_BsKIHvn4",
            "title": "Mahila Mandal Takes Tapu Sena For A Picnic | Taarak Mehta Ka Ooltah Chashmah | Full Episode 145",
            "url": "https://www.youtube.com/watch?v=9S_BsKIHvn4",
            "duration": 1068.0,
            "view_count": 5771,
            "uploader": "Taarak Mehta Ka Ooltah Chashmah Episodes",
            "category": "taarak_mehta",
            "thumbnail": "https://i.ytimg.com/vi/9S_BsKIHvn4/hq720.jpg"
        },
        {
            "id": "omaSB7NyT3E",
            "title": "क्या Police करेगी Gents को Jail से Release? | Taarak Mehta Ka Ooltah Chashmah | Bhide Bana Crorepati",
            "url": "https://www.youtube.com/watch?v=omaSB7NyT3E",
            "duration": 2455.0,
            "view_count": 9327,
            "uploader": "Taarak Mehta Ka Ooltah Chashmah Episodes",
            "category": "taarak_mehta",
            "thumbnail": "https://i.ytimg.com/vi/omaSB7NyT3E/hqdefault.jpg"
        },
        {
            "id": "2WOwly5C8IQ",
            "title": "Gokuldham Men Test Their Wives | Taarak Mehta Ka Ooltah Chashmah | Full Episode",
            "url": "https://www.youtube.com/watch?v=2WOwly5C8IQ",
            "duration": 1233.0,
            "view_count": 10257,
            "uploader": "Taarak Mehta Ka Ooltah Chashmah Episodes",
            "category": "taarak_mehta",
            "thumbnail": "https://i.ytimg.com/vi/2WOwly5C8IQ/hq720.jpg"
        },
        {
            "id": "TuFJ5VzEAeM",
            "title": "Jethalal Ne Kyu Kiya Bhide Ko Statue !!! | FULL MOVIE | Taarak Mehta Ka Ooltah Chashmah",
            "url": "https://www.youtube.com/watch?v=TuFJ5VzEAeM",
            "duration": 3441.0,
            "view_count": 115264,
            "uploader": "Taarak Mehta Ka Ooltah Chashmah",
            "category": "taarak_mehta",
            "thumbnail": "https://i.ytimg.com/vi/TuFJ5VzEAeM/hq720.jpg"
        },
        {
            "id": "vZcp-ZRHAYQ",
            "title": "Justice For Bhide | Taarak Mehta Ka Ooltah Chashmah | Full Ep 4665 | 23 Mar 2026 | New Episode",
            "url": "https://www.youtube.com/watch?v=vZcp-ZRHAYQ",
            "duration": 1293.0,
            "view_count": 1039737,
            "uploader": "Taarak Mehta Ka Ooltah Chashmah Episodes",
            "category": "taarak_mehta",
            "thumbnail": "https://i.ytimg.com/vi/vZcp-ZRHAYQ/hq720.jpg"
        },
        {
            "id": "0Xr_nU6iC9c",
            "title": "Jethalal ne pheka Iyer par pani ! | FULL MOVIE | Taarak Mehta Ka Ooltah Chashmah",
            "url": "https://www.youtube.com/watch?v=0Xr_nU6iC9c",
            "duration": 3458.0,
            "view_count": 203845,
            "uploader": "Taarak Mehta Ka Ooltah Chashmah",
            "category": "taarak_mehta",
            "thumbnail": "https://i.ytimg.com/vi/0Xr_nU6iC9c/hq720.jpg"
        },
        {
            "id": "Li7AYyQ4Yt0",
            "title": "Sunita के Idea से Impress हुए Gokuldham वाले | Taarak Mehta Ka Ooltah Chashmah | Notebandi",
            "url": "https://www.youtube.com/watch?v=Li7AYyQ4Yt0",
            "duration": 3533.0,
            "view_count": 43671,
            "uploader": "Taarak Mehta Ka Ooltah Chashmah Episodes",
            "category": "taarak_mehta",
            "thumbnail": "https://i.ytimg.com/vi/Li7AYyQ4Yt0/hq720.jpg"
        },
        {
            "id": "Wul9YuCtP4U",
            "title": "Jetha ने क्यों लगाई Bagha और Nattu Kaka को डांट? | Taarak Mehta Ka Ooltah Chashmah |Bapuji Hue Gayab",
            "url": "https://www.youtube.com/watch?v=Wul9YuCtP4U",
            "duration": 3561.0,
            "view_count": 20123,
            "uploader": "Taarak Mehta Ka Ooltah Chashmah Episodes",
            "category": "taarak_mehta",
            "thumbnail": "https://i.ytimg.com/vi/Wul9YuCtP4U/hq720.jpg"
        },
        {
            "id": "FO9wFA0GM2E",
            "title": "Popatlal ने सुखाया Hair Dryer से अपना Phone | Taarak Mehta Ka Ooltah Chashmah | Popatlal's New Phone",
            "url": "https://www.youtube.com/watch?v=FO9wFA0GM2E",
            "duration": 3497.0,
            "view_count": 10907,
            "uploader": "Taarak Mehta Ka Ooltah Chashmah Episodes",
            "category": "taarak_mehta",
            "thumbnail": "https://i.ytimg.com/vi/FO9wFA0GM2E/hqdefault.jpg"
        },
        {
            "id": "LO_N2fbWTf4",
            "title": "Popatlal पर क्यों भड़के Purush Mandali? | Taarak Mehta Ka Ooltah Chashmah | Popatlal's New Phone",
            "url": "https://www.youtube.com/watch?v=LO_N2fbWTf4",
            "duration": 3379.0,
            "view_count": 24244,
            "uploader": "Taarak Mehta Ka Ooltah Chashmah Episodes",
            "category": "taarak_mehta",
            "thumbnail": "https://i.ytimg.com/vi/LO_N2fbWTf4/hq720.jpg"
        },
        {
            "id": "5HDDQMCgoDI",
            "title": "Bhide's Surprise Gift | Taarak Mehta Ka Ooltah Chashmah | Full Ep 4666 | 24 Mar 2026 | New Episode",
            "url": "https://www.youtube.com/watch?v=5HDDQMCgoDI",
            "duration": 1328.0,
            "view_count": 980300,
            "uploader": "Taarak Mehta Ka Ooltah Chashmah Episodes",
            "category": "taarak_mehta",
            "thumbnail": "https://i.ytimg.com/vi/5HDDQMCgoDI/hq720.jpg"
        },
        {
            "id": "9GAyG9eylQU",
            "title": "Jethalal Gets A Big Order | Taarak Mehta Ka Ooltah Chashmah | Jetha Bapuji Special",
            "url": "https://www.youtube.com/watch?v=9GAyG9eylQU",
            "duration": 1228.0,
            "view_count": 9252,
            "uploader": "Taarak Mehta Ka Ooltah Chashmah Episodes",
            "category": "taarak_mehta",
            "thumbnail": "https://i.ytimg.com/vi/9GAyG9eylQU/hq720.jpg"
        },
        {
            "id": "zBiob-ZrjUE",
            "title": "The Search For Gogi | Taarak Mehta Ka Ooltah Chashmah | Full Episode 147",
            "url": "https://www.youtube.com/watch?v=zBiob-ZrjUE",
            "duration": 1152.0,
            "view_count": 2141,
            "uploader": "Taarak Mehta Ka Ooltah Chashmah Episodes",
            "category": "taarak_mehta",
            "thumbnail": "https://i.ytimg.com/vi/zBiob-ZrjUE/hq720.jpg"
        },
        {
            "id": "MkU9Zq7Y3os",
            "title": "पेड़ पर चढ़कर फँस गए Bapuji | Taarak Mehta Ka Ooltah Chashmah | Bapuji Hue Gayab",
            "url": "https://www.youtube.com/watch?v=MkU9Zq7Y3os",
            "duration": 3762.0,
            "view_count": 3905,
            "uploader": "Taarak Mehta Ka Ooltah Chashmah Episodes",
            "category": "taarak_mehta",
            "thumbnail": "https://i.ytimg.com/vi/MkU9Zq7Y3os/hq720.jpg"
        },
        {
            "id": "eAvS2M8SXfk",
            "title": "NEW! Ep 4667- Bhide ke Homework ne Diya बच्चों को Ram Navmi ki सीख!|Taarak Mehta ka Ooltah  Chashmah",
            "url": "https://www.youtube.com/watch?v=eAvS2M8SXfk",
            "duration": 627.0,
            "view_count": 1381137,
            "uploader": "Taarak Mehta Ka Ooltah Chashmah",
            "category": "taarak_mehta",
            "thumbnail": "https://i.ytimg.com/vi/eAvS2M8SXfk/hq720.jpg"
        }
    ]
}