{
    "page": 4,
    "total_pages": 103,
    "total_items": 5125,
    "items": [
        {
            "id": "9vaAYTXTxbA",
            "title": "Endless Love | ROMANCE | Full Movie in English",
            "url": "https://www.youtube.com/watch?v=9vaAYTXTxbA",
            "duration": 6196.0,
            "view_count": 913257,
            "uploader": "Boxoffice | ROMANCE | Full Movies",
            "category": "english",
            "thumbnail": "https://i.ytimg.com/vi/9vaAYTXTxbA/hq720.jpg"
        },
        {
            "id": "85aKbSselPM",
            "title": "NOIR AGENT : Angelina Jolie | New Action Movie 2026 | Full Movie 4K #actionmovies",
            "url": "https://www.youtube.com/watch?v=85aKbSselPM",
            "duration": 5358.0,
            "view_count": 8807,
            "uploader": "Joy Drama",
            "category": "english",
            "thumbnail": "https://i.ytimg.com/vi/85aKbSselPM/hq720.jpg"
        },
        {
            "id": "3V6JvHba_C0",
            "title": "🎬HIGHLY RECOMMENDED TO WATCH THIS MOVIE! High-Rated Adventure Action Film | Watch Now",
            "url": "https://www.youtube.com/watch?v=3V6JvHba_C0",
            "duration": 6083.0,
            "view_count": 4327170,
            "uploader": "FILMDOMINION",
            "category": "english",
            "thumbnail": "https://i.ytimg.com/vi/3V6JvHba_C0/hq720.jpg"
        },
        {
            "id": "BDPfG26lYgA",
            "title": "LIAM NEESON : CABIN 10 | New Action Movie | Full Movie | Movie Concept AI 2025 | 4K ULTRA",
            "url": "https://www.youtube.com/watch?v=BDPfG26lYgA",
            "duration": 5639.0,
            "view_count": 967004,
            "uploader": "X Drama",
            "category": "english",
            "thumbnail": "https://i.ytimg.com/vi/BDPfG26lYgA/hq720.jpg"
        },
        {
            "id": "7QCw_PHffr0",
            "title": "Broken Home | DRAMA | Full Movie in English",
            "url": "https://www.youtube.com/watch?v=7QCw_PHffr0",
            "duration": 5940.0,
            "view_count": 764,
            "uploader": "Boxoffice | DRAMA | Full Movies",
            "category": "english",
            "thumbnail": "https://i.ytimg.com/vi/7QCw_PHffr0/hq720.jpg"
        },
        {
            "id": "9P0jrGPfLNw",
            "title": "Hoppers (2026) Comedy/Sci-fi Full English Movie | Piper Curda | Bobby Moynihan | Review And React ",
            "url": "https://www.youtube.com/watch?v=9P0jrGPfLNw",
            "duration": 6601.0,
            "view_count": 28249,
            "uploader": "AB Drama Talk ",
            "category": "english",
            "thumbnail": "https://i.ytimg.com/vi/9P0jrGPfLNw/hq720.jpg"
        },
        {
            "id": "3oukK9Cz32s",
            "title": "OLIVER, STONED. | Hilarious Stoner Comedy | Full Movie HD",
            "url": "https://www.youtube.com/watch?v=3oukK9Cz32s",
            "duration": 5358.0,
            "view_count": 539280,
            "uploader": "FFF Banana | Full Free Super Funny Comedy Films",
            "category": "english",
            "thumbnail": "https://i.ytimg.com/vi/3oukK9Cz32s/hq720.jpg"
        },
        {
            "id": "Qqu2NASymfM",
            "title": "Vengeance: A Love Story | Full Movie",
            "url": "https://www.youtube.com/watch?v=Qqu2NASymfM",
            "duration": 5930.0,
            "view_count": 381822,
            "uploader": "FilmRise Movies",
            "category": "english",
            "thumbnail": "https://i.ytimg.com/vi/Qqu2NASymfM/hq720.jpg"
        },
        {
            "id": "HgZh_tu0acw",
            "title": "Watch Today Only! A True Story That Will Touch You Deeply | Full Movie",
            "url": "https://www.youtube.com/watch?v=HgZh_tu0acw",
            "duration": 5836.0,
            "view_count": 1418026,
            "uploader": "FilmVaultX",
            "category": "english",
            "thumbnail": "https://i.ytimg.com/vi/HgZh_tu0acw/hq720.jpg"
        },
        {
            "id": "gnMXPz58WQ4",
            "title": "2035 BATTLESHIP - Full Hollywood Sci-Fi Action Movie | English Movie | Carl W, Nikki M | Free Movies",
            "url": "https://www.youtube.com/watch?v=gnMXPz58WQ4",
            "duration": 5024.0,
            "view_count": 598614,
            "uploader": "Rising Nova English",
            "category": "english",
            "thumbnail": "https://i.ytimg.com/vi/gnMXPz58WQ4/hq720.jpg"
        },
        {
            "id": "LF07MlChBMs",
            "title": "Bilal: A New Breed of Hero | Full English Movie  | True Story of Freedom & Equality",
            "url": "https://www.youtube.com/watch?v=LF07MlChBMs",
            "duration": 6576.0,
            "view_count": 3463461,
            "uploader": "Movie World",
            "category": "english",
            "thumbnail": "https://i.ytimg.com/vi/LF07MlChBMs/hq720.jpg?sqp=-oaymwEcCNAFEJQDSFXyq4qpAw4IARUAAIhCGAFwAcABBg==&rs=AOn4CLALMStbNEPVxzvzrrsJOQjsQZRuiA",
            "added_date": "2026-04-16T07:31:04.036869Z",
            "source": "youtube"
        },
        {
            "id": "OlnZ_0qkbfU",
            "title": "THE GREAT WALL : Angelina Jolie | New Action Movie 2026 | Full Movie 4K #actionmovies",
            "url": "https://www.youtube.com/watch?v=OlnZ_0qkbfU",
            "duration": 5139.0,
            "view_count": 488505,
            "uploader": "Joy Drama",
            "category": "english",
            "thumbnail": "https://i.ytimg.com/vi/OlnZ_0qkbfU/hq720.jpg"
        },
        {
            "id": "0U76IPSfn7k",
            "title": "PRISON IN HELL : Angelina Jolie | New Action Movie 2026 | Full Movie 4K #actionmovies",
            "url": "https://www.youtube.com/watch?v=0U76IPSfn7k",
            "duration": 5139.0,
            "view_count": 1314845,
            "uploader": "Joy Drama",
            "category": "english",
            "thumbnail": "https://i.ytimg.com/vi/0U76IPSfn7k/hq720.jpg"
        },
        {
            "id": "q7ucHi_gILY",
            "title": "THE HARD TARGET : Angelina Jolie | New Action Movie 2026 | Full Movie 4K #actionmovies",
            "url": "https://www.youtube.com/watch?v=q7ucHi_gILY",
            "duration": 5400.0,
            "view_count": 262269,
            "uploader": "Joy Drama",
            "category": "english",
            "thumbnail": "https://i.ytimg.com/vi/q7ucHi_gILY/hq720.jpg"
        },
        {
            "id": "W1D0puderfs",
            "title": "CHASE - Hollywood Action Full Movie | Free Movies | English Movie",
            "url": "https://www.youtube.com/watch?v=W1D0puderfs",
            "duration": 5950.0,
            "view_count": 7993684,
            "uploader": "Majestic Movies",
            "category": "english",
            "thumbnail": "https://i.ytimg.com/vi/W1D0puderfs/hq720.jpg"
        },
        {
            "id": "WlKCMdmvbOk",
            "title": "BLACK SCRAB : Angelina Jolie | New Action Movie 2026 | Full Movie 4K #actionmovies",
            "url": "https://www.youtube.com/watch?v=WlKCMdmvbOk",
            "duration": 5400.0,
            "view_count": 981681,
            "uploader": "Joy Drama",
            "category": "english",
            "thumbnail": "https://i.ytimg.com/vi/WlKCMdmvbOk/hq720.jpg"
        },
        {
            "id": "VuMuz5jdK7w",
            "title": "Tentacle 8 | Spy Thriller | Full Movie | Secret Missions",
            "url": "https://www.youtube.com/watch?v=VuMuz5jdK7w",
            "duration": 7481.0,
            "view_count": 851864,
            "uploader": "Stash Movies & TV",
            "category": "english",
            "thumbnail": "https://i.ytimg.com/vi/VuMuz5jdK7w/hq720.jpg"
        },
        {
            "id": "wV4iVKRd3qA",
            "title": "They robbed a bank on Christmas Eve! | Action, Crime | Full Movie",
            "url": "https://www.youtube.com/watch?v=wV4iVKRd3qA",
            "duration": 4439.0,
            "view_count": 1207640,
            "uploader": "Movie union",
            "category": "english",
            "thumbnail": "https://i.ytimg.com/vi/wV4iVKRd3qA/hq720.jpg"
        },
        {
            "id": "n6PN62ua5Cc",
            "title": "KUNG FU PANDA Full Movie 2026: ACTION FANTASY MOVIE IN ENGLISH 2026 (Game Movie)",
            "url": "https://www.youtube.com/watch?v=n6PN62ua5Cc",
            "duration": 5488.0,
            "view_count": 3183,
            "uploader": "El Sacruz",
            "category": "english",
            "thumbnail": "https://i.ytimg.com/vi/n6PN62ua5Cc/hq720_custom_2.jpg"
        },
        {
            "id": "jWW4NGqgEgg",
            "title": "ADVENTURES OF JACKIE CHAN - English Movie | Superhit Hollywood Action Comedy Full Movie In English",
            "url": "https://www.youtube.com/watch?v=jWW4NGqgEgg",
            "duration": 6519.0,
            "view_count": 6388688,
            "uploader": "Blockbuster English Movies",
            "category": "english",
            "thumbnail": "https://i.ytimg.com/vi/jWW4NGqgEgg/hq720.jpg"
        },
        {
            "id": "cKKIOqKInf0",
            "title": "Krait 2 || New Action Movie 2026 | Chris Hemsworth & Margot Robbie | Full Movie | 4K #actionmovies",
            "url": "https://www.youtube.com/watch?v=cKKIOqKInf0",
            "duration": 7083.0,
            "view_count": 86836,
            "uploader": "Legend Shadows",
            "category": "english",
            "thumbnail": "https://i.ytimg.com/vi/cKKIOqKInf0/hq720.jpg"
        },
        {
            "id": "bx7dyln8-hA",
            "title": "Excellent Cadavers | English Full Movie | Crime Drama Thriller",
            "url": "https://www.youtube.com/watch?v=bx7dyln8-hA",
            "duration": 5923.0,
            "view_count": 9861,
            "uploader": "Drama Vision",
            "category": "english",
            "thumbnail": "https://i.ytimg.com/vi/bx7dyln8-hA/hq720.jpg"
        },
        {
            "id": "GhlVcwE0ULM",
            "title": "TRANSFER STUDENT - Brain Jotter Nigerian Movies 2026 Latest Full Movies",
            "url": "https://www.youtube.com/watch?v=GhlVcwE0ULM",
            "duration": 3358.0,
            "view_count": 34980,
            "uploader": "Brain Jotter",
            "category": "english",
            "thumbnail": "https://i.ytimg.com/vi/GhlVcwE0ULM/hq720.jpg"
        },
        {
            "id": "-B4tGTXYA10",
            "title": "LAST IMPACT (2025) VIN DIESEL | Full Action Movie - Thriller - Adventure | 4K HDR #actionmovies",
            "url": "https://www.youtube.com/watch?v=-B4tGTXYA10",
            "duration": 6700.0,
            "view_count": 1094062,
            "uploader": "ZED Drama",
            "category": "english",
            "thumbnail": "https://i.ytimg.com/vi/-B4tGTXYA10/hq720.jpg"
        },
        {
            "id": "S1VAyhrzTcQ",
            "title": "Girl From Nowhere (2018) | Full Movie | Thriller Movie",
            "url": "https://www.youtube.com/watch?v=S1VAyhrzTcQ",
            "duration": 5128.0,
            "view_count": 466453,
            "uploader": "Indie Rights Movies For Free",
            "category": "english",
            "thumbnail": "https://i.ytimg.com/vi/S1VAyhrzTcQ/hq720.jpg"
        },
        {
            "id": "qWj3rH3Vl_M",
            "title": "LAST MAN RUNNING: THEY HUNTED HIM… HE HUNTED BACK | Full Action Movie | English",
            "url": "https://www.youtube.com/watch?v=qWj3rH3Vl_M",
            "duration": 5302.0,
            "view_count": 57190,
            "uploader": "ActionVault",
            "category": "english",
            "thumbnail": "https://i.ytimg.com/vi/qWj3rH3Vl_M/hq720.jpg"
        },
        {
            "id": "W5cVDDod5lE",
            "title": "POPEYE (2026) Dwayne Johnson | New Action Movie  | 4K HDR #actionmovies",
            "url": "https://www.youtube.com/watch?v=W5cVDDod5lE",
            "duration": 5400.0,
            "view_count": 782381,
            "uploader": "ZED Drama",
            "category": "english",
            "thumbnail": "https://i.ytimg.com/vi/W5cVDDod5lE/hq720.jpg"
        },
        {
            "id": "YFbNIx3ppGk",
            "title": "Magical adventure movie for the whole family | The Magician's Raincoat | New English fantasy movies",
            "url": "https://www.youtube.com/watch?v=YFbNIx3ppGk",
            "duration": 5360.0,
            "view_count": 4523303,
            "uploader": "TimeLensTV",
            "category": "english",
            "thumbnail": "https://i.ytimg.com/vi/YFbNIx3ppGk/hq720.jpg"
        },
        {
            "id": "sSLdscHLvow",
            "title": "Apocalypto part 2 Full Movie (2026) #apocalypse",
            "url": "https://www.youtube.com/watch?v=sSLdscHLvow",
            "duration": 6239.0,
            "view_count": 24448,
            "uploader": "Kronis Nera",
            "category": "english",
            "thumbnail": "https://i.ytimg.com/vi/sSLdscHLvow/hqdefault.jpg"
        },
        {
            "id": "C1Ur1bet1Lg",
            "title": "BONDERS (2026) Scott Adkins, Donnie Yen | Action - Thriller - Adventure Movie | 4K #actionmovies",
            "url": "https://www.youtube.com/watch?v=C1Ur1bet1Lg",
            "duration": 5545.0,
            "view_count": 46215,
            "uploader": "ZED Drama",
            "category": "english",
            "thumbnail": "https://i.ytimg.com/vi/C1Ur1bet1Lg/hq720.jpg"
        },
        {
            "id": "WTTLHWKguqE",
            "title": "MRS DOG : Angelina Jolie | New Action Movie 2026 | Full Movie 4K #actionmovies",
            "url": "https://www.youtube.com/watch?v=WTTLHWKguqE",
            "duration": 5545.0,
            "view_count": 350957,
            "uploader": "Joy Drama",
            "category": "english",
            "thumbnail": "https://i.ytimg.com/vi/WTTLHWKguqE/hq720.jpg"
        },
        {
            "id": "s2od7VuasiE",
            "title": "Dangerous Dogs (2026) Donnie Yen | Full Action Movie - Thriller - Adventure | 4K HDR #actionmovies",
            "url": "https://www.youtube.com/watch?v=s2od7VuasiE",
            "duration": 5545.0,
            "view_count": 149112,
            "uploader": "ZED Drama",
            "category": "english",
            "thumbnail": "https://i.ytimg.com/vi/s2od7VuasiE/hq720.jpg"
        },
        {
            "id": "TMHklEuXAaI",
            "title": "NO DEAL! (2026) Vin Diesel, Scarlett Johansson | Action Movie | 4K #actionmovies",
            "url": "https://www.youtube.com/watch?v=TMHklEuXAaI",
            "duration": 5709.0,
            "view_count": 10414,
            "uploader": "ZED Drama",
            "category": "english",
            "thumbnail": "https://i.ytimg.com/vi/TMHklEuXAaI/hq720.jpg"
        },
        {
            "id": "Vm4NI_6mo80",
            "title": "WAR MACHINE (2026) Full movie English | Movie Alan Ritchson, Built Different | Facts & Reviews Movie",
            "url": "https://www.youtube.com/watch?v=Vm4NI_6mo80",
            "duration": 6878.0,
            "view_count": 67874,
            "uploader": "MB MISTERI ",
            "category": "english",
            "thumbnail": "https://i.ytimg.com/vi/Vm4NI_6mo80/hqdefault.jpg"
        },
        {
            "id": "phA0SuowcW4",
            "title": "The Last Witch of Salem Returns for Blood | Full Horror Movie",
            "url": "https://www.youtube.com/watch?v=phA0SuowcW4",
            "duration": 5542.0,
            "view_count": 33606,
            "uploader": "Horror Central",
            "category": "english",
            "thumbnail": "https://i.ytimg.com/vi/phA0SuowcW4/hq720.jpg"
        },
        {
            "id": "XEqTsYzxlnk",
            "title": "Sniper Women || Best Hollywood Action Adventures Movie in English ll",
            "url": "https://www.youtube.com/watch?v=XEqTsYzxlnk",
            "duration": 5431.0,
            "view_count": 3307966,
            "uploader": "Collection Studio",
            "category": "english",
            "thumbnail": "https://i.ytimg.com/vi/XEqTsYzxlnk/hq720.jpg"
        },
        {
            "id": "JnQ9EEshnZA",
            "title": "Final Descent (2026) | Jason Statham Action Thriller | Full Movie in 4K Ultra HD",
            "url": "https://www.youtube.com/watch?v=JnQ9EEshnZA",
            "duration": 4914.0,
            "view_count": 1573420,
            "uploader": "Helen Official",
            "category": "english",
            "thumbnail": "https://i.ytimg.com/vi/JnQ9EEshnZA/hq720.jpg"
        },
        {
            "id": "tT6pL-kzuVc",
            "title": "Powerful movie based on a True Story! | Crime, Thriller | Full Movies",
            "url": "https://www.youtube.com/watch?v=tT6pL-kzuVc",
            "duration": 4639.0,
            "view_count": 959401,
            "uploader": "Filmaxia",
            "category": "english",
            "thumbnail": "https://i.ytimg.com/vi/tT6pL-kzuVc/hq720.jpg"
        },
        {
            "id": "bpXCyAy08jo",
            "title": "THE TRACER - 2 | New Action Movie 2026 | Dwayne Johnson & Tom Cruise | Full Movie | 4K #actionmovies",
            "url": "https://www.youtube.com/watch?v=bpXCyAy08jo",
            "duration": 5643.0,
            "view_count": 45661,
            "uploader": "Legend Shadows",
            "category": "english",
            "thumbnail": "https://i.ytimg.com/vi/bpXCyAy08jo/hq720.jpg"
        },
        {
            "id": "qbd1Ax5vbi8",
            "title": "💥 THE  Sci-Fi MOVIE TO ENJOY TODAY! 💥Watch Sci-Fi Movies in English | 4K",
            "url": "https://www.youtube.com/watch?v=qbd1Ax5vbi8",
            "duration": 6925.0,
            "view_count": 232889,
            "uploader": "MOVRION",
            "category": "english",
            "thumbnail": "https://i.ytimg.com/vi/qbd1Ax5vbi8/hq720.jpg"
        },
        {
            "id": "Na-69pJAfWo",
            "title": "HARD TARGET : Angelina Jolie | New Action Movie 2026 | Full Movie 4K #actionmovies",
            "url": "https://www.youtube.com/watch?v=Na-69pJAfWo",
            "duration": 5400.0,
            "view_count": 1207847,
            "uploader": "Joy Drama",
            "category": "english",
            "thumbnail": "https://i.ytimg.com/vi/Na-69pJAfWo/hq720.jpg"
        },
        {
            "id": "0JW_cW_ZtC4",
            "title": "Most dangerous criminals contained in this secret prison | Sci-fi Action Thriller | Full Movie",
            "url": "https://www.youtube.com/watch?v=0JW_cW_ZtC4",
            "duration": 5180.0,
            "view_count": 508485,
            "uploader": "NeoMovies Cinema",
            "category": "english",
            "thumbnail": "https://i.ytimg.com/vi/0JW_cW_ZtC4/hqdefault.jpg"
        },
        {
            "id": "thoGWMmw7Fk",
            "title": "TRUST NO ONE 🎬  Full Thriller Movie 🎬 English HD",
            "url": "https://www.youtube.com/watch?v=thoGWMmw7Fk",
            "duration": 5347.0,
            "view_count": 3175048,
            "uploader": "FullFlicks Central",
            "category": "english",
            "thumbnail": "https://i.ytimg.com/vi/thoGWMmw7Fk/hq720.jpg"
        },
        {
            "id": "2GUDxhDKlKw",
            "title": "Genius (2016) | Full Movie | Colin Firth, Jude Law, Nicole Kidman, Laura Linney, Guy Pearce",
            "url": "https://www.youtube.com/watch?v=2GUDxhDKlKw",
            "duration": 6230.0,
            "view_count": 331096,
            "uploader": "Lionsgate Movies",
            "category": "english",
            "thumbnail": "https://i.ytimg.com/vi/2GUDxhDKlKw/hq720.jpg"
        },
        {
            "id": "YlzDcLWJj-Q",
            "title": "The Last Witness | English Full Movie | Crime Drama History",
            "url": "https://www.youtube.com/watch?v=YlzDcLWJj-Q",
            "duration": 5252.0,
            "view_count": 143175,
            "uploader": "TrueVision Cinema",
            "category": "english",
            "thumbnail": "https://i.ytimg.com/vi/YlzDcLWJj-Q/hq720.jpg"
        },
        {
            "id": "1Ax4Zr0a_Cs",
            "title": "Ransom of the Heart | ACTION, TV MOVIE | Full Movie in English",
            "url": "https://www.youtube.com/watch?v=1Ax4Zr0a_Cs",
            "duration": 5667.0,
            "view_count": 393,
            "uploader": "Boxoffice | TV Movies in English",
            "category": "english",
            "thumbnail": "https://i.ytimg.com/vi/1Ax4Zr0a_Cs/hq720.jpg"
        },
        {
            "id": "isMhGcLAvfQ",
            "title": "Action Sci Fi Movies 2024-The Martian 2015 Full Movie HD -Best Matt Damon Action Movies Full English",
            "url": "https://www.youtube.com/watch?v=isMhGcLAvfQ",
            "duration": 8494.0,
            "view_count": 2271598,
            "uploader": "IMAWinner9196",
            "category": "english",
            "thumbnail": "https://i.ytimg.com/vi/isMhGcLAvfQ/hq720.jpg"
        },
        {
            "id": "Acnc-zFgpHA",
            "title": "THE DEAD WALL : Angelina Jolie | New Action Movie 2026 | Full Movie 4K #actionmovies",
            "url": "https://www.youtube.com/watch?v=Acnc-zFgpHA",
            "duration": 5545.0,
            "view_count": 214772,
            "uploader": "Joy Drama",
            "category": "english",
            "thumbnail": "https://i.ytimg.com/vi/Acnc-zFgpHA/hq720.jpg"
        },
        {
            "id": "vflGKEFG5zw",
            "title": "In The Army Now | English Full Movie | Comedy War",
            "url": "https://www.youtube.com/watch?v=vflGKEFG5zw",
            "duration": 5262.0,
            "view_count": 283485,
            "uploader": "Mirage Vision",
            "category": "english",
            "thumbnail": "https://i.ytimg.com/vi/vflGKEFG5zw/hq720.jpg"
        },
        {
            "id": "1LRKWIOJHDs",
            "title": "RATATOUILLE ENGLISH FULL MOVIE (the movie of the game with Remy the Master Chef Rat)",
            "url": "https://www.youtube.com/watch?v=1LRKWIOJHDs",
            "duration": 6781.0,
            "view_count": 26821773,
            "uploader": "Only McQueen",
            "category": "cartoons",
            "thumbnail": "https://i.ytimg.com/vi/1LRKWIOJHDs/hq720.jpg"
        }
    ]
}