{
    "page": 53,
    "total_pages": 103,
    "total_items": 5125,
    "items": [
        {
            "id": "5RFx0ANbnzY",
            "title": "Ben 10 Ultimate Alien In Hindi   Ben 10 Omniverse Full Episode in Hindi   Ben 10 in hindi",
            "url": "https://www.youtube.com/watch?v=5RFx0ANbnzY",
            "duration": 787.0,
            "view_count": 1060017,
            "uploader": "Beyond Marvel",
            "category": "cartoons/ben_10",
            "thumbnail": "https://i.ytimg.com/vi/5RFx0ANbnzY/hq720.jpg"
        },
        {
            "id": "vFm1BZFqfZA",
            "title": "Ben 10 Ultimate Alien Episode In Hindi Ben 10 Episode In Hindi",
            "url": "https://www.youtube.com/watch?v=vFm1BZFqfZA",
            "duration": 673.0,
            "view_count": 2875422,
            "uploader": "Omnivers 10k",
            "category": "cartoons/ben_10",
            "thumbnail": "https://i.ytimg.com/vi/vFm1BZFqfZA/hqdefault.jpg"
        },
        {
            "id": "uzDBof8KexI",
            "title": "Ben 10 👊| Albedo Ki Khatarnak Jaal 😮🌍 | Ben 10: Alien Force | #ben10 | Cartoon for Kids | @cnindia",
            "url": "https://www.youtube.com/watch?v=uzDBof8KexI",
            "duration": 1322.0,
            "view_count": 4897841,
            "uploader": "Cartoon Network India",
            "category": "cartoons/ben_10",
            "thumbnail": "https://i.ytimg.com/vi/uzDBof8KexI/hq720.jpg"
        },
        {
            "id": "3uBo90KM6gI",
            "title": "Awesome Collection #2 | Ben 10 | Cartoon Network Asia",
            "url": "https://www.youtube.com/watch?v=3uBo90KM6gI",
            "duration": 3485.0,
            "view_count": 3835446,
            "uploader": "Cartoon Network Asia",
            "category": "cartoons/ben_10",
            "thumbnail": "https://i.ytimg.com/vi/3uBo90KM6gI/hq720.jpg"
        },
        {
            "id": "hE594KDhBFs",
            "title": "Ben 10 Ultimate Alien Episode in Hindi || Ben 10 in Hindi",
            "url": "https://www.youtube.com/watch?v=hE594KDhBFs",
            "duration": 637.0,
            "view_count": 37907,
            "uploader": "Joy Palace for Kids ",
            "category": "cartoons/ben_10",
            "thumbnail": "https://i.ytimg.com/vi/hE594KDhBFs/hqdefault.jpg"
        },
        {
            "id": "jUyD71bFIT0",
            "title": "Ben 10 Ultimate Alien | Ben 10 in Hindi | Ben 10 Omniverse | Ben 10 alien Force | Ben 10 Cartoon",
            "url": "https://www.youtube.com/watch?v=jUyD71bFIT0",
            "duration": 607.0,
            "view_count": 435202,
            "uploader": "Anonymous",
            "category": "cartoons/ben_10",
            "thumbnail": "https://i.ytimg.com/vi/jUyD71bFIT0/hqdefault.jpg"
        },
        {
            "id": "qWzRk0BPe98",
            "title": "BEN 10 TRANSFORMED NEW ULTIMATE ALIENS 👽 || NEW ULTIMATE ALIEN EPISODE",
            "url": "https://www.youtube.com/watch?v=qWzRk0BPe98",
            "duration": 633.0,
            "view_count": 61962,
            "uploader": "BEN 10 HINDI CARTOON",
            "category": "cartoons/ben_10",
            "thumbnail": "https://i.ytimg.com/vi/qWzRk0BPe98/hq720.jpg"
        },
        {
            "id": "r8OK_O83TGM",
            "title": "Kariye Omniverse Ki Seher Ben Ke Sath | Dekheye Ben 10 ke Alien Action ko Cartoon Network India Pe",
            "url": "https://www.youtube.com/watch?v=r8OK_O83TGM",
            "duration": 1042.0,
            "view_count": 1102190,
            "uploader": "Cartoon Network India",
            "category": "cartoons/ben_10",
            "thumbnail": "https://i.ytimg.com/vi/r8OK_O83TGM/hq720.jpg"
        },
        {
            "id": "ATYUuMFGqdk",
            "title": "Ben 10 | Omni Tricked Story Compilation (Hindi) | Cartoon Network",
            "url": "https://www.youtube.com/watch?v=ATYUuMFGqdk",
            "duration": 779.0,
            "view_count": 15875701,
            "uploader": "Cartoon Network India",
            "category": "cartoons/ben_10",
            "thumbnail": "https://i.ytimg.com/vi/ATYUuMFGqdk/hq720.jpg"
        },
        {
            "id": "5daSxZTE2A4",
            "title": "Ben 10 Ultimate Alien Episode in Hindi | Ben 10 Omniverse In Hindi | Ben 10 Alien Force |",
            "url": "https://www.youtube.com/watch?v=5daSxZTE2A4",
            "duration": 635.0,
            "view_count": 72688,
            "uploader": "Ben 10K Hindi",
            "category": "cartoons/ben_10",
            "thumbnail": "https://i.ytimg.com/vi/5daSxZTE2A4/hq720.jpg"
        },
        {
            "id": "AjdtCJs44L4",
            "title": "Ben 10 | Greatest Villains & Foes - Part 2 (Hindi) | Compilation | Cartoon Network",
            "url": "https://www.youtube.com/watch?v=AjdtCJs44L4",
            "duration": 716.0,
            "view_count": 4252408,
            "uploader": "Cartoon Network India",
            "category": "cartoons/ben_10",
            "thumbnail": "https://i.ytimg.com/vi/AjdtCJs44L4/hq720.jpg"
        },
        {
            "id": "49DNDi9B9lk",
            "title": "Ben 10 Gets Hunted By His Greatest Enemy | Ben 10 Classic | Cartoon Network",
            "url": "https://www.youtube.com/watch?v=49DNDi9B9lk",
            "duration": 953.0,
            "view_count": 2586096,
            "uploader": "Ben 10",
            "category": "cartoons/ben_10",
            "thumbnail": "https://i.ytimg.com/vi/49DNDi9B9lk/hq720.jpg"
        },
        {
            "id": "kS2puGAA6g8",
            "title": "Ben 10 Ultimate Alien New Episode in Hindi   Ben 10 Omniverse in Hindi   Ben 10 New Episode   Ben 10",
            "url": "https://www.youtube.com/watch?v=kS2puGAA6g8",
            "duration": 628.0,
            "view_count": 636967,
            "uploader": "Cartoon Craze",
            "category": "cartoons/ben_10",
            "thumbnail": "https://i.ytimg.com/vi/kS2puGAA6g8/hq720.jpg"
        },
        {
            "id": "pBry_SjIOxg",
            "title": "Ben 10 ultimate alien and Ben 10 omniverse in hindi full episode!! Ben 10 in hindi cartoon",
            "url": "https://www.youtube.com/watch?v=pBry_SjIOxg",
            "duration": 1215.0,
            "view_count": 50095,
            "uploader": "CHILDHOOD MEMORIES",
            "category": "cartoons/ben_10",
            "thumbnail": "https://i.ytimg.com/vi/pBry_SjIOxg/hq720.jpg"
        },
        {
            "id": "qa5vP8JS2Xw",
            "title": "Ben 10 Alien X Tinction Full Movie in Hindi || Ben 10 Ultimate Alien | Ben 10 Omniverse New Episode",
            "url": "https://www.youtube.com/watch?v=qa5vP8JS2Xw",
            "duration": 2710.0,
            "view_count": 4358,
            "uploader": "CARTOONS MEDIA",
            "category": "cartoons/ben_10",
            "thumbnail": "https://i.ytimg.com/vi/qa5vP8JS2Xw/hqdefault.jpg"
        },
        {
            "id": "UiAGdDIM8Pg",
            "title": "Ben 10 | Ben VS Monsters (Hindi) | Cartoon Network",
            "url": "https://www.youtube.com/watch?v=UiAGdDIM8Pg",
            "duration": 723.0,
            "view_count": 11403006,
            "uploader": "Cartoon Network India",
            "category": "cartoons/ben_10",
            "thumbnail": "https://i.ytimg.com/vi/UiAGdDIM8Pg/hq720.jpg"
        },
        {
            "id": "0qRma6msTeg",
            "title": "Ben 10 anila force Season1 Episode1in hindi Episodehttps://1024terabox.com/s/1H48_cS_k6uUf1J63lPcLJg",
            "url": "https://www.youtube.com/watch?v=0qRma6msTeg",
            "duration": 1101.0,
            "view_count": 45000,
            "uploader": "The amazing story ",
            "category": "cartoons/ben_10",
            "thumbnail": "https://i.ytimg.com/vi/0qRma6msTeg/hqdefault.jpg"
        },
        {
            "id": "x7YEgbXnrZs",
            "title": "\"Ben 10 Ultimate Alien New Episode 2025 in Hindi 🔥| Ultimate Humungousaur vs Vilgax!\"@FAN1OK",
            "url": "https://www.youtube.com/watch?v=x7YEgbXnrZs",
            "duration": 758.0,
            "view_count": 1600071,
            "uploader": "Ultimate Omni 10",
            "category": "cartoons/ben_10",
            "thumbnail": "https://i.ytimg.com/vi/x7YEgbXnrZs/hqdefault.jpg"
        },
        {
            "id": "28rNqq0HXNo",
            "title": "Ben 10 Ultimate Alien   Ben 10 ultimate alien Full episodes in Hindi   Ben 10 Hindi episodes",
            "url": "https://www.youtube.com/watch?v=28rNqq0HXNo",
            "duration": 1379.0,
            "view_count": 763,
            "uploader": "cartoon story",
            "category": "cartoons/ben_10",
            "thumbnail": "https://i.ytimg.com/vi/28rNqq0HXNo/hqdefault.jpg"
        },
        {
            "id": "Mna3RJP6VaU",
            "title": "Ben 10 Ultimate Alien || Ben 10 Ultimate Alien new episode in hindi 2024 | Ben 10@cartoonnetwork",
            "url": "https://www.youtube.com/watch?v=Mna3RJP6VaU",
            "duration": 635.0,
            "view_count": 2835702,
            "uploader": "Ultimate Omni 10",
            "category": "cartoons/ben_10",
            "thumbnail": "https://i.ytimg.com/vi/Mna3RJP6VaU/hq720.jpg"
        },
        {
            "id": "BGtFljqEHNE",
            "title": "Ben 10 👊| Omnitrix Ke Bina Universe? 😓| #ben10 | #omnitrix | @cnindia",
            "url": "https://www.youtube.com/watch?v=BGtFljqEHNE",
            "duration": 1298.0,
            "view_count": 10212052,
            "uploader": "Cartoon Network India",
            "category": "cartoons/ben_10",
            "thumbnail": "https://i.ytimg.com/vi/BGtFljqEHNE/hq720.jpg"
        },
        {
            "id": "hNBDtBfv6wE",
            "title": "Ben 10: Ultimate Alien - Duped (Full Episode)",
            "url": "https://www.youtube.com/watch?v=hNBDtBfv6wE",
            "duration": 1354.0,
            "view_count": 54059117,
            "uploader": "Cartoon Network Australia",
            "category": "cartoons/ben_10",
            "thumbnail": "https://i.ytimg.com/vi/hNBDtBfv6wE/hq720.jpg"
        },
        {
            "id": "pf81znCwXLU",
            "title": "4 Hours Of Ben 10 (Compilation) | Ben 10 | Cartoon Network",
            "url": "https://www.youtube.com/watch?v=pf81znCwXLU",
            "duration": 14804.0,
            "view_count": 4876552,
            "uploader": "Ben 10",
            "category": "cartoons/ben_10",
            "thumbnail": "https://i.ytimg.com/vi/pf81znCwXLU/hq720.jpg"
        },
        {
            "id": "g2stvpcjeaE",
            "title": "Wildest Omnitrix Malfunctions💥 | Ben 10 | Cartoon Network",
            "url": "https://www.youtube.com/watch?v=g2stvpcjeaE",
            "duration": 981.0,
            "view_count": 929067,
            "uploader": "Cartoon Network",
            "category": "cartoons/ben_10",
            "thumbnail": "https://i.ytimg.com/vi/g2stvpcjeaE/hq720.jpg"
        },
        {
            "id": "AZnHCAWn6DA",
            "title": "Chacha Bhatija Cartoon in Hindi | New Comedy Gags - 16 | New Cartoons | Wow Kidz Comedy",
            "url": "https://www.youtube.com/watch?v=AZnHCAWn6DA",
            "duration": 1175.0,
            "view_count": 5415070,
            "uploader": "Wow Kidz Comedy",
            "category": "cartoons/chacha_bhatija",
            "thumbnail": "https://i.ytimg.com/vi/AZnHCAWn6DA/hq720.jpg"
        },
        {
            "id": "GhBL0thA4BM",
            "title": "Chacha Bhatija | Kiley Ka Rahasya | Animated Stories | Wow Kidz Comedy",
            "url": "https://www.youtube.com/watch?v=GhBL0thA4BM",
            "duration": 715.0,
            "view_count": 4083958,
            "uploader": "Wow Kidz Comedy",
            "category": "cartoons/chacha_bhatija",
            "thumbnail": "https://i.ytimg.com/vi/GhBL0thA4BM/hq720.jpg"
        },
        {
            "id": "JEiOOXICZNs",
            "title": "Bandookni बन गई Heroine! | Cartoons for Kids | Bandookni Ki Comedy | Wow Kidz Comedy | #spot",
            "url": "https://www.youtube.com/watch?v=JEiOOXICZNs",
            "duration": 1268.0,
            "view_count": 1342073,
            "uploader": "Wow Kidz Comedy",
            "category": "cartoons/chacha_bhatija",
            "thumbnail": "https://i.ytimg.com/vi/JEiOOXICZNs/hq720.jpg"
        },
        {
            "id": "P7yLdcpfkCQ",
            "title": "Chacha Bhatija Ki Jodi | 74 | Cartoons for Kids | Wow Kidz Comedy #spot",
            "url": "https://www.youtube.com/watch?v=P7yLdcpfkCQ",
            "duration": 680.0,
            "view_count": 233201,
            "uploader": "Wow Kidz Comedy",
            "category": "cartoons/chacha_bhatija",
            "thumbnail": "https://i.ytimg.com/vi/P7yLdcpfkCQ/hq720.jpg"
        },
        {
            "id": "uajW2aYw32I",
            "title": "Chacha Bhatija Cartoon in Hindi | New Comedy Gags - 18 | New Cartoons | Wow Kidz Comedy",
            "url": "https://www.youtube.com/watch?v=uajW2aYw32I",
            "duration": 1265.0,
            "view_count": 15613081,
            "uploader": "Wow Kidz Comedy",
            "category": "cartoons/chacha_bhatija",
            "thumbnail": "https://i.ytimg.com/vi/uajW2aYw32I/hq720.jpg"
        },
        {
            "id": "fN8C_GFHkrY",
            "title": "Chacha Bhatija | Make Up Kit | Animated Stories | Wow Kidz Comedy",
            "url": "https://www.youtube.com/watch?v=fN8C_GFHkrY",
            "duration": 764.0,
            "view_count": 2918786,
            "uploader": "Wow Kidz Comedy",
            "category": "cartoons/chacha_bhatija",
            "thumbnail": "https://i.ytimg.com/vi/fN8C_GFHkrY/hq720.jpg"
        },
        {
            "id": "0wBUbncwaVY",
            "title": "Chacha Bhatija | Compilation 40 | Funny Animated Stories | Wow Kidz",
            "url": "https://www.youtube.com/watch?v=0wBUbncwaVY",
            "duration": 1384.0,
            "view_count": 25489446,
            "uploader": "WowKidz",
            "category": "cartoons/chacha_bhatija",
            "thumbnail": "https://i.ytimg.com/vi/0wBUbncwaVY/hq720.jpg"
        },
        {
            "id": "YjOqrWkPvdA",
            "title": "Chacha Bhatija | Furniture Chor | Hindi Cartoons for Kids | Wow Kidz Comedy",
            "url": "https://www.youtube.com/watch?v=YjOqrWkPvdA",
            "duration": 700.0,
            "view_count": 1181926,
            "uploader": "Wow Kidz Comedy",
            "category": "cartoons/chacha_bhatija",
            "thumbnail": "https://i.ytimg.com/vi/YjOqrWkPvdA/hq720.jpg"
        },
        {
            "id": "9qJFM1dr_ao",
            "title": "Chacha Bhatija Cartoon in Hindi | Khau Chor | New Cartoons | Wow Kidz Comedy",
            "url": "https://www.youtube.com/watch?v=9qJFM1dr_ao",
            "duration": 771.0,
            "view_count": 4845352,
            "uploader": "Wow Kidz Comedy",
            "category": "cartoons/chacha_bhatija",
            "thumbnail": "https://i.ytimg.com/vi/9qJFM1dr_ao/hq720.jpg"
        },
        {
            "id": "Cl_7K8WLSlo",
            "title": "Chacha Bhatija In Hindi- EP17 | Jaanwaron Ki Bhasha | Funny Videos For Kids | Wow Kidz Comedy",
            "url": "https://www.youtube.com/watch?v=Cl_7K8WLSlo",
            "duration": 680.0,
            "view_count": 6053466,
            "uploader": "Wow Kidz Comedy",
            "category": "cartoons/chacha_bhatija",
            "thumbnail": "https://i.ytimg.com/vi/Cl_7K8WLSlo/hq720.jpg"
        },
        {
            "id": "jJWVQ-X6mE8",
            "title": "Chacha Bhatija Cartoon | Five Star Dhaba | Comedy Cartoons for Kids | Wow Kidz Comedy | #spot",
            "url": "https://www.youtube.com/watch?v=jJWVQ-X6mE8",
            "duration": 658.0,
            "view_count": 959903,
            "uploader": "Wow Kidz Comedy",
            "category": "cartoons/chacha_bhatija",
            "thumbnail": "https://i.ytimg.com/vi/jJWVQ-X6mE8/hq720.jpg"
        },
        {
            "id": "tCKlcKUf6Ak",
            "title": "New Cartoon Show | Chacha Bhatija | Wow Kidz | Hindi Cartoons For Kids | Bhua Ki Laathi",
            "url": "https://www.youtube.com/watch?v=tCKlcKUf6Ak",
            "duration": 703.0,
            "view_count": 13704468,
            "uploader": "WowKidz",
            "category": "cartoons/chacha_bhatija",
            "thumbnail": "https://i.ytimg.com/vi/tCKlcKUf6Ak/hq720.jpg"
        },
        {
            "id": "1ChZtjKpBCc",
            "title": "Chacha Bhatija Cartoon in Hindi | Board Game | Ep 60 | New Cartoons | Wow Kidz Comedy",
            "url": "https://www.youtube.com/watch?v=1ChZtjKpBCc",
            "duration": 677.0,
            "view_count": 136950407,
            "uploader": "Wow Kidz Comedy",
            "category": "cartoons/chacha_bhatija",
            "thumbnail": "https://i.ytimg.com/vi/1ChZtjKpBCc/hq720.jpg"
        },
        {
            "id": "-wGKeZR6WHI",
            "title": "Jogawar का General Store | Chacha Bhatija | Hindi Cartoon | Cartoons For Kids | #spot",
            "url": "https://www.youtube.com/watch?v=-wGKeZR6WHI",
            "duration": 1380.0,
            "view_count": 6175246,
            "uploader": "Wow Cartoons",
            "category": "cartoons/chacha_bhatija",
            "thumbnail": "https://i.ytimg.com/vi/-wGKeZR6WHI/hqdefault.jpg"
        },
        {
            "id": "uuOr0Duu5w4",
            "title": "Fantooshnagar मैं आया Current Man! | Cartoons for Kids|Bandookni Ki Comedy | Wow Kidz Comedy| #spot",
            "url": "https://www.youtube.com/watch?v=uuOr0Duu5w4",
            "duration": 1255.0,
            "view_count": 958290,
            "uploader": "Wow Kidz Comedy",
            "category": "cartoons/chacha_bhatija",
            "thumbnail": "https://i.ytimg.com/vi/uuOr0Duu5w4/hq720.jpg"
        },
        {
            "id": "RbNoBvZOhD8",
            "title": "Chacha Bhatija | Pinky Beauty Parlour | Hindi Cartoons for Kids | Wow Kidz Comedy",
            "url": "https://www.youtube.com/watch?v=RbNoBvZOhD8",
            "duration": 644.0,
            "view_count": 838677,
            "uploader": "Wow Kidz Comedy",
            "category": "cartoons/chacha_bhatija",
            "thumbnail": "https://i.ytimg.com/vi/RbNoBvZOhD8/hq720.jpg"
        },
        {
            "id": "YXZO-joeT2Y",
            "title": "Story | Chacha Bhatija | Khazane Ki Khoj | Cartoons | For Kids | Movie | WowKidz Movies",
            "url": "https://www.youtube.com/watch?v=YXZO-joeT2Y",
            "duration": 3077.0,
            "view_count": 8756072,
            "uploader": "Wow Kidz Movie",
            "category": "cartoons/chacha_bhatija",
            "thumbnail": "https://i.ytimg.com/vi/YXZO-joeT2Y/hq720.jpg"
        },
        {
            "id": "BMsNbnAJUDg",
            "title": "Funtooshnagar में आया Bhoot | Chacha Bhatija | Hindi Cartoon | Cartoons For Kids | #spot",
            "url": "https://www.youtube.com/watch?v=BMsNbnAJUDg",
            "duration": 1335.0,
            "view_count": 1918725,
            "uploader": "Wow Cartoons",
            "category": "cartoons/chacha_bhatija",
            "thumbnail": "https://i.ytimg.com/vi/BMsNbnAJUDg/hq720.jpg"
        },
        {
            "id": "H0PCXJNeCS4",
            "title": "Safachat Sabun - Chacha Bhatija - Wowkidz - 3D Animation Cartoon for Kids - As seen on Hungama TV",
            "url": "https://www.youtube.com/watch?v=H0PCXJNeCS4",
            "duration": 782.0,
            "view_count": 2721086,
            "uploader": "WowKidz",
            "category": "cartoons/chacha_bhatija",
            "thumbnail": "https://i.ytimg.com/vi/H0PCXJNeCS4/hq720.jpg"
        },
        {
            "id": "Sm2Jc2qvg9I",
            "title": "Chacha Bhatija | Chand Ka Chakkar | Hindi Cartoons for Kids | Wow Kidz Comedy",
            "url": "https://www.youtube.com/watch?v=Sm2Jc2qvg9I",
            "duration": 696.0,
            "view_count": 3032996,
            "uploader": "Wow Kidz Comedy",
            "category": "cartoons/chacha_bhatija",
            "thumbnail": "https://i.ytimg.com/vi/Sm2Jc2qvg9I/hq720.jpg"
        },
        {
            "id": "Rp6T9TW8W7U",
            "title": "Chacha Bhatija | ATM Chor | Hindi Cartoons for Kids | Wow Kidz Comedy",
            "url": "https://www.youtube.com/watch?v=Rp6T9TW8W7U",
            "duration": 687.0,
            "view_count": 1303514,
            "uploader": "Wow Kidz Comedy",
            "category": "cartoons/chacha_bhatija",
            "thumbnail": "https://i.ytimg.com/vi/Rp6T9TW8W7U/hq720.jpg"
        },
        {
            "id": "zNBS3aAe5iE",
            "title": "Chacha Bhatija | Cook Cook Cookies | Hindi Cartoons for Kids | Wow Kidz Comedy",
            "url": "https://www.youtube.com/watch?v=zNBS3aAe5iE",
            "duration": 702.0,
            "view_count": 1104359,
            "uploader": "Wow Kidz Comedy",
            "category": "cartoons/chacha_bhatija",
            "thumbnail": "https://i.ytimg.com/vi/zNBS3aAe5iE/hq720.jpg"
        },
        {
            "id": "7Xr_xTHy7To",
            "title": "Chacha Bhatija In Hindi- EP23 |Jungle Adventure| Funny Videos For Kids | Wow Kidz Comedy",
            "url": "https://www.youtube.com/watch?v=7Xr_xTHy7To",
            "duration": 652.0,
            "view_count": 3598134,
            "uploader": "Wow Kidz Comedy",
            "category": "cartoons/chacha_bhatija",
            "thumbnail": "https://i.ytimg.com/vi/7Xr_xTHy7To/hq720.jpg"
        },
        {
            "id": "NZUPjA0Saow",
            "title": "Bhalla Uncle की Chalaki! | Cartoons for Kids | Bandookni Ki Comedy | Wow Kidz Comedy | #spot",
            "url": "https://www.youtube.com/watch?v=NZUPjA0Saow",
            "duration": 1378.0,
            "view_count": 1305779,
            "uploader": "Wow Kidz Comedy",
            "category": "cartoons/chacha_bhatija",
            "thumbnail": "https://i.ytimg.com/vi/NZUPjA0Saow/hq720.jpg"
        },
        {
            "id": "r8dOSL0EDJQ",
            "title": "Chacha Bhatija In Hindi- EP45 | No TV Day | Funny Videos For Kids | Wow Kidz Comedy",
            "url": "https://www.youtube.com/watch?v=r8dOSL0EDJQ",
            "duration": 749.0,
            "view_count": 5323521,
            "uploader": "Wow Kidz Comedy",
            "category": "cartoons/chacha_bhatija",
            "thumbnail": "https://i.ytimg.com/vi/r8dOSL0EDJQ/hq720.jpg"
        },
        {
            "id": "pe4MZldilIk",
            "title": "Chacha Bhatija Cartoon in Hindi | New Compilation - 05 | New Cartoons | Wow Kidz Comedy",
            "url": "https://www.youtube.com/watch?v=pe4MZldilIk",
            "duration": 1349.0,
            "view_count": 5143441,
            "uploader": "Wow Kidz Comedy",
            "category": "cartoons/chacha_bhatija",
            "thumbnail": "https://i.ytimg.com/vi/pe4MZldilIk/hq720.jpg"
        }
    ]
}