{
    "page": 26,
    "total_pages": 103,
    "total_items": 5125,
    "items": [
        {
            "id": "x0HyakSpFwQ",
            "title": "Love Guru - Kannada Full movie | Vijay Antony | Mirnalini | Vinayak Vaithiyanathan",
            "url": "https://www.youtube.com/watch?v=x0HyakSpFwQ",
            "duration": 8658.0,
            "view_count": 515786,
            "uploader": "Vijay Antony",
            "category": "kannada",
            "thumbnail": "https://i.ytimg.com/vi/x0HyakSpFwQ/hq720.jpg?sqp=-oaymwEcCNAFEJQDSFXyq4qpAw4IARUAAIhCGAFwAcABBg==&rs=AOn4CLBpRbnPpK_XZbeDfrJJdXOSeUpF-w",
            "added_date": "2026-04-16T07:31:20.276929Z",
            "source": "youtube"
        },
        {
            "id": "Kj5JB2_QW0g",
            "title": "Heart Beats | Kannada Full Movie | Vijay Raghavendra | Ashitha Maria | Deepa | Nagendra Urs",
            "url": "https://www.youtube.com/watch?v=Kj5JB2_QW0g",
            "duration": 8819.0,
            "view_count": 1914173,
            "uploader": "SGV Digital - Kannada Full Movies",
            "category": "kannada",
            "thumbnail": "https://i.ytimg.com/vi/Kj5JB2_QW0g/hq720.jpg"
        },
        {
            "id": "iFL4VQczj5I",
            "title": "Nanjundi Kalyana Kannada Full Movie | Raghavendra Rajkumar | Malashri | Evergreen Picture",
            "url": "https://www.youtube.com/watch?v=iFL4VQczj5I",
            "duration": 9173.0,
            "view_count": 1866943,
            "uploader": "SGV Digital - Kannada Full Movies",
            "category": "kannada",
            "thumbnail": "https://i.ytimg.com/vi/iFL4VQczj5I/hq720.jpg"
        },
        {
            "id": "Bw3YzidnsNY",
            "title": "Bharjari Gandu Kannada Full Movie | Raghavendra Rajkumar, Roopashree, Srinath, Lokesh,",
            "url": "https://www.youtube.com/watch?v=Bw3YzidnsNY",
            "duration": 8362.0,
            "view_count": 881851,
            "uploader": "SGV Digital - Kannada Full Movies",
            "category": "kannada",
            "thumbnail": "https://i.ytimg.com/vi/Bw3YzidnsNY/hq720.jpg"
        },
        {
            "id": "Kt-R12q2c3o",
            "title": "Krishana Veera Prema Kathe Full Movie | Nani | Mehreen Pirzada | Kannada Movies | Mango Kannada",
            "url": "https://www.youtube.com/watch?v=Kt-R12q2c3o",
            "duration": 8705.0,
            "view_count": 1487992,
            "uploader": "Mango Kannada",
            "category": "kannada",
            "thumbnail": "https://i.ytimg.com/vi/Kt-R12q2c3o/hq720.jpg"
        },
        {
            "id": "J8AYeTvMNqA",
            "title": "Dhoomam Kannada Full Movie [HD] | Fahadh Faasil | Aparna Balamurali | Pawan Kumar | Hombale Films",
            "url": "https://www.youtube.com/watch?v=J8AYeTvMNqA",
            "duration": 8564.0,
            "view_count": 2365265,
            "uploader": "Hombale Films",
            "category": "kannada",
            "thumbnail": "https://i.ytimg.com/vi/J8AYeTvMNqA/hq720.jpg"
        },
        {
            "id": "XQEsYoQLsiU",
            "title": "Dhanush | Anegan Full Movie | Latest Kannada Movie 2026 | Amyra Dastur | Mango Kannada",
            "url": "https://www.youtube.com/watch?v=XQEsYoQLsiU",
            "duration": 9456.0,
            "view_count": 302441,
            "uploader": "Mango Kannada",
            "category": "kannada",
            "thumbnail": "https://i.ytimg.com/vi/XQEsYoQLsiU/hq720.jpg"
        },
        {
            "id": "3WT8YYDQdGs",
            "title": "Bombat Car Kannada Full Movie | Keerthika | Ravishankar Gowda | Sharan | Doddanna | Nazar",
            "url": "https://www.youtube.com/watch?v=3WT8YYDQdGs",
            "duration": 8169.0,
            "view_count": 334483,
            "uploader": "Lotus Kannada Movies",
            "category": "kannada",
            "thumbnail": "https://i.ytimg.com/vi/3WT8YYDQdGs/hq720.jpg"
        },
        {
            "id": "nBuTjnR5cQA",
            "title": "Vasanthakalada Hoogalu Kannada HD Movie | Sachin Rathod | Radha Bhagavathi | Bharath Janardhan",
            "url": "https://www.youtube.com/watch?v=nBuTjnR5cQA",
            "duration": 7101.0,
            "view_count": 179551,
            "uploader": "SRS Media Vision | Kannada Full Movies",
            "category": "kannada",
            "thumbnail": "https://i.ytimg.com/vi/nBuTjnR5cQA/hq720.jpg"
        },
        {
            "id": "ULlWM8ejbOE",
            "title": "Namma Basava | Kannada Full Movie | Puneeth Rajkumar | Gowri Munjal | Srinivas Murthy | Ashok",
            "url": "https://www.youtube.com/watch?v=ULlWM8ejbOE",
            "duration": 9051.0,
            "view_count": 9229465,
            "uploader": "SGV Digital - Kannada Full Movies",
            "category": "kannada",
            "thumbnail": "https://i.ytimg.com/vi/ULlWM8ejbOE/hq720.jpg"
        },
        {
            "id": "p__MYcCt5-c",
            "title": "Sammilana Kannada Full Movie | Shashikumar | Shruthi | K S Ashwath | Sudheer | Sathyajith",
            "url": "https://www.youtube.com/watch?v=p__MYcCt5-c",
            "duration": 8298.0,
            "view_count": 625576,
            "uploader": "SGV Digital - Kannada Full Movies",
            "category": "kannada",
            "thumbnail": "https://i.ytimg.com/vi/p__MYcCt5-c/hq720.jpg"
        },
        {
            "id": "2X93J_ygu4c",
            "title": "Mungaru Male 2- Kannada Movie Full HD | Ganesh, Neha Shetty, V Ravichandran | Arjun | Jhankarmusic",
            "url": "https://www.youtube.com/watch?v=2X93J_ygu4c",
            "duration": 9267.0,
            "view_count": 24029075,
            "uploader": "Jhankar Music",
            "category": "kannada",
            "thumbnail": "https://i.ytimg.com/vi/2X93J_ygu4c/hq720.jpg"
        },
        {
            "id": "3sIucdsxLgY",
            "title": "Parva | Kannada Full Movie | Dr. Vishnuvardhan | Prema | Roja | Sunil Kumar Desai",
            "url": "https://www.youtube.com/watch?v=3sIucdsxLgY",
            "duration": 9909.0,
            "view_count": 2270184,
            "uploader": "SGV Digital - Kannada Full Movies",
            "category": "kannada",
            "thumbnail": "https://i.ytimg.com/vi/3sIucdsxLgY/hq720.jpg"
        },
        {
            "id": "gCEfR25G_UE",
            "title": "🔴  ಎಕ್ಕ ಸಕ ತುಳು ಸಿನಿಮಾ | EKKA SAKA FULL MOVIE | TALKIES APP OTT | WATCH FULL CINEMA #tulu #cinema",
            "url": "https://www.youtube.com/watch?v=gCEfR25G_UE",
            "duration": 14954.0,
            "view_count": 10452,
            "uploader": "Talkies",
            "category": "kannada",
            "thumbnail": "https://i.ytimg.com/vi/gCEfR25G_UE/hq720.jpg"
        },
        {
            "id": "nyA5u61zeyU",
            "title": "Allu Arjun Kannada dubbed movie HD Kannada.new movie #kannadamovie Kannada love story movie ",
            "url": "https://www.youtube.com/watch?v=nyA5u61zeyU",
            "duration": 9132.0,
            "view_count": 236808,
            "uploader": "Yash movie ",
            "category": "kannada",
            "thumbnail": "https://i.ytimg.com/vi/nyA5u61zeyU/hq720.jpg"
        },
        {
            "id": "b0PmTRIC3CM",
            "title": "Kalasipalya – ಕಲಾಸಿಪಾಳ್ಯ | Kannada Full HD Movie | Darshan | Rakshitha | Omprakash Rao",
            "url": "https://www.youtube.com/watch?v=b0PmTRIC3CM",
            "duration": 9131.0,
            "view_count": 5151530,
            "uploader": "SGV Digital - Kannada Full Movies",
            "category": "kannada",
            "thumbnail": "https://i.ytimg.com/vi/b0PmTRIC3CM/hq720.jpg"
        },
        {
            "id": "XSdl_5wUK8U",
            "title": "Gajakesari - ಗಜಕೇಸರಿ | Kannada Full HD Movie | Kannada New Movies | Yash, Amulya",
            "url": "https://www.youtube.com/watch?v=XSdl_5wUK8U",
            "duration": 9566.0,
            "view_count": 34037941,
            "uploader": "Sri Ganesh Videos",
            "category": "kannada",
            "thumbnail": "https://i.ytimg.com/vi/XSdl_5wUK8U/hq720.jpg"
        },
        {
            "id": "IyP8Homks98",
            "title": "Vrithra - Kannada Full Movie | ವೃತ್ರ | Nithya Shri, Sudha Rani, Tharun Sudhir | Gautham Iyer | Divo",
            "url": "https://www.youtube.com/watch?v=IyP8Homks98",
            "duration": 6547.0,
            "view_count": 547433,
            "uploader": "Divo Movies Kannada",
            "category": "kannada",
            "thumbnail": "https://i.ytimg.com/vi/IyP8Homks98/hq720.jpg"
        },
        {
            "id": "NMU9ZnFS1IU",
            "title": "Krishnam Pranaya Sakhi Full Movie (ಕನ್ನಡ) | Golden⭐Ganesh Malvika Nair, Shrinivas Raju, ArjunJanya",
            "url": "https://www.youtube.com/watch?v=NMU9ZnFS1IU",
            "duration": 8296.0,
            "view_count": 520,
            "uploader": "APrimeX",
            "category": "kannada",
            "thumbnail": "https://i.ytimg.com/vi/NMU9ZnFS1IU/hqdefault.jpg"
        },
        {
            "id": "lOTeCn0lpVQ",
            "title": "Bangalore Underworld - Latest Kannada Action Movie | Aditya | Payal Radhakrishna | Raj Vardhan",
            "url": "https://www.youtube.com/watch?v=lOTeCn0lpVQ",
            "duration": 6385.0,
            "view_count": 298434,
            "uploader": "SGV Digital - Kannada Full Movies",
            "category": "kannada",
            "thumbnail": "https://i.ytimg.com/vi/lOTeCn0lpVQ/hq720.jpg"
        },
        {
            "id": "8-4JOKnSZTo",
            "title": "CBI 5 The Brain Latest Full Movie 4K | Mammootty | Asha Sharath | Malvika Nair | Kannada Dubbed",
            "url": "https://www.youtube.com/watch?v=8-4JOKnSZTo",
            "duration": 9737.0,
            "view_count": 1013423,
            "uploader": "Mango Indian Films",
            "category": "kannada",
            "thumbnail": "https://i.ytimg.com/vi/8-4JOKnSZTo/hq720.jpg"
        },
        {
            "id": "Fhba1PufjLM",
            "title": "Kanasugara - ಕನಸುಗಾರ | Kannada Full HD Movie | Ravichandran, Prema, Shashikumar | 2001 Kannada Film",
            "url": "https://www.youtube.com/watch?v=Fhba1PufjLM",
            "duration": 8849.0,
            "view_count": 14508289,
            "uploader": "SGV Digital - Kannada Full Movies",
            "category": "kannada",
            "thumbnail": "https://i.ytimg.com/vi/Fhba1PufjLM/hq720.jpg"
        },
        {
            "id": "PyAZtkvN5gI",
            "title": "Endendigu | New Kannada Full Movie | Ajay Rao | Radhika Pandit | 2025 Kannada Movies",
            "url": "https://www.youtube.com/watch?v=PyAZtkvN5gI",
            "duration": 7156.0,
            "view_count": 1079848,
            "uploader": "SGV Digital - Kannada Full Movies",
            "category": "kannada",
            "thumbnail": "https://i.ytimg.com/vi/PyAZtkvN5gI/hq720.jpg?sqp=-oaymwEcCNAFEJQDSFXyq4qpAw4IARUAAIhCGAFwAcABBg==&rs=AOn4CLDtzGb9X0craLh5kaS_SmOdEUOvfg",
            "added_date": "2026-04-16T07:31:20.477321Z",
            "source": "youtube"
        },
        {
            "id": "pM6oQpAVXf0",
            "title": "Mandya | Kannada Full Movie | Darshan, Rakshitha, Radhika Kumaraswamy | Darshan Kannada Movies",
            "url": "https://www.youtube.com/watch?v=pM6oQpAVXf0",
            "duration": 9655.0,
            "view_count": 6401110,
            "uploader": "SGV Digital - Kannada Full Movies",
            "category": "kannada",
            "thumbnail": "https://i.ytimg.com/vi/pM6oQpAVXf0/hq720.jpg"
        },
        {
            "id": "-7FvK6-RIrY",
            "title": "Tholi Prema Kannada Full Movie | Varun Tej | Raashi Khanna | Thaman S | Venky Atluri | #TholiPrema",
            "url": "https://www.youtube.com/watch?v=-7FvK6-RIrY",
            "duration": 8014.0,
            "view_count": 8136679,
            "uploader": "Mango Kannada",
            "category": "kannada",
            "thumbnail": "https://i.ytimg.com/vi/-7FvK6-RIrY/hq720.jpg"
        },
        {
            "id": "a6ctDzoCtfM",
            "title": "Roja Kannada Dubbed Full Movie - 4K | Arvind Swamy | Madhubala | AR Rahman | Mani Ratnam Classic",
            "url": "https://www.youtube.com/watch?v=a6ctDzoCtfM",
            "duration": 6943.0,
            "view_count": 83874,
            "uploader": "Video Park Kannada",
            "category": "kannada",
            "thumbnail": "https://i.ytimg.com/vi/a6ctDzoCtfM/hq720.jpg"
        },
        {
            "id": "EL8fSY4GFUs",
            "title": "Gajanana And Gang Kannada Full Movie | Shri | Adithi Prabhudeva | Abhishek Shetty | Sakath Cinemas",
            "url": "https://www.youtube.com/watch?v=EL8fSY4GFUs",
            "duration": 6329.0,
            "view_count": 1044157,
            "uploader": "Sakath Cinemas",
            "category": "kannada",
            "thumbnail": "https://i.ytimg.com/vi/EL8fSY4GFUs/hq720.jpg"
        },
        {
            "id": "Di0AUezRjLI",
            "title": "Hubli | ಹುಬ್ಬಳ್ಳಿ | Kannada Full Movie | Kichcha Sudeep, Rakshitha | Om Prakash Rao",
            "url": "https://www.youtube.com/watch?v=Di0AUezRjLI",
            "duration": 10137.0,
            "view_count": 13801001,
            "uploader": "SRS Media Vision | Kannada Full Movies",
            "category": "kannada",
            "thumbnail": "https://i.ytimg.com/vi/Di0AUezRjLI/hq720.jpg"
        },
        {
            "id": "HyySQqFdEc4",
            "title": "ಘಾತಕ್ (Ghaathaka) - Kannada Full Movie | Darshan | Pranitha Subhash | Devaraj | Ashish Vidyarthi",
            "url": "https://www.youtube.com/watch?v=HyySQqFdEc4",
            "duration": 7889.0,
            "view_count": 286577,
            "uploader": "Vee Kannada and Global Kannada Entertainment",
            "category": "kannada",
            "thumbnail": "https://i.ytimg.com/vi/HyySQqFdEc4/hq720.jpg"
        },
        {
            "id": "xNXKe8EN-SE",
            "title": "ಎಕ್ಕ ಸಕ ತುಳು ಸಿನಿಮಾ | EKKA SAKA FULL MOVIE | TALKIES APP OTT | WATCH FULL CINEMA #tulu #cinema",
            "url": "https://www.youtube.com/watch?v=xNXKe8EN-SE",
            "duration": 6847.0,
            "view_count": 4827,
            "uploader": "Talkies",
            "category": "kannada",
            "thumbnail": "https://i.ytimg.com/vi/xNXKe8EN-SE/hq720.jpg"
        },
        {
            "id": "bb9iO-U_ZNw",
            "title": "Raavan 2 Kannada Full Movie || Romantic Drama Movie || Vikram, Priyanka Trivedi, Prakash Raj",
            "url": "https://www.youtube.com/watch?v=bb9iO-U_ZNw",
            "duration": 6909.0,
            "view_count": 296734,
            "uploader": "Kannada Hits",
            "category": "kannada",
            "thumbnail": "https://i.ytimg.com/vi/bb9iO-U_ZNw/hq720.jpg"
        },
        {
            "id": "ePo6nFUWCLw",
            "title": "Circus - Kannada Full Movie HD | Ganesh, Archana Guptha | Golden Star Ganesh Movies",
            "url": "https://www.youtube.com/watch?v=ePo6nFUWCLw",
            "duration": 8338.0,
            "view_count": 3000965,
            "uploader": "SGV Digital - Kannada Full Movies",
            "category": "kannada",
            "thumbnail": "https://i.ytimg.com/vi/ePo6nFUWCLw/hq720.jpg"
        },
        {
            "id": "8ssvVmlocQw",
            "title": "Mishan Impossible Latest Full Movie 4K | Taapsee Pannu | Kannada Dubbed | Mango Indian Films",
            "url": "https://www.youtube.com/watch?v=8ssvVmlocQw",
            "duration": 7866.0,
            "view_count": 139932,
            "uploader": "Mango Indian Films",
            "category": "kannada",
            "thumbnail": "https://i.ytimg.com/vi/8ssvVmlocQw/hq720.jpg"
        },
        {
            "id": "CKWQVrJbXS0",
            "title": "Latest Kannada Movies 2026 | Full Length Blockbuster Movies | Kannada Movie Marathon | Mango Kannada",
            "url": "https://www.youtube.com/watch?v=CKWQVrJbXS0",
            "duration": 15748.0,
            "view_count": 83821,
            "uploader": "Mango Kannada",
            "category": "kannada",
            "thumbnail": "https://i.ytimg.com/vi/CKWQVrJbXS0/hq720.jpg"
        },
        {
            "id": "ZmpY_vOogQE",
            "title": "JAIL Full Movie 4K | G V Prakash | Radhika | Latest Kannada Dubbed Movies 2024 | Mango Kannada",
            "url": "https://www.youtube.com/watch?v=ZmpY_vOogQE",
            "duration": 7966.0,
            "view_count": 1705039,
            "uploader": "Mango Kannada",
            "category": "kannada",
            "thumbnail": "https://i.ytimg.com/vi/ZmpY_vOogQE/hq720.jpg"
        },
        {
            "id": "_wAu7obh3ds",
            "title": "Tom And Jerry Full Movie  2K | Chaithra Rao|  Nischith Korodi | Romantic Movie",
            "url": "https://www.youtube.com/watch?v=_wAu7obh3ds",
            "duration": 9107.0,
            "view_count": 10893967,
            "uploader": "SRS Media Vision | Kannada Full Movies",
            "category": "kannada",
            "thumbnail": "https://i.ytimg.com/vi/_wAu7obh3ds/hq720.jpg"
        },
        {
            "id": "Dmy8KwGo4Ac",
            "title": "Namma Kutumba Full Movie | Naga Chaitanya | Samantha | Nagarjuna | #KannadaMovies2024 | MangoKannada",
            "url": "https://www.youtube.com/watch?v=Dmy8KwGo4Ac",
            "duration": 9685.0,
            "view_count": 709232,
            "uploader": "Mango Kannada",
            "category": "kannada",
            "thumbnail": "https://i.ytimg.com/vi/Dmy8KwGo4Ac/hq720.jpg"
        },
        {
            "id": "bgVe8-YbMug",
            "title": "ತೇಜ (Teja) - Kanada Full Movie | Saikumar | Disha Poovaih | Sadhu Kokila | Kannada Action Movie",
            "url": "https://www.youtube.com/watch?v=bgVe8-YbMug",
            "duration": 7018.0,
            "view_count": 298211,
            "uploader": "Vee Kannada",
            "category": "kannada",
            "thumbnail": "https://i.ytimg.com/vi/bgVe8-YbMug/hq720.jpg"
        },
        {
            "id": "7ZTYXO5kzdg",
            "title": "Eradu Rekhegalu | Kannada Movie Full HD | Srinath, Saritha, Geetha | K Balachandar",
            "url": "https://www.youtube.com/watch?v=7ZTYXO5kzdg",
            "duration": 9302.0,
            "view_count": 2459673,
            "uploader": "SGV Digital - Kannada Full Movies",
            "category": "kannada",
            "thumbnail": "https://i.ytimg.com/vi/7ZTYXO5kzdg/hq720.jpg"
        },
        {
            "id": "Bo2bpy2Orpg",
            "title": "Doddmane Hudga || ದೂಡ್ಮನೆ ಹುಡ್ಗ Full HD MOVIE, 2016 #puneethrajkumar #puneetsuperstar #doddmanehudga",
            "url": "https://www.youtube.com/watch?v=Bo2bpy2Orpg",
            "duration": 8219.0,
            "view_count": 3843433,
            "uploader": "Appu Movies Official ",
            "category": "kannada",
            "thumbnail": "https://i.ytimg.com/vi/Bo2bpy2Orpg/hq720.jpg"
        },
        {
            "id": "w5ZTi8QcZdY",
            "title": "Ajith Kumar Kannada Dubbed Blockbuster Action Full HD Movie | Latest Kannada Full Movie | #kannada",
            "url": "https://www.youtube.com/watch?v=w5ZTi8QcZdY",
            "duration": 13477.0,
            "view_count": 53195,
            "uploader": "Kannada Cinemas",
            "category": "kannada",
            "thumbnail": "https://i.ytimg.com/vi/w5ZTi8QcZdY/hq720.jpg"
        },
        {
            "id": "Gv_duGDlneM",
            "title": "2026 Shiva Rajkumar Latest Action Movies | Drona Action Movie | Ravi Kishan New Action Movies",
            "url": "https://www.youtube.com/watch?v=Gv_duGDlneM",
            "duration": 8214.0,
            "view_count": 23067,
            "uploader": "RKD Studios",
            "category": "kannada",
            "thumbnail": "https://i.ytimg.com/vi/Gv_duGDlneM/hq720.jpg"
        },
        {
            "id": "IujxAk-8SVE",
            "title": "Simple Aag Ond Love Story | Rakshith Shetty, Swetha Srivatsav | HD Full Kannada Movie |Jhankar Music",
            "url": "https://www.youtube.com/watch?v=IujxAk-8SVE",
            "duration": 7852.0,
            "view_count": 7803037,
            "uploader": "Jhankar Music",
            "category": "kannada",
            "thumbnail": "https://i.ytimg.com/vi/IujxAk-8SVE/hq720.jpg"
        },
        {
            "id": "tHoUZDJj9HU",
            "title": "Ag Ag Sunabai 2026 Full Movie Explanation | Review ",
            "url": "https://www.youtube.com/watch?v=tHoUZDJj9HU",
            "duration": 7289.0,
            "view_count": 294795,
            "uploader": "All Movies katta",
            "category": "marathi",
            "thumbnail": "https://i.ytimg.com/vi/tHoUZDJj9HU/hq720.jpg"
        },
        {
            "id": "9EjDmvkLidA",
            "title": "Pondicherry  | Marathi Movie 2022 | Vibhav Tatvavadi | Sai Tamhankar | Amruta Khanvilkar |",
            "url": "https://www.youtube.com/watch?v=9EjDmvkLidA",
            "duration": 6663.0,
            "view_count": 455250,
            "uploader": "TV Home ",
            "category": "marathi",
            "thumbnail": "https://i.ytimg.com/vi/9EjDmvkLidA/hqdefault.jpg"
        },
        {
            "id": "UVGowH_NCK8",
            "title": "आम्ही दोघी Aamhi Doghi | Marathi Full Movie | Priya Bapat, Mukta Barve | Superhit Marathi Movie",
            "url": "https://www.youtube.com/watch?v=UVGowH_NCK8",
            "duration": 8287.0,
            "view_count": 3119165,
            "uploader": "EverestTalkies and 4 more",
            "category": "marathi",
            "thumbnail": "https://i.ytimg.com/vi/UVGowH_NCK8/hq720.jpg?sqp=-oaymwEcCNAFEJQDSFXyq4qpAw4IARUAAIhCGAFwAcABBg==&rs=AOn4CLAgmPJfrWuQIA8X_OrGLyzhh0cqKw",
            "added_date": "2026-04-16T07:31:26.434668Z",
            "source": "youtube"
        },
        {
            "id": "eWW1arCyI0I",
            "title": "मंगलाष्टक वन्स मोअर Mangalashtak Once More | Marathi Full Movie | Swapnil Joshi, Mukta Barve",
            "url": "https://www.youtube.com/watch?v=eWW1arCyI0I",
            "duration": 7045.0,
            "view_count": 1536980,
            "uploader": "EverestTalkies and 3 more",
            "category": "marathi",
            "thumbnail": "https://i.ytimg.com/vi/eWW1arCyI0I/hq720.jpg?sqp=-oaymwEcCNAFEJQDSFXyq4qpAw4IARUAAIhCGAFwAcABBg==&rs=AOn4CLBr7WWFLxwk8e4BVNBvzEoz72etkQ",
            "added_date": "2026-04-16T07:31:26.033919Z",
            "source": "youtube"
        },
        {
            "id": "LbGtRqAFDRo",
            "title": "लग्न पाहावे करून Lagna Pahave Karun | Marathi Romantic Full Movie | Umesh Kamat, Mukta Barve",
            "url": "https://www.youtube.com/watch?v=LbGtRqAFDRo",
            "duration": 7614.0,
            "view_count": 1452912,
            "uploader": "MarathiTalkies and 3 more",
            "category": "marathi",
            "thumbnail": "https://i.ytimg.com/vi/LbGtRqAFDRo/hq720.jpg?sqp=-oaymwEcCNAFEJQDSFXyq4qpAw4IARUAAIhCGAFwAcABBg==&rs=AOn4CLC1JhcDU1kzb5Crr1M3yyf-3u2fqw",
            "added_date": "2026-04-16T07:31:26.835427Z",
            "source": "youtube"
        },
        {
            "id": "6eGigzn-46o",
            "title": "Krantijyoti Vidyalaya (2026) | New Marathi Movie | Full Marathi Movie | Superhit Marathi Movie... ",
            "url": "https://www.youtube.com/watch?v=6eGigzn-46o",
            "duration": 6294.0,
            "view_count": 480955,
            "uploader": "Everest Marathi Movies ",
            "category": "marathi",
            "thumbnail": "https://i.ytimg.com/vi/6eGigzn-46o/hq720.jpg"
        },
        {
            "id": "df29JBqaWUw",
            "title": "DEVKHEL (2026) | New Marathi Movie | Full Marathi Movie |No Ads #newmarathimovie #viral",
            "url": "https://www.youtube.com/watch?v=df29JBqaWUw",
            "duration": 5781.0,
            "view_count": 64336,
            "uploader": "Everest Marathi Movies ",
            "category": "marathi",
            "thumbnail": "https://i.ytimg.com/vi/df29JBqaWUw/hq720.jpg"
        }
    ]
}