{
    "page": 2,
    "total_pages": 103,
    "total_items": 5125,
    "items": [
        {
            "id": "j-lrAbSFuXs",
            "title": "मस्तानी की शादी 😆| Mastani ki Shadi | The Mridul | Nitin Funny video #comedy #funny #themridul",
            "url": "https://www.youtube.com/watch?v=j-lrAbSFuXs",
            "duration": 1065.0,
            "view_count": 13364123,
            "uploader": "Dhamaka Comedy",
            "category": "comedy",
            "thumbnail": "https://i.ytimg.com/vi/j-lrAbSFuXs/hq720.jpg"
        },
        {
            "id": "24E4YPFzrBo",
            "title": "Private Hospital | प्राइवेट हॉस्पिटल | Ramesh Sahni | New Comedy Video | Fun 2 Eg Team |",
            "url": "https://www.youtube.com/watch?v=24E4YPFzrBo",
            "duration": 1382.0,
            "view_count": 1661904,
            "uploader": "Fun 2 Eg Team",
            "category": "comedy",
            "thumbnail": "https://i.ytimg.com/vi/24E4YPFzrBo/hq720.jpg"
        },
        {
            "id": "4EgxZXDLSpA",
            "title": "हम भारत के सबसे सुरक्षित जगह पर खड़े हैं | Dhamaal - Part 1 | Riteish Deshmukh",
            "url": "https://www.youtube.com/watch?v=4EgxZXDLSpA",
            "duration": 1838.0,
            "view_count": 4018777,
            "uploader": "Shemaroo Movie in Parts",
            "category": "comedy",
            "thumbnail": "https://i.ytimg.com/vi/4EgxZXDLSpA/hq720.jpg"
        },
        {
            "id": "Gu8Rb-1_LrE",
            "title": "New Funny Video😂। Trending Funny Video🤣। New Instagram Funny Video😃। New Comedy Video😁। Viral Video😂",
            "url": "https://www.youtube.com/watch?v=Gu8Rb-1_LrE",
            "duration": 2011.0,
            "view_count": 3876,
            "uploader": "FACTAXE",
            "category": "comedy",
            "thumbnail": "https://i.ytimg.com/vi/Gu8Rb-1_LrE/hq720.jpg"
        },
        {
            "id": "FXg52HQXwmQ",
            "title": "Sala Bhikariyon K Sath Soneka Din Agaya Hai😂| Vijay Raaz Comedy Scene | Run",
            "url": "https://www.youtube.com/watch?v=FXg52HQXwmQ",
            "duration": 1424.0,
            "view_count": 12540324,
            "uploader": "Bolly Shorts",
            "category": "comedy",
            "thumbnail": "https://i.ytimg.com/vi/FXg52HQXwmQ/hq720.jpg"
        },
        {
            "id": "uHHISG31DXQ",
            "title": "Rajpal Yadav Comedy - तू कागज पे ऊँगली चला मेरे मामले में ऊँगली मत कर | Comedy - लोटपोट कॉमेडी सीन्स",
            "url": "https://www.youtube.com/watch?v=uHHISG31DXQ",
            "duration": 1439.0,
            "view_count": 7289972,
            "uploader": "Shemaroo Comedy",
            "category": "comedy",
            "thumbnail": "https://i.ytimg.com/vi/uHHISG31DXQ/hq720.jpg"
        },
        {
            "id": "c21o1HvIZNs",
            "title": "Comedy Meme Ke Badshah | हँसी का तड़का | Comedy Club | कॉमेडी का दरबार | मीम बादशाह की पेशकश",
            "url": "https://www.youtube.com/watch?v=c21o1HvIZNs",
            "duration": 1482.0,
            "view_count": 115472,
            "uploader": "Bollywood Comedy ",
            "category": "comedy",
            "thumbnail": "https://i.ytimg.com/vi/c21o1HvIZNs/hq720.jpg"
        },
        {
            "id": "6AJ78kCEz80",
            "title": "Kisan Ka Bamboo Chicken Biryani Street Food Hindi Kahani Moral Stories Funny Comedy Video",
            "url": "https://www.youtube.com/watch?v=6AJ78kCEz80",
            "duration": 690.0,
            "view_count": 28942,
            "uploader": "Khushi - Hindi Stories Super Comedy Videos",
            "category": "comedy",
            "thumbnail": "https://i.ytimg.com/vi/6AJ78kCEz80/hq720.jpg"
        },
        {
            "id": "t29-duhiSzY",
            "title": "Best Bollywood Comedy Scenes|Baap of Comedians | Mujhse Shaadi Karogi - Dhamaal - Dhol - Bhagam Bhag",
            "url": "https://www.youtube.com/watch?v=t29-duhiSzY",
            "duration": 2296.0,
            "view_count": 963266,
            "uploader": "Shemaroo Comedy",
            "category": "comedy",
            "thumbnail": "https://i.ytimg.com/vi/t29-duhiSzY/hq720.jpg"
        },
        {
            "id": "fcC_Rm3zsCc",
            "title": "सिलिंडर | Cylinder | Akhji Bhojpuri Comedy | @DileepVines | New Comedy Video",
            "url": "https://www.youtube.com/watch?v=fcC_Rm3zsCc",
            "duration": 1474.0,
            "view_count": 687936,
            "uploader": "Akhiji Bhojpuri Comedy",
            "category": "comedy",
            "thumbnail": "https://i.ytimg.com/vi/fcC_Rm3zsCc/hq720.jpg"
        },
        {
            "id": "HrlrYB5LYu0",
            "title": "अगुआई-4 || #Mani Meraj Comedey || #funny Comedy Video || 2026",
            "url": "https://www.youtube.com/watch?v=HrlrYB5LYu0",
            "duration": 1079.0,
            "view_count": 27096,
            "uploader": "Rockstar Saif Official",
            "category": "comedy",
            "thumbnail": "https://i.ytimg.com/vi/HrlrYB5LYu0/hq720.jpg"
        },
        {
            "id": "LJX37o9UDHs",
            "title": "New Funny Video😂। Trending Funny Video🤣। New Instagram Funny Video😃। New Comedy Video😁। Viral Video😂",
            "url": "https://www.youtube.com/watch?v=LJX37o9UDHs",
            "duration": 2065.0,
            "view_count": 9539,
            "uploader": "FACTAXE",
            "category": "comedy",
            "thumbnail": "https://i.ytimg.com/vi/LJX37o9UDHs/hq720.jpg"
        },
        {
            "id": "uMKwTVU1kvc",
            "title": "Cricket Dhaba Watching Rooftop Cricket Eating Dhaba Food Hindi Kahani Moral Stories New Comedy Video",
            "url": "https://www.youtube.com/watch?v=uMKwTVU1kvc",
            "duration": 608.0,
            "view_count": 26351,
            "uploader": "Golden TV - Funny Hindi Comedy Videos",
            "category": "comedy",
            "thumbnail": "https://i.ytimg.com/vi/uMKwTVU1kvc/hq720_custom_2.jpg"
        },
        {
            "id": "QKBJXjChDHw",
            "title": "Cricket Gully Gully Ki | Ashish Chanchlani",
            "url": "https://www.youtube.com/watch?v=QKBJXjChDHw",
            "duration": 770.0,
            "view_count": 82279880,
            "uploader": "ashish chanchlani vines",
            "category": "comedy",
            "thumbnail": "https://i.ytimg.com/vi/QKBJXjChDHw/hq720.jpg"
        },
        {
            "id": "Wpp7O4ddRVs",
            "title": "गांम में शादी - WEDDING IN THE VILLAGE COMEDY | DESI COMEDY | FUNNY CARTOON | MJO ‪@MakeJokeOf‬",
            "url": "https://www.youtube.com/watch?v=Wpp7O4ddRVs",
            "duration": 671.0,
            "view_count": 45087,
            "uploader": "CPM joke of",
            "category": "comedy",
            "thumbnail": "https://i.ytimg.com/vi/Wpp7O4ddRVs/hq720.jpg"
        },
        {
            "id": "Pil-0VaBEF8",
            "title": "Noor Bhai Aur Bhoot Ka Khauff | Hyderabadi Horror Comedy | Family Drama | Shehbaaz Khan And Team",
            "url": "https://www.youtube.com/watch?v=Pil-0VaBEF8",
            "duration": 719.0,
            "view_count": 165832,
            "uploader": "Shehbaaz khan ",
            "category": "comedy",
            "thumbnail": "https://i.ytimg.com/vi/Pil-0VaBEF8/hq720.jpg?sqp=-oaymwEcCNAFEJQDSFXyq4qpAw4IARUAAIhCGAFwAcABBg==&rs=AOn4CLBpnKXTza31zRmmbnOfwcy0u2ZoCQ",
            "added_date": "2026-04-16T07:31:35.689630Z",
            "source": "youtube"
        },
        {
            "id": "XmSmR0QW2hI",
            "title": "Best Reaction Funny Pranks Compilation 2024 - 2025 Comedy Video @ThatWasCrazy",
            "url": "https://www.youtube.com/watch?v=XmSmR0QW2hI",
            "duration": 929.0,
            "view_count": 298208,
            "uploader": "That Was Crazy",
            "category": "comedy",
            "thumbnail": "https://i.ytimg.com/vi/XmSmR0QW2hI/hq720.jpg"
        },
        {
            "id": "Ke8-EV4mjbc",
            "title": "साउथ फिल्मो के कॉमेडी के महानायक ब्रह्मानंदम की बेहतरीन टॉप 5 बेस्ट कॉमेडी सीन",
            "url": "https://www.youtube.com/watch?v=Ke8-EV4mjbc",
            "duration": 1957.0,
            "view_count": 57504036,
            "uploader": "Goldmines Great Indian Comedy",
            "category": "comedy",
            "thumbnail": "https://i.ytimg.com/vi/Ke8-EV4mjbc/hq720.jpg"
        },
        {
            "id": "603jcjeb1nM",
            "title": "New Funny Video🤣। Trending Funny Video😂। New Instagram Funny Video🤪। New Comedy Video😆। part - 96",
            "url": "https://www.youtube.com/watch?v=603jcjeb1nM",
            "duration": 1406.0,
            "view_count": 1117350,
            "uploader": "techteasures",
            "category": "comedy",
            "thumbnail": "https://i.ytimg.com/vi/603jcjeb1nM/hq720.jpg"
        },
        {
            "id": "5gvigxqHZW4",
            "title": "LAFANGA 2 || Lafanga 2 || The Comedy Kingdom",
            "url": "https://www.youtube.com/watch?v=5gvigxqHZW4",
            "duration": 994.0,
            "view_count": 31245856,
            "uploader": "The Comedy Kingdom",
            "category": "comedy",
            "thumbnail": "https://i.ytimg.com/vi/5gvigxqHZW4/hq720.jpg"
        },
        {
            "id": "RwQ24JpDzL4",
            "title": "Love Poison | Pranit More | Stand-up Comedy | Crowd Work Special",
            "url": "https://www.youtube.com/watch?v=RwQ24JpDzL4",
            "duration": 3431.0,
            "view_count": 4048499,
            "uploader": "Pranit More Official",
            "category": "comedy",
            "thumbnail": "https://i.ytimg.com/vi/RwQ24JpDzL4/hq720.jpg?sqp=-oaymwEcCNAFEJQDSFXyq4qpAw4IARUAAIhCGAFwAcABBg==&rs=AOn4CLCz2PkTJOIzdjvO_AV1fos9uUaTAg",
            "added_date": "2026-04-16T07:31:36.090325Z",
            "source": "youtube"
        },
        {
            "id": "bNohEDLUiPs",
            "title": "New Funny Video🤣I Trending Funny Video😂I New Instagram Funny Video😅I New Comedy Video😁l Viral video😆",
            "url": "https://www.youtube.com/watch?v=bNohEDLUiPs",
            "duration": 1416.0,
            "view_count": 2025707,
            "uploader": "Ayan Reacts",
            "category": "comedy",
            "thumbnail": "https://i.ytimg.com/vi/bNohEDLUiPs/hq720.jpg"
        },
        {
            "id": "p-j6sN1n84I",
            "title": "Dhongi Baba | Deepak Anish full Comedy 😂",
            "url": "https://www.youtube.com/watch?v=p-j6sN1n84I",
            "duration": 1367.0,
            "view_count": 524654,
            "uploader": "Deepak  Anish Comedy ",
            "category": "comedy",
            "thumbnail": "https://i.ytimg.com/vi/p-j6sN1n84I/hq720.jpg"
        },
        {
            "id": "m-zbIfF-RYA",
            "title": "Rajpal Yadav Comedy Scenes  {HD} - Top Comedy Scenes - Weekend Comedy Special -  Indian Comedy",
            "url": "https://www.youtube.com/watch?v=m-zbIfF-RYA",
            "duration": 633.0,
            "view_count": 36174573,
            "uploader": "Shemaroo Comedy",
            "category": "comedy",
            "thumbnail": "https://i.ytimg.com/vi/m-zbIfF-RYA/hq720.jpg"
        },
        {
            "id": "4cL-TZbokMg",
            "title": "Rakshak || रक्षक || The Comedy Kingdom",
            "url": "https://www.youtube.com/watch?v=4cL-TZbokMg",
            "duration": 1119.0,
            "view_count": 2182955,
            "uploader": "The Comedy Kingdom",
            "category": "comedy",
            "thumbnail": "https://i.ytimg.com/vi/4cL-TZbokMg/hq720.jpg"
        },
        {
            "id": "2lyHi0TGQF4",
            "title": "Begum Season 4 Full Movie Ramzan Special Comedy Video | Hyderabadi comedy | Golden Hyderabadiz",
            "url": "https://www.youtube.com/watch?v=2lyHi0TGQF4",
            "duration": 6697.0,
            "view_count": 841811,
            "uploader": "Golden Hyderabadiz",
            "category": "comedy",
            "thumbnail": "https://i.ytimg.com/vi/2lyHi0TGQF4/hq720.jpg"
        },
        {
            "id": "zJsNp7_1N7g",
            "title": "Top 10 Hilarious Bollywood Comedy Scenes | Rajpal Yadav, Johnny Lever & Sanjay Mishra",
            "url": "https://www.youtube.com/watch?v=zJsNp7_1N7g",
            "duration": 1614.0,
            "view_count": 1250489,
            "uploader": "Bollywood Comedy ",
            "category": "comedy",
            "thumbnail": "https://i.ytimg.com/vi/zJsNp7_1N7g/hq720.jpg"
        },
        {
            "id": "fjqhLH63g-c",
            "title": "शोक सभा में कॉमेडी | Movie Dhamaal | Best Comedy Scenes | Vijay Raaz - Asrani  -Javed Jaffery",
            "url": "https://www.youtube.com/watch?v=fjqhLH63g-c",
            "duration": 1903.0,
            "view_count": 5464837,
            "uploader": "Shemaroo Comedy",
            "category": "comedy",
            "thumbnail": "https://i.ytimg.com/vi/fjqhLH63g-c/hq720.jpg"
        },
        {
            "id": "ew5h5rbVV3I",
            "title": "Bank chor | Harsh beniwal",
            "url": "https://www.youtube.com/watch?v=ew5h5rbVV3I",
            "duration": 2347.0,
            "view_count": 7130985,
            "uploader": "Harsh Beniwal",
            "category": "comedy",
            "thumbnail": "https://i.ytimg.com/vi/ew5h5rbVV3I/hq720.jpg"
        },
        {
            "id": "rnMg8ffttAc",
            "title": "चोर गांव देहात के | Gav ke Chor | Mani Meraj | Rustic Fun ",
            "url": "https://www.youtube.com/watch?v=rnMg8ffttAc",
            "duration": 1167.0,
            "view_count": 1021655,
            "uploader": "Rustic fun",
            "category": "comedy",
            "thumbnail": "https://i.ytimg.com/vi/rnMg8ffttAc/hq720.jpg"
        },
        {
            "id": "XCQ3mLV3WRI",
            "title": "वेटर Waiter Restaurant Hindi  Funny Comedy Video",
            "url": "https://www.youtube.com/watch?v=XCQ3mLV3WRI",
            "duration": 649.0,
            "view_count": 37205215,
            "uploader": "Jalsa Tv - Hindi Stories",
            "category": "comedy",
            "thumbnail": "https://i.ytimg.com/vi/XCQ3mLV3WRI/hq720.jpg"
        },
        {
            "id": "D2NnL3iSJhI",
            "title": "AURORA : Angelina Jolie | New Action Movie 2025 | Full Movie 4K #actionmovies",
            "url": "https://www.youtube.com/watch?v=D2NnL3iSJhI",
            "duration": 5639.0,
            "view_count": 4599698,
            "uploader": "Joy Drama",
            "category": "english",
            "thumbnail": "https://i.ytimg.com/vi/D2NnL3iSJhI/hq720.jpg"
        },
        {
            "id": "gcOWPOmOR-s",
            "title": "🎬THIS MOVIE WILL SHATTER your perception of reality! Watch the full version for free",
            "url": "https://www.youtube.com/watch?v=gcOWPOmOR-s",
            "duration": 5747.0,
            "view_count": 569035,
            "uploader": "FILMDOMINION",
            "category": "english",
            "thumbnail": "https://i.ytimg.com/vi/gcOWPOmOR-s/hq720.jpg"
        },
        {
            "id": "D_FX3vbk5oM",
            "title": "Ryan Gosling In THE DISAPPEARANCE - Hollywood Mystery Thriller Full Movie In English | Kristen Dunst",
            "url": "https://www.youtube.com/watch?v=D_FX3vbk5oM",
            "duration": 5565.0,
            "view_count": 1724667,
            "uploader": "Blockbuster English Movies",
            "category": "english",
            "thumbnail": "https://i.ytimg.com/vi/D_FX3vbk5oM/hq720.jpg"
        },
        {
            "id": "JeH1i8PDS4o",
            "title": "A TRUE STORY movie that captured millions of hearts | Full Movie 4K",
            "url": "https://www.youtube.com/watch?v=JeH1i8PDS4o",
            "duration": 6214.0,
            "view_count": 4521478,
            "uploader": "FilmVaultX",
            "category": "english",
            "thumbnail": "https://i.ytimg.com/vi/JeH1i8PDS4o/hq720.jpg"
        },
        {
            "id": "wtg7Rnbfy-M",
            "title": "Who Lured Them Into the Asylum? | Full Horror Movie",
            "url": "https://www.youtube.com/watch?v=wtg7Rnbfy-M",
            "duration": 5161.0,
            "view_count": 29086,
            "uploader": "FilmIsNow Horror Movies",
            "category": "english",
            "thumbnail": "https://i.ytimg.com/vi/wtg7Rnbfy-M/hq720.jpg"
        },
        {
            "id": "WIwUXd0ONa4",
            "title": "This Movie Broke the Internet! Be the First to Watch | Full Movie",
            "url": "https://www.youtube.com/watch?v=WIwUXd0ONa4",
            "duration": 5542.0,
            "view_count": 835779,
            "uploader": "PrimeGo",
            "category": "english",
            "thumbnail": "https://i.ytimg.com/vi/WIwUXd0ONa4/hq720.jpg"
        },
        {
            "id": "MNv2SG9rwTs",
            "title": "THE PORTAL - New Hollywood Sci-fi Action English Movie | Stranger Things In Multiverse Of Madness",
            "url": "https://www.youtube.com/watch?v=MNv2SG9rwTs",
            "duration": 7297.0,
            "view_count": 725943,
            "uploader": "Hollywood Action",
            "category": "english",
            "thumbnail": "https://i.ytimg.com/vi/MNv2SG9rwTs/hq720.jpg"
        },
        {
            "id": "pW5CtTsayUA",
            "title": "LOST: Beyond Horizon | 2026 Full Movie | English | Adventure | Action | 4K",
            "url": "https://www.youtube.com/watch?v=pW5CtTsayUA",
            "duration": 3878.0,
            "view_count": 500310,
            "uploader": "Epic AI Films",
            "category": "english",
            "thumbnail": "https://i.ytimg.com/vi/pW5CtTsayUA/hq720.jpg"
        },
        {
            "id": "Ouu9uny2Ztg",
            "title": "THE GREAT WALL (2026) Angelina Jolie - Jackie Chan | New Action Movie | 4K HDR #actionmovies",
            "url": "https://www.youtube.com/watch?v=Ouu9uny2Ztg",
            "duration": 5639.0,
            "view_count": 1310022,
            "uploader": "ZED Drama",
            "category": "english",
            "thumbnail": "https://i.ytimg.com/vi/Ouu9uny2Ztg/hq720.jpg"
        },
        {
            "id": "fl9c0X8_0mA",
            "title": "Trust Fund | Thriller Drama | Full Movie",
            "url": "https://www.youtube.com/watch?v=fl9c0X8_0mA",
            "duration": 5784.0,
            "view_count": 1425206,
            "uploader": "FILMDOMINION",
            "category": "english",
            "thumbnail": "https://i.ytimg.com/vi/fl9c0X8_0mA/hq720.jpg"
        },
        {
            "id": "BoxWnPvUFtI",
            "title": "NEW Action Movie 2024 JASON STATHAM Full Movie English Action Movies 2024",
            "url": "https://www.youtube.com/watch?v=BoxWnPvUFtI",
            "duration": 5712.0,
            "view_count": 1943195,
            "uploader": "Secret Cinema",
            "category": "english",
            "thumbnail": "https://i.ytimg.com/vi/BoxWnPvUFtI/hq720.jpg?sqp=-oaymwEcCNAFEJQDSFXyq4qpAw4IARUAAIhCGAFwAcABBg==&rs=AOn4CLDpjETkeW4VA8ip1E-YqxY22ojdXg",
            "added_date": "2026-04-16T07:31:02.834650Z",
            "source": "youtube"
        },
        {
            "id": "31F1CKB6AcM",
            "title": "Journey to the Forbidden Valley | FAMILY | Full Movie in English",
            "url": "https://www.youtube.com/watch?v=31F1CKB6AcM",
            "duration": 5551.0,
            "view_count": 258308,
            "uploader": "Boxoffice | NEW Full Movies in English",
            "category": "english",
            "thumbnail": "https://i.ytimg.com/vi/31F1CKB6AcM/hq720.jpg"
        },
        {
            "id": "reXn6Lc4Rek",
            "title": "Inferno FULL MOVIE | Ray Liotta | Action Movies Thriller Movies | The Midnight Screening",
            "url": "https://www.youtube.com/watch?v=reXn6Lc4Rek",
            "duration": 5668.0,
            "view_count": 44865,
            "uploader": "The Midnight Screening",
            "category": "english",
            "thumbnail": "https://i.ytimg.com/vi/reXn6Lc4Rek/hq720.jpg"
        },
        {
            "id": "mi18OjpCBW8",
            "title": "Underground - Action Movie | Full Movie In English | Hollywood Action Movies",
            "url": "https://www.youtube.com/watch?v=mi18OjpCBW8",
            "duration": 5712.0,
            "view_count": 3723980,
            "uploader": "Hollywood Movies Collections",
            "category": "english",
            "thumbnail": "https://i.ytimg.com/vi/mi18OjpCBW8/hq720.jpg"
        },
        {
            "id": "9ZbCG_Awg1o",
            "title": "MRS & THE DOG : Angelina Jolie | New Action Movie 2026 | Full Movie 4K #actionmovies",
            "url": "https://www.youtube.com/watch?v=9ZbCG_Awg1o",
            "duration": 5834.0,
            "view_count": 175002,
            "uploader": "Joy Drama",
            "category": "english",
            "thumbnail": "https://i.ytimg.com/vi/9ZbCG_Awg1o/hq720.jpg"
        },
        {
            "id": "L3KpYPzRNso",
            "title": "Bruce Willis In DIE INSIDE - Full Action Thriller English Movie | Hollywood Free Movies In English",
            "url": "https://www.youtube.com/watch?v=L3KpYPzRNso",
            "duration": 6174.0,
            "view_count": 1206357,
            "uploader": "Blockbuster English Movies",
            "category": "english",
            "thumbnail": "https://i.ytimg.com/vi/L3KpYPzRNso/hq720.jpg"
        },
        {
            "id": "t0hDMHnkhjo",
            "title": "They Witnessed a Crime | Full Movie English Thriller",
            "url": "https://www.youtube.com/watch?v=t0hDMHnkhjo",
            "duration": 5016.0,
            "view_count": 611463,
            "uploader": "MOVIEMIR and Movieiceberg",
            "category": "english",
            "thumbnail": "https://i.ytimg.com/vi/t0hDMHnkhjo/hq720.jpg"
        },
        {
            "id": "nHpzQ9JR-E0",
            "title": "A Mob King Forced to Fight for His Family | Full Movie English Action Thriller",
            "url": "https://www.youtube.com/watch?v=nHpzQ9JR-E0",
            "duration": 6404.0,
            "view_count": 504665,
            "uploader": "Movieiceberg",
            "category": "english",
            "thumbnail": "https://i.ytimg.com/vi/nHpzQ9JR-E0/hq720.jpg"
        },
        {
            "id": "yPLYvUOZYg0",
            "title": "RECOMMENDED BY THOUSANDS – NOW IT’S YOUR TURN! A KNIGHT'S WAR It's worth watching full in English...",
            "url": "https://www.youtube.com/watch?v=yPLYvUOZYg0",
            "duration": 6206.0,
            "view_count": 285489,
            "uploader": "MOVRION",
            "category": "english",
            "thumbnail": "https://i.ytimg.com/vi/yPLYvUOZYg0/hq720.jpg"
        }
    ]
}