{
    "page": 82,
    "total_pages": 103,
    "total_items": 5125,
    "items": [
        {
            "id": "0Y1ktn2hujM",
            "title": "हिंदी Oggy and the Cockroaches 🖍️✨जादुई पेंसिल  Hindi Cartoons for Kids",
            "url": "https://www.youtube.com/watch?v=0Y1ktn2hujM",
            "duration": 3185.0,
            "view_count": 6637998,
            "uploader": "Oggy Hindi - हिन्दी",
            "category": "cartoons/oggy_and_the_cockroaches",
            "thumbnail": "https://i.ytimg.com/vi/0Y1ktn2hujM/hq720.jpg"
        },
        {
            "id": "byjBoTBpduU",
            "title": "हिंदी Oggy and the Cockroaches पनडुब्बी में दहशत Hindi Cartoons for Kids",
            "url": "https://www.youtube.com/watch?v=byjBoTBpduU",
            "duration": 1964.0,
            "view_count": 601981,
            "uploader": "Oggy Hindi - हिन्दी",
            "category": "cartoons/oggy_and_the_cockroaches",
            "thumbnail": "https://i.ytimg.com/vi/byjBoTBpduU/hq720.jpg"
        },
        {
            "id": "_Fh-wVwAgY0",
            "title": "चोरी Oggy and the Cockroaches हिंदी Hindi Cartoons for Kids",
            "url": "https://www.youtube.com/watch?v=_Fh-wVwAgY0",
            "duration": 3493.0,
            "view_count": 414760,
            "uploader": "Oggy Hindi - हिन्दी",
            "category": "cartoons/oggy_and_the_cockroaches",
            "thumbnail": "https://i.ytimg.com/vi/_Fh-wVwAgY0/hq720.jpg"
        },
        {
            "id": "7txdXCnInVk",
            "title": "हिंदी Oggy and the Cockroaches 😱 अनुसंधान Hindi Cartoons for Kids",
            "url": "https://www.youtube.com/watch?v=7txdXCnInVk",
            "duration": 3187.0,
            "view_count": 7588226,
            "uploader": "Oggy Hindi - हिन्दी",
            "category": "cartoons/oggy_and_the_cockroaches",
            "thumbnail": "https://i.ytimg.com/vi/7txdXCnInVk/hq720.jpg"
        },
        {
            "id": "oxELb66SWBk",
            "title": "हिंदी Oggy and the Cockroaches गुप्त परियोजना Hindi Cartoons for Kids",
            "url": "https://www.youtube.com/watch?v=oxELb66SWBk",
            "duration": 3595.0,
            "view_count": 1276118,
            "uploader": "Oggy Hindi - हिन्दी",
            "category": "cartoons/oggy_and_the_cockroaches",
            "thumbnail": "https://i.ytimg.com/vi/oxELb66SWBk/hq720.jpg"
        },
        {
            "id": "04IG_2KeJNU",
            "title": "कुश्ती का मुकाबला Oggy and the Cockroaches हिंदी  Hindi Cartoons for Kids",
            "url": "https://www.youtube.com/watch?v=04IG_2KeJNU",
            "duration": 1999.0,
            "view_count": 821851,
            "uploader": "Oggy Hindi - हिन्दी",
            "category": "cartoons/oggy_and_the_cockroaches",
            "thumbnail": "https://i.ytimg.com/vi/04IG_2KeJNU/hq720.jpg"
        },
        {
            "id": "Bdb8BPjABtM",
            "title": "एक नया दोस्त Oggy and the Cockroaches हिंदी  Hindi Cartoons for Kids",
            "url": "https://www.youtube.com/watch?v=Bdb8BPjABtM",
            "duration": 3566.0,
            "view_count": 534136,
            "uploader": "Oggy Hindi - हिन्दी",
            "category": "cartoons/oggy_and_the_cockroaches",
            "thumbnail": "https://i.ytimg.com/vi/Bdb8BPjABtM/hq720.jpg"
        },
        {
            "id": "imhlM6FHB6o",
            "title": "ओग्गी की नई नौकरी Oggy and the Cockroaches हिंदी Hindi Cartoons for Kids",
            "url": "https://www.youtube.com/watch?v=imhlM6FHB6o",
            "duration": 3601.0,
            "view_count": 170257,
            "uploader": "Oggy Hindi - हिन्दी",
            "category": "cartoons/oggy_and_the_cockroaches",
            "thumbnail": "https://i.ytimg.com/vi/imhlM6FHB6o/hq720.jpg"
        },
        {
            "id": "vUXLUG7_ZmU",
            "title": "योजना Oggy and the Cockroaches हिंदी Hindi Cartoons for Kids",
            "url": "https://www.youtube.com/watch?v=vUXLUG7_ZmU",
            "duration": 3563.0,
            "view_count": 955312,
            "uploader": "Oggy Hindi - हिन्दी",
            "category": "cartoons/oggy_and_the_cockroaches",
            "thumbnail": "https://i.ytimg.com/vi/vUXLUG7_ZmU/hq720.jpg"
        },
        {
            "id": "54wrQ5GYC_w",
            "title": "क्रिसमस पर आपदा Oggy and the Cockroaches हिंदी Hindi Cartoons for Kids",
            "url": "https://www.youtube.com/watch?v=54wrQ5GYC_w",
            "duration": 2011.0,
            "view_count": 316798,
            "uploader": "Oggy Hindi - हिन्दी",
            "category": "cartoons/oggy_and_the_cockroaches",
            "thumbnail": "https://i.ytimg.com/vi/54wrQ5GYC_w/hq720.jpg"
        },
        {
            "id": "ffv8RaFNyKE",
            "title": "हिंदी Oggy and the Cockroaches 🥶 फ्रिज का जाल Hindi Cartoons for Kids",
            "url": "https://www.youtube.com/watch?v=ffv8RaFNyKE",
            "duration": 3587.0,
            "view_count": 9003379,
            "uploader": "Oggy Hindi - हिन्दी",
            "category": "cartoons/oggy_and_the_cockroaches",
            "thumbnail": "https://i.ytimg.com/vi/ffv8RaFNyKE/hq720.jpg"
        },
        {
            "id": "r59GnEOJmsU",
            "title": "विशालकाय तिलचट्टा Oggy and the Cockroaches हिंदी Hindi Cartoons for Kids",
            "url": "https://www.youtube.com/watch?v=r59GnEOJmsU",
            "duration": 2446.0,
            "view_count": 542897,
            "uploader": "Oggy Hindi - हिन्दी",
            "category": "cartoons/oggy_and_the_cockroaches",
            "thumbnail": "https://i.ytimg.com/vi/r59GnEOJmsU/hq720.jpg"
        },
        {
            "id": "7TPm0Zkk-sk",
            "title": "सबसे अच्छा तिलचट्टा Oggy and the Cockroaches हिंदी Hindi Cartoons for Kids",
            "url": "https://www.youtube.com/watch?v=7TPm0Zkk-sk",
            "duration": 3597.0,
            "view_count": 413686,
            "uploader": "Oggy Hindi - हिन्दी",
            "category": "cartoons/oggy_and_the_cockroaches",
            "thumbnail": "https://i.ytimg.com/vi/7TPm0Zkk-sk/hq720.jpg"
        },
        {
            "id": "AwvNdigiX6k",
            "title": "हिंदी Oggy and the Cockroaches बिल्ली और टर्की Hindi Cartoons for Kids",
            "url": "https://www.youtube.com/watch?v=AwvNdigiX6k",
            "duration": 3551.0,
            "view_count": 435385,
            "uploader": "Oggy Hindi - हिन्दी",
            "category": "cartoons/oggy_and_the_cockroaches",
            "thumbnail": "https://i.ytimg.com/vi/AwvNdigiX6k/hq720.jpg"
        },
        {
            "id": "P_WYV5fNl4g",
            "title": "हिंदी Oggy and the Cockroaches 🌊☔ ALONE IN LAKE 🌊☔ Hindi Cartoons for Kids",
            "url": "https://www.youtube.com/watch?v=P_WYV5fNl4g",
            "duration": 1577.0,
            "view_count": 19193661,
            "uploader": "Oggy Hindi - हिन्दी",
            "category": "cartoons/oggy_and_the_cockroaches",
            "thumbnail": "https://i.ytimg.com/vi/P_WYV5fNl4g/hq720.jpg"
        },
        {
            "id": "WI9U22cg60I",
            "title": "लड़ाई Oggy and the Cockroaches हिंदी Hindi Cartoons for Kids",
            "url": "https://www.youtube.com/watch?v=WI9U22cg60I",
            "duration": 1891.0,
            "view_count": 598839,
            "uploader": "Oggy Hindi - हिन्दी",
            "category": "cartoons/oggy_and_the_cockroaches",
            "thumbnail": "https://i.ytimg.com/vi/WI9U22cg60I/hq720.jpg"
        },
        {
            "id": "YCte9X5fNDY",
            "title": "सोने के सिक्के Oggy and the Cockroaches हिंदी Hindi Cartoons for Kids",
            "url": "https://www.youtube.com/watch?v=YCte9X5fNDY",
            "duration": 1969.0,
            "view_count": 1053470,
            "uploader": "Oggy Hindi - हिन्दी",
            "category": "cartoons/oggy_and_the_cockroaches",
            "thumbnail": "https://i.ytimg.com/vi/YCte9X5fNDY/hq720.jpg"
        },
        {
            "id": "yaxaWFKsRe8",
            "title": "तिलचट्टों की एक डिश Oggy and the Cockroaches हिंदी Hindi Cartoons for Kids",
            "url": "https://www.youtube.com/watch?v=yaxaWFKsRe8",
            "duration": 3530.0,
            "view_count": 262546,
            "uploader": "Oggy Hindi - हिन्दी",
            "category": "cartoons/oggy_and_the_cockroaches",
            "thumbnail": "https://i.ytimg.com/vi/yaxaWFKsRe8/hq720.jpg"
        },
        {
            "id": "0x4NxiZoImw",
            "title": "छुट्टी का आतंक Oggy and the Cockroaches हिंदी Hindi Cartoons for Kids",
            "url": "https://www.youtube.com/watch?v=0x4NxiZoImw",
            "duration": 2007.0,
            "view_count": 1050171,
            "uploader": "Oggy Hindi - हिन्दी",
            "category": "cartoons/oggy_and_the_cockroaches",
            "thumbnail": "https://i.ytimg.com/vi/0x4NxiZoImw/hq720.jpg"
        },
        {
            "id": "8bfBHxj6gLk",
            "title": "क्लोन Oggy and the Cockroaches हिंदी Hindi Cartoons for Kids",
            "url": "https://www.youtube.com/watch?v=8bfBHxj6gLk",
            "duration": 4048.0,
            "view_count": 304859,
            "uploader": "Oggy Hindi - हिन्दी",
            "category": "cartoons/oggy_and_the_cockroaches",
            "thumbnail": "https://i.ytimg.com/vi/8bfBHxj6gLk/hq720.jpg"
        },
        {
            "id": "LfnL0C58xZ8",
            "title": "हिंदी Oggy and the Cockroaches घुसपैठी Hindi Cartoons for Kids",
            "url": "https://www.youtube.com/watch?v=LfnL0C58xZ8",
            "duration": 1559.0,
            "view_count": 543922,
            "uploader": "Oggy Hindi - हिन्दी",
            "category": "cartoons/oggy_and_the_cockroaches",
            "thumbnail": "https://i.ytimg.com/vi/LfnL0C58xZ8/hq720.jpg"
        },
        {
            "id": "EgsOzN1-LPI",
            "title": "हिंदी Oggy and the Cockroaches 🤫 रहस्य Hindi Cartoons for Kids",
            "url": "https://www.youtube.com/watch?v=EgsOzN1-LPI",
            "duration": 3151.0,
            "view_count": 1512952,
            "uploader": "Oggy Hindi - हिन्दी",
            "category": "cartoons/oggy_and_the_cockroaches",
            "thumbnail": "https://i.ytimg.com/vi/EgsOzN1-LPI/hq720.jpg"
        },
        {
            "id": "z8gKP0H1XOA",
            "title": "एक अजीब यात्रा Oggy and the Cockroaches हिंदी Hindi Cartoons for Kids",
            "url": "https://www.youtube.com/watch?v=z8gKP0H1XOA",
            "duration": 3514.0,
            "view_count": 331186,
            "uploader": "Oggy Hindi - हिन्दी",
            "category": "cartoons/oggy_and_the_cockroaches",
            "thumbnail": "https://i.ytimg.com/vi/z8gKP0H1XOA/hq720.jpg"
        },
        {
            "id": "x7o-xI2m1-U",
            "title": "मजबूत कॉफी Oggy and the Cockroaches हिंदी Hindi Cartoons for Kids",
            "url": "https://www.youtube.com/watch?v=x7o-xI2m1-U",
            "duration": 1565.0,
            "view_count": 673113,
            "uploader": "Oggy Hindi - हिन्दी",
            "category": "cartoons/oggy_and_the_cockroaches",
            "thumbnail": "https://i.ytimg.com/vi/x7o-xI2m1-U/hq720.jpg"
        },
        {
            "id": "Q1YORgGYhxE",
            "title": "ऑगी सेलिब्रिटी Oggy and the Cockroaches हिंदी Hindi Cartoons for Kids",
            "url": "https://www.youtube.com/watch?v=Q1YORgGYhxE",
            "duration": 1970.0,
            "view_count": 1575318,
            "uploader": "Oggy Hindi - हिन्दी",
            "category": "cartoons/oggy_and_the_cockroaches",
            "thumbnail": "https://i.ytimg.com/vi/Q1YORgGYhxE/hq720.jpg"
        },
        {
            "id": "L8uYN4QSkAQ",
            "title": "कार दुर्घटनाग्रस्त Oggy and the Cockroaches हिंदी Hindi Cartoons for Kids",
            "url": "https://www.youtube.com/watch?v=L8uYN4QSkAQ",
            "duration": 3562.0,
            "view_count": 911681,
            "uploader": "Oggy Hindi - हिन्दी",
            "category": "cartoons/oggy_and_the_cockroaches",
            "thumbnail": "https://i.ytimg.com/vi/L8uYN4QSkAQ/hq720.jpg"
        },
        {
            "id": "J7WIX5wxOwE",
            "title": "हिंदी Oggy and the Cockroaches 😡 दीदी की चुनौती Hindi Cartoons for Kids",
            "url": "https://www.youtube.com/watch?v=J7WIX5wxOwE",
            "duration": 2377.0,
            "view_count": 2547694,
            "uploader": "Oggy Hindi - हिन्दी",
            "category": "cartoons/oggy_and_the_cockroaches",
            "thumbnail": "https://i.ytimg.com/vi/J7WIX5wxOwE/hq720.jpg"
        },
        {
            "id": "38Kmd_I16fo",
            "title": "अक्षर Oggy and the Cockroaches हिंदी Hindi Cartoons for Kids",
            "url": "https://www.youtube.com/watch?v=38Kmd_I16fo",
            "duration": 1991.0,
            "view_count": 667486,
            "uploader": "Oggy Hindi - हिन्दी",
            "category": "cartoons/oggy_and_the_cockroaches",
            "thumbnail": "https://i.ytimg.com/vi/38Kmd_I16fo/hq720.jpg"
        },
        {
            "id": "zrPzjLL1nGw",
            "title": "हिंदी Oggy and the Cockroaches ♟🎯 A GAME TABLE ♟🎯 Hindi Cartoons for Kids",
            "url": "https://www.youtube.com/watch?v=zrPzjLL1nGw",
            "duration": 1589.0,
            "view_count": 33191188,
            "uploader": "Oggy Hindi - हिन्दी",
            "category": "cartoons/oggy_and_the_cockroaches",
            "thumbnail": "https://i.ytimg.com/vi/zrPzjLL1nGw/hq720.jpg"
        },
        {
            "id": "Gm0XC8F5JSw",
            "title": "हिंदी Oggy and the Cockroaches 🧓 दादी Hindi Cartoons for Kids",
            "url": "https://www.youtube.com/watch?v=Gm0XC8F5JSw",
            "duration": 2000.0,
            "view_count": 9120668,
            "uploader": "Oggy Hindi - हिन्दी",
            "category": "cartoons/oggy_and_the_cockroaches",
            "thumbnail": "https://i.ytimg.com/vi/Gm0XC8F5JSw/hq720.jpg"
        },
        {
            "id": "qfJh0QPRU1M",
            "title": "हिंदी Oggy and the Cockroaches 💫 LOOK AT THE STARS 💫 Hindi Cartoons for Kids",
            "url": "https://www.youtube.com/watch?v=qfJh0QPRU1M",
            "duration": 1198.0,
            "view_count": 50116449,
            "uploader": "Oggy Hindi - हिन्दी",
            "category": "cartoons/oggy_and_the_cockroaches",
            "thumbnail": "https://i.ytimg.com/vi/qfJh0QPRU1M/hq720.jpg"
        },
        {
            "id": "8AEjo8dYGFU",
            "title": "हिंदी Oggy and the Cockroaches मजेदार जन्मदिन Hindi Cartoons for Kids",
            "url": "https://www.youtube.com/watch?v=8AEjo8dYGFU",
            "duration": 3553.0,
            "view_count": 1156183,
            "uploader": "Oggy Hindi - हिन्दी",
            "category": "cartoons/oggy_and_the_cockroaches",
            "thumbnail": "https://i.ytimg.com/vi/8AEjo8dYGFU/hq720.jpg"
        },
        {
            "id": "QxEW1NzE0mM",
            "title": "हिंदी Oggy and the Cockroaches 🥓🍗 FOOD ONLY 🥓🍗 Hindi Cartoons for Kids",
            "url": "https://www.youtube.com/watch?v=QxEW1NzE0mM",
            "duration": 2061.0,
            "view_count": 71347176,
            "uploader": "Oggy Hindi - हिन्दी",
            "category": "cartoons/oggy_and_the_cockroaches",
            "thumbnail": "https://i.ytimg.com/vi/QxEW1NzE0mM/hq720.jpg"
        },
        {
            "id": "LhaCWTTTXXE",
            "title": "हिंदी Oggy and the Cockroaches - Jack's new car is awsome ! - Hindi Cartoons for Kids",
            "url": "https://www.youtube.com/watch?v=LhaCWTTTXXE",
            "duration": 2008.0,
            "view_count": 26663114,
            "uploader": "Oggy Hindi - हिन्दी",
            "category": "cartoons/oggy_and_the_cockroaches",
            "thumbnail": "https://i.ytimg.com/vi/LhaCWTTTXXE/hq720.jpg"
        },
        {
            "id": "J1pq-Eb0Jis",
            "title": "प्रतियोगिता Oggy and the Cockroaches हिंदी  Hindi Cartoons for Kids",
            "url": "https://www.youtube.com/watch?v=J1pq-Eb0Jis",
            "duration": 3549.0,
            "view_count": 1050695,
            "uploader": "Oggy Hindi - हिन्दी",
            "category": "cartoons/oggy_and_the_cockroaches",
            "thumbnail": "https://i.ytimg.com/vi/J1pq-Eb0Jis/hq720.jpg"
        },
        {
            "id": "Yx46862k4Ck",
            "title": "हिंदी Oggy and the Cockroaches 🐮 ऑगी और गायें Hindi Cartoons for Kids",
            "url": "https://www.youtube.com/watch?v=Yx46862k4Ck",
            "duration": 3103.0,
            "view_count": 15008341,
            "uploader": "Oggy Hindi - हिन्दी",
            "category": "cartoons/oggy_and_the_cockroaches",
            "thumbnail": "https://i.ytimg.com/vi/Yx46862k4Ck/hq720.jpg"
        },
        {
            "id": "xxlA6TYblOQ",
            "title": "रहस्यमय भोजन Oggy and the Cockroaches हिंदी Hindi Cartoons for Kids",
            "url": "https://www.youtube.com/watch?v=xxlA6TYblOQ",
            "duration": 3527.0,
            "view_count": 724732,
            "uploader": "Oggy Hindi - हिन्दी",
            "category": "cartoons/oggy_and_the_cockroaches",
            "thumbnail": "https://i.ytimg.com/vi/xxlA6TYblOQ/hq720.jpg"
        },
        {
            "id": "s7wiqtTqmF0",
            "title": "हिंदी Oggy and the Cockroaches ड्राइवर का लाइसेंस Hindi Cartoons for Kids",
            "url": "https://www.youtube.com/watch?v=s7wiqtTqmF0",
            "duration": 1969.0,
            "view_count": 617973,
            "uploader": "Oggy Hindi - हिन्दी",
            "category": "cartoons/oggy_and_the_cockroaches",
            "thumbnail": "https://i.ytimg.com/vi/s7wiqtTqmF0/hq720.jpg"
        },
        {
            "id": "g6YrNUU7b_A",
            "title": "हिंदी Oggy and the Cockroaches 😱 एक खतरनाक यात्रा  Hindi Cartoons for Kids",
            "url": "https://www.youtube.com/watch?v=g6YrNUU7b_A",
            "duration": 3188.0,
            "view_count": 11641070,
            "uploader": "Oggy Hindi - हिन्दी",
            "category": "cartoons/oggy_and_the_cockroaches",
            "thumbnail": "https://i.ytimg.com/vi/g6YrNUU7b_A/hq720.jpg"
        },
        {
            "id": "DxLFbyO9ZSQ",
            "title": "हिंदी Oggy and the Cockroaches जासूस Hindi Cartoons for Kids",
            "url": "https://www.youtube.com/watch?v=DxLFbyO9ZSQ",
            "duration": 3593.0,
            "view_count": 2401473,
            "uploader": "Oggy Hindi - हिन्दी",
            "category": "cartoons/oggy_and_the_cockroaches",
            "thumbnail": "https://i.ytimg.com/vi/DxLFbyO9ZSQ/hq720.jpg"
        },
        {
            "id": "npmt9xrT9DE",
            "title": "हिंदी Oggy and the Cockroaches 🛁🚿 JACK IN A JACUZZI 🚿🛁  Hindi Cartoons for Kids",
            "url": "https://www.youtube.com/watch?v=npmt9xrT9DE",
            "duration": 1964.0,
            "view_count": 42617061,
            "uploader": "Oggy Hindi - हिन्दी",
            "category": "cartoons/oggy_and_the_cockroaches",
            "thumbnail": "https://i.ytimg.com/vi/npmt9xrT9DE/hq720.jpg"
        },
        {
            "id": "ddkvmSwiMzc",
            "title": "कार जाल Oggy and the Cockroaches हिंदी Hindi Cartoons for Kids",
            "url": "https://www.youtube.com/watch?v=ddkvmSwiMzc",
            "duration": 3595.0,
            "view_count": 351994,
            "uploader": "Oggy Hindi - हिन्दी",
            "category": "cartoons/oggy_and_the_cockroaches",
            "thumbnail": "https://i.ytimg.com/vi/ddkvmSwiMzc/hq720.jpg"
        },
        {
            "id": "vKgFvtQwXHE",
            "title": "हिंदी Oggy and the Cockroaches घर पर माँ और पिताजी Hindi Cartoons for Kids",
            "url": "https://www.youtube.com/watch?v=vKgFvtQwXHE",
            "duration": 3552.0,
            "view_count": 871889,
            "uploader": "Oggy Hindi - हिन्दी",
            "category": "cartoons/oggy_and_the_cockroaches",
            "thumbnail": "https://i.ytimg.com/vi/vKgFvtQwXHE/hq720.jpg"
        },
        {
            "id": "dz1XDRJvbc8",
            "title": "हिंदी Oggy and the Cockroaches 🤢 वह प्यार में है! Hindi Cartoons for Kids",
            "url": "https://www.youtube.com/watch?v=dz1XDRJvbc8",
            "duration": 1971.0,
            "view_count": 3692441,
            "uploader": "Oggy Hindi - हिन्दी",
            "category": "cartoons/oggy_and_the_cockroaches",
            "thumbnail": "https://i.ytimg.com/vi/dz1XDRJvbc8/hq720.jpg"
        },
        {
            "id": "O4xMS-vOc8U",
            "title": "हिंदी Oggy and the Cockroaches इतने सारे बच्चे Hindi Cartoons for Kids",
            "url": "https://www.youtube.com/watch?v=O4xMS-vOc8U",
            "duration": 1998.0,
            "view_count": 1125600,
            "uploader": "Oggy Hindi - हिन्दी",
            "category": "cartoons/oggy_and_the_cockroaches",
            "thumbnail": "https://i.ytimg.com/vi/O4xMS-vOc8U/hq720.jpg"
        },
        {
            "id": "lnMi9hkMkqY",
            "title": "हिंदी Oggy and the Cockroaches 🍟 PEEL POTATOES 🍟Hindi Cartoons for Kids",
            "url": "https://www.youtube.com/watch?v=lnMi9hkMkqY",
            "duration": 2056.0,
            "view_count": 113597949,
            "uploader": "Oggy Hindi - हिन्दी",
            "category": "cartoons/oggy_and_the_cockroaches",
            "thumbnail": "https://i.ytimg.com/vi/lnMi9hkMkqY/hq720.jpg"
        },
        {
            "id": "-mXUDcvu3_U",
            "title": "हिंदी Oggy and the Cockroaches 💫 तीन इच्छाएँ Hindi Cartoons for Kids",
            "url": "https://www.youtube.com/watch?v=-mXUDcvu3_U",
            "duration": 3161.0,
            "view_count": 5025299,
            "uploader": "Oggy Hindi - हिन्दी",
            "category": "cartoons/oggy_and_the_cockroaches",
            "thumbnail": "https://i.ytimg.com/vi/-mXUDcvu3_U/hq720.jpg"
        },
        {
            "id": "9EFFufMobo4",
            "title": "कचरे में मिला आश्चर्य Oggy and the Cockroaches हिंदी Hindi Cartoons for Kids",
            "url": "https://www.youtube.com/watch?v=9EFFufMobo4",
            "duration": 3595.0,
            "view_count": 1109067,
            "uploader": "Oggy Hindi - हिन्दी",
            "category": "cartoons/oggy_and_the_cockroaches",
            "thumbnail": "https://i.ytimg.com/vi/9EFFufMobo4/hq720.jpg"
        },
        {
            "id": "NqoZKOk6BTM",
            "title": "Oggy and Cockrochies Survive the ULTIMATE ROACH PRANK? 😱 (Full Movie Story) In Hindi",
            "url": "https://www.youtube.com/watch?v=NqoZKOk6BTM",
            "duration": 4724.0,
            "view_count": 392129,
            "uploader": "MOVIE KING 👑",
            "category": "cartoons/oggy_and_the_cockroaches",
            "thumbnail": "https://i.ytimg.com/vi/NqoZKOk6BTM/hqdefault.jpg"
        },
        {
            "id": "YLQl-yUSjx8",
            "title": "हिंदी Oggy and the Cockroaches 👀💻 I SEE YOU 👀💻 Hindi Cartoons for Kids",
            "url": "https://www.youtube.com/watch?v=YLQl-yUSjx8",
            "duration": 1591.0,
            "view_count": 76969497,
            "uploader": "Oggy Hindi - हिन्दी",
            "category": "cartoons/oggy_and_the_cockroaches",
            "thumbnail": "https://i.ytimg.com/vi/YLQl-yUSjx8/hq720.jpg"
        }
    ]
}