{
    "page": 85,
    "total_pages": 103,
    "total_items": 5125,
    "items": [
        {
            "id": "dnJSezXQ8N8",
            "title": "Peppa Pig in Hindi - Mammee Pig Ka Barthade - हिंदी Kahaniya - Hindi Cartoons for Kids",
            "url": "https://www.youtube.com/watch?v=dnJSezXQ8N8",
            "duration": 3738.0,
            "view_count": 3359427,
            "uploader": "पेप्पा पिग हिंदी - आधिकारिक चैनल",
            "category": "cartoons/peppa_pig",
            "thumbnail": "https://i.ytimg.com/vi/dnJSezXQ8N8/hq720.jpg"
        },
        {
            "id": "HOBpc-hsUzY",
            "title": "Peppa Pig in Hindi - Pancakes - हिंदी Kahaniya - Hindi Cartoons for Kids",
            "url": "https://www.youtube.com/watch?v=HOBpc-hsUzY",
            "duration": 1929.0,
            "view_count": 14473075,
            "uploader": "पेप्पा पिग हिंदी - आधिकारिक चैनल",
            "category": "cartoons/peppa_pig",
            "thumbnail": "https://i.ytimg.com/vi/HOBpc-hsUzY/hq720.jpg"
        },
        {
            "id": "R5e9G3PJpc4",
            "title": "Peppa Pig in Hindi - Tarakeebon Vaalee Daavaten - हिंदी Kahaniya - Hindi Cartoons for Kids",
            "url": "https://www.youtube.com/watch?v=R5e9G3PJpc4",
            "duration": 7313.0,
            "view_count": 2246134,
            "uploader": "पेप्पा पिग हिंदी - आधिकारिक चैनल",
            "category": "cartoons/peppa_pig",
            "thumbnail": "https://i.ytimg.com/vi/R5e9G3PJpc4/hq720.jpg"
        },
        {
            "id": "neNx8g2pOks",
            "title": "Peppa Pig in Hindi - Valentine's Surprise - वैलेंटाइन्स सरप्राइज - हिंदी Kahaniya - Hindi",
            "url": "https://www.youtube.com/watch?v=neNx8g2pOks",
            "duration": 3638.0,
            "view_count": 1604104,
            "uploader": "पेप्पा पिग हिंदी - आधिकारिक चैनल",
            "category": "cartoons/peppa_pig",
            "thumbnail": "https://i.ytimg.com/vi/neNx8g2pOks/hq720.jpg"
        },
        {
            "id": "-ftMfalGbxg",
            "title": "Peppa Pig in Hindi | Jam Sandwiches | पिकनिक के लिए पैकिंग | Hindi Cartoons for Kids",
            "url": "https://www.youtube.com/watch?v=-ftMfalGbxg",
            "duration": 4025.0,
            "view_count": 1132136,
            "uploader": "पेप्पा पिग हिंदी - आधिकारिक चैनल",
            "category": "cartoons/peppa_pig",
            "thumbnail": "https://i.ytimg.com/vi/-ftMfalGbxg/hq720.jpg"
        },
        {
            "id": "_G39cUY4EOE",
            "title": "Bal Bhavan  - Peppa Pig in Hindi - The Playgroup - हिंदी Kahaniya - Hindi Cartoons for Kids",
            "url": "https://www.youtube.com/watch?v=_G39cUY4EOE",
            "duration": 3269.0,
            "view_count": 10592647,
            "uploader": "पेप्पा पिग हिंदी - आधिकारिक चैनल",
            "category": "cartoons/peppa_pig",
            "thumbnail": "https://i.ytimg.com/vi/_G39cUY4EOE/hq720.jpg"
        },
        {
            "id": "3ZRQNA8nBJA",
            "title": "Peppa Pig NEW BABY EVIE Episodes LIVE 🍼 Cutest & Funniest Moments 🥹💛 Kids Cartoons",
            "url": "https://www.youtube.com/watch?v=3ZRQNA8nBJA",
            "duration": 0,
            "view_count": 0,
            "uploader": "Peppa Pig - Official Channel",
            "category": "cartoons/peppa_pig",
            "thumbnail": "https://i.ytimg.com/vi/3ZRQNA8nBJA/hq720.jpg"
        },
        {
            "id": "E4WV4NHr7EM",
            "title": "Peppa Pig NEW BABY EVIE Episodes LIVE 🍼 Cutest & Funniest Moments 🥹💛 Kids Cartoons",
            "url": "https://www.youtube.com/watch?v=E4WV4NHr7EM",
            "duration": 0,
            "view_count": 0,
            "uploader": "Peppa Pig - Official Channel",
            "category": "cartoons/peppa_pig",
            "thumbnail": "https://i.ytimg.com/vi/E4WV4NHr7EM/hq720.jpg"
        },
        {
            "id": "34juGCzoXBI",
            "title": "🔴  NEWEST Peppa Pig Episodes 2026 ✨ SEASON 10 Holiday Adventures ☀️ Kids Movie 🔴",
            "url": "https://www.youtube.com/watch?v=34juGCzoXBI",
            "duration": 0,
            "view_count": 0,
            "uploader": "Peppa Pig - Official Channel",
            "category": "cartoons/peppa_pig",
            "thumbnail": "https://i.ytimg.com/vi/34juGCzoXBI/hq720.jpg"
        },
        {
            "id": "c2xTq8Dju8E",
            "title": "🔴 BEST of George 2026 LIVE! 🦖 Peppa Pig Mini Movie 🍿 Kids Cartoons 🔴",
            "url": "https://www.youtube.com/watch?v=c2xTq8Dju8E",
            "duration": 0,
            "view_count": 0,
            "uploader": "Peppa Pig - Official Channel",
            "category": "cartoons/peppa_pig",
            "thumbnail": "https://i.ytimg.com/vi/c2xTq8Dju8E/hq720.jpg"
        },
        {
            "id": "YG_DiLTnk34",
            "title": "Peppa Pig in Hindi - Krooj Jahaaj - हिंदी Kahaniya - Hindi Cartoons for Kids",
            "url": "https://www.youtube.com/watch?v=YG_DiLTnk34",
            "duration": 3632.0,
            "view_count": 2015187,
            "uploader": "पेप्पा पिग हिंदी - आधिकारिक चैनल",
            "category": "cartoons/peppa_pig",
            "thumbnail": "https://i.ytimg.com/vi/YG_DiLTnk34/hq720.jpg"
        },
        {
            "id": "6X-iYvueNVc",
            "title": "🔴 BRAND NEW PEPPA PIG TALES EPISODES 🐽 ALL New Season 3  ✨📺  | New House, New Car, New Bedroom!",
            "url": "https://www.youtube.com/watch?v=6X-iYvueNVc",
            "duration": 0,
            "view_count": 0,
            "uploader": "Peppa Pig Tales",
            "category": "cartoons/peppa_pig",
            "thumbnail": "https://i.ytimg.com/vi/6X-iYvueNVc/hq720.jpg"
        },
        {
            "id": "IMVhdcV6DnU",
            "title": "Peppa Pig in Hindi - Khareedaaree - हिंदी Kahaniya - Hindi Cartoons for Kids",
            "url": "https://www.youtube.com/watch?v=IMVhdcV6DnU",
            "duration": 3744.0,
            "view_count": 20604817,
            "uploader": "पेप्पा पिग हिंदी - आधिकारिक चैनल",
            "category": "cartoons/peppa_pig",
            "thumbnail": "https://i.ytimg.com/vi/IMVhdcV6DnU/hq720.jpg"
        },
        {
            "id": "EvRn4vjERf0",
            "title": "Peppa Pig NEW BABY EVIE Episodes LIVE 🍼 Cutest & Funniest Moments 🥹💛 Kids Cartoons",
            "url": "https://www.youtube.com/watch?v=EvRn4vjERf0",
            "duration": 0,
            "view_count": 0,
            "uploader": "Peppa Pig - Official Channel",
            "category": "cartoons/peppa_pig",
            "thumbnail": "https://i.ytimg.com/vi/EvRn4vjERf0/hq720.jpg"
        },
        {
            "id": "krKR4p1XCL8",
            "title": "🔴  NEWEST Peppa Pig Episodes 2026 ✨ SEASON 10 Holiday Adventures ☀️ Kids Movie 🔴",
            "url": "https://www.youtube.com/watch?v=krKR4p1XCL8",
            "duration": 0,
            "view_count": 0,
            "uploader": "Peppa Pig - Official Channel",
            "category": "cartoons/peppa_pig",
            "thumbnail": "https://i.ytimg.com/vi/krKR4p1XCL8/hq720.jpg"
        },
        {
            "id": "-I-LqFXON68",
            "title": "Peppa Pig NEW BABY EVIE Episodes LIVE 🍼 Cutest & Funniest Moments 🥹💛 Kids Cartoons",
            "url": "https://www.youtube.com/watch?v=-I-LqFXON68",
            "duration": 0,
            "view_count": 0,
            "uploader": "Peppa Pig - Official Channel",
            "category": "cartoons/peppa_pig",
            "thumbnail": "https://i.ytimg.com/vi/-I-LqFXON68/hq720.jpg"
        },
        {
            "id": "h7qhURo_2M4",
            "title": "Peppa Pig in Hindi - Aaisakreem Sande - हिंदी Kahaniya - Hindi Cartoons for Kids",
            "url": "https://www.youtube.com/watch?v=h7qhURo_2M4",
            "duration": 7270.0,
            "view_count": 716022,
            "uploader": "पेप्पा पिग हिंदी - आधिकारिक चैनल",
            "category": "cartoons/peppa_pig",
            "thumbnail": "https://i.ytimg.com/vi/h7qhURo_2M4/hq720.jpg"
        },
        {
            "id": "-aVLJ7z4tMI",
            "title": "Peppa Pig Goes HALLOWEEN Costume Shopping 🎃 | Peppa & George: Funny  Outfits | Tales Full Episodes",
            "url": "https://www.youtube.com/watch?v=-aVLJ7z4tMI",
            "duration": 1101.0,
            "view_count": 6747377,
            "uploader": "Toys and Colours",
            "category": "cartoons/peppa_pig",
            "thumbnail": "https://i.ytimg.com/vi/-aVLJ7z4tMI/hq720.jpg"
        },
        {
            "id": "4DnWPkQXMn4",
            "title": "Peppa Pig in Hindi - Majedaar Daudaple Det - हिंदी Kahaniya - Hindi Cartoons for Kids",
            "url": "https://www.youtube.com/watch?v=4DnWPkQXMn4",
            "duration": 7517.0,
            "view_count": 1134287,
            "uploader": "पेप्पा पिग हिंदी - आधिकारिक चैनल",
            "category": "cartoons/peppa_pig",
            "thumbnail": "https://i.ytimg.com/vi/4DnWPkQXMn4/hq720.jpg"
        },
        {
            "id": "yGZTUQq8Hro",
            "title": "Peppa Pig in Hindi - Da Tooth Pheree - हिंदी Kahaniya - Hindi Cartoons for Kids |",
            "url": "https://www.youtube.com/watch?v=yGZTUQq8Hro",
            "duration": 3740.0,
            "view_count": 2895690,
            "uploader": "पेप्पा पिग हिंदी - आधिकारिक चैनल",
            "category": "cartoons/peppa_pig",
            "thumbnail": "https://i.ytimg.com/vi/yGZTUQq8Hro/hq720.jpg"
        },
        {
            "id": "8Oehhxckzl0",
            "title": "Peppa Pig in Hindi - Mera Janamdin ki Party - हिंदी Kahaniya - Hindi Cartoons for Kids",
            "url": "https://www.youtube.com/watch?v=8Oehhxckzl0",
            "duration": 1929.0,
            "view_count": 11111844,
            "uploader": "पेप्पा पिग हिंदी - आधिकारिक चैनल",
            "category": "cartoons/peppa_pig",
            "thumbnail": "https://i.ytimg.com/vi/8Oehhxckzl0/hq720.jpg"
        },
        {
            "id": "QTPlf0ecvyE",
            "title": "🔴  NEWEST Peppa Pig Episodes 2026 ✨ SEASON 10 Holiday Adventures ☀️ Kids Movie 🔴",
            "url": "https://www.youtube.com/watch?v=QTPlf0ecvyE",
            "duration": 0,
            "view_count": 0,
            "uploader": "Peppa Pig - Official Channel",
            "category": "cartoons/peppa_pig",
            "thumbnail": "https://i.ytimg.com/vi/QTPlf0ecvyE/hq720.jpg"
        },
        {
            "id": "RQe5jbKatDw",
            "title": "Peppa Pig NEW BABY EVIE Episodes LIVE 🍼 Cutest & Funniest Moments 🥹💛 Kids Cartoons",
            "url": "https://www.youtube.com/watch?v=RQe5jbKatDw",
            "duration": 0,
            "view_count": 0,
            "uploader": "Peppa Pig - Official Channel",
            "category": "cartoons/peppa_pig",
            "thumbnail": "https://i.ytimg.com/vi/RQe5jbKatDw/hq720.jpg"
        },
        {
            "id": "jMEuyo2UmZY",
            "title": "🔴 BEST of George 2026 LIVE! 🦖 Peppa Pig Mini Movie 🍿 Kids Cartoons 🔴",
            "url": "https://www.youtube.com/watch?v=jMEuyo2UmZY",
            "duration": 0,
            "view_count": 0,
            "uploader": "Peppa Pig - Official Channel",
            "category": "cartoons/peppa_pig",
            "thumbnail": "https://i.ytimg.com/vi/jMEuyo2UmZY/hq720.jpg"
        },
        {
            "id": "lDMX2tE3ZEo",
            "title": "🔴  NEWEST Peppa Pig Episodes 2026 ✨ SEASON 10 Holiday Adventures ☀️ Kids Movie 🔴",
            "url": "https://www.youtube.com/watch?v=lDMX2tE3ZEo",
            "duration": 0,
            "view_count": 0,
            "uploader": "Peppa Pig - Official Channel",
            "category": "cartoons/peppa_pig",
            "thumbnail": "https://i.ytimg.com/vi/lDMX2tE3ZEo/hq720.jpg"
        },
        {
            "id": "8M8q1u1LvmE",
            "title": "Peppa Pig NEW BABY EVIE Episodes LIVE 🍼 Cutest & Funniest Moments 🥹💛 Kids Cartoons",
            "url": "https://www.youtube.com/watch?v=8M8q1u1LvmE",
            "duration": 0,
            "view_count": 0,
            "uploader": "Peppa Pig - Official Channel",
            "category": "cartoons/peppa_pig",
            "thumbnail": "https://i.ytimg.com/vi/8M8q1u1LvmE/hq720.jpg"
        },
        {
            "id": "FewueOPwFEM",
            "title": "🔴  NEWEST Peppa Pig Episodes 2026 ✨ SEASON 10 Holiday Adventures ☀️ Kids Movie 🔴",
            "url": "https://www.youtube.com/watch?v=FewueOPwFEM",
            "duration": 0,
            "view_count": 0,
            "uploader": "Peppa Pig - Official Channel",
            "category": "cartoons/peppa_pig",
            "thumbnail": "https://i.ytimg.com/vi/FewueOPwFEM/hq720.jpg"
        },
        {
            "id": "cJdgMJXQL1s",
            "title": "Peppa Pig in Hindi - Board Games - बोर्ड गेम्स - हिंदी Kahaniya - Hindi Cartoons for Kids",
            "url": "https://www.youtube.com/watch?v=cJdgMJXQL1s",
            "duration": 2895.0,
            "view_count": 1981468,
            "uploader": "पेप्पा पिग हिंदी - आधिकारिक चैनल",
            "category": "cartoons/peppa_pig",
            "thumbnail": "https://i.ytimg.com/vi/cJdgMJXQL1s/hq720.jpg"
        },
        {
            "id": "E2STR_Dj71M",
            "title": "Peppa Pig NEW BABY EVIE Episodes LIVE 🍼 Cutest & Funniest Moments 🥹💛 Kids Cartoons",
            "url": "https://www.youtube.com/watch?v=E2STR_Dj71M",
            "duration": 0,
            "view_count": 0,
            "uploader": "Peppa Pig - Official Channel",
            "category": "cartoons/peppa_pig",
            "thumbnail": "https://i.ytimg.com/vi/E2STR_Dj71M/hq720.jpg"
        },
        {
            "id": "EioVenW0gLU",
            "title": "Peppa Pig NEW BABY EVIE Episodes LIVE 🍼 Cutest & Funniest Moments 🥹💛 Kids Cartoons",
            "url": "https://www.youtube.com/watch?v=EioVenW0gLU",
            "duration": 0,
            "view_count": 0,
            "uploader": "Peppa Pig - Official Channel",
            "category": "cartoons/peppa_pig",
            "thumbnail": "https://i.ytimg.com/vi/EioVenW0gLU/hq720.jpg"
        },
        {
            "id": "lyYE3nximas",
            "title": "Peppa Pig in Hindi - Mera Janamdin ki Party - हिंदी Kahaniya - Hindi Cartoons for Kids",
            "url": "https://www.youtube.com/watch?v=lyYE3nximas",
            "duration": 1930.0,
            "view_count": 167689654,
            "uploader": "पेप्पा पिग हिंदी - आधिकारिक चैनल",
            "category": "cartoons/peppa_pig",
            "thumbnail": "https://i.ytimg.com/vi/lyYE3nximas/hq720.jpg"
        },
        {
            "id": "pPUOXaE4RcU",
            "title": "SECRET Diary 📔 Peppa's Private Journal 🔒 Peppa Pig Full Episodes | 45 Minutes Mini Movie",
            "url": "https://www.youtube.com/watch?v=pPUOXaE4RcU",
            "duration": 2697.0,
            "view_count": 29428,
            "uploader": "Peppa Pig - Official Channel",
            "category": "cartoons/peppa_pig",
            "thumbnail": "https://i.ytimg.com/vi/pPUOXaE4RcU/hq720.jpg"
        },
        {
            "id": "E0ZE9a0DC-s",
            "title": "Peppa Pig in Hindi - Nyoo Shooj - हिंदी Kahaniya - Hindi Cartoons for Kids",
            "url": "https://www.youtube.com/watch?v=E0ZE9a0DC-s",
            "duration": 3743.0,
            "view_count": 4516302,
            "uploader": "पेप्पा पिग हिंदी - आधिकारिक चैनल",
            "category": "cartoons/peppa_pig",
            "thumbnail": "https://i.ytimg.com/vi/E0ZE9a0DC-s/hq720.jpg"
        },
        {
            "id": "OyKngTmpkAg",
            "title": "🔴 BRAND NEW PEPPA PIG TALES EPISODES 🐽 ALL New Season 3  ✨📺  | New House, New Car, New Bedroom!",
            "url": "https://www.youtube.com/watch?v=OyKngTmpkAg",
            "duration": 0,
            "view_count": 0,
            "uploader": "Peppa Pig Tales",
            "category": "cartoons/peppa_pig",
            "thumbnail": "https://i.ytimg.com/vi/OyKngTmpkAg/hq720.jpg"
        },
        {
            "id": "9riXLszeD8E",
            "title": "Peppa Spies on SLOTH 🦥 Peppa Pig Full Episodes | 2 Hours of Kids Cartoons",
            "url": "https://www.youtube.com/watch?v=9riXLszeD8E",
            "duration": 7215.0,
            "view_count": 242419,
            "uploader": "Peppa Pig - Official Channel",
            "category": "cartoons/peppa_pig",
            "thumbnail": "https://i.ytimg.com/vi/9riXLszeD8E/hq720.jpg"
        },
        {
            "id": "7JcQrTsr2ig",
            "title": "Peppa Pig NEW BABY EVIE Episodes LIVE 🍼 Cutest & Funniest Moments 🥹💛 Kids Cartoons",
            "url": "https://www.youtube.com/watch?v=7JcQrTsr2ig",
            "duration": 0,
            "view_count": 0,
            "uploader": "Peppa Pig - Official Channel",
            "category": "cartoons/peppa_pig",
            "thumbnail": "https://i.ytimg.com/vi/7JcQrTsr2ig/hq720.jpg"
        },
        {
            "id": "zenxdiJ9Xhs",
            "title": "🔴 BEST of George 2026 LIVE! 🦖 Peppa Pig Mini Movie 🍿 Kids Cartoons 🔴",
            "url": "https://www.youtube.com/watch?v=zenxdiJ9Xhs",
            "duration": 0,
            "view_count": 0,
            "uploader": "Peppa Pig - Official Channel",
            "category": "cartoons/peppa_pig",
            "thumbnail": "https://i.ytimg.com/vi/zenxdiJ9Xhs/hq720.jpg"
        },
        {
            "id": "8c-tTykjkYE",
            "title": "Peppa Pig NEW BABY EVIE Episodes LIVE 🍼 Cutest & Funniest Moments 🥹💛 Kids Cartoons",
            "url": "https://www.youtube.com/watch?v=8c-tTykjkYE",
            "duration": 0,
            "view_count": 0,
            "uploader": "Peppa Pig - Official Channel",
            "category": "cartoons/peppa_pig",
            "thumbnail": "https://i.ytimg.com/vi/8c-tTykjkYE/hq720.jpg"
        },
        {
            "id": "Ekh8EfMBsv4",
            "title": "Peppa Pig in Hindi - Kathaputalee Sho - हिंदी Kahaniya - Hindi Cartoons for Kids",
            "url": "https://www.youtube.com/watch?v=Ekh8EfMBsv4",
            "duration": 3744.0,
            "view_count": 12541451,
            "uploader": "पेप्पा पिग हिंदी - आधिकारिक चैनल",
            "category": "cartoons/peppa_pig",
            "thumbnail": "https://i.ytimg.com/vi/Ekh8EfMBsv4/hq720.jpg"
        },
        {
            "id": "2YQPKhoiLXs",
            "title": "Peppa Pig NEW BABY EVIE Episodes LIVE 🍼 Cutest & Funniest Moments 🥹💛 Kids Cartoons",
            "url": "https://www.youtube.com/watch?v=2YQPKhoiLXs",
            "duration": 0,
            "view_count": 0,
            "uploader": "Peppa Pig - Official Channel",
            "category": "cartoons/peppa_pig",
            "thumbnail": "https://i.ytimg.com/vi/2YQPKhoiLXs/hq720.jpg"
        },
        {
            "id": "CvpywuY4fuA",
            "title": "Peppa Pig NEW BABY EVIE Episodes LIVE 🍼 Cutest & Funniest Moments 🥹💛 Kids Cartoons",
            "url": "https://www.youtube.com/watch?v=CvpywuY4fuA",
            "duration": 0,
            "view_count": 0,
            "uploader": "Peppa Pig - Official Channel",
            "category": "cartoons/peppa_pig",
            "thumbnail": "https://i.ytimg.com/vi/CvpywuY4fuA/hq720.jpg"
        },
        {
            "id": "_kWH1a5HdZM",
            "title": "Daddy, is that you? - Peppa Compilation Animation",
            "url": "https://www.youtube.com/watch?v=_kWH1a5HdZM",
            "duration": 667.0,
            "view_count": 13501371,
            "uploader": "NativeShow - Animation",
            "category": "cartoons/peppa_pig",
            "thumbnail": "https://i.ytimg.com/vi/_kWH1a5HdZM/hq720.jpg"
        },
        {
            "id": "TGFDO9Xxw_g",
            "title": "Peppa Pig in Hindi - Skool Me Khel Ka Sthaan - हिंदी Kahaniya - Hindi Cartoons for Kids",
            "url": "https://www.youtube.com/watch?v=TGFDO9Xxw_g",
            "duration": 4012.0,
            "view_count": 12029021,
            "uploader": "पेप्पा पिग हिंदी - आधिकारिक चैनल",
            "category": "cartoons/peppa_pig",
            "thumbnail": "https://i.ytimg.com/vi/TGFDO9Xxw_g/hq720.jpg"
        },
        {
            "id": "4zNwirULhOk",
            "title": "Peppa Pig NEW BABY EVIE Episodes LIVE 🍼 Cutest & Funniest Moments 🥹💛 Kids Cartoons",
            "url": "https://www.youtube.com/watch?v=4zNwirULhOk",
            "duration": 0,
            "view_count": 0,
            "uploader": "Peppa Pig - Official Channel",
            "category": "cartoons/peppa_pig",
            "thumbnail": "https://i.ytimg.com/vi/4zNwirULhOk/hq720.jpg"
        },
        {
            "id": "4GcQfH_BTzA",
            "title": "Peppa Pig in Hindi - Valentine's Day Pizza - वैलेंटाइन्स डे के लिए पिज़्ज़ा - हिंदी Kahaniya - Hindi",
            "url": "https://www.youtube.com/watch?v=4GcQfH_BTzA",
            "duration": 3626.0,
            "view_count": 0,
            "uploader": "पेप्पा पिग हिंदी - आधिकारिक चैनल",
            "category": "cartoons/peppa_pig",
            "thumbnail": "https://i.ytimg.com/vi/4GcQfH_BTzA/hq720.jpg"
        },
        {
            "id": "HoQh919d-_U",
            "title": "Peppa Pig NEW BABY EVIE Episodes LIVE 🍼 Cutest & Funniest Moments 🥹💛 Kids Cartoons",
            "url": "https://www.youtube.com/watch?v=HoQh919d-_U",
            "duration": 0,
            "view_count": 0,
            "uploader": "Peppa Pig - Official Channel",
            "category": "cartoons/peppa_pig",
            "thumbnail": "https://i.ytimg.com/vi/HoQh919d-_U/hq720.jpg"
        },
        {
            "id": "6uFISo3Ey0E",
            "title": "Peppa Pig in Hindi - Pancakes - हिंदी Kahaniya - Hindi Cartoons for Kids",
            "url": "https://www.youtube.com/watch?v=6uFISo3Ey0E",
            "duration": 3823.0,
            "view_count": 42566268,
            "uploader": "पेप्पा पिग हिंदी - आधिकारिक चैनल",
            "category": "cartoons/peppa_pig",
            "thumbnail": "https://i.ytimg.com/vi/6uFISo3Ey0E/hq720.jpg"
        },
        {
            "id": "P891vrlSTYE",
            "title": "Peppa Pig NEW BABY EVIE Episodes LIVE 🍼 Cutest & Funniest Moments 🥹💛 Kids Cartoons",
            "url": "https://www.youtube.com/watch?v=P891vrlSTYE",
            "duration": 0,
            "view_count": 0,
            "uploader": "Peppa Pig - Official Channel",
            "category": "cartoons/peppa_pig",
            "thumbnail": "https://i.ytimg.com/vi/P891vrlSTYE/hq720.jpg"
        },
        {
            "id": "zECk1djaSUI",
            "title": "🔴 BRAND NEW PEPPA PIG TALES EPISODES 🐽 ALL New Season 3  ✨📺  | New House, New Car, New Bedroom!",
            "url": "https://www.youtube.com/watch?v=zECk1djaSUI",
            "duration": 0,
            "view_count": 0,
            "uploader": "Peppa Pig Tales",
            "category": "cartoons/peppa_pig",
            "thumbnail": "https://i.ytimg.com/vi/zECk1djaSUI/hq720.jpg"
        },
        {
            "id": "aHLVNundWc0",
            "title": "Peppa Pig NEW BABY EVIE Episodes LIVE 🍼 Cutest & Funniest Moments 🥹💛 Kids Cartoons",
            "url": "https://www.youtube.com/watch?v=aHLVNundWc0",
            "duration": 0,
            "view_count": 0,
            "uploader": "Peppa Pig - Official Channel",
            "category": "cartoons/peppa_pig",
            "thumbnail": "https://i.ytimg.com/vi/aHLVNundWc0/hq720.jpg"
        }
    ]
}