{
    "page": 58,
    "total_pages": 103,
    "total_items": 5125,
    "items": [
        {
            "id": "Pye-e4UMoZk",
            "title": "Doraemon Hindi Full Episode 2026 | Without Crop | HD Quality",
            "url": "https://www.youtube.com/watch?v=Pye-e4UMoZk",
            "duration": 1206.0,
            "view_count": 4,
            "uploader": "Cartoon Rizz",
            "category": "cartoons/doraemon",
            "thumbnail": "https://i.ytimg.com/vi/Pye-e4UMoZk/hq720.jpg"
        },
        {
            "id": "Txa0ksN19A8",
            "title": "Doraemon Cartoon Today New Episode 2026",
            "url": "https://www.youtube.com/watch?v=Txa0ksN19A8",
            "duration": 2285.0,
            "view_count": 39280,
            "uploader": "Ronaldo Fans",
            "category": "cartoons/doraemon",
            "thumbnail": "https://i.ytimg.com/vi/Txa0ksN19A8/hq720_custom_1.jpg"
        },
        {
            "id": "qPTh_mMJRfk",
            "title": "Doraemon New Episode In Hindi | Doraemon Cartoon Today Full Episode",
            "url": "https://www.youtube.com/watch?v=qPTh_mMJRfk",
            "duration": 1739.0,
            "view_count": 1754,
            "uploader": "DreamyToon Land",
            "category": "cartoons/doraemon",
            "thumbnail": "https://i.ytimg.com/vi/qPTh_mMJRfk/hqdefault.jpg"
        },
        {
            "id": "4OJCLcj18AA",
            "title": "Doraemon New Episode 2026 - Doraemon Cartoon Hindi - Doraemon In Hindi - Doraemon Now Movie",
            "url": "https://www.youtube.com/watch?v=4OJCLcj18AA",
            "duration": 2762.0,
            "view_count": 7578,
            "uploader": "mera deen ",
            "category": "cartoons/doraemon",
            "thumbnail": "https://i.ytimg.com/vi/4OJCLcj18AA/hq720.jpg"
        },
        {
            "id": "MxzLSl9tuaA",
            "title": "Doraemon New Episode Today in Hindi 2026",
            "url": "https://www.youtube.com/watch?v=MxzLSl9tuaA",
            "duration": 1634.0,
            "view_count": 19249,
            "uploader": "ide nama bayi",
            "category": "cartoons/doraemon",
            "thumbnail": "https://i.ytimg.com/vi/MxzLSl9tuaA/hqdefault.jpg"
        },
        {
            "id": "yAAZfLx8c40",
            "title": "Doraemon New Episode In Hindi | Doraemon Cartoon Today Full Episode",
            "url": "https://www.youtube.com/watch?v=yAAZfLx8c40",
            "duration": 773.0,
            "view_count": 47018,
            "uploader": "AgeWise",
            "category": "cartoons/doraemon",
            "thumbnail": "https://i.ytimg.com/vi/yAAZfLx8c40/hqdefault.jpg"
        },
        {
            "id": "zugHxFgfA-g",
            "title": "Doraemon Latest Episode 2026 | Dubbed | No Zoom Effect Full episode Hindi",
            "url": "https://www.youtube.com/watch?v=zugHxFgfA-g",
            "duration": 2331.0,
            "view_count": 47448,
            "uploader": "Md Jihad",
            "category": "cartoons/shinchan",
            "thumbnail": "https://i.ytimg.com/vi/zugHxFgfA-g/hqdefault.jpg"
        },
        {
            "id": "w9F5rvCzHa8",
            "title": "Doreamon Season 21 episode  in Hindi dubbed #doreamon #nobita #doreamon",
            "url": "https://www.youtube.com/watch?v=w9F5rvCzHa8",
            "duration": 1954.0,
            "view_count": 46570,
            "uploader": "dunya e ikh",
            "category": "cartoons/doraemon",
            "thumbnail": "https://i.ytimg.com/vi/w9F5rvCzHa8/hqdefault.jpg"
        },
        {
            "id": "DcWzGn0rq_8",
            "title": "Doraemon Cartoon Today New Episode 2026",
            "url": "https://www.youtube.com/watch?v=DcWzGn0rq_8",
            "duration": 2178.0,
            "view_count": 9610,
            "uploader": "Ronaldo CR",
            "category": "cartoons/doraemon",
            "thumbnail": "https://i.ytimg.com/vi/DcWzGn0rq_8/hq720.jpg"
        },
        {
            "id": "kgzL0BznxrY",
            "title": "Doraemon New Episode In Hindi | Doraemon Cartoon Today Full Episode",
            "url": "https://www.youtube.com/watch?v=kgzL0BznxrY",
            "duration": 8459.0,
            "view_count": 36823,
            "uploader": "Lost Melody",
            "category": "cartoons/doraemon",
            "thumbnail": "https://i.ytimg.com/vi/kgzL0BznxrY/hq720.jpg"
        },
        {
            "id": "aTVcq0x8G7Q",
            "title": "Doraemon New Episode 2026 - Doraemon Cartoon Hindi - Doraemon In Hindi - Doraemon Now Movie",
            "url": "https://www.youtube.com/watch?v=aTVcq0x8G7Q",
            "duration": 1668.0,
            "view_count": 23514,
            "uploader": "tawaqal acha ",
            "category": "cartoons/doraemon",
            "thumbnail": "https://i.ytimg.com/vi/aTVcq0x8G7Q/hqdefault.jpg"
        },
        {
            "id": "77_xsnBCg84",
            "title": "Doraemon in Hindi | doraemon new ep in hindi | doraemon episodes",
            "url": "https://www.youtube.com/watch?v=77_xsnBCg84",
            "duration": 1364.0,
            "view_count": 40793,
            "uploader": "Noorwave",
            "category": "cartoons/doraemon",
            "thumbnail": "https://i.ytimg.com/vi/77_xsnBCg84/hqdefault.jpg"
        },
        {
            "id": "H0dpOAXTOoA",
            "title": "Doraemon in hindi | doraemon all new episodes in hindi | draemon new ep",
            "url": "https://www.youtube.com/watch?v=H0dpOAXTOoA",
            "duration": 1752.0,
            "view_count": 47910,
            "uploader": "Noorwave",
            "category": "cartoons/doraemon",
            "thumbnail": "https://i.ytimg.com/vi/H0dpOAXTOoA/hqdefault.jpg"
        },
        {
            "id": "-u2XeHjm7iQ",
            "title": "Doraemon 4K Full Episode In Hindi | Doreamon Cartoon #doraemon ",
            "url": "https://www.youtube.com/watch?v=-u2XeHjm7iQ",
            "duration": 929.0,
            "view_count": 994256,
            "uploader": "Doreamon Episodes",
            "category": "cartoons/doraemon",
            "thumbnail": "https://i.ytimg.com/vi/-u2XeHjm7iQ/hq720.jpg"
        },
        {
            "id": "-603elP1RR0",
            "title": "Doraemon Latest Episode 2026 |Hindi Dubbed | No Zoom Effect Full Episode Hindi",
            "url": "https://www.youtube.com/watch?v=-603elP1RR0",
            "duration": 2549.0,
            "view_count": 69561,
            "uploader": "Islamic Duaaa",
            "category": "cartoons/shinchan",
            "thumbnail": "https://i.ytimg.com/vi/-603elP1RR0/hqdefault.jpg"
        },
        {
            "id": "52JGVTqouQ4",
            "title": "Doraemon Cartoon Today New Episode 2026",
            "url": "https://www.youtube.com/watch?v=52JGVTqouQ4",
            "duration": 2169.0,
            "view_count": 14172,
            "uploader": "Islamic State",
            "category": "cartoons/doraemon",
            "thumbnail": "https://i.ytimg.com/vi/52JGVTqouQ4/hq720.jpg"
        },
        {
            "id": "6a5-poxs9_w",
            "title": "Doraemon Old episode In Hindi Without Zoom Effect ll Cartoon  2025",
            "url": "https://www.youtube.com/watch?v=6a5-poxs9_w",
            "duration": 662.0,
            "view_count": 106689,
            "uploader": "Jagdish Anime Official",
            "category": "cartoons/doraemon",
            "thumbnail": "https://i.ytimg.com/vi/6a5-poxs9_w/hq720.jpg"
        },
        {
            "id": "6kb2ZLVNc_0",
            "title": "Doraemon Latest Episode 2026 |Hindi Dubbed | No Zoom Effect Full Episode Hindi",
            "url": "https://www.youtube.com/watch?v=6kb2ZLVNc_0",
            "duration": 2445.0,
            "view_count": 28191,
            "uploader": "Rahman Uddin",
            "category": "cartoons/shinchan",
            "thumbnail": "https://i.ytimg.com/vi/6kb2ZLVNc_0/hqdefault.jpg"
        },
        {
            "id": "oFOcEUkcN0Y",
            "title": "Doraemon Latest Episode 2026 |Hindi Dubbed | No Zoom Effect Full Episode Hindi",
            "url": "https://www.youtube.com/watch?v=oFOcEUkcN0Y",
            "duration": 2440.0,
            "view_count": 29662,
            "uploader": "Saad Mma",
            "category": "cartoons/shinchan",
            "thumbnail": "https://i.ytimg.com/vi/oFOcEUkcN0Y/hq720.jpg"
        },
        {
            "id": "mKqHzVEHkjE",
            "title": "Doraemon Cartoon Today New Episode 2026",
            "url": "https://www.youtube.com/watch?v=mKqHzVEHkjE",
            "duration": 3079.0,
            "view_count": 31903,
            "uploader": "Islamic Naat Studio ",
            "category": "cartoons/doraemon",
            "thumbnail": "https://i.ytimg.com/vi/mKqHzVEHkjE/hq720.jpg"
        },
        {
            "id": "nxYiMqlNdFs",
            "title": " Doreamon New Episode Today 2026 | Doraemon in Hindi ",
            "url": "https://www.youtube.com/watch?v=nxYiMqlNdFs",
            "duration": 1848.0,
            "view_count": 46651,
            "uploader": "Slow Adict",
            "category": "cartoons/doraemon",
            "thumbnail": "https://i.ytimg.com/vi/nxYiMqlNdFs/hqdefault.jpg"
        },
        {
            "id": "9dZ9Dl7Z5xE",
            "title": "Doraemon New Episode in Hindi 2026 | Doraemon Cartoon",
            "url": "https://www.youtube.com/watch?v=9dZ9Dl7Z5xE",
            "duration": 2996.0,
            "view_count": 84369,
            "uploader": "Rabi official ",
            "category": "cartoons/doraemon",
            "thumbnail": "https://i.ytimg.com/vi/9dZ9Dl7Z5xE/hqdefault.jpg"
        },
        {
            "id": "AZw57Nbc1MQ",
            "title": "Doraemon Latest Episode 2026 |Hindi Dubbed | No Zoom Effect Full New Episode Hindi",
            "url": "https://www.youtube.com/watch?v=AZw57Nbc1MQ",
            "duration": 2382.0,
            "view_count": 17368,
            "uploader": "Moni Apu",
            "category": "cartoons/doraemon",
            "thumbnail": "https://i.ytimg.com/vi/AZw57Nbc1MQ/hqdefault.jpg"
        },
        {
            "id": "txc3j3aIhvg",
            "title": "Doraemon Cartoon Today New Episode 2026",
            "url": "https://www.youtube.com/watch?v=txc3j3aIhvg",
            "duration": 3163.0,
            "view_count": 49092,
            "uploader": "Maroofch",
            "category": "cartoons/doraemon",
            "thumbnail": "https://i.ytimg.com/vi/txc3j3aIhvg/hq720.jpg"
        },
        {
            "id": "5QJfOv9_4uM",
            "title": "Doraemon Latest Episode 2026 |Hindi Dubbed | No Zoom Effect Full Episode Hindi",
            "url": "https://www.youtube.com/watch?v=5QJfOv9_4uM",
            "duration": 1611.0,
            "view_count": 37040,
            "uploader": "ByteWise Explainer",
            "category": "cartoons/doraemon",
            "thumbnail": "https://i.ytimg.com/vi/5QJfOv9_4uM/hqdefault.jpg"
        },
        {
            "id": "oIF2qUmjXSk",
            "title": "Doraemon New Episode in Hindi Big Bug Hero- Doraemon Cartoon - Doreamon Movie",
            "url": "https://www.youtube.com/watch?v=oIF2qUmjXSk",
            "duration": 672.0,
            "view_count": 205449,
            "uploader": "Toon Titans",
            "category": "cartoons/doraemon",
            "thumbnail": "https://i.ytimg.com/vi/oIF2qUmjXSk/hq720.jpg"
        },
        {
            "id": "8IKEIr-sX6k",
            "title": "Doraemon New Episode in Hindi 2026 | Doraemon Cartoon",
            "url": "https://www.youtube.com/watch?v=8IKEIr-sX6k",
            "duration": 1979.0,
            "view_count": 33849,
            "uploader": "Champooo Love",
            "category": "cartoons/doraemon",
            "thumbnail": "https://i.ytimg.com/vi/8IKEIr-sX6k/hqdefault.jpg"
        },
        {
            "id": "q3K8tbmirLw",
            "title": "Doraemon Cartoon Today New Episode 2026",
            "url": "https://www.youtube.com/watch?v=q3K8tbmirLw",
            "duration": 2204.0,
            "view_count": 37890,
            "uploader": "Ronaldo Ch",
            "category": "cartoons/doraemon",
            "thumbnail": "https://i.ytimg.com/vi/q3K8tbmirLw/hq720.jpg"
        },
        {
            "id": "xB8F0SSSdDM",
            "title": "Doraemon New Episode in Hindi 2026 | Doraemon Cartoon",
            "url": "https://www.youtube.com/watch?v=xB8F0SSSdDM",
            "duration": 2603.0,
            "view_count": 67819,
            "uploader": "Elite Watchtower",
            "category": "cartoons/doraemon",
            "thumbnail": "https://i.ytimg.com/vi/xB8F0SSSdDM/hq720.jpg"
        },
        {
            "id": "PbH9VV6zuDo",
            "title": "Doraemon New Episode In Hindi | Doraemon Cartoon Today Full Episode | HD 4K ",
            "url": "https://www.youtube.com/watch?v=PbH9VV6zuDo",
            "duration": 2756.0,
            "view_count": 12572,
            "uploader": "RedStar Motors",
            "category": "cartoons/doraemon",
            "thumbnail": "https://i.ytimg.com/vi/PbH9VV6zuDo/hqdefault.jpg"
        },
        {
            "id": "va8txOF8g-M",
            "title": "Doraemon new episode in hindi | New episodes of Doraemon ",
            "url": "https://www.youtube.com/watch?v=va8txOF8g-M",
            "duration": 2305.0,
            "view_count": 29959,
            "uploader": "Tahir Khan",
            "category": "cartoons/doraemon",
            "thumbnail": "https://i.ytimg.com/vi/va8txOF8g-M/hqdefault.jpg"
        },
        {
            "id": "ge0WOTHLD48",
            "title": "Doraemon Latest Episode 2026 |Hindi Dubbed | No Zoom Effect Full Episode Hindi",
            "url": "https://www.youtube.com/watch?v=ge0WOTHLD48",
            "duration": 2452.0,
            "view_count": 30612,
            "uploader": "Sanu Babu",
            "category": "cartoons/shinchan",
            "thumbnail": "https://i.ytimg.com/vi/ge0WOTHLD48/hqdefault.jpg"
        },
        {
            "id": "L72Nzk4ufLo",
            "title": "Doraemon  New Episode In Hindi | Doraemon Cartoon Today Full Episode",
            "url": "https://www.youtube.com/watch?v=L72Nzk4ufLo",
            "duration": 1154.0,
            "view_count": 547,
            "uploader": "ClapHitz",
            "category": "cartoons/doraemon",
            "thumbnail": "https://i.ytimg.com/vi/L72Nzk4ufLo/hqdefault.jpg"
        },
        {
            "id": "sx6nMisf7iA",
            "title": "Doraemon New Episode In Hindi | Doraemon Cartoon |",
            "url": "https://www.youtube.com/watch?v=sx6nMisf7iA",
            "duration": 897.0,
            "view_count": 54608,
            "uploader": "Farce Tech ",
            "category": "cartoons/doraemon",
            "thumbnail": "https://i.ytimg.com/vi/sx6nMisf7iA/hq720.jpg"
        },
        {
            "id": "IJXR9KCFF-0",
            "title": "Doraemon New Episode In Hindi Today Full Episode 2026 #doraemon",
            "url": "https://www.youtube.com/watch?v=IJXR9KCFF-0",
            "duration": 2829.0,
            "view_count": 139,
            "uploader": "Najmul Bro ",
            "category": "cartoons/doraemon",
            "thumbnail": "https://i.ytimg.com/vi/IJXR9KCFF-0/hqdefault.jpg"
        },
        {
            "id": "GMOcVtelkns",
            "title": "Doraemon New  Episode 04-09-2024 Doraemon Cartoon Doraemon in Hindi Doraemon Movie",
            "url": "https://www.youtube.com/watch?v=GMOcVtelkns",
            "duration": 1361.0,
            "view_count": 572858,
            "uploader": "Aman Choudhary",
            "category": "cartoons/doraemon",
            "thumbnail": "https://i.ytimg.com/vi/GMOcVtelkns/hqdefault.jpg"
        },
        {
            "id": "7YNnkDD6h3s",
            "title": "Doraemon in hindi without zoom effect, Doraemon old episode without zoom effect",
            "url": "https://www.youtube.com/watch?v=7YNnkDD6h3s",
            "duration": 644.0,
            "view_count": 131807,
            "uploader": "Bongo Bd Local",
            "category": "cartoons/doraemon",
            "thumbnail": "https://i.ytimg.com/vi/7YNnkDD6h3s/hqdefault.jpg"
        },
        {
            "id": "WtCuuN7-svg",
            "title": "Doraemon New Episode in Hindi |  Doraemon cartoon today Latest Episode No Zoom Effect",
            "url": "https://www.youtube.com/watch?v=WtCuuN7-svg",
            "duration": 2524.0,
            "view_count": 15164,
            "uploader": "RDpage",
            "category": "cartoons/doraemon",
            "thumbnail": "https://i.ytimg.com/vi/WtCuuN7-svg/hq720.jpg"
        },
        {
            "id": "G5shGQsLG5w",
            "title": "Doraemon 4K Full Episode In Hindi |Doreamon Cartoon |#doraemon",
            "url": "https://www.youtube.com/watch?v=G5shGQsLG5w",
            "duration": 1200.0,
            "view_count": 16990,
            "uploader": "Noor-e-Islam 786",
            "category": "cartoons/doraemon",
            "thumbnail": "https://i.ytimg.com/vi/G5shGQsLG5w/hq720.jpg"
        },
        {
            "id": "joB8d_pkQGI",
            "title": "Doraemon New Episode in Hindi - Doremon New Ep Cartoon - Doraemon Movie 2026",
            "url": "https://www.youtube.com/watch?v=joB8d_pkQGI",
            "duration": 1578.0,
            "view_count": 16386,
            "uploader": "Bangladeshi",
            "category": "cartoons/doraemon",
            "thumbnail": "https://i.ytimg.com/vi/joB8d_pkQGI/hqdefault.jpg"
        },
        {
            "id": "ReG0fMxiC4c",
            "title": "Doreaamon Latest Episode 2026 |Hindi Dubbed | No Zoom Effect Full Episode Hindi #doraemoncartoon",
            "url": "https://www.youtube.com/watch?v=ReG0fMxiC4c",
            "duration": 2148.0,
            "view_count": 111,
            "uploader": "Msudais Gamerz",
            "category": "cartoons/doraemon",
            "thumbnail": "https://i.ytimg.com/vi/ReG0fMxiC4c/hq720.jpg"
        },
        {
            "id": "4Z4CctMcJqI",
            "title": "Doraemon New Episode in Hindi | Doraemon cartoon today Latest Episode No Zoom Effect 2026 Latest",
            "url": "https://www.youtube.com/watch?v=4Z4CctMcJqI",
            "duration": 1360.0,
            "view_count": 23737,
            "uploader": "Human Side News",
            "category": "cartoons/doraemon",
            "thumbnail": "https://i.ytimg.com/vi/4Z4CctMcJqI/hqdefault.jpg"
        },
        {
            "id": "6UaA2leHCQk",
            "title": "Doraemon Latest Episode 2026 |Hindi Dubbed | No Zoom Effect Full Episode Hindi #doremon",
            "url": "https://www.youtube.com/watch?v=6UaA2leHCQk",
            "duration": 2473.0,
            "view_count": 4366,
            "uploader": "FunPopCulture ",
            "category": "cartoons/shinchan",
            "thumbnail": "https://i.ytimg.com/vi/6UaA2leHCQk/hq720.jpg"
        },
        {
            "id": "uqERbo278bs",
            "title": "Doraemon New Episode in Hindi |  Doraemon cartoon today Latest Episode | doraemon No  Zoom Effect",
            "url": "https://www.youtube.com/watch?v=uqERbo278bs",
            "duration": 2524.0,
            "view_count": 18169,
            "uploader": "Nalain Love",
            "category": "cartoons/doraemon",
            "thumbnail": "https://i.ytimg.com/vi/uqERbo278bs/hq720.jpg"
        },
        {
            "id": "EC6dXfj-Oao",
            "title": "Doremon Second Episode | 2 Episode in Hindi | Full video",
            "url": "https://www.youtube.com/watch?v=EC6dXfj-Oao",
            "duration": 1295.0,
            "view_count": 165408,
            "uploader": "EDITOON",
            "category": "cartoons/doraemon",
            "thumbnail": "https://i.ytimg.com/vi/EC6dXfj-Oao/hqdefault.jpg"
        },
        {
            "id": "Y2VAkoWPcC8",
            "title": "Doraemon New Episode in Hindi | Doraemon cartoon today Latest Episode No Zoom Effect 2026 Latest",
            "url": "https://www.youtube.com/watch?v=Y2VAkoWPcC8",
            "duration": 1093.0,
            "view_count": 24011,
            "uploader": "Anas",
            "category": "cartoons/doraemon",
            "thumbnail": "https://i.ytimg.com/vi/Y2VAkoWPcC8/hq720.jpg"
        },
        {
            "id": "vuSAffPez4M",
            "title": "Doraemon Episode 01 Season 10 | Hindi Dub | Full Episode | Disney India Channel HD",
            "url": "https://www.youtube.com/watch?v=vuSAffPez4M",
            "duration": 1401.0,
            "view_count": 92,
            "uploader": "DISNEY INDIA  CHANNEL HD",
            "category": "cartoons/doraemon",
            "thumbnail": "https://i.ytimg.com/vi/vuSAffPez4M/hqdefault.jpg"
        },
        {
            "id": "oCpJtyBWTes",
            "title": "DORAEMON NEW EPISODE 2023 || DORAEMON IN HIND || DORAEMON FULL MOVIE #doraemon #nobita",
            "url": "https://www.youtube.com/watch?v=oCpJtyBWTes",
            "duration": 600.0,
            "view_count": 4599135,
            "uploader": "op toons india ⚫ 6.3M views....",
            "category": "cartoons/doraemon",
            "thumbnail": "https://i.ytimg.com/vi/oCpJtyBWTes/hqdefault.jpg"
        },
        {
            "id": "5sx7dA6ztBs",
            "title": "Doreaamon Latest Episode 2026 |Hindi Dubbed | No Zoom Effect Full Episode Hindi #doraemon",
            "url": "https://www.youtube.com/watch?v=5sx7dA6ztBs",
            "duration": 2011.0,
            "view_count": 16814,
            "uploader": "Islamic Vedios . 10m views",
            "category": "cartoons/shinchan",
            "thumbnail": "https://i.ytimg.com/vi/5sx7dA6ztBs/hqdefault.jpg"
        },
        {
            "id": "dXan66Q7eyA",
            "title": "Doreaamon Latest Episode 2026 |Hindi Dubbed | No Zoom Effect Full Episode Hindi #doraemon",
            "url": "https://www.youtube.com/watch?v=dXan66Q7eyA",
            "duration": 2272.0,
            "view_count": 34052,
            "uploader": "Dr Amjad Ali Homeo Clinic ",
            "category": "cartoons/doraemon",
            "thumbnail": "https://i.ytimg.com/vi/dXan66Q7eyA/hqdefault.jpg"
        }
    ]
}