{
    "page": 77,
    "total_pages": 103,
    "total_items": 5125,
    "items": [
        {
            "id": "iUJBLS6KXZg",
            "title": "फुरफुरी नगर के नए चौकीदार!  | Motu Patlu | मोटू पतलू | Full Episode 6A",
            "url": "https://www.youtube.com/watch?v=iUJBLS6KXZg",
            "duration": 721.0,
            "view_count": 2285588,
            "uploader": "JioHotstar Kids",
            "category": "cartoons/motu_patlu",
            "thumbnail": "https://i.ytimg.com/vi/iUJBLS6KXZg/hq720.jpg"
        },
        {
            "id": "S8oh5jXu-Ok",
            "title": "Rival Eatery को हराने का Motu-Patlu का Plan | Motu Patlu | मोटू पतलू",
            "url": "https://www.youtube.com/watch?v=S8oh5jXu-Ok",
            "duration": 3971.0,
            "view_count": 2802063,
            "uploader": "Sonic Gang",
            "category": "cartoons/motu_patlu",
            "thumbnail": "https://i.ytimg.com/vi/S8oh5jXu-Ok/hq720.jpg"
        },
        {
            "id": "SYJobVxe1bc",
            "title": "Motu Patlu | मोटू पतलू S1 | Snow Man | Episode 62 Part 1 | Voot Kids",
            "url": "https://www.youtube.com/watch?v=SYJobVxe1bc",
            "duration": 672.0,
            "view_count": 24845045,
            "uploader": "JioHotstar Kids",
            "category": "cartoons/motu_patlu",
            "thumbnail": "https://i.ytimg.com/vi/SYJobVxe1bc/hq720.jpg"
        },
        {
            "id": "0B3pM50hEmg",
            "title": "Black Panther आया फुरफुरी नगर | Motu-Patlu",
            "url": "https://www.youtube.com/watch?v=0B3pM50hEmg",
            "duration": 1337.0,
            "view_count": 5015186,
            "uploader": "Sonic Gang Motu Patlu ",
            "category": "cartoons/motu_patlu",
            "thumbnail": "https://i.ytimg.com/vi/0B3pM50hEmg/hq720.jpg"
        },
        {
            "id": "zEM0EGgDbuI",
            "title": "Himalayas में भी Motu को मिला Pollution | Motu Patlu | मोटू पतलू",
            "url": "https://www.youtube.com/watch?v=zEM0EGgDbuI",
            "duration": 1310.0,
            "view_count": 5581217,
            "uploader": "Sonic Gang",
            "category": "cartoons/motu_patlu",
            "thumbnail": "https://i.ytimg.com/vi/zEM0EGgDbuI/hq720.jpg"
        },
        {
            "id": "yYTSJDAbna8",
            "title": "John को Trap करने के लिए Motu Patlu ने ली Dr. Jhatka की Help | Motu Patlu | मोटू पतलू",
            "url": "https://www.youtube.com/watch?v=yYTSJDAbna8",
            "duration": 1350.0,
            "view_count": 4907470,
            "uploader": "Sonic Gang",
            "category": "cartoons/motu_patlu",
            "thumbnail": "https://i.ytimg.com/vi/yYTSJDAbna8/hq720.jpg"
        },
        {
            "id": "7gtBrwVVF3s",
            "title": "🛑 LIVE - Non Stop Motu - Patlu | Motu Patlu Rajasthan Special| #motupatlu #motupatlukijodi",
            "url": "https://www.youtube.com/watch?v=7gtBrwVVF3s",
            "duration": 5234.0,
            "view_count": 27226,
            "uploader": "Sonic Gang",
            "category": "cartoons/motu_patlu",
            "thumbnail": "https://i.ytimg.com/vi/7gtBrwVVF3s/hq720.jpg"
        },
        {
            "id": "YRPSGfILAPk",
            "title": "Selfie में खोया Motu, दोस्त बोले अब बहुत हुआ! | Motu Patlu | मोटू पतलू",
            "url": "https://www.youtube.com/watch?v=YRPSGfILAPk",
            "duration": 3931.0,
            "view_count": 3851165,
            "uploader": "Sonic Gang",
            "category": "cartoons/motu_patlu",
            "thumbnail": "https://i.ytimg.com/vi/YRPSGfILAPk/hq720.jpg"
        },
        {
            "id": "MnKPZFg0KeY",
            "title": "Furfuri Nagar में डर का माहौल, John का भूतिया प्लान | Motu Patlu | मोटू पतलू",
            "url": "https://www.youtube.com/watch?v=MnKPZFg0KeY",
            "duration": 1316.0,
            "view_count": 3916595,
            "uploader": "Sonic Gang",
            "category": "cartoons/motu_patlu",
            "thumbnail": "https://i.ytimg.com/vi/MnKPZFg0KeY/hq720.jpg"
        },
        {
            "id": "8cGWCL_zdqU",
            "title": "Motu बना superhero, पर cartoons हुए आज़ाद! | Motu Patlu | मोटू पतलू",
            "url": "https://www.youtube.com/watch?v=8cGWCL_zdqU",
            "duration": 4024.0,
            "view_count": 1463030,
            "uploader": "Sonic Gang",
            "category": "cartoons/motu_patlu",
            "thumbnail": "https://i.ytimg.com/vi/8cGWCL_zdqU/hq720.jpg"
        },
        {
            "id": "ILHO0LK_LfA",
            "title": "Motu Patlu फंसे Dr.Jhatka के Prank मे | Motu-Patlu",
            "url": "https://www.youtube.com/watch?v=ILHO0LK_LfA",
            "duration": 1367.0,
            "view_count": 20216356,
            "uploader": "Sonic Gang Motu Patlu ",
            "category": "cartoons/motu_patlu",
            "thumbnail": "https://i.ytimg.com/vi/ILHO0LK_LfA/hq720.jpg"
        },
        {
            "id": "WG__9n1oRKY",
            "title": "सभने बदला भेष आपना | Motu-Patlu",
            "url": "https://www.youtube.com/watch?v=WG__9n1oRKY",
            "duration": 689.0,
            "view_count": 1092311,
            "uploader": "Sonic Gang Motu Patlu ",
            "category": "cartoons/motu_patlu",
            "thumbnail": "https://i.ytimg.com/vi/WG__9n1oRKY/hq720.jpg"
        },
        {
            "id": "J01PJME5M_E",
            "title": "भला John से कैसे हुई Motu की दोस्ती | Motu-Patlu",
            "url": "https://www.youtube.com/watch?v=J01PJME5M_E",
            "duration": 706.0,
            "view_count": 5040244,
            "uploader": "Sonic Gang Motu Patlu ",
            "category": "cartoons/motu_patlu",
            "thumbnail": "https://i.ytimg.com/vi/J01PJME5M_E/hq720.jpg"
        },
        {
            "id": "OJwPrsO1s4s",
            "title": "Motu Patlu in Hindi | The Challenge of Kung Fu Brothers Movie | Animated Movies | Wow Kidz Comedy",
            "url": "https://www.youtube.com/watch?v=OJwPrsO1s4s",
            "duration": 5038.0,
            "view_count": 52141132,
            "uploader": "Wow Kidz Comedy",
            "category": "cartoons/motu_patlu",
            "thumbnail": "https://i.ytimg.com/vi/OJwPrsO1s4s/hq720.jpg"
        },
        {
            "id": "cHonKsAHYYI",
            "title": "Bubble Competition Day Motu Patlu का Trouble | Motu-Patlu",
            "url": "https://www.youtube.com/watch?v=cHonKsAHYYI",
            "duration": 1346.0,
            "view_count": 5396283,
            "uploader": "Sonic Gang Motu Patlu ",
            "category": "cartoons/motu_patlu",
            "thumbnail": "https://i.ytimg.com/vi/cHonKsAHYYI/hq720.jpg"
        },
        {
            "id": "_bVNRk3E5aI",
            "title": "Non Stop Motu - Patlu | मोटू पतलू | Motu Patlu Punjab Special | #motupatlu #motupatlukijodi",
            "url": "https://www.youtube.com/watch?v=_bVNRk3E5aI",
            "duration": 5234.0,
            "view_count": 116753,
            "uploader": "JioHotstar Kids",
            "category": "cartoons/motu_patlu",
            "thumbnail": "https://i.ytimg.com/vi/_bVNRk3E5aI/hq720.jpg"
        },
        {
            "id": "jbZgosCJplQ",
            "title": "Motu Patlu | मोटू पतलू S1 | Chamatkari Chashma | Episodes 25 to 27",
            "url": "https://www.youtube.com/watch?v=jbZgosCJplQ",
            "duration": 4273.0,
            "view_count": 32994657,
            "uploader": "JioHotstar Kids",
            "category": "cartoons/motu_patlu",
            "thumbnail": "https://i.ytimg.com/vi/jbZgosCJplQ/hq720.jpg"
        },
        {
            "id": "Ity6EaA8WVo",
            "title": "Motu की जीत, Dilawar Khan की चाल | Motu Patlu In The City Of Gold",
            "url": "https://www.youtube.com/watch?v=Ity6EaA8WVo",
            "duration": 4551.0,
            "view_count": 5032670,
            "uploader": "Sonic Gang Hindi Movies",
            "category": "cartoons/motu_patlu",
            "thumbnail": "https://i.ytimg.com/vi/Ity6EaA8WVo/hq720.jpg"
        },
        {
            "id": "kyBDDYDMrR0",
            "title": "Laser Gun का हंगामा  | Motu Patlu Rajasthan Special | Motu Patlu | मोटू पतलू",
            "url": "https://www.youtube.com/watch?v=kyBDDYDMrR0",
            "duration": 1342.0,
            "view_count": 35305,
            "uploader": "Sonic Gang",
            "category": "cartoons/motu_patlu",
            "thumbnail": "https://i.ytimg.com/vi/kyBDDYDMrR0/hq720.jpg"
        },
        {
            "id": "71eEG6b98Qo",
            "title": "Motu Patlu ने खुदी अपने घर मे सुरंग | Motu-Patlu",
            "url": "https://www.youtube.com/watch?v=71eEG6b98Qo",
            "duration": 1354.0,
            "view_count": 2996389,
            "uploader": "Sonic Gang Motu Patlu ",
            "category": "cartoons/motu_patlu",
            "thumbnail": "https://i.ytimg.com/vi/71eEG6b98Qo/hq720.jpg"
        },
        {
            "id": "zD_SxKWMjZc",
            "title": "Invisible Oil का कमाल… Motu Patlu फिसलते रह गए | Motu Patlu | मोटू पतलू",
            "url": "https://www.youtube.com/watch?v=zD_SxKWMjZc",
            "duration": 3975.0,
            "view_count": 4162272,
            "uploader": "Sonic Gang",
            "category": "cartoons/motu_patlu",
            "thumbnail": "https://i.ytimg.com/vi/zD_SxKWMjZc/hq720.jpg"
        },
        {
            "id": "hOq7uougEAI",
            "title": "Motu Patlu | Season 1 |  मोटू पतलू | Pappe Da Dhaba | Episode 285 Part 1 | Voot Kids",
            "url": "https://www.youtube.com/watch?v=hOq7uougEAI",
            "duration": 621.0,
            "view_count": 15781513,
            "uploader": "JioHotstar Kids",
            "category": "cartoons/motu_patlu",
            "thumbnail": "https://i.ytimg.com/vi/hOq7uougEAI/hq720.jpg"
        },
        {
            "id": "RcqyqB-GW0M",
            "title": "Motu Patlu | मोटू पतलू S1 | Motu Ki Tez Aankhen | Episode 273 Part 1 | Voot Kids",
            "url": "https://www.youtube.com/watch?v=RcqyqB-GW0M",
            "duration": 677.0,
            "view_count": 42298784,
            "uploader": "JioHotstar Kids",
            "category": "cartoons/motu_patlu",
            "thumbnail": "https://i.ytimg.com/vi/RcqyqB-GW0M/hq720.jpg"
        },
        {
            "id": "TY24pJNEBfs",
            "title": "Motu Patlu | मोटू पतलू | Full Episode | Motu की X-Ray नज़र! John की बजी Band! 🩻🎸",
            "url": "https://www.youtube.com/watch?v=TY24pJNEBfs",
            "duration": 693.0,
            "view_count": 940835,
            "uploader": "Sonic Gang",
            "category": "cartoons/motu_patlu",
            "thumbnail": "https://i.ytimg.com/vi/TY24pJNEBfs/hq720.jpg"
        },
        {
            "id": "b9ijyQ4vqIw",
            "title": "Motu Patlu | Season 1 |  मोटू पतलू | Jasoos Motu | Episode 299 Part 1 | Voot Kids",
            "url": "https://www.youtube.com/watch?v=b9ijyQ4vqIw",
            "duration": 642.0,
            "view_count": 20049350,
            "uploader": "JioHotstar Kids",
            "category": "cartoons/motu_patlu",
            "thumbnail": "https://i.ytimg.com/vi/b9ijyQ4vqIw/hq720.jpg"
        },
        {
            "id": "w1c65MIwNBA",
            "title": "कैसा होगा Motu का भविष्य? | Motu Patlu Punjab Special | Motu Patlu | मोटू पतलू",
            "url": "https://www.youtube.com/watch?v=w1c65MIwNBA",
            "duration": 1357.0,
            "view_count": 746069,
            "uploader": "Sonic Gang",
            "category": "cartoons/motu_patlu",
            "thumbnail": "https://i.ytimg.com/vi/w1c65MIwNBA/hq720.jpg"
        },
        {
            "id": "LJTi9puq9bQ",
            "title": "Engineer Motu Patlu की Dr.Jhatka के साथ Contract | Motu-Patlu",
            "url": "https://www.youtube.com/watch?v=LJTi9puq9bQ",
            "duration": 1276.0,
            "view_count": 5506257,
            "uploader": "Sonic Gang Motu Patlu ",
            "category": "cartoons/motu_patlu",
            "thumbnail": "https://i.ytimg.com/vi/LJTi9puq9bQ/hq720.jpg"
        },
        {
            "id": "FBcyWU8axUY",
            "title": "Motu patlu का Saturday Special Fun वोह भी Non-Stop | Motu-Patlu",
            "url": "https://www.youtube.com/watch?v=FBcyWU8axUY",
            "duration": 2487.0,
            "view_count": 31279,
            "uploader": "Sonic Gang Motu Patlu ",
            "category": "cartoons/motu_patlu",
            "thumbnail": "https://i.ytimg.com/vi/FBcyWU8axUY/hq720.jpg"
        },
        {
            "id": "ejpY-DtbtVE",
            "title": "DrJhatka का Robotic Suit | Motu Patlu Punjab Special | Motu Patlu | मोटू पतलू",
            "url": "https://www.youtube.com/watch?v=ejpY-DtbtVE",
            "duration": 1352.0,
            "view_count": 47712,
            "uploader": "Sonic Gang",
            "category": "cartoons/motu_patlu",
            "thumbnail": "https://i.ytimg.com/vi/ejpY-DtbtVE/hq720.jpg"
        },
        {
            "id": "Nwv0UYZ9zqg",
            "title": "Lion Motlu, Brave Patlu और Dr. Snake से Battle | Motu Patlu Kung Fu King Returns | Full Movie",
            "url": "https://www.youtube.com/watch?v=Nwv0UYZ9zqg",
            "duration": 4991.0,
            "view_count": 10426854,
            "uploader": "Sonic Gang Hindi Movies",
            "category": "cartoons/motu_patlu",
            "thumbnail": "https://i.ytimg.com/vi/Nwv0UYZ9zqg/hq720.jpg"
        },
        {
            "id": "DRTRVeFvBb8",
            "title": "Chingum Sir का Farmhouse | Motu Patlu Rajasthan Special | Motu Patlu | मोटू पतलू",
            "url": "https://www.youtube.com/watch?v=DRTRVeFvBb8",
            "duration": 1351.0,
            "view_count": 1258479,
            "uploader": "Sonic Gang",
            "category": "cartoons/motu_patlu",
            "thumbnail": "https://i.ytimg.com/vi/DRTRVeFvBb8/hq720.jpg"
        },
        {
            "id": "cL08NCYLKj8",
            "title": "Motu Patlu का दोस्त Football | Motu-Patlu",
            "url": "https://www.youtube.com/watch?v=cL08NCYLKj8",
            "duration": 1323.0,
            "view_count": 3884018,
            "uploader": "Sonic Gang Motu Patlu ",
            "category": "cartoons/motu_patlu",
            "thumbnail": "https://i.ytimg.com/vi/cL08NCYLKj8/hq720.jpg"
        },
        {
            "id": "sI6wgtS9Tjs",
            "title": "Motu Patlu | मोटू पतलू S1 | Masti Unlimited! | Episodes 1 to 3",
            "url": "https://www.youtube.com/watch?v=sI6wgtS9Tjs",
            "duration": 4161.0,
            "view_count": 68904597,
            "uploader": "JioHotstar Kids",
            "category": "cartoons/motu_patlu",
            "thumbnail": "https://i.ytimg.com/vi/sI6wgtS9Tjs/hq720.jpg"
        },
        {
            "id": "I1U4goIXA34",
            "title": "मोटू बना जॉन | Motu Became John | Motu Patlu TV Show Hindi Ep Full | मोटू पतलू की मस्ती",
            "url": "https://www.youtube.com/watch?v=I1U4goIXA34",
            "duration": 1308.0,
            "view_count": 271712,
            "uploader": "Motu Patlu TV Show Hindi",
            "category": "cartoons/motu_patlu",
            "thumbnail": "https://i.ytimg.com/vi/I1U4goIXA34/hq720.jpg"
        },
        {
            "id": "xA6t5VSIkWQ",
            "title": "Motu Patlu की नई मुश्किल - John का नया gadget! | Motu Patlu | मोटू पतलू",
            "url": "https://www.youtube.com/watch?v=xA6t5VSIkWQ",
            "duration": 4053.0,
            "view_count": 1598680,
            "uploader": "Sonic Gang",
            "category": "cartoons/motu_patlu",
            "thumbnail": "https://i.ytimg.com/vi/xA6t5VSIkWQ/hq720.jpg"
        },
        {
            "id": "nse7n03k2VQ",
            "title": "Furfuri Nagar के Firefighters vs John की आग 🔥 | Motu Patlu | मोटू पतलू",
            "url": "https://www.youtube.com/watch?v=nse7n03k2VQ",
            "duration": 4024.0,
            "view_count": 2755313,
            "uploader": "Sonic Gang",
            "category": "cartoons/motu_patlu",
            "thumbnail": "https://i.ytimg.com/vi/nse7n03k2VQ/hq720.jpg"
        },
        {
            "id": "jV7ABN8sCCM",
            "title": "Cricket Ball ने मांगी मदद | Motu Patlu Punjab Special | Motu Patlu | मोटू पतलू",
            "url": "https://www.youtube.com/watch?v=jV7ABN8sCCM",
            "duration": 1272.0,
            "view_count": 199972,
            "uploader": "Sonic Gang",
            "category": "cartoons/motu_patlu",
            "thumbnail": "https://i.ytimg.com/vi/jV7ABN8sCCM/hq720.jpg"
        },
        {
            "id": "03KLhNbiab0",
            "title": "होली है भाई होली है | Happy Holi | Motu Patlu TV Show Hindi Ep Full | मोटू पतलू की मस्ती",
            "url": "https://www.youtube.com/watch?v=03KLhNbiab0",
            "duration": 1214.0,
            "view_count": 6012336,
            "uploader": "Motu Patlu TV Show Hindi",
            "category": "cartoons/motu_patlu",
            "thumbnail": "https://i.ytimg.com/vi/03KLhNbiab0/hq720.jpg"
        },
        {
            "id": "gfSmZi8t9q8",
            "title": "Guests की Wish पूरी करते करते Motu फंस गया | Motu Patlu rajasthan special | Motu Patlu | मोटू पतलू",
            "url": "https://www.youtube.com/watch?v=gfSmZi8t9q8",
            "duration": 3873.0,
            "view_count": 945589,
            "uploader": "Sonic Gang",
            "category": "cartoons/motu_patlu",
            "thumbnail": "https://i.ytimg.com/vi/gfSmZi8t9q8/hq720.jpg"
        },
        {
            "id": "aEL7ANR-p-E",
            "title": "John ने उड़ाए मुर्गे, Motu & Patlu की हुई तगड़ी Entry | Motu Patlu | मोटू पतलू",
            "url": "https://www.youtube.com/watch?v=aEL7ANR-p-E",
            "duration": 3813.0,
            "view_count": 4172859,
            "uploader": "Sonic Gang",
            "category": "cartoons/motu_patlu",
            "thumbnail": "https://i.ytimg.com/vi/aEL7ANR-p-E/hq720.jpg"
        },
        {
            "id": "OnuIdfGtDeI",
            "title": "अब Motu बनाएगा Cake | Motu Patlu Punjab Special | Motu Patlu | मोटू पतलू",
            "url": "https://www.youtube.com/watch?v=OnuIdfGtDeI",
            "duration": 1388.0,
            "view_count": 548670,
            "uploader": "JioHotstar Kids",
            "category": "cartoons/motu_patlu",
            "thumbnail": "https://i.ytimg.com/vi/OnuIdfGtDeI/hq720.jpg"
        },
        {
            "id": "BOpRkyLNCBY",
            "title": "John का चोरी का अतरंगी तरीका | Motu Patlu Punjab Special | Motu Patlu | मोटू पतलू",
            "url": "https://www.youtube.com/watch?v=BOpRkyLNCBY",
            "duration": 1339.0,
            "view_count": 180082,
            "uploader": "Sonic Gang",
            "category": "cartoons/motu_patlu",
            "thumbnail": "https://i.ytimg.com/vi/BOpRkyLNCBY/hq720.jpg"
        },
        {
            "id": "HFK7ktxtxdc",
            "title": "Washing Machine का धमाल! | Motu Patlu Rajasthan Special | Motu Patlu | मोटू पतलू",
            "url": "https://www.youtube.com/watch?v=HFK7ktxtxdc",
            "duration": 1275.0,
            "view_count": 1299531,
            "uploader": "Sonic Gang",
            "category": "cartoons/motu_patlu",
            "thumbnail": "https://i.ytimg.com/vi/HFK7ktxtxdc/hq720.jpg"
        },
        {
            "id": "I5LagmqNmWg",
            "title": "Motu हो गया है Emotional | Motu Patlu Rajasthan Special | Motu Patlu | मोटू पतलू",
            "url": "https://www.youtube.com/watch?v=I5LagmqNmWg",
            "duration": 1352.0,
            "view_count": 62052,
            "uploader": "Sonic Gang",
            "category": "cartoons/motu_patlu",
            "thumbnail": "https://i.ytimg.com/vi/I5LagmqNmWg/hq720.jpg"
        },
        {
            "id": "AfyK8E--4PQ",
            "title": "John Ek Icchhadhari Naag | जॉन बना इच्छाधारी नाग | Motu Patlu | Ep 490 | Motu Patlu Show 2026 Hindi",
            "url": "https://www.youtube.com/watch?v=AfyK8E--4PQ",
            "duration": 651.0,
            "view_count": 2010346,
            "uploader": "Motu Patlu TV Show Hindi",
            "category": "cartoons/motu_patlu",
            "thumbnail": "https://i.ytimg.com/vi/AfyK8E--4PQ/hq720.jpg"
        },
        {
            "id": "epADq7Nsa88",
            "title": "Motu Patlu : Motu Gaya School Main | Winter Special | Hindi Cartoon Motu Patlu",
            "url": "https://www.youtube.com/watch?v=epADq7Nsa88",
            "duration": 1280.0,
            "view_count": 85736,
            "uploader": "Motu Patlu",
            "category": "cartoons/motu_patlu",
            "thumbnail": "https://i.ytimg.com/vi/epADq7Nsa88/hq720.jpg"
        },
        {
            "id": "_g7mPiBjF70",
            "title": "Motu Patlu बने छोटे बच्चे… John की दवाई का असर | Motu Patlu | मोटू पतलू",
            "url": "https://www.youtube.com/watch?v=_g7mPiBjF70",
            "duration": 1307.0,
            "view_count": 0,
            "uploader": "Sonic Gang",
            "category": "cartoons/motu_patlu",
            "thumbnail": "https://i.ytimg.com/vi/_g7mPiBjF70/hq720.jpg"
        },
        {
            "id": "_-dxUZR9hPA",
            "title": "Jhatka का Bubblegum b0mb | Motu Patlu Punjab Special | Motu Patlu | मोटू पतलू",
            "url": "https://www.youtube.com/watch?v=_-dxUZR9hPA",
            "duration": 1315.0,
            "view_count": 23371,
            "uploader": "Sonic Gang",
            "category": "cartoons/motu_patlu",
            "thumbnail": "https://i.ytimg.com/vi/_-dxUZR9hPA/hq720.jpg"
        },
        {
            "id": "rYgKI2V2Gj4",
            "title": "Treasure Cave के अंदर John... रास्ता ढूंढना आसान नहीं | Motu Patlu rajasthan special | मोटू पतलू",
            "url": "https://www.youtube.com/watch?v=rYgKI2V2Gj4",
            "duration": 3245.0,
            "view_count": 319347,
            "uploader": "Sonic Gang",
            "category": "cartoons/motu_patlu",
            "thumbnail": "https://i.ytimg.com/vi/rYgKI2V2Gj4/hq720.jpg"
        },
        {
            "id": "HWggLH365S0",
            "title": "Motu Heavy Lifter ने किया Cylinder गायब | Motu-Patlu",
            "url": "https://www.youtube.com/watch?v=HWggLH365S0",
            "duration": 1363.0,
            "view_count": 11342139,
            "uploader": "Sonic Gang Motu Patlu ",
            "category": "cartoons/motu_patlu",
            "thumbnail": "https://i.ytimg.com/vi/HWggLH365S0/hq720.jpg"
        }
    ]
}