{
    "page": 32,
    "total_pages": 103,
    "total_items": 5125,
    "items": [
        {
            "id": "v3I7ZYkl92M",
            "title": "Range Hath Pakde Gaye Mehta Sahab! | FULL MOVIE | Taarak Mehta Ka Ooltah Chashmah",
            "url": "https://www.youtube.com/watch?v=v3I7ZYkl92M",
            "duration": 2754.0,
            "view_count": 241872,
            "uploader": "Taarak Mehta Ka Ooltah Chashmah",
            "category": "taarak_mehta",
            "thumbnail": "https://i.ytimg.com/vi/v3I7ZYkl92M/hq720.jpg"
        },
        {
            "id": "dXb2NayFmQw",
            "title": "Residents Play Holi | Taarak Mehta Ka Ooltah Chashmah | Full Ep 4657 | 13 Mar 2026 | New Episode",
            "url": "https://www.youtube.com/watch?v=dXb2NayFmQw",
            "duration": 1189.0,
            "view_count": 914633,
            "uploader": "Taarak Mehta Ka Ooltah Chashmah Episodes",
            "category": "taarak_mehta",
            "thumbnail": "https://i.ytimg.com/vi/dXb2NayFmQw/hq720.jpg"
        },
        {
            "id": "OhFJNWX4sis",
            "title": "गुस्से में Aakar Bapuji ne Utha Liya Heavy Cylinder ! | FULL MOVIE | Taarak Mehta Ka Ooltah Chashmah",
            "url": "https://www.youtube.com/watch?v=OhFJNWX4sis",
            "duration": 2343.0,
            "view_count": 30858,
            "uploader": "Taarak Mehta Ka Ooltah Chashmah",
            "category": "taarak_mehta",
            "thumbnail": "https://i.ytimg.com/vi/OhFJNWX4sis/hq720.jpg"
        },
        {
            "id": "n9v8VpEpm-w",
            "title": "Gokuldham Men Make A Secret Plan | Taarak Mehta Ka Ooltah Chashmah | Full Episode",
            "url": "https://www.youtube.com/watch?v=n9v8VpEpm-w",
            "duration": 1254.0,
            "view_count": 1165661,
            "uploader": "Taarak Mehta Ka Ooltah Chashmah Episodes",
            "category": "taarak_mehta",
            "thumbnail": "https://i.ytimg.com/vi/n9v8VpEpm-w/hq720.jpg"
        },
        {
            "id": "b9fd9E5fT-E",
            "title": "Beech Raste Me Gir Gaya Jethiya ! | FULL MOVIE | Taarak Mehta Ka Ooltah Chashmah",
            "url": "https://www.youtube.com/watch?v=b9fd9E5fT-E",
            "duration": 3249.0,
            "view_count": 36001,
            "uploader": "Taarak Mehta Ka Ooltah Chashmah",
            "category": "taarak_mehta",
            "thumbnail": "https://i.ytimg.com/vi/b9fd9E5fT-E/hq720.jpg"
        },
        {
            "id": "MvIA0hs84bM",
            "title": "Bagha के Look ने किया Daya & Jetha को Surprise | Taarak Mehta Ka Ooltah Chashmah | Cooker Story",
            "url": "https://www.youtube.com/watch?v=MvIA0hs84bM",
            "duration": 3507.0,
            "view_count": 98834,
            "uploader": "Taarak Mehta Ka Ooltah Chashmah Episodes",
            "category": "taarak_mehta",
            "thumbnail": "https://i.ytimg.com/vi/MvIA0hs84bM/hq720.jpg"
        },
        {
            "id": "yojUAi3PSl8",
            "title": "NEW! Ep 4658 - Colour Lagane ke Liye Kyu Ladne Lage Jetha aur Bhide|Taarak Mehta ka Ooltah  Chashmah",
            "url": "https://www.youtube.com/watch?v=yojUAi3PSl8",
            "duration": 602.0,
            "view_count": 547785,
            "uploader": "Taarak Mehta Ka Ooltah Chashmah",
            "category": "taarak_mehta",
            "thumbnail": "https://i.ytimg.com/vi/yojUAi3PSl8/hq720.jpg"
        },
        {
            "id": "aCBMvGXrm2w",
            "title": "किसकी जासूसी कर रही हैं Purush Mandali? | Taarak Mehta Ka Ooltah Chashmah | Khote Classes Scam",
            "url": "https://www.youtube.com/watch?v=aCBMvGXrm2w",
            "duration": 3373.0,
            "view_count": 189656,
            "uploader": "Taarak Mehta Ka Ooltah Chashmah Episodes",
            "category": "taarak_mehta",
            "thumbnail": "https://i.ytimg.com/vi/aCBMvGXrm2w/hq720.jpg"
        },
        {
            "id": "fVFIiYgxvBo",
            "title": "NEW! Ep 4658 - Why did Bapuji scold everyone? | Holi Continues! | Taarak Mehta Ka Ooltah Chashmah",
            "url": "https://www.youtube.com/watch?v=fVFIiYgxvBo",
            "duration": 602.0,
            "view_count": 12824,
            "uploader": "Taarak Mehta Ka Ooltah Chashmah Episodes",
            "category": "taarak_mehta",
            "thumbnail": "https://i.ytimg.com/vi/fVFIiYgxvBo/hqdefault.jpg"
        },
        {
            "id": "SjsZLh-sLQ0",
            "title": "Ky Iss Barr Hogi Purush Mandli ki party Successful! | FULL MOVIE | Taarak Mehta Ka Ooltah Chashmah",
            "url": "https://www.youtube.com/watch?v=SjsZLh-sLQ0",
            "duration": 3285.0,
            "view_count": 163804,
            "uploader": "Taarak Mehta Ka Ooltah Chashmah",
            "category": "taarak_mehta",
            "thumbnail": "https://i.ytimg.com/vi/SjsZLh-sLQ0/hq720.jpg"
        },
        {
            "id": "98rr4KeEJ20",
            "title": "Episode 16 - Taarak Mehta Ka Ooltah Chashmah | Full Episode | तारक मेहता का उल्टा चश्मा",
            "url": "https://www.youtube.com/watch?v=98rr4KeEJ20",
            "duration": 1217.0,
            "view_count": 33227179,
            "uploader": "Taarak Mehta Ka Ooltah Chashmah",
            "category": "taarak_mehta",
            "thumbnail": "https://i.ytimg.com/vi/98rr4KeEJ20/hq720.jpg"
        },
        {
            "id": "QDwRU-_StIw",
            "title": "Gokuldham Men Goes Out | Taarak Mehta Ka Ooltah Chashmah | Full Ep 4645 | 27 Feb 2026 | New Episode",
            "url": "https://www.youtube.com/watch?v=QDwRU-_StIw",
            "duration": 1321.0,
            "view_count": 1003974,
            "uploader": "Taarak Mehta Ka Ooltah Chashmah Episodes",
            "category": "taarak_mehta",
            "thumbnail": "https://i.ytimg.com/vi/QDwRU-_StIw/hqdefault.jpg"
        },
        {
            "id": "U64ZccDeC_Y",
            "title": "Kisko Yad Kar Popatlal ho Gaya Emotional! | FULL MOVIE | Taarak Mehta Ka Ooltah Chashmah",
            "url": "https://www.youtube.com/watch?v=U64ZccDeC_Y",
            "duration": 2792.0,
            "view_count": 830501,
            "uploader": "Taarak Mehta Ka Ooltah Chashmah",
            "category": "taarak_mehta",
            "thumbnail": "https://i.ytimg.com/vi/U64ZccDeC_Y/hq720.jpg"
        },
        {
            "id": "sa-lm8D1FSc",
            "title": "Residents Get A Surprise| Taarak Mehta Ka Ooltah Chashmah | Full Ep 4658 | 14 Mar 2026 | New Episode",
            "url": "https://www.youtube.com/watch?v=sa-lm8D1FSc",
            "duration": 1255.0,
            "view_count": 908777,
            "uploader": "Taarak Mehta Ka Ooltah Chashmah Episodes",
            "category": "taarak_mehta",
            "thumbnail": "https://i.ytimg.com/vi/sa-lm8D1FSc/hq720.jpg"
        },
        {
            "id": "QmaEQ12kdYE",
            "title": "Tapu Ne Kiya Sonu Ko Propose  ! | FULL MOVIE | Taarak Mehta Ka Ooltah Chashmah",
            "url": "https://www.youtube.com/watch?v=QmaEQ12kdYE",
            "duration": 3403.0,
            "view_count": 45802,
            "uploader": "Taarak Mehta Ka Ooltah Chashmah",
            "category": "taarak_mehta",
            "thumbnail": "https://i.ytimg.com/vi/QmaEQ12kdYE/hq720.jpg"
        },
        {
            "id": "VDgOfWpjVj0",
            "title": "Jethalal vs Bhide Face-Off! | FULL MOVIE | Jethalal vs Bhide Special | Hindi Movies",
            "url": "https://www.youtube.com/watch?v=VDgOfWpjVj0",
            "duration": 2879.0,
            "view_count": 46127,
            "uploader": "Taarak Mehta Ka Ooltah Chashmah Episodes",
            "category": "taarak_mehta",
            "thumbnail": "https://i.ytimg.com/vi/VDgOfWpjVj0/hq720.jpg"
        },
        {
            "id": "QjsdufkXvuM",
            "title": "समोसा खाते-खाते क्यों रुक गया Jetha? | Taarak Mehta Ka Ooltah Chashmah | Abdul's Cycle",
            "url": "https://www.youtube.com/watch?v=QjsdufkXvuM",
            "duration": 3721.0,
            "view_count": 149845,
            "uploader": "Taarak Mehta Ka Ooltah Chashmah Episodes",
            "category": "taarak_mehta",
            "thumbnail": "https://i.ytimg.com/vi/QjsdufkXvuM/hqdefault.jpg"
        },
        {
            "id": "Rq-Zt20nOEc",
            "title": "Bhide & Jetha को क्यों रोक रहा है Chalu Pandey? | Taarak Mehta Ka Ooltah Chashmah | Cricket Chaos",
            "url": "https://www.youtube.com/watch?v=Rq-Zt20nOEc",
            "duration": 3668.0,
            "view_count": 10953,
            "uploader": "Taarak Mehta Ka Ooltah Chashmah Episodes",
            "category": "taarak_mehta",
            "thumbnail": "https://i.ytimg.com/vi/Rq-Zt20nOEc/hq720.jpg"
        },
        {
            "id": "T0VwijWPsgo",
            "title": "Kisko dekh kar Dar rahe hai Bapuji! | FULL MOVIE | Taarak Mehta Ka Ooltah Chashmah",
            "url": "https://www.youtube.com/watch?v=T0VwijWPsgo",
            "duration": 2318.0,
            "view_count": 31016,
            "uploader": "Taarak Mehta Ka Ooltah Chashmah",
            "category": "taarak_mehta",
            "thumbnail": "https://i.ytimg.com/vi/T0VwijWPsgo/hq720.jpg"
        },
        {
            "id": "03RRH0XBrkI",
            "title": "Dr. Hathi ने क्यों लगाया Bhide को Injection? | Taarak Mehta Ka Ooltah Chashmah | Popatlal's Madness",
            "url": "https://www.youtube.com/watch?v=03RRH0XBrkI",
            "duration": 3424.0,
            "view_count": 62320,
            "uploader": "Taarak Mehta Ka Ooltah Chashmah Episodes",
            "category": "taarak_mehta",
            "thumbnail": "https://i.ytimg.com/vi/03RRH0XBrkI/hq720.jpg"
        },
        {
            "id": "jpGGM19sRZI",
            "title": "Kisko Dekh Kar Daar Rahe Hai Bapuji ! | FULL MOVIE | Taarak Mehta Ka Ooltah Chashmah",
            "url": "https://www.youtube.com/watch?v=jpGGM19sRZI",
            "duration": 2751.0,
            "view_count": 222557,
            "uploader": "Taarak Mehta Ka Ooltah Chashmah",
            "category": "taarak_mehta",
            "thumbnail": "https://i.ytimg.com/vi/jpGGM19sRZI/hq720.jpg"
        },
        {
            "id": "-pT9xczL3KQ",
            "title": "Bhide Kyu Mang Raha Hai Jethalal Se Phone? | FULL MOVIE | Taarak Mehta Ka Ooltah Chashmah",
            "url": "https://www.youtube.com/watch?v=-pT9xczL3KQ",
            "duration": 2502.0,
            "view_count": 8154927,
            "uploader": "Taarak Mehta Ka Ooltah Chashmah",
            "category": "taarak_mehta",
            "thumbnail": "https://i.ytimg.com/vi/-pT9xczL3KQ/hq720.jpg"
        },
        {
            "id": "7MiG8w8eRM0",
            "title": "Hathi Bhai se Kya Chupa raha hai Jethalal😱| FULL MOVIE | Taarak Mehta Ka Ooltah Chashmah",
            "url": "https://www.youtube.com/watch?v=7MiG8w8eRM0",
            "duration": 2135.0,
            "view_count": 5176770,
            "uploader": "Taarak Mehta Ka Ooltah Chashmah",
            "category": "taarak_mehta",
            "thumbnail": "https://i.ytimg.com/vi/7MiG8w8eRM0/hq720.jpg"
        },
        {
            "id": "WJu91xw_IJs",
            "title": "Akhir Kya Dikhana Chahata Hai Jethiya?! | FULL MOVIE | Taarak Mehta Ka Ooltah Chashmah",
            "url": "https://www.youtube.com/watch?v=WJu91xw_IJs",
            "duration": 3327.0,
            "view_count": 4586547,
            "uploader": "Taarak Mehta Ka Ooltah Chashmah",
            "category": "taarak_mehta",
            "thumbnail": "https://i.ytimg.com/vi/WJu91xw_IJs/hq720.jpg"
        },
        {
            "id": "bQLOayDpkWI",
            "title": "Jethalal hogaya escalator se pareshan! | FULL MOVIE | Taarak Mehta Ka Ooltah Chashmah",
            "url": "https://www.youtube.com/watch?v=bQLOayDpkWI",
            "duration": 2251.0,
            "view_count": 5082838,
            "uploader": "Taarak Mehta Ka Ooltah Chashmah",
            "category": "taarak_mehta",
            "thumbnail": "https://i.ytimg.com/vi/bQLOayDpkWI/hq720.jpg"
        },
        {
            "id": "-5GNdzWxOMU",
            "title": "Popatlal ने Bhide से वापस मांगी अपनी Pen | Taarak Mehta Ka Ooltah Chashmah | Abdul's Cycle",
            "url": "https://www.youtube.com/watch?v=-5GNdzWxOMU",
            "duration": 3763.0,
            "view_count": 8972,
            "uploader": "Taarak Mehta Ka Ooltah Chashmah Episodes",
            "category": "taarak_mehta",
            "thumbnail": "https://i.ytimg.com/vi/-5GNdzWxOMU/hq720.jpg"
        },
        {
            "id": "LuSt1mRet2w",
            "title": "Bhide Attacked by Goons?! 😱 | FULL MOVIE | Trouble in Gokuldham Society",
            "url": "https://www.youtube.com/watch?v=LuSt1mRet2w",
            "duration": 2869.0,
            "view_count": 9445,
            "uploader": "Taarak Mehta Ka Ooltah Chashmah Episodes",
            "category": "taarak_mehta",
            "thumbnail": "https://i.ytimg.com/vi/LuSt1mRet2w/hq720.jpg"
        },
        {
            "id": "ObsmDN9xrhw",
            "title": "Jethya ne kyu kaha Bhide ko रिश्वतखोर ! | FULL MOVIE | Taarak Mehta Ka Ooltah Chashmah",
            "url": "https://www.youtube.com/watch?v=ObsmDN9xrhw",
            "duration": 3218.0,
            "view_count": 138320,
            "uploader": "Taarak Mehta Ka Ooltah Chashmah",
            "category": "taarak_mehta",
            "thumbnail": "https://i.ytimg.com/vi/ObsmDN9xrhw/hq720.jpg"
        },
        {
            "id": "ISEM8NQFhEE",
            "title": "Cycle के Secret ने किया Purush Mandali को परेशान | Taarak Mehta Ka Ooltah Chashmah | Abdul's Cycle",
            "url": "https://www.youtube.com/watch?v=ISEM8NQFhEE",
            "duration": 3600.0,
            "view_count": 1437,
            "uploader": "Taarak Mehta Ka Ooltah Chashmah Episodes",
            "category": "taarak_mehta",
            "thumbnail": "https://i.ytimg.com/vi/ISEM8NQFhEE/hq720.jpg"
        },
        {
            "id": "eZ_yiqgQ65o",
            "title": "Jethya ne Kiya Nattu Kaka ki Bolti Band😂! | FULL MOVIE | Taarak Mehta Ka Ooltah Chashmah",
            "url": "https://www.youtube.com/watch?v=eZ_yiqgQ65o",
            "duration": 2974.0,
            "view_count": 619055,
            "uploader": "Taarak Mehta Ka Ooltah Chashmah",
            "category": "taarak_mehta",
            "thumbnail": "https://i.ytimg.com/vi/eZ_yiqgQ65o/hq720.jpg"
        },
        {
            "id": "7ps_uOauA1k",
            "title": "Why Did Tapu Suddenly Faint? 😱 | FULL MOVIE | Jethalal in Big Trouble! | Hindi Comedy Movies",
            "url": "https://www.youtube.com/watch?v=7ps_uOauA1k",
            "duration": 3497.0,
            "view_count": 4766,
            "uploader": "Taarak Mehta Ka Ooltah Chashmah Episodes",
            "category": "taarak_mehta",
            "thumbnail": "https://i.ytimg.com/vi/7ps_uOauA1k/hq720.jpg"
        },
        {
            "id": "H1VN11CpctA",
            "title": "Bhide Brings A Surprise | Taarak Mehta Ka Ooltah Chashmah | Full Ep 4659 | 16 Mar 2026 | New Episode",
            "url": "https://www.youtube.com/watch?v=H1VN11CpctA",
            "duration": 1262.0,
            "view_count": 782645,
            "uploader": "Taarak Mehta Ka Ooltah Chashmah Episodes",
            "category": "taarak_mehta",
            "thumbnail": "https://i.ytimg.com/vi/H1VN11CpctA/hq720.jpg"
        },
        {
            "id": "KAtA6M3WAXg",
            "title": "रिश्तेदारों ke samne chali gayi Jethya ki ijjat | FULL MOVIE | Taarak Mehta Ka Ooltah Chashmah",
            "url": "https://www.youtube.com/watch?v=KAtA6M3WAXg",
            "duration": 3357.0,
            "view_count": 1730560,
            "uploader": "Taarak Mehta Ka Ooltah Chashmah",
            "category": "taarak_mehta",
            "thumbnail": "https://i.ytimg.com/vi/KAtA6M3WAXg/hq720.jpg"
        },
        {
            "id": "G6S9uI_k9vM",
            "title": "Bapuji Gets Furious at Jethalal & Bhide! 😡 | FULL MOVIE | Taarak Mehta Ka Ooltah Chashmah",
            "url": "https://www.youtube.com/watch?v=G6S9uI_k9vM",
            "duration": 3366.0,
            "view_count": 15370,
            "uploader": "Taarak Mehta Ka Ooltah Chashmah Episodes",
            "category": "taarak_mehta",
            "thumbnail": "https://i.ytimg.com/vi/G6S9uI_k9vM/hq720.jpg"
        },
        {
            "id": "CWLSF9t04N8",
            "title": "FULL EPISODE! 4630 - Kyu Khas hai Jethalal ke Liye Aaj ka Din! | Taarak Mehta Ka Ooltah Chashmah",
            "url": "https://www.youtube.com/watch?v=CWLSF9t04N8",
            "duration": 1336.0,
            "view_count": 9125,
            "uploader": "Taarak Mehta Ka Ooltah Chashmah",
            "category": "taarak_mehta",
            "thumbnail": "https://i.ytimg.com/vi/CWLSF9t04N8/hq720.jpg"
        },
        {
            "id": "EtQDesx98fI",
            "title": "Episode 202 - Taarak Mehta Ka Ooltah Chashmah | Rakshabandhan | Full Episode | तारक मेहता",
            "url": "https://www.youtube.com/watch?v=EtQDesx98fI",
            "duration": 1157.0,
            "view_count": 15130237,
            "uploader": "Taarak Mehta Ka Ooltah Chashmah",
            "category": "taarak_mehta",
            "thumbnail": "https://i.ytimg.com/vi/EtQDesx98fI/hq720.jpg"
        },
        {
            "id": "50PFCi_Fv08",
            "title": "Mobile Phone ने कैसे बढ़ाई Gents की मुसीबत? | Taarak Mehta Ka Ooltah Chashmah | Mobile Phone Madness",
            "url": "https://www.youtube.com/watch?v=50PFCi_Fv08",
            "duration": 2329.0,
            "view_count": 8639,
            "uploader": "Taarak Mehta Ka Ooltah Chashmah Episodes",
            "category": "taarak_mehta",
            "thumbnail": "https://i.ytimg.com/vi/50PFCi_Fv08/hq720.jpg"
        },
        {
            "id": "s-PUdP_hSKs",
            "title": "Daya Breaks Jethalal's Leg?! 😱😂 | Full Movie | Taarak Mehta Ka Ooltah Chashmah",
            "url": "https://www.youtube.com/watch?v=s-PUdP_hSKs",
            "duration": 2814.0,
            "view_count": 104980,
            "uploader": "Taarak Mehta Ka Ooltah Chashmah Episodes",
            "category": "taarak_mehta",
            "thumbnail": "https://i.ytimg.com/vi/s-PUdP_hSKs/hqdefault.jpg"
        },
        {
            "id": "zP-_F9zPaWE",
            "title": "छुप छुपकर Jethalal Sun Raha hai Kiski बातें ! | FULL MOVIE | Taarak Mehta Ka Ooltah Chashmah",
            "url": "https://www.youtube.com/watch?v=zP-_F9zPaWE",
            "duration": 2159.0,
            "view_count": 53237,
            "uploader": "Taarak Mehta Ka Ooltah Chashmah",
            "category": "taarak_mehta",
            "thumbnail": "https://i.ytimg.com/vi/zP-_F9zPaWE/hq720.jpg"
        },
        {
            "id": "VyKFqEQWgYg",
            "title": "Bhide Decides To Buy Gold | Taarak Mehta Ka Ooltah Chashmah| Full Ep 4660 | 17 Mar 2026| New Episode",
            "url": "https://www.youtube.com/watch?v=VyKFqEQWgYg",
            "duration": 1300.0,
            "view_count": 666822,
            "uploader": "Taarak Mehta Ka Ooltah Chashmah Episodes",
            "category": "taarak_mehta",
            "thumbnail": "https://i.ytimg.com/vi/VyKFqEQWgYg/hq720.jpg"
        },
        {
            "id": "UUjSvbXOP4o",
            "title": "किससे डर कर छिप रहा है Popatlal? | Taarak Mehta Ka Ooltah Chashmah | Popatlal's Madness",
            "url": "https://www.youtube.com/watch?v=UUjSvbXOP4o",
            "duration": 3413.0,
            "view_count": 6064,
            "uploader": "Taarak Mehta Ka Ooltah Chashmah Episodes",
            "category": "taarak_mehta",
            "thumbnail": "https://i.ytimg.com/vi/UUjSvbXOP4o/hq720.jpg"
        },
        {
            "id": "jhixks7-m8I",
            "title": "क्या Tapu Sena ढूँढ पाएगी Abdul की Cycle? | Taarak Mehta Ka Ooltah Chashmah | Abdul's Cycle",
            "url": "https://www.youtube.com/watch?v=jhixks7-m8I",
            "duration": 3765.0,
            "view_count": 3805,
            "uploader": "Taarak Mehta Ka Ooltah Chashmah Episodes",
            "category": "taarak_mehta",
            "thumbnail": "https://i.ytimg.com/vi/jhixks7-m8I/hq720.jpg"
        },
        {
            "id": "x7Tm0ky9SL8",
            "title": "Bhide Family Ne Sath Me Manya Gudi Padwa | FULL MOVIE | Taarak Mehta Ka Ooltah Chashmah",
            "url": "https://www.youtube.com/watch?v=x7Tm0ky9SL8",
            "duration": 2789.0,
            "view_count": 37027,
            "uploader": "Taarak Mehta Ka Ooltah Chashmah",
            "category": "taarak_mehta",
            "thumbnail": "https://i.ytimg.com/vi/x7Tm0ky9SL8/hq720.jpg"
        },
        {
            "id": "OUBp4I-6_mg",
            "title": "Jethya ki nind se pareshan hue Bapuji! | FULL MOVIE | Taarak Mehta Ka Ooltah Chashmah",
            "url": "https://www.youtube.com/watch?v=OUBp4I-6_mg",
            "duration": 2198.0,
            "view_count": 109126,
            "uploader": "Taarak Mehta Ka Ooltah Chashmah",
            "category": "taarak_mehta",
            "thumbnail": "https://i.ytimg.com/vi/OUBp4I-6_mg/hq720.jpg"
        },
        {
            "id": "1oWqq95OoGk",
            "title": "NEW! Ep 4661 - Society Walo se Bhide ne Kyu Liya Karz! | Taarak Mehta ka Ooltah  Chashmah",
            "url": "https://www.youtube.com/watch?v=1oWqq95OoGk",
            "duration": 617.0,
            "view_count": 1681326,
            "uploader": "Taarak Mehta Ka Ooltah Chashmah",
            "category": "taarak_mehta",
            "thumbnail": "https://i.ytimg.com/vi/1oWqq95OoGk/hq720.jpg"
        },
        {
            "id": "HaXiPaKQtX0",
            "title": "Society Compound Me Kyu Chillane Laga Jethya  | FULL MOVIE | Taarak Mehta Ka Ooltah Chashmah",
            "url": "https://www.youtube.com/watch?v=HaXiPaKQtX0",
            "duration": 2884.0,
            "view_count": 59140,
            "uploader": "Taarak Mehta Ka Ooltah Chashmah",
            "category": "taarak_mehta",
            "thumbnail": "https://i.ytimg.com/vi/HaXiPaKQtX0/hq720.jpg"
        },
        {
            "id": "n-YXgCMNSik",
            "title": "Mrs.Sharma ने माँगी Bhide और Madhavi से माफ़ी | Taarak Mehta Ka Ooltah Chashmah | Sonu's Business",
            "url": "https://www.youtube.com/watch?v=n-YXgCMNSik",
            "duration": 3425.0,
            "view_count": 2551,
            "uploader": "Taarak Mehta Ka Ooltah Chashmah Episodes",
            "category": "taarak_mehta",
            "thumbnail": "https://i.ytimg.com/vi/n-YXgCMNSik/hq720.jpg"
        },
        {
            "id": "rVDUBYLUoEM",
            "title": "Bhide ko Kyu Laga Abdul ka Soda Kadwa! | FULL MOVIE | Taarak Mehta Ka Ooltah Chashmah",
            "url": "https://www.youtube.com/watch?v=rVDUBYLUoEM",
            "duration": 3085.0,
            "view_count": 6962744,
            "uploader": "Taarak Mehta Ka Ooltah Chashmah",
            "category": "taarak_mehta",
            "thumbnail": "https://i.ytimg.com/vi/rVDUBYLUoEM/hq720.jpg"
        },
        {
            "id": "agIHxUEdtos",
            "title": "किसने किया Popat पर जादू? | Taarak Mehta Ka Ooltah Chashmah | Popat Ki Shadi",
            "url": "https://www.youtube.com/watch?v=agIHxUEdtos",
            "duration": 2219.0,
            "view_count": 101138,
            "uploader": "Taarak Mehta Ka Ooltah Chashmah Episodes",
            "category": "taarak_mehta",
            "thumbnail": "https://i.ytimg.com/vi/agIHxUEdtos/hq720.jpg"
        },
        {
            "id": "uPK2qz28wIE",
            "title": "Bhide & Madhvi's Surprise | Taarak Mehta Ka Ooltah Chashmah| Full Ep 4661 | 18 Mar 2026| New Episode",
            "url": "https://www.youtube.com/watch?v=uPK2qz28wIE",
            "duration": 1327.0,
            "view_count": 773033,
            "uploader": "Taarak Mehta Ka Ooltah Chashmah Episodes",
            "category": "taarak_mehta",
            "thumbnail": "https://i.ytimg.com/vi/uPK2qz28wIE/hq720.jpg"
        }
    ]
}