{
    "page": 90,
    "total_pages": 103,
    "total_items": 5125,
    "items": [
        {
            "id": "Y91dx2_Ksis",
            "title": "Kris Roll No 21🪈| Indian Army Day | Kris Inspires Young Heroes!😎| Cartoon for Kids😍​",
            "url": "https://www.youtube.com/watch?v=Y91dx2_Ksis",
            "duration": 3711.0,
            "view_count": 7645,
            "uploader": "Discovery Kids In",
            "category": "cartoons/roll_no_21",
            "thumbnail": "https://i.ytimg.com/vi/Y91dx2_Ksis/hq720.jpg"
        },
        {
            "id": "hMYbEhD2blY",
            "title": "Kris Roll No 21🪈| Bachon Ki Bombastic Fair Masti! 😆 | Watch Kris Cartoon 😍| @DiscoveryKidsIN",
            "url": "https://www.youtube.com/watch?v=hMYbEhD2blY",
            "duration": 3585.0,
            "view_count": 105318,
            "uploader": "Discovery Kids In",
            "category": "cartoons/roll_no_21",
            "thumbnail": "https://i.ytimg.com/vi/hMYbEhD2blY/hq720.jpg"
        },
        {
            "id": "IATDg6oyd-c",
            "title": "Roll No 21 - Kris Aur Aflatoon Africa Full Movie In Hindi HD || Kris Roll No 21 New Movie",
            "url": "https://www.youtube.com/watch?v=IATDg6oyd-c",
            "duration": 3910.0,
            "view_count": 278,
            "uploader": "J1 Kids • 3.8M Views • 58 Minutes Ago             ",
            "category": "cartoons/roll_no_21",
            "thumbnail": "https://i.ytimg.com/vi/IATDg6oyd-c/hq720.jpg"
        },
        {
            "id": "_uu6HioovVI",
            "title": "Kris Ka Favourite TV Show! | World Television Day 📺| #krishna | Cartoon for Kids | @DiscoveryKidsIN",
            "url": "https://www.youtube.com/watch?v=_uu6HioovVI",
            "duration": 3732.0,
            "view_count": 880962,
            "uploader": "Discovery Kids In",
            "category": "cartoons/roll_no_21",
            "thumbnail": "https://i.ytimg.com/vi/_uu6HioovVI/hq720.jpg"
        },
        {
            "id": "ekqkO9qVD7E",
            "title": "Kris Roll No 21 🪈| Monster Book Ka Mayajaal! | Full Episode😍 | Cartoon Videos | @DiscoveryKidsIN",
            "url": "https://www.youtube.com/watch?v=ekqkO9qVD7E",
            "duration": 661.0,
            "view_count": 71308,
            "uploader": "Discovery Kids In",
            "category": "cartoons/roll_no_21",
            "thumbnail": "https://i.ytimg.com/vi/ekqkO9qVD7E/hq720.jpg"
        },
        {
            "id": "hClZc69KZ9A",
            "title": "Roll No 21 - Kris Chala Jaadui Jimbura Full Movie In Hindi HD || Kris Roll No 21 New Movie",
            "url": "https://www.youtube.com/watch?v=hClZc69KZ9A",
            "duration": 3818.0,
            "view_count": 179,
            "uploader": "J1 Kids • 3.8M Views • 58 Minutes Ago             ",
            "category": "cartoons/roll_no_21",
            "thumbnail": "https://i.ytimg.com/vi/hClZc69KZ9A/hq720.jpg"
        },
        {
            "id": "0ZtjB6IQPBE",
            "title": "Kris Roll No 21🪈| Sweets Ki Chori, Kris Ki Glory! | Kids Cartoon 😍| @DiscoveryKidsIN",
            "url": "https://www.youtube.com/watch?v=0ZtjB6IQPBE",
            "duration": 3621.0,
            "view_count": 45596,
            "uploader": "Discovery Kids In",
            "category": "cartoons/roll_no_21",
            "thumbnail": "https://i.ytimg.com/vi/0ZtjB6IQPBE/hq720.jpg"
        },
        {
            "id": "od0zzVXHefY",
            "title": "Kris Roll No 21 🪈| Mission Impossible? Not for Kris! | Watch Cartoon 🌈 | @DiscoveryKidsIN",
            "url": "https://www.youtube.com/watch?v=od0zzVXHefY",
            "duration": 3405.0,
            "view_count": 159388,
            "uploader": "Discovery Kids In",
            "category": "cartoons/roll_no_21",
            "thumbnail": "https://i.ytimg.com/vi/od0zzVXHefY/hq720.jpg"
        },
        {
            "id": "C1FCwK1xolI",
            "title": "Kris Roll No 21🪈| Kris Hogaya Laapata! | Compilation | Cartoon for Kids | #krishna | Discovery Kids",
            "url": "https://www.youtube.com/watch?v=C1FCwK1xolI",
            "duration": 3767.0,
            "view_count": 102040,
            "uploader": "Discovery Kids In",
            "category": "cartoons/roll_no_21",
            "thumbnail": "https://i.ytimg.com/vi/C1FCwK1xolI/hq720.jpg"
        },
        {
            "id": "u8DivmpD-g0",
            "title": "Kris Roll No 21 🪈| Kris Ki Strength Ka Ultimate Test! 😎 | #krishna | Compilation | @DiscoveryKidsIN",
            "url": "https://www.youtube.com/watch?v=u8DivmpD-g0",
            "duration": 3680.0,
            "view_count": 126576,
            "uploader": "Discovery Kids In",
            "category": "cartoons/roll_no_21",
            "thumbnail": "https://i.ytimg.com/vi/u8DivmpD-g0/hq720.jpg"
        },
        {
            "id": "v-RoRqrA0tg",
            "title": "Kris-Kanishq nonstop entertainment 🥳| Kris Roll No 21 🪈 | Full Episode 🤩 | Discovery Kids India ✨",
            "url": "https://www.youtube.com/watch?v=v-RoRqrA0tg",
            "duration": 674.0,
            "view_count": 326746,
            "uploader": "Discovery Kids In",
            "category": "cartoons/roll_no_21",
            "thumbnail": "https://i.ytimg.com/vi/v-RoRqrA0tg/hq720.jpg"
        },
        {
            "id": "4Nr2Lzr-eSs",
            "title": "Kris Roll No 21 🪈| Dosti Ka Hero! 💪 | Compilation | #krishna | Cartoon for Kids | @DiscoveryKidsIN",
            "url": "https://www.youtube.com/watch?v=4Nr2Lzr-eSs",
            "duration": 3748.0,
            "view_count": 140549,
            "uploader": "Discovery Kids In",
            "category": "cartoons/roll_no_21",
            "thumbnail": "https://i.ytimg.com/vi/4Nr2Lzr-eSs/hq720.jpg"
        },
        {
            "id": "zBQhnkjRZds",
            "title": "Kris Chala Jaadui Jimbura | Roll no 21 | Part 1 | ROLL NO 21 credit by - Discovery Kids In #cartoon ",
            "url": "https://www.youtube.com/watch?v=zBQhnkjRZds",
            "duration": 606.0,
            "view_count": 3395,
            "uploader": "ROLL NO 21",
            "category": "cartoons/roll_no_21",
            "thumbnail": "https://i.ytimg.com/vi/zBQhnkjRZds/hqdefault.jpg"
        },
        {
            "id": "YBi8nO1iO10",
            "title": "Roll no. 21 Oh Mummy Full episode in Hindi | New Cartoon in Hindi",
            "url": "https://www.youtube.com/watch?v=YBi8nO1iO10",
            "duration": 724.0,
            "view_count": 764,
            "uploader": "Roll no.21 Hindi ",
            "category": "cartoons/roll_no_21",
            "thumbnail": "https://i.ytimg.com/vi/YBi8nO1iO10/hq720.jpg"
        },
        {
            "id": "zLjQHO9aFsU",
            "title": "Kris Roll No 21🪈| Too Smart to Trap! 😆| Cartoon for Kids 😍| Kris  Cartoon @DiscoveryKidsIN ​",
            "url": "https://www.youtube.com/watch?v=zLjQHO9aFsU",
            "duration": 3083.0,
            "view_count": 111756,
            "uploader": "Discovery Kids In",
            "category": "cartoons/roll_no_21",
            "thumbnail": "https://i.ytimg.com/vi/zLjQHO9aFsU/hq720.jpg"
        },
        {
            "id": "EpvaGLYZPCo",
            "title": "Kris Ke Top Moments | Kris Roll No. 21 | Kris Cartoon | Cartoon in Hindi | Discovery Kids India",
            "url": "https://www.youtube.com/watch?v=EpvaGLYZPCo",
            "duration": 618.0,
            "view_count": 1643247,
            "uploader": "Discovery Kids In",
            "category": "cartoons/roll_no_21",
            "thumbnail": "https://i.ytimg.com/vi/EpvaGLYZPCo/hq720.jpg"
        },
        {
            "id": "7WYumgy9Smk",
            "title": "Kris Ki Janmashtami Masti! 🤗 | Kris Roll No 21 🪈| #jayshreekrishna | #janmashtami | @DiscoveryKidsIN",
            "url": "https://www.youtube.com/watch?v=7WYumgy9Smk",
            "duration": 3826.0,
            "view_count": 2195819,
            "uploader": "Discovery Kids In",
            "category": "cartoons/roll_no_21",
            "thumbnail": "https://i.ytimg.com/vi/7WYumgy9Smk/hq720.jpg"
        },
        {
            "id": "OYjs3m6VU1A",
            "title": "Kris Roll No 21 🪈| Kris Hogaya Raba Daba Jaba! 🪄😲 | Compilation | #krishna | @DiscoveryKidsIN",
            "url": "https://www.youtube.com/watch?v=OYjs3m6VU1A",
            "duration": 3767.0,
            "view_count": 66306,
            "uploader": "Discovery Kids In",
            "category": "cartoons/roll_no_21",
            "thumbnail": "https://i.ytimg.com/vi/OYjs3m6VU1A/hq720.jpg"
        },
        {
            "id": "HMN8GVPndGU",
            "title": "Kris Roll No 21 🪈| Kris Ka Battle With The Evil Duo! | Full Episode 😍| #krishna | @DiscoveryKidsIN",
            "url": "https://www.youtube.com/watch?v=HMN8GVPndGU",
            "duration": 615.0,
            "view_count": 1413775,
            "uploader": "Discovery Kids In",
            "category": "cartoons/roll_no_21",
            "thumbnail": "https://i.ytimg.com/vi/HMN8GVPndGU/hq720.jpg"
        },
        {
            "id": "wIRXoq-oae8",
            "title": "Kris Roll No 21 🪈| Kris Ka Ultimate Survival Challenge! | Kids Cartoon 🥳| @DiscoveryKidsIN",
            "url": "https://www.youtube.com/watch?v=wIRXoq-oae8",
            "duration": 3676.0,
            "view_count": 163335,
            "uploader": "Discovery Kids In",
            "category": "cartoons/roll_no_21",
            "thumbnail": "https://i.ytimg.com/vi/wIRXoq-oae8/hq720.jpg"
        },
        {
            "id": "JR5A7yC7VzY",
            "title": "Roll No 21 - Kris vs Zombies In Hindi prat 1 #india #bollywood #hindi",
            "url": "https://www.youtube.com/watch?v=JR5A7yC7VzY",
            "duration": 2127.0,
            "view_count": 11971,
            "uploader": "Movies 1only  Entertainment   Hindi",
            "category": "cartoons/roll_no_21",
            "thumbnail": "https://i.ytimg.com/vi/JR5A7yC7VzY/hqdefault.jpg"
        },
        {
            "id": "kSrL6bL8Ja8",
            "title": "The Heat Is On😎🔥| Kris Roll No 21🦚| Kris Vs Kanishk👊| Cartoon For Kids😍| @DiscoveryKidsIN​",
            "url": "https://www.youtube.com/watch?v=kSrL6bL8Ja8",
            "duration": 3610.0,
            "view_count": 83,
            "uploader": "Discovery Kids In",
            "category": "cartoons/roll_no_21",
            "thumbnail": "https://i.ytimg.com/vi/kSrL6bL8Ja8/hq720.jpg"
        },
        {
            "id": "6JhFurjotc8",
            "title": "Kris Ka Super Chemical Plan! 😎 | Kris Roll No 21 🪈 | #kris | #jaishreekrishna | @DiscoveryKidsIN",
            "url": "https://www.youtube.com/watch?v=6JhFurjotc8",
            "duration": 707.0,
            "view_count": 536171,
            "uploader": "Discovery Kids In",
            "category": "cartoons/roll_no_21",
            "thumbnail": "https://i.ytimg.com/vi/6JhFurjotc8/hq720.jpg"
        },
        {
            "id": "E44Z9XMCuCY",
            "title": "Rudra | रुद्र | Season 3 | Full Episode | Akkad Bakkad Magician",
            "url": "https://www.youtube.com/watch?v=E44Z9XMCuCY",
            "duration": 1256.0,
            "view_count": 3248759,
            "uploader": "Sonic Gang",
            "category": "cartoons/rudra",
            "thumbnail": "https://i.ytimg.com/vi/E44Z9XMCuCY/hq720.jpg"
        },
        {
            "id": "-Cv3ks0KHI4",
            "title": "Rudra Ne Di Shakaal Ko Ultimate Takkar | Rudra Vs Shakaal | Rudra | Kiddie Land",
            "url": "https://www.youtube.com/watch?v=-Cv3ks0KHI4",
            "duration": 1241.0,
            "view_count": 723786,
            "uploader": "Kiddie Land",
            "category": "cartoons/rudra",
            "thumbnail": "https://i.ytimg.com/vi/-Cv3ks0KHI4/hq720.jpg"
        },
        {
            "id": "MX1jOsvaH8U",
            "title": "Rudra - Dawn of the Dangerous Dongreela! | Full Movie",
            "url": "https://www.youtube.com/watch?v=MX1jOsvaH8U",
            "duration": 5102.0,
            "view_count": 9543864,
            "uploader": "JioHotstar Kids",
            "category": "cartoons/rudra",
            "thumbnail": "https://i.ytimg.com/vi/MX1jOsvaH8U/hq720.jpg"
        },
        {
            "id": "aaMSy2idKbE",
            "title": "जब Rudra की शक्ति हुई FAIL!! | Rudra : Secret Of Black Moon | Full Movie",
            "url": "https://www.youtube.com/watch?v=aaMSy2idKbE",
            "duration": 5225.0,
            "view_count": 3844236,
            "uploader": "Sonic Gang Hindi Movies",
            "category": "cartoons/rudra",
            "thumbnail": "https://i.ytimg.com/vi/aaMSy2idKbE/hq720.jpg"
        },
        {
            "id": "7YiCMaGmpSk",
            "title": "New Hindi Cartoon Movie Rudra land of no where",
            "url": "https://www.youtube.com/watch?v=7YiCMaGmpSk",
            "duration": 5420.0,
            "view_count": 4069138,
            "uploader": "Animation Wala ASH",
            "category": "cartoons/rudra",
            "thumbnail": "https://i.ytimg.com/vi/7YiCMaGmpSk/hq720.jpg"
        },
        {
            "id": "KTVnIOklOkI",
            "title": "Rudra land of nowhere| full movie in Hindi| Rudra | #newmovie ",
            "url": "https://www.youtube.com/watch?v=KTVnIOklOkI",
            "duration": 5420.0,
            "view_count": 9942,
            "uploader": "Nicksonic ",
            "category": "cartoons/rudra",
            "thumbnail": "https://i.ytimg.com/vi/KTVnIOklOkI/hq720.jpg"
        },
        {
            "id": "5t2eaTg4kqQ",
            "title": "Rudra का mission Uranium hunter को रोकना! | Rudra",
            "url": "https://www.youtube.com/watch?v=5t2eaTg4kqQ",
            "duration": 1282.0,
            "view_count": 9157198,
            "uploader": "Rudra",
            "category": "cartoons/rudra",
            "thumbnail": "https://i.ytimg.com/vi/5t2eaTg4kqQ/hq720.jpg"
        },
        {
            "id": "9SNvW58DzjA",
            "title": "Rudra | रुद्र | Season 4 | Full Episode | Diwali in academy",
            "url": "https://www.youtube.com/watch?v=9SNvW58DzjA",
            "duration": 1151.0,
            "view_count": 1528221,
            "uploader": "Sonic Gang",
            "category": "cartoons/rudra",
            "thumbnail": "https://i.ytimg.com/vi/9SNvW58DzjA/hq720.jpg"
        },
        {
            "id": "lJETd3wE4cc",
            "title": "Rudra | रुद्र | Season 3 | Full Episode | Akkad Bakkad Magician",
            "url": "https://www.youtube.com/watch?v=lJETd3wE4cc",
            "duration": 1245.0,
            "view_count": 14715296,
            "uploader": "Sonic Gang",
            "category": "cartoons/rudra",
            "thumbnail": "https://i.ytimg.com/vi/lJETd3wE4cc/hq720.jpg"
        },
        {
            "id": "YzompaBL6Cg",
            "title": "Rudra got into trouble with rubber 😨! | Rudra",
            "url": "https://www.youtube.com/watch?v=YzompaBL6Cg",
            "duration": 1241.0,
            "view_count": 202114,
            "uploader": "Magic of Rudra",
            "category": "cartoons/rudra",
            "thumbnail": "https://i.ytimg.com/vi/YzompaBL6Cg/hq720.jpg"
        },
        {
            "id": "h9kTltMaJ1o",
            "title": "Rudra | रुद्र | Trap Of Shakaal! | Episodes 1 to 3 | Back 2 Back",
            "url": "https://www.youtube.com/watch?v=h9kTltMaJ1o",
            "duration": 3648.0,
            "view_count": 12391338,
            "uploader": "JioHotstar Kids",
            "category": "cartoons/rudra",
            "thumbnail": "https://i.ytimg.com/vi/h9kTltMaJ1o/hq720.jpg"
        },
        {
            "id": "TaR38hmoxGc",
            "title": "Rudra | रुद्र | Season 5 | Full Episode | Holi के दिन Raftaardhari ने मचाया बवाल! 😱🎨",
            "url": "https://www.youtube.com/watch?v=TaR38hmoxGc",
            "duration": 1258.0,
            "view_count": 2565496,
            "uploader": "Sonic Gang",
            "category": "cartoons/rudra",
            "thumbnail": "https://i.ytimg.com/vi/TaR38hmoxGc/hq720.jpg"
        },
        {
            "id": "j5mKrrfGrYs",
            "title": "The Uranium Hunter  V/S Rudra | Dus Din, Dus Villain |😜👹 | Dussehra Masti Special – 7",
            "url": "https://www.youtube.com/watch?v=j5mKrrfGrYs",
            "duration": 1313.0,
            "view_count": 1347408,
            "uploader": "Rudra",
            "category": "cartoons/rudra",
            "thumbnail": "https://i.ytimg.com/vi/j5mKrrfGrYs/hq720.jpg"
        },
        {
            "id": "Q9-jB1rhYjc",
            "title": "Rudra | रुद्र | Season 4 | Full Episode | shakal As Principal",
            "url": "https://www.youtube.com/watch?v=Q9-jB1rhYjc",
            "duration": 1214.0,
            "view_count": 1727953,
            "uploader": "Sonic Gang",
            "category": "cartoons/rudra",
            "thumbnail": "https://i.ytimg.com/vi/Q9-jB1rhYjc/hq720.jpg"
        },
        {
            "id": "ZxBIivo4_I4",
            "title": "Rudra | रुद्र | The Magical Wings Of Shakal | Episode 20",
            "url": "https://www.youtube.com/watch?v=ZxBIivo4_I4",
            "duration": 1242.0,
            "view_count": 2863972,
            "uploader": "JioHotstar Kids",
            "category": "cartoons/rudra",
            "thumbnail": "https://i.ytimg.com/vi/ZxBIivo4_I4/hq720.jpg"
        },
        {
            "id": "0gEB2lO5a64",
            "title": "Shakaal की Magical 🪄 portrait conspiracy! | Rudra",
            "url": "https://www.youtube.com/watch?v=0gEB2lO5a64",
            "duration": 2812.0,
            "view_count": 4828643,
            "uploader": "Rudra",
            "category": "cartoons/rudra",
            "thumbnail": "https://i.ytimg.com/vi/0gEB2lO5a64/hq720.jpg"
        },
        {
            "id": "JtcTE8xhUv8",
            "title": "Rudra | रुद्र | Season 4 | Full Episode | Evil cake of Shakleena",
            "url": "https://www.youtube.com/watch?v=JtcTE8xhUv8",
            "duration": 1229.0,
            "view_count": 14537943,
            "uploader": "Sonic Gang",
            "category": "cartoons/rudra",
            "thumbnail": "https://i.ytimg.com/vi/JtcTE8xhUv8/hq720.jpg"
        },
        {
            "id": "smddC7t0IO4",
            "title": "Shakaal ने बनाया Sun City को Space City! | Rudra",
            "url": "https://www.youtube.com/watch?v=smddC7t0IO4",
            "duration": 1315.0,
            "view_count": 1329829,
            "uploader": "Rudra",
            "category": "cartoons/rudra",
            "thumbnail": "https://i.ytimg.com/vi/smddC7t0IO4/hq720.jpg"
        },
        {
            "id": "HL7nkozrbCY",
            "title": "Rudra | रुद्र | Season 3 | Full Episode | Shakaal Takes Over Suncity",
            "url": "https://www.youtube.com/watch?v=HL7nkozrbCY",
            "duration": 1244.0,
            "view_count": 16657523,
            "uploader": "Sonic Gang",
            "category": "cartoons/rudra",
            "thumbnail": "https://i.ytimg.com/vi/HL7nkozrbCY/hq720.jpg"
        },
        {
            "id": "_dPu6VchcvA",
            "title": "Rudra | रुद्र | Season 5 | Full Episode | Rudra का Birthday 🎂",
            "url": "https://www.youtube.com/watch?v=_dPu6VchcvA",
            "duration": 1267.0,
            "view_count": 4393821,
            "uploader": "Sonic Gang",
            "category": "cartoons/rudra",
            "thumbnail": "https://i.ytimg.com/vi/_dPu6VchcvA/hq720.jpg"
        },
        {
            "id": "yzkHqzuplDc",
            "title": "🧿✨ “जब Rudra ने कहा ‘Boom Chik Chik Boom!’ 🧙‍♂✨” | Rudra",
            "url": "https://www.youtube.com/watch?v=yzkHqzuplDc",
            "duration": 2467.0,
            "view_count": 43957,
            "uploader": "Rudra",
            "category": "cartoons/rudra",
            "thumbnail": "https://i.ytimg.com/vi/yzkHqzuplDc/hq720.jpg"
        },
        {
            "id": "cgU1um9BfSM",
            "title": "Magical Dog | Rudra | रुद्र",
            "url": "https://www.youtube.com/watch?v=cgU1um9BfSM",
            "duration": 3630.0,
            "view_count": 2044992,
            "uploader": "Sonic Gang",
            "category": "cartoons/rudra",
            "thumbnail": "https://i.ytimg.com/vi/cgU1um9BfSM/hq720.jpg"
        },
        {
            "id": "kQXW-XAdJZc",
            "title": "👉 “ जब  जब Rudra ने कहा: Boom Chik Chik Boom! 🧿✨” | Rudra",
            "url": "https://www.youtube.com/watch?v=kQXW-XAdJZc",
            "duration": 1838.0,
            "view_count": 27640,
            "uploader": "Rudra",
            "category": "cartoons/rudra",
            "thumbnail": "https://i.ytimg.com/vi/kQXW-XAdJZc/hq720.jpg"
        },
        {
            "id": "GzDq1OijgfU",
            "title": "Rudra का ⚽ Flying Soccer मुकाबला Shakaal से! | Rudra | रुद्र",
            "url": "https://www.youtube.com/watch?v=GzDq1OijgfU",
            "duration": 3663.0,
            "view_count": 6826661,
            "uploader": "Sonic Gang",
            "category": "cartoons/rudra",
            "thumbnail": "https://i.ytimg.com/vi/GzDq1OijgfU/hq720.jpg"
        },
        {
            "id": "BQBkZpok16k",
            "title": "New Principal Shakaal Ne Machai Rudra Ke Shool Main Tabahi | Rudra | Kiddie Land",
            "url": "https://www.youtube.com/watch?v=BQBkZpok16k",
            "duration": 1287.0,
            "view_count": 1013697,
            "uploader": "Kiddie Land",
            "category": "cartoons/rudra",
            "thumbnail": "https://i.ytimg.com/vi/BQBkZpok16k/hq720.jpg"
        },
        {
            "id": "CGGoBAsCSBo",
            "title": "Magical  City के शैतानी बच्चे कर रहे है  Sun City में Masti 🤪! | Rudra",
            "url": "https://www.youtube.com/watch?v=CGGoBAsCSBo",
            "duration": 1304.0,
            "view_count": 431519,
            "uploader": "Rudra",
            "category": "cartoons/rudra",
            "thumbnail": "https://i.ytimg.com/vi/CGGoBAsCSBo/hq720.jpg"
        },
        {
            "id": "pwq7NhbbEds",
            "title": "मैंने तुम्हारे लिए ये सब चाल चली। | रुद्र | Season 4 | Full Episode | School Admission Conspiracy",
            "url": "https://www.youtube.com/watch?v=pwq7NhbbEds",
            "duration": 2751.0,
            "view_count": 1865162,
            "uploader": "Sonic Gang",
            "category": "cartoons/rudra",
            "thumbnail": "https://i.ytimg.com/vi/pwq7NhbbEds/hq720.jpg"
        }
    ]
}