{
    "page": 67,
    "total_pages": 103,
    "total_items": 5125,
    "items": [
        {
            "id": "gHPdLMRNrKs",
            "title": "फ्री स्टाइल कुश्ती | Honey Bunny Ka Jholmaal | Funny videos for kids in Hindi | बच्चों की कहानियाँ",
            "url": "https://www.youtube.com/watch?v=gHPdLMRNrKs",
            "duration": 655.0,
            "view_count": 10241582,
            "uploader": "Sony YAY!",
            "category": "cartoons/honey_bunny_ka_jholmaal",
            "thumbnail": "https://i.ytimg.com/vi/gHPdLMRNrKs/hq720.jpg"
        },
        {
            "id": "rshgHdHATDc",
            "title": "ऑनलाइन घोटालेबीज़ी और झोल IHunny Bunny Jholmaal Cartoons for kids Hindi|बच्चो की कहानियां |Sony YAY!",
            "url": "https://www.youtube.com/watch?v=rshgHdHATDc",
            "duration": 1477.0,
            "view_count": 547201,
            "uploader": "Sony YAY!",
            "category": "cartoons/honey_bunny_ka_jholmaal",
            "thumbnail": "https://i.ytimg.com/vi/rshgHdHATDc/hq720.jpg"
        },
        {
            "id": "ejOLGtmllYU",
            "title": "16वीं सदी में हनी बनी? I Hunny Bunny Jholmaal Cartoons for kids Hindi|बच्चो की कहानियां |Sony YAY!",
            "url": "https://www.youtube.com/watch?v=ejOLGtmllYU",
            "duration": 2776.0,
            "view_count": 2736879,
            "uploader": "Sony YAY!",
            "category": "cartoons/honey_bunny_ka_jholmaal",
            "thumbnail": "https://i.ytimg.com/vi/ejOLGtmllYU/hq720.jpg"
        },
        {
            "id": "_-ksON2-P-g",
            "title": "हनी बनी और विमान अपहरण की कहानीIHunnyBunnyJholmaal Cartoonsforkids Hindi|बच्चो की कहानियां|Sony YAY!",
            "url": "https://www.youtube.com/watch?v=_-ksON2-P-g",
            "duration": 2886.0,
            "view_count": 1705714,
            "uploader": "Sony YAY!",
            "category": "cartoons/honey_bunny_ka_jholmaal",
            "thumbnail": "https://i.ytimg.com/vi/_-ksON2-P-g/hq720.jpg"
        },
        {
            "id": "iTgQztt8tsM",
            "title": "साइकिलिंग प्रतियोगिता | Honey Bunny Ka Jholmaal |Funny videos for kids in Hindi | बच्चों की कहानियाँ",
            "url": "https://www.youtube.com/watch?v=iTgQztt8tsM",
            "duration": 664.0,
            "view_count": 16916286,
            "uploader": "Sony YAY!",
            "category": "cartoons/honey_bunny_ka_jholmaal",
            "thumbnail": "https://i.ytimg.com/vi/iTgQztt8tsM/hq720.jpg"
        },
        {
            "id": "H2oG6gBkt_A",
            "title": "गलत पता की कहानी | Funny videos for kids in Hindi | बच्चों की कहानियाँ | हनी बन्नी का झोलमाल",
            "url": "https://www.youtube.com/watch?v=H2oG6gBkt_A",
            "duration": 710.0,
            "view_count": 6120041,
            "uploader": "Sony YAY!",
            "category": "cartoons/honey_bunny_ka_jholmaal",
            "thumbnail": "https://i.ytimg.com/vi/H2oG6gBkt_A/hq720.jpg"
        },
        {
            "id": "UkD_DfbMbNo",
            "title": "मौसा का मुश्किल जाल  I Hunny Bunny Jholmaal Cartoons for kids Hindi | बच्चो की कहानियां | Sony YAY!",
            "url": "https://www.youtube.com/watch?v=UkD_DfbMbNo",
            "duration": 669.0,
            "view_count": 1217062,
            "uploader": "Sony YAY!",
            "category": "cartoons/honey_bunny_ka_jholmaal",
            "thumbnail": "https://i.ytimg.com/vi/UkD_DfbMbNo/hq720.jpg"
        },
        {
            "id": "LPNj6IQd0kk",
            "title": "नंदू डॉन को मिला सबक | Honey Bunny Ka Jholmaal | Funny videos for kids in Hindi | बच्चों की कहानियाँ",
            "url": "https://www.youtube.com/watch?v=LPNj6IQd0kk",
            "duration": 839.0,
            "view_count": 5230426,
            "uploader": "Sony YAY!",
            "category": "cartoons/honey_bunny_ka_jholmaal",
            "thumbnail": "https://i.ytimg.com/vi/LPNj6IQd0kk/hq720.jpg"
        },
        {
            "id": "tRHlFda-Eto",
            "title": "फ़िल्मी भूतनी का कांड I Hunny Bunny Jholmaal Cartoons for kids Hindi | बच्चो की कहानियां | Sony YAY",
            "url": "https://www.youtube.com/watch?v=tRHlFda-Eto",
            "duration": 685.0,
            "view_count": 197295,
            "uploader": "Sony YAY!",
            "category": "cartoons/honey_bunny_ka_jholmaal",
            "thumbnail": "https://i.ytimg.com/vi/tRHlFda-Eto/hq720.jpg"
        },
        {
            "id": "sZv38mDrkiw",
            "title": "पाँच नहीं तो कुछ नहीं I Hunny Bunny Jholmaal Cartoons for kids Hindi | बच्चो की कहानियां | Sony YAY",
            "url": "https://www.youtube.com/watch?v=sZv38mDrkiw",
            "duration": 713.0,
            "view_count": 284691,
            "uploader": "Sony YAY!",
            "category": "cartoons/honey_bunny_ka_jholmaal",
            "thumbnail": "https://i.ytimg.com/vi/sZv38mDrkiw/hq720.jpg"
        },
        {
            "id": "Wt3lBv8pDZg",
            "title": "जोरदार का जंगल जादू I Hunny Bunny Jholmaal Cartoons for kids Hindi | बच्चो की कहानियां | Sony YAY",
            "url": "https://www.youtube.com/watch?v=Wt3lBv8pDZg",
            "duration": 728.0,
            "view_count": 234634,
            "uploader": "Sony YAY!",
            "category": "cartoons/honey_bunny_ka_jholmaal",
            "thumbnail": "https://i.ytimg.com/vi/Wt3lBv8pDZg/hq720.jpg"
        },
        {
            "id": "pM-3fNACjwY",
            "title": "बावरची  ज़ोरदार | Funny videos for kids in Hindi | बच्चों की कहानियाँ | हनी बन्नी का झोलमाल",
            "url": "https://www.youtube.com/watch?v=pM-3fNACjwY",
            "duration": 724.0,
            "view_count": 8548015,
            "uploader": "Sony YAY!",
            "category": "cartoons/honey_bunny_ka_jholmaal",
            "thumbnail": "https://i.ytimg.com/vi/pM-3fNACjwY/hq720.jpg"
        },
        {
            "id": "WEAAViTIYFw",
            "title": "Book | Hunny Bunny Jholmaal Cartoons for kids Hindi | बच्चो की कहानियां | Sony YAY!",
            "url": "https://www.youtube.com/watch?v=WEAAViTIYFw",
            "duration": 654.0,
            "view_count": 1330850,
            "uploader": "Sony YAY!",
            "category": "cartoons/honey_bunny_ka_jholmaal",
            "thumbnail": "https://i.ytimg.com/vi/WEAAViTIYFw/hq720.jpg"
        },
        {
            "id": "ewk8GJlR6E4",
            "title": "बफ धमाके की धमकी I Hunny Bunny Jholmaal Cartoons for kids Hindi|बच्चो की कहानियां |Sony YAY!",
            "url": "https://www.youtube.com/watch?v=ewk8GJlR6E4",
            "duration": 1441.0,
            "view_count": 912342,
            "uploader": "Sony YAY!",
            "category": "cartoons/honey_bunny_ka_jholmaal",
            "thumbnail": "https://i.ytimg.com/vi/ewk8GJlR6E4/hq720.jpg"
        },
        {
            "id": "YKy98BGAGgk",
            "title": "पेंटिंग चोर की तलाश | Hunny Bunny Jholmaal Cartoons for kids Hindi | बच्चो की कहानियां | Sony YAY!",
            "url": "https://www.youtube.com/watch?v=YKy98BGAGgk",
            "duration": 704.0,
            "view_count": 1015967,
            "uploader": "Sony YAY!",
            "category": "cartoons/honey_bunny_ka_jholmaal",
            "thumbnail": "https://i.ytimg.com/vi/YKy98BGAGgk/hq720.jpg"
        },
        {
            "id": "uVkAx-cHaL4",
            "title": "शरारती बन्नी I Hunny Bunny Jholmaal Cartoons for kids Hindi | बच्चो की कहानियां | Sony YAY",
            "url": "https://www.youtube.com/watch?v=uVkAx-cHaL4",
            "duration": 717.0,
            "view_count": 356181,
            "uploader": "Sony YAY!",
            "category": "cartoons/honey_bunny_ka_jholmaal",
            "thumbnail": "https://i.ytimg.com/vi/uVkAx-cHaL4/hq720.jpg"
        },
        {
            "id": "ARPKO_vg1Rs",
            "title": "पैकेज का हंगामा I Hunny Bunny Jholmaal Cartoons for kids Hindi | बच्चो की कहानियां | Sony YAY",
            "url": "https://www.youtube.com/watch?v=ARPKO_vg1Rs",
            "duration": 707.0,
            "view_count": 190348,
            "uploader": "Sony YAY!",
            "category": "cartoons/honey_bunny_ka_jholmaal",
            "thumbnail": "https://i.ytimg.com/vi/ARPKO_vg1Rs/hq720.jpg"
        },
        {
            "id": "EZV9WxUYa38",
            "title": "मौसा का मुश्किल जाल I Hunny Bunny Jholmaal Cartoons for kids Hindi|बच्चो की कहानियां |Sony YAY!",
            "url": "https://www.youtube.com/watch?v=EZV9WxUYa38",
            "duration": 1384.0,
            "view_count": 907951,
            "uploader": "Sony YAY!",
            "category": "cartoons/honey_bunny_ka_jholmaal",
            "thumbnail": "https://i.ytimg.com/vi/EZV9WxUYa38/hq720.jpg"
        },
        {
            "id": "6RzcZ0ojB38",
            "title": "सिल्वियन कैसल के रहस्य I Hunny Bunny Jholmaal Cartoons for kids Hindi | बच्चो की कहानियां |Sony YAY!",
            "url": "https://www.youtube.com/watch?v=6RzcZ0ojB38",
            "duration": 3011.0,
            "view_count": 1760399,
            "uploader": "Sony YAY!",
            "category": "cartoons/honey_bunny_ka_jholmaal",
            "thumbnail": "https://i.ytimg.com/vi/6RzcZ0ojB38/hq720.jpg"
        },
        {
            "id": "QsvT_Y1jTAI",
            "title": "गलत पता का किस्सा | Funny videos for kids in Hindi | बच्चों की कहानियाँ | हनी बन्नी का झोलमाल",
            "url": "https://www.youtube.com/watch?v=QsvT_Y1jTAI",
            "duration": 711.0,
            "view_count": 0,
            "uploader": "Sony YAY!",
            "category": "cartoons/honey_bunny_ka_jholmaal",
            "thumbnail": "https://i.ytimg.com/vi/QsvT_Y1jTAI/hq720.jpg"
        },
        {
            "id": "M1OTpj3TY7E",
            "title": "ഹണി റാപ്പർ | Honey Bunny Ka Jholmaal | Full Episode in Malayalam | Videos for kids",
            "url": "https://www.youtube.com/watch?v=M1OTpj3TY7E",
            "duration": 895.0,
            "view_count": 3207144,
            "uploader": "Sony YAY! Malayalam",
            "category": "cartoons/honey_bunny_ka_jholmaal",
            "thumbnail": "https://i.ytimg.com/vi/M1OTpj3TY7E/hq720.jpg"
        },
        {
            "id": "GeHXQFZFXqY",
            "title": "गलत पता का किस्सा I Hunny Bunny Jholmaal Cartoons for kids Hindi|बच्चो की कहानियां |Sony YAY!",
            "url": "https://www.youtube.com/watch?v=GeHXQFZFXqY",
            "duration": 723.0,
            "view_count": 0,
            "uploader": "Sony YAY!",
            "category": "cartoons/honey_bunny_ka_jholmaal",
            "thumbnail": "https://i.ytimg.com/vi/GeHXQFZFXqY/hq720.jpg"
        },
        {
            "id": "KBw0KbdSG9I",
            "title": "लाजवाब बावर्ची का खाना I Hunny Bunny Jholmaal Cartoons for kids Hindi | बच्चो की कहानियां |Sony YAY!",
            "url": "https://www.youtube.com/watch?v=KBw0KbdSG9I",
            "duration": 690.0,
            "view_count": 0,
            "uploader": "Sony YAY!",
            "category": "cartoons/honey_bunny_ka_jholmaal",
            "thumbnail": "https://i.ytimg.com/vi/KBw0KbdSG9I/hq720.jpg"
        },
        {
            "id": "rZCjGJQi1k0",
            "title": "बिग ब्रदर honey I Hunny Bunny Jholmaal Cartoons for kids Hindi | बच्चो की कहानियां | Sony YAY!",
            "url": "https://www.youtube.com/watch?v=rZCjGJQi1k0",
            "duration": 683.0,
            "view_count": 0,
            "uploader": "Sony YAY!",
            "category": "cartoons/honey_bunny_ka_jholmaal",
            "thumbnail": "https://i.ytimg.com/vi/rZCjGJQi1k0/hq720.jpg"
        },
        {
            "id": "_TPpOfTV1Ng",
            "title": "शा से सावधान I Hunny Bunny Jholmaal Cartoons for kids Hindi|बच्चो की कहानियां |Sony YAY!",
            "url": "https://www.youtube.com/watch?v=_TPpOfTV1Ng",
            "duration": 674.0,
            "view_count": 931176,
            "uploader": "Sony YAY!",
            "category": "cartoons/honey_bunny_ka_jholmaal",
            "thumbnail": "https://i.ytimg.com/vi/_TPpOfTV1Ng/hq720.jpg"
        },
        {
            "id": "_eabdGGU0C8",
            "title": "मज़ेदार खेल में हनी बनी |बच्चों के लिए चुटकुले |Stories for children| Kids videos|Honey Bunny Cartoon",
            "url": "https://www.youtube.com/watch?v=_eabdGGU0C8",
            "duration": 1970.0,
            "view_count": 30519122,
            "uploader": "Sony YAY!",
            "category": "cartoons/honey_bunny_ka_jholmaal",
            "thumbnail": "https://i.ytimg.com/vi/_eabdGGU0C8/hq720.jpg"
        },
        {
            "id": "wZoug1sUCYo",
            "title": "Photo Recreation | Honey Bunny ka Jholmaal",
            "url": "https://www.youtube.com/watch?v=wZoug1sUCYo",
            "duration": 721.0,
            "view_count": 137979,
            "uploader": "Sony YAY!",
            "category": "cartoons/honey_bunny_ka_jholmaal",
            "thumbnail": "https://i.ytimg.com/vi/wZoug1sUCYo/hq720.jpg"
        },
        {
            "id": "X6Csc3vF2NA",
            "title": "ফটো পুনঃসৃষ্টি | Honey Bunny Ka Jholmaal",
            "url": "https://www.youtube.com/watch?v=X6Csc3vF2NA",
            "duration": 721.0,
            "view_count": 36787,
            "uploader": "Sony YAY! Bangla",
            "category": "cartoons/honey_bunny_ka_jholmaal",
            "thumbnail": "https://i.ytimg.com/vi/X6Csc3vF2NA/hq720.jpg"
        },
        {
            "id": "F0k6h4mh6po",
            "title": "Honey Darling | Honey Bunny ka Jholmaal",
            "url": "https://www.youtube.com/watch?v=F0k6h4mh6po",
            "duration": 713.0,
            "view_count": 117898,
            "uploader": "Sony YAY!",
            "category": "cartoons/honey_bunny_ka_jholmaal",
            "thumbnail": "https://i.ytimg.com/vi/F0k6h4mh6po/hq720.jpg"
        },
        {
            "id": "Wx0ccsL6xjo",
            "title": "Honey प्रिय का किस्सा I Hunny Bunny Jholmaal Cartoons for kids Hindi | बच्चो की कहानियां |Sony YAY!",
            "url": "https://www.youtube.com/watch?v=Wx0ccsL6xjo",
            "duration": 733.0,
            "view_count": 894760,
            "uploader": "Sony YAY!",
            "category": "cartoons/honey_bunny_ka_jholmaal",
            "thumbnail": "https://i.ytimg.com/vi/Wx0ccsL6xjo/hq720.jpg"
        },
        {
            "id": "jPtbGqBp-Vo",
            "title": "मेडिकल  इमरजेंसी | Honey Bunny Ka Jholmaal | Cartoon For Kids |",
            "url": "https://www.youtube.com/watch?v=jPtbGqBp-Vo",
            "duration": 663.0,
            "view_count": 26850,
            "uploader": "Animated Zone",
            "category": "cartoons/honey_bunny_ka_jholmaal",
            "thumbnail": "https://i.ytimg.com/vi/jPtbGqBp-Vo/hq720.jpg"
        },
        {
            "id": "9s6xHG-tJTs",
            "title": "হানি ডার্লিং | Honey Bunny Ka Jholmaal",
            "url": "https://www.youtube.com/watch?v=9s6xHG-tJTs",
            "duration": 713.0,
            "view_count": 21958,
            "uploader": "Sony YAY! Bangla",
            "category": "cartoons/honey_bunny_ka_jholmaal",
            "thumbnail": "https://i.ytimg.com/vi/9s6xHG-tJTs/hq720.jpg"
        },
        {
            "id": "5ztYa1i7fDo",
            "title": "Fate Swapped | Honey Bunny ka Jholmaal",
            "url": "https://www.youtube.com/watch?v=5ztYa1i7fDo",
            "duration": 710.0,
            "view_count": 56043,
            "uploader": "Sony YAY!",
            "category": "cartoons/honey_bunny_ka_jholmaal",
            "thumbnail": "https://i.ytimg.com/vi/5ztYa1i7fDo/hq720.jpg"
        },
        {
            "id": "jS3b1SiUn5s",
            "title": "অদলবদল হওয়া ভাগ্য | Honey Bunny Ka Jholmaal",
            "url": "https://www.youtube.com/watch?v=jS3b1SiUn5s",
            "duration": 710.0,
            "view_count": 19757,
            "uploader": "Sony YAY! Bangla",
            "category": "cartoons/honey_bunny_ka_jholmaal",
            "thumbnail": "https://i.ytimg.com/vi/jS3b1SiUn5s/hq720.jpg"
        },
        {
            "id": "K9xZSN9N6DM",
            "title": "Doll Delights | Honey Bunny ka Jholmaal",
            "url": "https://www.youtube.com/watch?v=K9xZSN9N6DM",
            "duration": 702.0,
            "view_count": 166832,
            "uploader": "Sony YAY!",
            "category": "cartoons/honey_bunny_ka_jholmaal",
            "thumbnail": "https://i.ytimg.com/vi/K9xZSN9N6DM/hq720.jpg"
        },
        {
            "id": "KXGz0SK9agE",
            "title": "পুতুলের আনন্দ | Honey Bunny Ka Jholmaal",
            "url": "https://www.youtube.com/watch?v=KXGz0SK9agE",
            "duration": 702.0,
            "view_count": 55242,
            "uploader": "Sony YAY! Bangla",
            "category": "cartoons/honey_bunny_ka_jholmaal",
            "thumbnail": "https://i.ytimg.com/vi/KXGz0SK9agE/hq720.jpg"
        },
        {
            "id": "56E95m34xDc",
            "title": "हनी की मेमोरी लॉस | Hunny Bunny Jholmaal Cartoons for kids Hindi | बच्चो की कहानियां | Sony YAY!",
            "url": "https://www.youtube.com/watch?v=56E95m34xDc",
            "duration": 726.0,
            "view_count": 1980094,
            "uploader": "Sony YAY!",
            "category": "cartoons/honey_bunny_ka_jholmaal",
            "thumbnail": "https://i.ytimg.com/vi/56E95m34xDc/hq720.jpg"
        },
        {
            "id": "OGQYzHFcxY0",
            "title": "Monsoon Trip | Honey Bunny ka Jholmaal",
            "url": "https://www.youtube.com/watch?v=OGQYzHFcxY0",
            "duration": 700.0,
            "view_count": 146977,
            "uploader": "Sony YAY!",
            "category": "cartoons/honey_bunny_ka_jholmaal",
            "thumbnail": "https://i.ytimg.com/vi/OGQYzHFcxY0/hq720.jpg"
        },
        {
            "id": "GW5boIeebrE",
            "title": "বর্ষার ভ্রমণ | Honey Bunny Ka Jholmaal",
            "url": "https://www.youtube.com/watch?v=GW5boIeebrE",
            "duration": 700.0,
            "view_count": 228432,
            "uploader": "Sony YAY! Bangla",
            "category": "cartoons/honey_bunny_ka_jholmaal",
            "thumbnail": "https://i.ytimg.com/vi/GW5boIeebrE/hq720.jpg"
        },
        {
            "id": "tWdWHVfVOwo",
            "title": "മൺസൂൺ യാത്ര | Honey Bunny Ka Jholmaal",
            "url": "https://www.youtube.com/watch?v=tWdWHVfVOwo",
            "duration": 700.0,
            "view_count": 4896,
            "uploader": "Sony YAY! Malayalam",
            "category": "cartoons/honey_bunny_ka_jholmaal",
            "thumbnail": "https://i.ytimg.com/vi/tWdWHVfVOwo/hq720.jpg"
        },
        {
            "id": "Vz2EhNrloys",
            "title": "बेकरी क्लासेस | Honey Bunny Ka Jholmaal | Cartoon For Kids | YO Kids Comedy",
            "url": "https://www.youtube.com/watch?v=Vz2EhNrloys",
            "duration": 698.0,
            "view_count": 8034,
            "uploader": "Animated Zone",
            "category": "cartoons/honey_bunny_ka_jholmaal",
            "thumbnail": "https://i.ytimg.com/vi/Vz2EhNrloys/hq720.jpg"
        },
        {
            "id": "apotNZLLl_o",
            "title": "मानसून यात्रा की कहानी I Hunny Bunny Jholmaal Cartoons for kids Hindi |बच्चो की कहानियां |Sony YAY!",
            "url": "https://www.youtube.com/watch?v=apotNZLLl_o",
            "duration": 720.0,
            "view_count": 1470092,
            "uploader": "Sony YAY!",
            "category": "cartoons/honey_bunny_ka_jholmaal",
            "thumbnail": "https://i.ytimg.com/vi/apotNZLLl_o/hq720.jpg"
        },
        {
            "id": "JKHUtCGN4_4",
            "title": "Panda's cake | Honey Bunny ka Jholmaal",
            "url": "https://www.youtube.com/watch?v=JKHUtCGN4_4",
            "duration": 678.0,
            "view_count": 68178,
            "uploader": "Sony YAY!",
            "category": "cartoons/honey_bunny_ka_jholmaal",
            "thumbnail": "https://i.ytimg.com/vi/JKHUtCGN4_4/hq720.jpg"
        },
        {
            "id": "kOOZE1vmnKI",
            "title": "পান্ডার কেক | Honey Bunny Ka Jholmaal",
            "url": "https://www.youtube.com/watch?v=kOOZE1vmnKI",
            "duration": 678.0,
            "view_count": 47175,
            "uploader": "Sony YAY! Bangla",
            "category": "cartoons/honey_bunny_ka_jholmaal",
            "thumbnail": "https://i.ytimg.com/vi/kOOZE1vmnKI/hq720.jpg"
        },
        {
            "id": "zDv1SKghAY4",
            "title": "പാണ്ടയുടെ കേക്ക് | Honey Bunny Ka Jholmaal",
            "url": "https://www.youtube.com/watch?v=zDv1SKghAY4",
            "duration": 678.0,
            "view_count": 14489,
            "uploader": "Sony YAY! Malayalam",
            "category": "cartoons/honey_bunny_ka_jholmaal",
            "thumbnail": "https://i.ytimg.com/vi/zDv1SKghAY4/hq720.jpg"
        },
        {
            "id": "-7rMoVuuQQ0",
            "title": "बागवानी और पिकनिक | Honey Bunny Jholmaal Cartoon For Kids | Hindi | Latest Episode 2026",
            "url": "https://www.youtube.com/watch?v=-7rMoVuuQQ0",
            "duration": 698.0,
            "view_count": 3096,
            "uploader": "Animated Zone",
            "category": "cartoons/honey_bunny_ka_jholmaal",
            "thumbnail": "https://i.ytimg.com/vi/-7rMoVuuQQ0/hq720.jpg"
        },
        {
            "id": "wmEOzps07V0",
            "title": "Honey Bunny Ka Jholmaal | Picnic Plan Cancel | Hindi Cartoons | Kids Cartoon | Latest Episode 2026",
            "url": "https://www.youtube.com/watch?v=wmEOzps07V0",
            "duration": 698.0,
            "view_count": 21046,
            "uploader": "Toon With Hunny Bunny",
            "category": "cartoons/honey_bunny_ka_jholmaal",
            "thumbnail": "https://i.ytimg.com/vi/wmEOzps07V0/hq720.jpg"
        },
        {
            "id": "wsP6vE7vAZA",
            "title": "पांडा का केक और बैंक I Hunny Bunny Jholmaal Cartoons for kids Hindi | बच्चो की कहानियां | Sony YAY!",
            "url": "https://www.youtube.com/watch?v=wsP6vE7vAZA",
            "duration": 698.0,
            "view_count": 85461,
            "uploader": "Sony YAY!",
            "category": "cartoons/honey_bunny_ka_jholmaal",
            "thumbnail": "https://i.ytimg.com/vi/wsP6vE7vAZA/hq720.jpg"
        },
        {
            "id": "TRBZl0Lb664",
            "title": "Happy New Year | Honey Bunny ka Jholmaal",
            "url": "https://www.youtube.com/watch?v=TRBZl0Lb664",
            "duration": 723.0,
            "view_count": 76829,
            "uploader": "Sony YAY!",
            "category": "cartoons/honey_bunny_ka_jholmaal",
            "thumbnail": "https://i.ytimg.com/vi/TRBZl0Lb664/hq720.jpg"
        },
        {
            "id": "hgaOgwrjzek",
            "title": "Girls Day Out | Honey Bunny ka Jholmaal",
            "url": "https://www.youtube.com/watch?v=hgaOgwrjzek",
            "duration": 756.0,
            "view_count": 181926,
            "uploader": "Sony YAY!",
            "category": "cartoons/honey_bunny_ka_jholmaal",
            "thumbnail": "https://i.ytimg.com/vi/hgaOgwrjzek/hq720.jpg"
        }
    ]
}