{
    "page": 19,
    "total_pages": 103,
    "total_items": 5125,
    "items": [
        {
            "id": "yDyRPGkTqEw",
            "title": "Pushpa 3 (Hindi Dubbed) Full Movie | Allu Arjun, Rashmika Mandanna | Action Thriller 2025",
            "url": "https://www.youtube.com/watch?v=yDyRPGkTqEw",
            "duration": 9698.0,
            "view_count": 2633,
            "uploader": "PlayNation",
            "category": "hindi",
            "thumbnail": "https://i.ytimg.com/vi/yDyRPGkTqEw/hq720.jpg"
        },
        {
            "id": "hjyBqxysVu0",
            "title": "New 2026 South India Blockbuster Action Movie | Hindi Dubbed Full Movie | Latest Film | Superhit HD",
            "url": "https://www.youtube.com/watch?v=hjyBqxysVu0",
            "duration": 7333.0,
            "view_count": 1393993,
            "uploader": "Chauhan Films",
            "category": "hindi",
            "thumbnail": "https://i.ytimg.com/vi/hjyBqxysVu0/hq720.jpg"
        },
        {
            "id": "wJCeKzhgV0U",
            "title": "MONSTER Full Movie In Hindi Dubbed | YASH | New South Indian Hindi Dubbed Action Full Movie 2026",
            "url": "https://www.youtube.com/watch?v=wJCeKzhgV0U",
            "duration": 8260.0,
            "view_count": 4479,
            "uploader": "D Action Pictures",
            "category": "hindi",
            "thumbnail": "https://i.ytimg.com/vi/wJCeKzhgV0U/hq720.jpg"
        },
        {
            "id": "nK_v6te1WQk",
            "title": "RAAYAN | Dhanush, S.J. Suryah | New (2026) Released Hindi Action Crime Thriller Movie | Full HD",
            "url": "https://www.youtube.com/watch?v=nK_v6te1WQk",
            "duration": 8518.0,
            "view_count": 13259,
            "uploader": "PlayNation",
            "category": "hindi",
            "thumbnail": "https://i.ytimg.com/vi/nK_v6te1WQk/hq720.jpg"
        },
        {
            "id": "FqHAEiSeZ8w",
            "title": "dhurandhar 2 full movie | dhurandhar 2 full movie hindi 2026 | dhurandhar 2 full movie 2026 in hindi",
            "url": "https://www.youtube.com/watch?v=FqHAEiSeZ8w",
            "duration": 13493.0,
            "view_count": 1084,
            "uploader": "Karan Patil",
            "category": "hindi",
            "thumbnail": "https://i.ytimg.com/vi/FqHAEiSeZ8w/hq720.jpg"
        },
        {
            "id": "ccEuoEFahQY",
            "title": "घमंडी शहर की लड़की और देसी लड़का— प्यार या पंगा 😄? Govinda Comedy Movie | Banarasi Babu Full Movie",
            "url": "https://www.youtube.com/watch?v=ccEuoEFahQY",
            "duration": 7561.0,
            "view_count": 57968,
            "uploader": "Ultra Movie World",
            "category": "hindi",
            "thumbnail": "https://i.ytimg.com/vi/ccEuoEFahQY/hq720.jpg"
        },
        {
            "id": "YJi-0dbBlD8",
            "title": "NBK 2026 (Hindi Dubbed) Full Movie | Blockbuster Superhit Film | New Hindi Dubbed Full Movie HD",
            "url": "https://www.youtube.com/watch?v=YJi-0dbBlD8",
            "duration": 7507.0,
            "view_count": 84143,
            "uploader": "Cinekorn Entertainment",
            "category": "hindi",
            "thumbnail": "https://i.ytimg.com/vi/YJi-0dbBlD8/hq720.jpg"
        },
        {
            "id": "O9zM1egLOjM",
            "title": "New 2026 Full Action South Indian Movie | Hindi Dubbed Full Movie | Latest Blockbuster Superhit Film",
            "url": "https://www.youtube.com/watch?v=O9zM1egLOjM",
            "duration": 8719.0,
            "view_count": 184460,
            "uploader": "Hollywood Express - New",
            "category": "hindi",
            "thumbnail": "https://i.ytimg.com/vi/O9zM1egLOjM/hq720.jpg"
        },
        {
            "id": "UjppewxSwGs",
            "title": "Kurukshetra (2000) - Blockbuster Hindi Movie - Sanjay Dutt, Mahima Chaudhry, Om Puri",
            "url": "https://www.youtube.com/watch?v=UjppewxSwGs",
            "duration": 8149.0,
            "view_count": 42679,
            "uploader": "90s Ki Heroine",
            "category": "hindi",
            "thumbnail": "https://i.ytimg.com/vi/UjppewxSwGs/hq720.jpg"
        },
        {
            "id": "T8rDA39ky_M",
            "title": "Krazzy 4: जब 4 पागल हुए 'आज़ाद - Superhit Comedy Movie With Subtitles - Arshad Warsi, Irrfan, Juhi C",
            "url": "https://www.youtube.com/watch?v=T8rDA39ky_M",
            "duration": 7025.0,
            "view_count": 7887086,
            "uploader": "Bollywood Premium",
            "category": "hindi",
            "thumbnail": "https://i.ytimg.com/vi/T8rDA39ky_M/hq720.jpg"
        },
        {
            "id": "F0DHXpv00j8",
            "title": "Ramcharan's HUNTEER Full Hindi Dubbed Action Movie - South Indian Hindi Dubbed Full HD Movie 2026",
            "url": "https://www.youtube.com/watch?v=F0DHXpv00j8",
            "duration": 7793.0,
            "view_count": 3946105,
            "uploader": "KK Telefilms",
            "category": "hindi",
            "thumbnail": "https://i.ytimg.com/vi/F0DHXpv00j8/hq720.jpg"
        },
        {
            "id": "HFQ4Ghq4zMw",
            "title": "#AK65 Full Movie Hindi Dubbed | Ajith Kumar | Jagapathi Babu | Latest South Indian Action Movie 2026",
            "url": "https://www.youtube.com/watch?v=HFQ4Ghq4zMw",
            "duration": 7342.0,
            "view_count": 90369,
            "uploader": "Bollywood World and Supreme Cinema",
            "category": "hindi",
            "thumbnail": "https://i.ytimg.com/vi/HFQ4Ghq4zMw/hq720.jpg"
        },
        {
            "id": "n0ZSV6qkL2k",
            "title": "#AK65 Full Movie Hindi Dubbed | Ajith Kumar | Jagapathi Babu | Latest South Indian Action Movie 2026",
            "url": "https://www.youtube.com/watch?v=n0ZSV6qkL2k",
            "duration": 7342.0,
            "view_count": 817610,
            "uploader": "Power Star Pictures",
            "category": "hindi",
            "thumbnail": "https://i.ytimg.com/vi/n0ZSV6qkL2k/hq720.jpg"
        },
        {
            "id": "RqMuc4G51Eg",
            "title": "Toxic Full Movie Hindi Dubbed 2026 | Yash | Nayanthara | New South Indian Hindi Dubbed Movies 2026",
            "url": "https://www.youtube.com/watch?v=RqMuc4G51Eg",
            "duration": 8448.0,
            "view_count": 8671,
            "uploader": "21 Pictures",
            "category": "hindi",
            "thumbnail": "https://i.ytimg.com/vi/RqMuc4G51Eg/hq720.jpg"
        },
        {
            "id": "uyAxVkc-Ygc",
            "title": "Singal Mother | South Released Full Action Movie | Latest New South Hindi Dubbed Movie 2025",
            "url": "https://www.youtube.com/watch?v=uyAxVkc-Ygc",
            "duration": 5304.0,
            "view_count": 1516750,
            "uploader": "Sur Movies Exclusive",
            "category": "hindi",
            "thumbnail": "https://i.ytimg.com/vi/uyAxVkc-Ygc/hq720.jpg"
        },
        {
            "id": "M-EK0g1-fO4",
            "title": "Vinaya Vidheya Rama Full Movie | Ram Charan | Vivek Oberoi | Kiara Advani | New South Movie 2026",
            "url": "https://www.youtube.com/watch?v=M-EK0g1-fO4",
            "duration": 6881.0,
            "view_count": 102206,
            "uploader": "Bolly Pictures Point and Home One Entertainment",
            "category": "hindi",
            "thumbnail": "https://i.ytimg.com/vi/M-EK0g1-fO4/hq720.jpg"
        },
        {
            "id": "XAdK8RPaUeM",
            "title": "Toxic Full Movie Hindi Dubbed 2026 | Yash | Nayanthara | New South Indian Hindi Dubbed Movies 2026",
            "url": "https://www.youtube.com/watch?v=XAdK8RPaUeM",
            "duration": 8448.0,
            "view_count": 142803,
            "uploader": "Power Star Pictures and AlexWide Cinema",
            "category": "hindi",
            "thumbnail": "https://i.ytimg.com/vi/XAdK8RPaUeM/hq720.jpg"
        },
        {
            "id": "ErWLUUDmbXs",
            "title": "KI & KA | Kareena Kapoor and Arjun Kapoor's Romantic Bollywood Movie | Full Movie | Amitabh Bachchan",
            "url": "https://www.youtube.com/watch?v=ErWLUUDmbXs",
            "duration": 5878.0,
            "view_count": 1439840,
            "uploader": "RDC Bollywood Dhamal",
            "category": "hindi",
            "thumbnail": "https://i.ytimg.com/vi/ErWLUUDmbXs/hq720.jpg"
        },
        {
            "id": "KNKlg2G2yu4",
            "title": "Dhurandhar 2 The Revenge (2026) Full Hindi Dubbed Movie | Powerful Action Thriller HD ",
            "url": "https://www.youtube.com/watch?v=KNKlg2G2yu4",
            "duration": 13493.0,
            "view_count": 6151,
            "uploader": "Kartik jerry ",
            "category": "hindi",
            "thumbnail": "https://i.ytimg.com/vi/KNKlg2G2yu4/hq720.jpg"
        },
        {
            "id": "MzzVRjptphE",
            "title": "Salam-E-Ishq (HD) Full Movie | Salman Khan, Priyanka Chopra, Anil Kapoor, Juhi Chawla, John Abraham",
            "url": "https://www.youtube.com/watch?v=MzzVRjptphE",
            "duration": 12465.0,
            "view_count": 7878993,
            "uploader": "Eros Universe Big Picture",
            "category": "hindi",
            "thumbnail": "https://i.ytimg.com/vi/MzzVRjptphE/hq720.jpg"
        },
        {
            "id": "XG9U_elK3Cw",
            "title": "Devdas (2002) Full Movie in 8K/4K Ultra HD | SRK, Aishwarya & Madhuri | Most Tragic Love Story",
            "url": "https://www.youtube.com/watch?v=XG9U_elK3Cw",
            "duration": 10996.0,
            "view_count": 13641155,
            "uploader": "Eros Universe",
            "category": "hindi",
            "thumbnail": "https://i.ytimg.com/vi/XG9U_elK3Cw/hq720.jpg"
        },
        {
            "id": "zloKjQXmwhE",
            "title": "Bhagam Bhag 2006 (HD) - Full Movie - Superhit Comedy Movie - Akshay Kumar - Govinda -  Paresh Rawal",
            "url": "https://www.youtube.com/watch?v=zloKjQXmwhE",
            "duration": 9510.0,
            "view_count": 119498154,
            "uploader": "Shemaroo Comedy",
            "category": "hindi",
            "thumbnail": "https://i.ytimg.com/vi/zloKjQXmwhE/hqdefault.jpg"
        },
        {
            "id": "XlqyAJ1iWkw",
            "title": "Allu Arjun | New (2026) Released South Indian Movie Dubbed In Hindi | Action Hindi Dubbed Movie",
            "url": "https://www.youtube.com/watch?v=XlqyAJ1iWkw",
            "duration": 6459.0,
            "view_count": 8986,
            "uploader": "South Ki Movie",
            "category": "hindi",
            "thumbnail": "https://i.ytimg.com/vi/XlqyAJ1iWkw/hq720.jpg"
        },
        {
            "id": "CD8G8DlLFhk",
            "title": "Dhurandhar 2 (2026) Movie Hindi | Ranveer Singh | Sara Ali Khan 🔥",
            "url": "https://www.youtube.com/watch?v=CD8G8DlLFhk",
            "duration": 13513.0,
            "view_count": 1320,
            "uploader": "Filmy Kida  and 3D Animation176",
            "category": "hindi",
            "thumbnail": "https://i.ytimg.com/vi/CD8G8DlLFhk/hqdefault.jpg"
        },
        {
            "id": "3l7hYrvXKYA",
            "title": "Kabhi Khushi Kabhie Gham | Full Movie | Shah Rukh Khan, Kajol, Hrithik | K3G | Karan Johar Film",
            "url": "https://www.youtube.com/watch?v=3l7hYrvXKYA",
            "duration": 7047.0,
            "view_count": 16496,
            "uploader": "Saira Anis Official",
            "category": "hindi",
            "thumbnail": "https://i.ytimg.com/vi/3l7hYrvXKYA/hqdefault.jpg"
        },
        {
            "id": "4CqU55m5cRo",
            "title": "Ek Seedha Doctor Bana Khatarnaak 😱 SALIM | Full Movie Hindi Dubbed | Must Watch Movie",
            "url": "https://www.youtube.com/watch?v=4CqU55m5cRo",
            "duration": 7431.0,
            "view_count": 124177,
            "uploader": "Romantic Films",
            "category": "hindi",
            "thumbnail": "https://i.ytimg.com/vi/4CqU55m5cRo/hq720.jpg"
        },
        {
            "id": "cC6lgZesvbI",
            "title": "HATE STORY 4 (4K Full Movie): Urvashi Rautela, Vivan, Karan Wahi, Ihana Dhillon, Gulshan Grover",
            "url": "https://www.youtube.com/watch?v=cC6lgZesvbI",
            "duration": 7718.0,
            "view_count": 204637,
            "uploader": "T-Series",
            "category": "hindi",
            "thumbnail": "https://i.ytimg.com/vi/cC6lgZesvbI/hq720.jpg"
        },
        {
            "id": "2XVTycmEBuE",
            "title": "MAALKIN 2 Full Movie | Ajay Devgan | Kareena Kapoor | Sushmita Sen | Latest Bollywood Movie 2026",
            "url": "https://www.youtube.com/watch?v=2XVTycmEBuE",
            "duration": 8954.0,
            "view_count": 535566,
            "uploader": "4x Cinema",
            "category": "hindi",
            "thumbnail": "https://i.ytimg.com/vi/2XVTycmEBuE/hq720.jpg"
        },
        {
            "id": "ixEg9LQIBAM",
            "title": "Jamai Raja (1990) Full Movie HD | Anil Kapoor | Madhuri Dixit | Hema Malini | Hindi Movie",
            "url": "https://www.youtube.com/watch?v=ixEg9LQIBAM",
            "duration": 8636.0,
            "view_count": 8752,
            "uploader": "Hindi Movies",
            "category": "hindi",
            "thumbnail": "https://i.ytimg.com/vi/ixEg9LQIBAM/hq720.jpg"
        },
        {
            "id": "O2rkMPfxNaw",
            "title": "OPERATION KARACHI: THE UNDERCOVER AGENT - Hindi Dubbed Full Movie | Gopichand, Zareen | Action Movie",
            "url": "https://www.youtube.com/watch?v=O2rkMPfxNaw",
            "duration": 7596.0,
            "view_count": 42473,
            "uploader": "Action Movies Digiplex",
            "category": "hindi",
            "thumbnail": "https://i.ytimg.com/vi/O2rkMPfxNaw/hq720.jpg"
        },
        {
            "id": "CYzbkosUPoQ",
            "title": "Dhurandhar 2 full movie Hindi dubbed. Please like . This is real movie . Please watch ",
            "url": "https://www.youtube.com/watch?v=CYzbkosUPoQ",
            "duration": 13251.0,
            "view_count": 255,
            "uploader": "NOOB_GAMERZ",
            "category": "hindi",
            "thumbnail": "https://i.ytimg.com/vi/CYzbkosUPoQ/hq720.jpg"
        },
        {
            "id": "pFaI-pK0D70",
            "title": "#AK65 Full Movie Hindi Dubbed | Ajith Kumar | Jagapathi Babu | Latest South Indian Action Movie 2026",
            "url": "https://www.youtube.com/watch?v=pFaI-pK0D70",
            "duration": 7342.0,
            "view_count": 1357,
            "uploader": "FullOn Blockbuster",
            "category": "hindi",
            "thumbnail": "https://i.ytimg.com/vi/pFaI-pK0D70/hq720.jpg"
        },
        {
            "id": "nojHypcGzgQ",
            "title": "Wanted Hindi Full Movie | Salman Khan, Ayesha Takia | Full HD Bollywood Movie",
            "url": "https://www.youtube.com/watch?v=nojHypcGzgQ",
            "duration": 7658.0,
            "view_count": 90832,
            "uploader": "Gulshan kalra official",
            "category": "hindi",
            "thumbnail": "https://i.ytimg.com/vi/nojHypcGzgQ/hq720.jpg"
        },
        {
            "id": "3pOGISIUg54",
            "title": "Mastiii 4 Hindi Full Movie | Riteish Deshmukh, Vivek Oberoi | Fun Action Comedy HD",
            "url": "https://www.youtube.com/watch?v=3pOGISIUg54",
            "duration": 7248.0,
            "view_count": 697,
            "uploader": "Azhan5star",
            "category": "hindi",
            "thumbnail": "https://i.ytimg.com/vi/3pOGISIUg54/hq720.jpg"
        },
        {
            "id": "rzaxbBJdSCY",
            "title": "Love Aaj Kal (2009) | Saif Ali Khan, Deepika Padukone | Romantic Blockbuster | Hindi Full Movie (HD)",
            "url": "https://www.youtube.com/watch?v=rzaxbBJdSCY",
            "duration": 7393.0,
            "view_count": 113285,
            "uploader": "Eros Universe Cineplex",
            "category": "hindi",
            "thumbnail": "https://i.ytimg.com/vi/rzaxbBJdSCY/hq720.jpg"
        },
        {
            "id": "fUpmW5XwTvE",
            "title": "Businessman 2 | New (2026) Released South Indian Movie Dubbed In Hindi | Ram Pothineni Action Movie",
            "url": "https://www.youtube.com/watch?v=fUpmW5XwTvE",
            "duration": 9080.0,
            "view_count": 29700,
            "uploader": "Netplex Movies 2026",
            "category": "hindi",
            "thumbnail": "https://i.ytimg.com/vi/fUpmW5XwTvE/hq720.jpg"
        },
        {
            "id": "BuXC_GJ5ZFA",
            "title": "\"Golimaar\" New Released Hindi Dubbed Full  Movie |New Hindi Dubbed Movie 2022 |Gopichand, Priyamani",
            "url": "https://www.youtube.com/watch?v=BuXC_GJ5ZFA",
            "duration": 7926.0,
            "view_count": 47306427,
            "uploader": "Aditya Movies",
            "category": "hindi",
            "thumbnail": "https://i.ytimg.com/vi/BuXC_GJ5ZFA/hq720.jpg"
        },
        {
            "id": "ZKaGh16uiuI",
            "title": "Dhurandhar The Revenge 2026 Uncensored Hindi Movie 1080p HDTC Full Movie [with ads]",
            "url": "https://www.youtube.com/watch?v=ZKaGh16uiuI",
            "duration": 13933.0,
            "view_count": 360,
            "uploader": "Gold Cinema Studios",
            "category": "hindi",
            "thumbnail": "https://i.ytimg.com/vi/ZKaGh16uiuI/hqdefault.jpg"
        },
        {
            "id": "tEmQGkyorXw",
            "title": "DQ41 Hindi Dubbed Full Movie | Dulquer Salmaan Action South Blockbuster HD Film",
            "url": "https://www.youtube.com/watch?v=tEmQGkyorXw",
            "duration": 9600.0,
            "view_count": 2722817,
            "uploader": "Monk Movies",
            "category": "hindi",
            "thumbnail": "https://i.ytimg.com/vi/tEmQGkyorXw/hq720.jpg"
        },
        {
            "id": "gELNZpmyqAI",
            "title": "Vadh (Official Full Movie) | Sanjay Mishra | Neena Gupta | Saurabh Sachdeva | Manav Vij | Luv Films",
            "url": "https://www.youtube.com/watch?v=gELNZpmyqAI",
            "duration": 6598.0,
            "view_count": 17000689,
            "uploader": "Luv Films",
            "category": "hindi",
            "thumbnail": "https://i.ytimg.com/vi/gELNZpmyqAI/hq720.jpg"
        },
        {
            "id": "dAApza3D4uA",
            "title": "Superhit New (2026) South Indian Action Movie | Hindi Dubbed Film | Blockbuster Full HD Mass Action",
            "url": "https://www.youtube.com/watch?v=dAApza3D4uA",
            "duration": 9869.0,
            "view_count": 60400,
            "uploader": "Chauhan Films",
            "category": "hindi",
            "thumbnail": "https://i.ytimg.com/vi/dAApza3D4uA/hq720.jpg"
        },
        {
            "id": "Ba97yuMu-aY",
            "title": "Pardes Full Movie 4K - परदेस (1997) - Shah Rukh Khan - Mahima Chaudhry - Amrish Puri",
            "url": "https://www.youtube.com/watch?v=Ba97yuMu-aY",
            "duration": 10782.0,
            "view_count": 30704448,
            "uploader": "PlayMovies",
            "category": "hindi",
            "thumbnail": "https://i.ytimg.com/vi/Ba97yuMu-aY/hq720.jpg"
        },
        {
            "id": "9xaxH4-H7qM",
            "title": "Laapataa ladies hindi full movie HD 1080 p",
            "url": "https://www.youtube.com/watch?v=9xaxH4-H7qM",
            "duration": 7422.0,
            "view_count": 925852,
            "uploader": "SM INDIAN",
            "category": "hindi",
            "thumbnail": "https://i.ytimg.com/vi/9xaxH4-H7qM/hqdefault.jpg"
        },
        {
            "id": "MoNhL6UGAzM",
            "title": "Ghajini Hindi Full Movie - Amir Khan - Asin - Pradeep Rawat - Ultimate Action Blockbuster Film",
            "url": "https://www.youtube.com/watch?v=MoNhL6UGAzM",
            "duration": 10686.0,
            "view_count": 16309606,
            "uploader": "Filmy Deewane",
            "category": "hindi",
            "thumbnail": "https://i.ytimg.com/vi/MoNhL6UGAzM/hq720.jpg"
        },
        {
            "id": "Xu1_5o-EE8s",
            "title": "DHURANDHAR 2 FULL MOVIE IN HINDI DUBBED (2026) 🔥Starring Ranveer Singh & Akshay Khanna #DHURANDHAR ",
            "url": "https://www.youtube.com/watch?v=Xu1_5o-EE8s",
            "duration": 13738.0,
            "view_count": 1787,
            "uploader": "Traffic  smasher",
            "category": "hindi",
            "thumbnail": "https://i.ytimg.com/vi/Xu1_5o-EE8s/hqdefault.jpg"
        },
        {
            "id": "OHKJVY4pDTQ",
            "title": "Maaya Full Movie | Thalapathy Vijay | Sai Pallavi | New Released South Indian Action Hd Movies 2026",
            "url": "https://www.youtube.com/watch?v=OHKJVY4pDTQ",
            "duration": 8841.0,
            "view_count": 6697,
            "uploader": "Bolly Pictures Point",
            "category": "hindi",
            "thumbnail": "https://i.ytimg.com/vi/OHKJVY4pDTQ/hq720.jpg"
        },
        {
            "id": "NXVyi4r2p3Y",
            "title": "Maaya 2 - Full Movie | Thalapathy Vijay | Sai Pallavi | New Released South Indian Action Movies 2026",
            "url": "https://www.youtube.com/watch?v=NXVyi4r2p3Y",
            "duration": 9228.0,
            "view_count": 12129,
            "uploader": "Ranita Studio",
            "category": "hindi",
            "thumbnail": "https://i.ytimg.com/vi/NXVyi4r2p3Y/hq720.jpg"
        },
        {
            "id": "tY2wmCYwGRQ",
            "title": "ASSI Full Movie Hindi Dubbed | Taapsee Pannu | New Psychological Thriller Drama 2026",
            "url": "https://www.youtube.com/watch?v=tY2wmCYwGRQ",
            "duration": 7890.0,
            "view_count": 982951,
            "uploader": "Anjali Dhariwal and Sultan Khan",
            "category": "hindi",
            "thumbnail": "https://i.ytimg.com/vi/tY2wmCYwGRQ/hq720.jpg?sqp=-oaymwEcCNAFEJQDSFXyq4qpAw4IARUAAIhCGAFwAcABBg==&rs=AOn4CLCZEI7mjSThYgP8CPmv90XfjFmVoQ",
            "added_date": "2026-04-16T07:30:57.402861Z",
            "source": "youtube",
            "dubbed": "hindi"
        },
        {
            "id": "qlITBmPNz_4",
            "title": "Chalo Dilli - Full Movie (HD) | Akshay Kumar | Lara Dutta | Vinay Pathak | Superhit Romantic Movie",
            "url": "https://www.youtube.com/watch?v=qlITBmPNz_4",
            "duration": 6972.0,
            "view_count": 427578,
            "uploader": "Eros Universe",
            "category": "hindi",
            "thumbnail": "https://i.ytimg.com/vi/qlITBmPNz_4/hq720.jpg"
        },
        {
            "id": "rAR9BoLC_64",
            "title": "Raanjhanaa (रांझणा)- Full Movie HD | Dhanush | Sonam Kapoor | Abhay Deol | Superhit Romantic Movie",
            "url": "https://www.youtube.com/watch?v=rAR9BoLC_64",
            "duration": 8307.0,
            "view_count": 1152616,
            "uploader": "Eros Universe",
            "category": "hindi",
            "thumbnail": "https://i.ytimg.com/vi/rAR9BoLC_64/hq720.jpg"
        }
    ]
}