{
    "page": 6,
    "total_pages": 103,
    "total_items": 5125,
    "items": [
        {
            "id": "r1RpPczbmg0",
            "title": "This movie is UNIQUE, and if you haven't seen it… YOU'RE MISSING OUT. Action movie in English...",
            "url": "https://www.youtube.com/watch?v=r1RpPczbmg0",
            "duration": 5058.0,
            "view_count": 1042207,
            "uploader": "MOVRION",
            "category": "english",
            "thumbnail": "https://i.ytimg.com/vi/r1RpPczbmg0/hq720.jpg"
        },
        {
            "id": "JPI4A2gb7rI",
            "title": "Romantic story you will never forget | THE HEALER | Full movie in English",
            "url": "https://www.youtube.com/watch?v=JPI4A2gb7rI",
            "duration": 6487.0,
            "view_count": 714895,
            "uploader": "Kinopower",
            "category": "english",
            "thumbnail": "https://i.ytimg.com/vi/JPI4A2gb7rI/hq720.jpg"
        },
        {
            "id": "IZMzPE8mbf8",
            "title": "ICE AGE 2 Full Movie 2025 | THE MELTDOWN | Full Movie in ENGLISH (Game Movie)",
            "url": "https://www.youtube.com/watch?v=IZMzPE8mbf8",
            "duration": 6331.0,
            "view_count": 275878,
            "uploader": "CineMavrix",
            "category": "english",
            "thumbnail": "https://i.ytimg.com/vi/IZMzPE8mbf8/hq720.jpg"
        },
        {
            "id": "uQhjMBcZIBE",
            "title": "He Was Hired to Protect the President | Full Action Movie",
            "url": "https://www.youtube.com/watch?v=uQhjMBcZIBE",
            "duration": 6173.0,
            "view_count": 1218364,
            "uploader": "Prime Action Films",
            "category": "english",
            "thumbnail": "https://i.ytimg.com/vi/uQhjMBcZIBE/hq720.jpg"
        },
        {
            "id": "Kr8S0sWom3Q",
            "title": "PLANETARIUM | Natalie Portman, Lily-Rose Depp | DRAMA | Full Movie in English",
            "url": "https://www.youtube.com/watch?v=Kr8S0sWom3Q",
            "duration": 6381.0,
            "view_count": 87830,
            "uploader": "Boxoffice | NEW Full Movies in English",
            "category": "english",
            "thumbnail": "https://i.ytimg.com/vi/Kr8S0sWom3Q/hq720.jpg"
        },
        {
            "id": "7wsZpt6SgRk",
            "title": "This Soldier Spy Action Movie Will Hook You till the end | Action Thriller Movie | English",
            "url": "https://www.youtube.com/watch?v=7wsZpt6SgRk",
            "duration": 5704.0,
            "view_count": 33935,
            "uploader": "VHS Vengeance",
            "category": "english",
            "thumbnail": "https://i.ytimg.com/vi/7wsZpt6SgRk/hq720.jpg"
        },
        {
            "id": "TaWThMILnTU",
            "title": "Painted Feelings | ROMANCE, DRAMA | Full Movie in English",
            "url": "https://www.youtube.com/watch?v=TaWThMILnTU",
            "duration": 6158.0,
            "view_count": 492,
            "uploader": "MyMovies",
            "category": "english",
            "thumbnail": "https://i.ytimg.com/vi/TaWThMILnTU/hq720.jpg"
        },
        {
            "id": "I4fzqx22RbY",
            "title": "😱This movie will make you shiver! 😮 Watch NOW | Full English Dubbed Movies",
            "url": "https://www.youtube.com/watch?v=I4fzqx22RbY",
            "duration": 5510.0,
            "view_count": 87108,
            "uploader": "North Point",
            "category": "english",
            "thumbnail": "https://i.ytimg.com/vi/I4fzqx22RbY/hq720.jpg"
        },
        {
            "id": "AQcAI5UhOeA",
            "title": "😱 A Powerful Story You Won’t Be Able To Look Away From! Highly Recommended To Watch Right Now!",
            "url": "https://www.youtube.com/watch?v=AQcAI5UhOeA",
            "duration": 5900.0,
            "view_count": 21576,
            "uploader": "FILMDOMINION",
            "category": "english",
            "thumbnail": "https://i.ytimg.com/vi/AQcAI5UhOeA/hq720.jpg"
        },
        {
            "id": "d2DyW7lHpoM",
            "title": "Dragon Hunter: Monster Slayer List  | Fantasy Action Movie English Sub, Full Movie HD",
            "url": "https://www.youtube.com/watch?v=d2DyW7lHpoM",
            "duration": 4343.0,
            "view_count": 1213,
            "uploader": "Moxi Action Movies English",
            "category": "english",
            "thumbnail": "https://i.ytimg.com/vi/d2DyW7lHpoM/hq720.jpg"
        },
        {
            "id": "0fLlwxIahcM",
            "title": "They Should Have Never Entered The Woods | Full Horror Movie in English",
            "url": "https://www.youtube.com/watch?v=0fLlwxIahcM",
            "duration": 5903.0,
            "view_count": 1655828,
            "uploader": "Cinema Zone HD",
            "category": "english",
            "thumbnail": "https://i.ytimg.com/vi/0fLlwxIahcM/hq720.jpg"
        },
        {
            "id": "_uL--PP0y1Q",
            "title": "BLOODY TRIP: RISE OF THE DEAD 🎬 Full Horror Movie 🎬 English HD",
            "url": "https://www.youtube.com/watch?v=_uL--PP0y1Q",
            "duration": 3777.0,
            "view_count": 1179,
            "uploader": "Watch Movies Now!",
            "category": "english",
            "thumbnail": "https://i.ytimg.com/vi/_uL--PP0y1Q/hq720.jpg"
        },
        {
            "id": "9gzwD54mZyQ",
            "title": "SWEPT AWAY: The Island Between Us | 2026 Full Movie | Action | Survival | English  | 4K Ultra HD",
            "url": "https://www.youtube.com/watch?v=9gzwD54mZyQ",
            "duration": 4174.0,
            "view_count": 530016,
            "uploader": "Solus AI Cinema",
            "category": "english",
            "thumbnail": "https://i.ytimg.com/vi/9gzwD54mZyQ/hq720.jpg"
        },
        {
            "id": "zcNXyLHQHsg",
            "title": "PUNCHER (2026) Scott Adkins | Full Action Movie - Thriller | 4K #actionmovies",
            "url": "https://www.youtube.com/watch?v=zcNXyLHQHsg",
            "duration": 5358.0,
            "view_count": 15310,
            "uploader": "ZED Drama",
            "category": "english",
            "thumbnail": "https://i.ytimg.com/vi/zcNXyLHQHsg/hq720.jpg"
        },
        {
            "id": "BkjykblvfwY",
            "title": "The Stranger's Game | THRILLER | Full Movie in English",
            "url": "https://www.youtube.com/watch?v=BkjykblvfwY",
            "duration": 5212.0,
            "view_count": 479,
            "uploader": "Boxoffice | THRILLERS | Full Movies",
            "category": "english",
            "thumbnail": "https://i.ytimg.com/vi/BkjykblvfwY/hq720.jpg"
        },
        {
            "id": "wcSpAcUP_1A",
            "title": "They Shouldn’t Have Known The Truth | Full Horror Movie",
            "url": "https://www.youtube.com/watch?v=wcSpAcUP_1A",
            "duration": 5321.0,
            "view_count": 11691,
            "uploader": "International Film Universe",
            "category": "english",
            "thumbnail": "https://i.ytimg.com/vi/wcSpAcUP_1A/hq720_custom_2.jpg"
        },
        {
            "id": "LAy3-g2XCtg",
            "title": "DON’T MISS IT! | Action in the Heart of the Wild | Full Movie",
            "url": "https://www.youtube.com/watch?v=LAy3-g2XCtg",
            "duration": 6085.0,
            "view_count": 1701117,
            "uploader": "Brothers Films",
            "category": "english",
            "thumbnail": "https://i.ytimg.com/vi/LAy3-g2XCtg/hq720.jpg"
        },
        {
            "id": "0danzfHLNmw",
            "title": "Dark Visitor | HORROR, THRILLER | Full Movie in English",
            "url": "https://www.youtube.com/watch?v=0danzfHLNmw",
            "duration": 5550.0,
            "view_count": 11779,
            "uploader": "Boxoffice | NEW Full Movies in English",
            "category": "english",
            "thumbnail": "https://i.ytimg.com/vi/0danzfHLNmw/hq720.jpg"
        },
        {
            "id": "qsHG9LahLvQ",
            "title": "SALT 2 ||  2026 Denzel Washington x Angelina Jolie New Action Movie | Movie In English Full HD 1080p",
            "url": "https://www.youtube.com/watch?v=qsHG9LahLvQ",
            "duration": 7652.0,
            "view_count": 1187484,
            "uploader": "ScreenBuzz",
            "category": "english",
            "thumbnail": "https://i.ytimg.com/vi/qsHG9LahLvQ/hq720.jpg"
        },
        {
            "id": "o6EHuQk2jPk",
            "title": "Colombiana 2  - New Action Movie 2026 | Jason Statham | Full Movie | 4K Ultra #actionmovies",
            "url": "https://www.youtube.com/watch?v=o6EHuQk2jPk",
            "duration": 5526.0,
            "view_count": 1456158,
            "uploader": "REGGAETV",
            "category": "english",
            "thumbnail": "https://i.ytimg.com/vi/o6EHuQk2jPk/hq720.jpg?sqp=-oaymwEcCNAFEJQDSFXyq4qpAw4IARUAAIhCGAFwAcABBg==&rs=AOn4CLDGSk60La5P04WbPqqQbBz02zy7Xw",
            "added_date": "2026-04-16T07:31:02.033196Z",
            "source": "youtube"
        },
        {
            "id": "oOD_SzCreLY",
            "title": "ALIEN BATTLEFIELD 🎬 Full Sci-Fi Movie 🎬 English HD",
            "url": "https://www.youtube.com/watch?v=oOD_SzCreLY",
            "duration": 5289.0,
            "view_count": 5302,
            "uploader": "WATCH NOW - SCI-FI & FANTASY",
            "category": "english",
            "thumbnail": "https://i.ytimg.com/vi/oOD_SzCreLY/hq720.jpg"
        },
        {
            "id": "jExGWFXuzpU",
            "title": "LETHAL DUO (2026) Jason Statham - Jackie Chan | Full Action Movie - Thriller | 4K HDR #actionmovies",
            "url": "https://www.youtube.com/watch?v=jExGWFXuzpU",
            "duration": 5545.0,
            "view_count": 5133,
            "uploader": "ZED Drama",
            "category": "english",
            "thumbnail": "https://i.ytimg.com/vi/jExGWFXuzpU/hq720.jpg"
        },
        {
            "id": "LihjWeh9xIs",
            "title": "Apocalypto part 2 Full Movie (2026) #apocalypse",
            "url": "https://www.youtube.com/watch?v=LihjWeh9xIs",
            "duration": 6452.0,
            "view_count": 53100,
            "uploader": "Luna Teris",
            "category": "english",
            "thumbnail": "https://i.ytimg.com/vi/LihjWeh9xIs/hqdefault.jpg"
        },
        {
            "id": "SsD-_oykv30",
            "title": "THE EXPAT Full Hollywood Action Movie | English Movie | Free Movies",
            "url": "https://www.youtube.com/watch?v=SsD-_oykv30",
            "duration": 5452.0,
            "view_count": 3573235,
            "uploader": "Majestic Movies",
            "category": "english",
            "thumbnail": "https://i.ytimg.com/vi/SsD-_oykv30/hq720.jpg"
        },
        {
            "id": "e4aZpA2x7cQ",
            "title": "🎬 A psychological thriller you can’t look away from! | THE PERCEPTION | English Full Movie",
            "url": "https://www.youtube.com/watch?v=e4aZpA2x7cQ",
            "duration": 4825.0,
            "view_count": 485597,
            "uploader": "MOVIETOWN media",
            "category": "english",
            "thumbnail": "https://i.ytimg.com/vi/e4aZpA2x7cQ/hq720.jpg"
        },
        {
            "id": "SoSkCAHxO0k",
            "title": "Danger Man : New Action Movie 2025 | Jason Statham | Full Movie | 4K Ultra #actionmovies",
            "url": "https://www.youtube.com/watch?v=SoSkCAHxO0k",
            "duration": 6824.0,
            "view_count": 291132,
            "uploader": " Red Moon Drama",
            "category": "english",
            "thumbnail": "https://i.ytimg.com/vi/SoSkCAHxO0k/hq720.jpg"
        },
        {
            "id": "bFWRHrjyTUA",
            "title": "🎬 A movie that keeps you on edge until the last second! | Bunker Project 12 | Full movie",
            "url": "https://www.youtube.com/watch?v=bFWRHrjyTUA",
            "duration": 5831.0,
            "view_count": 1087720,
            "uploader": "Red MovieLand",
            "category": "english",
            "thumbnail": "https://i.ytimg.com/vi/bFWRHrjyTUA/hq720.jpg"
        },
        {
            "id": "77iJTnmILrw",
            "title": "The millionaire’s daughter inherits a farm that will change her life | Full Drama Movie to Watch 🎥",
            "url": "https://www.youtube.com/watch?v=77iJTnmILrw",
            "duration": 5786.0,
            "view_count": 892843,
            "uploader": "Cinematic Vault",
            "category": "english",
            "thumbnail": "https://i.ytimg.com/vi/77iJTnmILrw/hq720.jpg"
        },
        {
            "id": "qBczncM0ntk",
            "title": "Beauty And The Billionaire (2022) | Full Movie | Sashleigha Hightower | Chris Reid",
            "url": "https://www.youtube.com/watch?v=qBczncM0ntk",
            "duration": 5603.0,
            "view_count": 20410439,
            "uploader": "SparkTV",
            "category": "english",
            "thumbnail": "https://i.ytimg.com/vi/qBczncM0ntk/hq720.jpg"
        },
        {
            "id": "cyW_aC8-qBc",
            "title": "The Hungry Ones | HORROR | Full Movie en English",
            "url": "https://www.youtube.com/watch?v=cyW_aC8-qBc",
            "duration": 4810.0,
            "view_count": 60268,
            "uploader": "Boxoffice | B Movies | Full Movies",
            "category": "english",
            "thumbnail": "https://i.ytimg.com/vi/cyW_aC8-qBc/hq720.jpg"
        },
        {
            "id": "BjRNW33mGZQ",
            "title": "DON’T TRUST THESE SISTERS | FULL MOVIE | HORROR",
            "url": "https://www.youtube.com/watch?v=BjRNW33mGZQ",
            "duration": 4838.0,
            "view_count": 1550,
            "uploader": "International Film Universe",
            "category": "english",
            "thumbnail": "https://i.ytimg.com/vi/BjRNW33mGZQ/hq720_custom_2.jpg"
        },
        {
            "id": "ZtYHKQC4QbU",
            "title": "A MOVIE WORTH EVERY MINUTE OF YOUR TIME! Watch ADVENTURE Movies in English...",
            "url": "https://www.youtube.com/watch?v=ZtYHKQC4QbU",
            "duration": 5663.0,
            "view_count": 11261,
            "uploader": "MOOVIMIND",
            "category": "english",
            "thumbnail": "https://i.ytimg.com/vi/ZtYHKQC4QbU/hq720.jpg"
        },
        {
            "id": "-27-brznC68",
            "title": "For lovers of DANGER and Adventure, this movie is PERFECT! Action movies in English...",
            "url": "https://www.youtube.com/watch?v=-27-brznC68",
            "duration": 5678.0,
            "view_count": 26383,
            "uploader": "Cinematic pearls",
            "category": "english",
            "thumbnail": "https://i.ytimg.com/vi/-27-brznC68/hq720.jpg"
        },
        {
            "id": "lrMozVg5xY0",
            "title": "Seducing a Rebel | ACTION | Full Movie in English💎",
            "url": "https://www.youtube.com/watch?v=lrMozVg5xY0",
            "duration": 5874.0,
            "view_count": 2094726,
            "uploader": "Full Movies in English HD",
            "category": "english",
            "thumbnail": "https://i.ytimg.com/vi/lrMozVg5xY0/hq720.jpg"
        },
        {
            "id": "3TbJK2KLkRk",
            "title": "Danger Man : New Action Movie 2025 | Jason Statham | Full Movie | 4K Ultra #actionmovies",
            "url": "https://www.youtube.com/watch?v=3TbJK2KLkRk",
            "duration": 6824.0,
            "view_count": 39104,
            "uploader": " Red Moon Drama",
            "category": "english",
            "thumbnail": "https://i.ytimg.com/vi/3TbJK2KLkRk/hq720.jpg"
        },
        {
            "id": "pmeJZz6JtBU",
            "title": "Mirror of Death | HORROR | Full Movie in English",
            "url": "https://www.youtube.com/watch?v=pmeJZz6JtBU",
            "duration": 5869.0,
            "view_count": 35647,
            "uploader": "Boxoffice | HORROR | Full Movies",
            "category": "english",
            "thumbnail": "https://i.ytimg.com/vi/pmeJZz6JtBU/hq720.jpg"
        },
        {
            "id": "tarAjKWr094",
            "title": "Blood Bone -  New Action Movie 2025 -  Michael Jai White -  Full Movie -  4K Ultra #actionmovies",
            "url": "https://www.youtube.com/watch?v=tarAjKWr094",
            "duration": 5617.0,
            "view_count": 472654,
            "uploader": "Cinema TV ",
            "category": "english",
            "thumbnail": "https://i.ytimg.com/vi/tarAjKWr094/hq720.jpg"
        },
        {
            "id": "wccy827vBQ8",
            "title": "ACTION, CRIME MOVIE 🎬 He Witnessed the Heist. Now He’s Next 🎬 Full Movies in English",
            "url": "https://www.youtube.com/watch?v=wccy827vBQ8",
            "duration": 4694.0,
            "view_count": 5031,
            "uploader": "Movie Marathon",
            "category": "english",
            "thumbnail": "https://i.ytimg.com/vi/wccy827vBQ8/hq720.jpg"
        },
        {
            "id": "jBhRZ2KmaZ4",
            "title": "ROMEO AND JULIET GET MARRIED 🎬 Full Romance Drama Movie 🎬 English HD",
            "url": "https://www.youtube.com/watch?v=jBhRZ2KmaZ4",
            "duration": 6787.0,
            "view_count": 1798064,
            "uploader": "WATCH DRAMA MOVIES NOW",
            "category": "english",
            "thumbnail": "https://i.ytimg.com/vi/jBhRZ2KmaZ4/hq720.jpg"
        },
        {
            "id": "E6ZC4qkG4zk",
            "title": "Son of Bigfoot Animated Film | Watch the Full Movie for Free in English",
            "url": "https://www.youtube.com/watch?v=E6ZC4qkG4zk",
            "duration": 5516.0,
            "view_count": 1158436,
            "uploader": "Viva Kids Films",
            "category": "cartoons",
            "thumbnail": "https://i.ytimg.com/vi/E6ZC4qkG4zk/hq720.jpg"
        },
        {
            "id": "4wBGOWHTwjY",
            "title": "SPECIAL AGENT - Jackie Chan Sci Fi Action Blockbuster English Full Movie | Hollywood English Movies",
            "url": "https://www.youtube.com/watch?v=4wBGOWHTwjY",
            "duration": 5952.0,
            "view_count": 10292921,
            "uploader": "Blockbuster English Movies",
            "category": "english",
            "thumbnail": "https://i.ytimg.com/vi/4wBGOWHTwjY/hq720.jpg"
        },
        {
            "id": "06TOsyG4HlM",
            "title": "Kabir Singh (2019) Full Movie UHD | Shahid Kapoor, Kiara Advani | Biggest Bollywood Blockbuster",
            "url": "https://www.youtube.com/watch?v=06TOsyG4HlM",
            "duration": 9629.0,
            "view_count": 438723,
            "uploader": "NH BOLLY FLIX",
            "category": "hindi",
            "thumbnail": "https://i.ytimg.com/vi/06TOsyG4HlM/hq720.jpg"
        },
        {
            "id": "G-G51TQBHzE",
            "title": "LEGION: Dawn of Empire | 2026 Full Movie | English | Sci-Fi | Action | 4K",
            "url": "https://www.youtube.com/watch?v=G-G51TQBHzE",
            "duration": 3704.0,
            "view_count": 304770,
            "uploader": "Epic AI Films",
            "category": "english",
            "thumbnail": "https://i.ytimg.com/vi/G-G51TQBHzE/hq720.jpg"
        },
        {
            "id": "0ljC2kQto8c",
            "title": "URBAN VENGEANCE 🎬 Full Action Movie 🎬 English HD",
            "url": "https://www.youtube.com/watch?v=0ljC2kQto8c",
            "duration": 4392.0,
            "view_count": 1482,
            "uploader": "WATCH ACTION MOVIES NOW",
            "category": "english",
            "thumbnail": "https://i.ytimg.com/vi/0ljC2kQto8c/hq720.jpg"
        },
        {
            "id": "gTs_gedpGUs",
            "title": "Zootopia - Frostline | Full Fan Film",
            "url": "https://www.youtube.com/watch?v=gTs_gedpGUs",
            "duration": 4796.0,
            "view_count": 4126854,
            "uploader": "TwosAnimations",
            "category": "cartoons",
            "thumbnail": "https://i.ytimg.com/vi/gTs_gedpGUs/hq720.jpg"
        },
        {
            "id": "oP4yguMj8dY",
            "title": "Mission Into Fire | ACTION | Full Movie in English",
            "url": "https://www.youtube.com/watch?v=oP4yguMj8dY",
            "duration": 5293.0,
            "view_count": 16060,
            "uploader": "Boxoffice | 4K Full Movies",
            "category": "english",
            "thumbnail": "https://i.ytimg.com/vi/oP4yguMj8dY/hq720.jpg"
        },
        {
            "id": "KtqQtYSIJWE",
            "title": "MISSION HONG KONG - Jackie Chan English Movie | Hollywood Action Comedy Full Movie In English HD",
            "url": "https://www.youtube.com/watch?v=KtqQtYSIJWE",
            "duration": 6032.0,
            "view_count": 5995411,
            "uploader": "Hollywood English Collection",
            "category": "english",
            "thumbnail": "https://i.ytimg.com/vi/KtqQtYSIJWE/hq720.jpg"
        },
        {
            "id": "BkZNkdbVcN8",
            "title": "MEG: ABYSSAL THREAT | Full Movie 2026 | Action | English | 4K #movie #film",
            "url": "https://www.youtube.com/watch?v=BkZNkdbVcN8",
            "duration": 3899.0,
            "view_count": 6253,
            "uploader": "Entertainment Paradise",
            "category": "english",
            "thumbnail": "https://i.ytimg.com/vi/BkZNkdbVcN8/hq720.jpg"
        },
        {
            "id": "Oa0amTG0Jtc",
            "title": "SIMON SAYS 1 🎬 Full Horror Movie 🎬 English HD",
            "url": "https://www.youtube.com/watch?v=Oa0amTG0Jtc",
            "duration": 5289.0,
            "view_count": 44983,
            "uploader": "Watch Movies Now!",
            "category": "english",
            "thumbnail": "https://i.ytimg.com/vi/Oa0amTG0Jtc/hq720.jpg"
        },
        {
            "id": "lj_CJeio31k",
            "title": "Ian McKellen: Priest of Love (1981) FULL MOVIE | The D.H. Lawrence Story",
            "url": "https://www.youtube.com/watch?v=lj_CJeio31k",
            "duration": 5930.0,
            "view_count": 34547,
            "uploader": "Cult Cinema Classics",
            "category": "english",
            "thumbnail": "https://i.ytimg.com/vi/lj_CJeio31k/hq720.jpg"
        }
    ]
}