{
    "page": 42,
    "total_pages": 103,
    "total_items": 5125,
    "items": [
        {
            "id": "wfeFQ1-4w4Q",
            "title": "THE100 FULL MOVIE | TAMIL | RK Sagar | Misha | Raghav Omkar Sasidhar |Harshavardhan Rameshwar",
            "url": "https://www.youtube.com/watch?v=wfeFQ1-4w4Q",
            "duration": 8005.0,
            "view_count": 115993,
            "uploader": "KRIA FILM CORP",
            "category": "tamil",
            "thumbnail": "https://i.ytimg.com/vi/wfeFQ1-4w4Q/hq720.jpg"
        },
        {
            "id": "HtR1LPRyV2I",
            "title": "Romeo Juliet - Tamil Full Movie HD | Ravi Mohan | Hansika |  Poonam Bajwa | VTV Ganesh",
            "url": "https://www.youtube.com/watch?v=HtR1LPRyV2I",
            "duration": 8274.0,
            "view_count": 59813,
            "uploader": "Lyca Productions",
            "category": "tamil",
            "thumbnail": "https://i.ytimg.com/vi/HtR1LPRyV2I/hq720.jpg?sqp=-oaymwEcCNAFEJQDSFXyq4qpAw4IARUAAIhCGAFwAcABBg==&rs=AOn4CLCjKnnq73k09ST5YgDY4yExo127fg",
            "added_date": "2026-04-16T07:31:09.771723Z",
            "source": "youtube"
        },
        {
            "id": "ol5tx6j5230",
            "title": "Vandi (2018) | Superhit Tamil Movie | Vidaarth | Comedy Drama |  Full Movie Tamil (HD)",
            "url": "https://www.youtube.com/watch?v=ol5tx6j5230",
            "duration": 7910.0,
            "view_count": 5681,
            "uploader": "Eros Universe Tamil",
            "category": "tamil",
            "thumbnail": "https://i.ytimg.com/vi/ol5tx6j5230/hq720.jpg"
        },
        {
            "id": "ZkGFJJSjwGE",
            "title": "Thuppakki Tamil Full Movie | Thalapathy Vijay, Kajal Aggarwal, Vidyut | துப்பாக்கி | AR Murugadoss",
            "url": "https://www.youtube.com/watch?v=ZkGFJJSjwGE",
            "duration": 10190.0,
            "view_count": 10240661,
            "uploader": "Rajshri Tamil",
            "category": "tamil",
            "thumbnail": "https://i.ytimg.com/vi/ZkGFJJSjwGE/hq720.jpg"
        },
        {
            "id": "t_5FlX_sRuA",
            "title": "Theeya Velai Seiyyanum Kumaru Tamil Full Movie",
            "url": "https://www.youtube.com/watch?v=t_5FlX_sRuA",
            "duration": 8291.0,
            "view_count": 4178154,
            "uploader": "United India Exporters",
            "category": "tamil",
            "thumbnail": "https://i.ytimg.com/vi/t_5FlX_sRuA/hq720.jpg"
        },
        {
            "id": "0BLS_QSCnM4",
            "title": "Baahubali 2 - The Conclusion Tamil Full Movie 1080p HD | Prabhas | Anushka | Tamannaah | Rana",
            "url": "https://www.youtube.com/watch?v=0BLS_QSCnM4",
            "duration": 10059.0,
            "view_count": 289652,
            "uploader": "Baahubali The Movie",
            "category": "tamil",
            "thumbnail": "https://i.ytimg.com/vi/0BLS_QSCnM4/hq720.jpg"
        },
        {
            "id": "6k-JbDiksME",
            "title": "Lingaa | Rajinikanths Superhit Tamil Movie | Rajinikanth, Anushka Shetty, Sonakshi Sinha",
            "url": "https://www.youtube.com/watch?v=6k-JbDiksME",
            "duration": 10008.0,
            "view_count": 471795,
            "uploader": "Eros Universe Tamil",
            "category": "tamil",
            "thumbnail": "https://i.ytimg.com/vi/6k-JbDiksME/hq720.jpg"
        },
        {
            "id": "IYG317Dj3do",
            "title": "Darbar - Tamil full movie (HD) | Rajinikanth | Nayanthara | AR Murugadoss | Anirudh | Lyca",
            "url": "https://www.youtube.com/watch?v=IYG317Dj3do",
            "duration": 9143.0,
            "view_count": 223581,
            "uploader": "Lyca Productions",
            "category": "tamil",
            "thumbnail": "https://i.ytimg.com/vi/IYG317Dj3do/hq720.jpg"
        },
        {
            "id": "8-8mgpgYNIs",
            "title": "Jana Nayagan Full Movie In Tamil 2026 | Thalapathy Vijay | Pooja Hegde | Bobby Deol | Review & Facts",
            "url": "https://www.youtube.com/watch?v=8-8mgpgYNIs",
            "duration": 9604.0,
            "view_count": 47920,
            "uploader": "Drama Adda Serial",
            "category": "tamil",
            "thumbnail": "https://i.ytimg.com/vi/8-8mgpgYNIs/hq720.jpg"
        },
        {
            "id": "Dk-FzgEYgWk",
            "title": "தமிழ் Tamil Full Movie HD | Prashanth | Simran | Vadivelu | Directed by Hari Thamizh 2002 HD Movie",
            "url": "https://www.youtube.com/watch?v=Dk-FzgEYgWk",
            "duration": 9274.0,
            "view_count": 199948,
            "uploader": "RJS Movies",
            "category": "tamil",
            "thumbnail": "https://i.ytimg.com/vi/Dk-FzgEYgWk/hq720.jpg"
        },
        {
            "id": "A5mJ6QnlevY",
            "title": "🔴LIVE : jananayagan piracy | Arrest | Vijay | ஜனநாயகன் லீக் - அதிரடியாக கைது",
            "url": "https://www.youtube.com/watch?v=A5mJ6QnlevY",
            "duration": 0,
            "view_count": 0,
            "uploader": "Thanthi TV",
            "category": "tamil",
            "thumbnail": "https://i.ytimg.com/vi/A5mJ6QnlevY/hq720.jpg"
        },
        {
            "id": "kyuMeBDMlJM",
            "title": "Thaai Kizhavi Full Movie In Tamil 2026 | Radikaa Sarathkumar | Singampuli | HD Reviews & Facts",
            "url": "https://www.youtube.com/watch?v=kyuMeBDMlJM",
            "duration": 8501.0,
            "view_count": 34022,
            "uploader": "Cine Drift",
            "category": "tamil",
            "thumbnail": "https://i.ytimg.com/vi/kyuMeBDMlJM/hq720.jpg"
        },
        {
            "id": "_89_ZDW7EFE",
            "title": "THALLUMAALA | Tamil Action Full Movie | Tovino Thomas, Kalyani Priyadarshan",
            "url": "https://www.youtube.com/watch?v=_89_ZDW7EFE",
            "duration": 8906.0,
            "view_count": 10869,
            "uploader": "Tamil Movieplex",
            "category": "tamil",
            "thumbnail": "https://i.ytimg.com/vi/_89_ZDW7EFE/hq720.jpg"
        },
        {
            "id": "JzxLH_ojV_U",
            "title": "Allu Arjun & Pooja Hegde Tamil Super Hit Full Movie || Devi Sri Prasad || Kollywood Multiplex",
            "url": "https://www.youtube.com/watch?v=JzxLH_ojV_U",
            "duration": 7051.0,
            "view_count": 2557909,
            "uploader": "Kollywood Multiplex",
            "category": "tamil",
            "thumbnail": "https://i.ytimg.com/vi/JzxLH_ojV_U/hq720.jpg"
        },
        {
            "id": "DT6IVMgoAYQ",
            "title": "The Door | Full Movie | Bhavana | Ganesh Venkataraman | Jaiiddev | Varun Unni | Naveen Rajan",
            "url": "https://www.youtube.com/watch?v=DT6IVMgoAYQ",
            "duration": 7658.0,
            "view_count": 361683,
            "uploader": "VS Malayalam Cinema",
            "category": "tamil",
            "thumbnail": "https://i.ytimg.com/vi/DT6IVMgoAYQ/hq720.jpg"
        },
        {
            "id": "fvDmrx9Xm-I",
            "title": "Em Magan - எம் மகன் (2006) | Bharath, Gopika | Family Drama | Tamil Full Movie (HD)",
            "url": "https://www.youtube.com/watch?v=fvDmrx9Xm-I",
            "duration": 9260.0,
            "view_count": 115628,
            "uploader": "Eros Universe South",
            "category": "tamil",
            "thumbnail": "https://i.ytimg.com/vi/fvDmrx9Xm-I/hq720.jpg"
        },
        {
            "id": "w3AGOknWQs0",
            "title": "PULI Tamil Full Super Hit Movie | Vijay | Sridhavi | Brabu | Hansika | Sruthi Hasan |..",
            "url": "https://www.youtube.com/watch?v=w3AGOknWQs0",
            "duration": 9247.0,
            "view_count": 190287,
            "uploader": "TR Status Official ",
            "category": "tamil",
            "thumbnail": "https://i.ytimg.com/vi/w3AGOknWQs0/hqdefault.jpg?sqp=-oaymwEcCOADEI4CSFXyq4qpAw4IARUAAIhCGAFwAcABBg==&rs=AOn4CLBuIcKZ7lA6lBd7S8NtJG2y6CATeA",
            "added_date": "2026-04-16T07:31:10.573200Z",
            "source": "youtube"
        },
        {
            "id": "ZIZVQePVL88",
            "title": "Nari (Roudram) | Tamil Dubbed Action Movie 4k | Mammootty | Sai Kumar | Manju | Haris Cinemas",
            "url": "https://www.youtube.com/watch?v=ZIZVQePVL88",
            "duration": 7338.0,
            "view_count": 179436,
            "uploader": "Haris Cinemas",
            "category": "tamil",
            "thumbnail": "https://i.ytimg.com/vi/ZIZVQePVL88/hq720.jpg"
        },
        {
            "id": "ul6RTcNaesQ",
            "title": "Nimir 4K Full Tamil Movie | Udhayanidhi Stalin | Namitha Pramod | Blockbuster Film",
            "url": "https://www.youtube.com/watch?v=ul6RTcNaesQ",
            "duration": 7174.0,
            "view_count": 38349,
            "uploader": "United India Exporters",
            "category": "tamil",
            "thumbnail": "https://i.ytimg.com/vi/ul6RTcNaesQ/hq720.jpg"
        },
        {
            "id": "oRHIIOVR3pM",
            "title": "Ayan Full Movie HD Surya Blockbuster Movie Tamil Action Movie",
            "url": "https://www.youtube.com/watch?v=oRHIIOVR3pM",
            "duration": 9743.0,
            "view_count": 67952,
            "uploader": "Tamil Entertainment 1",
            "category": "tamil",
            "thumbnail": "https://i.ytimg.com/vi/oRHIIOVR3pM/hq720.jpg?sqp=-oaymwEcCNAFEJQDSFXyq4qpAw4IARUAAIhCGAFwAcABBg==&rs=AOn4CLBCwq9huUAqxxg1Lk2Mmpsek_lByA",
            "added_date": "2026-04-16T07:31:10.372847Z",
            "source": "youtube"
        },
        {
            "id": "6tLQtsPZNvQ",
            "title": "கண்ணெதிரே தோன்றினாள் Tamil Full Movie 4K HD | Prashanth | Simran | Deva | Kannedhirey Thondrinal",
            "url": "https://www.youtube.com/watch?v=6tLQtsPZNvQ",
            "duration": 9745.0,
            "view_count": 83789,
            "uploader": "RJS Screens",
            "category": "tamil",
            "thumbnail": "https://i.ytimg.com/vi/6tLQtsPZNvQ/hq720.jpg"
        },
        {
            "id": "e1Mq2wg9WlQ",
            "title": "Vanamagan  4K Full Movie | Ravi Mohan | Sayeesha | Prakash Raj | Harris Jayaraj | Adventure Film",
            "url": "https://www.youtube.com/watch?v=e1Mq2wg9WlQ",
            "duration": 7826.0,
            "view_count": 67555,
            "uploader": "United India Exporters",
            "category": "tamil",
            "thumbnail": "https://i.ytimg.com/vi/e1Mq2wg9WlQ/hq720.jpg"
        },
        {
            "id": "mTj9Y0qAM10",
            "title": "Naga Chaitanya & Pooja Hegde || Tamil Movie || Full HD",
            "url": "https://www.youtube.com/watch?v=mTj9Y0qAM10",
            "duration": 6975.0,
            "view_count": 31186,
            "uploader": "Vee Tamil",
            "category": "tamil",
            "thumbnail": "https://i.ytimg.com/vi/mTj9Y0qAM10/hq720.jpg"
        },
        {
            "id": "VT9dPu6tOM4",
            "title": "Thaai Kizhavi Full Tamil Movie 2026 | Radikaa Sarathkumar | Ilavarasu | Aruldoss | HD Review & Facts",
            "url": "https://www.youtube.com/watch?v=VT9dPu6tOM4",
            "duration": 8576.0,
            "view_count": 56171,
            "uploader": "Zyrox Cinema and 2 more",
            "category": "tamil",
            "thumbnail": "https://i.ytimg.com/vi/VT9dPu6tOM4/hq720.jpg"
        },
        {
            "id": "LZPnrCAzCs8",
            "title": "Sarkar full movie [Tamil] | Thalapathy Vijay | Sun Pictures | A.R Murugadoss | A.R. Rahman",
            "url": "https://www.youtube.com/watch?v=LZPnrCAzCs8",
            "duration": 9737.0,
            "view_count": 1235,
            "uploader": "MM Movies",
            "category": "tamil",
            "thumbnail": "https://i.ytimg.com/vi/LZPnrCAzCs8/hqdefault.jpg"
        },
        {
            "id": "ReeiZ-JtRTM",
            "title": "Vanakkam Chennai Tamil Full Movie",
            "url": "https://www.youtube.com/watch?v=ReeiZ-JtRTM",
            "duration": 8341.0,
            "view_count": 3915667,
            "uploader": "United India Exporters",
            "category": "tamil",
            "thumbnail": "https://i.ytimg.com/vi/ReeiZ-JtRTM/hq720.jpg"
        },
        {
            "id": "GmbaGDHKkxc",
            "title": "THANAL - 4K  Full Action Movie | தணல் | Atharvaa | Ashwin Kakumanu | Lavanya Tripathi | Ayngaran",
            "url": "https://www.youtube.com/watch?v=GmbaGDHKkxc",
            "duration": 7533.0,
            "view_count": 965937,
            "uploader": "Ayngaran",
            "category": "tamil",
            "thumbnail": "https://i.ytimg.com/vi/GmbaGDHKkxc/hq720.jpg"
        },
        {
            "id": "Lxjdaub3Gx4",
            "title": "Maragadha Naanayam ( 2017 ) | Tamil Full Movie HD | Aadhi | Nikki Galrani | Mishri Movies",
            "url": "https://www.youtube.com/watch?v=Lxjdaub3Gx4",
            "duration": 7541.0,
            "view_count": 14147,
            "uploader": "MISHRI MOVIES",
            "category": "tamil",
            "thumbnail": "https://i.ytimg.com/vi/Lxjdaub3Gx4/hq720.jpg"
        },
        {
            "id": "hLVAAMAdKLI",
            "title": "NEW RELEASE | இராமானுசன் FULL MOVIE HD | Ramanujan Tamil MOVIE",
            "url": "https://www.youtube.com/watch?v=hLVAAMAdKLI",
            "duration": 9635.0,
            "view_count": 1365458,
            "uploader": "Ultra Cinema",
            "category": "tamil",
            "thumbnail": "https://i.ytimg.com/vi/hLVAAMAdKLI/hq720.jpg"
        },
        {
            "id": "mkgpdiFihPU",
            "title": "Love Insurance Kompany Full Movie In Tamil | Pradeep Ranganathan | Krithi Shetty | Reviews & Facts",
            "url": "https://www.youtube.com/watch?v=mkgpdiFihPU",
            "duration": 8885.0,
            "view_count": 21363,
            "uploader": "Cine Drift",
            "category": "tamil",
            "thumbnail": "https://i.ytimg.com/vi/mkgpdiFihPU/hq720.jpg"
        },
        {
            "id": "gMFyMSPT8nU",
            "title": "Thirunaal 4K Full Movie Tamil | Jiiva | Nayanthara | Karunas | Super Hit Blockbuster",
            "url": "https://www.youtube.com/watch?v=gMFyMSPT8nU",
            "duration": 7837.0,
            "view_count": 79442,
            "uploader": "United India Exporters",
            "category": "tamil",
            "thumbnail": "https://i.ytimg.com/vi/gMFyMSPT8nU/hq720.jpg?sqp=-oaymwEcCNAFEJQDSFXyq4qpAw4IARUAAIhCGAFwAcABBg==&rs=AOn4CLA8lOsvxe42DSvg_XHBQ9t_TkZePA",
            "added_date": "2026-04-16T07:31:09.571371Z",
            "source": "youtube"
        },
        {
            "id": "nZZKs6UBg7w",
            "title": "Shahjahan | Tamil Full Movie | Vijay, Richa Pallod | Mani Sharma | Super Good Films | Full HD",
            "url": "https://www.youtube.com/watch?v=nZZKs6UBg7w",
            "duration": 9374.0,
            "view_count": 2704173,
            "uploader": "Super Good Films",
            "category": "tamil",
            "thumbnail": "https://i.ytimg.com/vi/nZZKs6UBg7w/hq720.jpg"
        },
        {
            "id": "MTjjOdnWF5Y",
            "title": "Samajavaragamana Comedy Drama Telugu Full Film | Reba Monica John | Sree Vishnu @tfcmaacinemalu",
            "url": "https://www.youtube.com/watch?v=MTjjOdnWF5Y",
            "duration": 7033.0,
            "view_count": 3662887,
            "uploader": "Maa Cinemalu",
            "category": "telugu",
            "thumbnail": "https://i.ytimg.com/vi/MTjjOdnWF5Y/hq720.jpg?sqp=-oaymwEcCNAFEJQDSFXyq4qpAw4IARUAAIhCGAFwAcABBg==&rs=AOn4CLCraSxlLoYC2GhOJL4ZBtu1FJT3gQ",
            "added_date": "2026-04-16T07:31:14.222214Z",
            "source": "youtube"
        },
        {
            "id": "Xo84bb0qz5E",
            "title": "Latest Telugu Suspense Thriller Full Movie | A(Ad Infinitum) | Ugandar Muni |New South Action Movies",
            "url": "https://www.youtube.com/watch?v=Xo84bb0qz5E",
            "duration": 8855.0,
            "view_count": 1322880,
            "uploader": "SriBalajiMovies",
            "category": "telugu",
            "thumbnail": "https://i.ytimg.com/vi/Xo84bb0qz5E/hq720.jpg"
        },
        {
            "id": "DlIMEKLN_xc",
            "title": "Manchi Kutumbam Telugu Full Movie | Krishna | Radha | Sharada | Gollapudi Maruthi Rao | Giri Babu",
            "url": "https://www.youtube.com/watch?v=DlIMEKLN_xc",
            "duration": 7673.0,
            "view_count": 32103,
            "uploader": "Telugu Movie Bazaar",
            "category": "telugu",
            "thumbnail": "https://i.ytimg.com/vi/DlIMEKLN_xc/hq720.jpg"
        },
        {
            "id": "sEu1b7YXqVE",
            "title": "Shakuni  Telugu Full Movie | Karthi And Pranitha Recent Blockbuster Political Movie | TFC Hit Scenes",
            "url": "https://www.youtube.com/watch?v=sEu1b7YXqVE",
            "duration": 7799.0,
            "view_count": 186887,
            "uploader": "TFC Hit Scenes",
            "category": "telugu",
            "thumbnail": "https://i.ytimg.com/vi/sEu1b7YXqVE/hq720.jpg"
        },
        {
            "id": "pkb5wzXnCn0",
            "title": "Vishal,Keerthy Suresh,Varalaxmi Superhit Telugu Full Length HD movie | @tollywoodboxoffice",
            "url": "https://www.youtube.com/watch?v=pkb5wzXnCn0",
            "duration": 8056.0,
            "view_count": 1290259,
            "uploader": "Tollywood Box Office",
            "category": "telugu",
            "thumbnail": "https://i.ytimg.com/vi/pkb5wzXnCn0/hq720.jpg"
        },
        {
            "id": "BGOU5rHf_GM",
            "title": "Dulquer Salman Sobhita Dhulipala Crima Thriller Telugu Full Movie HD | Tovino Thomas | 90ml movies",
            "url": "https://www.youtube.com/watch?v=BGOU5rHf_GM",
            "duration": 8279.0,
            "view_count": 1533847,
            "uploader": "90 ML Movies",
            "category": "telugu",
            "thumbnail": "https://i.ytimg.com/vi/BGOU5rHf_GM/hq720.jpg"
        },
        {
            "id": "i7V5x-YFpPU",
            "title": "Hey Balwanth (2026) HDTelugu Full Movie super Hit movie in telugu",
            "url": "https://www.youtube.com/watch?v=i7V5x-YFpPU",
            "duration": 7917.0,
            "view_count": 1285791,
            "uploader": "venu for you 18",
            "category": "telugu",
            "thumbnail": "https://i.ytimg.com/vi/i7V5x-YFpPU/hq720.jpg"
        },
        {
            "id": "dt8cVYusapQ",
            "title": "Allu Sirish And Lavanya Tripathi  Telugu Full Movie  | Recent Telugu Movies | Telugu Hits",
            "url": "https://www.youtube.com/watch?v=dt8cVYusapQ",
            "duration": 8091.0,
            "view_count": 312411,
            "uploader": "Telugu Hits",
            "category": "telugu",
            "thumbnail": "https://i.ytimg.com/vi/dt8cVYusapQ/hq720.jpg"
        },
        {
            "id": "nVsJLEIMnmE",
            "title": "Govindudu Andarivadele Latest Telugu Full Movie | Ram Charan, Kajal Agarwal @SriBalajiMovies",
            "url": "https://www.youtube.com/watch?v=nVsJLEIMnmE",
            "duration": 8746.0,
            "view_count": 82184460,
            "uploader": "SriBalajiMovies",
            "category": "telugu",
            "thumbnail": "https://i.ytimg.com/vi/nVsJLEIMnmE/hq720.jpg?sqp=-oaymwEcCNAFEJQDSFXyq4qpAw4IARUAAIhCGAFwAcABBg==&rs=AOn4CLAESzrxhAFlVDWoVlHD1uW2A5OY4Q",
            "added_date": "2026-04-16T07:31:15.424291Z",
            "source": "youtube"
        },
        {
            "id": "c_diMSAaojU",
            "title": "Nuvvostanante Nenoddantana Telugu Full Movie | Siddharth, Trisha, Srihari | Sri Balaji Video",
            "url": "https://www.youtube.com/watch?v=c_diMSAaojU",
            "duration": 9665.0,
            "view_count": 100269468,
            "uploader": "Sri Balaji Full Movies",
            "category": "telugu",
            "thumbnail": "https://i.ytimg.com/vi/c_diMSAaojU/hq720.jpg?sqp=-oaymwEcCNAFEJQDSFXyq4qpAw4IARUAAIhCGAFwAcABBg==&rs=AOn4CLB8lmUw7mIpZdsgHgKBEznbF4J2kA",
            "added_date": "2026-04-16T07:31:15.624553Z",
            "source": "youtube"
        },
        {
            "id": "glbn3fzBL8U",
            "title": "Nuvvu Naaku Nachav Full Movie 4K | Venkatesh | Aarthi Agarwal | Trivikram | K Vijaya Bhaskar | Koti",
            "url": "https://www.youtube.com/watch?v=glbn3fzBL8U",
            "duration": 11249.0,
            "view_count": 3279556,
            "uploader": "Sri Sravanthi Movies",
            "category": "telugu",
            "thumbnail": "https://i.ytimg.com/vi/glbn3fzBL8U/hq720.jpg"
        },
        {
            "id": "r12IbJpdG58",
            "title": "7th Sense Telugu Full Movie | Suriya, Shruti Haasan | AR Murugadoss | Telugu Movies | Delugu Movies",
            "url": "https://www.youtube.com/watch?v=r12IbJpdG58",
            "duration": 9249.0,
            "view_count": 362314,
            "uploader": "Delugu Movies",
            "category": "telugu",
            "thumbnail": "https://i.ytimg.com/vi/r12IbJpdG58/hq720.jpg"
        },
        {
            "id": "RqQNnn5ccZs",
            "title": "Temper Full Movie Telugu | Jr NTR | Kajal Aggarwal | Puri Jagannadh | Action Thriller | Dolby Cinema",
            "url": "https://www.youtube.com/watch?v=RqQNnn5ccZs",
            "duration": 8418.0,
            "view_count": 177283,
            "uploader": "Dolby Cinema Vault",
            "category": "telugu",
            "thumbnail": "https://i.ytimg.com/vi/RqQNnn5ccZs/hq720.jpg"
        },
        {
            "id": "8gp9ZjrNWzs",
            "title": "Bahubali - The Epic (telugu) | prabhas,Rana |SS Rajamouli Telugu Full HD movie Dolby Atmos sound ",
            "url": "https://www.youtube.com/watch?v=8gp9ZjrNWzs",
            "duration": 13431.0,
            "view_count": 875132,
            "uploader": "Telugu new movies",
            "category": "telugu",
            "thumbnail": "https://i.ytimg.com/vi/8gp9ZjrNWzs/hqdefault.jpg"
        },
        {
            "id": "KSNRxNv7omM",
            "title": "Ready Telugu Full Movie 4K | Ram Pothineni | Genelia | Brahmanandam | Sunil | Srinu Vaitla | DSP",
            "url": "https://www.youtube.com/watch?v=KSNRxNv7omM",
            "duration": 10372.0,
            "view_count": 7176269,
            "uploader": "Telugu Filmnagar",
            "category": "telugu",
            "thumbnail": "https://i.ytimg.com/vi/KSNRxNv7omM/hq720.jpg?sqp=-oaymwEcCNAFEJQDSFXyq4qpAw4IARUAAIhCGAFwAcABBg==&rs=AOn4CLCNrXRDSGjDhlsJCKVrHvYsGYzwDQ",
            "added_date": "2026-04-16T07:31:15.824955Z",
            "source": "youtube"
        },
        {
            "id": "ZkuXn1tUWXI",
            "title": "Saaho Latest Telugu Full Movie 4K | Prabhas | Shraddha Kapoor | Sujith | Prabhas New Movie 2026",
            "url": "https://www.youtube.com/watch?v=ZkuXn1tUWXI",
            "duration": 10181.0,
            "view_count": 1063254,
            "uploader": "Telugu Filmnagar",
            "category": "telugu",
            "thumbnail": "https://i.ytimg.com/vi/ZkuXn1tUWXI/hq720.jpg"
        },
        {
            "id": "JQYtgRF_SiI",
            "title": "Bheeshma Recent Super Hit Telugu Full Length HD Movie || Nithin || Rashmika Mandanna || Matinee Show",
            "url": "https://www.youtube.com/watch?v=JQYtgRF_SiI",
            "duration": 7397.0,
            "view_count": 12406799,
            "uploader": "Matinee Show",
            "category": "telugu",
            "thumbnail": "https://i.ytimg.com/vi/JQYtgRF_SiI/hq720.jpg"
        },
        {
            "id": "HoylISiCay8",
            "title": "CASE NO. 108 (కేసు నం. 108) | Vennela Kishore, Ananya Nagalla New Telugu Crime Thriller | Full Movie",
            "url": "https://www.youtube.com/watch?v=HoylISiCay8",
            "duration": 6295.0,
            "view_count": 588595,
            "uploader": "Andhra Talkies",
            "category": "telugu",
            "thumbnail": "https://i.ytimg.com/vi/HoylISiCay8/hq720.jpg"
        }
    ]
}