{
    "page": 99,
    "total_pages": 103,
    "total_items": 5125,
    "items": [
        {
            "id": "hEfyqvLZfcc",
            "title": "Vir The Robot Boy | Hindi Cartoon shows For Kids | Mad Max bana dadaji | Animated cartoon| Wow Kidz",
            "url": "https://www.youtube.com/watch?v=hEfyqvLZfcc",
            "duration": 666.0,
            "view_count": 120098824,
            "uploader": "WowKidz",
            "category": "cartoons/vir_the_robot_boy",
            "thumbnail": "https://i.ytimg.com/vi/hEfyqvLZfcc/hq720.jpg"
        },
        {
            "id": "2QIiK1EuXBA",
            "title": "Udney Waley Pankh | S01E01 | Vir The Robot Boy Full Hindi Episode",
            "url": "https://www.youtube.com/watch?v=2QIiK1EuXBA",
            "duration": 1365.0,
            "view_count": 3025771,
            "uploader": "Vir - The Robot Boy",
            "category": "cartoons/vir_the_robot_boy",
            "thumbnail": "https://i.ytimg.com/vi/2QIiK1EuXBA/hqdefault.jpg"
        },
        {
            "id": "rDcO3x2YPnY",
            "title": "Vir The Robot Boy | Hindi Cartoon For Kids | Drama competition | Animated Series| Wow Kidz",
            "url": "https://www.youtube.com/watch?v=rDcO3x2YPnY",
            "duration": 662.0,
            "view_count": 58038808,
            "uploader": "WowKidz",
            "category": "cartoons/vir_the_robot_boy",
            "thumbnail": "https://i.ytimg.com/vi/rDcO3x2YPnY/hq720.jpg"
        },
        {
            "id": "JTAGBhDup3A",
            "title": "Vir The Robot Boy New Episodes | Imli Se Mukabala | Hindi Cartoon Kahani | Wow Kidz",
            "url": "https://www.youtube.com/watch?v=JTAGBhDup3A",
            "duration": 676.0,
            "view_count": 37176537,
            "uploader": "WowKidz",
            "category": "cartoons/vir_the_robot_boy",
            "thumbnail": "https://i.ytimg.com/vi/JTAGBhDup3A/hq720.jpg"
        },
        {
            "id": "e0jrQnmUY5U",
            "title": "Vir The Robot Boy | Hindi Cartoon For Kids | Vir ek villian | Animated Series| Wow Kidz",
            "url": "https://www.youtube.com/watch?v=e0jrQnmUY5U",
            "duration": 650.0,
            "view_count": 266910597,
            "uploader": "WowKidz",
            "category": "cartoons/vir_the_robot_boy",
            "thumbnail": "https://i.ytimg.com/vi/e0jrQnmUY5U/hq720.jpg"
        },
        {
            "id": "iX6hYQTkOqU",
            "title": "VIR: The Robot Boy Cartoon in Hindi- EP74B | Full Episode | Hindi Cartoons for Kids |Wow Kidz Action",
            "url": "https://www.youtube.com/watch?v=iX6hYQTkOqU",
            "duration": 682.0,
            "view_count": 60133940,
            "uploader": "Wow Kidz Action",
            "category": "cartoons/vir_the_robot_boy",
            "thumbnail": "https://i.ytimg.com/vi/iX6hYQTkOqU/hq720.jpg"
        },
        {
            "id": "N-MrPVLnZQo",
            "title": "Vir The Robot Boy | Hindi Cartoon For Kids | Main kaun hoon | Animated Series| Wow Kidz",
            "url": "https://www.youtube.com/watch?v=N-MrPVLnZQo",
            "duration": 678.0,
            "view_count": 9005185,
            "uploader": "WowKidz",
            "category": "cartoons/vir_the_robot_boy",
            "thumbnail": "https://i.ytimg.com/vi/N-MrPVLnZQo/hq720.jpg"
        },
        {
            "id": "bhmMcNDy3fI",
            "title": "Vir The Robot Boy New Episodes | Magical Bunty | Hindi Cartoon Kahani | Wow Kidz",
            "url": "https://www.youtube.com/watch?v=bhmMcNDy3fI",
            "duration": 643.0,
            "view_count": 9144171,
            "uploader": "WowKidz",
            "category": "cartoons/vir_the_robot_boy",
            "thumbnail": "https://i.ytimg.com/vi/bhmMcNDy3fI/hq720.jpg"
        },
        {
            "id": "AkaGllZC9RQ",
            "title": "Vir : The Robot Boy | Vir Action Collection - 38 | Action series | WowKidz Action",
            "url": "https://www.youtube.com/watch?v=AkaGllZC9RQ",
            "duration": 1323.0,
            "view_count": 103385583,
            "uploader": "Wow Kidz Action",
            "category": "cartoons/vir_the_robot_boy",
            "thumbnail": "https://i.ytimg.com/vi/AkaGllZC9RQ/hq720.jpg"
        },
        {
            "id": "0MMEwhQQxgM",
            "title": "Hindi Cartoons for kids | Vir: The Robot Boy | Vir Ki Punishment | WowKidz Action",
            "url": "https://www.youtube.com/watch?v=0MMEwhQQxgM",
            "duration": 681.0,
            "view_count": 26874891,
            "uploader": "Wow Kidz Action",
            "category": "cartoons/vir_the_robot_boy",
            "thumbnail": "https://i.ytimg.com/vi/0MMEwhQQxgM/hq720.jpg"
        },
        {
            "id": "w3eE967GDGk",
            "title": "Vir The Robot Boy New Episodes | Robot Exhibition | Hindi Cartoon Kahani | Wow Kidz",
            "url": "https://www.youtube.com/watch?v=w3eE967GDGk",
            "duration": 629.0,
            "view_count": 10766701,
            "uploader": "WowKidz",
            "category": "cartoons/vir_the_robot_boy",
            "thumbnail": "https://i.ytimg.com/vi/w3eE967GDGk/hq720.jpg"
        },
        {
            "id": "4e7iQfWicL4",
            "title": "Vir The Robot Boy | Hindi Cartoon For Kids | School diaries | Animated Series| Wow Kidz",
            "url": "https://www.youtube.com/watch?v=4e7iQfWicL4",
            "duration": 2688.0,
            "view_count": 158821768,
            "uploader": "WowKidz",
            "category": "cartoons/vir_the_robot_boy",
            "thumbnail": "https://i.ytimg.com/vi/4e7iQfWicL4/hq720.jpg"
        },
        {
            "id": "w03MLEgv7XY",
            "title": "Vir The Robot Boy New Episodes | Mind Controller Bee | Robot Ki Kahani | Hindi Cartoons | Wow Kidz",
            "url": "https://www.youtube.com/watch?v=w03MLEgv7XY",
            "duration": 686.0,
            "view_count": 14411185,
            "uploader": "WowKidz",
            "category": "cartoons/vir_the_robot_boy",
            "thumbnail": "https://i.ytimg.com/vi/w03MLEgv7XY/hq720.jpg"
        },
        {
            "id": "PIqEPHHisOo",
            "title": "Vir The Robot Boy | New Compilation | 175 | Hindi Action Series For Kids | Animated Series | #spot",
            "url": "https://www.youtube.com/watch?v=PIqEPHHisOo",
            "duration": 1360.0,
            "view_count": 8953439,
            "uploader": "Wow Kidz Gags",
            "category": "cartoons/vir_the_robot_boy",
            "thumbnail": "https://i.ytimg.com/vi/PIqEPHHisOo/hq720.jpg"
        },
        {
            "id": "_kVQTBkRNF4",
            "title": "Vir The Robot Boy In Hindi | Bunty's Gags - 01 | Cartoons for Kids | Wow Kidz Gags",
            "url": "https://www.youtube.com/watch?v=_kVQTBkRNF4",
            "duration": 686.0,
            "view_count": 1676772,
            "uploader": "Wow Kidz Gags",
            "category": "cartoons/vir_the_robot_boy",
            "thumbnail": "https://i.ytimg.com/vi/_kVQTBkRNF4/hq720.jpg"
        },
        {
            "id": "u8N1mua2me8",
            "title": "Vir ka Mission: Sheher ko Bachana | Vir The Robot Boy Compilation",
            "url": "https://www.youtube.com/watch?v=u8N1mua2me8",
            "duration": 1171.0,
            "view_count": 3595666,
            "uploader": "WowKidz",
            "category": "cartoons/vir_the_robot_boy",
            "thumbnail": "https://i.ytimg.com/vi/u8N1mua2me8/hq720.jpg"
        },
        {
            "id": "i5nIDNbwWEM",
            "title": "Vir The Robot Boy New Episodes | Robot Car | Hindi Kahani | Wow Kidz Action",
            "url": "https://www.youtube.com/watch?v=i5nIDNbwWEM",
            "duration": 639.0,
            "view_count": 112478070,
            "uploader": "Wow Kidz Action",
            "category": "cartoons/vir_the_robot_boy",
            "thumbnail": "https://i.ytimg.com/vi/i5nIDNbwWEM/hq720.jpg"
        },
        {
            "id": "xe9qY0MuTXU",
            "title": "Vir The Robot Boy | Bag Snatcher | NEW HINDI EPISODE | Wow Kidz",
            "url": "https://www.youtube.com/watch?v=xe9qY0MuTXU",
            "duration": 658.0,
            "view_count": 16117373,
            "uploader": "WowKidz",
            "category": "cartoons/vir_the_robot_boy",
            "thumbnail": "https://i.ytimg.com/vi/xe9qY0MuTXU/hq720.jpg"
        },
        {
            "id": "p_yE0C-8kI0",
            "title": "Vir The Robot Boy New Episodes | Chalak Pilot | Hindi Cartoon Kahani | Wow Kidz",
            "url": "https://www.youtube.com/watch?v=p_yE0C-8kI0",
            "duration": 688.0,
            "view_count": 47245374,
            "uploader": "WowKidz",
            "category": "cartoons/vir_the_robot_boy",
            "thumbnail": "https://i.ytimg.com/vi/p_yE0C-8kI0/hq720.jpg"
        },
        {
            "id": "tbAsv3JOcQI",
            "title": "Vir The Robot Boy | Hindi Cartoon For Kids | Vir ka birthday | Animated Series| Wow Kidz",
            "url": "https://www.youtube.com/watch?v=tbAsv3JOcQI",
            "duration": 631.0,
            "view_count": 120969003,
            "uploader": "WowKidz",
            "category": "cartoons/vir_the_robot_boy",
            "thumbnail": "https://i.ytimg.com/vi/tbAsv3JOcQI/hq720.jpg"
        },
        {
            "id": "MeLyuT0p-5A",
            "title": "Vir The Robot Boy New Episodes | The Dark Magness | Hindi Kahani | Wow Kidz Action",
            "url": "https://www.youtube.com/watch?v=MeLyuT0p-5A",
            "duration": 677.0,
            "view_count": 50601524,
            "uploader": "Wow Kidz Action",
            "category": "cartoons/vir_the_robot_boy",
            "thumbnail": "https://i.ytimg.com/vi/MeLyuT0p-5A/hq720.jpg"
        },
        {
            "id": "1khN56Zfagc",
            "title": "The Electrical Transformer (Live) | Vir: The Robot Boy | Hindi Movies | Wow Kidz Movies",
            "url": "https://www.youtube.com/watch?v=1khN56Zfagc",
            "duration": 42896.0,
            "view_count": 625644,
            "uploader": "Wow Kidz Movie",
            "category": "cartoons/vir_the_robot_boy",
            "thumbnail": "https://i.ytimg.com/vi/1khN56Zfagc/hq720.jpg"
        },
        {
            "id": "0n8QZqU4AMI",
            "title": "VIR: The Robot Boy Cartoon in Hindi - EP73A | Full Episode | Cartoons for Kids | Wow Kidz Action",
            "url": "https://www.youtube.com/watch?v=0n8QZqU4AMI",
            "duration": 675.0,
            "view_count": 44328939,
            "uploader": "Wow Kidz Action",
            "category": "cartoons/vir_the_robot_boy",
            "thumbnail": "https://i.ytimg.com/vi/0n8QZqU4AMI/hq720.jpg"
        },
        {
            "id": "FgZBbbyVxLA",
            "title": "Vir The Robot Boy New Episodes | Teen Tigada Kaam Bigada | Hindi Kahani | Wow Kidz Action | #spot",
            "url": "https://www.youtube.com/watch?v=FgZBbbyVxLA",
            "duration": 673.0,
            "view_count": 31517822,
            "uploader": "Wow Kidz Action",
            "category": "cartoons/vir_the_robot_boy",
            "thumbnail": "https://i.ytimg.com/vi/FgZBbbyVxLA/hq720.jpg"
        },
        {
            "id": "367-O2G5U10",
            "title": "Vir: The Robot Boy | Khatron Ka Samna | 34 | Hindi Cartoons For Kids | WowKidz Action #animation",
            "url": "https://www.youtube.com/watch?v=367-O2G5U10",
            "duration": 1247.0,
            "view_count": 102782976,
            "uploader": "Wow Kidz Action",
            "category": "cartoons/vir_the_robot_boy",
            "thumbnail": "https://i.ytimg.com/vi/367-O2G5U10/hq720.jpg"
        },
        {
            "id": "PY_AKt9KVlk",
            "title": "Vir The Robot Boy New Episodes | Pintu Jinn | Hindi Cartoon Kahani | Wow Kidz",
            "url": "https://www.youtube.com/watch?v=PY_AKt9KVlk",
            "duration": 677.0,
            "view_count": 8175059,
            "uploader": "WowKidz",
            "category": "cartoons/vir_the_robot_boy",
            "thumbnail": "https://i.ytimg.com/vi/PY_AKt9KVlk/hq720.jpg"
        },
        {
            "id": "ut51SMzJyDM",
            "title": "Vir: The Robot Boy | Jintu Gags | Compilation Part 1 - 30 Minutes of Fun | WowKidz",
            "url": "https://www.youtube.com/watch?v=ut51SMzJyDM",
            "duration": 2008.0,
            "view_count": 96222251,
            "uploader": "WowKidz",
            "category": "cartoons/vir_the_robot_boy",
            "thumbnail": "https://i.ytimg.com/vi/ut51SMzJyDM/hq720.jpg"
        },
        {
            "id": "U8QLeijltrU",
            "title": "Vir Ka Super Power | New Action Compilation | Vir: The Robot Boy | Hindi Cartoons For Kids #spot",
            "url": "https://www.youtube.com/watch?v=U8QLeijltrU",
            "duration": 1042.0,
            "view_count": 5338440,
            "uploader": "Wow Kidz Action",
            "category": "cartoons/vir_the_robot_boy",
            "thumbnail": "https://i.ytimg.com/vi/U8QLeijltrU/hq720.jpg"
        },
        {
            "id": "-kl2-IYQEkg",
            "title": "Vir The Robot Boy New Episodes | Robot Dustbin| Robot Ki Kahani | Hindi Cartoons | Wow Kidz",
            "url": "https://www.youtube.com/watch?v=-kl2-IYQEkg",
            "duration": 659.0,
            "view_count": 3632183,
            "uploader": "WowKidz",
            "category": "cartoons/vir_the_robot_boy",
            "thumbnail": "https://i.ytimg.com/vi/-kl2-IYQEkg/hq720.jpg"
        },
        {
            "id": "J0lNBnpiHZE",
            "title": "कैसे Vir ने बचाए Prakash को? | 45 | Hindi Kahani | Wow Kidz Action | Bad Company | #spot",
            "url": "https://www.youtube.com/watch?v=J0lNBnpiHZE",
            "duration": 1360.0,
            "view_count": 7066309,
            "uploader": "Wow Kidz Action",
            "category": "cartoons/vir_the_robot_boy",
            "thumbnail": "https://i.ytimg.com/vi/J0lNBnpiHZE/hq720.jpg"
        },
        {
            "id": "9UajYqE-rBw",
            "title": "Hindi Cartoon Kahani for kids | Vir The Robot Boy | Mahasangram 2 | Wow Kidz Movies |#spot",
            "url": "https://www.youtube.com/watch?v=9UajYqE-rBw",
            "duration": 2915.0,
            "view_count": 4336427,
            "uploader": "Wow Kidz Movie",
            "category": "cartoons/vir_the_robot_boy",
            "thumbnail": "https://i.ytimg.com/vi/9UajYqE-rBw/hq720.jpg"
        },
        {
            "id": "LUA31M4du7A",
            "title": "Vir: The Robot Boy | Hindi Cartoon Compilation For Kids | Compilation 15 | WowKidz Action",
            "url": "https://www.youtube.com/watch?v=LUA31M4du7A",
            "duration": 1331.0,
            "view_count": 36342990,
            "uploader": "Wow Kidz Action",
            "category": "cartoons/vir_the_robot_boy",
            "thumbnail": "https://i.ytimg.com/vi/LUA31M4du7A/hq720.jpg"
        },
        {
            "id": "iZfMidhqclE",
            "title": "Dadaji बन गए Jaadugar | New Compilation | Vir: The Robot Boy | Hindi Cartoons For Kids",
            "url": "https://www.youtube.com/watch?v=iZfMidhqclE",
            "duration": 1259.0,
            "view_count": 18506586,
            "uploader": "Wow Kidz Action",
            "category": "cartoons/vir_the_robot_boy",
            "thumbnail": "https://i.ytimg.com/vi/iZfMidhqclE/hq720.jpg"
        },
        {
            "id": "qAwNde_3Ic8",
            "title": "Khatrnak Hathi Vs Vir Fight | New Episode Of Vir The Robot Boy | Hathi Ki Badmashi EP01 | #S04E01",
            "url": "https://www.youtube.com/watch?v=qAwNde_3Ic8",
            "duration": 664.0,
            "view_count": 4893341,
            "uploader": "Wow Kidz Action",
            "category": "cartoons/vir_the_robot_boy",
            "thumbnail": "https://i.ytimg.com/vi/qAwNde_3Ic8/hq720.jpg"
        },
        {
            "id": "CokqB6VPulk",
            "title": "Vir The Robot Boy | Hindi Cartoon For Kids | Alien Pedro | Animated Series| Wow Kidz",
            "url": "https://www.youtube.com/watch?v=CokqB6VPulk",
            "duration": 678.0,
            "view_count": 17763499,
            "uploader": "WowKidz",
            "category": "cartoons/vir_the_robot_boy",
            "thumbnail": "https://i.ytimg.com/vi/CokqB6VPulk/hq720.jpg"
        },
        {
            "id": "fMYYOwoO66U",
            "title": "VIR: The Robot Boy Cartoon in Hindi- EP77A | Full Episode | Hindi Cartoons For Kids |Wow Kidz Action",
            "url": "https://www.youtube.com/watch?v=fMYYOwoO66U",
            "duration": 690.0,
            "view_count": 7171411,
            "uploader": "Wow Kidz Action",
            "category": "cartoons/vir_the_robot_boy",
            "thumbnail": "https://i.ytimg.com/vi/fMYYOwoO66U/hq720.jpg"
        },
        {
            "id": "wKJByeJx-ds",
            "title": "Vir The Robot Boy New Episodes | Diamond Robber Natwarlal | Hindi Cartoon Kahani | Wow Kidz",
            "url": "https://www.youtube.com/watch?v=wKJByeJx-ds",
            "duration": 617.0,
            "view_count": 4709528,
            "uploader": "WowKidz",
            "category": "cartoons/vir_the_robot_boy",
            "thumbnail": "https://i.ytimg.com/vi/wKJByeJx-ds/hq720.jpg"
        },
        {
            "id": "BYSEU9ZgelQ",
            "title": "Vir The Robot Boy | New Compilation | 126 | Hindi Action Series For Kids | Animated Series | #spot",
            "url": "https://www.youtube.com/watch?v=BYSEU9ZgelQ",
            "duration": 722.0,
            "view_count": 3424137,
            "uploader": "Wow Kidz Gags",
            "category": "cartoons/vir_the_robot_boy",
            "thumbnail": "https://i.ytimg.com/vi/BYSEU9ZgelQ/hq720.jpg"
        },
        {
            "id": "eX0iOIgsngw",
            "title": "VIr Aur Imli Bane Nakali Bhut | Vir The Robot Boy Compilation | 31 | Season 01 | #spot",
            "url": "https://www.youtube.com/watch?v=eX0iOIgsngw",
            "duration": 680.0,
            "view_count": 5906544,
            "uploader": "Wow Cartoons",
            "category": "cartoons/vir_the_robot_boy",
            "thumbnail": "https://i.ytimg.com/vi/eX0iOIgsngw/hq720.jpg"
        },
        {
            "id": "XEekJoqHcbg",
            "title": "VIR: The Robot Boy Cartoon In Hindi | Compilation 24 | Hindi Cartoons for Kids | Wow Kidz Action",
            "url": "https://www.youtube.com/watch?v=XEekJoqHcbg",
            "duration": 1321.0,
            "view_count": 49707189,
            "uploader": "Wow Kidz Action",
            "category": "cartoons/vir_the_robot_boy",
            "thumbnail": "https://i.ytimg.com/vi/XEekJoqHcbg/hq720.jpg"
        },
        {
            "id": "VaONxzRrtTw",
            "title": "Vir The Robot Boy New Episodes | Purana Kila | Hindi Kahani | Wow Kidz Action",
            "url": "https://www.youtube.com/watch?v=VaONxzRrtTw",
            "duration": 659.0,
            "view_count": 13481836,
            "uploader": "Wow Kidz Action",
            "category": "cartoons/vir_the_robot_boy",
            "thumbnail": "https://i.ytimg.com/vi/VaONxzRrtTw/hq720.jpg"
        },
        {
            "id": "GSFX6JGmR1s",
            "title": "VIR: The Robot Boy Cartoon In Hindi | Compilation 36 | Hindi Cartoons for Kids | Wow Kidz Action",
            "url": "https://www.youtube.com/watch?v=GSFX6JGmR1s",
            "duration": 1299.0,
            "view_count": 65411956,
            "uploader": "Wow Kidz Action",
            "category": "cartoons/vir_the_robot_boy",
            "thumbnail": "https://i.ytimg.com/vi/GSFX6JGmR1s/hq720.jpg"
        },
        {
            "id": "uy75DmJWrLg",
            "title": "Vir The Robot Boy in Hindi: New Compilation 23 | Animated Series | Wow Cartoons",
            "url": "https://www.youtube.com/watch?v=uy75DmJWrLg",
            "duration": 1295.0,
            "view_count": 18268311,
            "uploader": "Wow Cartoons",
            "category": "cartoons/vir_the_robot_boy",
            "thumbnail": "https://i.ytimg.com/vi/uy75DmJWrLg/hq720.jpg"
        },
        {
            "id": "bBCHsFzc7NM",
            "title": "Vir The Robot Boy | Mahayoddha Vir | Part  1 | Cartoon Movies For Kids | Wow Kidz",
            "url": "https://www.youtube.com/watch?v=bBCHsFzc7NM",
            "duration": 1404.0,
            "view_count": 6725712,
            "uploader": "WowKidz",
            "category": "cartoons/vir_the_robot_boy",
            "thumbnail": "https://i.ytimg.com/vi/bBCHsFzc7NM/hq720.jpg"
        },
        {
            "id": "eHV_JAAnoW8",
            "title": "Vir The Robot Boy | Hindi Cartoon For Kids | The train chase | Animated Series| Wow Kidz",
            "url": "https://www.youtube.com/watch?v=eHV_JAAnoW8",
            "duration": 619.0,
            "view_count": 36880409,
            "uploader": "WowKidz",
            "category": "cartoons/vir_the_robot_boy",
            "thumbnail": "https://i.ytimg.com/vi/eHV_JAAnoW8/hq720.jpg"
        },
        {
            "id": "bEbuvIHxsHA",
            "title": "VIR: The Robot Boy Cartoon in Hindi | Compilation 08 | Hindi Cartoons for Kids | Wow Kidz Action",
            "url": "https://www.youtube.com/watch?v=bEbuvIHxsHA",
            "duration": 1323.0,
            "view_count": 84886173,
            "uploader": "Wow Kidz Action",
            "category": "cartoons/vir_the_robot_boy",
            "thumbnail": "https://i.ytimg.com/vi/bEbuvIHxsHA/hq720.jpg"
        },
        {
            "id": "C14sjChxVtk",
            "title": "Vir Ka New Game | Vir The Robot Boy Compilation | 17 | Season 01 | #spot",
            "url": "https://www.youtube.com/watch?v=C14sjChxVtk",
            "duration": 680.0,
            "view_count": 5760310,
            "uploader": "Wow Cartoons",
            "category": "cartoons/vir_the_robot_boy",
            "thumbnail": "https://i.ytimg.com/vi/C14sjChxVtk/hq720.jpg"
        },
        {
            "id": "iukZtKX-p9I",
            "title": "VIR: The Robot Boy Cartoon in Hindi - EP72B  | Full Episode | Cartoons for Kids | Wow Kidz Action",
            "url": "https://www.youtube.com/watch?v=iukZtKX-p9I",
            "duration": 728.0,
            "view_count": 118034388,
            "uploader": "Wow Kidz Action",
            "category": "cartoons/vir_the_robot_boy",
            "thumbnail": "https://i.ytimg.com/vi/iukZtKX-p9I/hq720.jpg"
        },
        {
            "id": "9wglvXmwE4w",
            "title": "Vir The Robot Boy | Ek Gumnam Khilona | Vir Diwali Dhamaka Compilation | Wow Action",
            "url": "https://www.youtube.com/watch?v=9wglvXmwE4w",
            "duration": 1244.0,
            "view_count": 296098,
            "uploader": "Wow Kidz Action",
            "category": "cartoons/vir_the_robot_boy",
            "thumbnail": "https://i.ytimg.com/vi/9wglvXmwE4w/hq720.jpg"
        },
        {
            "id": "DbE7xuzjudA",
            "title": "Vir The Robot Boy | Best Action Scenes Compilation - 191 | Wow Kidz Binge",
            "url": "https://www.youtube.com/watch?v=DbE7xuzjudA",
            "duration": 1102.0,
            "view_count": 3811608,
            "uploader": "Wow Kidz Binge",
            "category": "cartoons/vir_the_robot_boy",
            "thumbnail": "https://i.ytimg.com/vi/DbE7xuzjudA/hq720.jpg"
        }
    ]
}