{
    "page": 61,
    "total_pages": 103,
    "total_items": 5125,
    "items": [
        {
            "id": "47_SWbOghl8",
            "title": "Fukrey Boyzzz 🤩| Choocha Ke Ajab Gajab Sapne! 🤪| Compilation | Non-stop Masti 😆| @DiscoveryKidsIN",
            "url": "https://www.youtube.com/watch?v=47_SWbOghl8",
            "duration": 1436.0,
            "view_count": 167475,
            "uploader": "Discovery Kids In",
            "category": "cartoons/fukrey_boyzzz",
            "thumbnail": "https://i.ytimg.com/vi/47_SWbOghl8/hq720.jpg"
        },
        {
            "id": "VMh4MH4k6n8",
            "title": "Fukrey Boyzzz 😍| Fukrey’s Hindi Diwas Fun!😆| Cartoon for Kids 😍| @DiscoveryKidsIN",
            "url": "https://www.youtube.com/watch?v=VMh4MH4k6n8",
            "duration": 1736.0,
            "view_count": 99232,
            "uploader": "Discovery Kids In",
            "category": "cartoons/fukrey_boyzzz",
            "thumbnail": "https://i.ytimg.com/vi/VMh4MH4k6n8/hq720.jpg"
        },
        {
            "id": "2gUyRiBZ-s0",
            "title": "Fukrey Boyzzz 🤩| Fukron Ke Wildest Adventures! 🎢 | Funny Cartoons | Compilation | @DiscoveryKidsIN",
            "url": "https://www.youtube.com/watch?v=2gUyRiBZ-s0",
            "duration": 1666.0,
            "view_count": 477044,
            "uploader": "Discovery Kids In",
            "category": "cartoons/fukrey_boyzzz",
            "thumbnail": "https://i.ytimg.com/vi/2gUyRiBZ-s0/hq720.jpg"
        },
        {
            "id": "GAW168G5V2w",
            "title": "Christmas Ki Magic Aur Masti! 🎄🎁| Compilation | Cartoon for Kids | @DiscoveryKidsIN",
            "url": "https://www.youtube.com/watch?v=GAW168G5V2w",
            "duration": 1625.0,
            "view_count": 161590,
            "uploader": "Discovery Kids In",
            "category": "cartoons/fukrey_boyzzz",
            "thumbnail": "https://i.ytimg.com/vi/GAW168G5V2w/hq720.jpg"
        },
        {
            "id": "ChUUzfQJ4T8",
            "title": "Fukrey Boyzzz 😍| Choocha Ke Sapnon Ka Wonderland! 🥰 | Compilation | Cartoon for Kids ✨",
            "url": "https://www.youtube.com/watch?v=ChUUzfQJ4T8",
            "duration": 1666.0,
            "view_count": 141824,
            "uploader": "Discovery Kids In",
            "category": "cartoons/fukrey_boyzzz",
            "thumbnail": "https://i.ytimg.com/vi/ChUUzfQJ4T8/hq720.jpg"
        },
        {
            "id": "Q133d2ubk8w",
            "title": "Fukrey Boyzzz 😍| Fukron Ki Anokhi Dosti! 😆| Cartoon Videos 😍| Funny Cartoons @DiscoveryKidsIN",
            "url": "https://www.youtube.com/watch?v=Q133d2ubk8w",
            "duration": 1482.0,
            "view_count": 32915,
            "uploader": "Discovery Kids In",
            "category": "cartoons/fukrey_boyzzz",
            "thumbnail": "https://i.ytimg.com/vi/Q133d2ubk8w/hq720.jpg"
        },
        {
            "id": "0dXItEHSgwI",
            "title": "Gattu Battu | Full Episode | चोर Bekarilal की चालाकी 🏃‍♂️💨 Gattu-Battu फंसे!",
            "url": "https://www.youtube.com/watch?v=0dXItEHSgwI",
            "duration": 1278.0,
            "view_count": 332378,
            "uploader": "Sonic Gang",
            "category": "cartoons/gattu_battu",
            "thumbnail": "https://i.ytimg.com/vi/0dXItEHSgwI/hq720.jpg"
        },
        {
            "id": "IaHPZ2V8D7M",
            "title": "Gattu Battu | Full Episode | छोटी सी चिंगारी को बड़ी सी आग बनाना इन न्यूज़ वालों को बखूबी आता है! 🔥📢",
            "url": "https://www.youtube.com/watch?v=IaHPZ2V8D7M",
            "duration": 1169.0,
            "view_count": 106310,
            "uploader": "Sonic Gang",
            "category": "cartoons/gattu_battu",
            "thumbnail": "https://i.ytimg.com/vi/IaHPZ2V8D7M/hq720.jpg"
        },
        {
            "id": "J4Z27usKIA0",
            "title": "Gattu Battu | Full Episode | Invisibility Powder",
            "url": "https://www.youtube.com/watch?v=J4Z27usKIA0",
            "duration": 1222.0,
            "view_count": 1897533,
            "uploader": "Sonic Gang",
            "category": "cartoons/gattu_battu",
            "thumbnail": "https://i.ytimg.com/vi/J4Z27usKIA0/hq720.jpg"
        },
        {
            "id": "diUEZ6ztJ8I",
            "title": "Gattu Battu | Full Episode | हाय रे! मैं तो लुट गयो बर्बाद हो गयो! 😭💔",
            "url": "https://www.youtube.com/watch?v=diUEZ6ztJ8I",
            "duration": 1289.0,
            "view_count": 797798,
            "uploader": "Sonic Gang",
            "category": "cartoons/gattu_battu",
            "thumbnail": "https://i.ytimg.com/vi/diUEZ6ztJ8I/hq720.jpg"
        },
        {
            "id": "r3pShF8qV-0",
            "title": "Gattu Battu | Full Episode | Bhoot Train का राज! Gattu Battu की जासूसी",
            "url": "https://www.youtube.com/watch?v=r3pShF8qV-0",
            "duration": 1176.0,
            "view_count": 1297467,
            "uploader": "Sonic Gang",
            "category": "cartoons/gattu_battu",
            "thumbnail": "https://i.ytimg.com/vi/r3pShF8qV-0/hq720.jpg"
        },
        {
            "id": "9CXoyCFXQDU",
            "title": "जब Gattu Battu भिड़े Desh Ke Dushmano Se | Gattu Battu - Secret of the Computer Chip",
            "url": "https://www.youtube.com/watch?v=9CXoyCFXQDU",
            "duration": 5374.0,
            "view_count": 872339,
            "uploader": "Sonic Gang Hindi Movies",
            "category": "cartoons/gattu_battu",
            "thumbnail": "https://i.ytimg.com/vi/9CXoyCFXQDU/hq720.jpg"
        },
        {
            "id": "Iys5McEdkiQ",
            "title": "Gattu Battu Cartoon New Episode 2024 In Hindi | Chhota Alien | Legend Kidz TV Hindi",
            "url": "https://www.youtube.com/watch?v=Iys5McEdkiQ",
            "duration": 1263.0,
            "view_count": 192734,
            "uploader": "Legend Kidz TV Hindi",
            "category": "cartoons/gattu_battu",
            "thumbnail": "https://i.ytimg.com/vi/Iys5McEdkiQ/hq720.jpg"
        },
        {
            "id": "kScXhy1LkNE",
            "title": "Gattu Battu | Full Episode | Gattu Battu Vs Kung Fu चोर! 🔥 कौन जीतेगा? 🥋🤔",
            "url": "https://www.youtube.com/watch?v=kScXhy1LkNE",
            "duration": 1190.0,
            "view_count": 422985,
            "uploader": "Sonic Gang",
            "category": "cartoons/gattu_battu",
            "thumbnail": "https://i.ytimg.com/vi/kScXhy1LkNE/hq720.jpg"
        },
        {
            "id": "ePiFzB7J5bI",
            "title": "Past में अटके Gattu Battu के यार | Gattu Battu - The Time Machine | Full Movie",
            "url": "https://www.youtube.com/watch?v=ePiFzB7J5bI",
            "duration": 2589.0,
            "view_count": 585300,
            "uploader": "Sonic Gang Hindi Movies",
            "category": "cartoons/gattu_battu",
            "thumbnail": "https://i.ytimg.com/vi/ePiFzB7J5bI/hq720.jpg"
        },
        {
            "id": "zP_vccZLTiM",
            "title": "Gattu Battu | Full Episode | Shaadi Mein Barbadi",
            "url": "https://www.youtube.com/watch?v=zP_vccZLTiM",
            "duration": 1210.0,
            "view_count": 184196,
            "uploader": "Sonic Gang",
            "category": "cartoons/gattu_battu",
            "thumbnail": "https://i.ytimg.com/vi/zP_vccZLTiM/hq720.jpg"
        },
        {
            "id": "xaovurhY59A",
            "title": "Gattu battu New Cartoon | Adventure & Comedy",
            "url": "https://www.youtube.com/watch?v=xaovurhY59A",
            "duration": 1324.0,
            "view_count": 625758,
            "uploader": "TOON LAGAON",
            "category": "cartoons/gattu_battu",
            "thumbnail": "https://i.ytimg.com/vi/xaovurhY59A/hq720.jpg"
        },
        {
            "id": "QnkfN1uRvXI",
            "title": "Double Trouble || Gattu Battu || Full Episode",
            "url": "https://www.youtube.com/watch?v=QnkfN1uRvXI",
            "duration": 1208.0,
            "view_count": 77346,
            "uploader": "ToonStationX",
            "category": "cartoons/gattu_battu",
            "thumbnail": "https://i.ytimg.com/vi/QnkfN1uRvXI/hq720.jpg"
        },
        {
            "id": "tD_z6fAr4VM",
            "title": "Gattu Battu Vs Cheeth Singh || Full Episode || Season 07 Episode 10 ||",
            "url": "https://www.youtube.com/watch?v=tD_z6fAr4VM",
            "duration": 1258.0,
            "view_count": 22769,
            "uploader": "ToonStationX",
            "category": "cartoons/gattu_battu",
            "thumbnail": "https://i.ytimg.com/vi/tD_z6fAr4VM/hqdefault.jpg"
        },
        {
            "id": "cE0dvmNn85I",
            "title": "Gattu Battu | Vishrampur Museum | New Episode 2026",
            "url": "https://www.youtube.com/watch?v=cE0dvmNn85I",
            "duration": 602.0,
            "view_count": 7460,
            "uploader": "Cartoon Worlds Craft",
            "category": "cartoons/gattu_battu",
            "thumbnail": "https://i.ytimg.com/vi/cE0dvmNn85I/hq720.jpg"
        },
        {
            "id": "KLpL-NlAai8",
            "title": "Battu का चेहरा कैसे हो गया Gattu जैसा? 🤔👀 | Gattu Battu | Full Episode 103",
            "url": "https://www.youtube.com/watch?v=KLpL-NlAai8",
            "duration": 1243.0,
            "view_count": 355787,
            "uploader": "JioHotstar Kids",
            "category": "cartoons/gattu_battu",
            "thumbnail": "https://i.ytimg.com/vi/KLpL-NlAai8/hq720.jpg"
        },
        {
            "id": "HhrtZoXaQqM",
            "title": "Gattu Battu Season 1 - Episode 4",
            "url": "https://www.youtube.com/watch?v=HhrtZoXaQqM",
            "duration": 1312.0,
            "view_count": 20698491,
            "uploader": "JioHotstar Kids",
            "category": "cartoons/gattu_battu",
            "thumbnail": "https://i.ytimg.com/vi/HhrtZoXaQqM/hq720.jpg"
        },
        {
            "id": "erml7HLB7hI",
            "title": "Gattu Battu | Full Episode | Khel Khel Mein",
            "url": "https://www.youtube.com/watch?v=erml7HLB7hI",
            "duration": 1234.0,
            "view_count": 401507,
            "uploader": "Sonic Gang",
            "category": "cartoons/gattu_battu",
            "thumbnail": "https://i.ytimg.com/vi/erml7HLB7hI/hq720.jpg"
        },
        {
            "id": "ep6LXG6i-5U",
            "title": "Gattu Battu | Full Episode | Sher Singh को मिला बोलनेवाला Gorilla",
            "url": "https://www.youtube.com/watch?v=ep6LXG6i-5U",
            "duration": 1303.0,
            "view_count": 397654,
            "uploader": "Sonic Gang",
            "category": "cartoons/gattu_battu",
            "thumbnail": "https://i.ytimg.com/vi/ep6LXG6i-5U/hq720.jpg"
        },
        {
            "id": "qkYziyURlZw",
            "title": "Gattu Battu | Full Episode | Sher Singh Ki Toy Cars",
            "url": "https://www.youtube.com/watch?v=qkYziyURlZw",
            "duration": 1252.0,
            "view_count": 284707,
            "uploader": "Sonic Gang",
            "category": "cartoons/gattu_battu",
            "thumbnail": "https://i.ytimg.com/vi/qkYziyURlZw/hq720.jpg"
        },
        {
            "id": "Qev24C6ERtQ",
            "title": "Gattu Battu | Full Episode | Sher Singh ने फंसाया Gattu Battu को! देखिए मस्ती 🦁😆",
            "url": "https://www.youtube.com/watch?v=Qev24C6ERtQ",
            "duration": 1260.0,
            "view_count": 320526,
            "uploader": "Sonic Gang",
            "category": "cartoons/gattu_battu",
            "thumbnail": "https://i.ytimg.com/vi/Qev24C6ERtQ/hq720.jpg"
        },
        {
            "id": "knz4b2cUojY",
            "title": "Gattu Battu | Full Episode | Pagdi Bomb",
            "url": "https://www.youtube.com/watch?v=knz4b2cUojY",
            "duration": 1165.0,
            "view_count": 416940,
            "uploader": "Sonic Gang",
            "category": "cartoons/gattu_battu",
            "thumbnail": "https://i.ytimg.com/vi/knz4b2cUojY/hq720.jpg"
        },
        {
            "id": "WZZ4pftatt0",
            "title": "Gattu Battu | Full Episode | Vishrampur hotel में आया ghost",
            "url": "https://www.youtube.com/watch?v=WZZ4pftatt0",
            "duration": 1173.0,
            "view_count": 216955,
            "uploader": "Sonic Gang",
            "category": "cartoons/gattu_battu",
            "thumbnail": "https://i.ytimg.com/vi/WZZ4pftatt0/hq720.jpg"
        },
        {
            "id": "Wy05uh0U1wc",
            "title": "Gattu Battu | Full Episode | Rainbow man",
            "url": "https://www.youtube.com/watch?v=Wy05uh0U1wc",
            "duration": 1467.0,
            "view_count": 2380930,
            "uploader": "Sonic Gang",
            "category": "cartoons/gattu_battu",
            "thumbnail": "https://i.ytimg.com/vi/Wy05uh0U1wc/hq720.jpg"
        },
        {
            "id": "9--86RUIXCM",
            "title": "Gattu Battu | Full Episode | Bank Robbery Fail! Gattu Battu का कमाल 🏦💥",
            "url": "https://www.youtube.com/watch?v=9--86RUIXCM",
            "duration": 1347.0,
            "view_count": 217474,
            "uploader": "Sonic Gang",
            "category": "cartoons/gattu_battu",
            "thumbnail": "https://i.ytimg.com/vi/9--86RUIXCM/hq720.jpg"
        },
        {
            "id": "BdTWkbsTJ7M",
            "title": "Gattu Battu | Full Episode | Battu बना powerful, कैसे ?",
            "url": "https://www.youtube.com/watch?v=BdTWkbsTJ7M",
            "duration": 1345.0,
            "view_count": 529889,
            "uploader": "Sonic Gang",
            "category": "cartoons/gattu_battu",
            "thumbnail": "https://i.ytimg.com/vi/BdTWkbsTJ7M/hq720.jpg"
        },
        {
            "id": "ar0V5yxtjuo",
            "title": "Gattu Battu | Full Episode | Vishrampur पर फिर टूटा Knock Out Singh का कहर!",
            "url": "https://www.youtube.com/watch?v=ar0V5yxtjuo",
            "duration": 1247.0,
            "view_count": 468521,
            "uploader": "Sonic Gang",
            "category": "cartoons/gattu_battu",
            "thumbnail": "https://i.ytimg.com/vi/ar0V5yxtjuo/hq720.jpg"
        },
        {
            "id": "TimTo8Dbbp4",
            "title": "Gattu Battu | Full Ep | मैंने तो इतना बढ़िया ऑफर दिया था, फिर इन्होने हमें राख क्यों बना दिया? 😭🔥💔",
            "url": "https://www.youtube.com/watch?v=TimTo8Dbbp4",
            "duration": 1314.0,
            "view_count": 675789,
            "uploader": "Sonic Gang",
            "category": "cartoons/gattu_battu",
            "thumbnail": "https://i.ytimg.com/vi/TimTo8Dbbp4/hq720.jpg"
        },
        {
            "id": "GjBCyTJA2K0",
            "title": "Gattu Battu | Full Episode | Boxer's Revenge",
            "url": "https://www.youtube.com/watch?v=GjBCyTJA2K0",
            "duration": 1232.0,
            "view_count": 314912,
            "uploader": "Sonic Gang",
            "category": "cartoons/gattu_battu",
            "thumbnail": "https://i.ytimg.com/vi/GjBCyTJA2K0/hq720.jpg"
        },
        {
            "id": "1tB74Qp-cm0",
            "title": "Gattu Battu | Full Episode | Sher Singh बना Jumping Jack, नए Shoes पहनकर! 👟💨🐯",
            "url": "https://www.youtube.com/watch?v=1tB74Qp-cm0",
            "duration": 1275.0,
            "view_count": 107865,
            "uploader": "Sonic Gang",
            "category": "cartoons/gattu_battu",
            "thumbnail": "https://i.ytimg.com/vi/1tB74Qp-cm0/hq720.jpg"
        },
        {
            "id": "iFrUXmy8Pxo",
            "title": "Gattu Battu | Full Episode | Jumping Jack Shoes",
            "url": "https://www.youtube.com/watch?v=iFrUXmy8Pxo",
            "duration": 1275.0,
            "view_count": 378298,
            "uploader": "Sonic Gang",
            "category": "cartoons/gattu_battu",
            "thumbnail": "https://i.ytimg.com/vi/iFrUXmy8Pxo/hq720.jpg"
        },
        {
            "id": "Pzw-0JZqIAE",
            "title": "Gattu Battu | Full Episode | Flying Yogi ने दिखाया कमाल! Gattu-Battu हैरान 🧘‍♂️✨",
            "url": "https://www.youtube.com/watch?v=Pzw-0JZqIAE",
            "duration": 1449.0,
            "view_count": 309316,
            "uploader": "Sonic Gang",
            "category": "cartoons/gattu_battu",
            "thumbnail": "https://i.ytimg.com/vi/Pzw-0JZqIAE/hq720.jpg"
        },
        {
            "id": "bcsGGwJ085g",
            "title": "Gattu Battu | Full Episode | Detective suit",
            "url": "https://www.youtube.com/watch?v=bcsGGwJ085g",
            "duration": 1318.0,
            "view_count": 729387,
            "uploader": "Sonic Gang",
            "category": "cartoons/gattu_battu",
            "thumbnail": "https://i.ytimg.com/vi/bcsGGwJ085g/hq720.jpg"
        },
        {
            "id": "HXRcA5SnmwU",
            "title": "Gattu Battu | Full Episode | Invisible Map",
            "url": "https://www.youtube.com/watch?v=HXRcA5SnmwU",
            "duration": 1132.0,
            "view_count": 853185,
            "uploader": "Sonic Gang",
            "category": "cartoons/gattu_battu",
            "thumbnail": "https://i.ytimg.com/vi/HXRcA5SnmwU/hq720.jpg"
        },
        {
            "id": "nkrrklWQvIo",
            "title": "Gattu Battu | Full Episode | Gattu ki Yaad Dasht",
            "url": "https://www.youtube.com/watch?v=nkrrklWQvIo",
            "duration": 1249.0,
            "view_count": 555812,
            "uploader": "Sonic Gang",
            "category": "cartoons/gattu_battu",
            "thumbnail": "https://i.ytimg.com/vi/nkrrklWQvIo/hq720.jpg"
        },
        {
            "id": "CeXQSVp8YKE",
            "title": "Gattu Battu Season 1 - Episode 37",
            "url": "https://www.youtube.com/watch?v=CeXQSVp8YKE",
            "duration": 1347.0,
            "view_count": 3096243,
            "uploader": "JioHotstar Kids",
            "category": "cartoons/gattu_battu",
            "thumbnail": "https://i.ytimg.com/vi/CeXQSVp8YKE/hq720.jpg"
        },
        {
            "id": "ZnVnZaTYd8M",
            "title": "Gattu Battu | Full Episode | Ghost Colony",
            "url": "https://www.youtube.com/watch?v=ZnVnZaTYd8M",
            "duration": 1307.0,
            "view_count": 995358,
            "uploader": "Sonic Gang",
            "category": "cartoons/gattu_battu",
            "thumbnail": "https://i.ytimg.com/vi/ZnVnZaTYd8M/hq720.jpg"
        },
        {
            "id": "BXHm1J2f9pU",
            "title": "Alien आया Gattu Battu के मोहल्ले में! | Gattu Battu: Greetings From The Greenman | Full Movie",
            "url": "https://www.youtube.com/watch?v=BXHm1J2f9pU",
            "duration": 2540.0,
            "view_count": 154154,
            "uploader": "Sonic Gang Hindi Movies",
            "category": "cartoons/gattu_battu",
            "thumbnail": "https://i.ytimg.com/vi/BXHm1J2f9pU/hq720.jpg"
        },
        {
            "id": "kExrDoWjLYQ",
            "title": "Gattu Battu | Full Episode | आपने कंधे पर लादा है 20 किलो का वजन और कर रहे है उड़ने का जतन? 🤔🎈🏋️",
            "url": "https://www.youtube.com/watch?v=kExrDoWjLYQ",
            "duration": 1395.0,
            "view_count": 457198,
            "uploader": "Sonic Gang",
            "category": "cartoons/gattu_battu",
            "thumbnail": "https://i.ytimg.com/vi/kExrDoWjLYQ/hq720.jpg"
        },
        {
            "id": "sFJeP3Pbo_E",
            "title": "Gattu Battu | Full Episode | Professor और Ting Tong हुए Time Travel के शिकार 🧪⏳",
            "url": "https://www.youtube.com/watch?v=sFJeP3Pbo_E",
            "duration": 2589.0,
            "view_count": 401178,
            "uploader": "Sonic Gang",
            "category": "cartoons/gattu_battu",
            "thumbnail": "https://i.ytimg.com/vi/sFJeP3Pbo_E/hq720.jpg"
        },
        {
            "id": "vjbl3nWLp_M",
            "title": "Gattu Battu | Full Episode | Rat Brothers",
            "url": "https://www.youtube.com/watch?v=vjbl3nWLp_M",
            "duration": 1187.0,
            "view_count": 281040,
            "uploader": "Sonic Gang",
            "category": "cartoons/gattu_battu",
            "thumbnail": "https://i.ytimg.com/vi/vjbl3nWLp_M/hq720.jpg"
        },
        {
            "id": "kBGzYGnseGw",
            "title": "Gattu Battu | Full Episode | Sher Singh Ke Laser Gloves",
            "url": "https://www.youtube.com/watch?v=kBGzYGnseGw",
            "duration": 1265.0,
            "view_count": 251864,
            "uploader": "Sonic Gang",
            "category": "cartoons/gattu_battu",
            "thumbnail": "https://i.ytimg.com/vi/kBGzYGnseGw/hq720.jpg"
        },
        {
            "id": "GVHTwmpWJfY",
            "title": "Gattu Battu | Full Episode 112 | सच ही कहा है! झुकती है दुनिया, झुकाने वाला चाहिए! 😏🌍",
            "url": "https://www.youtube.com/watch?v=GVHTwmpWJfY",
            "duration": 1216.0,
            "view_count": 102980,
            "uploader": "JioHotstar Kids",
            "category": "cartoons/gattu_battu",
            "thumbnail": "https://i.ytimg.com/vi/GVHTwmpWJfY/hq720.jpg"
        },
        {
            "id": "jPo7iObaZbM",
            "title": "Gattu Battu | Full Ep 113 | अब कोई नहीं होगा चोरियों से बोर, क्यूंकि आ चुका है सेल्फी चोर! 📸🕵️‍♂️😂",
            "url": "https://www.youtube.com/watch?v=jPo7iObaZbM",
            "duration": 1387.0,
            "view_count": 134493,
            "uploader": "JioHotstar Kids",
            "category": "cartoons/gattu_battu",
            "thumbnail": "https://i.ytimg.com/vi/jPo7iObaZbM/hq720.jpg"
        },
        {
            "id": "rRIsT6Ho37Q",
            "title": "Gattu Battu | Gattu कैसे बचाएगा Battu को भूत से? 👻🔥 | Part 2 of 2",
            "url": "https://www.youtube.com/watch?v=rRIsT6Ho37Q",
            "duration": 1081.0,
            "view_count": 433152,
            "uploader": "Sonic Gang",
            "category": "cartoons/gattu_battu",
            "thumbnail": "https://i.ytimg.com/vi/rRIsT6Ho37Q/hq720.jpg"
        }
    ]
}