{
    "page": 43,
    "total_pages": 103,
    "total_items": 5125,
    "items": [
        {
            "id": "lll2R5Ysp_I",
            "title": "Just Married Full Movie | Telugu Full Movies | Sheetal Gauthaman | Rishi Narayan | Infinitum Media",
            "url": "https://www.youtube.com/watch?v=lll2R5Ysp_I",
            "duration": 16471.0,
            "view_count": 3311557,
            "uploader": "Sheetal Gauthaman",
            "category": "telugu",
            "thumbnail": "https://i.ytimg.com/vi/lll2R5Ysp_I/hq720.jpg"
        },
        {
            "id": "j7QAlBfA0gY",
            "title": "Khaidi Kathik Blockbuster Hit Telugu Full Action Thriller HD Movie || Full Movies || Matinee Show",
            "url": "https://www.youtube.com/watch?v=j7QAlBfA0gY",
            "duration": 8117.0,
            "view_count": 2417537,
            "uploader": "Matinee Show",
            "category": "telugu",
            "thumbnail": "https://i.ytimg.com/vi/j7QAlBfA0gY/hq720.jpg"
        },
        {
            "id": "5s0hqn5TooM",
            "title": "Lucky Bhaskar Black Comedy-Crime Telugu Full HD Film | Dulquer Salmaan And  Meenakshi Chaudhary",
            "url": "https://www.youtube.com/watch?v=5s0hqn5TooM",
            "duration": 8028.0,
            "view_count": 2913544,
            "uploader": "Maa Cinemalu",
            "category": "telugu",
            "thumbnail": "https://i.ytimg.com/vi/5s0hqn5TooM/hq720.jpg"
        },
        {
            "id": "wP6VwHKve4k",
            "title": "Aravinda Sametha Veera Raghava Telugu Full Movie | Jr NTR | Pooja Hegde @skyvideostelugu",
            "url": "https://www.youtube.com/watch?v=wP6VwHKve4k",
            "duration": 7895.0,
            "view_count": 3770297,
            "uploader": "SkyVideos Telugu",
            "category": "telugu",
            "thumbnail": "https://i.ytimg.com/vi/wP6VwHKve4k/hq720.jpg"
        },
        {
            "id": "0b8OvRCrLms",
            "title": "Sarrainodu Blockbuster Hit Telugu Full Movie || Allu arjun || Aadhi Pinisetty || Cinema Theatre",
            "url": "https://www.youtube.com/watch?v=0b8OvRCrLms",
            "duration": 7348.0,
            "view_count": 12968686,
            "uploader": "Cinema Theatre",
            "category": "telugu",
            "thumbnail": "https://i.ytimg.com/vi/0b8OvRCrLms/hq720.jpg"
        },
        {
            "id": "tSYHaEEE27U",
            "title": "Rang De - Telugu Full Movie - Nithiin, Keerthy Suresh, Gayathri Raghuram, Raghuvaran",
            "url": "https://www.youtube.com/watch?v=tSYHaEEE27U",
            "duration": 7499.0,
            "view_count": 17419568,
            "uploader": "Zee Movies Telugu",
            "category": "telugu",
            "thumbnail": "https://i.ytimg.com/vi/tSYHaEEE27U/hqdefault.jpg?sqp=-oaymwEcCOADEI4CSFXyq4qpAw4IARUAAIhCGAFwAcABBg==&rs=AOn4CLDkphBaREatWhBdSBaQXT4pXZgmfQ",
            "added_date": "2026-04-16T07:31:14.622876Z",
            "source": "youtube"
        },
        {
            "id": "LS6XiINMc2s",
            "title": "Srimanthudu Telugu Full Movie | Mahesh Babu | Shruti Haasan | Jagapathi Babu | Latest Telugu Movies",
            "url": "https://www.youtube.com/watch?v=LS6XiINMc2s",
            "duration": 9719.0,
            "view_count": 238911647,
            "uploader": "Mythri Movie Makers",
            "category": "telugu",
            "thumbnail": "https://i.ytimg.com/vi/LS6XiINMc2s/hq720.jpg?sqp=-oaymwEcCNAFEJQDSFXyq4qpAw4IARUAAIhCGAFwAcABBg==&rs=AOn4CLC0hp5VZTXMF31VCaeKd0gaCnOo2A",
            "added_date": "2026-04-16T07:31:16.025321Z",
            "source": "youtube"
        },
        {
            "id": "b8dvhBPrGtw",
            "title": "Mirchi Telugu Full Movie | Prabhas, Anushka Shetty, Richa Gangopadhyay@SriBalajiMovies",
            "url": "https://www.youtube.com/watch?v=b8dvhBPrGtw",
            "duration": 9588.0,
            "view_count": 55084378,
            "uploader": "SriBalajiMovies",
            "category": "telugu",
            "thumbnail": "https://i.ytimg.com/vi/b8dvhBPrGtw/hq720.jpg"
        },
        {
            "id": "G5ZNbNxs9Os",
            "title": "Dookudu Telugu Full Movie 4K | Mahesh Babu | Samantha | Sonu Sood | Thaman S | Telugu New Movies",
            "url": "https://www.youtube.com/watch?v=G5ZNbNxs9Os",
            "duration": 10496.0,
            "view_count": 775759,
            "uploader": "Telugu Filmnagar",
            "category": "telugu",
            "thumbnail": "https://i.ytimg.com/vi/G5ZNbNxs9Os/hq720.jpg"
        },
        {
            "id": "iK4RBmP3jR4",
            "title": "Dear Comrade 2026 Indian Telugu Romantic Action Drama  Movie | @ManaChitraalu",
            "url": "https://www.youtube.com/watch?v=iK4RBmP3jR4",
            "duration": 8815.0,
            "view_count": 370651,
            "uploader": "Mana Chitraalu",
            "category": "telugu",
            "thumbnail": "https://i.ytimg.com/vi/iK4RBmP3jR4/hq720.jpg"
        },
        {
            "id": "jGUvk424TMY",
            "title": "Mukhachitram Telugu Suspense Thriller Full Movie | Vishwak Sen, Ayesha Khan | 2025 New South Movies",
            "url": "https://www.youtube.com/watch?v=jGUvk424TMY",
            "duration": 7364.0,
            "view_count": 3772222,
            "uploader": "SriBalajiMovies",
            "category": "telugu",
            "thumbnail": "https://i.ytimg.com/vi/jGUvk424TMY/hq720.jpg"
        },
        {
            "id": "q_yGYcixvuo",
            "title": "The Family Star Telugu Full Movie 4K | Vijay Deverakonda | Mrunal Thakur | Parasuram | Dil Raju",
            "url": "https://www.youtube.com/watch?v=q_yGYcixvuo",
            "duration": 9350.0,
            "view_count": 3634762,
            "uploader": "Telugu Filmnagar",
            "category": "telugu",
            "thumbnail": "https://i.ytimg.com/vi/q_yGYcixvuo/hq720.jpg?sqp=-oaymwEcCNAFEJQDSFXyq4qpAw4IARUAAIhCGAFwAcABBg==&rs=AOn4CLATSakjk93ddoY_rqaRIKsTJ6Juyw",
            "added_date": "2026-04-16T07:31:16.426036Z",
            "source": "youtube"
        },
        {
            "id": "1RfjMwhWMeY",
            "title": "Leharaayi Super Hit Telugu Full Movie | Ranjith Sommi | Sowmyaa Menon | Naresh | Rao Ramesh | Ali",
            "url": "https://www.youtube.com/watch?v=1RfjMwhWMeY",
            "duration": 8365.0,
            "view_count": 1655106,
            "uploader": "BhavaniHD Movies",
            "category": "telugu",
            "thumbnail": "https://i.ytimg.com/vi/1RfjMwhWMeY/hq720.jpg"
        },
        {
            "id": "8tExVqjkE4E",
            "title": "Jabilamma Niku Anta Kopama Coming-Of-Age Rom-Com Telugu Film | Anikha Surendran @tfcmaacinemalu",
            "url": "https://www.youtube.com/watch?v=8tExVqjkE4E",
            "duration": 7320.0,
            "view_count": 2858517,
            "uploader": "Maa Cinemalu",
            "category": "telugu",
            "thumbnail": "https://i.ytimg.com/vi/8tExVqjkE4E/hq720.jpg"
        },
        {
            "id": "P9Qh4DRjcXo",
            "title": "Kismath Latest Telugu Full Movie 4K | Abhinav Gomatam | Naresh Agastya | Srinivas Avasarala | TFN",
            "url": "https://www.youtube.com/watch?v=P9Qh4DRjcXo",
            "duration": 7590.0,
            "view_count": 520582,
            "uploader": "Telugu Filmnagar",
            "category": "telugu",
            "thumbnail": "https://i.ytimg.com/vi/P9Qh4DRjcXo/hq720.jpg"
        },
        {
            "id": "HoFBZZFwPQQ",
            "title": "Mayanathi Telugu Dubbed Full Movie | Mayanadhi | Love Romance Comedy |#telugumovie #romantic #family",
            "url": "https://www.youtube.com/watch?v=HoFBZZFwPQQ",
            "duration": 5874.0,
            "view_count": 185375,
            "uploader": "SRI SARAVANAA FILMS OPC TELUGU",
            "category": "telugu",
            "thumbnail": "https://i.ytimg.com/vi/HoFBZZFwPQQ/hq720.jpg"
        },
        {
            "id": "soe6Uxbtlxk",
            "title": "Ishq | Telugu Full Movie | Blu-ray Version Ultra HD | Nithiin | Nithya Menen | Romantic Drama",
            "url": "https://www.youtube.com/watch?v=soe6Uxbtlxk",
            "duration": 9210.0,
            "view_count": 73359,
            "uploader": "G Entertainment Channel",
            "category": "telugu",
            "thumbnail": "https://i.ytimg.com/vi/soe6Uxbtlxk/hqdefault.jpg"
        },
        {
            "id": "pokILk6s1q8",
            "title": "Dhruva Telugu Full Movie | Ram Charan | Rakul Preet Singh | Arvind Swami | Delugu Movies",
            "url": "https://www.youtube.com/watch?v=pokILk6s1q8",
            "duration": 9279.0,
            "view_count": 454531,
            "uploader": "Delugu Movies",
            "category": "telugu",
            "thumbnail": "https://i.ytimg.com/vi/pokILk6s1q8/hq720.jpg"
        },
        {
            "id": "8IEvpD4XISs",
            "title": "Parinayam Superhit Telugu Full Length HD Movie | Suresh Gopi | Dulquer Salmaan | Shobana | TBO |",
            "url": "https://www.youtube.com/watch?v=8IEvpD4XISs",
            "duration": 8522.0,
            "view_count": 3864626,
            "uploader": "Tollywood Box Office",
            "category": "telugu",
            "thumbnail": "https://i.ytimg.com/vi/8IEvpD4XISs/hq720.jpg"
        },
        {
            "id": "bdqZttmi-pk",
            "title": "Ala Vaikunthapurramuloo Telugu Full HD Movie | Allu Arjun | Pooja Hegde | Trivikram",
            "url": "https://www.youtube.com/watch?v=bdqZttmi-pk",
            "duration": 9664.0,
            "view_count": 7282569,
            "uploader": "Tollywood Box Office",
            "category": "telugu",
            "thumbnail": "https://i.ytimg.com/vi/bdqZttmi-pk/hq720.jpg"
        },
        {
            "id": "lcWLYBj7Jhc",
            "title": "Attarintiki Daredi Telugu Full Movie | Pawan Kalyan | Samantha | Trivikram | DSP | Telugu FilmNagar",
            "url": "https://www.youtube.com/watch?v=lcWLYBj7Jhc",
            "duration": 10247.0,
            "view_count": 4058682,
            "uploader": "Telugu Filmnagar",
            "category": "telugu",
            "thumbnail": "https://i.ytimg.com/vi/lcWLYBj7Jhc/hq720.jpg"
        },
        {
            "id": "A77rGW61mFI",
            "title": "Dhruva Super Hit Telugu Action Thriller Full Movie || Ram Charan || Rakul Preet Singh || MatineeShow",
            "url": "https://www.youtube.com/watch?v=A77rGW61mFI",
            "duration": 8305.0,
            "view_count": 10697776,
            "uploader": "Matinee Show",
            "category": "telugu",
            "thumbnail": "https://i.ytimg.com/vi/A77rGW61mFI/hq720.jpg"
        },
        {
            "id": "rPDBgyb6eeQ",
            "title": "Shambhala Telugu Full Movie|Telugu New Movie|Aadi,Shambhavi|New Telugu Movie|Latest Telugu Movie ",
            "url": "https://www.youtube.com/watch?v=rPDBgyb6eeQ",
            "duration": 8664.0,
            "view_count": 145389,
            "uploader": "Aha Cinemas ",
            "category": "telugu",
            "thumbnail": "https://i.ytimg.com/vi/rPDBgyb6eeQ/hq720.jpg"
        },
        {
            "id": "liLYl4GOQwI",
            "title": "Rangam Telugu Full Movie | Jiiva, Karthika, Piaa | Sri Balaji Video",
            "url": "https://www.youtube.com/watch?v=liLYl4GOQwI",
            "duration": 9533.0,
            "view_count": 4136309,
            "uploader": "Sri Balaji Full Movies",
            "category": "telugu",
            "thumbnail": "https://i.ytimg.com/vi/liLYl4GOQwI/hq720.jpg"
        },
        {
            "id": "xAFCq81EteQ",
            "title": "Karthikeya 2 Superhit Telugu Action Full HD Movie | Nikhil Siddhartha | Anupama Parameswaran | TBO",
            "url": "https://www.youtube.com/watch?v=xAFCq81EteQ",
            "duration": 7645.0,
            "view_count": 1534492,
            "uploader": "Tollywood Box Office",
            "category": "telugu",
            "thumbnail": "https://i.ytimg.com/vi/xAFCq81EteQ/hq720.jpg"
        },
        {
            "id": "YZjbJof-Czw",
            "title": "Gudachari No.1 Super Hit Telugu Full Movie | Chiranjeevi | Radhika | Bhanuchander | iDream HD Movies",
            "url": "https://www.youtube.com/watch?v=YZjbJof-Czw",
            "duration": 6889.0,
            "view_count": 47618,
            "uploader": "iDream HD Movies",
            "category": "telugu",
            "thumbnail": "https://i.ytimg.com/vi/YZjbJof-Czw/hq720.jpg"
        },
        {
            "id": "EX0CijNGQPA",
            "title": "Family Circus Telugu Full HD Movie | Jagapathi Babu | Roja | Rajendra Prasad | Jhansi | GaneshVideos",
            "url": "https://www.youtube.com/watch?v=EX0CijNGQPA",
            "duration": 7843.0,
            "view_count": 510657,
            "uploader": "Ganesh Videos",
            "category": "telugu",
            "thumbnail": "https://i.ytimg.com/vi/EX0CijNGQPA/hq720.jpg"
        },
        {
            "id": "UDTT7LESiUA",
            "title": "Mithai Telugu Full Movie | Rahul Ramakrishna | Priyadarshi | Silly Monks Tollywood",
            "url": "https://www.youtube.com/watch?v=UDTT7LESiUA",
            "duration": 8290.0,
            "view_count": 11435903,
            "uploader": "Silly Monks Tollywood",
            "category": "telugu",
            "thumbnail": "https://i.ytimg.com/vi/UDTT7LESiUA/hq720.jpg"
        },
        {
            "id": "k_-PvLgr1c0",
            "title": "Godavari Full Length Movie || Sumanth || Kamalini Mukharjee - TeluguOne",
            "url": "https://www.youtube.com/watch?v=k_-PvLgr1c0",
            "duration": 9191.0,
            "view_count": 26363373,
            "uploader": "TeluguOne",
            "category": "telugu",
            "thumbnail": "https://i.ytimg.com/vi/k_-PvLgr1c0/hq720.jpg"
        },
        {
            "id": "2my1KwuOb9I",
            "title": "Vinaro Bhagyamu Vishnu Katha Telugu Blockbuster Hit Action/Romance Drama Full HD Movie | MatineeShow",
            "url": "https://www.youtube.com/watch?v=2my1KwuOb9I",
            "duration": 6123.0,
            "view_count": 1815742,
            "uploader": "Matinee Show",
            "category": "telugu",
            "thumbnail": "https://i.ytimg.com/vi/2my1KwuOb9I/hq720.jpg"
        },
        {
            "id": "bqONXgABU2c",
            "title": "Josh Telugu Full Movie 4K | Naga Chaitanya | Karthika Nair | Siddhu Jonnalagadda | Dil Raju | TFN",
            "url": "https://www.youtube.com/watch?v=bqONXgABU2c",
            "duration": 10146.0,
            "view_count": 1361470,
            "uploader": "Telugu Filmnagar",
            "category": "telugu",
            "thumbnail": "https://i.ytimg.com/vi/bqONXgABU2c/hq720.jpg"
        },
        {
            "id": "PEGwBV5Ados",
            "title": "GOOGLE (గూగుల్) | Santhanam, Namita Krishnamurthy New Telugu Road Action Comedy | Full HD Movie",
            "url": "https://www.youtube.com/watch?v=PEGwBV5Ados",
            "duration": 8298.0,
            "view_count": 220443,
            "uploader": "Andhra Talkies",
            "category": "telugu",
            "thumbnail": "https://i.ytimg.com/vi/PEGwBV5Ados/hq720.jpg"
        },
        {
            "id": "0HGv4eqQOyw",
            "title": "Golkonda High School - Telugu Full Movie - Sumanth, Swathi, TanikellaBharani",
            "url": "https://www.youtube.com/watch?v=0HGv4eqQOyw",
            "duration": 7660.0,
            "view_count": 4146630,
            "uploader": "Zee Cinemalu",
            "category": "telugu",
            "thumbnail": "https://i.ytimg.com/vi/0HGv4eqQOyw/hqdefault.jpg"
        },
        {
            "id": "SI55KI4Sr3I",
            "title": "Laggam Telugu Family Drama Full Movie | Sai Ronak, Pragya, Rajendra Prasad | 2025 New South Movies",
            "url": "https://www.youtube.com/watch?v=SI55KI4Sr3I",
            "duration": 7657.0,
            "view_count": 4568651,
            "uploader": "SriBalajiMovies",
            "category": "telugu",
            "thumbnail": "https://i.ytimg.com/vi/SI55KI4Sr3I/hq720.jpg"
        },
        {
            "id": "nE8n_-8yBZw",
            "title": "Telisinavaallu Telugu Suspense Thriller Full Movie | Hebah Patel, Naresh | 2025 New South Movies",
            "url": "https://www.youtube.com/watch?v=nE8n_-8yBZw",
            "duration": 8779.0,
            "view_count": 1588887,
            "uploader": "SriBalajiMovies and 4 more",
            "category": "telugu",
            "thumbnail": "https://i.ytimg.com/vi/nE8n_-8yBZw/hq720.jpg"
        },
        {
            "id": "Ls_BClSdOpE",
            "title": "Jayamma Panchayathi Telugu Full Movie 4k | Suma Kanakala | MM Keeravani | Telugu New Movies | TFN",
            "url": "https://www.youtube.com/watch?v=Ls_BClSdOpE",
            "duration": 7322.0,
            "view_count": 1571957,
            "uploader": "Telugu Filmnagar",
            "category": "telugu",
            "thumbnail": "https://i.ytimg.com/vi/Ls_BClSdOpE/hq720.jpg"
        },
        {
            "id": "Eqs-bYvfj7o",
            "title": "Naga Shaurya & Ritu Varma Telugu Super Hit Full Movie || Telugu Movies || Kotha Cinema",
            "url": "https://www.youtube.com/watch?v=Eqs-bYvfj7o",
            "duration": 5971.0,
            "view_count": 2131886,
            "uploader": "Kotha Cinema",
            "category": "telugu",
            "thumbnail": "https://i.ytimg.com/vi/Eqs-bYvfj7o/hq720.jpg"
        },
        {
            "id": "u2n_9l_ooFc",
            "title": "Nithiin And Sreeleela Robinhood Telugu Full HD Action Comedy Movie || @JordaarMovies ​",
            "url": "https://www.youtube.com/watch?v=u2n_9l_ooFc",
            "duration": 8050.0,
            "view_count": 348183,
            "uploader": "Jordaar Movies",
            "category": "telugu",
            "thumbnail": "https://i.ytimg.com/vi/u2n_9l_ooFc/hq720.jpg"
        },
        {
            "id": "aRzmZJOE_dA",
            "title": "AMMADI అమ్మాడి - Full Movie | Based on Real Life incidents",
            "url": "https://www.youtube.com/watch?v=aRzmZJOE_dA",
            "duration": 3973.0,
            "view_count": 19555,
            "uploader": "PANCHAMUKHA PRODUCTIONS ",
            "category": "telugu",
            "thumbnail": "https://i.ytimg.com/vi/aRzmZJOE_dA/hq720.jpg"
        },
        {
            "id": "gBkL9foQxBk",
            "title": "Chatrapathi Full Movie With Songs | Chatrapathi | Telugu Full Movie  @ManaChitraalu",
            "url": "https://www.youtube.com/watch?v=gBkL9foQxBk",
            "duration": 9707.0,
            "view_count": 9732940,
            "uploader": "Mana Chitraalu",
            "category": "telugu",
            "thumbnail": "https://i.ytimg.com/vi/gBkL9foQxBk/hq720.jpg"
        },
        {
            "id": "n7Cp-wlLk-Y",
            "title": "Nene Ambani Telugu Full Length Movie || Arya, Nayantara, Jiiva || Sri Venkateswara Movies",
            "url": "https://www.youtube.com/watch?v=n7Cp-wlLk-Y",
            "duration": 9136.0,
            "view_count": 7329581,
            "uploader": "Sri Venkateswara Movies",
            "category": "telugu",
            "thumbnail": "https://i.ytimg.com/vi/n7Cp-wlLk-Y/hqdefault.jpg"
        },
        {
            "id": "WXbatTzYqSI",
            "title": "Jeevana Chadarangam Telugu Full Movie | Suresh | Sitara | Gollapudi Maruthi Rao | Shivaji Raja",
            "url": "https://www.youtube.com/watch?v=WXbatTzYqSI",
            "duration": 5668.0,
            "view_count": 41274,
            "uploader": "Telugu Movie Bazaar",
            "category": "telugu",
            "thumbnail": "https://i.ytimg.com/vi/WXbatTzYqSI/hq720.jpg"
        },
        {
            "id": "6b-Tk5JlsR0",
            "title": "WARRIOR (వారియర్) | Vishal, Keerthy Suresh New Telugu MASS Action Drama | Full HD Movie",
            "url": "https://www.youtube.com/watch?v=6b-Tk5JlsR0",
            "duration": 8482.0,
            "view_count": 2554592,
            "uploader": "Andhra Talkies",
            "category": "telugu",
            "thumbnail": "https://i.ytimg.com/vi/6b-Tk5JlsR0/hq720.jpg"
        },
        {
            "id": "ioOaxuuVj0w",
            "title": "Santhosham Telugu Full HD Movie | Nagarjuna | Gracy Singh | Shriya Saran | PrabhuDeva | GaneshVideos",
            "url": "https://www.youtube.com/watch?v=ioOaxuuVj0w",
            "duration": 7068.0,
            "view_count": 1488040,
            "uploader": "Ganesh Videos",
            "category": "telugu",
            "thumbnail": "https://i.ytimg.com/vi/ioOaxuuVj0w/hq720.jpg"
        },
        {
            "id": "WMdsEdZado8",
            "title": "Sagileti Katha Telugu Full Movie 4K | Ravi Mahadasyam | Vishika Laxman | Telugu New Movies | TFN",
            "url": "https://www.youtube.com/watch?v=WMdsEdZado8",
            "duration": 6783.0,
            "view_count": 57862,
            "uploader": "Telugu Filmnagar",
            "category": "telugu",
            "thumbnail": "https://i.ytimg.com/vi/WMdsEdZado8/hq720.jpg"
        },
        {
            "id": "lLprduOdjUM",
            "title": "SHADOW HUNT (షాడో హంట్) | Viswant Duddumpudi New Telugu Action Crime Thriller | Full HD Movie",
            "url": "https://www.youtube.com/watch?v=lLprduOdjUM",
            "duration": 6279.0,
            "view_count": 15860,
            "uploader": "Andhra Talkies",
            "category": "telugu",
            "thumbnail": "https://i.ytimg.com/vi/lLprduOdjUM/hq720.jpg"
        },
        {
            "id": "XIpf1TDD68o",
            "title": "Latest Super Hit Crime Comedy Full Movie | Parijatha Parvam | Chaithanya Rao | Shraddha Das | Sunil",
            "url": "https://www.youtube.com/watch?v=XIpf1TDD68o",
            "duration": 7877.0,
            "view_count": 770476,
            "uploader": "BhavaniHD Movies",
            "category": "telugu",
            "thumbnail": "https://i.ytimg.com/vi/XIpf1TDD68o/hq720.jpg"
        },
        {
            "id": "8ulwkIB4UWE",
            "title": "గాడ్ ! Nayanthara And Jayam Ravi Full Length Telugu FULL HD Thriller Movie ||  @JordaarMovies ​",
            "url": "https://www.youtube.com/watch?v=8ulwkIB4UWE",
            "duration": 7839.0,
            "view_count": 77619,
            "uploader": "Jordaar Movies",
            "category": "telugu",
            "thumbnail": "https://i.ytimg.com/vi/8ulwkIB4UWE/hq720.jpg"
        },
        {
            "id": "n2MSS3qbyQs",
            "title": "Sivaji As Nandu Father Super Hit Telugu Movie | @ManaChitraalu",
            "url": "https://www.youtube.com/watch?v=n2MSS3qbyQs",
            "duration": 6989.0,
            "view_count": 171713,
            "uploader": "Mana Chitraalu",
            "category": "telugu",
            "thumbnail": "https://i.ytimg.com/vi/n2MSS3qbyQs/hq720.jpg"
        },
        {
            "id": "o7SW1TMrTGc",
            "title": "Constable Full Movie | Constable Telugu Full Movie | Constable Movie | 2026 Telugu Full Movies ",
            "url": "https://www.youtube.com/watch?v=o7SW1TMrTGc",
            "duration": 7678.0,
            "view_count": 17160,
            "uploader": "Prasad Production ",
            "category": "telugu",
            "thumbnail": "https://i.ytimg.com/vi/o7SW1TMrTGc/hq720.jpg"
        }
    ]
}