{
    "page": 101,
    "total_pages": 103,
    "total_items": 5125,
    "items": [
        {
            "id": "yruwDuGjwzg",
            "title": "Zig and Sharko | heat wave | Hindi dubbed",
            "url": "https://www.youtube.com/watch?v=yruwDuGjwzg",
            "duration": 911.0,
            "view_count": 20785,
            "uploader": "🟪Titan Tv man ch🟪",
            "category": "cartoons/zig_and_sharko",
            "thumbnail": "https://i.ytimg.com/vi/yruwDuGjwzg/hq720.jpg"
        },
        {
            "id": "GLA4H78Pa4o",
            "title": "हिंदी Zig & Sharko 👨‍🎓 STUDENT BIG COMPLATION 👨‍🎓 Hindi Cartoons for Kid",
            "url": "https://www.youtube.com/watch?v=GLA4H78Pa4o",
            "duration": 2475.0,
            "view_count": 21809174,
            "uploader": "Zig & Sharko Hindi - हिन्दी",
            "category": "cartoons/zig_and_sharko",
            "thumbnail": "https://i.ytimg.com/vi/GLA4H78Pa4o/hqdefault.jpg"
        },
        {
            "id": "n3S630AeLXo",
            "title": "हिंदी Zig & Sharko   The Were Yena   Cop Duty 👨‍✈ Full Compilation 2019   Hindi Cartoons for Kids",
            "url": "https://www.youtube.com/watch?v=n3S630AeLXo",
            "duration": 817.0,
            "view_count": 15843,
            "uploader": "0077 land",
            "category": "cartoons/zig_and_sharko",
            "thumbnail": "https://i.ytimg.com/vi/n3S630AeLXo/hq720.jpg"
        },
        {
            "id": "Dj5nE_oKfAg",
            "title": "(NEW SEASON 4) If The Shoe Fits | Zig & Sharko | Best Cartoon Collection | New Episodes in Full HD",
            "url": "https://www.youtube.com/watch?v=Dj5nE_oKfAg",
            "duration": 1727.0,
            "view_count": 21814466,
            "uploader": "Zig & Sharko",
            "category": "cartoons/zig_and_sharko",
            "thumbnail": "https://i.ytimg.com/vi/Dj5nE_oKfAg/hq720.jpg"
        },
        {
            "id": "Rd9PPwaYIMQ",
            "title": "Zig & Sharko 🎃 Pumpkin Party (HALOWEEN COMPILATION) Best Cartoon Collection | New Episodes in HD",
            "url": "https://www.youtube.com/watch?v=Rd9PPwaYIMQ",
            "duration": 3805.0,
            "view_count": 1025178,
            "uploader": "Zig & Sharko",
            "category": "cartoons/zig_and_sharko",
            "thumbnail": "https://i.ytimg.com/vi/Rd9PPwaYIMQ/hq720.jpg"
        },
        {
            "id": "fChBtuIFFrE",
            "title": "हिंदी Zig & Sharko 🤢🤮 2021 POISON COMPILATION 🤢🤮 Hindi Cartoons for Kids",
            "url": "https://www.youtube.com/watch?v=fChBtuIFFrE",
            "duration": 1286.0,
            "view_count": 674500,
            "uploader": "Zig & Sharko Hindi - हिन्दी",
            "category": "cartoons/zig_and_sharko",
            "thumbnail": "https://i.ytimg.com/vi/fChBtuIFFrE/hq720.jpg"
        },
        {
            "id": "jKlv9kagXXA",
            "title": "Zig and sharko Hindi season 1 episode 15",
            "url": "https://www.youtube.com/watch?v=jKlv9kagXXA",
            "duration": 1242.0,
            "view_count": 2526,
            "uploader": "Nazib gamerz  বাংলা",
            "category": "cartoons/zig_and_sharko",
            "thumbnail": "https://i.ytimg.com/vi/jKlv9kagXXA/hqdefault.jpg"
        },
        {
            "id": "5AO8qfcmMOw",
            "title": "A Turtle's Tale 2: Sammy's Escape From Paradise | Full Animated Adventure Movie | Family Central",
            "url": "https://www.youtube.com/watch?v=5AO8qfcmMOw",
            "duration": 5565.0,
            "view_count": 10649481,
            "uploader": "Family Central",
            "category": "cartoons",
            "thumbnail": "https://i.ytimg.com/vi/5AO8qfcmMOw/hq720.jpg"
        },
        {
            "id": "tf7sVfOjWYU",
            "title": "Khumba | FULL MOVIE | Liam Neeson | Laurence Fishburne | Animals Friendship Animation Kids",
            "url": "https://www.youtube.com/watch?v=tf7sVfOjWYU",
            "duration": 5131.0,
            "view_count": 626769,
            "uploader": "FilmRise Movies",
            "category": "cartoons",
            "thumbnail": "https://i.ytimg.com/vi/tf7sVfOjWYU/hq720.jpg"
        },
        {
            "id": "xRfwXBitjc8",
            "title": "4 HOURS of SpongeBob 🧽 | SpongeBob",
            "url": "https://www.youtube.com/watch?v=xRfwXBitjc8",
            "duration": 14493.0,
            "view_count": 41136654,
            "uploader": "SpongeBob SquarePants Official",
            "category": "cartoons",
            "thumbnail": "https://i.ytimg.com/vi/xRfwXBitjc8/hq720.jpg"
        },
        {
            "id": "aP-qKaig84M",
            "title": "Bluey FULL Episodes Seasons 1 - 3 💙 | Featuring Dad Baby, Faceytalk and more! | 2 HOURS | Bluey",
            "url": "https://www.youtube.com/watch?v=aP-qKaig84M",
            "duration": 6939.0,
            "view_count": 177154773,
            "uploader": "Bluey - Official Channel",
            "category": "cartoons",
            "thumbnail": "https://i.ytimg.com/vi/aP-qKaig84M/hq720.jpg"
        },
        {
            "id": "HfEVEGf1A8Q",
            "title": "Spookiz: The Movie | Cartoons for Kids | Official Full Movie",
            "url": "https://www.youtube.com/watch?v=HfEVEGf1A8Q",
            "duration": 4917.0,
            "view_count": 299329751,
            "uploader": "Spookiz - Cartoons for Everyone",
            "category": "cartoons",
            "thumbnail": "https://i.ytimg.com/vi/HfEVEGf1A8Q/hq720.jpg?sqp=-oaymwEcCNAFEJQDSFXyq4qpAw4IARUAAIhCGAFwAcABBg==&rs=AOn4CLCihvB_eVtdu4cYEyxS6q232-AElg",
            "added_date": "2026-04-16T07:31:53.298458Z",
            "source": "youtube"
        },
        {
            "id": "vX2g-VnhbU8",
            "title": "The Land Before Time | The Bright Circle Celebration | Cartoons For Kids | Kids Movies",
            "url": "https://www.youtube.com/watch?v=vX2g-VnhbU8",
            "duration": 4082.0,
            "view_count": 3614253,
            "uploader": "The Land Before Time",
            "category": "cartoons",
            "thumbnail": "https://i.ytimg.com/vi/vX2g-VnhbU8/hq720.jpg"
        },
        {
            "id": "TP9wd8Aeh3I",
            "title": "Terra Willy (Full Animated Movie) | A Beautiful Sci-Fi Adventure for the Whole Family",
            "url": "https://www.youtube.com/watch?v=TP9wd8Aeh3I",
            "duration": 5386.0,
            "view_count": 3902138,
            "uploader": "Viva Kids Films",
            "category": "cartoons",
            "thumbnail": "https://i.ytimg.com/vi/TP9wd8Aeh3I/hq720.jpg"
        },
        {
            "id": "2TZ6z8plCzo",
            "title": "George the Digger!  🐵 Curious George 🐵 Kids Cartoon 🐵 Kids Movies",
            "url": "https://www.youtube.com/watch?v=2TZ6z8plCzo",
            "duration": 5767.0,
            "view_count": 5813852,
            "uploader": "Curious George Official",
            "category": "cartoons",
            "thumbnail": "https://i.ytimg.com/vi/2TZ6z8plCzo/hq720.jpg?sqp=-oaymwEcCNAFEJQDSFXyq4qpAw4IARUAAIhCGAFwAcABBg==&rs=AOn4CLD0U9Msot5BJCtRCtj0TffN9lPmnQ",
            "added_date": "2026-04-16T07:31:52.296603Z",
            "source": "youtube"
        },
        {
            "id": "duFsNHWuQI8",
            "title": "Spookiz: The Movie (2019) | FULL MOVIE | Halloween | WildBrain Family Movies",
            "url": "https://www.youtube.com/watch?v=duFsNHWuQI8",
            "duration": 4669.0,
            "view_count": 423912,
            "uploader": "WildBrain Family Cinema",
            "category": "cartoons",
            "thumbnail": "https://i.ytimg.com/vi/duFsNHWuQI8/hq720.jpg"
        },
        {
            "id": "3l-jVpuVlcQ",
            "title": "Wild Kratts FULL MOVIE | Wild Kratts: Our Blue and Green World | PBS KIDS",
            "url": "https://www.youtube.com/watch?v=3l-jVpuVlcQ",
            "duration": 2870.0,
            "view_count": 7038846,
            "uploader": "PBS KIDS",
            "category": "cartoons",
            "thumbnail": "https://i.ytimg.com/vi/3l-jVpuVlcQ/hq720.jpg"
        },
        {
            "id": "p8269yp17ts",
            "title": "Wish dragon Full Movie - 2021 comedy animated",
            "url": "https://www.youtube.com/watch?v=p8269yp17ts",
            "duration": 6144.0,
            "view_count": 6065208,
            "uploader": "BobieFunny",
            "category": "cartoons",
            "thumbnail": "https://i.ytimg.com/vi/p8269yp17ts/hqdefault.jpg"
        },
        {
            "id": "239_lAwRisU",
            "title": "THE BIG TRIP Full Fantasy Adventure Movie In English | Animated Cartoon Movie | English Fairy Tales",
            "url": "https://www.youtube.com/watch?v=239_lAwRisU",
            "duration": 4815.0,
            "view_count": 6216028,
            "uploader": "Star Entertainment Kids",
            "category": "cartoons",
            "thumbnail": "https://i.ytimg.com/vi/239_lAwRisU/hq720.jpg?sqp=-oaymwEcCNAFEJQDSFXyq4qpAw4IARUAAIhCGAFwAcABBg==&rs=AOn4CLDL1Mf-M7G4eqIYcXJvAWTEuzo-lA",
            "added_date": "2026-04-16T07:31:54.300280Z",
            "source": "youtube"
        },
        {
            "id": "WNglxzLMBt8",
            "title": "George The Gardener! 🐵 Curious George 🐵 Kids Cartoon 🐵 Kids Movies",
            "url": "https://www.youtube.com/watch?v=WNglxzLMBt8",
            "duration": 5781.0,
            "view_count": 1191792,
            "uploader": "Curious George Official",
            "category": "cartoons",
            "thumbnail": "https://i.ytimg.com/vi/WNglxzLMBt8/hq720.jpg"
        },
        {
            "id": "iLiMHuQwHg0",
            "title": "Garfield Gets Real - Full Movie",
            "url": "https://www.youtube.com/watch?v=iLiMHuQwHg0",
            "duration": 4669.0,
            "view_count": 6715461,
            "uploader": "Garfield & Friends",
            "category": "cartoons",
            "thumbnail": "https://i.ytimg.com/vi/iLiMHuQwHg0/hq720.jpg"
        },
        {
            "id": "NUcg0niLO6Q",
            "title": "George's Fall Discovery 🐵 Curious George 🐵 Kids Cartoon 🐵 Kids Movies",
            "url": "https://www.youtube.com/watch?v=NUcg0niLO6Q",
            "duration": 5767.0,
            "view_count": 550825,
            "uploader": "Curious George Official",
            "category": "cartoons",
            "thumbnail": "https://i.ytimg.com/vi/NUcg0niLO6Q/hq720.jpg"
        },
        {
            "id": "MKezK2-JSLI",
            "title": "Eggs | English Full Movie | Animation | A Whimsical Tale of Friendship and Adventure",
            "url": "https://www.youtube.com/watch?v=MKezK2-JSLI",
            "duration": 5072.0,
            "view_count": 282071,
            "uploader": "TheMovieMagic",
            "category": "cartoons",
            "thumbnail": "https://i.ytimg.com/vi/MKezK2-JSLI/hq720.jpg?sqp=-oaymwEcCNAFEJQDSFXyq4qpAw4IARUAAIhCGAFwAcABBg==&rs=AOn4CLD706eucqGM1saldgQKBNQIsixk5Q",
            "added_date": "2026-04-16T07:31:54.701037Z",
            "source": "youtube"
        },
        {
            "id": "Dfg474uqeW4",
            "title": "The School of Magic | Full Movie in English | Animation, Adventures",
            "url": "https://www.youtube.com/watch?v=Dfg474uqeW4",
            "duration": 4842.0,
            "view_count": 3903737,
            "uploader": "Films for Family",
            "category": "cartoons",
            "thumbnail": "https://i.ytimg.com/vi/Dfg474uqeW4/hq720.jpg"
        },
        {
            "id": "orI0kGFOncY",
            "title": "Albert: Up, Up And Away! | FULL MOVIE | Family Animation Adventure",
            "url": "https://www.youtube.com/watch?v=orI0kGFOncY",
            "duration": 4821.0,
            "view_count": 409707,
            "uploader": "Shout! Studios",
            "category": "cartoons",
            "thumbnail": "https://i.ytimg.com/vi/orI0kGFOncY/hq720.jpg"
        },
        {
            "id": "ZzVOrzxko6I",
            "title": "Maya The Bee 3: The Golden Orb | FULL MOVIE | Family Honey Gold Animation Adventure",
            "url": "https://www.youtube.com/watch?v=ZzVOrzxko6I",
            "duration": 5297.0,
            "view_count": 711702,
            "uploader": "Shout! Studios",
            "category": "cartoons",
            "thumbnail": "https://i.ytimg.com/vi/ZzVOrzxko6I/hq720.jpg?sqp=-oaymwEcCNAFEJQDSFXyq4qpAw4IARUAAIhCGAFwAcABBg==&rs=AOn4CLBSMjNJIemeEl51RQwbp1VLoaqaQQ",
            "added_date": "2026-04-16T07:31:52.697313Z",
            "source": "youtube"
        },
        {
            "id": "tiHfnC2KTYg",
            "title": "Wheely - Fast & Hilarious",
            "url": "https://www.youtube.com/watch?v=tiHfnC2KTYg",
            "duration": 5395.0,
            "view_count": 9192376,
            "uploader": "Kartun Studios",
            "category": "cartoons",
            "thumbnail": "https://i.ytimg.com/vi/tiHfnC2KTYg/hq720.jpg?sqp=-oaymwEcCNAFEJQDSFXyq4qpAw4IARUAAIhCGAFwAcABBg==&rs=AOn4CLCD7ZMY8uAa53CWZ8T6QuImHcOHxA",
            "added_date": "2026-04-16T07:31:52.897705Z",
            "source": "youtube"
        },
        {
            "id": "8wkGjIOOPl0",
            "title": "1 HOUR of SpongeBob Cooking 🔥🔥🔥 | SpongeBob",
            "url": "https://www.youtube.com/watch?v=8wkGjIOOPl0",
            "duration": 3848.0,
            "view_count": 16475964,
            "uploader": "SpongeBob SquarePants Official",
            "category": "cartoons",
            "thumbnail": "https://i.ytimg.com/vi/8wkGjIOOPl0/hq720.jpg?sqp=-oaymwEcCNAFEJQDSFXyq4qpAw4IARUAAIhCGAFwAcABBg==&rs=AOn4CLCVR3bHdUxX4OBKPSnaFL2I-hAkng",
            "added_date": "2026-04-16T07:31:53.699235Z",
            "source": "youtube"
        },
        {
            "id": "xFGaf87PvPo",
            "title": "The Little Campers | KIDS | Full Movies in English",
            "url": "https://www.youtube.com/watch?v=xFGaf87PvPo",
            "duration": 5613.0,
            "view_count": 1817108,
            "uploader": "Boxoffice | FAMILY | Full Movies",
            "category": "cartoons",
            "thumbnail": "https://i.ytimg.com/vi/xFGaf87PvPo/hq720.jpg"
        },
        {
            "id": "LUexXsF14Z0",
            "title": "Leo and Tig 🦁 Summer best 🐯 Funny Family Good Animated Cartoon for Kids",
            "url": "https://www.youtube.com/watch?v=LUexXsF14Z0",
            "duration": 4439.0,
            "view_count": 26432084,
            "uploader": "Leo and Tig",
            "category": "cartoons",
            "thumbnail": "https://i.ytimg.com/vi/LUexXsF14Z0/hq720.jpg"
        },
        {
            "id": "Yx745XqZd6s",
            "title": "Saving the Red Crown Forest | Full Movie |  Cartoons for Kids",
            "url": "https://www.youtube.com/watch?v=Yx745XqZd6s",
            "duration": 4564.0,
            "view_count": 1595458,
            "uploader": "Synkronized Kids 🍿",
            "category": "cartoons",
            "thumbnail": "https://i.ytimg.com/vi/Yx745XqZd6s/hq720.jpg"
        },
        {
            "id": "FFJyzxxX9qY",
            "title": "Lost in the City: A Father Bear’s Fight for Family | Full Movie | Animation HD",
            "url": "https://www.youtube.com/watch?v=FFJyzxxX9qY",
            "duration": 4433.0,
            "view_count": 3599477,
            "uploader": "Cinema Zone HD",
            "category": "cartoons",
            "thumbnail": "https://i.ytimg.com/vi/FFJyzxxX9qY/hq720.jpg"
        },
        {
            "id": "rood-cmbQ5s",
            "title": "Up In The Sky | KIDS, ANIMATION | Full Movie in English",
            "url": "https://www.youtube.com/watch?v=rood-cmbQ5s",
            "duration": 5613.0,
            "view_count": 511563,
            "uploader": "Boxoffice | ANIMATION | Full Movies",
            "category": "cartoons",
            "thumbnail": "https://i.ytimg.com/vi/rood-cmbQ5s/hq720.jpg?sqp=-oaymwEcCNAFEJQDSFXyq4qpAw4IARUAAIhCGAFwAcABBg==&rs=AOn4CLDKJn9FYdgCIx63GJ34Y_mti1wYvQ",
            "added_date": "2026-04-16T07:31:53.498851Z",
            "source": "youtube"
        },
        {
            "id": "xnxWGVYVbwc",
            "title": "The Princess and the Dragon | Full Movie in English (HD) | Disney-Style Family Movie",
            "url": "https://www.youtube.com/watch?v=xnxWGVYVbwc",
            "duration": 4493.0,
            "view_count": 7655461,
            "uploader": "Viva Kids Films",
            "category": "cartoons",
            "thumbnail": "https://i.ytimg.com/vi/xnxWGVYVbwc/hq720.jpg"
        },
        {
            "id": "ckcwZ0wnU4A",
            "title": "Ballerina | Leap | Subscribe for more | Like | Comment | Animated movie | Follow your dreams",
            "url": "https://www.youtube.com/watch?v=ckcwZ0wnU4A",
            "duration": 5347.0,
            "view_count": 3912275,
            "uploader": "BILAL KI KALAKARIYAN",
            "category": "cartoons",
            "thumbnail": "https://i.ytimg.com/vi/ckcwZ0wnU4A/hq720.jpg"
        },
        {
            "id": "U9-hTROh0q8",
            "title": "Best Friends in The World | ANIME, KIDS | Full Movie in English",
            "url": "https://www.youtube.com/watch?v=U9-hTROh0q8",
            "duration": 4786.0,
            "view_count": 3079471,
            "uploader": "Boxoffice | ANIMATION | Full Movies",
            "category": "cartoons",
            "thumbnail": "https://i.ytimg.com/vi/U9-hTROh0q8/hq720.jpg"
        },
        {
            "id": "yLYF1IUm6x0",
            "title": "🎃The Spookiz Halloween Movie! 🎃👻| Spookiz - Happy Halloween | WildBrain Kids",
            "url": "https://www.youtube.com/watch?v=yLYF1IUm6x0",
            "duration": 4669.0,
            "view_count": 428381,
            "uploader": "WildBrain Kids",
            "category": "cartoons",
            "thumbnail": "https://i.ytimg.com/vi/yLYF1IUm6x0/hq720.jpg"
        },
        {
            "id": "QRxgJ2G78aY",
            "title": "Elli & Her Monster Team | Full Movie in English (HD)",
            "url": "https://www.youtube.com/watch?v=QRxgJ2G78aY",
            "duration": 5184.0,
            "view_count": 910651,
            "uploader": "Viva Kids Films",
            "category": "cartoons",
            "thumbnail": "https://i.ytimg.com/vi/QRxgJ2G78aY/hq720.jpg"
        },
        {
            "id": "XmuG3jtXf_4",
            "title": "Animation Movies Full Movies English | Kids Movies",
            "url": "https://www.youtube.com/watch?v=XmuG3jtXf_4",
            "duration": 5371.0,
            "view_count": 1463381,
            "uploader": "Kids Movies",
            "category": "cartoons",
            "thumbnail": "https://i.ytimg.com/vi/XmuG3jtXf_4/hqdefault.jpg"
        },
        {
            "id": "lLuZXsLSpIU",
            "title": "Franklin - Magic Christmas | A Christmas Special | FULL MOVIE",
            "url": "https://www.youtube.com/watch?v=lLuZXsLSpIU",
            "duration": 3168.0,
            "view_count": 4547059,
            "uploader": "Treehouse Direct",
            "category": "cartoons",
            "thumbnail": "https://i.ytimg.com/vi/lLuZXsLSpIU/hq720.jpg"
        },
        {
            "id": "Yrg4qjKZlMw",
            "title": "NEW Bluey Series 1, 2 & 3 FULL EPISODES | Featuring Bingo, Dad Baby and 16 More! 💙🧡 | Bluey",
            "url": "https://www.youtube.com/watch?v=Yrg4qjKZlMw",
            "duration": 6944.0,
            "view_count": 33780169,
            "uploader": "Bluey - Official Channel",
            "category": "cartoons",
            "thumbnail": "https://i.ytimg.com/vi/Yrg4qjKZlMw/hq720.jpg"
        },
        {
            "id": "hKqri_XuIWw",
            "title": "The Little Bear Movie",
            "url": "https://www.youtube.com/watch?v=hKqri_XuIWw",
            "duration": 4522.0,
            "view_count": 27879223,
            "uploader": "Little Bear - Official",
            "category": "cartoons",
            "thumbnail": "https://i.ytimg.com/vi/hKqri_XuIWw/hq720.jpg"
        },
        {
            "id": "XfZetbS9084",
            "title": "🔴 LIVE: BABY LOONEY TUNES | Fun, Teamwork and Stories | Cartoons for Kids | @cartoonito",
            "url": "https://www.youtube.com/watch?v=XfZetbS9084",
            "duration": 0,
            "view_count": 0,
            "uploader": "Cartoonito",
            "category": "cartoons",
            "thumbnail": "https://i.ytimg.com/vi/XfZetbS9084/hq720.jpg"
        },
        {
            "id": "lBdbttgfmRw",
            "title": "Marvel's Spidey and his Amazing Friends Season 1 Full Episodes Compilation 🕸️ | 2 Hours | @disneyjr​",
            "url": "https://www.youtube.com/watch?v=lBdbttgfmRw",
            "duration": 8846.0,
            "view_count": 28735986,
            "uploader": "Disney Jr. ",
            "category": "cartoons",
            "thumbnail": "https://i.ytimg.com/vi/lBdbttgfmRw/hq720.jpg"
        },
        {
            "id": "8g8GDLkdUeY",
            "title": "Pororo English Episodes | Ep4. Happy Trip with Friends  | Kids Cartoons & Animation",
            "url": "https://www.youtube.com/watch?v=8g8GDLkdUeY",
            "duration": 2335.0,
            "view_count": 11250886,
            "uploader": "Pororo the Little Penguin",
            "category": "cartoons",
            "thumbnail": "https://i.ytimg.com/vi/8g8GDLkdUeY/hq720.jpg"
        },
        {
            "id": "UAbIuQ2vS4E",
            "title": "The Heroes of Q-Town | Full Movie in English | Adventure Animation, HD",
            "url": "https://www.youtube.com/watch?v=UAbIuQ2vS4E",
            "duration": 4601.0,
            "view_count": 793952,
            "uploader": "Cinema Zone HD",
            "category": "cartoons",
            "thumbnail": "https://i.ytimg.com/vi/UAbIuQ2vS4E/hq720.jpg"
        },
        {
            "id": "TP1nmHq_u8M",
            "title": "Angry Birds Blues | Top Viewed Episodes! 🤩",
            "url": "https://www.youtube.com/watch?v=TP1nmHq_u8M",
            "duration": 4068.0,
            "view_count": 135096022,
            "uploader": "Angry Birds",
            "category": "cartoons",
            "thumbnail": "https://i.ytimg.com/vi/TP1nmHq_u8M/hq720.jpg?sqp=-oaymwEcCNAFEJQDSFXyq4qpAw4IARUAAIhCGAFwAcABBg==&rs=AOn4CLAcfpbDMxS-nPdsg2OwjDDy2vZjXA",
            "added_date": "2026-04-16T07:31:53.098070Z",
            "source": "youtube"
        },
        {
            "id": "4LhvdWT-qTU",
            "title": "Kids Movie | The Good Dinosaur Full Movie | Animation Movies | Kids Disney Cartoon | Disney Movie",
            "url": "https://www.youtube.com/watch?v=4LhvdWT-qTU",
            "duration": 4724.0,
            "view_count": 1160551,
            "uploader": "Funky Life",
            "category": "cartoons",
            "thumbnail": "https://i.ytimg.com/vi/4LhvdWT-qTU/hq720.jpg"
        },
        {
            "id": "XUHmKn6kmcU",
            "title": "FULL MOVIE: Hedgehogs 🦔✨ A Mischievous Family Adventure in the Big City!",
            "url": "https://www.youtube.com/watch?v=XUHmKn6kmcU",
            "duration": 5647.0,
            "view_count": 129797,
            "uploader": "Family Movie Faves",
            "category": "cartoons",
            "thumbnail": "https://i.ytimg.com/vi/XUHmKn6kmcU/hq720.jpg"
        },
        {
            "id": "02VoO9Mqurs",
            "title": "Ants At A Picnic | 🐛 Antiks & Insectibles 🐜 | Funny Cartoons for Kids | Moonbug",
            "url": "https://www.youtube.com/watch?v=02VoO9Mqurs",
            "duration": 8893.0,
            "view_count": 1573892,
            "uploader": "Antiks & Insectibles",
            "category": "cartoons",
            "thumbnail": "https://i.ytimg.com/vi/02VoO9Mqurs/hq720.jpg"
        }
    ]
}