{
    "page": 87,
    "total_pages": 103,
    "total_items": 5125,
    "items": [
        {
            "id": "Xk_kHD54KiY",
            "title": "🔴  NEWEST Peppa Pig Episodes 2026 ✨ SEASON 10 Holiday Adventures ☀️ Kids Movie 🔴",
            "url": "https://www.youtube.com/watch?v=Xk_kHD54KiY",
            "duration": 0,
            "view_count": 0,
            "uploader": "Peppa Pig - Official Channel",
            "category": "cartoons/peppa_pig",
            "thumbnail": "https://i.ytimg.com/vi/Xk_kHD54KiY/hq720.jpg"
        },
        {
            "id": "iR6U_vq00QU",
            "title": "🔴 BRAND NEW PEPPA PIG TALES EPISODES 🐽 ALL New Season 3  ✨📺  | New House, New Car, New Bedroom!",
            "url": "https://www.youtube.com/watch?v=iR6U_vq00QU",
            "duration": 0,
            "view_count": 0,
            "uploader": "Peppa Pig Tales",
            "category": "cartoons/peppa_pig",
            "thumbnail": "https://i.ytimg.com/vi/iR6U_vq00QU/hq720.jpg"
        },
        {
            "id": "S9RV2USUDb4",
            "title": "Peppa Pig NEW BABY EVIE Episodes LIVE 🍼 Cutest & Funniest Moments 🥹💛 Kids Cartoons",
            "url": "https://www.youtube.com/watch?v=S9RV2USUDb4",
            "duration": 0,
            "view_count": 0,
            "uploader": "Peppa Pig - Official Channel",
            "category": "cartoons/peppa_pig",
            "thumbnail": "https://i.ytimg.com/vi/S9RV2USUDb4/hq720.jpg"
        },
        {
            "id": "eWcFqJYccBM",
            "title": "Peppa Pig NEW BABY EVIE Episodes LIVE 🍼 Cutest & Funniest Moments 🥹💛 Kids Cartoons",
            "url": "https://www.youtube.com/watch?v=eWcFqJYccBM",
            "duration": 0,
            "view_count": 0,
            "uploader": "Peppa Pig - Official Channel",
            "category": "cartoons/peppa_pig",
            "thumbnail": "https://i.ytimg.com/vi/eWcFqJYccBM/hq720.jpg"
        },
        {
            "id": "T3QtkM4Ioik",
            "title": "Brand NEW Family CAR! 🚗 Peppa Pig Full Episodes | 4 Hours of Kids Cartoons",
            "url": "https://www.youtube.com/watch?v=T3QtkM4Ioik",
            "duration": 14518.0,
            "view_count": 460698,
            "uploader": "Peppa Pig - Official Channel",
            "category": "cartoons/peppa_pig",
            "thumbnail": "https://i.ytimg.com/vi/T3QtkM4Ioik/hq720.jpg"
        },
        {
            "id": "vRNfo4hoEJg",
            "title": "Peppa Pig NEW BABY EVIE Episodes LIVE 🍼 Cutest & Funniest Moments 🥹💛 Kids Cartoons",
            "url": "https://www.youtube.com/watch?v=vRNfo4hoEJg",
            "duration": 0,
            "view_count": 0,
            "uploader": "Peppa Pig - Official Channel",
            "category": "cartoons/peppa_pig",
            "thumbnail": "https://i.ytimg.com/vi/vRNfo4hoEJg/hq720.jpg"
        },
        {
            "id": "dhFBwUUKuTc",
            "title": "🔴  NEWEST Peppa Pig Episodes 2026 ✨ SEASON 10 Holiday Adventures ☀️ Kids Movie 🔴",
            "url": "https://www.youtube.com/watch?v=dhFBwUUKuTc",
            "duration": 0,
            "view_count": 0,
            "uploader": "Peppa Pig - Official Channel",
            "category": "cartoons/peppa_pig",
            "thumbnail": "https://i.ytimg.com/vi/dhFBwUUKuTc/hq720.jpg"
        },
        {
            "id": "DwFhrV_gA2c",
            "title": "The Marble Run WORLD RECORD 🥇 | Peppa Pig Official Full Episodes",
            "url": "https://www.youtube.com/watch?v=DwFhrV_gA2c",
            "duration": 1871.0,
            "view_count": 45995812,
            "uploader": "Peppa Pig - Official Channel",
            "category": "cartoons/peppa_pig",
            "thumbnail": "https://i.ytimg.com/vi/DwFhrV_gA2c/hq720.jpg"
        },
        {
            "id": "v6zLyLQkB_I",
            "title": "Peppa Pig NEW BABY EVIE Episodes LIVE 🍼 Cutest & Funniest Moments 🥹💛 Kids Cartoons",
            "url": "https://www.youtube.com/watch?v=v6zLyLQkB_I",
            "duration": 0,
            "view_count": 0,
            "uploader": "Peppa Pig - Official Channel",
            "category": "cartoons/peppa_pig",
            "thumbnail": "https://i.ytimg.com/vi/v6zLyLQkB_I/hq720.jpg"
        },
        {
            "id": "BGBAspcO8r8",
            "title": "🔴  NEWEST Peppa Pig Episodes 2026 ✨ SEASON 10 Holiday Adventures ☀️ Kids Movie 🔴",
            "url": "https://www.youtube.com/watch?v=BGBAspcO8r8",
            "duration": 0,
            "view_count": 0,
            "uploader": "Peppa Pig - Official Channel",
            "category": "cartoons/peppa_pig",
            "thumbnail": "https://i.ytimg.com/vi/BGBAspcO8r8/hq720.jpg"
        },
        {
            "id": "J_hrDSeX8V8",
            "title": "Peppa Pig STUCK in Playground Jail! 😂 Funny Swing Trouble|Full Episodes|Cartoon for Kids |22 Minutes",
            "url": "https://www.youtube.com/watch?v=J_hrDSeX8V8",
            "duration": 1340.0,
            "view_count": 2934423,
            "uploader": "Toys and Colours",
            "category": "cartoons/peppa_pig",
            "thumbnail": "https://i.ytimg.com/vi/J_hrDSeX8V8/hq720.jpg"
        },
        {
            "id": "2tsfSKNCT-Y",
            "title": "Peppa Pig NEW BABY EVIE Episodes LIVE 🍼 Cutest & Funniest Moments 🥹💛 Kids Cartoons",
            "url": "https://www.youtube.com/watch?v=2tsfSKNCT-Y",
            "duration": 0,
            "view_count": 0,
            "uploader": "Peppa Pig - Official Channel",
            "category": "cartoons/peppa_pig",
            "thumbnail": "https://i.ytimg.com/vi/2tsfSKNCT-Y/hq720.jpg"
        },
        {
            "id": "mzleowbbuo4",
            "title": "Peppa Pig Tales 2026 🏃 Daddy Pig's MARATHON Training 🏁 BRAND NEW Peppa Pig Episodes",
            "url": "https://www.youtube.com/watch?v=mzleowbbuo4",
            "duration": 7287.0,
            "view_count": 246214,
            "uploader": "Peppa Pig - Official Channel",
            "category": "cartoons/peppa_pig",
            "thumbnail": "https://i.ytimg.com/vi/mzleowbbuo4/hq720.jpg"
        },
        {
            "id": "GU8AAOJYyts",
            "title": "Peppa Pig in Hindi | ईस्टर | Hindi Cartoons for Kids",
            "url": "https://www.youtube.com/watch?v=GU8AAOJYyts",
            "duration": 3648.0,
            "view_count": 2150189,
            "uploader": "पेप्पा पिग हिंदी - आधिकारिक चैनल",
            "category": "cartoons/peppa_pig",
            "thumbnail": "https://i.ytimg.com/vi/GU8AAOJYyts/hq720.jpg"
        },
        {
            "id": "xQ-kbrSF9D0",
            "title": "Peppa Pig NEW BABY EVIE Episodes LIVE 🍼 Cutest & Funniest Moments 🥹💛 Kids Cartoons",
            "url": "https://www.youtube.com/watch?v=xQ-kbrSF9D0",
            "duration": 0,
            "view_count": 0,
            "uploader": "Peppa Pig - Official Channel",
            "category": "cartoons/peppa_pig",
            "thumbnail": "https://i.ytimg.com/vi/xQ-kbrSF9D0/hq720.jpg"
        },
        {
            "id": "S3sMPFpCjPY",
            "title": "Peppa Pig in Hindi - Very Hot Day - Garmi ka Din - हिंदी Kahaniya - Hindi Cartoons for Kids",
            "url": "https://www.youtube.com/watch?v=S3sMPFpCjPY",
            "duration": 4085.0,
            "view_count": 76606831,
            "uploader": "पेप्पा पिग हिंदी - आधिकारिक चैनल",
            "category": "cartoons/peppa_pig",
            "thumbnail": "https://i.ytimg.com/vi/S3sMPFpCjPY/hq720.jpg"
        },
        {
            "id": "S5sVdBUmS0o",
            "title": "🔴  NEWEST Peppa Pig Episodes 2026 ✨ SEASON 10 Holiday Adventures ☀️ Kids Movie 🔴",
            "url": "https://www.youtube.com/watch?v=S5sVdBUmS0o",
            "duration": 0,
            "view_count": 0,
            "uploader": "Peppa Pig - Official Channel",
            "category": "cartoons/peppa_pig",
            "thumbnail": "https://i.ytimg.com/vi/S5sVdBUmS0o/hq720.jpg"
        },
        {
            "id": "USP0MCI6iYo",
            "title": "Peppa Pig NEW BABY EVIE Episodes LIVE 🍼 Cutest & Funniest Moments 🥹💛 Kids Cartoons",
            "url": "https://www.youtube.com/watch?v=USP0MCI6iYo",
            "duration": 0,
            "view_count": 0,
            "uploader": "Peppa Pig - Official Channel",
            "category": "cartoons/peppa_pig",
            "thumbnail": "https://i.ytimg.com/vi/USP0MCI6iYo/hq720.jpg"
        },
        {
            "id": "8uKp20WkJ98",
            "title": "🔴  NEWEST Peppa Pig Episodes 2026 ✨ SEASON 10 Holiday Adventures ☀️ Kids Movie 🔴",
            "url": "https://www.youtube.com/watch?v=8uKp20WkJ98",
            "duration": 0,
            "view_count": 0,
            "uploader": "Peppa Pig - Official Channel",
            "category": "cartoons/peppa_pig",
            "thumbnail": "https://i.ytimg.com/vi/8uKp20WkJ98/hq720.jpg"
        },
        {
            "id": "_7GKnmMrE44",
            "title": "Peppa Pig NEW BABY EVIE Episodes LIVE 🍼 Cutest & Funniest Moments 🥹💛 Kids Cartoons",
            "url": "https://www.youtube.com/watch?v=_7GKnmMrE44",
            "duration": 0,
            "view_count": 0,
            "uploader": "Peppa Pig - Official Channel",
            "category": "cartoons/peppa_pig",
            "thumbnail": "https://i.ytimg.com/vi/_7GKnmMrE44/hq720.jpg"
        },
        {
            "id": "x4dHlFNLQDY",
            "title": "🔴 BRAND NEW PEPPA PIG TALES EPISODES 🐽 ALL New Season 3  ✨📺  | New House, New Car, New Bedroom!",
            "url": "https://www.youtube.com/watch?v=x4dHlFNLQDY",
            "duration": 0,
            "view_count": 0,
            "uploader": "Peppa Pig Tales",
            "category": "cartoons/peppa_pig",
            "thumbnail": "https://i.ytimg.com/vi/x4dHlFNLQDY/hq720.jpg"
        },
        {
            "id": "PjBcn6vuihI",
            "title": "🔴  NEWEST Peppa Pig Episodes 2026 ✨ SEASON 10 Holiday Adventures ☀️ Kids Movie 🔴",
            "url": "https://www.youtube.com/watch?v=PjBcn6vuihI",
            "duration": 0,
            "view_count": 0,
            "uploader": "Peppa Pig - Official Channel",
            "category": "cartoons/peppa_pig",
            "thumbnail": "https://i.ytimg.com/vi/PjBcn6vuihI/hq720.jpg"
        },
        {
            "id": "6f2XE0xTu-E",
            "title": "🔴 BRAND NEW PEPPA PIG TALES EPISODES 🐽 ALL New Season 3  ✨📺  | New House, New Car, New Bedroom!",
            "url": "https://www.youtube.com/watch?v=6f2XE0xTu-E",
            "duration": 0,
            "view_count": 0,
            "uploader": "Peppa Pig Tales",
            "category": "cartoons/peppa_pig",
            "thumbnail": "https://i.ytimg.com/vi/6f2XE0xTu-E/hq720.jpg"
        },
        {
            "id": "uJ-8ooJKZXo",
            "title": "Peppa’s Easter Chocolate FEAST! 🍫 | Peppa Pig Full Episodes | 2 Hours of Kids Cartoons",
            "url": "https://www.youtube.com/watch?v=uJ-8ooJKZXo",
            "duration": 7269.0,
            "view_count": 352436,
            "uploader": "Peppa Pig - Official Channel",
            "category": "cartoons/peppa_pig",
            "thumbnail": "https://i.ytimg.com/vi/uJ-8ooJKZXo/hq720.jpg"
        },
        {
            "id": "4zvje0GWVSw",
            "title": "Peppa Pig NEW BABY EVIE Episodes LIVE 🍼 Cutest & Funniest Moments 🥹💛 Kids Cartoons",
            "url": "https://www.youtube.com/watch?v=4zvje0GWVSw",
            "duration": 0,
            "view_count": 0,
            "uploader": "Peppa Pig - Official Channel",
            "category": "cartoons/peppa_pig",
            "thumbnail": "https://i.ytimg.com/vi/4zvje0GWVSw/hq720.jpg"
        },
        {
            "id": "Nqc_9DGjwUo",
            "title": "Peppa Pig NEW BABY EVIE Episodes LIVE 🍼 Cutest & Funniest Moments 🥹💛 Kids Cartoons",
            "url": "https://www.youtube.com/watch?v=Nqc_9DGjwUo",
            "duration": 0,
            "view_count": 0,
            "uploader": "Peppa Pig - Official Channel",
            "category": "cartoons/peppa_pig",
            "thumbnail": "https://i.ytimg.com/vi/Nqc_9DGjwUo/hq720.jpg"
        },
        {
            "id": "jAxzBK9Y70g",
            "title": "Peppa Pig NEW BABY EVIE Episodes LIVE 🍼 Cutest & Funniest Moments 🥹💛 Kids Cartoons",
            "url": "https://www.youtube.com/watch?v=jAxzBK9Y70g",
            "duration": 0,
            "view_count": 0,
            "uploader": "Peppa Pig - Official Channel",
            "category": "cartoons/peppa_pig",
            "thumbnail": "https://i.ytimg.com/vi/jAxzBK9Y70g/hq720.jpg"
        },
        {
            "id": "-FXU71zMFLo",
            "title": "Peppa Pig NEW BABY EVIE Episodes LIVE 🍼 Cutest & Funniest Moments 🥹💛 Kids Cartoons",
            "url": "https://www.youtube.com/watch?v=-FXU71zMFLo",
            "duration": 0,
            "view_count": 0,
            "uploader": "Peppa Pig - Official Channel",
            "category": "cartoons/peppa_pig",
            "thumbnail": "https://i.ytimg.com/vi/-FXU71zMFLo/hq720.jpg"
        },
        {
            "id": "fEv2ceNeprY",
            "title": "Daddy Pig Marathon Training LIVE 🏃 🔴 GO DADDY PIG! 🏁 Kids Cartoons 🔴",
            "url": "https://www.youtube.com/watch?v=fEv2ceNeprY",
            "duration": 0,
            "view_count": 0,
            "uploader": "Peppa Pig - Official Channel",
            "category": "cartoons/peppa_pig",
            "thumbnail": "https://i.ytimg.com/vi/fEv2ceNeprY/hq720.jpg"
        },
        {
            "id": "cxcEwHAA3JE",
            "title": "🔴  NEWEST Peppa Pig Episodes 2026 ✨ SEASON 10 Holiday Adventures ☀️ Kids Movie 🔴",
            "url": "https://www.youtube.com/watch?v=cxcEwHAA3JE",
            "duration": 0,
            "view_count": 0,
            "uploader": "Peppa Pig - Official Channel",
            "category": "cartoons/peppa_pig",
            "thumbnail": "https://i.ytimg.com/vi/cxcEwHAA3JE/hq720.jpg"
        },
        {
            "id": "GsAkRszjdW0",
            "title": "🌞 Peppa Pig & George's BIG Family Adventures🐷 | Full Episodes | Holiday & Travel Days Out",
            "url": "https://www.youtube.com/watch?v=GsAkRszjdW0",
            "duration": 0,
            "view_count": 0,
            "uploader": "Peppa Pig's Big Adventures",
            "category": "cartoons/peppa_pig",
            "thumbnail": "https://i.ytimg.com/vi/GsAkRszjdW0/hq720.jpg"
        },
        {
            "id": "5bq0-BpQHGc",
            "title": "Peppa Pig NEW BABY EVIE Episodes LIVE 🍼 Cutest & Funniest Moments 🥹💛 Kids Cartoons",
            "url": "https://www.youtube.com/watch?v=5bq0-BpQHGc",
            "duration": 0,
            "view_count": 0,
            "uploader": "Peppa Pig - Official Channel",
            "category": "cartoons/peppa_pig",
            "thumbnail": "https://i.ytimg.com/vi/5bq0-BpQHGc/hq720.jpg"
        },
        {
            "id": "r6y7VLVGmkM",
            "title": "Peppa Pig in Hindi - Christmas Lunch -  क्रिसमस के लिए लंच  - हिंदी Kahaniya - Hindi Cartoons",
            "url": "https://www.youtube.com/watch?v=r6y7VLVGmkM",
            "duration": 2533.0,
            "view_count": 4165592,
            "uploader": "पेप्पा पिग हिंदी - आधिकारिक चैनल",
            "category": "cartoons/peppa_pig",
            "thumbnail": "https://i.ytimg.com/vi/r6y7VLVGmkM/hq720.jpg"
        },
        {
            "id": "HfWT6DJ8-lM",
            "title": "Peppa Pig NEW BABY EVIE Episodes LIVE 🍼 Cutest & Funniest Moments 🥹💛 Kids Cartoons",
            "url": "https://www.youtube.com/watch?v=HfWT6DJ8-lM",
            "duration": 0,
            "view_count": 0,
            "uploader": "Peppa Pig - Official Channel",
            "category": "cartoons/peppa_pig",
            "thumbnail": "https://i.ytimg.com/vi/HfWT6DJ8-lM/hq720.jpg"
        },
        {
            "id": "NoG_e1R4QNg",
            "title": "🔴 BRAND NEW PEPPA PIG TALES EPISODES 🐽 ALL New Season 3  ✨📺  | New House, New Car, New Bedroom!",
            "url": "https://www.youtube.com/watch?v=NoG_e1R4QNg",
            "duration": 0,
            "view_count": 0,
            "uploader": "Peppa Pig Tales",
            "category": "cartoons/peppa_pig",
            "thumbnail": "https://i.ytimg.com/vi/NoG_e1R4QNg/hq720.jpg"
        },
        {
            "id": "FRFFSsA1sjw",
            "title": "🔴  NEWEST Peppa Pig Episodes 2026 ✨ SEASON 10 Holiday Adventures ☀️ Kids Movie 🔴",
            "url": "https://www.youtube.com/watch?v=FRFFSsA1sjw",
            "duration": 0,
            "view_count": 0,
            "uploader": "Peppa Pig - Official Channel",
            "category": "cartoons/peppa_pig",
            "thumbnail": "https://i.ytimg.com/vi/FRFFSsA1sjw/hq720.jpg"
        },
        {
            "id": "s0RQzWFrCdw",
            "title": "Peppa Pig NEW BABY EVIE Episodes LIVE 🍼 Cutest & Funniest Moments 🥹💛 Kids Cartoons",
            "url": "https://www.youtube.com/watch?v=s0RQzWFrCdw",
            "duration": 0,
            "view_count": 0,
            "uploader": "Peppa Pig - Official Channel",
            "category": "cartoons/peppa_pig",
            "thumbnail": "https://i.ytimg.com/vi/s0RQzWFrCdw/hq720.jpg"
        },
        {
            "id": "_3r8Uggnmdw",
            "title": "Peppa Pig Tales 🛝 GIANT Inflatable Water Adventure 💦 BRAND NEW Peppa Pig Episodes",
            "url": "https://www.youtube.com/watch?v=_3r8Uggnmdw",
            "duration": 2715.0,
            "view_count": 244168,
            "uploader": "Peppa Pig - Official Channel",
            "category": "cartoons/peppa_pig",
            "thumbnail": "https://i.ytimg.com/vi/_3r8Uggnmdw/hq720.jpg"
        },
        {
            "id": "rQeZ9BWbMCA",
            "title": "Peppa's PUZZLE Competition 🧩 Peppa Pig Full Episodes | 2 Hours of Kids Cartoons",
            "url": "https://www.youtube.com/watch?v=rQeZ9BWbMCA",
            "duration": 14534.0,
            "view_count": 637494,
            "uploader": "Peppa Pig - Official Channel",
            "category": "cartoons/peppa_pig",
            "thumbnail": "https://i.ytimg.com/vi/rQeZ9BWbMCA/hq720.jpg"
        },
        {
            "id": "qpc_J_-ag7Y",
            "title": "Peppa Pig NEW BABY EVIE Episodes LIVE 🍼 Cutest & Funniest Moments 🥹💛 Kids Cartoons",
            "url": "https://www.youtube.com/watch?v=qpc_J_-ag7Y",
            "duration": 0,
            "view_count": 0,
            "uploader": "Peppa Pig - Official Channel",
            "category": "cartoons/peppa_pig",
            "thumbnail": "https://i.ytimg.com/vi/qpc_J_-ag7Y/hq720.jpg"
        },
        {
            "id": "TpN_oAUeGPE",
            "title": "🔴 BRAND NEW PEPPA PIG TALES EPISODES 🐽 ALL New Season 3  ✨📺  | New House, New Car, New Bedroom!",
            "url": "https://www.youtube.com/watch?v=TpN_oAUeGPE",
            "duration": 0,
            "view_count": 0,
            "uploader": "Peppa Pig Tales",
            "category": "cartoons/peppa_pig",
            "thumbnail": "https://i.ytimg.com/vi/TpN_oAUeGPE/hq720.jpg"
        },
        {
            "id": "rD4xEXFykgA",
            "title": "🔴 BRAND NEW PEPPA PIG TALES EPISODES 🐽 ALL New Season 3  ✨📺  | New House, New Car, New Bedroom!",
            "url": "https://www.youtube.com/watch?v=rD4xEXFykgA",
            "duration": 0,
            "view_count": 0,
            "uploader": "Peppa Pig Tales",
            "category": "cartoons/peppa_pig",
            "thumbnail": "https://i.ytimg.com/vi/rD4xEXFykgA/hq720.jpg"
        },
        {
            "id": "VpVvBqbOdGg",
            "title": "Bal Bhavan  - Peppa Pig in Hindi - The Playgroup - हिंदी Kahaniya - Hindi Cartoons for Kids",
            "url": "https://www.youtube.com/watch?v=VpVvBqbOdGg",
            "duration": 3268.0,
            "view_count": 1344862,
            "uploader": "पेप्पा पिग हिंदी - आधिकारिक चैनल",
            "category": "cartoons/peppa_pig",
            "thumbnail": "https://i.ytimg.com/vi/VpVvBqbOdGg/hq720.jpg"
        },
        {
            "id": "Xrf4wstOJP8",
            "title": "Peppa Pig in Hindi - Camping - हिंदी Kahaniya - Hindi Cartoons for Kids",
            "url": "https://www.youtube.com/watch?v=Xrf4wstOJP8",
            "duration": 3813.0,
            "view_count": 12066470,
            "uploader": "पेप्पा पिग हिंदी - आधिकारिक चैनल",
            "category": "cartoons/peppa_pig",
            "thumbnail": "https://i.ytimg.com/vi/Xrf4wstOJP8/hq720.jpg"
        },
        {
            "id": "LmpEEU0gT70",
            "title": "Peppa Pig in Hindi - Happy Diwali 🎉 हिंदी Kahaniya - Hindi Cartoons for Kids",
            "url": "https://www.youtube.com/watch?v=LmpEEU0gT70",
            "duration": 3947.0,
            "view_count": 38927995,
            "uploader": "पेप्पा पिग हिंदी - आधिकारिक चैनल",
            "category": "cartoons/peppa_pig",
            "thumbnail": "https://i.ytimg.com/vi/LmpEEU0gT70/hq720.jpg"
        },
        {
            "id": "iyH93V58Yl8",
            "title": "🔴  NEWEST Peppa Pig Episodes 2026 ✨ SEASON 10 Holiday Adventures ☀️ Kids Movie 🔴",
            "url": "https://www.youtube.com/watch?v=iyH93V58Yl8",
            "duration": 0,
            "view_count": 0,
            "uploader": "Peppa Pig - Official Channel",
            "category": "cartoons/peppa_pig",
            "thumbnail": "https://i.ytimg.com/vi/iyH93V58Yl8/hq720.jpg"
        },
        {
            "id": "caStJyYAy_E",
            "title": "🔴  NEWEST Peppa Pig Episodes 2026 ✨ SEASON 10 Holiday Adventures ☀️ Kids Movie 🔴",
            "url": "https://www.youtube.com/watch?v=caStJyYAy_E",
            "duration": 0,
            "view_count": 0,
            "uploader": "Peppa Pig - Official Channel",
            "category": "cartoons/peppa_pig",
            "thumbnail": "https://i.ytimg.com/vi/caStJyYAy_E/hq720.jpg"
        },
        {
            "id": "IfZyV6pUt4I",
            "title": "Peppa Pig NEW BABY EVIE Episodes LIVE 🍼 Cutest & Funniest Moments 🥹💛 Kids Cartoons",
            "url": "https://www.youtube.com/watch?v=IfZyV6pUt4I",
            "duration": 0,
            "view_count": 0,
            "uploader": "Peppa Pig - Official Channel",
            "category": "cartoons/peppa_pig",
            "thumbnail": "https://i.ytimg.com/vi/IfZyV6pUt4I/hq720.jpg"
        },
        {
            "id": "hDrdvHUX6y0",
            "title": "Peppa Pig NEW BABY EVIE Episodes LIVE 🍼 Cutest & Funniest Moments 🥹💛 Kids Cartoons",
            "url": "https://www.youtube.com/watch?v=hDrdvHUX6y0",
            "duration": 0,
            "view_count": 0,
            "uploader": "Peppa Pig - Official Channel",
            "category": "cartoons/peppa_pig",
            "thumbnail": "https://i.ytimg.com/vi/hDrdvHUX6y0/hq720.jpg"
        },
        {
            "id": "-fsK7fAuQxc",
            "title": "Peppa Pig in Hindi - Mithaee Kee Dukaan - हिंदी Kahaniya - Hindi Cartoons for Kids",
            "url": "https://www.youtube.com/watch?v=-fsK7fAuQxc",
            "duration": 7271.0,
            "view_count": 3483880,
            "uploader": "पेप्पा पिग हिंदी - आधिकारिक चैनल",
            "category": "cartoons/peppa_pig",
            "thumbnail": "https://i.ytimg.com/vi/-fsK7fAuQxc/hq720.jpg"
        }
    ]
}