{
    "page": 78,
    "total_pages": 103,
    "total_items": 5125,
    "items": [
        {
            "id": "8W2Pw1DBSmc",
            "title": "🔴 LIVE | Motu Patlu & The Race To The Diamond Valley 💎 | Full Movie Adventure | Kids Cartoon Live",
            "url": "https://www.youtube.com/watch?v=8W2Pw1DBSmc",
            "duration": 0,
            "view_count": 0,
            "uploader": "Wow Kidz Comedy",
            "category": "cartoons/motu_patlu",
            "thumbnail": "https://i.ytimg.com/vi/8W2Pw1DBSmc/hq720.jpg"
        },
        {
            "id": "qa61K2UF7ac",
            "title": "मुँह से ना, ना निकले | Motu Patlu Punjab Special | Motu Patlu | मोटू पतलू",
            "url": "https://www.youtube.com/watch?v=qa61K2UF7ac",
            "duration": 1339.0,
            "view_count": 111267,
            "uploader": "Sonic Gang",
            "category": "cartoons/motu_patlu",
            "thumbnail": "https://i.ytimg.com/vi/qa61K2UF7ac/hq720.jpg"
        },
        {
            "id": "g7wT0RpIeok",
            "title": "Motu Patlu Cartoon in Hindi | Picnic Party | S10 | New Cartoon | Hindi Cartoon",
            "url": "https://www.youtube.com/watch?v=g7wT0RpIeok",
            "duration": 642.0,
            "view_count": 17775560,
            "uploader": "Wow Kidz Comedy",
            "category": "cartoons/motu_patlu",
            "thumbnail": "https://i.ytimg.com/vi/g7wT0RpIeok/hq720.jpg"
        },
        {
            "id": "esoxTsYnR9U",
            "title": "बड़े बड़े बाज़ों की फ़ौज से सामना | Motu Patlu Punjab Special | Motu Patlu | मोटू पतलू",
            "url": "https://www.youtube.com/watch?v=esoxTsYnR9U",
            "duration": 1333.0,
            "view_count": 726963,
            "uploader": "Sonic Gang",
            "category": "cartoons/motu_patlu",
            "thumbnail": "https://i.ytimg.com/vi/esoxTsYnR9U/hq720.jpg"
        },
        {
            "id": "6knUAamJykI",
            "title": "🛑 LIVE - Non Stop Motu - Patlu | मोटू पतलू | Motu Patlu Punjab Special | #motupatlu #motupatlukijodi",
            "url": "https://www.youtube.com/watch?v=6knUAamJykI",
            "duration": 5329.0,
            "view_count": 145803,
            "uploader": "Sonic Gang",
            "category": "cartoons/motu_patlu",
            "thumbnail": "https://i.ytimg.com/vi/6knUAamJykI/hq720.jpg"
        },
        {
            "id": "qF6Cldh102U",
            "title": "Motu की जादुई अंगूठी | Motu Patlu Punjab Special | Motu Patlu | मोटू पतलू",
            "url": "https://www.youtube.com/watch?v=qF6Cldh102U",
            "duration": 1349.0,
            "view_count": 933563,
            "uploader": "Sonic Gang",
            "category": "cartoons/motu_patlu",
            "thumbnail": "https://i.ytimg.com/vi/qF6Cldh102U/hq720.jpg"
        },
        {
            "id": "uTZYkai9P28",
            "title": "Chingum Sir के Clones | Motu Patlu Punjab Special | Motu Patlu | मोटू पतलू",
            "url": "https://www.youtube.com/watch?v=uTZYkai9P28",
            "duration": 1285.0,
            "view_count": 11351,
            "uploader": "Sonic Gang",
            "category": "cartoons/motu_patlu",
            "thumbnail": "https://i.ytimg.com/vi/uTZYkai9P28/hq720.jpg"
        },
        {
            "id": "30sGQqZKBYw",
            "title": "समोसे की Vending Machine | Motu Patlu Punjab Special | Motu Patlu | मोटू पतलू",
            "url": "https://www.youtube.com/watch?v=30sGQqZKBYw",
            "duration": 1288.0,
            "view_count": 1427132,
            "uploader": "Sonic Gang",
            "category": "cartoons/motu_patlu",
            "thumbnail": "https://i.ytimg.com/vi/30sGQqZKBYw/hq720.jpg"
        },
        {
            "id": "mTBRR03ZKqc",
            "title": "Motu हो रहा है Confuse | Motu Patlu Punjab Special | Motu Patlu | मोटू पतलू",
            "url": "https://www.youtube.com/watch?v=mTBRR03ZKqc",
            "duration": 1315.0,
            "view_count": 131268,
            "uploader": "Sonic Gang",
            "category": "cartoons/motu_patlu",
            "thumbnail": "https://i.ytimg.com/vi/mTBRR03ZKqc/hq720.jpg"
        },
        {
            "id": "oKmxfc-U8NA",
            "title": "John की मदद करेंगे Scientist Maddie | Motu Patlu Rajasthan Special | Motu Patlu | मोटू पतलू",
            "url": "https://www.youtube.com/watch?v=oKmxfc-U8NA",
            "duration": 1299.0,
            "view_count": 5760695,
            "uploader": "Sonic Gang",
            "category": "cartoons/motu_patlu",
            "thumbnail": "https://i.ytimg.com/vi/oKmxfc-U8NA/hq720.jpg"
        },
        {
            "id": "fxAQ7FwS4vI",
            "title": "John के हाथ लगा एक ज़बरदस्त Remote Control | Motu Patlu Rajasthan Special | Motu Patlu | मोटू पतलू",
            "url": "https://www.youtube.com/watch?v=fxAQ7FwS4vI",
            "duration": 1279.0,
            "view_count": 12402,
            "uploader": "Sonic Gang",
            "category": "cartoons/motu_patlu",
            "thumbnail": "https://i.ytimg.com/vi/fxAQ7FwS4vI/hq720.jpg"
        },
        {
            "id": "qKmfGkxjGRk",
            "title": "Motu के पैर रुक ही नहीं रहे | Motu Patlu Punjab Special | Motu Patlu | मोटू पतलू",
            "url": "https://www.youtube.com/watch?v=qKmfGkxjGRk",
            "duration": 1316.0,
            "view_count": 20572,
            "uploader": "Sonic Gang",
            "category": "cartoons/motu_patlu",
            "thumbnail": "https://i.ytimg.com/vi/qKmfGkxjGRk/hq720.jpg"
        },
        {
            "id": "VnZGz4KDCUI",
            "title": "Patlu का bad luck | Motu Patlu Punjab Special | Motu Patlu | मोटू पतलू",
            "url": "https://www.youtube.com/watch?v=VnZGz4KDCUI",
            "duration": 1235.0,
            "view_count": 373979,
            "uploader": "Sonic Gang",
            "category": "cartoons/motu_patlu",
            "thumbnail": "https://i.ytimg.com/vi/VnZGz4KDCUI/hq720.jpg"
        },
        {
            "id": "OtuObi5z5EY",
            "title": "क्या Boxer भाई की याददाश्त गुल हो गयी है? | Motu Patlu Rajasthan Special | Motu Patlu | मोटू पतलू",
            "url": "https://www.youtube.com/watch?v=OtuObi5z5EY",
            "duration": 1270.0,
            "view_count": 31386,
            "uploader": "Sonic Gang",
            "category": "cartoons/motu_patlu",
            "thumbnail": "https://i.ytimg.com/vi/OtuObi5z5EY/hq720.jpg"
        },
        {
            "id": "9T93Kdwf11Q",
            "title": "कौन बनेगा बहादुर Number 1 | Motu Patlu Rajasthan Special | Motu Patlu | मोटू पतलू",
            "url": "https://www.youtube.com/watch?v=9T93Kdwf11Q",
            "duration": 1194.0,
            "view_count": 13742,
            "uploader": "Sonic Gang",
            "category": "cartoons/motu_patlu",
            "thumbnail": "https://i.ytimg.com/vi/9T93Kdwf11Q/hq720.jpg"
        },
        {
            "id": "5LdpGX6-x8Q",
            "title": "John को मिला Virus का Universal Remote Motu Patlu पर टूटा कहर | Motu Patlu Punjab Special |मोटू पतलू",
            "url": "https://www.youtube.com/watch?v=5LdpGX6-x8Q",
            "duration": 3861.0,
            "view_count": 1132136,
            "uploader": "Sonic Gang",
            "category": "cartoons/motu_patlu",
            "thumbnail": "https://i.ytimg.com/vi/5LdpGX6-x8Q/hq720.jpg"
        },
        {
            "id": "ZoHXOcd329A",
            "title": "क्या Motu हैं एक Alien? | Motu Patlu Punjab Special | Motu Patlu | मोटू पतलू",
            "url": "https://www.youtube.com/watch?v=ZoHXOcd329A",
            "duration": 1311.0,
            "view_count": 1349117,
            "uploader": "Sonic Gang",
            "category": "cartoons/motu_patlu",
            "thumbnail": "https://i.ytimg.com/vi/ZoHXOcd329A/hq720.jpg"
        },
        {
            "id": "Z3nvx8HOEF4",
            "title": "Motu Patlu Ka Goa Dhamaal Movie | Full New Movie 2026 | Motu Patlu",
            "url": "https://www.youtube.com/watch?v=Z3nvx8HOEF4",
            "duration": 2576.0,
            "view_count": 1771965,
            "uploader": "Kidz Gang",
            "category": "cartoons/motu_patlu",
            "thumbnail": "https://i.ytimg.com/vi/Z3nvx8HOEF4/hqdefault.jpg"
        },
        {
            "id": "m3jSiYSpmsg",
            "title": "Motu ने सीख ली हलवाई बनने की शुरुवात | Motu-Patlu",
            "url": "https://www.youtube.com/watch?v=m3jSiYSpmsg",
            "duration": 1340.0,
            "view_count": 13596522,
            "uploader": "Sonic Gang Motu Patlu ",
            "category": "cartoons/motu_patlu",
            "thumbnail": "https://i.ytimg.com/vi/m3jSiYSpmsg/hq720.jpg"
        },
        {
            "id": "ZuVInLjL03E",
            "title": "मुकुट चुराने का John का प्लान | Motu Patlu Punjab Special | Motu Patlu | मोटू पतलू",
            "url": "https://www.youtube.com/watch?v=ZuVInLjL03E",
            "duration": 1388.0,
            "view_count": 11586,
            "uploader": "JioHotstar Kids",
            "category": "cartoons/motu_patlu",
            "thumbnail": "https://i.ytimg.com/vi/ZuVInLjL03E/hq720.jpg"
        },
        {
            "id": "vb3Zz_yMLh4",
            "title": "Motu भाई MBBS | Motu Patlu Rajasthan Special | Motu Patlu | मोटू पतलू",
            "url": "https://www.youtube.com/watch?v=vb3Zz_yMLh4",
            "duration": 1233.0,
            "view_count": 90732,
            "uploader": "Sonic Gang",
            "category": "cartoons/motu_patlu",
            "thumbnail": "https://i.ytimg.com/vi/vb3Zz_yMLh4/hq720.jpg"
        },
        {
            "id": "tXTm4khFYUM",
            "title": "Motu Patlu : Motu Par Hua Attack | Winter Special | Hindi Cartoon Motu Patlu",
            "url": "https://www.youtube.com/watch?v=tXTm4khFYUM",
            "duration": 1329.0,
            "view_count": 54963,
            "uploader": "Motu Patlu",
            "category": "cartoons/motu_patlu",
            "thumbnail": "https://i.ytimg.com/vi/tXTm4khFYUM/hq720.jpg"
        },
        {
            "id": "rsHozNMgdfs",
            "title": "Judge बनकर Motu निकाल रहा है Order | Motu Patlu Rajasthan Special | Motu Patlu | मोटू पतलू",
            "url": "https://www.youtube.com/watch?v=rsHozNMgdfs",
            "duration": 1254.0,
            "view_count": 6654,
            "uploader": "Sonic Gang",
            "category": "cartoons/motu_patlu",
            "thumbnail": "https://i.ytimg.com/vi/rsHozNMgdfs/hq720.jpg"
        },
        {
            "id": "pOfFGowIfJo",
            "title": "Weather Laptop गायब... Motu भिड़ा Yamaraj से | Motu Patlu Rajasthan Special | Motu Patlu | मोटू पतलू",
            "url": "https://www.youtube.com/watch?v=pOfFGowIfJo",
            "duration": 3791.0,
            "view_count": 1338488,
            "uploader": "Sonic Gang",
            "category": "cartoons/motu_patlu",
            "thumbnail": "https://i.ytimg.com/vi/pOfFGowIfJo/hq720.jpg"
        },
        {
            "id": "bkW0_wn_vAg",
            "title": "John ने चुराया Dr Jhatka का Gadget | Motu Patlu Punjab Special | Motu Patlu | मोटू पतलू",
            "url": "https://www.youtube.com/watch?v=bkW0_wn_vAg",
            "duration": 1331.0,
            "view_count": 237190,
            "uploader": "Sonic Gang",
            "category": "cartoons/motu_patlu",
            "thumbnail": "https://i.ytimg.com/vi/bkW0_wn_vAg/hq720.jpg"
        },
        {
            "id": "QRDlTrceavQ",
            "title": "क्या Motu Patlu करते हैं फालतूगिरी? | Motu Patlu Rajasthan Special | Motu Patlu | मोटू पतलू",
            "url": "https://www.youtube.com/watch?v=QRDlTrceavQ",
            "duration": 1285.0,
            "view_count": 92455,
            "uploader": "Sonic Gang",
            "category": "cartoons/motu_patlu",
            "thumbnail": "https://i.ytimg.com/vi/QRDlTrceavQ/hq720.jpg"
        },
        {
            "id": "xcmhtlzxbkM",
            "title": "Dr Jhatka की Smart M1$$1Le | Motu Patlu Punjab Special | Motu Patlu | मोटू पतलू",
            "url": "https://www.youtube.com/watch?v=xcmhtlzxbkM",
            "duration": 1220.0,
            "view_count": 120563,
            "uploader": "JioHotstar Kids",
            "category": "cartoons/motu_patlu",
            "thumbnail": "https://i.ytimg.com/vi/xcmhtlzxbkM/hq720.jpg"
        },
        {
            "id": "G1eKuyGHl4I",
            "title": "जब Motu सब भूल गया... Patlu ले गया Dr. Jatka के पास | Motu Patlu | मोटू पतलू",
            "url": "https://www.youtube.com/watch?v=G1eKuyGHl4I",
            "duration": 3878.0,
            "view_count": 4154738,
            "uploader": "Sonic Gang",
            "category": "cartoons/motu_patlu",
            "thumbnail": "https://i.ytimg.com/vi/G1eKuyGHl4I/hq720.jpg"
        },
        {
            "id": "22OggyQQGaA",
            "title": "Blue Diamond गायब! अब Motu Patlu ही बचा सकते हैं! | Motu Patlu | मोटू पतलू",
            "url": "https://www.youtube.com/watch?v=22OggyQQGaA",
            "duration": 4024.0,
            "view_count": 814388,
            "uploader": "Sonic Gang",
            "category": "cartoons/motu_patlu",
            "thumbnail": "https://i.ytimg.com/vi/22OggyQQGaA/hq720.jpg"
        },
        {
            "id": "bORYMtB9olc",
            "title": "Motu & Patlu को मिला एक risky painting assignment | Motu Patlu Punjab Special | मोटू पतलू",
            "url": "https://www.youtube.com/watch?v=bORYMtB9olc",
            "duration": 3902.0,
            "view_count": 917959,
            "uploader": "Sonic Gang",
            "category": "cartoons/motu_patlu",
            "thumbnail": "https://i.ytimg.com/vi/bORYMtB9olc/hq720.jpg"
        },
        {
            "id": "KR6pRuY9mbA",
            "title": "चूहों की दुनिया | Motu Patlu Punjab Special | Motu Patlu | मोटू पतलू",
            "url": "https://www.youtube.com/watch?v=KR6pRuY9mbA",
            "duration": 1263.0,
            "view_count": 1494431,
            "uploader": "Sonic Gang",
            "category": "cartoons/motu_patlu",
            "thumbnail": "https://i.ytimg.com/vi/KR6pRuY9mbA/hq720.jpg"
        },
        {
            "id": "oDr5PLzHFaM",
            "title": "Motu के Teddy Bear के पास हैं उसके Secrets | Motu Patlu Punjab Special | Motu Patlu | मोटू पतलू",
            "url": "https://www.youtube.com/watch?v=oDr5PLzHFaM",
            "duration": 3861.0,
            "view_count": 574958,
            "uploader": "Sonic Gang",
            "category": "cartoons/motu_patlu",
            "thumbnail": "https://i.ytimg.com/vi/oDr5PLzHFaM/hq720.jpg"
        },
        {
            "id": "JBPUSxVpctc",
            "title": "Motu Patlu : Motu Patlu Bane Boss | Winter Special | Hindi Cartoon Motu Patlu",
            "url": "https://www.youtube.com/watch?v=JBPUSxVpctc",
            "duration": 1349.0,
            "view_count": 666381,
            "uploader": "Motu Patlu",
            "category": "cartoons/motu_patlu",
            "thumbnail": "https://i.ytimg.com/vi/JBPUSxVpctc/hq720.jpg"
        },
        {
            "id": "rH2P_Jq9k4k",
            "title": "फिसलते फिसलते नहीं, रुक पता हूँ में! | Motu Patlu Rajasthan Special | Motu Patlu | मोटू पतलू",
            "url": "https://www.youtube.com/watch?v=rH2P_Jq9k4k",
            "duration": 1345.0,
            "view_count": 41868,
            "uploader": "Sonic Gang",
            "category": "cartoons/motu_patlu",
            "thumbnail": "https://i.ytimg.com/vi/rH2P_Jq9k4k/hq720.jpg"
        },
        {
            "id": "8NI9h7gpjCI",
            "title": "Motu का मुक़ाबला Robots से! | Motu Patlu Rajasthan Special | Motu Patlu | मोटू पतलू",
            "url": "https://www.youtube.com/watch?v=8NI9h7gpjCI",
            "duration": 1357.0,
            "view_count": 24529,
            "uploader": "Sonic Gang",
            "category": "cartoons/motu_patlu",
            "thumbnail": "https://i.ytimg.com/vi/8NI9h7gpjCI/hq720.jpg"
        },
        {
            "id": "xHARyshugwY",
            "title": "Motu की Non-Stop Cycling | Motu Patlu Punjab Special | Motu Patlu | मोटू पतलू",
            "url": "https://www.youtube.com/watch?v=xHARyshugwY",
            "duration": 1294.0,
            "view_count": 1755950,
            "uploader": "Sonic Gang",
            "category": "cartoons/motu_patlu",
            "thumbnail": "https://i.ytimg.com/vi/xHARyshugwY/hq720.jpg"
        },
        {
            "id": "xcM2WO_Uym0",
            "title": "🛑 LIVE - Non Stop Motu -Patlu | मोटू पतलू|Motu Patlu Rajasthan Special| #motupatlu #motupatlukijodi",
            "url": "https://www.youtube.com/watch?v=xcM2WO_Uym0",
            "duration": 5084.0,
            "view_count": 145929,
            "uploader": "Sonic Gang",
            "category": "cartoons/motu_patlu",
            "thumbnail": "https://i.ytimg.com/vi/xcM2WO_Uym0/hq720.jpg"
        },
        {
            "id": "RyIfcEf95o0",
            "title": "Motu Patlu बने Wedding Managers, John करेगा गड़बड़ | Motu Patlu Punjab Special मोटू पतलू",
            "url": "https://www.youtube.com/watch?v=RyIfcEf95o0",
            "duration": 3877.0,
            "view_count": 749872,
            "uploader": "Sonic Gang",
            "category": "cartoons/motu_patlu",
            "thumbnail": "https://i.ytimg.com/vi/RyIfcEf95o0/hq720.jpg"
        },
        {
            "id": "9vJxwquOlaE",
            "title": "Carnival Island में MotuPatlu की मस्ती! | Motu Patlu in Carnival Island | Motu Patlu Punjab special",
            "url": "https://www.youtube.com/watch?v=9vJxwquOlaE",
            "duration": 1450.0,
            "view_count": 1505652,
            "uploader": "Sonic Gang Hindi Movies",
            "category": "cartoons/motu_patlu",
            "thumbnail": "https://i.ytimg.com/vi/9vJxwquOlaE/hq720.jpg"
        },
        {
            "id": "4JBoFMun8ds",
            "title": "Furfuri Nagar में गलत Hero बन गए Motu Patlu | Motu Patlu Rajasthan Special | Motu Patlu | मोटू पतलू",
            "url": "https://www.youtube.com/watch?v=4JBoFMun8ds",
            "duration": 3916.0,
            "view_count": 643998,
            "uploader": "Sonic Gang",
            "category": "cartoons/motu_patlu",
            "thumbnail": "https://i.ytimg.com/vi/4JBoFMun8ds/hq720.jpg"
        },
        {
            "id": "0tiacz24MU0",
            "title": "Motu Patlu और काली पहाड़ी का खज़ाना | Motu Patlu | मोटू पतलू",
            "url": "https://www.youtube.com/watch?v=0tiacz24MU0",
            "duration": 1355.0,
            "view_count": 8044274,
            "uploader": "Sonic Gang",
            "category": "cartoons/motu_patlu",
            "thumbnail": "https://i.ytimg.com/vi/0tiacz24MU0/hq720.jpg"
        },
        {
            "id": "Ab8Ofz7U-cc",
            "title": "काली पहाड़ी का खज़ाना | Motu Patlu Punjab Special | Motu Patlu | मोटू पतलू",
            "url": "https://www.youtube.com/watch?v=Ab8Ofz7U-cc",
            "duration": 1364.0,
            "view_count": 1515736,
            "uploader": "JioHotstar Kids",
            "category": "cartoons/motu_patlu",
            "thumbnail": "https://i.ytimg.com/vi/Ab8Ofz7U-cc/hq720.jpg"
        },
        {
            "id": "sd1LSUUdFf8",
            "title": "Motu Patlu   मोटू पतलू   Episode 52   Cricket League",
            "url": "https://www.youtube.com/watch?v=sd1LSUUdFf8",
            "duration": 763.0,
            "view_count": 17379542,
            "uploader": "JioHotstar Kids",
            "category": "cartoons/motu_patlu",
            "thumbnail": "https://i.ytimg.com/vi/sd1LSUUdFf8/hq720.jpg"
        },
        {
            "id": "xT5wLEesY14",
            "title": "सख़्त Action से हिला शहर, Motu & Patlu पर उठे सवाल | Motu Patlu | मोटू पतलू",
            "url": "https://www.youtube.com/watch?v=xT5wLEesY14",
            "duration": 3864.0,
            "view_count": 4801625,
            "uploader": "Sonic Gang",
            "category": "cartoons/motu_patlu",
            "thumbnail": "https://i.ytimg.com/vi/xT5wLEesY14/hq720.jpg"
        },
        {
            "id": "TqitlwXP5Z0",
            "title": "Motu Patlu की Taxi सेवा | Motu Patlu Punjab Special | Motu Patlu | मोटू पतलू",
            "url": "https://www.youtube.com/watch?v=TqitlwXP5Z0",
            "duration": 1308.0,
            "view_count": 312328,
            "uploader": "Sonic Gang",
            "category": "cartoons/motu_patlu",
            "thumbnail": "https://i.ytimg.com/vi/TqitlwXP5Z0/hq720.jpg"
        },
        {
            "id": "IbCNBPjjDGc",
            "title": "Motu Patlu ने Puppies को बचाया | Motu Patlu Punjab Special | Motu Patlu | मोटू पतलू",
            "url": "https://www.youtube.com/watch?v=IbCNBPjjDGc",
            "duration": 1286.0,
            "view_count": 6104956,
            "uploader": "Sonic Gang",
            "category": "cartoons/motu_patlu",
            "thumbnail": "https://i.ytimg.com/vi/IbCNBPjjDGc/hq720.jpg"
        },
        {
            "id": "V8VdIaZFrzw",
            "title": "Motu Patlu : Motu Patlu Ke Gang Par Aaya Fire Man Ka Khatra  Winter Special Hindi Cartoon Motu Patlu",
            "url": "https://www.youtube.com/watch?v=V8VdIaZFrzw",
            "duration": 1323.0,
            "view_count": 17596,
            "uploader": "Motu Patlu",
            "category": "cartoons/motu_patlu",
            "thumbnail": "https://i.ytimg.com/vi/V8VdIaZFrzw/hq720.jpg"
        },
        {
            "id": "bQZQjJ7-Dj4",
            "title": "John की Invisible लाठी | Motu Patlu Rajasthan Special | Motu Patlu | मोटू पतलू",
            "url": "https://www.youtube.com/watch?v=bQZQjJ7-Dj4",
            "duration": 1294.0,
            "view_count": 10284,
            "uploader": "Sonic Gang",
            "category": "cartoons/motu_patlu",
            "thumbnail": "https://i.ytimg.com/vi/bQZQjJ7-Dj4/hq720.jpg"
        },
        {
            "id": "Yb5ki6jvqFk",
            "title": "Motu Patlu : Motu Ke Dost Ko Kya Hua Hai? | Winter Special | Hindi Cartoon Motu Patlu",
            "url": "https://www.youtube.com/watch?v=Yb5ki6jvqFk",
            "duration": 1345.0,
            "view_count": 76782,
            "uploader": "Motu Patlu",
            "category": "cartoons/motu_patlu",
            "thumbnail": "https://i.ytimg.com/vi/Yb5ki6jvqFk/hq720.jpg"
        },
        {
            "id": "4_-iCM4Urvo",
            "title": "🛑 LIVE - Non Stop Motu - Patlu | मोटू पतलू | Motu Patlu Punjab Special | #motupatlu #motupatlukijodi",
            "url": "https://www.youtube.com/watch?v=4_-iCM4Urvo",
            "duration": 5039.0,
            "view_count": 35753,
            "uploader": "Sonic Gang",
            "category": "cartoons/motu_patlu",
            "thumbnail": "https://i.ytimg.com/vi/4_-iCM4Urvo/hq720.jpg"
        }
    ]
}