{
    "page": 3,
    "total_pages": 103,
    "total_items": 5125,
    "items": [
        {
            "id": "HccXDZMD-Js",
            "title": "Anywhere But Here | English Full Movie | Comedy Drama",
            "url": "https://www.youtube.com/watch?v=HccXDZMD-Js",
            "duration": 6479.0,
            "view_count": 654677,
            "uploader": "Drama Vision",
            "category": "english",
            "thumbnail": "https://i.ytimg.com/vi/HccXDZMD-Js/hq720.jpg"
        },
        {
            "id": "X4WD2Y-x9us",
            "title": "🎬 This FILM will appeal to all fans of BRUTAL SURVIVAL THRILLERS! 😱 Watch in English 👆",
            "url": "https://www.youtube.com/watch?v=X4WD2Y-x9us",
            "duration": 4948.0,
            "view_count": 154057,
            "uploader": "FILMDOMINION",
            "category": "english",
            "thumbnail": "https://i.ytimg.com/vi/X4WD2Y-x9us/hq720.jpg"
        },
        {
            "id": "WbV4bE75FbM",
            "title": "They Came Without Warning… | Sci-Fi Action Thriller | Full Movie",
            "url": "https://www.youtube.com/watch?v=WbV4bE75FbM",
            "duration": 4969.0,
            "view_count": 1382091,
            "uploader": "Movie union",
            "category": "english",
            "thumbnail": "https://i.ytimg.com/vi/WbV4bE75FbM/hq720.jpg"
        },
        {
            "id": "ptrCBlS6cw4",
            "title": "The Substitute | THRILLER | Full Movie",
            "url": "https://www.youtube.com/watch?v=ptrCBlS6cw4",
            "duration": 6646.0,
            "view_count": 4749029,
            "uploader": "Boxoffice | 4K Full Movies",
            "category": "english",
            "thumbnail": "https://i.ytimg.com/vi/ptrCBlS6cw4/hq720.jpg"
        },
        {
            "id": "nHNBA2AHMLo",
            "title": "The New Girl's Secret | TEEN | Full Movie in English",
            "url": "https://www.youtube.com/watch?v=nHNBA2AHMLo",
            "duration": 5545.0,
            "view_count": 1930193,
            "uploader": "Boxoffice | TEENS | Full Movies",
            "category": "english",
            "thumbnail": "https://i.ytimg.com/vi/nHNBA2AHMLo/hq720.jpg"
        },
        {
            "id": "5qYgILod8u8",
            "title": "🎬 We Guarantee This Adventure Movie Will Definitely Win You Over! 🔥 Watch Online 👆",
            "url": "https://www.youtube.com/watch?v=5qYgILod8u8",
            "duration": 5471.0,
            "view_count": 57476,
            "uploader": "FILMDOMINION",
            "category": "english",
            "thumbnail": "https://i.ytimg.com/vi/5qYgILod8u8/hq720.jpg"
        },
        {
            "id": "sU6wC6FC72U",
            "title": "THE GANGSTER - Hollywood Movie | Jason Statham & Mark Strong | Blockbuster Full Action English Movie",
            "url": "https://www.youtube.com/watch?v=sU6wC6FC72U",
            "duration": 5401.0,
            "view_count": 42938401,
            "uploader": "Hollywood Action",
            "category": "english",
            "thumbnail": "https://i.ytimg.com/vi/sU6wC6FC72U/hq720.jpg"
        },
        {
            "id": "R4TZ6r_af8A",
            "title": "Family Heist | Terry Crews (Brooklyn 99), Retta (Good GIrls) | COMEDY | Full Movie in English",
            "url": "https://www.youtube.com/watch?v=R4TZ6r_af8A",
            "duration": 5015.0,
            "view_count": 21587805,
            "uploader": "Boxoffice | COMEDIES | Full Movies",
            "category": "english",
            "thumbnail": "https://i.ytimg.com/vi/R4TZ6r_af8A/hq720.jpg"
        },
        {
            "id": "AOLSfr7fucU",
            "title": "He got out of prison and became the king of the streets! | Action, Crime | Full Movie",
            "url": "https://www.youtube.com/watch?v=AOLSfr7fucU",
            "duration": 4391.0,
            "view_count": 2142676,
            "uploader": "Movie union",
            "category": "english",
            "thumbnail": "https://i.ytimg.com/vi/AOLSfr7fucU/hq720.jpg"
        },
        {
            "id": "EBkg3Uigbeo",
            "title": "THE ROBBERY - Ryan Reynolds In Hollywood English Movie | Blockbuster Heist Action English Full Movie",
            "url": "https://www.youtube.com/watch?v=EBkg3Uigbeo",
            "duration": 5197.0,
            "view_count": 6907140,
            "uploader": "Hollywood Action",
            "category": "english",
            "thumbnail": "https://i.ytimg.com/vi/EBkg3Uigbeo/hq720.jpg"
        },
        {
            "id": "-MWJprv1mhg",
            "title": "Pacific Predator | Sci-Fi Action | Full movie in English",
            "url": "https://www.youtube.com/watch?v=-MWJprv1mhg",
            "duration": 5112.0,
            "view_count": 733803,
            "uploader": "Movies Stability",
            "category": "english",
            "thumbnail": "https://i.ytimg.com/vi/-MWJprv1mhg/hqdefault.jpg"
        },
        {
            "id": "At22J0U4bGU",
            "title": "HOSTAGE NIGHT: THE WRONG MAN ANSWERED THE CALL | Full Action Movie | English",
            "url": "https://www.youtube.com/watch?v=At22J0U4bGU",
            "duration": 5334.0,
            "view_count": 84229,
            "uploader": "ActionVault",
            "category": "english",
            "thumbnail": "https://i.ytimg.com/vi/At22J0U4bGU/hq720.jpg"
        },
        {
            "id": "37mDWZJXuuY",
            "title": "Liam Neeson In TAKEN IDENTITY - Hollywood Movie | Superhit Action Thriller Full Movie In English HD",
            "url": "https://www.youtube.com/watch?v=37mDWZJXuuY",
            "duration": 6226.0,
            "view_count": 3376232,
            "uploader": "Blockbuster English Movies",
            "category": "english",
            "thumbnail": "https://i.ytimg.com/vi/37mDWZJXuuY/hq720.jpg"
        },
        {
            "id": "iI3MxONFtYI",
            "title": "A Shocking Survival Story! | SNAKE CREEK | Full Movie in English",
            "url": "https://www.youtube.com/watch?v=iI3MxONFtYI",
            "duration": 4571.0,
            "view_count": 5878554,
            "uploader": "Dark Frame",
            "category": "english",
            "thumbnail": "https://i.ytimg.com/vi/iI3MxONFtYI/hq720.jpg?sqp=-oaymwEcCNAFEJQDSFXyq4qpAw4IARUAAIhCGAFwAcABBg==&rs=AOn4CLBnWNDgYfth3suLCdkuyMDBeHQqWg",
            "added_date": "2026-04-16T07:31:04.237245Z",
            "source": "youtube"
        },
        {
            "id": "1r1q4p-QLqQ",
            "title": "Crime Action Movie | The Killer Who Lost Control! | Full Movie in English",
            "url": "https://www.youtube.com/watch?v=1r1q4p-QLqQ",
            "duration": 4725.0,
            "view_count": 1097113,
            "uploader": "Movie union",
            "category": "english",
            "thumbnail": "https://i.ytimg.com/vi/1r1q4p-QLqQ/hq720.jpg"
        },
        {
            "id": "4D9Au64Mp6o",
            "title": "Drunken Master - English Dubbed | Chinese Kung Fu Martial Arts Action Movie, Full Movie HD",
            "url": "https://www.youtube.com/watch?v=4D9Au64Mp6o",
            "duration": 4252.0,
            "view_count": 1588945,
            "uploader": "Moxi Movie English Official",
            "category": "english",
            "thumbnail": "https://i.ytimg.com/vi/4D9Au64Mp6o/hq720.jpg"
        },
        {
            "id": "5WkLqmClrDY",
            "title": "Don’t watch this movie at night — you won’t be able to handle it! | Horror Full Movie, Mystery 🎬",
            "url": "https://www.youtube.com/watch?v=5WkLqmClrDY",
            "duration": 6422.0,
            "view_count": 206119,
            "uploader": "Off Screen Lab",
            "category": "english",
            "thumbnail": "https://i.ytimg.com/vi/5WkLqmClrDY/hq720.jpg"
        },
        {
            "id": "RiBHutZ1-XM",
            "title": "The Magical Kingdom | FAMILY | Full Movie in English",
            "url": "https://www.youtube.com/watch?v=RiBHutZ1-XM",
            "duration": 5028.0,
            "view_count": 636357,
            "uploader": "MyMovies",
            "category": "english",
            "thumbnail": "https://i.ytimg.com/vi/RiBHutZ1-XM/hq720.jpg"
        },
        {
            "id": "XzveczHzMF4",
            "title": "Apocalypto part 2 Full Movie (2026) #apocalypse",
            "url": "https://www.youtube.com/watch?v=XzveczHzMF4",
            "duration": 6369.0,
            "view_count": 41740,
            "uploader": "Kabba Beauty",
            "category": "english",
            "thumbnail": "https://i.ytimg.com/vi/XzveczHzMF4/hqdefault.jpg"
        },
        {
            "id": "KsrALI7Pxc8",
            "title": "No Rules. No Fear. Just Action | Full Action Movie HD",
            "url": "https://www.youtube.com/watch?v=KsrALI7Pxc8",
            "duration": 5512.0,
            "view_count": 3252853,
            "uploader": "Ag Qara HD",
            "category": "english",
            "thumbnail": "https://i.ytimg.com/vi/KsrALI7Pxc8/hq720.jpg"
        },
        {
            "id": "Y5WncJVdbzQ",
            "title": "Mission SPY: New Action Movie | Jason Statham | Full Movie | 4K Ultra #actionmovies",
            "url": "https://www.youtube.com/watch?v=Y5WncJVdbzQ",
            "duration": 5004.0,
            "view_count": 3169899,
            "uploader": "Zero Hour",
            "category": "english",
            "thumbnail": "https://i.ytimg.com/vi/Y5WncJVdbzQ/hq720.jpg"
        },
        {
            "id": "GRrDPVK1SNE",
            "title": "IP MAN 5 - Full Hollywood Action English Movie | Chinese Movies In English | Samo Hung | Free Movies",
            "url": "https://www.youtube.com/watch?v=GRrDPVK1SNE",
            "duration": 5788.0,
            "view_count": 1934028,
            "uploader": "Telugu Hollywood Movies",
            "category": "english",
            "thumbnail": "https://i.ytimg.com/vi/GRrDPVK1SNE/hq720.jpg"
        },
        {
            "id": "p-c-aJS7CnQ",
            "title": "THE GLASS SHIELD | Ice Cube | Full movie in English HD | CRIME/THRILLER",
            "url": "https://www.youtube.com/watch?v=p-c-aJS7CnQ",
            "duration": 6253.0,
            "view_count": 515790,
            "uploader": "100% Movies - Full Movies in English",
            "category": "english",
            "thumbnail": "https://i.ytimg.com/vi/p-c-aJS7CnQ/hq720.jpg?sqp=-oaymwEcCNAFEJQDSFXyq4qpAw4IARUAAIhCGAFwAcABBg==&rs=AOn4CLD-LToG_wW_a6peIKXgD3ER3UdBfA",
            "added_date": "2026-04-16T07:31:03.235414Z",
            "source": "youtube"
        },
        {
            "id": "jaKvU3A28vY",
            "title": "English Vinglish | Superhit Full Hindi Movie | Sridevi, Adil Hussain, Mehdi Nebbou (HD)",
            "url": "https://www.youtube.com/watch?v=jaKvU3A28vY",
            "duration": 7700.0,
            "view_count": 4276771,
            "uploader": "Eros Universe Big Picture",
            "category": "hindi",
            "thumbnail": "https://i.ytimg.com/vi/jaKvU3A28vY/hq720.jpg"
        },
        {
            "id": "iUcZxcwaKQo",
            "title": "The Bounty Hunter - New Action Movie 2025 full movie english Action Movies 2025",
            "url": "https://www.youtube.com/watch?v=iUcZxcwaKQo",
            "duration": 5186.0,
            "view_count": 2202238,
            "uploader": "Mido HuSsein",
            "category": "english",
            "thumbnail": "https://i.ytimg.com/vi/iUcZxcwaKQo/hq720.jpg"
        },
        {
            "id": "L_IEXRVQAKg",
            "title": "Fathers & Daughters | Russell Crowe, Amanda Seyfried | DRAMA, ROMANCE | Full Movie in English",
            "url": "https://www.youtube.com/watch?v=L_IEXRVQAKg",
            "duration": 6773.0,
            "view_count": 954447,
            "uploader": "Boxoffice | NEW Full Movies in English",
            "category": "english",
            "thumbnail": "https://i.ytimg.com/vi/L_IEXRVQAKg/hq720.jpg"
        },
        {
            "id": "NUR14DCXUZk",
            "title": "Escape the Jungle Hell | ACTION | Full Movie in English",
            "url": "https://www.youtube.com/watch?v=NUR14DCXUZk",
            "duration": 4731.0,
            "view_count": 31799,
            "uploader": "Boxoffice | ACTION | Full Movies",
            "category": "english",
            "thumbnail": "https://i.ytimg.com/vi/NUR14DCXUZk/hq720.jpg"
        },
        {
            "id": "TmrloFLnaio",
            "title": "English Vinglish (HD) | Sridevi, Adil Hussain, Mehdi Nebbou | Full Hindi Movie",
            "url": "https://www.youtube.com/watch?v=TmrloFLnaio",
            "duration": 7700.0,
            "view_count": 11419227,
            "uploader": "Eros Universe Super Cinema",
            "category": "english",
            "thumbnail": "https://i.ytimg.com/vi/TmrloFLnaio/hq720.jpg?sqp=-oaymwEcCNAFEJQDSFXyq4qpAw4IARUAAIhCGAFwAcABBg==&rs=AOn4CLDgXZ-7K7FA63k2rgGNC6Sb6-VHIg",
            "added_date": "2026-04-16T07:31:03.435763Z",
            "source": "youtube"
        },
        {
            "id": "sx8pViXxZQg",
            "title": "Big Stan FULL MOVIE | Comedy Movies | Rob Schneider | The Midnight Screening",
            "url": "https://www.youtube.com/watch?v=sx8pViXxZQg",
            "duration": 5914.0,
            "view_count": 9188984,
            "uploader": "The Midnight Screening",
            "category": "english",
            "thumbnail": "https://i.ytimg.com/vi/sx8pViXxZQg/hq720.jpg"
        },
        {
            "id": "NYBjfZKKccI",
            "title": "THOR - Chris Hemsworth Is US MARINE | Hollywood Free English Movie | Full War Action English Movie",
            "url": "https://www.youtube.com/watch?v=NYBjfZKKccI",
            "duration": 5039.0,
            "view_count": 5392447,
            "uploader": "Hollywood English Collection",
            "category": "english",
            "thumbnail": "https://i.ytimg.com/vi/NYBjfZKKccI/hq720.jpg"
        },
        {
            "id": "kCVc4DWE1BM",
            "title": "War Machine (2026) Sci-Fi Action Thriller Movie in English HD | Full Movie Explained",
            "url": "https://www.youtube.com/watch?v=kCVc4DWE1BM",
            "duration": 6269.0,
            "view_count": 11348,
            "uploader": "The Flim Box",
            "category": "english",
            "thumbnail": "https://i.ytimg.com/vi/kCVc4DWE1BM/hq720.jpg"
        },
        {
            "id": "0YrxiyAl18M",
            "title": "The White Orchid | English Full Movie | Drama Mystery Thriller",
            "url": "https://www.youtube.com/watch?v=0YrxiyAl18M",
            "duration": 5073.0,
            "view_count": 478219,
            "uploader": "GEM: Film Library",
            "category": "english",
            "thumbnail": "https://i.ytimg.com/vi/0YrxiyAl18M/hq720.jpg"
        },
        {
            "id": "8__BLsrw3oQ",
            "title": "TRAZON : Angelina Jolie | New Action Movie 2026 | Full Movie 4K #actionmovies",
            "url": "https://www.youtube.com/watch?v=8__BLsrw3oQ",
            "duration": 6023.0,
            "view_count": 46043,
            "uploader": "Joy Drama",
            "category": "english",
            "thumbnail": "https://i.ytimg.com/vi/8__BLsrw3oQ/hq720.jpg"
        },
        {
            "id": "rKTaf-D7UhE",
            "title": "Relative Stranger | English Full Movie | Drama",
            "url": "https://www.youtube.com/watch?v=rKTaf-D7UhE",
            "duration": 5115.0,
            "view_count": 474366,
            "uploader": "Mirage Vision",
            "category": "english",
            "thumbnail": "https://i.ytimg.com/vi/rKTaf-D7UhE/hq720.jpg"
        },
        {
            "id": "pPrlLPVU7HQ",
            "title": "Leprechaun : Little Evil | HORROR | Full Movie",
            "url": "https://www.youtube.com/watch?v=pPrlLPVU7HQ",
            "duration": 4999.0,
            "view_count": 2774119,
            "uploader": "Boxoffice | NEW Full Movies in English",
            "category": "english",
            "thumbnail": "https://i.ytimg.com/vi/pPrlLPVU7HQ/hq720.jpg"
        },
        {
            "id": "7fztfSLT6uY",
            "title": "HONG KONG (2026) Donnie Yen | Full Action Movie - Thriller - Adventure | 4K HDR #actionmovies",
            "url": "https://www.youtube.com/watch?v=7fztfSLT6uY",
            "duration": 6700.0,
            "view_count": 13715,
            "uploader": "ZED Drama",
            "category": "english",
            "thumbnail": "https://i.ytimg.com/vi/7fztfSLT6uY/hq720.jpg"
        },
        {
            "id": "07uZfiI9gKg",
            "title": "FUTURE EARTH - Sylvester Stallone In Blockbuster Action Full Movie In English HD | Hollywood Movies",
            "url": "https://www.youtube.com/watch?v=07uZfiI9gKg",
            "duration": 4696.0,
            "view_count": 5039168,
            "uploader": "Blockbuster English Movies",
            "category": "english",
            "thumbnail": "https://i.ytimg.com/vi/07uZfiI9gKg/hq720.jpg"
        },
        {
            "id": "R6OPiACpA-Y",
            "title": "JAGUAR : Angelina Jolie | New Action Movie 2026 | Full Movie 4K #actionmovies",
            "url": "https://www.youtube.com/watch?v=R6OPiACpA-Y",
            "duration": 5834.0,
            "view_count": 795484,
            "uploader": "Joy Drama",
            "category": "english",
            "thumbnail": "https://i.ytimg.com/vi/R6OPiACpA-Y/hq720.jpg"
        },
        {
            "id": "F6CzDCFmqSw",
            "title": "The Devil Who Loved Her | HORROR | Full Movie in English",
            "url": "https://www.youtube.com/watch?v=F6CzDCFmqSw",
            "duration": 4893.0,
            "view_count": 20940,
            "uploader": "Boxoffice | HORROR | Full Movies",
            "category": "english",
            "thumbnail": "https://i.ytimg.com/vi/F6CzDCFmqSw/hq720.jpg"
        },
        {
            "id": "mN9Ei-txWnA",
            "title": "Born for Revenge | This Explosive Action Thriller Will Make Your Heart Race | Action English",
            "url": "https://www.youtube.com/watch?v=mN9Ei-txWnA",
            "duration": 5078.0,
            "view_count": 148375,
            "uploader": "FBX Films",
            "category": "english",
            "thumbnail": "https://i.ytimg.com/vi/mN9Ei-txWnA/hq720.jpg"
        },
        {
            "id": "qwMdE6qp1dk",
            "title": "DEGENERATES | COMEDY | Full Movie in English",
            "url": "https://www.youtube.com/watch?v=qwMdE6qp1dk",
            "duration": 6131.0,
            "view_count": 1997,
            "uploader": "Boxoffice | COMEDIES | Full Movies",
            "category": "english",
            "thumbnail": "https://i.ytimg.com/vi/qwMdE6qp1dk/hq720.jpg"
        },
        {
            "id": "qkiNFzP5A2o",
            "title": "Jason Statham In DOUBLE CROSS - Hollywood Movie | Free Movie | Blockbuster Full Action English Movie",
            "url": "https://www.youtube.com/watch?v=qkiNFzP5A2o",
            "duration": 6332.0,
            "view_count": 11070341,
            "uploader": "Hollywood English Collection",
            "category": "english",
            "thumbnail": "https://i.ytimg.com/vi/qkiNFzP5A2o/hq720.jpg"
        },
        {
            "id": "Yq2E8-ayC-0",
            "title": "The Brotherhood | FULL MOVIE | Vampire Teen Horror | Sam Page",
            "url": "https://www.youtube.com/watch?v=Yq2E8-ayC-0",
            "duration": 5101.0,
            "view_count": 7185,
            "uploader": "GREAT! Free Movies & Shows and Chroma",
            "category": "english",
            "thumbnail": "https://i.ytimg.com/vi/Yq2E8-ayC-0/hq720.jpg"
        },
        {
            "id": "2rKtEYpCye4",
            "title": "⚡ A movie that won’t let you sleep! 💥 Action-adventure, goosebumps guaranteed | Full Movie HD",
            "url": "https://www.youtube.com/watch?v=2rKtEYpCye4",
            "duration": 5894.0,
            "view_count": 4285210,
            "uploader": "Movies Anytime",
            "category": "english",
            "thumbnail": "https://i.ytimg.com/vi/2rKtEYpCye4/hq720.jpg"
        },
        {
            "id": "3DylQJD2pjc",
            "title": "Containment | Horror Thriller Sci-Fi | Full Movie",
            "url": "https://www.youtube.com/watch?v=3DylQJD2pjc",
            "duration": 4585.0,
            "view_count": 2547896,
            "uploader": "Plushollywood",
            "category": "english",
            "thumbnail": "https://i.ytimg.com/vi/3DylQJD2pjc/hq720.jpg"
        },
        {
            "id": "WCj0Wi3f8II",
            "title": "1408 (2007) | Full Movie | John Cusack, Samuel L. Jackson, Mary McCormack, Tony Shalhoub",
            "url": "https://www.youtube.com/watch?v=WCj0Wi3f8II",
            "duration": 6752.0,
            "view_count": 322316,
            "uploader": "Lionsgate Movies",
            "category": "english",
            "thumbnail": "https://i.ytimg.com/vi/WCj0Wi3f8II/hq720.jpg"
        },
        {
            "id": "dH6NAYLLXuk",
            "title": "The best true story film that inspired thousands of people! | Full movie in English",
            "url": "https://www.youtube.com/watch?v=dH6NAYLLXuk",
            "duration": 6169.0,
            "view_count": 2929460,
            "uploader": "Movie union",
            "category": "english",
            "thumbnail": "https://i.ytimg.com/vi/dH6NAYLLXuk/hq720.jpg"
        },
        {
            "id": "MNr4UzKCUgQ",
            "title": "THE LAST TOMB | Morgan Freeman- JASON STATHAM | Full Action Movie 2025 | New Movie | 🔥🔥",
            "url": "https://www.youtube.com/watch?v=MNr4UzKCUgQ",
            "duration": 8127.0,
            "view_count": 1594826,
            "uploader": "دراما توداي - Drama today",
            "category": "english",
            "thumbnail": "https://i.ytimg.com/vi/MNr4UzKCUgQ/hqdefault.jpg"
        },
        {
            "id": "STB0BquJy8k",
            "title": "The Raven Protocol | Burt Reynolds (Deliverance) | ACTION | Full Movie in English 💎",
            "url": "https://www.youtube.com/watch?v=STB0BquJy8k",
            "duration": 5600.0,
            "view_count": 3216,
            "uploader": "Boxoffice | ACTION | Full Movies",
            "category": "english",
            "thumbnail": "https://i.ytimg.com/vi/STB0BquJy8k/hq720_custom_2.jpg"
        },
        {
            "id": "nekbXOLO3Ao",
            "title": "Justice has a new feathered ally | Raven | Full Action Movie",
            "url": "https://www.youtube.com/watch?v=nekbXOLO3Ao",
            "duration": 5541.0,
            "view_count": 614040,
            "uploader": "V Movies",
            "category": "english",
            "thumbnail": "https://i.ytimg.com/vi/nekbXOLO3Ao/hq720.jpg"
        }
    ]
}