{
    "page": 11,
    "total_pages": 103,
    "total_items": 5125,
    "items": [
        {
            "id": "4oKlLrwrznA",
            "title": "Apocalypto part 2 Full Movie (2026) #apocalypse",
            "url": "https://www.youtube.com/watch?v=4oKlLrwrznA",
            "duration": 6198.0,
            "view_count": 40077,
            "uploader": "Madina vibes",
            "category": "english",
            "thumbnail": "https://i.ytimg.com/vi/4oKlLrwrznA/hqdefault.jpg"
        },
        {
            "id": "yuUctOkwUMI",
            "title": "The Beekeeper 2 | Jason Statham | Full Hollywood Action Movie In English | HD 2025",
            "url": "https://www.youtube.com/watch?v=yuUctOkwUMI",
            "duration": 6432.0,
            "view_count": 1592602,
            "uploader": "PrimeScreen Cinema",
            "category": "english",
            "thumbnail": "https://i.ytimg.com/vi/yuUctOkwUMI/hq720.jpg"
        },
        {
            "id": "gt15IMB2pSY",
            "title": "🔥New 2026 Action Movie Full Movie English Hollywood Action Movies 2026",
            "url": "https://www.youtube.com/watch?v=gt15IMB2pSY",
            "duration": 4355.0,
            "view_count": 26652,
            "uploader": "Infinity Action Studios",
            "category": "english",
            "thumbnail": "https://i.ytimg.com/vi/gt15IMB2pSY/hq720.jpg"
        },
        {
            "id": "nW4VEXiD_68",
            "title": "The Mafiosi's Daughter | SUSPENSE | Full Movie in English",
            "url": "https://www.youtube.com/watch?v=nW4VEXiD_68",
            "duration": 5471.0,
            "view_count": 288900,
            "uploader": "Full Movies in English HD",
            "category": "english",
            "thumbnail": "https://i.ytimg.com/vi/nW4VEXiD_68/hq720.jpg"
        },
        {
            "id": "-0maCs3KHZc",
            "title": "Dangers on Live | THRILLER | Full Movie in English",
            "url": "https://www.youtube.com/watch?v=-0maCs3KHZc",
            "duration": 4319.0,
            "view_count": 230730,
            "uploader": "Full Movies in English HD",
            "category": "english",
            "thumbnail": "https://i.ytimg.com/vi/-0maCs3KHZc/hq720.jpg"
        },
        {
            "id": "Ta81TCS6_aQ",
            "title": "Shadow of the Lotus | ACTION | Full Movie in English",
            "url": "https://www.youtube.com/watch?v=Ta81TCS6_aQ",
            "duration": 7316.0,
            "view_count": 317,
            "uploader": "Boxoffice | ACTION | Full Movies",
            "category": "english",
            "thumbnail": "https://i.ytimg.com/vi/Ta81TCS6_aQ/hq720.jpg"
        },
        {
            "id": "VRqkrCADD9M",
            "title": "The Odd Ones | COMEDY | Full Movie in English💎",
            "url": "https://www.youtube.com/watch?v=VRqkrCADD9M",
            "duration": 5061.0,
            "view_count": 295,
            "uploader": "Boxoffice | COMEDIES | Full Movies",
            "category": "english",
            "thumbnail": "https://i.ytimg.com/vi/VRqkrCADD9M/hq720_custom_1.jpg"
        },
        {
            "id": "f7SF17xaGbs",
            "title": "Princess for a Day | COMEDY, ROMANCE | Full Movie in English",
            "url": "https://www.youtube.com/watch?v=f7SF17xaGbs",
            "duration": 7110.0,
            "view_count": 11925,
            "uploader": "Boxoffice | FAMILY | Full Movies",
            "category": "english",
            "thumbnail": "https://i.ytimg.com/vi/f7SF17xaGbs/hq720.jpg"
        },
        {
            "id": "Avp2JeSRQmk",
            "title": "Senior Love | ROMANCE | Full Movie in English",
            "url": "https://www.youtube.com/watch?v=Avp2JeSRQmk",
            "duration": 5025.0,
            "view_count": 5128,
            "uploader": "Boxoffice | ROMANCE | Full Movies",
            "category": "english",
            "thumbnail": "https://i.ytimg.com/vi/Avp2JeSRQmk/hq720.jpg"
        },
        {
            "id": "GBrUja9ILD4",
            "title": "🔥New 2026 Action Movie Full Movie English Hollywood Action Movies 2026",
            "url": "https://www.youtube.com/watch?v=GBrUja9ILD4",
            "duration": 5741.0,
            "view_count": 1383,
            "uploader": "Infinity Action Studios",
            "category": "english",
            "thumbnail": "https://i.ytimg.com/vi/GBrUja9ILD4/hq720.jpg"
        },
        {
            "id": "CJnD4h6MUAc",
            "title": "NEW 2026 ACTION MOVIE… ONE MAN DESTROYED A WHOLE CARTEL | MOVIE USA",
            "url": "https://www.youtube.com/watch?v=CJnD4h6MUAc",
            "duration": 4731.0,
            "view_count": 21634,
            "uploader": "ActionVault",
            "category": "english",
            "thumbnail": "https://i.ytimg.com/vi/CJnD4h6MUAc/hq720.jpg"
        },
        {
            "id": "dgqjlOb6MZM",
            "title": "Don’t Watch This Horror Movie Alone | Island of the Dead | Full Movie",
            "url": "https://www.youtube.com/watch?v=dgqjlOb6MZM",
            "duration": 5151.0,
            "view_count": 609341,
            "uploader": "Movie Time English",
            "category": "english",
            "thumbnail": "https://i.ytimg.com/vi/dgqjlOb6MZM/hq720.jpg"
        },
        {
            "id": "RWGtm1ttaOI",
            "title": "RELIC | Vin Diesel | Angelina Jolie | Full Hollywood Movie In English | HD",
            "url": "https://www.youtube.com/watch?v=RWGtm1ttaOI",
            "duration": 7843.0,
            "view_count": 9496,
            "uploader": "VelvetFrame Cinema",
            "category": "english",
            "thumbnail": "https://i.ytimg.com/vi/RWGtm1ttaOI/hq720.jpg"
        },
        {
            "id": "IzfLo1w5PLc",
            "title": "Businessman (2026) Full Movie | Matt Damon, Liam Neeson | Action Thriller in English HD",
            "url": "https://www.youtube.com/watch?v=IzfLo1w5PLc",
            "duration": 6871.0,
            "view_count": 529173,
            "uploader": "Movie Nation Global",
            "category": "english",
            "thumbnail": "https://i.ytimg.com/vi/IzfLo1w5PLc/hq720.jpg"
        },
        {
            "id": "Iv3uFdG6eFg",
            "title": "Legend Full Movie | Jason Statham | Jennifer Lopez | Hollywood Action Thriller | HD",
            "url": "https://www.youtube.com/watch?v=Iv3uFdG6eFg",
            "duration": 8319.0,
            "view_count": 115601,
            "uploader": "SilverAxis Cinemas",
            "category": "english",
            "thumbnail": "https://i.ytimg.com/vi/Iv3uFdG6eFg/hq720.jpg?sqp=-oaymwEcCNAFEJQDSFXyq4qpAw4IARUAAIhCGAFwAcABBg==&rs=AOn4CLDpSc6yne2UkiLlAxM0liRXGucT4g",
            "added_date": "2026-04-16T07:31:03.035038Z",
            "source": "youtube"
        },
        {
            "id": "3hfh6zRHhTA",
            "title": "🔥New 2026 Action Movie Full Movie English Hollywood Action Movies 2026",
            "url": "https://www.youtube.com/watch?v=3hfh6zRHhTA",
            "duration": 5307.0,
            "view_count": 101483,
            "uploader": "Apex Action",
            "category": "english",
            "thumbnail": "https://i.ytimg.com/vi/3hfh6zRHhTA/hq720.jpg"
        },
        {
            "id": "jLSElL0UAaQ",
            "title": "COLOMBIANA 2 | Jason Statham | Zoe Saldana | Full Hollywood Movie In English | HD",
            "url": "https://www.youtube.com/watch?v=jLSElL0UAaQ",
            "duration": 6705.0,
            "view_count": 53681,
            "uploader": "EclipseFrame Studios",
            "category": "english",
            "thumbnail": "https://i.ytimg.com/vi/jLSElL0UAaQ/hq720.jpg?sqp=-oaymwEcCNAFEJQDSFXyq4qpAw4IARUAAIhCGAFwAcABBg==&rs=AOn4CLBGcNCNq1QwxYxoiajS5OPCr1-lPQ",
            "added_date": "2026-04-16T07:31:01.832887Z",
            "source": "youtube"
        },
        {
            "id": "PJktmd98XOc",
            "title": "The Night of the Killer | THRILLER | Full Movie in English",
            "url": "https://www.youtube.com/watch?v=PJktmd98XOc",
            "duration": 6421.0,
            "view_count": 4900,
            "uploader": "Boxoffice | THRILLERS | Full Movies",
            "category": "english",
            "thumbnail": "https://i.ytimg.com/vi/PJktmd98XOc/hq720.jpg"
        },
        {
            "id": "JlKin2CN5E4",
            "title": "BANK HEIST - Hollywood English Movie | Sylvester Stallone Blockbuster Action Full Movie In English",
            "url": "https://www.youtube.com/watch?v=JlKin2CN5E4",
            "duration": 4783.0,
            "view_count": 7632098,
            "uploader": "Hollywood English Collection",
            "category": "english",
            "thumbnail": "https://i.ytimg.com/vi/JlKin2CN5E4/hq720.jpg"
        },
        {
            "id": "1zbzox-53xM",
            "title": "New Hollywood English Full Movie 2026 | BLACK ROOM English Movie | New Hollywood Action Movie Full",
            "url": "https://www.youtube.com/watch?v=1zbzox-53xM",
            "duration": 6203.0,
            "view_count": 61338,
            "uploader": " Roy Cinema and 2 more",
            "category": "english",
            "thumbnail": "https://i.ytimg.com/vi/1zbzox-53xM/hqdefault.jpg?sqp=-oaymwEcCOADEI4CSFXyq4qpAw4IARUAAIhCGAFwAcABBg==&rs=AOn4CLC45hejSuRnb58GtwX31fKZGAYooQ",
            "added_date": "2026-04-16T07:31:02.433898Z",
            "source": "youtube"
        },
        {
            "id": "7B29XrScy38",
            "title": "#AA23 Full Movie Hindi Dubbed | Allu Arjun | Irfan Pathan | Latest South Indian Action Movie 2026",
            "url": "https://www.youtube.com/watch?v=7B29XrScy38",
            "duration": 8672.0,
            "view_count": 923181,
            "uploader": "Moviewood Cinema",
            "category": "hindi",
            "thumbnail": "https://i.ytimg.com/vi/7B29XrScy38/hq720.jpg"
        },
        {
            "id": "66KGDoSGxKY",
            "title": "BHIKHARI Full Movie 2025 Hrithik Roshan’s Billionaire Transformation With Kajol &  Blockbusterd",
            "url": "https://www.youtube.com/watch?v=66KGDoSGxKY",
            "duration": 9374.0,
            "view_count": 4567717,
            "uploader": "Hindi Movies ",
            "category": "hindi",
            "thumbnail": "https://i.ytimg.com/vi/66KGDoSGxKY/hqdefault.jpg"
        },
        {
            "id": "6Q3DY0Ln50A",
            "title": "LAALACH Full Movie Hindi 🔥 | Akshay Kumar | Deepika Padukone | New Blockbuster",
            "url": "https://www.youtube.com/watch?v=6Q3DY0Ln50A",
            "duration": 8330.0,
            "view_count": 2143789,
            "uploader": "Tanvi Rao",
            "category": "hindi",
            "thumbnail": "https://i.ytimg.com/vi/6Q3DY0Ln50A/hqdefault.jpg"
        },
        {
            "id": "Qxq9zauCVAI",
            "title": "Mastiii 4 (2025) Hindi Full Movie | Starring Riteish Deshmukh, Vivek Oberoi, Aftab Shivdasani",
            "url": "https://www.youtube.com/watch?v=Qxq9zauCVAI",
            "duration": 6861.0,
            "view_count": 5380000,
            "uploader": "RG Entertainment",
            "category": "hindi",
            "thumbnail": "https://i.ytimg.com/vi/Qxq9zauCVAI/hq720.jpg"
        },
        {
            "id": "gyOFdkWx7j0",
            "title": "Mera Intkam Dekhegi - Shaadi Mein Zaroor Aana Full Movie With English Subtitle - Rajkumar Rao, Kriti",
            "url": "https://www.youtube.com/watch?v=gyOFdkWx7j0",
            "duration": 7837.0,
            "view_count": 50381317,
            "uploader": "Movies with Subtitle",
            "category": "hindi",
            "thumbnail": "https://i.ytimg.com/vi/gyOFdkWx7j0/hq720.jpg?sqp=-oaymwEcCNAFEJQDSFXyq4qpAw4IARUAAIhCGAFwAcABBg==&rs=AOn4CLD-Ny6f8C7AcPCpGNAgYmB1edAncw",
            "added_date": "2026-04-16T07:30:57.002160Z",
            "source": "youtube",
            "subtitles": "english"
        },
        {
            "id": "QnZkfDjBZFg",
            "title": "Housefull 5 (Full Movie) | Akshay Kumar, Riteish Deshmukh | New Hindi Comedy Film 2025",
            "url": "https://www.youtube.com/watch?v=QnZkfDjBZFg",
            "duration": 8135.0,
            "view_count": 19293735,
            "uploader": "CineVerse Entertainment",
            "category": "hindi",
            "thumbnail": "https://i.ytimg.com/vi/QnZkfDjBZFg/hq720.jpg?sqp=-oaymwEcCNAFEJQDSFXyq4qpAw4IARUAAIhCGAFwAcABBg==&rs=AOn4CLB20xnjQ2dlg0jqeiaEB95WwcWRYQ",
            "added_date": "2026-04-16T07:30:55.799882Z",
            "source": "youtube"
        },
        {
            "id": "FEQ2Ek_ef6I",
            "title": "Hum Do Hamare Do Full Movie | Rajkummar Rao | Kriti Sanon | Paresh Rawal",
            "url": "https://www.youtube.com/watch?v=FEQ2Ek_ef6I",
            "duration": 4365.0,
            "view_count": 7582981,
            "uploader": "Tanvi Rao",
            "category": "hindi",
            "thumbnail": "https://i.ytimg.com/vi/FEQ2Ek_ef6I/hq720.jpg"
        },
        {
            "id": "T9W742IKCHg",
            "title": "Blackmail (Full Movie) | Irrfan Khan | Kirti Kulhari, Divya Dutta, Arunoday Singh, Omi Vaidya",
            "url": "https://www.youtube.com/watch?v=T9W742IKCHg",
            "duration": 8250.0,
            "view_count": 11674731,
            "uploader": "T-Series",
            "category": "hindi",
            "thumbnail": "https://i.ytimg.com/vi/T9W742IKCHg/hq720.jpg"
        },
        {
            "id": "wjVLnrdoP2o",
            "title": "Vijaybhava: The Rise of Kingdom (2026) New Released Full Hindi Dubbed Movie | Vijay Deverakonda",
            "url": "https://www.youtube.com/watch?v=wjVLnrdoP2o",
            "duration": 8606.0,
            "view_count": 4921333,
            "uploader": "SDE Movieplex",
            "category": "hindi",
            "thumbnail": "https://i.ytimg.com/vi/wjVLnrdoP2o/hq720.jpg"
        },
        {
            "id": "hy5SGZ_dnVk",
            "title": "Wanted Full Movie Hindi HD | Salman Khan | Ayesha Takia | Prakash Raj | Action Thriller",
            "url": "https://www.youtube.com/watch?v=hy5SGZ_dnVk",
            "duration": 7658.0,
            "view_count": 4512992,
            "uploader": "Prince Yuvraj Sen 09",
            "category": "hindi",
            "thumbnail": "https://i.ytimg.com/vi/hy5SGZ_dnVk/hq720.jpg"
        },
        {
            "id": "cD-TLEshy5g",
            "title": "Cocktail | Full Hindi Movie | Saif Ali Khan, Deepika Padukone, Diana Penty | Romantic Drama",
            "url": "https://www.youtube.com/watch?v=cD-TLEshy5g",
            "duration": 8689.0,
            "view_count": 2554072,
            "uploader": "Eros Universe Big Picture",
            "category": "hindi",
            "thumbnail": "https://i.ytimg.com/vi/cD-TLEshy5g/hq720.jpg?sqp=-oaymwEcCNAFEJQDSFXyq4qpAw4IARUAAIhCGAFwAcABBg==&rs=AOn4CLCGzP9CV1K5pldWkhoxfJN9FAA7-A",
            "added_date": "2026-04-16T07:30:55.599515Z",
            "source": "youtube"
        },
        {
            "id": "IHGfZGEI17U",
            "title": "EXPERIMENT Full Movie Hindi Dubbed | Prabhas & Arjun Rampal | Latest South Indian Action Movie 2026",
            "url": "https://www.youtube.com/watch?v=IHGfZGEI17U",
            "duration": 7644.0,
            "view_count": 4872,
            "uploader": "Moviewood Cinema",
            "category": "hindi",
            "thumbnail": "https://i.ytimg.com/vi/IHGfZGEI17U/hq720.jpg"
        },
        {
            "id": "-V6tMjTlow0",
            "title": "MR WHITE MR BLACK Full Movie | New (2025) Released Bollywood Hindi Movie | Bollywood Comedy Movie",
            "url": "https://www.youtube.com/watch?v=-V6tMjTlow0",
            "duration": 7243.0,
            "view_count": 6929400,
            "uploader": "Netplex Movies 2026",
            "category": "hindi",
            "thumbnail": "https://i.ytimg.com/vi/-V6tMjTlow0/hq720.jpg"
        },
        {
            "id": "KIBoyg_BEmo",
            "title": "‎laapataa ladies full movie | laapataa ladies | laapataa ladies full movie in Hindi‎",
            "url": "https://www.youtube.com/watch?v=KIBoyg_BEmo",
            "duration": 6653.0,
            "view_count": 561449,
            "uploader": "SOFT WAVE",
            "category": "hindi",
            "thumbnail": "https://i.ytimg.com/vi/KIBoyg_BEmo/hqdefault.jpg"
        },
        {
            "id": "3z6ceeN0k_c",
            "title": "BHIKHARI | New Hindi Movie 2026 - Hrithik Roshan & Kajol Devgan | New Bollywood Full Action Movies",
            "url": "https://www.youtube.com/watch?v=3z6ceeN0k_c",
            "duration": 8773.0,
            "view_count": 14209488,
            "uploader": "Plastic Cinema",
            "category": "hindi",
            "thumbnail": "https://i.ytimg.com/vi/3z6ceeN0k_c/hq720.jpg"
        },
        {
            "id": "QI_GAkSKI8s",
            "title": "Vinaya Vidheya Rama (2025) | Ram Charan, Kiara Advani Hindi Dubbed Action Movie | Full HD",
            "url": "https://www.youtube.com/watch?v=QI_GAkSKI8s",
            "duration": 7453.0,
            "view_count": 9017,
            "uploader": "PlayNation",
            "category": "hindi",
            "thumbnail": "https://i.ytimg.com/vi/QI_GAkSKI8s/hq720.jpg"
        },
        {
            "id": "JxVENjUzYbU",
            "title": "Suraj Pe Mangal Bhari - Hindi Full Movie - Manoj Bajpayee, Diljit Dosanjh, Fatima Sana Shaikh",
            "url": "https://www.youtube.com/watch?v=JxVENjUzYbU",
            "duration": 8024.0,
            "view_count": 7302624,
            "uploader": "Zee Movies Hindi",
            "category": "hindi",
            "thumbnail": "https://i.ytimg.com/vi/JxVENjUzYbU/hqdefault.jpg"
        },
        {
            "id": "DVJeBl83Tdw",
            "title": "14 Phere - Hindi Full Movie - Vikrant Massey, Kriti Kharbanda, Gauahar Khan,",
            "url": "https://www.youtube.com/watch?v=DVJeBl83Tdw",
            "duration": 6709.0,
            "view_count": 3726416,
            "uploader": "Zee Movies Hindi",
            "category": "hindi",
            "thumbnail": "https://i.ytimg.com/vi/DVJeBl83Tdw/hq720.jpg"
        },
        {
            "id": "ZOOofT_rRz8",
            "title": "OG: Gangster (2026) | Pawan Kalyan, Emran Hashmi Hindi Dubbed Action Crime Movie | Full HD Movie",
            "url": "https://www.youtube.com/watch?v=ZOOofT_rRz8",
            "duration": 9063.0,
            "view_count": 4142989,
            "uploader": "THE MOVIE WORLD",
            "category": "hindi",
            "thumbnail": "https://i.ytimg.com/vi/ZOOofT_rRz8/hq720.jpg"
        },
        {
            "id": "qyNeS_hFyxk",
            "title": "Chhaavaa (2025) Rashmika mandanna Hindi Dubbed Full Action Movie | South Blockbuster | Full HD Movie",
            "url": "https://www.youtube.com/watch?v=qyNeS_hFyxk",
            "duration": 8633.0,
            "view_count": 4152043,
            "uploader": "XYZ Movie Cinema and 2 more",
            "category": "hindi",
            "thumbnail": "https://i.ytimg.com/vi/qyNeS_hFyxk/hqdefault.jpg"
        },
        {
            "id": "ei1iMMtrRmk",
            "title": "AJGAR Full Movie Hindi Dubbed | Thalapathy Vijay, Pooja Hegde | Latest South Indian Snake Movie 2026",
            "url": "https://www.youtube.com/watch?v=ei1iMMtrRmk",
            "duration": 6524.0,
            "view_count": 124607,
            "uploader": "Moviewood Cinema",
            "category": "hindi",
            "thumbnail": "https://i.ytimg.com/vi/ei1iMMtrRmk/hq720.jpg"
        },
        {
            "id": "nVsdY07_2Tk",
            "title": "YODHA NO.1 - Prabhas & Sreeleela New Full Action Movie 2025 | South Indian Hindi Dubbed Latest Movie",
            "url": "https://www.youtube.com/watch?v=nVsdY07_2Tk",
            "duration": 8424.0,
            "view_count": 6456650,
            "uploader": "Pital Picture",
            "category": "hindi",
            "thumbnail": "https://i.ytimg.com/vi/nVsdY07_2Tk/hq720.jpg"
        },
        {
            "id": "2YmQ7rU8faA",
            "title": "Thalapathy Vijay & Pooja Hegde Full Action Movie \"IRAAN\" Latest South Indian Hindi Dubbed Movie 2026",
            "url": "https://www.youtube.com/watch?v=2YmQ7rU8faA",
            "duration": 8582.0,
            "view_count": 107360,
            "uploader": "Moviewood Cinema",
            "category": "hindi",
            "thumbnail": "https://i.ytimg.com/vi/2YmQ7rU8faA/hq720.jpg"
        },
        {
            "id": "eswW2BoFAUs",
            "title": "Rockstar - Full Movie 8K/4K | Ranbir Kapoor | Nargis Fakhri | A.R. Rahman | Hindi Romantic Movie",
            "url": "https://www.youtube.com/watch?v=eswW2BoFAUs",
            "duration": 9467.0,
            "view_count": 812661,
            "uploader": "Eros Universe",
            "category": "hindi",
            "thumbnail": "https://i.ytimg.com/vi/eswW2BoFAUs/hq720.jpg"
        },
        {
            "id": "WlbP32Kf2NQ",
            "title": "Love Aaj Kal (2009) Full Movie HD | Saif Ali Khan | Deepika Padukone | Superhit Romantic Film",
            "url": "https://www.youtube.com/watch?v=WlbP32Kf2NQ",
            "duration": 7393.0,
            "view_count": 1200561,
            "uploader": "Eros Universe",
            "category": "hindi",
            "thumbnail": "https://i.ytimg.com/vi/WlbP32Kf2NQ/hq720.jpg"
        },
        {
            "id": "Gf8uOxGy9Zw",
            "title": "Thalapathy Vijay & Anushka Shetty Full Action Movie 2026 \"Daheshat\" Latest South Indian Hindi Movie",
            "url": "https://www.youtube.com/watch?v=Gf8uOxGy9Zw",
            "duration": 8506.0,
            "view_count": 60044,
            "uploader": "Movie Forever",
            "category": "tamil",
            "thumbnail": "https://i.ytimg.com/vi/Gf8uOxGy9Zw/hq720.jpg"
        },
        {
            "id": "CFacnB_kcpU",
            "title": "Prabhas New Released Full Action Movie 2026 | The Ultimate Fighter | Latest South Indian Hindi Movie",
            "url": "https://www.youtube.com/watch?v=CFacnB_kcpU",
            "duration": 8808.0,
            "view_count": 1456076,
            "uploader": "Super High Pictures",
            "category": "hindi",
            "thumbnail": "https://i.ytimg.com/vi/CFacnB_kcpU/hq720.jpg"
        },
        {
            "id": "_QY8bzgqIlw",
            "title": "PHANTOM HD FULL MOVIE 2015 SAIF ALI KHAN KATRINA KAIF",
            "url": "https://www.youtube.com/watch?v=_QY8bzgqIlw",
            "duration": 8048.0,
            "view_count": 398895,
            "uploader": "ANIKET JOY",
            "category": "hindi",
            "thumbnail": "https://i.ytimg.com/vi/_QY8bzgqIlw/hqdefault.jpg"
        },
        {
            "id": "tOaWXaRXGUg",
            "title": "Pushpa 2 reloaded full movie 4k 2160p Hindi  ‎  No clickbait",
            "url": "https://www.youtube.com/watch?v=tOaWXaRXGUg",
            "duration": 12983.0,
            "view_count": 20259154,
            "uploader": "SHIVAM CREATIONS SY",
            "category": "hindi",
            "thumbnail": "https://i.ytimg.com/vi/tOaWXaRXGUg/hq720.jpg"
        },
        {
            "id": "zzhfvt5vZHI",
            "title": "Dear Comrade (2020) New Released Hindi Dubbed Full Movie | Vijay Devarakonda, Rashmika, Shruti",
            "url": "https://www.youtube.com/watch?v=zzhfvt5vZHI",
            "duration": 9055.0,
            "view_count": 447917838,
            "uploader": "Goldmines",
            "category": "hindi",
            "thumbnail": "https://i.ytimg.com/vi/zzhfvt5vZHI/hq720.jpg"
        }
    ]
}