{
    "page": 102,
    "total_pages": 103,
    "total_items": 5125,
    "items": [
        {
            "id": "XOnHtStmbCI",
            "title": "Mickey and Donald Have a Farm 🚜 | S4 E1 | Full Episode | Mickey Mouse Clubhouse | @disneyjr",
            "url": "https://www.youtube.com/watch?v=XOnHtStmbCI",
            "duration": 1802.0,
            "view_count": 684408646,
            "uploader": "Disney Jr. ",
            "category": "cartoons",
            "thumbnail": "https://i.ytimg.com/vi/XOnHtStmbCI/hq720.jpg"
        },
        {
            "id": "I86-2ZXDHD8",
            "title": "Get ready for HALLOWEEN 🎃👻 | Scooby-Doo! | #kidscartoons @wbkids​",
            "url": "https://www.youtube.com/watch?v=I86-2ZXDHD8",
            "duration": 1478.0,
            "view_count": 2064668,
            "uploader": "WB Kids",
            "category": "cartoons",
            "thumbnail": "https://i.ytimg.com/vi/I86-2ZXDHD8/hq720.jpg?sqp=-oaymwEcCNAFEJQDSFXyq4qpAw4IARUAAIhCGAFwAcABBg==&rs=AOn4CLAPJuU1UoY_I1QFO5at56HYlFGxZg",
            "added_date": "2026-04-16T07:31:55.101832Z",
            "source": "youtube"
        },
        {
            "id": "DwbsjZlYEEs",
            "title": "Sea World Adventure +More | Super Rescue Team Collection | Best Cartoon Collection",
            "url": "https://www.youtube.com/watch?v=DwbsjZlYEEs",
            "duration": 4976.0,
            "view_count": 4845159,
            "uploader": "BabyBus TV - Kids Cartoon",
            "category": "cartoons",
            "thumbnail": "https://i.ytimg.com/vi/DwbsjZlYEEs/hq720.jpg?sqp=-oaymwEcCNAFEJQDSFXyq4qpAw4IARUAAIhCGAFwAcABBg==&rs=AOn4CLDdCVM1f4NSfJKe8N5p3hnrskvZCw",
            "added_date": "2026-04-16T07:31:54.500676Z",
            "source": "youtube"
        },
        {
            "id": "g54pInKVfsg",
            "title": "My Freaky Family | Full Animated Movie in English",
            "url": "https://www.youtube.com/watch?v=g54pInKVfsg",
            "duration": 5166.0,
            "view_count": 200845,
            "uploader": "Viva Kids Films",
            "category": "cartoons",
            "thumbnail": "https://i.ytimg.com/vi/g54pInKVfsg/hq720.jpg"
        },
        {
            "id": "rs3J_o_DdtY",
            "title": "George's First Camping Trip! 🐵 Curious George 🐵 Kids Cartoon 🐵 Kids Movies",
            "url": "https://www.youtube.com/watch?v=rs3J_o_DdtY",
            "duration": 3344.0,
            "view_count": 788588,
            "uploader": "Curious George Official",
            "category": "cartoons",
            "thumbnail": "https://i.ytimg.com/vi/rs3J_o_DdtY/hq720.jpg"
        },
        {
            "id": "QrnXZgFYMbk",
            "title": "Cats | FULL MOVIE | Dermot Mulroney | Family Animals Animation Adventure",
            "url": "https://www.youtube.com/watch?v=QrnXZgFYMbk",
            "duration": 5446.0,
            "view_count": 829474,
            "uploader": "Shout! Studios",
            "category": "cartoons",
            "thumbnail": "https://i.ytimg.com/vi/QrnXZgFYMbk/hq720.jpg"
        },
        {
            "id": "BThT6aZZwtE",
            "title": "Ugly Dolls full movie 2019",
            "url": "https://www.youtube.com/watch?v=BThT6aZZwtE",
            "duration": 5271.0,
            "view_count": 7270037,
            "uploader": "PixelRBLX",
            "category": "cartoons",
            "thumbnail": "https://i.ytimg.com/vi/BThT6aZZwtE/hqdefault.jpg"
        },
        {
            "id": "zomYZpaHoNw",
            "title": "The Stolen Princess (G) | Full Movie #family #animation",
            "url": "https://www.youtube.com/watch?v=zomYZpaHoNw",
            "duration": 5219.0,
            "view_count": 11319989,
            "uploader": "Janson TV - Free Movies & Shows",
            "category": "cartoons",
            "thumbnail": "https://i.ytimg.com/vi/zomYZpaHoNw/hq720.jpg"
        },
        {
            "id": "3bBaInccZkc",
            "title": "A Boy and His Mustang – An Unforgettable Adventure | Full Animated Movie in English",
            "url": "https://www.youtube.com/watch?v=3bBaInccZkc",
            "duration": 5476.0,
            "view_count": 682480,
            "uploader": "KaleidoScreen",
            "category": "cartoons",
            "thumbnail": "https://i.ytimg.com/vi/3bBaInccZkc/hq720.jpg"
        },
        {
            "id": "BDfX2EuxJzw",
            "title": "Tarzan and Jane- Genesis | English | Amazin' Adventures",
            "url": "https://www.youtube.com/watch?v=BDfX2EuxJzw",
            "duration": 5018.0,
            "view_count": 5759531,
            "uploader": "Amazin' Adventures",
            "category": "cartoons",
            "thumbnail": "https://i.ytimg.com/vi/BDfX2EuxJzw/hq720.jpg"
        },
        {
            "id": "S3ZGNUrkhbE",
            "title": "JUST SUPER (FULL ANIMATED MOVIE) | Watch FREE for a Limited Time in English",
            "url": "https://www.youtube.com/watch?v=S3ZGNUrkhbE",
            "duration": 4568.0,
            "view_count": 521121,
            "uploader": "Viva Kids Films",
            "category": "cartoons",
            "thumbnail": "https://i.ytimg.com/vi/S3ZGNUrkhbE/hq720.jpg"
        },
        {
            "id": "LlP7Zd0gBgI",
            "title": "The Fairy Princess And The Unicorn | FULL MOVIE | Family Fantasy Animation Adventure",
            "url": "https://www.youtube.com/watch?v=LlP7Zd0gBgI",
            "duration": 4833.0,
            "view_count": 297750,
            "uploader": "Shout! Studios",
            "category": "cartoons",
            "thumbnail": "https://i.ytimg.com/vi/LlP7Zd0gBgI/hq720.jpg"
        },
        {
            "id": "VRbsdrE654k",
            "title": "Save the Sea Queen | ANIMATION | Full Movie in English 💎",
            "url": "https://www.youtube.com/watch?v=VRbsdrE654k",
            "duration": 4651.0,
            "view_count": 90847,
            "uploader": "Boxoffice | ANIMATION | Full Movies",
            "category": "cartoons",
            "thumbnail": "https://i.ytimg.com/vi/VRbsdrE654k/hq720.jpg"
        },
        {
            "id": "JYA0bnC7iuc",
            "title": "The Cat In The Hat Knows A Lot About That | Series Three | Cartoons for Kids",
            "url": "https://www.youtube.com/watch?v=JYA0bnC7iuc",
            "duration": 28306.0,
            "view_count": 3118157,
            "uploader": "NCircle Entertainment",
            "category": "cartoons",
            "thumbnail": "https://i.ytimg.com/vi/JYA0bnC7iuc/hq720.jpg"
        },
        {
            "id": "SIvKcv2J6oY",
            "title": "Spookiz: The Movie | 🎉 Watch Party 🎉  | Movie for Kids | Official Full Movie",
            "url": "https://www.youtube.com/watch?v=SIvKcv2J6oY",
            "duration": 4669.0,
            "view_count": 4895388,
            "uploader": "Spookiz - Cartoons for Everyone",
            "category": "cartoons",
            "thumbnail": "https://i.ytimg.com/vi/SIvKcv2J6oY/hq720.jpg"
        },
        {
            "id": "gE_RVQBjBnM",
            "title": "2 Hours of The BEST Smurfs Episodes! • The Smurfs 3D • Cartoons for Kids",
            "url": "https://www.youtube.com/watch?v=gE_RVQBjBnM",
            "duration": 7260.0,
            "view_count": 5235178,
            "uploader": "The Smurfs • Official Channel!",
            "category": "cartoons",
            "thumbnail": "https://i.ytimg.com/vi/gE_RVQBjBnM/hq720.jpg"
        },
        {
            "id": "EgzWLBCQUtI",
            "title": "Free birds full movie 4k",
            "url": "https://www.youtube.com/watch?v=EgzWLBCQUtI",
            "duration": 5464.0,
            "view_count": 3638735,
            "uploader": "Tragic Demon",
            "category": "cartoons",
            "thumbnail": "https://i.ytimg.com/vi/EgzWLBCQUtI/hqdefault.jpg"
        },
        {
            "id": "KjQ_u2T7-CE",
            "title": "Arthur FULL MOVIE | Arthur's Perfect Christmas | PBS KIDS",
            "url": "https://www.youtube.com/watch?v=KjQ_u2T7-CE",
            "duration": 3294.0,
            "view_count": 4637754,
            "uploader": "PBS KIDS",
            "category": "cartoons",
            "thumbnail": "https://i.ytimg.com/vi/KjQ_u2T7-CE/hq720.jpg"
        },
        {
            "id": "0Q8gyqVMB-I",
            "title": "WONDERFUL ADVENTURE! Girl Saves Friend | Full Animated Family Movie in English",
            "url": "https://www.youtube.com/watch?v=0Q8gyqVMB-I",
            "duration": 4232.0,
            "view_count": 711932,
            "uploader": "Cinema Zone HD",
            "category": "cartoons",
            "thumbnail": "https://i.ytimg.com/vi/0Q8gyqVMB-I/hq720.jpg"
        },
        {
            "id": "01Yb_kC4Glg",
            "title": "Quackerz | FULL MOVIE | Ducks Animals Family Animation",
            "url": "https://www.youtube.com/watch?v=01Yb_kC4Glg",
            "duration": 4920.0,
            "view_count": 206263,
            "uploader": "Shout! Studios",
            "category": "cartoons",
            "thumbnail": "https://i.ytimg.com/vi/01Yb_kC4Glg/hq720.jpg"
        },
        {
            "id": "Vhczg0RE_rQ",
            "title": "60 MINUTES of the Loud House Kids on the Clock ⏰ | @Nicktoons",
            "url": "https://www.youtube.com/watch?v=Vhczg0RE_rQ",
            "duration": 3642.0,
            "view_count": 5015803,
            "uploader": "Nicktoons",
            "category": "cartoons",
            "thumbnail": "https://i.ytimg.com/vi/Vhczg0RE_rQ/hq720.jpg"
        },
        {
            "id": "6GLrnKqlYM4",
            "title": "Karma Has the Best Friends Around! 💖 Season 3 | Karma's World | Netflix",
            "url": "https://www.youtube.com/watch?v=6GLrnKqlYM4",
            "duration": 4217.0,
            "view_count": 5467673,
            "uploader": "Karma's World - Scholastic",
            "category": "cartoons",
            "thumbnail": "https://i.ytimg.com/vi/6GLrnKqlYM4/hq720.jpg"
        },
        {
            "id": "p4GOpnAKT8Y",
            "title": "STUART LITTLE 2 | Hollywood Movie Hindi Dubbed | Adventure Movie | Hollywood Movie | Sony Pictures",
            "url": "https://www.youtube.com/watch?v=p4GOpnAKT8Y",
            "duration": 4663.0,
            "view_count": 615898,
            "uploader": "Sony Pictures Entertainment - Hindi",
            "category": "cartoons",
            "thumbnail": "https://i.ytimg.com/vi/p4GOpnAKT8Y/hq720.jpg"
        },
        {
            "id": "gV3Nfuhkr3Y",
            "title": "Arthur FULL MOVIE | Arthur and the Haunted Tree House 🫣 | PBS KIDS",
            "url": "https://www.youtube.com/watch?v=gV3Nfuhkr3Y",
            "duration": 3409.0,
            "view_count": 2921604,
            "uploader": "PBS KIDS",
            "category": "cartoons",
            "thumbnail": "https://i.ytimg.com/vi/gV3Nfuhkr3Y/hq720.jpg"
        },
        {
            "id": "9N2MWsOv7wA",
            "title": "Peppa Pigs Movie Mystery Door | Cartoons For Kids | Fun Animation | Peppa Pig Videos",
            "url": "https://www.youtube.com/watch?v=9N2MWsOv7wA",
            "duration": 3633.0,
            "view_count": 4733727,
            "uploader": "Peppa's Playgroup: Little Learners",
            "category": "cartoons",
            "thumbnail": "https://i.ytimg.com/vi/9N2MWsOv7wA/hq720.jpg?sqp=-oaymwEcCNAFEJQDSFXyq4qpAw4IARUAAIhCGAFwAcABBg==&rs=AOn4CLAGMGj-azW2XV9Yd6I_SUn85NZcqw",
            "added_date": "2026-04-16T07:31:53.899581Z",
            "source": "youtube"
        },
        {
            "id": "sy-A9mAk38Q",
            "title": "Superworm Needs to be Rescued 😱 @GruffaloWorld: Compilation",
            "url": "https://www.youtube.com/watch?v=sy-A9mAk38Q",
            "duration": 909.0,
            "view_count": 845964,
            "uploader": "Gruffalo World",
            "category": "cartoons",
            "thumbnail": "https://i.ytimg.com/vi/sy-A9mAk38Q/hq720.jpg?sqp=-oaymwEcCNAFEJQDSFXyq4qpAw4IARUAAIhCGAFwAcABBg==&rs=AOn4CLCUeTrULU0_ivAgdkIOAUdTmWBeHA",
            "added_date": "2026-04-16T07:31:54.901426Z",
            "source": "youtube"
        },
        {
            "id": "3EJyEvJa2MY",
            "title": "FULL MOVIE | Sid the Science Kid: The Movie 🤖 | PBS KIDS",
            "url": "https://www.youtube.com/watch?v=3EJyEvJa2MY",
            "duration": 4986.0,
            "view_count": 2531353,
            "uploader": "PBS KIDS",
            "category": "cartoons",
            "thumbnail": "https://i.ytimg.com/vi/3EJyEvJa2MY/hq720.jpg"
        },
        {
            "id": "TPvTK-S_VR4",
            "title": "Cardboard World | Learn Occupations | Fun Adventure | Kids Cartoon | Sheriff Labrador",
            "url": "https://www.youtube.com/watch?v=TPvTK-S_VR4",
            "duration": 1612.0,
            "view_count": 64236964,
            "uploader": "Sheriff Labrador - Kids Cartoon",
            "category": "cartoons",
            "thumbnail": "https://i.ytimg.com/vi/TPvTK-S_VR4/hq720.jpg"
        },
        {
            "id": "1CBZmVLfWy0",
            "title": "George the Monkey Doctor! 🐵 Curious George 🐵 Kids Cartoon 🐵 Kids Movies",
            "url": "https://www.youtube.com/watch?v=1CBZmVLfWy0",
            "duration": 5767.0,
            "view_count": 7055846,
            "uploader": "Curious George Official",
            "category": "cartoons",
            "thumbnail": "https://i.ytimg.com/vi/1CBZmVLfWy0/hq720.jpg"
        },
        {
            "id": "COZkBrGu2tY",
            "title": "Curious George 🌱 Gardening with George 🌱 Kids Cartoon 🐵 Kids Movies 🐵 Videos for Kids",
            "url": "https://www.youtube.com/watch?v=COZkBrGu2tY",
            "duration": 1475.0,
            "view_count": 1395154,
            "uploader": "Curious George Official",
            "category": "cartoons",
            "thumbnail": "https://i.ytimg.com/vi/COZkBrGu2tY/hq720.jpg"
        },
        {
            "id": "3sjfWZjyKt0",
            "title": "VeggieTales | Prayer Is Powerful | God Is Strong!",
            "url": "https://www.youtube.com/watch?v=3sjfWZjyKt0",
            "duration": 6594.0,
            "view_count": 1168468,
            "uploader": "VeggieTales Official",
            "category": "cartoons",
            "thumbnail": "https://i.ytimg.com/vi/3sjfWZjyKt0/hq720.jpg"
        },
        {
            "id": "Q2FC8pc_rQg",
            "title": "BEE MOVIE FULL MOVIE ENGLISH of the game Full Fan Movie Film",
            "url": "https://www.youtube.com/watch?v=Q2FC8pc_rQg",
            "duration": 5380.0,
            "view_count": 5738446,
            "uploader": "FULL FAN MOVIE FILM",
            "category": "cartoons",
            "thumbnail": "https://i.ytimg.com/vi/Q2FC8pc_rQg/hq720.jpg"
        },
        {
            "id": "r97T2Ai2amg",
            "title": "The Jungle Book Full Movie - English | Merry Christmas | Christmas Magic | @THEJUNGLEBOOKOFFICIAL   ​",
            "url": "https://www.youtube.com/watch?v=r97T2Ai2amg",
            "duration": 3217.0,
            "view_count": 3897874,
            "uploader": "Jungle Book",
            "category": "cartoons",
            "thumbnail": "https://i.ytimg.com/vi/r97T2Ai2amg/hq720.jpg"
        },
        {
            "id": "ph_MWX3SrT8",
            "title": "George Builds an Igloo! __ Curious George __ 40 Minute Compilation __Kids Movies __ Videos for Kids",
            "url": "https://www.youtube.com/watch?v=ph_MWX3SrT8",
            "duration": 2881.0,
            "view_count": 8171705,
            "uploader": "Curious George Official",
            "category": "cartoons",
            "thumbnail": "https://i.ytimg.com/vi/ph_MWX3SrT8/hq720.jpg?sqp=-oaymwEcCNAFEJQDSFXyq4qpAw4IARUAAIhCGAFwAcABBg==&rs=AOn4CLATmsyL_MwSEya95sJlutUUiOjsIQ",
            "added_date": "2026-04-16T07:31:54.099952Z",
            "source": "youtube"
        },
        {
            "id": "Nz18QfdLXfM",
            "title": "Land Before Time | The Lone Dinosaur Returns  | Cartoon for Kids | Kids Movies",
            "url": "https://www.youtube.com/watch?v=Nz18QfdLXfM",
            "duration": 4081.0,
            "view_count": 23737325,
            "uploader": "The Land Before Time",
            "category": "cartoons",
            "thumbnail": "https://i.ytimg.com/vi/Nz18QfdLXfM/hq720.jpg"
        },
        {
            "id": "QZPXhjxy2HY",
            "title": "Duchess in charge | Mighty Mike | 75' Compilation | Cartoon for Kids",
            "url": "https://www.youtube.com/watch?v=QZPXhjxy2HY",
            "duration": 4203.0,
            "view_count": 6714197,
            "uploader": "Mighty Mike",
            "category": "cartoons",
            "thumbnail": "https://i.ytimg.com/vi/QZPXhjxy2HY/hq720.jpg"
        },
        {
            "id": "-sFj8Q3Z1Ak",
            "title": "Peter Rabbit - Easter Special! | Cartoons for Kids",
            "url": "https://www.youtube.com/watch?v=-sFj8Q3Z1Ak",
            "duration": 2652.0,
            "view_count": 24962225,
            "uploader": "Peter Rabbit",
            "category": "cartoons",
            "thumbnail": "https://i.ytimg.com/vi/-sFj8Q3Z1Ak/hq720.jpg"
        },
        {
            "id": "pckuS--UlV4",
            "title": "The Gingerbread Man | Full Story | Animated Fairy Tales For Children | 4K UHD",
            "url": "https://www.youtube.com/watch?v=pckuS--UlV4",
            "duration": 739.0,
            "view_count": 231356773,
            "uploader": "Geethanjali Kids - Rhymes and Stories",
            "category": "cartoons",
            "thumbnail": "https://i.ytimg.com/vi/pckuS--UlV4/hq720.jpg"
        },
        {
            "id": "isFrBq5ni6Q",
            "title": "PAW Patrol Halloween Best Spooky Rescue Episodes - PAW Patrol Cartoons for Kids Compilation",
            "url": "https://www.youtube.com/watch?v=isFrBq5ni6Q",
            "duration": 2194.0,
            "view_count": 12362306,
            "uploader": "PAW Patrol Official & Friends",
            "category": "cartoons",
            "thumbnail": "https://i.ytimg.com/vi/isFrBq5ni6Q/hq720.jpg"
        },
        {
            "id": "iRTEdxpMiRo",
            "title": "Lilo & Stitch: The Series First Full Episode | S1 E1 | Richter | @disneychannelanimation",
            "url": "https://www.youtube.com/watch?v=iRTEdxpMiRo",
            "duration": 1356.0,
            "view_count": 17015406,
            "uploader": "Disney Channel Animation",
            "category": "cartoons",
            "thumbnail": "https://i.ytimg.com/vi/iRTEdxpMiRo/hq720.jpg"
        },
        {
            "id": "w9jwdrbYpEM",
            "title": "Barbie & Her Sisters in A Pony Tale 🐴💗 I FULL MOVIE I Barbie",
            "url": "https://www.youtube.com/watch?v=w9jwdrbYpEM",
            "duration": 4418.0,
            "view_count": 9891358,
            "uploader": "Barbie",
            "category": "cartoons",
            "thumbnail": "https://i.ytimg.com/vi/w9jwdrbYpEM/hq720.jpg"
        },
        {
            "id": "acjo8Jmr3z8",
            "title": "New Animation Movies 2020 Full Movies English - Kids movies - Comedy Movies - Cartoon Disney",
            "url": "https://www.youtube.com/watch?v=acjo8Jmr3z8",
            "duration": 5800.0,
            "view_count": 531621,
            "uploader": "Kiku Creative",
            "category": "cartoons",
            "thumbnail": "https://i.ytimg.com/vi/acjo8Jmr3z8/hq720.jpg"
        },
        {
            "id": "L3gOf2XDp8Y",
            "title": "Cars On The Road 🚗 | Full Episodes 1–5 | Pixar Cars | @disneyjr",
            "url": "https://www.youtube.com/watch?v=L3gOf2XDp8Y",
            "duration": 2513.0,
            "view_count": 27141309,
            "uploader": "Disney Jr. ",
            "category": "cartoons",
            "thumbnail": "https://i.ytimg.com/vi/L3gOf2XDp8Y/hq720.jpg"
        },
        {
            "id": "72PnSauHWOY",
            "title": "🍿 Family Movie Night With OmoBerry | Family Movies + Movie Night + Kids Cartoons + Family Friendly",
            "url": "https://www.youtube.com/watch?v=72PnSauHWOY",
            "duration": 7671.0,
            "view_count": 986135,
            "uploader": "OmoBerry",
            "category": "cartoons",
            "thumbnail": "https://i.ytimg.com/vi/72PnSauHWOY/hq720.jpg"
        },
        {
            "id": "0r7LCaFYdO4",
            "title": "Masha and the Bear 2025 🤫❓ Secret Episode 🐝🍬 Best episodes cartoon collection 🎬",
            "url": "https://www.youtube.com/watch?v=0r7LCaFYdO4",
            "duration": 4124.0,
            "view_count": 10605579,
            "uploader": "Masha and The Bear",
            "category": "cartoons",
            "thumbnail": "https://i.ytimg.com/vi/0r7LCaFYdO4/hq720.jpg"
        },
        {
            "id": "PldLeOV0qGs",
            "title": "Looney Tunes 🐰| Wild, Wacky, and Totally Looney! | Kids Cartoon 😍 | @cnindia",
            "url": "https://www.youtube.com/watch?v=PldLeOV0qGs",
            "duration": 3698.0,
            "view_count": 1983949,
            "uploader": "Cartoon Network India",
            "category": "cartoons",
            "thumbnail": "https://i.ytimg.com/vi/PldLeOV0qGs/hq720.jpg"
        },
        {
            "id": "9FFbdzZ5gJQ",
            "title": "Spookiz The Movie | 🎃 Happy Halloween 🎃 | Full Movie for Kids | WildBrain Monsters",
            "url": "https://www.youtube.com/watch?v=9FFbdzZ5gJQ",
            "duration": 4922.0,
            "view_count": 1184084,
            "uploader": "WildBrain Haunted House",
            "category": "cartoons",
            "thumbnail": "https://i.ytimg.com/vi/9FFbdzZ5gJQ/hq720.jpg"
        },
        {
            "id": "1bgBeD3FVCU",
            "title": "Unicorn 🦄 | Full Animated Movie 2025",
            "url": "https://www.youtube.com/watch?v=1bgBeD3FVCU",
            "duration": 3607.0,
            "view_count": 1331324,
            "uploader": "Wright Family Films",
            "category": "cartoons",
            "thumbnail": "https://i.ytimg.com/vi/1bgBeD3FVCU/hq720.jpg"
        },
        {
            "id": "gTJ_59-9iHE",
            "title": "Ella Bella Dingo | KIDS, ANIMATION | Full Movie in English",
            "url": "https://www.youtube.com/watch?v=gTJ_59-9iHE",
            "duration": 4786.0,
            "view_count": 1532083,
            "uploader": "Boxoffice | FAMILY | Full Movies",
            "category": "cartoons",
            "thumbnail": "https://i.ytimg.com/vi/gTJ_59-9iHE/hq720.jpg"
        },
        {
            "id": "vyr4sptikVg",
            "title": "The Little Mermaid Popular Disney Cartoon Movie | English Animated Movie",
            "url": "https://www.youtube.com/watch?v=vyr4sptikVg",
            "duration": 2879.0,
            "view_count": 4383784,
            "uploader": "Hollywood Movies",
            "category": "cartoons",
            "thumbnail": "https://i.ytimg.com/vi/vyr4sptikVg/hqdefault.jpg"
        }
    ]
}