{
    "page": 27,
    "total_pages": 103,
    "total_items": 5125,
    "items": [
        {
            "id": "LTSWEEH0K18",
            "title": "Bin Lagnachi Goshta | Full New Marathi Movie | Latest Movie | Priya Bapat, Umesh Kamat",
            "url": "https://www.youtube.com/watch?v=LTSWEEH0K18",
            "duration": 8036.0,
            "view_count": 317534,
            "uploader": "IndiMovies",
            "category": "marathi",
            "thumbnail": "https://i.ytimg.com/vi/LTSWEEH0K18/hq720.jpg?sqp=-oaymwEcCNAFEJQDSFXyq4qpAw4IARUAAIhCGAFwAcABBg==&rs=AOn4CLB1c7qYWHKOb69iVBo6jH3fGDieUw",
            "added_date": "2026-04-16T07:31:27.236252Z",
            "source": "youtube"
        },
        {
            "id": "Pvkguz0R3V4",
            "title": "Ashok Saraf Full Classic Marathi Movie - Sukhi Sansarachi 12 Sutre - Comedy Family Drama मराठी मूवी",
            "url": "https://www.youtube.com/watch?v=Pvkguz0R3V4",
            "duration": 8117.0,
            "view_count": 57802,
            "uploader": "NH Golden Plaza  and Marathi Shorts Katta ",
            "category": "marathi",
            "thumbnail": "https://i.ytimg.com/vi/Pvkguz0R3V4/hq720.jpg"
        },
        {
            "id": "td0VchTT0WA",
            "title": "Daah (दाह ) | New Released Romantic💓💓Marathi Full Movie | Sayali Sanjeev,Suhrud Wardekar,Girish Oak",
            "url": "https://www.youtube.com/watch?v=td0VchTT0WA",
            "duration": 7886.0,
            "view_count": 310375,
            "uploader": "Marathi Cinema and 4 more",
            "category": "marathi",
            "thumbnail": "https://i.ytimg.com/vi/td0VchTT0WA/hq720.jpg"
        },
        {
            "id": "b3JNrw6GFP8",
            "title": "Ova(ओवा) | New Marathi Movie | Makarand Anaspure,Mitalee Jagtap |Middle Class Family Emotional Story",
            "url": "https://www.youtube.com/watch?v=b3JNrw6GFP8",
            "duration": 6770.0,
            "view_count": 1088936,
            "uploader": "Ultra Talkies and Ultra Manoranjan",
            "category": "marathi",
            "thumbnail": "https://i.ytimg.com/vi/b3JNrw6GFP8/hq720.jpg"
        },
        {
            "id": "TeSKgSaDSiw",
            "title": "Urmi (उर्मी) | New Marathi Romanti Love Story | Chinmay Udgirkar, Sayali Sanjeev | Full Movie 2023",
            "url": "https://www.youtube.com/watch?v=TeSKgSaDSiw",
            "duration": 6744.0,
            "view_count": 238788,
            "uploader": "Ultra Talkies and Ultra Manoranjan",
            "category": "marathi",
            "thumbnail": "https://i.ytimg.com/vi/TeSKgSaDSiw/hq720.jpg"
        },
        {
            "id": "kl3FbnwAM6Y",
            "title": "Bhetli Tu Punha | 2017 Marathi Full Movie | Pooja Sawant ,Vaibhav Tatvavadi | Latest Marathi Movies",
            "url": "https://www.youtube.com/watch?v=kl3FbnwAM6Y",
            "duration": 8394.0,
            "view_count": 2836560,
            "uploader": "Bartoon Movies",
            "category": "marathi",
            "thumbnail": "https://i.ytimg.com/vi/kl3FbnwAM6Y/hqdefault.jpg?sqp=-oaymwEcCOADEI4CSFXyq4qpAw4IARUAAIhCGAFwAcABBg==&rs=AOn4CLB5Om8MkBXkWxlJdC0Y5xeXo8kBmg",
            "added_date": "2026-04-16T07:31:27.636919Z",
            "source": "youtube"
        },
        {
            "id": "fwbEnOX3gLk",
            "title": "वळू  (Valu) Full HD Marathi Movie 🍿🎥",
            "url": "https://www.youtube.com/watch?v=fwbEnOX3gLk",
            "duration": 6925.0,
            "view_count": 805711,
            "uploader": "Marathi Movies Kattaa",
            "category": "marathi",
            "thumbnail": "https://i.ytimg.com/vi/fwbEnOX3gLk/hq720.jpg?sqp=-oaymwEcCNAFEJQDSFXyq4qpAw4IARUAAIhCGAFwAcABBg==&rs=AOn4CLAX36bYFsDxM99RqUt8jNtxcjlrZw",
            "added_date": "2026-04-16T07:31:27.837252Z",
            "source": "youtube"
        },
        {
            "id": "ajPduFtZG7E",
            "title": "प्राजक्ता माळी ऋतुजा बागवेचा सुपरहिट मराठी मूवी \"स्पर्श\" (2022) | New Marathi Movie",
            "url": "https://www.youtube.com/watch?v=ajPduFtZG7E",
            "duration": 8051.0,
            "view_count": 320638,
            "uploader": "Dhamaal Marathi",
            "category": "marathi",
            "thumbnail": "https://i.ytimg.com/vi/ajPduFtZG7E/hq720.jpg"
        },
        {
            "id": "gS1xAuxy1H4",
            "title": "Pachadlela Full Movie HD | पछाडलेला सपूर्ण चित्रपट | Bharat Jadhav, Shreyas Talpade, Laxmikant Berde",
            "url": "https://www.youtube.com/watch?v=gS1xAuxy1H4",
            "duration": 6942.0,
            "view_count": 951360,
            "uploader": "Sandesh Salve",
            "category": "marathi",
            "thumbnail": "https://i.ytimg.com/vi/gS1xAuxy1H4/hq720.jpg"
        },
        {
            "id": "e5ckCxhSorA",
            "title": "UNAAD FULL MOVIE | HD QUALITY | MARATHI MOVIE #marathimovie  #unnadmovie #trendingvideo ",
            "url": "https://www.youtube.com/watch?v=e5ckCxhSorA",
            "duration": 4779.0,
            "view_count": 104891,
            "uploader": "ABHYAA CREATION ",
            "category": "marathi",
            "thumbnail": "https://i.ytimg.com/vi/e5ckCxhSorA/hq720.jpg"
        },
        {
            "id": "xSbE3I8uk3k",
            "title": "Bhirkit - भिरकीट | Comedy Marathi Movie | Girish Kulkarni | Monalisa Bagal | Dipti Dhotre",
            "url": "https://www.youtube.com/watch?v=xSbE3I8uk3k",
            "duration": 7689.0,
            "view_count": 219603,
            "uploader": "Video Palace Movies",
            "category": "marathi",
            "thumbnail": "https://i.ytimg.com/vi/xSbE3I8uk3k/hq720.jpg"
        },
        {
            "id": "UVIUs0KclHw",
            "title": "Poshter Girl | Marathi Full Movie |Comedy Drama| Sonalee Kulkarni, Jitendra Joshi, Aniket Vishwasrao",
            "url": "https://www.youtube.com/watch?v=UVIUs0KclHw",
            "duration": 7996.0,
            "view_count": 2856503,
            "uploader": "Viacom18 Studios",
            "category": "marathi",
            "thumbnail": "https://i.ytimg.com/vi/UVIUs0KclHw/hq720.jpg"
        },
        {
            "id": "yJ5V5pnsWus",
            "title": "Chintoo 2: Khahjinyachi Chitra katha full marathi movie",
            "url": "https://www.youtube.com/watch?v=yJ5V5pnsWus",
            "duration": 6581.0,
            "view_count": 823659,
            "uploader": "Movies  ",
            "category": "marathi",
            "thumbnail": "https://i.ytimg.com/vi/yJ5V5pnsWus/hq720.jpg"
        },
        {
            "id": "xIVgfZ23qlc",
            "title": "शुभमंगल सावधान | Shubh Mangal Savdhan | Full Marathi Movie HD | Ashok Saraf, Reema, Nirmiti, Urmila",
            "url": "https://www.youtube.com/watch?v=xIVgfZ23qlc",
            "duration": 9213.0,
            "view_count": 2897567,
            "uploader": "Video Palace Movies",
            "category": "marathi",
            "thumbnail": "https://i.ytimg.com/vi/xIVgfZ23qlc/hq720.jpg"
        },
        {
            "id": "B0ZrhO5P6Gc",
            "title": "Mi Shivaji Park Full Movie (HD) । मी शिवाजी पार्क | Friendship, Justice & Truth | Ashok Saraf",
            "url": "https://www.youtube.com/watch?v=B0ZrhO5P6Gc",
            "duration": 7241.0,
            "view_count": 968241,
            "uploader": "NH Marathi",
            "category": "marathi",
            "thumbnail": "https://i.ytimg.com/vi/B0ZrhO5P6Gc/hq720.jpg"
        },
        {
            "id": "ab5oBBkoGn8",
            "title": "Punha Shivaji raje Bhosale (2025) Marathi Full Movie",
            "url": "https://www.youtube.com/watch?v=ab5oBBkoGn8",
            "duration": 9696.0,
            "view_count": 171881,
            "uploader": "Gaurav Shelke",
            "category": "marathi",
            "thumbnail": "https://i.ytimg.com/vi/ab5oBBkoGn8/hqdefault.jpg"
        },
        {
            "id": "vZ1_tSoDU0Q",
            "title": "सखी Sakhi | Marathi Full Movie | Ashok Saraf, Sonali Kulkarni, Subodh Bhave, Santosh Juvekar",
            "url": "https://www.youtube.com/watch?v=vZ1_tSoDU0Q",
            "duration": 9174.0,
            "view_count": 1156416,
            "uploader": "MarathiTalkies and 4 more",
            "category": "marathi",
            "thumbnail": "https://i.ytimg.com/vi/vZ1_tSoDU0Q/hq720.jpg"
        },
        {
            "id": "xukemiQd7WA",
            "title": "Kadachit | Full Movie | Marathi",
            "url": "https://www.youtube.com/watch?v=xukemiQd7WA",
            "duration": 7229.0,
            "view_count": 205256,
            "uploader": "Mystery Who",
            "category": "marathi",
            "thumbnail": "https://i.ytimg.com/vi/xukemiQd7WA/hqdefault.jpg"
        },
        {
            "id": "csOyBJQDp4k",
            "title": "Ani Dr. Kashinath Ghanekar | Full Marathi Movie | Subodh Bhave, Sonali Kulkarni, Sumeet Raghavan",
            "url": "https://www.youtube.com/watch?v=csOyBJQDp4k",
            "duration": 9084.0,
            "view_count": 1251780,
            "uploader": "Viacom18 Studios",
            "category": "marathi",
            "thumbnail": "https://i.ytimg.com/vi/csOyBJQDp4k/hq720.jpg"
        },
        {
            "id": "1nF8XDBYbNo",
            "title": "आजचा दिवस माझा Aajcha Divas Majha | Marathi Full Movie | Sachin Khedekar, Ashwini, Mahesh Manjrekar",
            "url": "https://www.youtube.com/watch?v=1nF8XDBYbNo",
            "duration": 7609.0,
            "view_count": 1521510,
            "uploader": "MarathiTalkies and 3 more",
            "category": "marathi",
            "thumbnail": "https://i.ytimg.com/vi/1nF8XDBYbNo/hq720.jpg?sqp=-oaymwEcCNAFEJQDSFXyq4qpAw4IARUAAIhCGAFwAcABBg==&rs=AOn4CLAilZRY5_9EddbY-IG8PNv6NwPYzw",
            "added_date": "2026-04-16T07:31:28.638746Z",
            "source": "youtube"
        },
        {
            "id": "XAUJt6i6xaQ",
            "title": "Aga Bai Arechyaa 2 (अगंबाई अरेच्चा २ ) | Marathi Full Movie | Sonali K Bharat J, Prasad O",
            "url": "https://www.youtube.com/watch?v=XAUJt6i6xaQ",
            "duration": 7009.0,
            "view_count": 2651427,
            "uploader": "Zee Talkies",
            "category": "marathi",
            "thumbnail": "https://i.ytimg.com/vi/XAUJt6i6xaQ/hqdefault.jpg"
        },
        {
            "id": "sy6lC12L-Ic",
            "title": "Navsache Por (नवसाचे पोर ) | Alka Kubal Superhit Marathi Drama | Full Movie HD",
            "url": "https://www.youtube.com/watch?v=sy6lC12L-Ic",
            "duration": 8398.0,
            "view_count": 27732,
            "uploader": "Marathi Shorts Katta ",
            "category": "marathi",
            "thumbnail": "https://i.ytimg.com/vi/sy6lC12L-Ic/hq720.jpg"
        },
        {
            "id": "3_MzZsrQmew",
            "title": "Pheka Pheki Full Marathi Movie(HD)-Ashok Saraf & Laxmikant Berde Dhamaal Comedy मराठी कॉमेडी चित्रपट",
            "url": "https://www.youtube.com/watch?v=3_MzZsrQmew",
            "duration": 7099.0,
            "view_count": 427839,
            "uploader": "NH Marathi",
            "category": "marathi",
            "thumbnail": "https://i.ytimg.com/vi/3_MzZsrQmew/hq720.jpg"
        },
        {
            "id": "idejgvpsSCY",
            "title": "Savarkhed Ek Gaon | #Marathi movies",
            "url": "https://www.youtube.com/watch?v=idejgvpsSCY",
            "duration": 6847.0,
            "view_count": 612261,
            "uploader": "Movies Funnta",
            "category": "marathi",
            "thumbnail": "https://i.ytimg.com/vi/idejgvpsSCY/hq720.jpg"
        },
        {
            "id": "5q3f8xTSbEw",
            "title": "Priyatama (प्रियतमा) – जात-पातीत अडकलेलं प्रेम | Siddarth Jadhav, Girija Joshi | Romantic Love Story",
            "url": "https://www.youtube.com/watch?v=5q3f8xTSbEw",
            "duration": 7069.0,
            "view_count": 960293,
            "uploader": "Ultra Talkies and 3 more",
            "category": "marathi",
            "thumbnail": "https://i.ytimg.com/vi/5q3f8xTSbEw/hq720.jpg"
        },
        {
            "id": "ap5esIzqNSQ",
            "title": "KADIPATTA (2026) | Full Marathi Movie | New Marathi Movie | 1080p Full HD... #newmarathimovie ",
            "url": "https://www.youtube.com/watch?v=ap5esIzqNSQ",
            "duration": 6663.0,
            "view_count": 209,
            "uploader": "Mayaboli Marathi Movies",
            "category": "marathi",
            "thumbnail": "https://i.ytimg.com/vi/ap5esIzqNSQ/hq720.jpg"
        },
        {
            "id": "_tF4Fq4I4vA",
            "title": "Ranapati Shivray Swari Agra (2026) Full Marathi Movie | New Marathi Movie | Full HD #newmarathimovie",
            "url": "https://www.youtube.com/watch?v=_tF4Fq4I4vA",
            "duration": 8304.0,
            "view_count": 42943,
            "uploader": "Everest Marathi Movies ",
            "category": "marathi",
            "thumbnail": "https://i.ytimg.com/vi/_tF4Fq4I4vA/hq720.jpg"
        },
        {
            "id": "aZv6CeEc5NU",
            "title": "Navra Baiko Full Movie (HD) | Ashok Saraf & Varsha Usgaonkar Dhamaal Comedy Movie | Marathi Movies",
            "url": "https://www.youtube.com/watch?v=aZv6CeEc5NU",
            "duration": 8350.0,
            "view_count": 67767,
            "uploader": "NH Marathi",
            "category": "marathi",
            "thumbnail": "https://i.ytimg.com/vi/aZv6CeEc5NU/hq720.jpg"
        },
        {
            "id": "S5XCOUtQHEI",
            "title": "Tu Tithe Me (तू तिथे मी) Full Latest Marathi Movie HD - Mohan Joshi, Suhas Joshi Love Story Drama",
            "url": "https://www.youtube.com/watch?v=S5XCOUtQHEI",
            "duration": 9162.0,
            "view_count": 250126,
            "uploader": "NH Marathi",
            "category": "marathi",
            "thumbnail": "https://i.ytimg.com/vi/S5XCOUtQHEI/hq720.jpg"
        },
        {
            "id": "_v9GLrBpxoQ",
            "title": "Ghantaa Full Marathi Movie | Best Marathi Comedy 2026 | Full HD | Marathi’s Funniest Comedy Movie!😂",
            "url": "https://www.youtube.com/watch?v=_v9GLrBpxoQ",
            "duration": 6444.0,
            "view_count": 25746,
            "uploader": "thoughts_2being_good",
            "category": "marathi",
            "thumbnail": "https://i.ytimg.com/vi/_v9GLrBpxoQ/hqdefault.jpg"
        },
        {
            "id": "wBp1m4PZp4g",
            "title": "Bajrangachi Kamaal | बजरंगाची कमाल | Comedy Marathi Movie | Dhamaal Marathi Movie",
            "url": "https://www.youtube.com/watch?v=wBp1m4PZp4g",
            "duration": 7700.0,
            "view_count": 3135381,
            "uploader": "NH Marathi",
            "category": "marathi",
            "thumbnail": "https://i.ytimg.com/vi/wBp1m4PZp4g/hq720.jpg"
        },
        {
            "id": "DmhOX6FvY1E",
            "title": "| गाजराची पुंगी | Marathi comedy movie I Sai Tamhankar | Prasad Oak |Subodh Bhave | Vishakha S |",
            "url": "https://www.youtube.com/watch?v=DmhOX6FvY1E",
            "duration": 7014.0,
            "view_count": 926229,
            "uploader": "SGMF Music",
            "category": "marathi",
            "thumbnail": "https://i.ytimg.com/vi/DmhOX6FvY1E/hq720.jpg"
        },
        {
            "id": "0qCEGj3N44Q",
            "title": "VED वेड Marathi Full HD Movies",
            "url": "https://www.youtube.com/watch?v=0qCEGj3N44Q",
            "duration": 7578.0,
            "view_count": 3005632,
            "uploader": "SP Media",
            "category": "marathi",
            "thumbnail": "https://i.ytimg.com/vi/0qCEGj3N44Q/hq720.jpg"
        },
        {
            "id": "aEgWV1JCgqA",
            "title": "Dashakriya ( दशक्रिया ) - Marathi Full Movie - Dilip Prabhavalkar, Manoj Joshi, Aditi Deshpande",
            "url": "https://www.youtube.com/watch?v=aEgWV1JCgqA",
            "duration": 7056.0,
            "view_count": 476347,
            "uploader": "Zee Talkies",
            "category": "marathi",
            "thumbnail": "https://i.ytimg.com/vi/aEgWV1JCgqA/hqdefault.jpg"
        },
        {
            "id": "3nYk1Pn5U6Q",
            "title": "LOVE IS VAAT - Full Marathi Romantic Comedy Movie | Kranti Redkar, Vijay Chavan, Amit Bhanushali",
            "url": "https://www.youtube.com/watch?v=3nYk1Pn5U6Q",
            "duration": 6648.0,
            "view_count": 1386,
            "uploader": "Fakt Marathi Tv",
            "category": "marathi",
            "thumbnail": "https://i.ytimg.com/vi/3nYk1Pn5U6Q/hq720.jpg"
        },
        {
            "id": "LpVJyUvDg18",
            "title": "Bhaai - Vyakti Ki Valli – Poorvardha | Sagar Deshmukh, Irawati Harshe, Satish Alekar | Marathi Movie",
            "url": "https://www.youtube.com/watch?v=LpVJyUvDg18",
            "duration": 6074.0,
            "view_count": 445384,
            "uploader": "Viacom18 Studios",
            "category": "marathi",
            "thumbnail": "https://i.ytimg.com/vi/LpVJyUvDg18/hq720.jpg"
        },
        {
            "id": "6v-srsaWAUQ",
            "title": "Ashok Saraf & Laxmikant Berde - Marathi Romantic Comedy Full Movie ❤️ Love Vs Arranged Marriage Film",
            "url": "https://www.youtube.com/watch?v=6v-srsaWAUQ",
            "duration": 8357.0,
            "view_count": 161102,
            "uploader": "NH Marathi",
            "category": "marathi",
            "thumbnail": "https://i.ytimg.com/vi/6v-srsaWAUQ/hq720.jpg"
        },
        {
            "id": "k0c34nPwpTw",
            "title": "LAGNACHA SHOT (2026) | Full Marathi Movie | New Marathi Movie | 1080p Full HD #newmarathimovie ",
            "url": "https://www.youtube.com/watch?v=k0c34nPwpTw",
            "duration": 7580.0,
            "view_count": 102337,
            "uploader": "Everest Marathi Movies ",
            "category": "marathi",
            "thumbnail": "https://i.ytimg.com/vi/k0c34nPwpTw/hq720.jpg"
        },
        {
            "id": "pn12RYy99Kg",
            "title": "LAGINGHAI (लगीनघाई) | Romantic Marathi Comedy Full Movie | Siddharth J,Mayuri D,Bhushan P",
            "url": "https://www.youtube.com/watch?v=pn12RYy99Kg",
            "duration": 8297.0,
            "view_count": 223747,
            "uploader": "Marathi Cinema",
            "category": "marathi",
            "thumbnail": "https://i.ytimg.com/vi/pn12RYy99Kg/hq720.jpg"
        },
        {
            "id": "ZWFtWCcTcJI",
            "title": "Backbenchers (बॅकबेन्चर्स) - New Marathi Romantic Movie | Prajakta Mali & Suvrat Joshi | Full Movie",
            "url": "https://www.youtube.com/watch?v=ZWFtWCcTcJI",
            "duration": 7176.0,
            "view_count": 259842,
            "uploader": "Marathi Filmy Duniya",
            "category": "marathi",
            "thumbnail": "https://i.ytimg.com/vi/ZWFtWCcTcJI/hq720.jpg"
        },
        {
            "id": "3dpsxnoVr_k",
            "title": "Baban Full Marathi Movie | Bhausaheb Shinde, Gayatri Jadhav | Superhit Rural Drama (HD)",
            "url": "https://www.youtube.com/watch?v=3dpsxnoVr_k",
            "duration": 8148.0,
            "view_count": 155398,
            "uploader": "Eros Universe Marathi ",
            "category": "marathi",
            "thumbnail": "https://i.ytimg.com/vi/3dpsxnoVr_k/hq720.jpg"
        },
        {
            "id": "JrochzRGOvQ",
            "title": "Matir Phool | মাটির ফুল | Riaz & Shabnur | Bangla Full Movie",
            "url": "https://www.youtube.com/watch?v=JrochzRGOvQ",
            "duration": 6905.0,
            "view_count": 11127197,
            "uploader": "Anupam Movies",
            "category": "marathi",
            "thumbnail": "https://i.ytimg.com/vi/JrochzRGOvQ/hq720.jpg"
        },
        {
            "id": "F-ftQ5xCuJE",
            "title": "बोक्या सातबंडे | Bokya Satbande | Full Marathi Film HD | Dilip Prabhavalkar, Aryan Narvekar",
            "url": "https://www.youtube.com/watch?v=F-ftQ5xCuJE",
            "duration": 7271.0,
            "view_count": 1552426,
            "uploader": "Video Palace Movies",
            "category": "marathi",
            "thumbnail": "https://i.ytimg.com/vi/F-ftQ5xCuJE/hqdefault.jpg"
        },
        {
            "id": "XIYUOPy6QmE",
            "title": "Lagna Kallol (2024) | New Marathi Romantic Comedy Movie | Siddharth Jadhav, Bhushan Pradhan, Mayuri",
            "url": "https://www.youtube.com/watch?v=XIYUOPy6QmE",
            "duration": 7879.0,
            "view_count": 4108184,
            "uploader": "Ultra Talkies",
            "category": "marathi",
            "thumbnail": "https://i.ytimg.com/vi/XIYUOPy6QmE/hq720.jpg"
        },
        {
            "id": "07QqNQf-xjk",
            "title": "One Way Ticket | Marathi Movie HD | Mystery | Sachit Patil | Amruta Khanvilkar | Shashank Ketkar",
            "url": "https://www.youtube.com/watch?v=07QqNQf-xjk",
            "duration": 5625.0,
            "view_count": 1193559,
            "uploader": "Video Palace Movies",
            "category": "marathi",
            "thumbnail": "https://i.ytimg.com/vi/07QqNQf-xjk/hq720.jpg"
        },
        {
            "id": "-ecwj_2pY2I",
            "title": "ओली की सुकी - Oli Ki Suki | Full HD | Marathi Film / Movie | Subodh Bhave | Tejashri Pradhan",
            "url": "https://www.youtube.com/watch?v=-ecwj_2pY2I",
            "duration": 6227.0,
            "view_count": 701959,
            "uploader": "Sumeet Music",
            "category": "marathi",
            "thumbnail": "https://i.ytimg.com/vi/-ecwj_2pY2I/hq720.jpg"
        },
        {
            "id": "Q8952bUeJXo",
            "title": "पोपट Popat | Marathi Full Comedy Movie | Satish Rajwade, Amey Wagh, Atul Kulkarni, Siddharth Menon",
            "url": "https://www.youtube.com/watch?v=Q8952bUeJXo",
            "duration": 9201.0,
            "view_count": 100549,
            "uploader": "EverestTalkies and 4 more",
            "category": "marathi",
            "thumbnail": "https://i.ytimg.com/vi/Q8952bUeJXo/hq720.jpg"
        },
        {
            "id": "sYSaOC8xz6Y",
            "title": "Gola Berij ( गोळा बेरीज ) | New Released Comedy Marathi Movie | Mukta Barve,Dilip Prabhavalkar",
            "url": "https://www.youtube.com/watch?v=sYSaOC8xz6Y",
            "duration": 8401.0,
            "view_count": 110328,
            "uploader": "Marathi Cinema and Marathi MoviePlex",
            "category": "marathi",
            "thumbnail": "https://i.ytimg.com/vi/sYSaOC8xz6Y/hq720.jpg"
        },
        {
            "id": "jzK3OALRIXs",
            "title": "Punha Ekda Sade Made Teen (2026) | Full Marathi Movie | New Marathi Movie |Full HD #newmarathimovie",
            "url": "https://www.youtube.com/watch?v=jzK3OALRIXs",
            "duration": 8550.0,
            "view_count": 38708,
            "uploader": "Everest Marathi Movies ",
            "category": "marathi",
            "thumbnail": "https://i.ytimg.com/vi/jzK3OALRIXs/hq720.jpg"
        },
        {
            "id": "5M-A8ANuD_Y",
            "title": "Chowk Full Movie |Kiran Gaikwad |Sanskruti Balgude |Pravin Tarde |SnehalTarde #chowk #newmovie #new",
            "url": "https://www.youtube.com/watch?v=5M-A8ANuD_Y",
            "duration": 8056.0,
            "view_count": 2722851,
            "uploader": "movies",
            "category": "marathi",
            "thumbnail": "https://i.ytimg.com/vi/5M-A8ANuD_Y/hq720.jpg"
        }
    ]
}