{
    "page": 70,
    "total_pages": 103,
    "total_items": 5125,
    "items": [
        {
            "id": "_YBUFKQAs54",
            "title": "Chingum ka Darr | Inspector Chingum | 3D Comedy Cartoon In Hindi | Wow Comedy",
            "url": "https://www.youtube.com/watch?v=_YBUFKQAs54",
            "duration": 1225.0,
            "view_count": 6392,
            "uploader": "Wow Kidz Comedy",
            "category": "cartoons/inspector_chingum",
            "thumbnail": "https://i.ytimg.com/vi/_YBUFKQAs54/hq720.jpg"
        },
        {
            "id": "wQrbHXeHrqE",
            "title": "Maharaja Chingam | Inspector Chingum | 3D Comedy Cartoon In Hindi | Wow Comedy",
            "url": "https://www.youtube.com/watch?v=wQrbHXeHrqE",
            "duration": 1250.0,
            "view_count": 19444,
            "uploader": "Wow Kidz Comedy",
            "category": "cartoons/inspector_chingum",
            "thumbnail": "https://i.ytimg.com/vi/wQrbHXeHrqE/hq720.jpg"
        },
        {
            "id": "YYXj5N4JpsM",
            "title": "Animated Series | Inspector Chingum | Wow Kidz | Hindi Cartoons For Kids | Ep 51",
            "url": "https://www.youtube.com/watch?v=YYXj5N4JpsM",
            "duration": 1221.0,
            "view_count": 5362584,
            "uploader": "WowKidz",
            "category": "cartoons/inspector_chingum",
            "thumbnail": "https://i.ytimg.com/vi/YYXj5N4JpsM/hq720.jpg"
        },
        {
            "id": "vG3VKE6j3o4",
            "title": "Chinugm Sir का बेहरूपिया Tingum | Motu-Patlu",
            "url": "https://www.youtube.com/watch?v=vG3VKE6j3o4",
            "duration": 1332.0,
            "view_count": 699177,
            "uploader": "Sonic Gang Motu Patlu ",
            "category": "cartoons/inspector_chingum",
            "thumbnail": "https://i.ytimg.com/vi/vG3VKE6j3o4/hq720.jpg"
        },
        {
            "id": "-aYV9Nku9is",
            "title": "Alien Story--- Inspector Chingum",
            "url": "https://www.youtube.com/watch?v=-aYV9Nku9is",
            "duration": 1150.0,
            "view_count": 68231,
            "uploader": "The Kids Zone",
            "category": "cartoons/inspector_chingum",
            "thumbnail": "https://i.ytimg.com/vi/-aYV9Nku9is/hq720.jpg"
        },
        {
            "id": "-Ba3Kb4wEA0",
            "title": "Inspector Chingum | Five Star Robber | Animated Stories For Kids | Hindi Cartoons | Wow Kidz Action",
            "url": "https://www.youtube.com/watch?v=-Ba3Kb4wEA0",
            "duration": 1219.0,
            "view_count": 166443,
            "uploader": "Wow Kidz Action",
            "category": "cartoons/inspector_chingum",
            "thumbnail": "https://i.ytimg.com/vi/-Ba3Kb4wEA0/hq720.jpg"
        },
        {
            "id": "Wf-yFzqz_cE",
            "title": "Animated Series | Inspector Chingum | Wow Kidz | Hindi Cartoons For Kids | Ep 32",
            "url": "https://www.youtube.com/watch?v=Wf-yFzqz_cE",
            "duration": 1117.0,
            "view_count": 398850,
            "uploader": "WowKidz",
            "category": "cartoons/inspector_chingum",
            "thumbnail": "https://i.ytimg.com/vi/Wf-yFzqz_cE/hq720.jpg"
        },
        {
            "id": "xTiKCPL4b1k",
            "title": "Inspector Chingum बना Vigilante बादशाह | Motu Patlu Punjab Special | Motu Patlu | मोटू पतलू",
            "url": "https://www.youtube.com/watch?v=xTiKCPL4b1k",
            "duration": 1263.0,
            "view_count": 143508,
            "uploader": "Sonic Gang",
            "category": "cartoons/motu_patlu",
            "thumbnail": "https://i.ytimg.com/vi/xTiKCPL4b1k/hq720.jpg"
        },
        {
            "id": "tZXypgCbcU8",
            "title": "Chingum का Clone Attack, Motu के लिए Double Trouble | Motu Patlu | मोटू पतलू",
            "url": "https://www.youtube.com/watch?v=tZXypgCbcU8",
            "duration": 3881.0,
            "view_count": 2824835,
            "uploader": "Sonic Gang",
            "category": "cartoons/inspector_chingum",
            "thumbnail": "https://i.ytimg.com/vi/tZXypgCbcU8/hq720.jpg"
        },
        {
            "id": "3NLClOstM_8",
            "title": "Animated Series | Inspector Chingum | Hindi Cartoons For Kids | Ep 23 | Wow Kidz",
            "url": "https://www.youtube.com/watch?v=3NLClOstM_8",
            "duration": 1222.0,
            "view_count": 715339,
            "uploader": "WowKidz",
            "category": "cartoons/inspector_chingum",
            "thumbnail": "https://i.ytimg.com/vi/3NLClOstM_8/hq720.jpg"
        },
        {
            "id": "A2i08oSwzC8",
            "title": "Animated Series | Inspector Chingum | Wow Kidz | Hindi Cartoons For Kids | Ep 30",
            "url": "https://www.youtube.com/watch?v=A2i08oSwzC8",
            "duration": 1308.0,
            "view_count": 930778,
            "uploader": "WowKidz",
            "category": "cartoons/inspector_chingum",
            "thumbnail": "https://i.ytimg.com/vi/A2i08oSwzC8/hq720.jpg"
        },
        {
            "id": "59jNex3Q5oo",
            "title": "Motu Patlu बचाएंगे Chingum की शादी? | Motu Patlu in Double Trouble | Full Movie",
            "url": "https://www.youtube.com/watch?v=59jNex3Q5oo",
            "duration": 4356.0,
            "view_count": 13226005,
            "uploader": "Sonic Gang Hindi Movies",
            "category": "cartoons/inspector_chingum",
            "thumbnail": "https://i.ytimg.com/vi/59jNex3Q5oo/hq720.jpg"
        },
        {
            "id": "D4NYNBtyBGs",
            "title": "Chingum ka Darr---- Inspector Chingum",
            "url": "https://www.youtube.com/watch?v=D4NYNBtyBGs",
            "duration": 1247.0,
            "view_count": 36199,
            "uploader": "The Kids Zone",
            "category": "cartoons/inspector_chingum",
            "thumbnail": "https://i.ytimg.com/vi/D4NYNBtyBGs/hq720.jpg"
        },
        {
            "id": "w7JZCtIpYUY",
            "title": "Motu patlu न Master Stroke जानिए कैसे की Chingum की मदत | Motu-Patlu",
            "url": "https://www.youtube.com/watch?v=w7JZCtIpYUY",
            "duration": 689.0,
            "view_count": 264328,
            "uploader": "Sonic Gang Motu Patlu ",
            "category": "cartoons/inspector_chingum",
            "thumbnail": "https://i.ytimg.com/vi/w7JZCtIpYUY/hq720.jpg"
        },
        {
            "id": "SrlOkXYchLA",
            "title": "Motu Patlu आए Chingum Sir की Diet सुधारने | Motu-Patlu",
            "url": "https://www.youtube.com/watch?v=SrlOkXYchLA",
            "duration": 689.0,
            "view_count": 451925,
            "uploader": "Sonic Gang Motu Patlu ",
            "category": "cartoons/inspector_chingum",
            "thumbnail": "https://i.ytimg.com/vi/SrlOkXYchLA/hq720.jpg"
        },
        {
            "id": "c-Z8Gtb6R2M",
            "title": "Animated Series | Inspector Chingum | Hindi Cartoons For Kids | Ep 05 | Wow Kidz",
            "url": "https://www.youtube.com/watch?v=c-Z8Gtb6R2M",
            "duration": 1315.0,
            "view_count": 609863,
            "uploader": "WowKidz",
            "category": "cartoons/inspector_chingum",
            "thumbnail": "https://i.ytimg.com/vi/c-Z8Gtb6R2M/hq720.jpg"
        },
        {
            "id": "92X_ejeUfxE",
            "title": "Inspector Chingum Hindi Episode | Mad Hammer |",
            "url": "https://www.youtube.com/watch?v=92X_ejeUfxE",
            "duration": 1289.0,
            "view_count": 8882,
            "uploader": "SP GAMING",
            "category": "cartoons/inspector_chingum",
            "thumbnail": "https://i.ytimg.com/vi/92X_ejeUfxE/hqdefault.jpg"
        },
        {
            "id": "3SdnZW4qTX8",
            "title": "Inspector Chingum | Compilation 05 | Wow Kidz | Hindi Cartoons For Kids",
            "url": "https://www.youtube.com/watch?v=3SdnZW4qTX8",
            "duration": 2510.0,
            "view_count": 223701,
            "uploader": "WowKidz",
            "category": "cartoons/inspector_chingum",
            "thumbnail": "https://i.ytimg.com/vi/3SdnZW4qTX8/hq720.jpg"
        },
        {
            "id": "yHvN51vPvCk",
            "title": "Animated Series | Inspector Chingum | Wow Kidz | Hindi Cartoons For Kids | Ep 42",
            "url": "https://www.youtube.com/watch?v=yHvN51vPvCk",
            "duration": 1334.0,
            "view_count": 1874865,
            "uploader": "WowKidz",
            "category": "cartoons/inspector_chingum",
            "thumbnail": "https://i.ytimg.com/vi/yHvN51vPvCk/hq720.jpg"
        },
        {
            "id": "P7peOguh2gY",
            "title": "Inspector Chingum | Compilation 03 | Wow Kidz | Hindi Cartoons For Kids",
            "url": "https://www.youtube.com/watch?v=P7peOguh2gY",
            "duration": 2650.0,
            "view_count": 111141,
            "uploader": "WowKidz",
            "category": "cartoons/inspector_chingum",
            "thumbnail": "https://i.ytimg.com/vi/P7peOguh2gY/hq720.jpg"
        },
        {
            "id": "QtMBE50T5O8",
            "title": "Ghost Thief's Case Inspector Chingum's Solid Action! 👻🚔| Motu Patlu",
            "url": "https://www.youtube.com/watch?v=QtMBE50T5O8",
            "duration": 1435.0,
            "view_count": 2115295,
            "uploader": "ToonTime TV",
            "category": "cartoons/inspector_chingum",
            "thumbnail": "https://i.ytimg.com/vi/QtMBE50T5O8/hq720.jpg"
        },
        {
            "id": "XobxtDpKh-s",
            "title": "Inspector Chingum | Compilation 19 | Wow Kidz | Hindi Cartoons For Kids",
            "url": "https://www.youtube.com/watch?v=XobxtDpKh-s",
            "duration": 2672.0,
            "view_count": 53658,
            "uploader": "WowKidz",
            "category": "cartoons/inspector_chingum",
            "thumbnail": "https://i.ytimg.com/vi/XobxtDpKh-s/hq720.jpg"
        },
        {
            "id": "kp0iqRqlALY",
            "title": "Inspector Chingum | Compilation 04 | Wow Kidz | Hindi Cartoons For Kids",
            "url": "https://www.youtube.com/watch?v=kp0iqRqlALY",
            "duration": 2559.0,
            "view_count": 118463,
            "uploader": "WowKidz",
            "category": "cartoons/inspector_chingum",
            "thumbnail": "https://i.ytimg.com/vi/kp0iqRqlALY/hq720.jpg"
        },
        {
            "id": "0aDwVh2g_wg",
            "title": "Animated Series | Inspector Chingum | Wow Kidz | Hindi Cartoons For Kids | Ep 43",
            "url": "https://www.youtube.com/watch?v=0aDwVh2g_wg",
            "duration": 1317.0,
            "view_count": 481344,
            "uploader": "WowKidz",
            "category": "cartoons/inspector_chingum",
            "thumbnail": "https://i.ytimg.com/vi/0aDwVh2g_wg/hq720.jpg"
        },
        {
            "id": "Dbki5Sj_xBA",
            "title": "Motu Patlu को Chingum Sir का आया Order | Motu-Patlu",
            "url": "https://www.youtube.com/watch?v=Dbki5Sj_xBA",
            "duration": 711.0,
            "view_count": 2647022,
            "uploader": "Sonic Gang Motu Patlu ",
            "category": "cartoons/inspector_chingum",
            "thumbnail": "https://i.ytimg.com/vi/Dbki5Sj_xBA/hq720.jpg"
        },
        {
            "id": "q4PfXcR2_Gw",
            "title": "Animated Series | Inspector Chingum | Wow Kidz | Hindi Cartoons For Kids | Ep 46",
            "url": "https://www.youtube.com/watch?v=q4PfXcR2_Gw",
            "duration": 1245.0,
            "view_count": 402923,
            "uploader": "WowKidz",
            "category": "cartoons/inspector_chingum",
            "thumbnail": "https://i.ytimg.com/vi/q4PfXcR2_Gw/hq720.jpg"
        },
        {
            "id": "Or-yqsKeBtg",
            "title": "Animated Series | Inspector Chingum | Wow Kidz | Hindi Cartoons For Kids | Ep 47",
            "url": "https://www.youtube.com/watch?v=Or-yqsKeBtg",
            "duration": 1293.0,
            "view_count": 916634,
            "uploader": "WowKidz",
            "category": "cartoons/inspector_chingum",
            "thumbnail": "https://i.ytimg.com/vi/Or-yqsKeBtg/hq720.jpg"
        },
        {
            "id": "792CjrfY-u8",
            "title": "Chingum Sir की बाइक आखिर किसने गायब की | Motu-Patlu",
            "url": "https://www.youtube.com/watch?v=792CjrfY-u8",
            "duration": 693.0,
            "view_count": 937984,
            "uploader": "Sonic Gang Motu Patlu ",
            "category": "cartoons/inspector_chingum",
            "thumbnail": "https://i.ytimg.com/vi/792CjrfY-u8/hq720.jpg"
        },
        {
            "id": "EJ3PeWR_XX4",
            "title": "Rohan Nani's In Space | Keymon Ache",
            "url": "https://www.youtube.com/watch?v=EJ3PeWR_XX4",
            "duration": 7212.0,
            "view_count": 136259,
            "uploader": "Keymon Ache",
            "category": "cartoons/keymon_ache",
            "thumbnail": "https://i.ytimg.com/vi/EJ3PeWR_XX4/hq720.jpg"
        },
        {
            "id": "f-macz6llh0",
            "title": "आज बैठेगी Puri Family saath 🫂😁! | Keymon Ache",
            "url": "https://www.youtube.com/watch?v=f-macz6llh0",
            "duration": 1165.0,
            "view_count": 55111,
            "uploader": "Keymon Ache",
            "category": "cartoons/keymon_ache",
            "thumbnail": "https://i.ytimg.com/vi/f-macz6llh0/hq720.jpg"
        },
        {
            "id": "Bify5Qf2Olo",
            "title": "Rohan की mummy हुई उससे pareshan | Keymon Ache",
            "url": "https://www.youtube.com/watch?v=Bify5Qf2Olo",
            "duration": 1149.0,
            "view_count": 86913,
            "uploader": "Keymon Ache",
            "category": "cartoons/keymon_ache",
            "thumbnail": "https://i.ytimg.com/vi/Bify5Qf2Olo/hq720.jpg"
        },
        {
            "id": "Kp02UygY4LM",
            "title": "Gadget पड़ा bhaari 😂 अब भुगतेगा Rohan! | Keymon Ache",
            "url": "https://www.youtube.com/watch?v=Kp02UygY4LM",
            "duration": 1379.0,
            "view_count": 52267,
            "uploader": "Keymon Ache",
            "category": "cartoons/keymon_ache",
            "thumbnail": "https://i.ytimg.com/vi/Kp02UygY4LM/hq720.jpg"
        },
        {
            "id": "6tP7WGQmRJk",
            "title": "Rohan की मस्ती keymon के gadgets! | Keymon Ache",
            "url": "https://www.youtube.com/watch?v=6tP7WGQmRJk",
            "duration": 1181.0,
            "view_count": 231917,
            "uploader": "Keymon Ache",
            "category": "cartoons/keymon_ache",
            "thumbnail": "https://i.ytimg.com/vi/6tP7WGQmRJk/hq720.jpg"
        },
        {
            "id": "sK6TmGGXfXo",
            "title": "Tuta - bhukha बेचारा Rohan |Keymon Ache",
            "url": "https://www.youtube.com/watch?v=sK6TmGGXfXo",
            "duration": 1056.0,
            "view_count": 58891,
            "uploader": "Keymon Ache",
            "category": "cartoons/keymon_ache",
            "thumbnail": "https://i.ytimg.com/vi/sK6TmGGXfXo/hq720.jpg"
        },
        {
            "id": "bTp-8QzYFZU",
            "title": "आज तो Rohan की आई है Shaamat😂! | Keymon Ache",
            "url": "https://www.youtube.com/watch?v=bTp-8QzYFZU",
            "duration": 1267.0,
            "view_count": 76473,
            "uploader": "Keymon Ache",
            "category": "cartoons/keymon_ache",
            "thumbnail": "https://i.ytimg.com/vi/bTp-8QzYFZU/hq720.jpg"
        },
        {
            "id": "TcMT7oSIw4w",
            "title": "9Neela बुखार Rohan का new twist! | Keymon Ache",
            "url": "https://www.youtube.com/watch?v=TcMT7oSIw4w",
            "duration": 711.0,
            "view_count": 80738,
            "uploader": "Keymon Ache",
            "category": "cartoons/keymon_ache",
            "thumbnail": "https://i.ytimg.com/vi/TcMT7oSIw4w/hq720.jpg"
        },
        {
            "id": "RI0aL87gQIg",
            "title": "Rohan का pyara petu piggy 🐷 bank 🏦! | Keymon Ache",
            "url": "https://www.youtube.com/watch?v=RI0aL87gQIg",
            "duration": 697.0,
            "view_count": 16724,
            "uploader": "Keymon Ache",
            "category": "cartoons/keymon_ache",
            "thumbnail": "https://i.ytimg.com/vi/RI0aL87gQIg/hq720.jpg"
        },
        {
            "id": "aB36hEZFQas",
            "title": "Mata ji को बचाओ नहीं तो पड़ेगी Daant🙂🙂! | Keymon Ache",
            "url": "https://www.youtube.com/watch?v=aB36hEZFQas",
            "duration": 1369.0,
            "view_count": 43788,
            "uploader": "Keymon Ache",
            "category": "cartoons/keymon_ache",
            "thumbnail": "https://i.ytimg.com/vi/aB36hEZFQas/hq720.jpg"
        },
        {
            "id": "9K8Or98v-Nc",
            "title": "Rohan की Family ने दिया उसे Birthday 🎂 surprise ✨! | Keymon Ache",
            "url": "https://www.youtube.com/watch?v=9K8Or98v-Nc",
            "duration": 709.0,
            "view_count": 138835,
            "uploader": "Keymon Ache",
            "category": "cartoons/keymon_ache",
            "thumbnail": "https://i.ytimg.com/vi/9K8Or98v-Nc/hq720.jpg"
        },
        {
            "id": "5anhCELEHoc",
            "title": "Mini ने समझा Rohan को galat 💔 heartbreak era 😭! |",
            "url": "https://www.youtube.com/watch?v=5anhCELEHoc",
            "duration": 666.0,
            "view_count": 17409,
            "uploader": "Keymon Ache",
            "category": "cartoons/keymon_ache",
            "thumbnail": "https://i.ytimg.com/vi/5anhCELEHoc/hq720.jpg"
        },
        {
            "id": "CXtPYvbmdlU",
            "title": "Keymon के Family Men's है बड़े Pookie! | Keymon Ache",
            "url": "https://www.youtube.com/watch?v=CXtPYvbmdlU",
            "duration": 663.0,
            "view_count": 355126,
            "uploader": "Keymon Ache",
            "category": "cartoons/keymon_ache",
            "thumbnail": "https://i.ytimg.com/vi/CXtPYvbmdlU/hq720.jpg"
        },
        {
            "id": "Xli0mroMRWQ",
            "title": "अब Rohan वो करेगा jo उसका Maan कहेगा! | Keymon Ache",
            "url": "https://www.youtube.com/watch?v=Xli0mroMRWQ",
            "duration": 600.0,
            "view_count": 26184,
            "uploader": "Keymon Ache",
            "category": "cartoons/keymon_ache",
            "thumbnail": "https://i.ytimg.com/vi/Xli0mroMRWQ/hq720.jpg"
        },
        {
            "id": "bjeMzAWiskg",
            "title": "Bhai bhai में तकरार 😂 beech में आई Leg 🍗 piece की deewar! | Keymon Ache",
            "url": "https://www.youtube.com/watch?v=bjeMzAWiskg",
            "duration": 909.0,
            "view_count": 47055,
            "uploader": "Keymon Ache",
            "category": "cartoons/keymon_ache",
            "thumbnail": "https://i.ytimg.com/vi/bjeMzAWiskg/hq720.jpg"
        },
        {
            "id": "Mbwbf1Sq-xk",
            "title": "Keymon बना Rohan का best friend  | Keymon Ache",
            "url": "https://www.youtube.com/watch?v=Mbwbf1Sq-xk",
            "duration": 1165.0,
            "view_count": 69708,
            "uploader": "Keymon Ache",
            "category": "cartoons/keymon_ache",
            "thumbnail": "https://i.ytimg.com/vi/Mbwbf1Sq-xk/hq720.jpg"
        },
        {
            "id": "b-Ox2zTq7Vo",
            "title": "Rohan का पीछा nahi छोड़ेगी Maths! | Keymon Ache",
            "url": "https://www.youtube.com/watch?v=b-Ox2zTq7Vo",
            "duration": 618.0,
            "view_count": 73690,
            "uploader": "Keymon Ache",
            "category": "cartoons/keymon_ache",
            "thumbnail": "https://i.ytimg.com/vi/b-Ox2zTq7Vo/hq720.jpg"
        },
        {
            "id": "cbOSnYCHRP8",
            "title": "Keymon हुआ पराया Rohan 😭 हो गया अकेला! | Keymon Ache",
            "url": "https://www.youtube.com/watch?v=cbOSnYCHRP8",
            "duration": 1129.0,
            "view_count": 41153,
            "uploader": "Keymon Ache",
            "category": "cartoons/keymon_ache",
            "thumbnail": "https://i.ytimg.com/vi/cbOSnYCHRP8/hq720.jpg"
        },
        {
            "id": "0RyiVETLXv0",
            "title": "Keymon kara रहा है papa की shaadi! | Keymon Ache",
            "url": "https://www.youtube.com/watch?v=0RyiVETLXv0",
            "duration": 619.0,
            "view_count": 79942,
            "uploader": "Keymon Ache",
            "category": "cartoons/keymon_ache",
            "thumbnail": "https://i.ytimg.com/vi/0RyiVETLXv0/hq720.jpg"
        },
        {
            "id": "YsKVukxY5oA",
            "title": "आज तो Rohan के Cool dadaji आए है! | Keymon Ache",
            "url": "https://www.youtube.com/watch?v=YsKVukxY5oA",
            "duration": 638.0,
            "view_count": 109827,
            "uploader": "Keymon Ache",
            "category": "cartoons/keymon_ache",
            "thumbnail": "https://i.ytimg.com/vi/YsKVukxY5oA/hq720.jpg"
        },
        {
            "id": "T6-GNjHmN8I",
            "title": "Keymon Ache Season 1 - Episode 1",
            "url": "https://www.youtube.com/watch?v=T6-GNjHmN8I",
            "duration": 662.0,
            "view_count": 11009808,
            "uploader": "JioHotstar Kids",
            "category": "cartoons/keymon_ache",
            "thumbnail": "https://i.ytimg.com/vi/T6-GNjHmN8I/hq720.jpg"
        },
        {
            "id": "GtQtKuS9FQY",
            "title": "Keymon Ache | Jinn! 😱 तुम्हे Homework करना आता है? 😜📚 | Part 1 of 2",
            "url": "https://www.youtube.com/watch?v=GtQtKuS9FQY",
            "duration": 654.0,
            "view_count": 190397,
            "uploader": "Sonic Gang",
            "category": "cartoons/keymon_ache",
            "thumbnail": "https://i.ytimg.com/vi/GtQtKuS9FQY/hq720.jpg"
        }
    ]
}