{
    "page": 5,
    "total_pages": 103,
    "total_items": 5125,
    "items": [
        {
            "id": "vbMdrYgvWCw",
            "title": "🔥A MOVIE WORTH EVERY MINUTE OF YOUR TIME! Thrilling Adventure Action | Watch Online Today",
            "url": "https://www.youtube.com/watch?v=vbMdrYgvWCw",
            "duration": 5590.0,
            "view_count": 392430,
            "uploader": "7 Movie",
            "category": "english",
            "thumbnail": "https://i.ytimg.com/vi/vbMdrYgvWCw/hq720.jpg"
        },
        {
            "id": "O7oBvGS8wj0",
            "title": "BLACK TUNNEL: Soldier Trapped Underground | Survival Action Full Movie 2026 | English",
            "url": "https://www.youtube.com/watch?v=O7oBvGS8wj0",
            "duration": 3759.0,
            "view_count": 32783,
            "uploader": "AI Trailer Cinema",
            "category": "english",
            "thumbnail": "https://i.ytimg.com/vi/O7oBvGS8wj0/hq720_custom_2.jpg"
        },
        {
            "id": "vuHkig0AslQ",
            "title": "ACTION CRIME | Gangs Are After Him for Filming a Murder | Full Movie in English, 4K",
            "url": "https://www.youtube.com/watch?v=vuHkig0AslQ",
            "duration": 4403.0,
            "view_count": 15305,
            "uploader": "Golden Lens",
            "category": "english",
            "thumbnail": "https://i.ytimg.com/vi/vuHkig0AslQ/hq720.jpg"
        },
        {
            "id": "HDeTXkaLU9U",
            "title": "Don’t Miss This Haunted Childhood Nightmare | Full Movie",
            "url": "https://www.youtube.com/watch?v=HDeTXkaLU9U",
            "duration": 5407.0,
            "view_count": 4575,
            "uploader": "FilmIsNow Horror Movies",
            "category": "english",
            "thumbnail": "https://i.ytimg.com/vi/HDeTXkaLU9U/hq720.jpg"
        },
        {
            "id": "g2LB2CsxrGo",
            "title": "Mother of Death | HORROR | Full Movie in English",
            "url": "https://www.youtube.com/watch?v=g2LB2CsxrGo",
            "duration": 4619.0,
            "view_count": 67123,
            "uploader": "Boxoffice | NEW Full Movies in English",
            "category": "english",
            "thumbnail": "https://i.ytimg.com/vi/g2LB2CsxrGo/hq720.jpg"
        },
        {
            "id": "KJYLXDD7UwM",
            "title": "TRAIN HUNT (2026) | Jason Statham & Iko Uwais | Full Action Movie",
            "url": "https://www.youtube.com/watch?v=KJYLXDD7UwM",
            "duration": 5093.0,
            "view_count": 61787,
            "uploader": "5 stars Entertainment",
            "category": "english",
            "thumbnail": "https://i.ytimg.com/vi/KJYLXDD7UwM/hq720.jpg"
        },
        {
            "id": "mge-NQSX9Wk",
            "title": "Baby Bedlam FULL MOVIE | Family Movies | Joe Piscopo & Julie Hagerty | Girls Night In Movies",
            "url": "https://www.youtube.com/watch?v=mge-NQSX9Wk",
            "duration": 4972.0,
            "view_count": 248052,
            "uploader": "Girls Night In ",
            "category": "english",
            "thumbnail": "https://i.ytimg.com/vi/mge-NQSX9Wk/hq720.jpg"
        },
        {
            "id": "DQQFYGS-S8s",
            "title": "The Wrong Guy | English Full Movie | Comedy Thriller",
            "url": "https://www.youtube.com/watch?v=DQQFYGS-S8s",
            "duration": 5203.0,
            "view_count": 336272,
            "uploader": "Frame by Frame",
            "category": "english",
            "thumbnail": "https://i.ytimg.com/vi/DQQFYGS-S8s/hq720.jpg"
        },
        {
            "id": "L0st0a7WcFg",
            "title": "Repo Chick | English Full Movie | Comedy Crime",
            "url": "https://www.youtube.com/watch?v=L0st0a7WcFg",
            "duration": 4933.0,
            "view_count": 5624,
            "uploader": "GEM: Film Library",
            "category": "english",
            "thumbnail": "https://i.ytimg.com/vi/L0st0a7WcFg/hq720.jpg"
        },
        {
            "id": "_Am_hsi9hvQ",
            "title": "The Man in the Hat | English Full Movie | Comedy Drama",
            "url": "https://www.youtube.com/watch?v=_Am_hsi9hvQ",
            "duration": 5314.0,
            "view_count": 12426,
            "uploader": "GEM: Film Library",
            "category": "english",
            "thumbnail": "https://i.ytimg.com/vi/_Am_hsi9hvQ/hq720.jpg"
        },
        {
            "id": "PMeHdc25BGE",
            "title": "Lost in Love | Full Romance Movie | Sara Fletcher | Nick Ferry",
            "url": "https://www.youtube.com/watch?v=PMeHdc25BGE",
            "duration": 5207.0,
            "view_count": 19859235,
            "uploader": "SparkTV",
            "category": "english",
            "thumbnail": "https://i.ytimg.com/vi/PMeHdc25BGE/hq720.jpg"
        },
        {
            "id": "HvzGbG2wRGo",
            "title": "Single and Ready to Mingle | ROMANCE | Full Movie in English",
            "url": "https://www.youtube.com/watch?v=HvzGbG2wRGo",
            "duration": 5025.0,
            "view_count": 1063,
            "uploader": "Boxoffice | TV Movies in English",
            "category": "english",
            "thumbnail": "https://i.ytimg.com/vi/HvzGbG2wRGo/hq720_custom_2.jpg"
        },
        {
            "id": "TXf_t14R0-s",
            "title": "Triumph of Love | Episode - 5 | (English Dubbed) Mexican Novela Series",
            "url": "https://www.youtube.com/watch?v=TXf_t14R0-s",
            "duration": 2887.0,
            "view_count": 10341,
            "uploader": "Novelas Kingdom",
            "category": "english",
            "thumbnail": "https://i.ytimg.com/vi/TXf_t14R0-s/hq720_custom_2.jpg"
        },
        {
            "id": "wh2bM9NNkV0",
            "title": "Trials of a Teenager | TEEN | Full Movie in English💎",
            "url": "https://www.youtube.com/watch?v=wh2bM9NNkV0",
            "duration": 4615.0,
            "view_count": 10372,
            "uploader": "Boxoffice | TEENS | Full Movies",
            "category": "english",
            "thumbnail": "https://i.ytimg.com/vi/wh2bM9NNkV0/hq720.jpg"
        },
        {
            "id": "P7JtJVhhNdA",
            "title": "🎬 Psychological thriller that keeps you tense until the very last second! | Full Movie in English",
            "url": "https://www.youtube.com/watch?v=P7JtJVhhNdA",
            "duration": 5994.0,
            "view_count": 93367,
            "uploader": "MOVIETOWN media",
            "category": "english",
            "thumbnail": "https://i.ytimg.com/vi/P7JtJVhhNdA/hq720.jpg"
        },
        {
            "id": "GroVSNjVybs",
            "title": "OUTER WORLD - English Movie | Hollywood Blockbuster Action - Adventure Movie Full HD | Bruce Willis",
            "url": "https://www.youtube.com/watch?v=GroVSNjVybs",
            "duration": 7146.0,
            "view_count": 5242010,
            "uploader": "Hollywood English Collection",
            "category": "english",
            "thumbnail": "https://i.ytimg.com/vi/GroVSNjVybs/hqdefault.jpg"
        },
        {
            "id": "aiREm-2JrNM",
            "title": "THE PUNISHER - Jackie Chan Full Action English Movie | Hollywood Movies In English | Pierce Brosnan",
            "url": "https://www.youtube.com/watch?v=aiREm-2JrNM",
            "duration": 6017.0,
            "view_count": 9387902,
            "uploader": "Hollywood English Collection",
            "category": "english",
            "thumbnail": "https://i.ytimg.com/vi/aiREm-2JrNM/hq720.jpg"
        },
        {
            "id": "JTsGcjA0S24",
            "title": "A movie so POWERFUL that you will regret missing it! Watch Action Movies in English...",
            "url": "https://www.youtube.com/watch?v=JTsGcjA0S24",
            "duration": 6365.0,
            "view_count": 504265,
            "uploader": "MOVRION",
            "category": "english",
            "thumbnail": "https://i.ytimg.com/vi/JTsGcjA0S24/hq720.jpg"
        },
        {
            "id": "jESVPjKbKcE",
            "title": "SECRET AGENT : Angelina Jolie | New Action Movie 2026 | Full Movie 4K #actionmovies",
            "url": "https://www.youtube.com/watch?v=jESVPjKbKcE",
            "duration": 5400.0,
            "view_count": 13023,
            "uploader": "Joy Drama",
            "category": "english",
            "thumbnail": "https://i.ytimg.com/vi/jESVPjKbKcE/hq720.jpg"
        },
        {
            "id": "eL12cHgcyb4",
            "title": "THE MAD PIRATES (2026) Donnie Yen | Full Action Movie - Thriller - Adventure | 4K HDR #actionmovies",
            "url": "https://www.youtube.com/watch?v=eL12cHgcyb4",
            "duration": 5400.0,
            "view_count": 1178740,
            "uploader": "ZED Drama",
            "category": "english",
            "thumbnail": "https://i.ytimg.com/vi/eL12cHgcyb4/hq720.jpg"
        },
        {
            "id": "aQXR7RthBuc",
            "title": "Cinderella | Full Movie | Epic Romantic Drama | Complete Mini Series | Cenerentola",
            "url": "https://www.youtube.com/watch?v=aQXR7RthBuc",
            "duration": 12551.0,
            "view_count": 25373613,
            "uploader": "Movie Central",
            "category": "english",
            "thumbnail": "https://i.ytimg.com/vi/aQXR7RthBuc/hq720.jpg"
        },
        {
            "id": "0RiBQmt3roI",
            "title": "Triumph of Love | Episode - 7 | (English Dubbed) Mexican Novela Series",
            "url": "https://www.youtube.com/watch?v=0RiBQmt3roI",
            "duration": 2550.0,
            "view_count": 2299,
            "uploader": "Novelas Kingdom",
            "category": "english",
            "thumbnail": "https://i.ytimg.com/vi/0RiBQmt3roI/hq720_custom_2.jpg"
        },
        {
            "id": "YnTA37GvMaU",
            "title": "Amityville Witches | HORROR | Full Movie in English",
            "url": "https://www.youtube.com/watch?v=YnTA37GvMaU",
            "duration": 5405.0,
            "view_count": 422793,
            "uploader": "Scary Movies",
            "category": "english",
            "thumbnail": "https://i.ytimg.com/vi/YnTA37GvMaU/hq720.jpg"
        },
        {
            "id": "SE7C8E0EC74",
            "title": "END OF THE WORLD: 2026 | Full Movie | English | Disaster | Thriller | 4K",
            "url": "https://www.youtube.com/watch?v=SE7C8E0EC74",
            "duration": 3884.0,
            "view_count": 1766432,
            "uploader": "Epic AI Films",
            "category": "english",
            "thumbnail": "https://i.ytimg.com/vi/SE7C8E0EC74/hq720.jpg"
        },
        {
            "id": "kXRTlTBr7lE",
            "title": "English Vinglish (2012) | Telugu Dubbed Full Movie | Sridevi, Adil Hussain | Emotional, Drama (HD)",
            "url": "https://www.youtube.com/watch?v=kXRTlTBr7lE",
            "duration": 7694.0,
            "view_count": 933730,
            "uploader": "Eros Universe South",
            "category": "telugu",
            "thumbnail": "https://i.ytimg.com/vi/kXRTlTBr7lE/hq720.jpg"
        },
        {
            "id": "_qGNW7VyigQ",
            "title": "Everyone Must See This Movie! Based on Real Events | Watch Now 🎬",
            "url": "https://www.youtube.com/watch?v=_qGNW7VyigQ",
            "duration": 5827.0,
            "view_count": 586357,
            "uploader": "Kinopower",
            "category": "english",
            "thumbnail": "https://i.ytimg.com/vi/_qGNW7VyigQ/hq720.jpg"
        },
        {
            "id": "0s8ry-22gjA",
            "title": "MAFIA BOSS BEHIND BARS Becomes a Mentor — the Action Movie in English",
            "url": "https://www.youtube.com/watch?v=0s8ry-22gjA",
            "duration": 4984.0,
            "view_count": 33997269,
            "uploader": "MILLIANOFILM",
            "category": "english",
            "thumbnail": "https://i.ytimg.com/vi/0s8ry-22gjA/hq720.jpg"
        },
        {
            "id": "EFrXN0zLv9o",
            "title": "The Homeless Man Became a Boxing Champion! | Full Movie in English",
            "url": "https://www.youtube.com/watch?v=EFrXN0zLv9o",
            "duration": 5920.0,
            "view_count": 2114260,
            "uploader": "MOVIEBAND production",
            "category": "english",
            "thumbnail": "https://i.ytimg.com/vi/EFrXN0zLv9o/hq720.jpg"
        },
        {
            "id": "p6Iq4nT_CHM",
            "title": "English Vinglish (2012) | Tamil Dubbed Full Movie | Sridevi, Adil Hussain | Emotional Drama (HD)",
            "url": "https://www.youtube.com/watch?v=p6Iq4nT_CHM",
            "duration": 7694.0,
            "view_count": 441463,
            "uploader": "Eros Universe Tamil",
            "category": "english",
            "thumbnail": "https://i.ytimg.com/vi/p6Iq4nT_CHM/hq720.jpg?sqp=-oaymwEcCNAFEJQDSFXyq4qpAw4IARUAAIhCGAFwAcABBg==&rs=AOn4CLAYbxEaKAEC-0G7ObKJheYlxvRmuQ",
            "added_date": "2026-04-16T07:31:04.437607Z",
            "source": "youtube"
        },
        {
            "id": "xjO_1TOzmc0",
            "title": "ARMOUR OF GOD 3 - Hollywood English Movie | Blockbuster Jackie Chan Action Full Movies In English HD",
            "url": "https://www.youtube.com/watch?v=xjO_1TOzmc0",
            "duration": 5971.0,
            "view_count": 26911805,
            "uploader": "Blockbuster English Movies",
            "category": "english",
            "thumbnail": "https://i.ytimg.com/vi/xjO_1TOzmc0/hq720.jpg"
        },
        {
            "id": "YTltMPQAeG0",
            "title": "Tape | English Full Movie | Drama Thriller",
            "url": "https://www.youtube.com/watch?v=YTltMPQAeG0",
            "duration": 5634.0,
            "view_count": 1472,
            "uploader": "Drama Vision",
            "category": "english",
            "thumbnail": "https://i.ytimg.com/vi/YTltMPQAeG0/hq720.jpg"
        },
        {
            "id": "0rZvsOlYOHk",
            "title": "The Boy She Met Online 2025 | A Thriller Movies 2025 New Releases | Based On True Story 2025",
            "url": "https://www.youtube.com/watch?v=0rZvsOlYOHk",
            "duration": 6931.0,
            "view_count": 869558,
            "uploader": "9 Studio",
            "category": "english",
            "thumbnail": "https://i.ytimg.com/vi/0rZvsOlYOHk/hq720.jpg"
        },
        {
            "id": "M6gZVsumTDA",
            "title": "Dangerous Dogs (2026) Donnie Yen | Full Action Movie - Thriller - Adventure | 4K HDR #actionmovies",
            "url": "https://www.youtube.com/watch?v=M6gZVsumTDA",
            "duration": 6700.0,
            "view_count": 30872,
            "uploader": "ZED Drama",
            "category": "english",
            "thumbnail": "https://i.ytimg.com/vi/M6gZVsumTDA/hq720.jpg"
        },
        {
            "id": "KBlq4Y480Yc",
            "title": "Jack The Ripper: The London Slasher FULL MOVIE | Thriller Movies | The Midnight Screening",
            "url": "https://www.youtube.com/watch?v=KBlq4Y480Yc",
            "duration": 6055.0,
            "view_count": 696161,
            "uploader": "The Midnight Screening",
            "category": "english",
            "thumbnail": "https://i.ytimg.com/vi/KBlq4Y480Yc/hq720.jpg"
        },
        {
            "id": "-IZ9CbADOqA",
            "title": "🎬 HIGHLY RECOMMENDED TO WATCH THIS MOVIE! High-Rated Action Horror Film | Watch Now",
            "url": "https://www.youtube.com/watch?v=-IZ9CbADOqA",
            "duration": 4795.0,
            "view_count": 2445576,
            "uploader": "FILMDOMINION",
            "category": "english",
            "thumbnail": "https://i.ytimg.com/vi/-IZ9CbADOqA/hq720.jpg"
        },
        {
            "id": "0FWdKqL5fnU",
            "title": "The Mythic Quest | FAMILY, TEEN | Full Movie in English",
            "url": "https://www.youtube.com/watch?v=0FWdKqL5fnU",
            "duration": 5545.0,
            "view_count": 883063,
            "uploader": "MyMovies",
            "category": "english",
            "thumbnail": "https://i.ytimg.com/vi/0FWdKqL5fnU/hq720.jpg"
        },
        {
            "id": "-7JAqk7UqiY",
            "title": "Among the Infected | SCIFI | Full Movie in English",
            "url": "https://www.youtube.com/watch?v=-7JAqk7UqiY",
            "duration": 15835.0,
            "view_count": 7560,
            "uploader": "Boxoffice | SCI-FI | Full Movies",
            "category": "english",
            "thumbnail": "https://i.ytimg.com/vi/-7JAqk7UqiY/hq720.jpg"
        },
        {
            "id": "hVNFHKHs50E",
            "title": "Summer Forever | ROMANCE | Full Movie in English",
            "url": "https://www.youtube.com/watch?v=hVNFHKHs50E",
            "duration": 4891.0,
            "view_count": 63242,
            "uploader": "Boxoffice | ROMANCE | Full Movies",
            "category": "english",
            "thumbnail": "https://i.ytimg.com/vi/hVNFHKHs50E/hq720.jpg"
        },
        {
            "id": "tSIiSgKigNs",
            "title": "NYDENION 🎬 Exclusive Full Sci-Fi Movie 🎬 English HD",
            "url": "https://www.youtube.com/watch?v=tSIiSgKigNs",
            "duration": 5406.0,
            "view_count": 318715,
            "uploader": "WATCH NOW - SCI-FI & FANTASY",
            "category": "english",
            "thumbnail": "https://i.ytimg.com/vi/tSIiSgKigNs/hq720.jpg"
        },
        {
            "id": "31X9vjPfy4A",
            "title": "🎬 Everyone Recommends This Movie! Don’t Miss It — Watch Full Film Free Now 👆",
            "url": "https://www.youtube.com/watch?v=31X9vjPfy4A",
            "duration": 5336.0,
            "view_count": 98284,
            "uploader": "FilmVaultX",
            "category": "english",
            "thumbnail": "https://i.ytimg.com/vi/31X9vjPfy4A/hq720.jpg"
        },
        {
            "id": "hqwqOmtz0gA",
            "title": "[FULL HD] She Married a Homeless CEO?! | Full Mini Drama HD | Romantic Comedy Series",
            "url": "https://www.youtube.com/watch?v=hqwqOmtz0gA",
            "duration": 5346.0,
            "view_count": 867472,
            "uploader": "Circuit Dramas",
            "category": "english",
            "thumbnail": "https://i.ytimg.com/vi/hqwqOmtz0gA/hq720.jpg"
        },
        {
            "id": "QMddIawTOrI",
            "title": "KUNG FU (2026) Donnie Yen | Full Action Movie - Thriller - Adventure | 4K HDR #actionmovies",
            "url": "https://www.youtube.com/watch?v=QMddIawTOrI",
            "duration": 5709.0,
            "view_count": 1687,
            "uploader": "ZED Drama",
            "category": "english",
            "thumbnail": "https://i.ytimg.com/vi/QMddIawTOrI/hq720.jpg"
        },
        {
            "id": "8Ser7R8PUy8",
            "title": "This Film’s Story Deserves an Oscar! Watch This Thriller Free | Full Movie",
            "url": "https://www.youtube.com/watch?v=8Ser7R8PUy8",
            "duration": 5421.0,
            "view_count": 612113,
            "uploader": "FilmVaultX",
            "category": "english",
            "thumbnail": "https://i.ytimg.com/vi/8Ser7R8PUy8/hq720.jpg"
        },
        {
            "id": "RW6v5IEuUBE",
            "title": "Full Intense Mafia Movie | The rise of a new mafia generation | Crime Movies",
            "url": "https://www.youtube.com/watch?v=RW6v5IEuUBE",
            "duration": 5476.0,
            "view_count": 1185693,
            "uploader": "More Movies in English",
            "category": "english",
            "thumbnail": "https://i.ytimg.com/vi/RW6v5IEuUBE/hq720.jpg"
        },
        {
            "id": "IK2E8DePJIM",
            "title": "THE INN 🎬 Full Horror Movie 🎬 English HD",
            "url": "https://www.youtube.com/watch?v=IK2E8DePJIM",
            "duration": 3952.0,
            "view_count": 7080,
            "uploader": "Watch Movies Now!",
            "category": "english",
            "thumbnail": "https://i.ytimg.com/vi/IK2E8DePJIM/hq720.jpg"
        },
        {
            "id": "QDnBspYTah8",
            "title": "Flood FULL MOVIE | Disaster Movies | Tom Hardy | The Midnight Screening",
            "url": "https://www.youtube.com/watch?v=QDnBspYTah8",
            "duration": 11018.0,
            "view_count": 1559189,
            "uploader": "The Midnight Screening",
            "category": "english",
            "thumbnail": "https://i.ytimg.com/vi/QDnBspYTah8/hq720.jpg"
        },
        {
            "id": "DTNaOoFtFLU",
            "title": "Root Letter | English Full Movie | Drama Mystery Thriller",
            "url": "https://www.youtube.com/watch?v=DTNaOoFtFLU",
            "duration": 5076.0,
            "view_count": 224,
            "uploader": "GEM: Film Library",
            "category": "english",
            "thumbnail": "https://i.ytimg.com/vi/DTNaOoFtFLU/hq720.jpg"
        },
        {
            "id": "FC4OuuW5Uzs",
            "title": "THE MAD PIRATES (2026) Donnie Yen | Full Action Movie - Thriller - Adventure | 4K HDR #actionmovies",
            "url": "https://www.youtube.com/watch?v=FC4OuuW5Uzs",
            "duration": 5834.0,
            "view_count": 96704,
            "uploader": "ZED Drama",
            "category": "english",
            "thumbnail": "https://i.ytimg.com/vi/FC4OuuW5Uzs/hq720.jpg"
        },
        {
            "id": "rPJLGDea1NU",
            "title": "THE MANDALORIAN Full Movie 2025:Star Wars | sci fi Action Movies 2025 English (Game Movie)",
            "url": "https://www.youtube.com/watch?v=rPJLGDea1NU",
            "duration": 6419.0,
            "view_count": 469606,
            "uploader": "Ghetto The NPC",
            "category": "english",
            "thumbnail": "https://i.ytimg.com/vi/rPJLGDea1NU/hq720.jpg"
        },
        {
            "id": "IA5jHllkpks",
            "title": "DEATH WARRANT  | Jason Statham | New Action Movie 2025 | Full Movie | 4K Ultra #actionmovies",
            "url": "https://www.youtube.com/watch?v=IA5jHllkpks",
            "duration": 5896.0,
            "view_count": 237708,
            "uploader": "Romántica Canción",
            "category": "english",
            "thumbnail": "https://i.ytimg.com/vi/IA5jHllkpks/hq720.jpg"
        }
    ]
}