{
    "page": 95,
    "total_pages": 103,
    "total_items": 5125,
    "items": [
        {
            "id": "BZFAz040fcM",
            "title": "Shiva created Desert Dune Cycle | Shiva Punjabi Dhamaka",
            "url": "https://www.youtube.com/watch?v=BZFAz040fcM",
            "duration": 1373.0,
            "view_count": 915933,
            "uploader": "Shiva Hindi TV Show",
            "category": "cartoons/shiva",
            "thumbnail": "https://i.ytimg.com/vi/BZFAz040fcM/hq720.jpg"
        },
        {
            "id": "8cdTQoOsOUI",
            "title": "The Jarava Tribe | जारवा जनजाति | शिवा | Ep 201 | Super Action Cartoon | Shiva Show 2025 Hindi",
            "url": "https://www.youtube.com/watch?v=8cdTQoOsOUI",
            "duration": 638.0,
            "view_count": 2019281,
            "uploader": "Shiva TV Show Hindi",
            "category": "cartoons/shiva",
            "thumbnail": "https://i.ytimg.com/vi/8cdTQoOsOUI/hq720.jpg"
        },
        {
            "id": "lpz5TQbOwgw",
            "title": "Super Jelly का Attack! 🍮💥 कैसे बचेगा Shiva? 🏃‍♂️😬 | Shiva | शिवा",
            "url": "https://www.youtube.com/watch?v=lpz5TQbOwgw",
            "duration": 1196.0,
            "view_count": 3154836,
            "uploader": "Sonic Gang",
            "category": "cartoons/shiva",
            "thumbnail": "https://i.ytimg.com/vi/lpz5TQbOwgw/hq720.jpg"
        },
        {
            "id": "JN-j56WQaoU",
            "title": "Shiva | शिवा | Sasti Bijli Sookha Dam  | Episode 47 | Download Voot Kids App",
            "url": "https://www.youtube.com/watch?v=JN-j56WQaoU",
            "duration": 1260.0,
            "view_count": 17432843,
            "uploader": "JioHotstar Kids",
            "category": "cartoons/shiva",
            "thumbnail": "https://i.ytimg.com/vi/JN-j56WQaoU/hq720.jpg"
        },
        {
            "id": "aS95SZO1T5A",
            "title": "Shiva की नई Electro Cycle | Shiva",
            "url": "https://www.youtube.com/watch?v=aS95SZO1T5A",
            "duration": 2371.0,
            "view_count": 1279764,
            "uploader": "Shiva Hindi TV Show",
            "category": "cartoons/shiva",
            "thumbnail": "https://i.ytimg.com/vi/aS95SZO1T5A/hq720.jpg"
        },
        {
            "id": "qNbBVQuECV4",
            "title": "Shiva took his friends on a tour of the village. Shiva Punjabi Dhamaka",
            "url": "https://www.youtube.com/watch?v=qNbBVQuECV4",
            "duration": 1209.0,
            "view_count": 424296,
            "uploader": "Shiva Hindi TV Show",
            "category": "cartoons/shiva",
            "thumbnail": "https://i.ytimg.com/vi/qNbBVQuECV4/hq720.jpg"
        },
        {
            "id": "9C1SgaE3avU",
            "title": "Chasing Time का Secret | Shiva | शिवा",
            "url": "https://www.youtube.com/watch?v=9C1SgaE3avU",
            "duration": 3686.0,
            "view_count": 413226,
            "uploader": "Sonic Gang",
            "category": "cartoons/shiva",
            "thumbnail": "https://i.ytimg.com/vi/9C1SgaE3avU/hq720.jpg"
        },
        {
            "id": "kE7bhp_Zvhs",
            "title": "ट्रेन में मिला बम | Bomb In The Train | शिवा | Action Special Ep | Shiva TV Show 2025 Hindi",
            "url": "https://www.youtube.com/watch?v=kE7bhp_Zvhs",
            "duration": 2224.0,
            "view_count": 6001784,
            "uploader": "Shiva TV Show Hindi",
            "category": "cartoons/shiva",
            "thumbnail": "https://i.ytimg.com/vi/kE7bhp_Zvhs/hq720.jpg"
        },
        {
            "id": "vRp6jKcfXz8",
            "title": "Adventure Ride Shiva की नई Cycle पर | Shiva",
            "url": "https://www.youtube.com/watch?v=vRp6jKcfXz8",
            "duration": 2241.0,
            "view_count": 4701600,
            "uploader": "Shiva Hindi TV Show",
            "category": "cartoons/shiva",
            "thumbnail": "https://i.ytimg.com/vi/vRp6jKcfXz8/hq720.jpg"
        },
        {
            "id": "kpgeYZIhGO4",
            "title": "Athlete Lootera  | Shiva Ep 168 Action Cartoon Story For Kids | Shiva Cartoon | Boonie Bears Hindi",
            "url": "https://www.youtube.com/watch?v=kpgeYZIhGO4",
            "duration": 1081.0,
            "view_count": 243181,
            "uploader": "Boonie Bears",
            "category": "cartoons/shiva",
            "thumbnail": "https://i.ytimg.com/vi/kpgeYZIhGO4/hq720.jpg"
        },
        {
            "id": "Eo7-ojnhzzc",
            "title": "Shiva | शिवा | Finding Nanaji | Episode 33 | Download Voot Kids App",
            "url": "https://www.youtube.com/watch?v=Eo7-ojnhzzc",
            "duration": 1215.0,
            "view_count": 6238189,
            "uploader": "JioHotstar Kids",
            "category": "cartoons/shiva",
            "thumbnail": "https://i.ytimg.com/vi/Eo7-ojnhzzc/hq720.jpg"
        },
        {
            "id": "W_6vxTRq1Vk",
            "title": "Shiva | शिवा | Burning Cars | Episode 91 | Download Voot Kids App",
            "url": "https://www.youtube.com/watch?v=W_6vxTRq1Vk",
            "duration": 1133.0,
            "view_count": 2176821,
            "uploader": "JioHotstar Kids",
            "category": "cartoons/shiva",
            "thumbnail": "https://i.ytimg.com/vi/W_6vxTRq1Vk/hq720.jpg"
        },
        {
            "id": "4MvhYFPG9Dc",
            "title": "Shiva का हुआ Dangerous accident | Shiva",
            "url": "https://www.youtube.com/watch?v=4MvhYFPG9Dc",
            "duration": 2616.0,
            "view_count": 428138,
            "uploader": "Shiva Hindi TV Show",
            "category": "cartoons/shiva",
            "thumbnail": "https://i.ytimg.com/vi/4MvhYFPG9Dc/hq720.jpg"
        },
        {
            "id": "sQre-FGcjgY",
            "title": "Vedas City में भूत! | Shiva | शिवा | Full Episode 10",
            "url": "https://www.youtube.com/watch?v=sQre-FGcjgY",
            "duration": 1330.0,
            "view_count": 5424926,
            "uploader": "JioHotstar Kids",
            "category": "cartoons/shiva",
            "thumbnail": "https://i.ytimg.com/vi/sQre-FGcjgY/hq720.jpg"
        },
        {
            "id": "FlXOlzybJks",
            "title": "Shiva | शिवा | Shiva Vs Cycle Chor | Episode 19 | Download Voot Kids App",
            "url": "https://www.youtube.com/watch?v=FlXOlzybJks",
            "duration": 1283.0,
            "view_count": 16102173,
            "uploader": "JioHotstar Kids",
            "category": "cartoons/shiva",
            "thumbnail": "https://i.ytimg.com/vi/FlXOlzybJks/hq720.jpg"
        },
        {
            "id": "JmqiPrW1K5E",
            "title": "SHIVA JOURNEY TO PLUNOTORIA ｜ Shiva",
            "url": "https://www.youtube.com/watch?v=JmqiPrW1K5E",
            "duration": 4853.0,
            "view_count": 368211,
            "uploader": "Shiva Hindi TV Show",
            "category": "cartoons/shiva",
            "thumbnail": "https://i.ytimg.com/vi/JmqiPrW1K5E/hq720.jpg"
        },
        {
            "id": "RC50GJmbyE4",
            "title": "Cycle Number One | एक नंबर साइकिल | शिवा | Ep 166 | Action Cartoon | Shiva TV Show 2024 Hindi",
            "url": "https://www.youtube.com/watch?v=RC50GJmbyE4",
            "duration": 1039.0,
            "view_count": 2097527,
            "uploader": "Shiva TV Show Hindi",
            "category": "cartoons/shiva",
            "thumbnail": "https://i.ytimg.com/vi/RC50GJmbyE4/hq720.jpg"
        },
        {
            "id": "vYVAOGrhx8A",
            "title": "Kite Flying Fun with Shiva | पंतंग उड़ाने का मज़ा | शिवा | Super Action Ep | Shiva TV Show 2025 Hindi",
            "url": "https://www.youtube.com/watch?v=vYVAOGrhx8A",
            "duration": 2065.0,
            "view_count": 21076483,
            "uploader": "Shiva TV Show Hindi",
            "category": "cartoons/shiva",
            "thumbnail": "https://i.ytimg.com/vi/vYVAOGrhx8A/hq720.jpg"
        },
        {
            "id": "IvuM72XFd8U",
            "title": "SHIVA JOURNEY TO PLUNOTORIA | Shiva",
            "url": "https://www.youtube.com/watch?v=IvuM72XFd8U",
            "duration": 4763.0,
            "view_count": 1094827,
            "uploader": "Shiva Hindi TV Show",
            "category": "cartoons/shiva",
            "thumbnail": "https://i.ytimg.com/vi/IvuM72XFd8U/hq720.jpg"
        },
        {
            "id": "QPXO5Bjq8Ps",
            "title": "Shiva से हार के बाद... Villains का Revenge Plan शुरू | Shiva | शिवा",
            "url": "https://www.youtube.com/watch?v=QPXO5Bjq8Ps",
            "duration": 3540.0,
            "view_count": 370529,
            "uploader": "Sonic Gang",
            "category": "cartoons/shiva",
            "thumbnail": "https://i.ytimg.com/vi/QPXO5Bjq8Ps/hq720.jpg"
        },
        {
            "id": "sD9Ds529iMM",
            "title": "Shiva की हमशकल दोस्त | Shiva",
            "url": "https://www.youtube.com/watch?v=sD9Ds529iMM",
            "duration": 1104.0,
            "view_count": 906622,
            "uploader": "Shiva Hindi TV Show",
            "category": "cartoons/shiva",
            "thumbnail": "https://i.ytimg.com/vi/sD9Ds529iMM/hq720.jpg"
        },
        {
            "id": "LmSUDjMcOFE",
            "title": "Mission Rescue | Shiva Ep 215 Action Cartoon Story For Kids | Shiva Cartoon | Boonie Bears Hindi",
            "url": "https://www.youtube.com/watch?v=LmSUDjMcOFE",
            "duration": 640.0,
            "view_count": 1818382,
            "uploader": "Boonie Bears",
            "category": "cartoons/shiva",
            "thumbnail": "https://i.ytimg.com/vi/LmSUDjMcOFE/hq720.jpg"
        },
        {
            "id": "fmsJPiIDpis",
            "title": "Shiva And The Lost Tribe | Full Movie",
            "url": "https://www.youtube.com/watch?v=fmsJPiIDpis",
            "duration": 4668.0,
            "view_count": 9315609,
            "uploader": "Sonic Gang",
            "category": "cartoons/shiva",
            "thumbnail": "https://i.ytimg.com/vi/fmsJPiIDpis/hq720.jpg"
        },
        {
            "id": "Ei-qPFNvLEU",
            "title": "Shiva और उसके दोस्तों का Unexpected Adventure | Shiva : The Secret World Of Vedas City",
            "url": "https://www.youtube.com/watch?v=Ei-qPFNvLEU",
            "duration": 1433.0,
            "view_count": 6769471,
            "uploader": "Sonic Gang Hindi Movies",
            "category": "cartoons/shiva",
            "thumbnail": "https://i.ytimg.com/vi/Ei-qPFNvLEU/hq720.jpg"
        },
        {
            "id": "TZ4iuzsBrR4",
            "title": "Shiva gets threatened | Shiva Punjabi Dhamaka",
            "url": "https://www.youtube.com/watch?v=TZ4iuzsBrR4",
            "duration": 1220.0,
            "view_count": 260082,
            "uploader": "Shiva Hindi TV Show",
            "category": "cartoons/shiva",
            "thumbnail": "https://i.ytimg.com/vi/TZ4iuzsBrR4/hq720.jpg"
        },
        {
            "id": "a1-b6LZ-jMk",
            "title": "Hypnotize Magician Fight | Fight with the hypnotized magician | Shiva Tv Show 2026 Hindi Full Ep",
            "url": "https://www.youtube.com/watch?v=a1-b6LZ-jMk",
            "duration": 2164.0,
            "view_count": 189006,
            "uploader": "Shiva TV Show Hindi",
            "category": "cartoons/shiva",
            "thumbnail": "https://i.ytimg.com/vi/a1-b6LZ-jMk/hq720.jpg"
        },
        {
            "id": "47C94_ZCkxk",
            "title": "Banjo vs Shiva... सड़कों पर मचा है कहर | Shiva | शिवा",
            "url": "https://www.youtube.com/watch?v=47C94_ZCkxk",
            "duration": 1293.0,
            "view_count": 943997,
            "uploader": "Sonic Gang",
            "category": "cartoons/shiva",
            "thumbnail": "https://i.ytimg.com/vi/47C94_ZCkxk/hq720.jpg"
        },
        {
            "id": "YMSAehI_iss",
            "title": "Shiva | शिवा | Gold In The Dam | Full Episode 6 | Voot Kids",
            "url": "https://www.youtube.com/watch?v=YMSAehI_iss",
            "duration": 1289.0,
            "view_count": 44557465,
            "uploader": "JioHotstar Kids",
            "category": "cartoons/shiva",
            "thumbnail": "https://i.ytimg.com/vi/YMSAehI_iss/hq720.jpg"
        },
        {
            "id": "xlHHI8MRxcg",
            "title": "Karate Champion Vs Shiva | शिवा और कराटे मास्टर | शिवा Special Ep | Shiva TV Show 2025 Hindi",
            "url": "https://www.youtube.com/watch?v=xlHHI8MRxcg",
            "duration": 2159.0,
            "view_count": 2017251,
            "uploader": "Shiva TV Show Hindi",
            "category": "cartoons/shiva",
            "thumbnail": "https://i.ytimg.com/vi/xlHHI8MRxcg/hq720.jpg"
        },
        {
            "id": "p9HVWZwRMx8",
            "title": "Shiva vs भेड़िया... Vedas City में डर का माहौल | Shiva | शिवा",
            "url": "https://www.youtube.com/watch?v=p9HVWZwRMx8",
            "duration": 3575.0,
            "view_count": 946936,
            "uploader": "Sonic Gang",
            "category": "cartoons/shiva",
            "thumbnail": "https://i.ytimg.com/vi/p9HVWZwRMx8/hq720.jpg"
        },
        {
            "id": "zN4SyLEGRpk",
            "title": "Jeeva करना चाहता है Shiva के Brain को Control  | Shiva: The Rise of Technosapiens",
            "url": "https://www.youtube.com/watch?v=zN4SyLEGRpk",
            "duration": 1400.0,
            "view_count": 1658959,
            "uploader": "Sonic Gang Hindi Movies",
            "category": "cartoons/shiva",
            "thumbnail": "https://i.ytimg.com/vi/zN4SyLEGRpk/hq720.jpg"
        },
        {
            "id": "zse7Noz0QEQ",
            "title": "Shiva - Full Episode 43 - The Crocodile",
            "url": "https://www.youtube.com/watch?v=zse7Noz0QEQ",
            "duration": 1266.0,
            "view_count": 26935363,
            "uploader": "JioHotstar Kids",
            "category": "cartoons/shiva",
            "thumbnail": "https://i.ytimg.com/vi/zse7Noz0QEQ/hq720.jpg"
        },
        {
            "id": "W_u-N_u15lw",
            "title": "Shiva की Squad और एक चालाक Enemy | Shiva | शिवा",
            "url": "https://www.youtube.com/watch?v=W_u-N_u15lw",
            "duration": 3639.0,
            "view_count": 375627,
            "uploader": "Sonic Gang",
            "category": "cartoons/shiva",
            "thumbnail": "https://i.ytimg.com/vi/W_u-N_u15lw/hq720.jpg"
        },
        {
            "id": "w1mYq9kACe8",
            "title": "जब Shiva ने Dr. Thrill का Salt वाला Secret खोला | Shiva | शिवा",
            "url": "https://www.youtube.com/watch?v=w1mYq9kACe8",
            "duration": 4519.0,
            "view_count": 1013576,
            "uploader": "Sonic Gang",
            "category": "cartoons/shiva",
            "thumbnail": "https://i.ytimg.com/vi/w1mYq9kACe8/hq720.jpg"
        },
        {
            "id": "g_gO8cGUboE",
            "title": "Shiva | शिवा | Revenge of The Villains   | Episode  40 | Download Voot Kids App",
            "url": "https://www.youtube.com/watch?v=g_gO8cGUboE",
            "duration": 1079.0,
            "view_count": 3597460,
            "uploader": "JioHotstar Kids",
            "category": "cartoons/shiva",
            "thumbnail": "https://i.ytimg.com/vi/g_gO8cGUboE/hq720.jpg"
        },
        {
            "id": "6WYSrsJg_UE",
            "title": "Shiva's cycle got overclocked.",
            "url": "https://www.youtube.com/watch?v=6WYSrsJg_UE",
            "duration": 2211.0,
            "view_count": 1581359,
            "uploader": "Shiva Hindi TV Show",
            "category": "cartoons/shiva",
            "thumbnail": "https://i.ytimg.com/vi/6WYSrsJg_UE/hq720.jpg"
        },
        {
            "id": "zpUOzoVgGAs",
            "title": "Shiva | शिवा | Sasti Bijli Sookha Dam | Episode 47 | Download Voot Kids App",
            "url": "https://www.youtube.com/watch?v=zpUOzoVgGAs",
            "duration": 1260.0,
            "view_count": 6720653,
            "uploader": "JioHotstar Kids",
            "category": "cartoons/shiva",
            "thumbnail": "https://i.ytimg.com/vi/zpUOzoVgGAs/hq720.jpg"
        },
        {
            "id": "wzsCARSQ_F4",
            "title": "Shiva - Full Episode 53 - The Medicine",
            "url": "https://www.youtube.com/watch?v=wzsCARSQ_F4",
            "duration": 1268.0,
            "view_count": 111569658,
            "uploader": "JioHotstar Kids",
            "category": "cartoons/shiva",
            "thumbnail": "https://i.ytimg.com/vi/wzsCARSQ_F4/hq720.jpg"
        },
        {
            "id": "n1Aiq207Fas",
            "title": "Help Shiva With His Adventure This Saturday | Shiva",
            "url": "https://www.youtube.com/watch?v=n1Aiq207Fas",
            "duration": 7106.0,
            "view_count": 279591,
            "uploader": "Shiva Hindi TV Show",
            "category": "cartoons/shiva",
            "thumbnail": "https://i.ytimg.com/vi/n1Aiq207Fas/hq720.jpg"
        },
        {
            "id": "5V0ubxOVl2Y",
            "title": "Shiva |  शिवा | Full Episode 1 | The Volcano | Voot Kids",
            "url": "https://www.youtube.com/watch?v=5V0ubxOVl2Y",
            "duration": 1329.0,
            "view_count": 16680115,
            "uploader": "JioHotstar Kids",
            "category": "cartoons/shiva",
            "thumbnail": "https://i.ytimg.com/vi/5V0ubxOVl2Y/hq720.jpg"
        },
        {
            "id": "0wojnW9jU2k",
            "title": "Biggest Dog Thief | सबसे बड़ा कुत्ता चोर | शिवा Best Ep | Shiva Tv Show 2025 Hindi",
            "url": "https://www.youtube.com/watch?v=0wojnW9jU2k",
            "duration": 1266.0,
            "view_count": 2482686,
            "uploader": "Shiva TV Show Hindi",
            "category": "cartoons/shiva",
            "thumbnail": "https://i.ytimg.com/vi/0wojnW9jU2k/hq720.jpg"
        },
        {
            "id": "jgGV-EhWE4M",
            "title": "बच्चा मत कहना मिर्ची अंकल!| शिवा |मे जंगल मे मंगल करता हूँ और तुम दंगल क मूड मे हो | Full Episode",
            "url": "https://www.youtube.com/watch?v=jgGV-EhWE4M",
            "duration": 1313.0,
            "view_count": 1950829,
            "uploader": "Sonic Gang",
            "category": "cartoons/shiva",
            "thumbnail": "https://i.ytimg.com/vi/jgGV-EhWE4M/hq720.jpg"
        },
        {
            "id": "9lfUuLJbKBw",
            "title": "Super Bheem - Ram Horns Attack | Cartoons for Kids in Hindi | Adventure Videos",
            "url": "https://www.youtube.com/watch?v=9lfUuLJbKBw",
            "duration": 1790.0,
            "view_count": 76865,
            "uploader": "Super Bheem",
            "category": "cartoons/super_bheem",
            "thumbnail": "https://i.ytimg.com/vi/9lfUuLJbKBw/hq720.jpg"
        },
        {
            "id": "v-5bsikCjSo",
            "title": "Super Bheem - Kalia ka Naya Dost | Adventure Cartoons for Kids | Fun Kids Videos",
            "url": "https://www.youtube.com/watch?v=v-5bsikCjSo",
            "duration": 1815.0,
            "view_count": 6954211,
            "uploader": "Super Bheem",
            "category": "cartoons/super_bheem",
            "thumbnail": "https://i.ytimg.com/vi/v-5bsikCjSo/hq720.jpg"
        },
        {
            "id": "S4ZxTVhoTVw",
            "title": "Super Bheem and Chutki - Dance Time in Space | Cartoon for Kids in Hindi | Funny Videos",
            "url": "https://www.youtube.com/watch?v=S4ZxTVhoTVw",
            "duration": 1831.0,
            "view_count": 208687,
            "uploader": "Super Bheem",
            "category": "cartoons/super_bheem",
            "thumbnail": "https://i.ytimg.com/vi/S4ZxTVhoTVw/hq720.jpg"
        },
        {
            "id": "Odz_x-pnPTg",
            "title": "Super Bheem - Dragons ki Duniya | Cartoons for Kids | Funny Kids Videos",
            "url": "https://www.youtube.com/watch?v=Odz_x-pnPTg",
            "duration": 1846.0,
            "view_count": 8108140,
            "uploader": "Super Bheem",
            "category": "cartoons/super_bheem",
            "thumbnail": "https://i.ytimg.com/vi/Odz_x-pnPTg/hq720.jpg"
        },
        {
            "id": "UtSMXviYZ6o",
            "title": "Super Bheem - Grandpa's Nap Time | Animated cartoons for kids | Stories for Kids",
            "url": "https://www.youtube.com/watch?v=UtSMXviYZ6o",
            "duration": 1877.0,
            "view_count": 124263,
            "uploader": "Super Bheem",
            "category": "cartoons/super_bheem",
            "thumbnail": "https://i.ytimg.com/vi/UtSMXviYZ6o/hq720.jpg"
        },
        {
            "id": "VuT0iyJBkqY",
            "title": "Super Bheem Fights with Greatest Villains of All Time | Best Cartoon Compilations for Kids",
            "url": "https://www.youtube.com/watch?v=VuT0iyJBkqY",
            "duration": 1846.0,
            "view_count": 1966520,
            "uploader": "Super Bheem",
            "category": "cartoons/super_bheem",
            "thumbnail": "https://i.ytimg.com/vi/VuT0iyJBkqY/hq720.jpg"
        },
        {
            "id": "Hwlqeui63f0",
            "title": "Super Bheem - Marshmallow Planet Adventure | Cartoons for Kids | Funny Kids Videos",
            "url": "https://www.youtube.com/watch?v=Hwlqeui63f0",
            "duration": 1850.0,
            "view_count": 5685289,
            "uploader": "Super Bheem",
            "category": "cartoons/super_bheem",
            "thumbnail": "https://i.ytimg.com/vi/Hwlqeui63f0/hq720.jpg"
        },
        {
            "id": "cROa5k608u0",
            "title": "Super Bheem - Magical World of Saamantar | Adventure Videos for Kids | Funny Kids Cartoons in Hindi",
            "url": "https://www.youtube.com/watch?v=cROa5k608u0",
            "duration": 1784.0,
            "view_count": 162475,
            "uploader": "Super Bheem",
            "category": "cartoons/super_bheem",
            "thumbnail": "https://i.ytimg.com/vi/cROa5k608u0/hq720.jpg"
        }
    ]
}