{
    "page": 76,
    "total_pages": 103,
    "total_items": 5125,
    "items": [
        {
            "id": "o_Rpug2MNHw",
            "title": "A Special Cake for Mighty Raju! 🎂 | Fun Baking Adventure | Hindi Cartoons for Kids",
            "url": "https://www.youtube.com/watch?v=o_Rpug2MNHw",
            "duration": 1890.0,
            "view_count": 76908,
            "uploader": "Mighty Raju - Official Channel",
            "category": "cartoons/mighty_raju",
            "thumbnail": "https://i.ytimg.com/vi/o_Rpug2MNHw/hq720.jpg"
        },
        {
            "id": "rmO8BV_HTBw",
            "title": "Mighty Raju - Charlie Annoys the Cows! 😆| Cartoons for Kids in Hindi | Funny Videos for Kids",
            "url": "https://www.youtube.com/watch?v=rmO8BV_HTBw",
            "duration": 604.0,
            "view_count": 17023,
            "uploader": "Mighty Raju - Official Channel",
            "category": "cartoons/mighty_raju",
            "thumbnail": "https://i.ytimg.com/vi/rmO8BV_HTBw/hq720.jpg"
        },
        {
            "id": "LCZcGC9Tq2c",
            "title": "Mighty Raju - Time Machine | Cartoon for kids | fun videos for kids",
            "url": "https://www.youtube.com/watch?v=LCZcGC9Tq2c",
            "duration": 1866.0,
            "view_count": 3635357,
            "uploader": "Mighty Raju - Official Channel",
            "category": "cartoons/mighty_raju",
            "thumbnail": "https://i.ytimg.com/vi/LCZcGC9Tq2c/hq720.jpg"
        },
        {
            "id": "ZT9xaXF9QwU",
            "title": "Mighty Raju - The Smart Rain Trap! ☔ | Funny Videos for Kids in Hindi | Adventures Videos for Kids",
            "url": "https://www.youtube.com/watch?v=ZT9xaXF9QwU",
            "duration": 689.0,
            "view_count": 24558,
            "uploader": "Mighty Raju - Official Channel",
            "category": "cartoons/mighty_raju",
            "thumbnail": "https://i.ytimg.com/vi/ZT9xaXF9QwU/hq720.jpg"
        },
        {
            "id": "PzRm2svS9p8",
            "title": "Mighty Raju - Paper World | Cartoons for Kids in Hindi | Funny Videos",
            "url": "https://www.youtube.com/watch?v=PzRm2svS9p8",
            "duration": 622.0,
            "view_count": 984274,
            "uploader": "Mighty Raju - Official Channel",
            "category": "cartoons/mighty_raju",
            "thumbnail": "https://i.ytimg.com/vi/PzRm2svS9p8/hq720.jpg"
        },
        {
            "id": "rmLA3Ri0G28",
            "title": "Mighty Raju - Laser Gun Trouble! 😱⚡ | Cartoon for kids in Hindi | Adventures videos for Kids",
            "url": "https://www.youtube.com/watch?v=rmLA3Ri0G28",
            "duration": 688.0,
            "view_count": 5895,
            "uploader": "Mighty Raju - Official Channel",
            "category": "cartoons/mighty_raju",
            "thumbnail": "https://i.ytimg.com/vi/rmLA3Ri0G28/hq720.jpg"
        },
        {
            "id": "-zqODFNFGeE",
            "title": "Mighty Raju - Alien Encounter | Adventure Videos for Kids | Cartoons in Hindi",
            "url": "https://www.youtube.com/watch?v=-zqODFNFGeE",
            "duration": 1799.0,
            "view_count": 188958,
            "uploader": "Mighty Raju - Official Channel",
            "category": "cartoons/mighty_raju",
            "thumbnail": "https://i.ytimg.com/vi/-zqODFNFGeE/hq720.jpg"
        },
        {
            "id": "oIr78qlJ9QM",
            "title": "Mighty Raju - Rain Trouble | Cartoon For Kids | Adventures Cartoon For Kids",
            "url": "https://www.youtube.com/watch?v=oIr78qlJ9QM",
            "duration": 1841.0,
            "view_count": 1047172,
            "uploader": "Mighty Raju - Official Channel",
            "category": "cartoons/mighty_raju",
            "thumbnail": "https://i.ytimg.com/vi/oIr78qlJ9QM/hq720.jpg"
        },
        {
            "id": "PzzeADOAv7c",
            "title": "Happy Birthday Mighty Raju | Celebrating Mighty Raju Birthday | Cartoon For Kids",
            "url": "https://www.youtube.com/watch?v=PzzeADOAv7c",
            "duration": 642.0,
            "view_count": 856991,
            "uploader": "Mighty Raju - Official Channel",
            "category": "cartoons/mighty_raju",
            "thumbnail": "https://i.ytimg.com/vi/PzzeADOAv7c/hq720.jpg"
        },
        {
            "id": "4FQFEEO8Ay0",
            "title": "Mighty Raju - Happy Diwali| Cartoons for Kids | Festival Special",
            "url": "https://www.youtube.com/watch?v=4FQFEEO8Ay0",
            "duration": 1923.0,
            "view_count": 6410203,
            "uploader": "Mighty Raju - Official Channel",
            "category": "cartoons/mighty_raju",
            "thumbnail": "https://i.ytimg.com/vi/4FQFEEO8Ay0/hq720.jpg"
        },
        {
            "id": "gHq03v5_Bto",
            "title": "Mighty Raju - Gadget Gadbad | Cartoons for Kids in Hindi | Funny Kids Videos",
            "url": "https://www.youtube.com/watch?v=gHq03v5_Bto",
            "duration": 624.0,
            "view_count": 6793699,
            "uploader": "Green Gold TV - Official Channel",
            "category": "cartoons/mighty_raju",
            "thumbnail": "https://i.ytimg.com/vi/gHq03v5_Bto/hq720.jpg"
        },
        {
            "id": "PeRojIA1lnQ",
            "title": "Mighty Raju - Giant Dinosaur | Hindi Cartoons for Kids | Adventure Videos for Kids",
            "url": "https://www.youtube.com/watch?v=PeRojIA1lnQ",
            "duration": 631.0,
            "view_count": 702679,
            "uploader": "Mighty Raju - Official Channel",
            "category": "cartoons/mighty_raju",
            "thumbnail": "https://i.ytimg.com/vi/PeRojIA1lnQ/hq720.jpg"
        },
        {
            "id": "7aYBLLZegIM",
            "title": "Mighty Raju - Water Trouble for Cheeky | Cartoons For Kids | Robot Cartoons For Kids",
            "url": "https://www.youtube.com/watch?v=7aYBLLZegIM",
            "duration": 2036.0,
            "view_count": 223917,
            "uploader": "Mighty Raju - Official Channel",
            "category": "cartoons/mighty_raju",
            "thumbnail": "https://i.ytimg.com/vi/7aYBLLZegIM/hq720.jpg"
        },
        {
            "id": "odV5nXbJ7nM",
            "title": "Mighty Raju - Kite Flying Competition 🪁 | Hindi Kids Cartoon | Fun Kids Cartoon Story",
            "url": "https://www.youtube.com/watch?v=odV5nXbJ7nM",
            "duration": 1944.0,
            "view_count": 37070,
            "uploader": "Mighty Raju - Official Channel",
            "category": "cartoons/mighty_raju",
            "thumbnail": "https://i.ytimg.com/vi/odV5nXbJ7nM/hq720.jpg"
        },
        {
            "id": "f8kN3reay7w",
            "title": "Mighty Raju - Best of 2021 | Top 10 Popular Videos | Funny Cartoons for Kids",
            "url": "https://www.youtube.com/watch?v=f8kN3reay7w",
            "duration": 2125.0,
            "view_count": 10842661,
            "uploader": "Mighty Raju - Official Channel",
            "category": "cartoons/mighty_raju",
            "thumbnail": "https://i.ytimg.com/vi/f8kN3reay7w/hq720.jpg"
        },
        {
            "id": "ToB71R9ea4o",
            "title": "Mighty Raju - Dam mein Gadbad | Cartoon for kids | Adventures videos for kids",
            "url": "https://www.youtube.com/watch?v=ToB71R9ea4o",
            "duration": 2720.0,
            "view_count": 222800,
            "uploader": "Mighty Raju - Official Channel",
            "category": "cartoons/mighty_raju",
            "thumbnail": "https://i.ytimg.com/vi/ToB71R9ea4o/hq720.jpg"
        },
        {
            "id": "c0aBXzRB6ws",
            "title": "Mighty Raju - Kimmi The Prankstar | Cartoons for Kids | Fun Videos for Kids",
            "url": "https://www.youtube.com/watch?v=c0aBXzRB6ws",
            "duration": 1800.0,
            "view_count": 13594693,
            "uploader": "Mighty Raju - Official Channel",
            "category": "cartoons/mighty_raju",
            "thumbnail": "https://i.ytimg.com/vi/c0aBXzRB6ws/hq720.jpg"
        },
        {
            "id": "tbAULSUEZ10",
            "title": "Mighty Raju: Clash with the Super Robot | Cartoon for kids | Fun videos for kids",
            "url": "https://www.youtube.com/watch?v=tbAULSUEZ10",
            "duration": 1786.0,
            "view_count": 3691623,
            "uploader": "Mighty Raju - Official Channel",
            "category": "cartoons/mighty_raju",
            "thumbnail": "https://i.ytimg.com/vi/tbAULSUEZ10/hq720.jpg"
        },
        {
            "id": "VZaGrJFxbJA",
            "title": "Mighty Raju - Kaise Hua Giriftar? | Cartoon for kids | Funny videos for kids",
            "url": "https://www.youtube.com/watch?v=VZaGrJFxbJA",
            "duration": 634.0,
            "view_count": 2855134,
            "uploader": "Mighty Raju - Official Channel",
            "category": "cartoons/mighty_raju",
            "thumbnail": "https://i.ytimg.com/vi/VZaGrJFxbJA/hq720.jpg"
        },
        {
            "id": "Wz9TdsAxLQ8",
            "title": "Mighty Raju - Junk Food vs Home Food | Junk Food Challenge | Healthy Food for Kids",
            "url": "https://www.youtube.com/watch?v=Wz9TdsAxLQ8",
            "duration": 606.0,
            "view_count": 1717187,
            "uploader": "Mighty Raju - Official Channel",
            "category": "cartoons/mighty_raju",
            "thumbnail": "https://i.ytimg.com/vi/Wz9TdsAxLQ8/hq720.jpg"
        },
        {
            "id": "LvcwlpgEBUI",
            "title": "Mighty Raju - Remote Controller JCB 🚜🛠️| Hindi Cartoons for Kids | Funny Videos for Kids",
            "url": "https://www.youtube.com/watch?v=LvcwlpgEBUI",
            "duration": 702.0,
            "view_count": 1258416,
            "uploader": "Mighty Raju - Official Channel",
            "category": "cartoons/mighty_raju",
            "thumbnail": "https://i.ytimg.com/vi/LvcwlpgEBUI/hq720.jpg"
        },
        {
            "id": "qU_lxFUKIBA",
            "title": "Motu Patlu in Hindi |  मोटू पतलू  | Udhta Motu | S09 | Animated Series",
            "url": "https://www.youtube.com/watch?v=qU_lxFUKIBA",
            "duration": 647.0,
            "view_count": 4893700,
            "uploader": "Motu Patlu",
            "category": "cartoons/motu_patlu",
            "thumbnail": "https://i.ytimg.com/vi/qU_lxFUKIBA/hq720.jpg"
        },
        {
            "id": "fOPBOE2NUM8",
            "title": "Motu Patlu | मोटू पतलू S5 | Meals On Wheel | Episode 168 Part 1 | Voot Kids",
            "url": "https://www.youtube.com/watch?v=fOPBOE2NUM8",
            "duration": 686.0,
            "view_count": 32352502,
            "uploader": "JioHotstar Kids",
            "category": "cartoons/motu_patlu",
            "thumbnail": "https://i.ytimg.com/vi/fOPBOE2NUM8/hq720.jpg"
        },
        {
            "id": "qxZ1_HdMGWg",
            "title": "John ने Crown चुराया, अब कौन बचाएगा शहर? | Motu Patlu | मोटू पतलू",
            "url": "https://www.youtube.com/watch?v=qxZ1_HdMGWg",
            "duration": 4049.0,
            "view_count": 1628304,
            "uploader": "Sonic Gang",
            "category": "cartoons/motu_patlu",
            "thumbnail": "https://i.ytimg.com/vi/qxZ1_HdMGWg/hq720.jpg"
        },
        {
            "id": "qEg2bEDjLgo",
            "title": "Motu Patlu | मोटू पतलू S1 | Ward Boys  | Episodes 40 to 42",
            "url": "https://www.youtube.com/watch?v=qEg2bEDjLgo",
            "duration": 3702.0,
            "view_count": 33267269,
            "uploader": "JioHotstar Kids",
            "category": "cartoons/motu_patlu",
            "thumbnail": "https://i.ytimg.com/vi/qEg2bEDjLgo/hq720.jpg"
        },
        {
            "id": "F0OBD_WW-TE",
            "title": "जब Motu बना Doctor और शुरू हुआ scam | Motu Patlu | मोटू पतलू",
            "url": "https://www.youtube.com/watch?v=F0OBD_WW-TE",
            "duration": 3845.0,
            "view_count": 9759460,
            "uploader": "Sonic Gang",
            "category": "cartoons/motu_patlu",
            "thumbnail": "https://i.ytimg.com/vi/F0OBD_WW-TE/hq720.jpg"
        },
        {
            "id": "WSRQq2hWnos",
            "title": "Doggy की देखभाल | Motu Patlu Punjab Special | Motu Patlu | मोटू पतलू",
            "url": "https://www.youtube.com/watch?v=WSRQq2hWnos",
            "duration": 1288.0,
            "view_count": 1819502,
            "uploader": "Sonic Gang",
            "category": "cartoons/motu_patlu",
            "thumbnail": "https://i.ytimg.com/vi/WSRQq2hWnos/hq720.jpg"
        },
        {
            "id": "qvmdctUw-Tg",
            "title": "समोसे वाला गया गाँव! Motu की हालत खराब! | Motu Patlu Punjab Special | Motu Patlu | मोटू पतलू",
            "url": "https://www.youtube.com/watch?v=qvmdctUw-Tg",
            "duration": 1283.0,
            "view_count": 14876103,
            "uploader": "Sonic Gang",
            "category": "cartoons/motu_patlu",
            "thumbnail": "https://i.ytimg.com/vi/qvmdctUw-Tg/hq720.jpg"
        },
        {
            "id": "gwSX691bUag",
            "title": "Motu Patlu का राज पाठ | Motu-Patlu",
            "url": "https://www.youtube.com/watch?v=gwSX691bUag",
            "duration": 1328.0,
            "view_count": 9101012,
            "uploader": "Sonic Gang Motu Patlu ",
            "category": "cartoons/motu_patlu",
            "thumbnail": "https://i.ytimg.com/vi/gwSX691bUag/hq720.jpg"
        },
        {
            "id": "XuonGNpGAeA",
            "title": "Motu Patlu का Mauritius में धमाल | Motu Patlu Punjab Special | Motu Patlu | मोटू पतलू",
            "url": "https://www.youtube.com/watch?v=XuonGNpGAeA",
            "duration": 3848.0,
            "view_count": 2322559,
            "uploader": "Sonic Gang",
            "category": "cartoons/motu_patlu",
            "thumbnail": "https://i.ytimg.com/vi/XuonGNpGAeA/hq720.jpg"
        },
        {
            "id": "ME1TVBGSJ9w",
            "title": "Motu के Furfuri Nagar आया Cyclone | Motu-Patlu",
            "url": "https://www.youtube.com/watch?v=ME1TVBGSJ9w",
            "duration": 1358.0,
            "view_count": 20656661,
            "uploader": "Sonic Gang Motu Patlu ",
            "category": "cartoons/motu_patlu",
            "thumbnail": "https://i.ytimg.com/vi/ME1TVBGSJ9w/hq720.jpg"
        },
        {
            "id": "QEPJZ7VXwfA",
            "title": "Motu Patlu | मोटू पतलू S1 | The Game | Episode 34 Part 1 | Download Voot Kids App",
            "url": "https://www.youtube.com/watch?v=QEPJZ7VXwfA",
            "duration": 694.0,
            "view_count": 30955820,
            "uploader": "JioHotstar Kids",
            "category": "cartoons/motu_patlu",
            "thumbnail": "https://i.ytimg.com/vi/QEPJZ7VXwfA/hq720.jpg"
        },
        {
            "id": "bkLSNIlBuOo",
            "title": "Motu और Patlu की Japan की Martial Arts Adventure | Kung-Fu Kings 4:The Challenge of Kung Fu Brothers",
            "url": "https://www.youtube.com/watch?v=bkLSNIlBuOo",
            "duration": 5089.0,
            "view_count": 4644059,
            "uploader": "Sonic Gang Hindi Movies",
            "category": "cartoons/motu_patlu",
            "thumbnail": "https://i.ytimg.com/vi/bkLSNIlBuOo/hq720.jpg"
        },
        {
            "id": "dBPMRuvIRIg",
            "title": "रेगिस्तान जैसी गर्मी से बचाओ भाया!! | Motu Patlu Rajasthan Special | Motu Patlu | मोटू पतलू",
            "url": "https://www.youtube.com/watch?v=dBPMRuvIRIg",
            "duration": 1295.0,
            "view_count": 3370867,
            "uploader": "Sonic Gang",
            "category": "cartoons/motu_patlu",
            "thumbnail": "https://i.ytimg.com/vi/dBPMRuvIRIg/hq720.jpg"
        },
        {
            "id": "3OrhCcOvbDA",
            "title": "Motu Patlu Punjab special | Motu की एक गलती और Boxer का गुस्सा Out of Control | मोटू पतलू",
            "url": "https://www.youtube.com/watch?v=3OrhCcOvbDA",
            "duration": 3888.0,
            "view_count": 1480709,
            "uploader": "Sonic Gang",
            "category": "cartoons/motu_patlu",
            "thumbnail": "https://i.ytimg.com/vi/3OrhCcOvbDA/hq720.jpg"
        },
        {
            "id": "oTvzetGRj_I",
            "title": "Furfuri Nagar में Dog Competition Motu Patlu Rajasthan Special | Motu Patlu | मोटू पतलू",
            "url": "https://www.youtube.com/watch?v=oTvzetGRj_I",
            "duration": 1355.0,
            "view_count": 2954876,
            "uploader": "Sonic Gang",
            "category": "cartoons/motu_patlu",
            "thumbnail": "https://i.ytimg.com/vi/oTvzetGRj_I/hq720.jpg"
        },
        {
            "id": "XOp8J6nkf14",
            "title": "पत्थरों का हमला! | Motu Patlu Punjab Special | Motu Patlu | मोटू पतलू",
            "url": "https://www.youtube.com/watch?v=XOp8J6nkf14",
            "duration": 1298.0,
            "view_count": 363010,
            "uploader": "Sonic Gang",
            "category": "cartoons/motu_patlu",
            "thumbnail": "https://i.ytimg.com/vi/XOp8J6nkf14/hq720.jpg"
        },
        {
            "id": "p0FNxP8I20A",
            "title": "Bhukkad Patlu | भुक्कड़ पतलू | मोटू पतलू Ep 274 | Motu Patlu Tv Show 2025 Hindi",
            "url": "https://www.youtube.com/watch?v=p0FNxP8I20A",
            "duration": 691.0,
            "view_count": 6567795,
            "uploader": "Motu Patlu TV Show Hindi",
            "category": "cartoons/motu_patlu",
            "thumbnail": "https://i.ytimg.com/vi/p0FNxP8I20A/hq720.jpg"
        },
        {
            "id": "MkN4E7VAXkc",
            "title": "Motu Patlu Cartoons In Hindi |  Animated Series | Swimming Pool | Wow Kidz",
            "url": "https://www.youtube.com/watch?v=MkN4E7VAXkc",
            "duration": 680.0,
            "view_count": 99877308,
            "uploader": "WowKidz",
            "category": "cartoons/motu_patlu",
            "thumbnail": "https://i.ytimg.com/vi/MkN4E7VAXkc/hq720.jpg"
        },
        {
            "id": "bKPGnQ6dP2w",
            "title": "Motu Patlu | मोटू पतलू S1 | Motu Patlu Laundry Shop | Episode 256 Part 2 | Voot Kids",
            "url": "https://www.youtube.com/watch?v=bKPGnQ6dP2w",
            "duration": 646.0,
            "view_count": 11932546,
            "uploader": "JioHotstar Kids",
            "category": "cartoons/motu_patlu",
            "thumbnail": "https://i.ytimg.com/vi/bKPGnQ6dP2w/hq720.jpg"
        },
        {
            "id": "KI-Ka4vE4Ow",
            "title": "Motu Patlu in Trouble: Dr. Jhatka की Super Bubble Trap | Motu Patlu | मोटू पतलू",
            "url": "https://www.youtube.com/watch?v=KI-Ka4vE4Ow",
            "duration": 1320.0,
            "view_count": 3496522,
            "uploader": "Sonic Gang",
            "category": "cartoons/motu_patlu",
            "thumbnail": "https://i.ytimg.com/vi/KI-Ka4vE4Ow/hq720.jpg"
        },
        {
            "id": "boaEDlAiK0M",
            "title": "Motu Patlu | मोटू पतलू | Full Episode | Motu के समोसे की दुकान",
            "url": "https://www.youtube.com/watch?v=boaEDlAiK0M",
            "duration": 687.0,
            "view_count": 14195598,
            "uploader": "Sonic Gang",
            "category": "cartoons/motu_patlu",
            "thumbnail": "https://i.ytimg.com/vi/boaEDlAiK0M/hq720.jpg"
        },
        {
            "id": "DEu-9eRmahg",
            "title": "Motu Patlu ने भरी उड़ान Suitcase पर बैठकर | Motu Patlu | मोटू पतलू",
            "url": "https://www.youtube.com/watch?v=DEu-9eRmahg",
            "duration": 3813.0,
            "view_count": 7634959,
            "uploader": "JioHotstar Kids",
            "category": "cartoons/motu_patlu",
            "thumbnail": "https://i.ytimg.com/vi/DEu-9eRmahg/hq720.jpg"
        },
        {
            "id": "1MzaD6mKbNk",
            "title": "Furfuri Nagar में आया एक Mysterious ‘डेंजर मैन’! | Motu Patlu | मोटू पतलू",
            "url": "https://www.youtube.com/watch?v=1MzaD6mKbNk",
            "duration": 3743.0,
            "view_count": 3802098,
            "uploader": "Sonic Gang",
            "category": "cartoons/motu_patlu",
            "thumbnail": "https://i.ytimg.com/vi/1MzaD6mKbNk/hq720.jpg"
        },
        {
            "id": "ivP8axgEeRU",
            "title": "शहर में मचा हंगामा, Motu & Patlu vs Hammer Man | Motu Patlu | मोटू पतलू",
            "url": "https://www.youtube.com/watch?v=ivP8axgEeRU",
            "duration": 3826.0,
            "view_count": 7755276,
            "uploader": "Sonic Gang",
            "category": "cartoons/motu_patlu",
            "thumbnail": "https://i.ytimg.com/vi/ivP8axgEeRU/hq720.jpg"
        },
        {
            "id": "Wmz1cFFhsYQ",
            "title": "Patlu भी बन गया भुक्कड़ | Motu-Patlu",
            "url": "https://www.youtube.com/watch?v=Wmz1cFFhsYQ",
            "duration": 1377.0,
            "view_count": 8630557,
            "uploader": "Sonic Gang Motu Patlu ",
            "category": "cartoons/motu_patlu",
            "thumbnail": "https://i.ytimg.com/vi/Wmz1cFFhsYQ/hq720.jpg"
        },
        {
            "id": "OMwCnQ5HeU4",
            "title": "Motu Patlu और John... दुश्मन अब साथी बनेंगे? | Motu Patlu | मोटू पतलू",
            "url": "https://www.youtube.com/watch?v=OMwCnQ5HeU4",
            "duration": 3975.0,
            "view_count": 3995390,
            "uploader": "Sonic Gang",
            "category": "cartoons/motu_patlu",
            "thumbnail": "https://i.ytimg.com/vi/OMwCnQ5HeU4/hq720.jpg"
        },
        {
            "id": "HTyxTTs-1WU",
            "title": "Motu patlu को मिला Magical Watch | Motu-Patlu",
            "url": "https://www.youtube.com/watch?v=HTyxTTs-1WU",
            "duration": 1351.0,
            "view_count": 7648272,
            "uploader": "Sonic Gang Motu Patlu ",
            "category": "cartoons/motu_patlu",
            "thumbnail": "https://i.ytimg.com/vi/HTyxTTs-1WU/hq720.jpg"
        },
        {
            "id": "V3hhotOvdqs",
            "title": "Motu Patlu और Scooter Race | Motu Patlu | Hindi Cartoon | Comedy Express | Wow Kidz Comedy | #spot",
            "url": "https://www.youtube.com/watch?v=V3hhotOvdqs",
            "duration": 1377.0,
            "view_count": 27145316,
            "uploader": "Wow Kidz Comedy",
            "category": "cartoons/motu_patlu",
            "thumbnail": "https://i.ytimg.com/vi/V3hhotOvdqs/hq720.jpg"
        },
        {
            "id": "ER8gaSXPR8o",
            "title": "मोटू पतलू का दोस्त बना शेर | Motu Patlu And Tiger | Motu Patlu TV Show Hindi Ep Full | मोटू पतलू",
            "url": "https://www.youtube.com/watch?v=ER8gaSXPR8o",
            "duration": 1264.0,
            "view_count": 424816,
            "uploader": "Motu Patlu TV Show Hindi",
            "category": "cartoons/motu_patlu",
            "thumbnail": "https://i.ytimg.com/vi/ER8gaSXPR8o/hq720.jpg"
        }
    ]
}