{
    "page": 48,
    "total_pages": 103,
    "total_items": 5125,
    "items": [
        {
            "id": "xtiXgj7IaJU",
            "title": "जब गार्ड ने पकड़ लिया यमराज को कपल पार्क में क्या करते हुए | यम है हम | Yam Hain Ham | Episode 233",
            "url": "https://www.youtube.com/watch?v=xtiXgj7IaJU",
            "duration": 1192.0,
            "view_count": 268684,
            "uploader": "भोला भंडारी",
            "category": "yam_hain_hum",
            "thumbnail": "https://i.ytimg.com/vi/xtiXgj7IaJU/hq720.jpg"
        },
        {
            "id": "nodGMP2Ayp4",
            "title": "यमराज ने खोला चाइनीस खाना बेचने का काम | यम है हम | Yam Hain Ham | Episode 218",
            "url": "https://www.youtube.com/watch?v=nodGMP2Ayp4",
            "duration": 1218.0,
            "view_count": 223106,
            "uploader": "भोला भंडारी",
            "category": "yam_hain_hum",
            "thumbnail": "https://i.ytimg.com/vi/nodGMP2Ayp4/hq720.jpg"
        },
        {
            "id": "P1hjlUqODw4",
            "title": "बिंदिया को दिया साक्षात् नारदमुनि ने दर्शन  | Yam Hain Hum | यम हैं हम | Full Episode 53",
            "url": "https://www.youtube.com/watch?v=P1hjlUqODw4",
            "duration": 1180.0,
            "view_count": 315126,
            "uploader": "Desi Drama",
            "category": "yam_hain_hum",
            "thumbnail": "https://i.ytimg.com/vi/P1hjlUqODw4/hqdefault.jpg"
        },
        {
            "id": "DTJSzzEgMNo",
            "title": "यमराज ने रोक दी एक हाथ से गाड़ी | यम है हम | Yam Hain Ham | Episode 106",
            "url": "https://www.youtube.com/watch?v=DTJSzzEgMNo",
            "duration": 1150.0,
            "view_count": 1017001,
            "uploader": "भोला भंडारी",
            "category": "yam_hain_hum",
            "thumbnail": "https://i.ytimg.com/vi/DTJSzzEgMNo/hq720.jpg"
        },
        {
            "id": "tXvy-ZgPQso",
            "title": "यमराज जी ने पृथ्वीलोक पर जब गिरवी रखा अपना बेष कीमती मुकुट ! | यम हैं हम | Yam Hain Hum",
            "url": "https://www.youtube.com/watch?v=tXvy-ZgPQso",
            "duration": 3267.0,
            "view_count": 1539971,
            "uploader": "यमराज धरती पर",
            "category": "yam_hain_hum",
            "thumbnail": "https://i.ytimg.com/vi/tXvy-ZgPQso/hq720.jpg?sqp=-oaymwEcCNAFEJQDSFXyq4qpAw4IARUAAIhCGAFwAcABBg==&rs=AOn4CLAofuFKyI122yzJAo44j-sfzYfUVA",
            "added_date": "2026-04-16T07:31:47.316137Z",
            "source": "youtube"
        },
        {
            "id": "EmDQXH1wxdg",
            "title": "Yam Hain Hum - यम हैं हम - Episode 218 - 15th October, 2015",
            "url": "https://www.youtube.com/watch?v=EmDQXH1wxdg",
            "duration": 1232.0,
            "view_count": 414343,
            "uploader": "Sony SAB",
            "category": "yam_hain_hum",
            "thumbnail": "https://i.ytimg.com/vi/EmDQXH1wxdg/hqdefault.jpg"
        },
        {
            "id": "8aye0fqs02M",
            "title": "Yam Hain Hum - यम हैं हम - Episode 17 - 6th January 2015",
            "url": "https://www.youtube.com/watch?v=8aye0fqs02M",
            "duration": 1231.0,
            "view_count": 651594,
            "uploader": "Sony SAB",
            "category": "yam_hain_hum",
            "thumbnail": "https://i.ytimg.com/vi/8aye0fqs02M/hqdefault.jpg?sqp=-oaymwEcCOADEI4CSFXyq4qpAw4IARUAAIhCGAFwAcABBg==&rs=AOn4CLB0fyj9mLOqjB3kFbcujvLmNppjZw",
            "added_date": "2026-04-16T07:31:48.318005Z",
            "source": "youtube"
        },
        {
            "id": "tlzLVycR_FU",
            "title": "मरने के बाद बलदेव आया जब यमलोक में यमराज के पास | यम हैं हम | Yam Hain Ham | Episode 280",
            "url": "https://www.youtube.com/watch?v=tlzLVycR_FU",
            "duration": 1181.0,
            "view_count": 1389398,
            "uploader": "भोला भंडारी",
            "category": "yam_hain_hum",
            "thumbnail": "https://i.ytimg.com/vi/tlzLVycR_FU/hq720.jpg?sqp=-oaymwEcCNAFEJQDSFXyq4qpAw4IARUAAIhCGAFwAcABBg==&rs=AOn4CLBID92d8ObjpL-EqfxaBO88Gfofug",
            "added_date": "2026-04-16T07:31:48.518389Z",
            "source": "youtube"
        },
        {
            "id": "ovlLZ1aujFY",
            "title": "यमराज ने क्यों बनाया सारी महिलाओं को भूत | यम है हम | Yam Hain Ham | Episode 140",
            "url": "https://www.youtube.com/watch?v=ovlLZ1aujFY",
            "duration": 1218.0,
            "view_count": 142010,
            "uploader": "भोला भंडारी",
            "category": "yam_hain_hum",
            "thumbnail": "https://i.ytimg.com/vi/ovlLZ1aujFY/hq720.jpg"
        },
        {
            "id": "5uhumudt_D4",
            "title": "Yam Hain Hum - यम हैं हम -  Episode 62 - 30th October, 2017",
            "url": "https://www.youtube.com/watch?v=5uhumudt_D4",
            "duration": 1142.0,
            "view_count": 326442,
            "uploader": "Sony PAL",
            "category": "yam_hain_hum",
            "thumbnail": "https://i.ytimg.com/vi/5uhumudt_D4/hq720.jpg"
        },
        {
            "id": "lS-dcSwHA7I",
            "title": "Yam Hain Hum - यम हैं हम - Episode 124 - 12th December, 2017",
            "url": "https://www.youtube.com/watch?v=lS-dcSwHA7I",
            "duration": 1229.0,
            "view_count": 341237,
            "uploader": "Sony PAL",
            "category": "yam_hain_hum",
            "thumbnail": "https://i.ytimg.com/vi/lS-dcSwHA7I/hq720.jpg"
        },
        {
            "id": "YQc5oIysggA",
            "title": "Yam Hain Hum - याम हैं हम - Episode 5 - 19th December 2014",
            "url": "https://www.youtube.com/watch?v=YQc5oIysggA",
            "duration": 1235.0,
            "view_count": 1600056,
            "uploader": "Sony SAB",
            "category": "yam_hain_hum",
            "thumbnail": "https://i.ytimg.com/vi/YQc5oIysggA/hqdefault.jpg"
        },
        {
            "id": "eMjGzfaZN6E",
            "title": "Why did Chitragupta sit on the ground? We are Yama. Episode 101",
            "url": "https://www.youtube.com/watch?v=eMjGzfaZN6E",
            "duration": 1214.0,
            "view_count": 3278979,
            "uploader": "भोला भंडारी",
            "category": "yam_hain_hum",
            "thumbnail": "https://i.ytimg.com/vi/eMjGzfaZN6E/hq720.jpg"
        },
        {
            "id": "sZTFeqlmi1g",
            "title": "क्या यम अपने महिस की शादी रोक पाएग ? | Yam Hain Hum | New Full Episode 56",
            "url": "https://www.youtube.com/watch?v=sZTFeqlmi1g",
            "duration": 1144.0,
            "view_count": 140,
            "uploader": "Show Buzz India",
            "category": "yam_hain_hum",
            "thumbnail": "https://i.ytimg.com/vi/sZTFeqlmi1g/hq720.jpg"
        },
        {
            "id": "kdSHSIdU_DE",
            "title": "बर्फ की सिल्ली पर लिटाकर पुलिस ने दी यमराज को सजा | यम है हम | Yam Hain Ham | Episode 2",
            "url": "https://www.youtube.com/watch?v=kdSHSIdU_DE",
            "duration": 1206.0,
            "view_count": 6641065,
            "uploader": "भोला भंडारी",
            "category": "yam_hain_hum",
            "thumbnail": "https://i.ytimg.com/vi/kdSHSIdU_DE/hq720.jpg?sqp=-oaymwEcCNAFEJQDSFXyq4qpAw4IARUAAIhCGAFwAcABBg==&rs=AOn4CLBeuBRmR0Yaold-oNQ3RoJejWmstA",
            "added_date": "2026-04-16T07:31:46.514673Z",
            "source": "youtube"
        },
        {
            "id": "uDkpQTckTdg",
            "title": "Yam Hain Hum -  यम हैं हम -  Episode 53 - 24th October, 2017",
            "url": "https://www.youtube.com/watch?v=uDkpQTckTdg",
            "duration": 1248.0,
            "view_count": 302590,
            "uploader": "Sony PAL",
            "category": "yam_hain_hum",
            "thumbnail": "https://i.ytimg.com/vi/uDkpQTckTdg/hq720.jpg"
        },
        {
            "id": "UGMngdRbqAg",
            "title": "Yam Hain Hum - याम हैं हम - Episode 8 - 24th December 2014",
            "url": "https://www.youtube.com/watch?v=UGMngdRbqAg",
            "duration": 1192.0,
            "view_count": 1031298,
            "uploader": "Sony SAB",
            "category": "yam_hain_hum",
            "thumbnail": "https://i.ytimg.com/vi/UGMngdRbqAg/hqdefault.jpg"
        },
        {
            "id": "6cPHXaO1cN0",
            "title": "Yam Hain Hum - Full Episode 150 - 29th December, 2017",
            "url": "https://www.youtube.com/watch?v=6cPHXaO1cN0",
            "duration": 1185.0,
            "view_count": 161609,
            "uploader": "Sony PAL",
            "category": "yam_hain_hum",
            "thumbnail": "https://i.ytimg.com/vi/6cPHXaO1cN0/hq720.jpg"
        },
        {
            "id": "Op3bnnuNuPw",
            "title": "यमराज जी ने बचायी कॉलेज के स्टूडेंट्स की जान ! | यम हैं हम | Yam Hain Hum",
            "url": "https://www.youtube.com/watch?v=Op3bnnuNuPw",
            "duration": 3188.0,
            "view_count": 245236,
            "uploader": "यमराज धरती पर",
            "category": "yam_hain_hum",
            "thumbnail": "https://i.ytimg.com/vi/Op3bnnuNuPw/hq720.jpg"
        },
        {
            "id": "F__-uak_zRw",
            "title": "Yam Hain Hum - Full Episode 133 - 19th December, 2017",
            "url": "https://www.youtube.com/watch?v=F__-uak_zRw",
            "duration": 1232.0,
            "view_count": 211183,
            "uploader": "Sony PAL",
            "category": "yam_hain_hum",
            "thumbnail": "https://i.ytimg.com/vi/F__-uak_zRw/hq720.jpg"
        },
        {
            "id": "4UNobwTtCkg",
            "title": "Yam Hai Hum (Full Movie) | Raveena Tandon Venkatesh Kadar Khan | Bollywood Comedy Movies",
            "url": "https://www.youtube.com/watch?v=4UNobwTtCkg",
            "duration": 9713.0,
            "view_count": 351830,
            "uploader": "Masaledaar Movies",
            "category": "yam_hain_hum",
            "thumbnail": "https://i.ytimg.com/vi/4UNobwTtCkg/hq720.jpg"
        },
        {
            "id": "mNaSmgq6FsQ",
            "title": "Yam Hain Hum - यम हैं हम - Episode 280 - 12th January, 2016",
            "url": "https://www.youtube.com/watch?v=mNaSmgq6FsQ",
            "duration": 1196.0,
            "view_count": 1653766,
            "uploader": "Sony SAB",
            "category": "yam_hain_hum",
            "thumbnail": "https://i.ytimg.com/vi/mNaSmgq6FsQ/hqdefault.jpg?sqp=-oaymwEcCOADEI4CSFXyq4qpAw4IARUAAIhCGAFwAcABBg==&rs=AOn4CLAYhJc6an1ZZrnh3c2EDF63RCkZrw",
            "added_date": "2026-04-16T07:31:47.115803Z",
            "source": "youtube"
        },
        {
            "id": "0NEIuatCUIM",
            "title": "Yam Hain Hum - यम हैं हम - Episode 45 - 13th February 2015",
            "url": "https://www.youtube.com/watch?v=0NEIuatCUIM",
            "duration": 1253.0,
            "view_count": 411002,
            "uploader": "Sony SAB",
            "category": "yam_hain_hum",
            "thumbnail": "https://i.ytimg.com/vi/0NEIuatCUIM/hqdefault.jpg?sqp=-oaymwEcCOADEI4CSFXyq4qpAw4IARUAAIhCGAFwAcABBg==&rs=AOn4CLAavjR424b1QhoEt5SImqi0DWw0oA",
            "added_date": "2026-04-16T07:31:47.516495Z",
            "source": "youtube"
        },
        {
            "id": "HNfmuQWJgrU",
            "title": "Yam Hain Hum - यम हैं हम - Episode 28 - 5th October, 2017",
            "url": "https://www.youtube.com/watch?v=HNfmuQWJgrU",
            "duration": 1256.0,
            "view_count": 362685,
            "uploader": "Sony PAL",
            "category": "yam_hain_hum",
            "thumbnail": "https://i.ytimg.com/vi/HNfmuQWJgrU/hq720.jpg"
        },
        {
            "id": "LinFSDJwSCs",
            "title": "Yam Hain Hum - याम हैं हम - Episode 4 - 18th December 2014",
            "url": "https://www.youtube.com/watch?v=LinFSDJwSCs",
            "duration": 1256.0,
            "view_count": 1778108,
            "uploader": "Sony SAB",
            "category": "yam_hain_hum",
            "thumbnail": "https://i.ytimg.com/vi/LinFSDJwSCs/hqdefault.jpg"
        },
        {
            "id": "VCMh6PHV0io",
            "title": "Yam Hain Hum - याम हैं हम - Episode 11 - 29th December 2014",
            "url": "https://www.youtube.com/watch?v=VCMh6PHV0io",
            "duration": 1242.0,
            "view_count": 1079534,
            "uploader": "Sony SAB",
            "category": "yam_hain_hum",
            "thumbnail": "https://i.ytimg.com/vi/VCMh6PHV0io/hqdefault.jpg"
        },
        {
            "id": "OmDZefDjxOA",
            "title": "Yam Hain Hum - याम हैं हम - Episode 12 - 30th December 2014",
            "url": "https://www.youtube.com/watch?v=OmDZefDjxOA",
            "duration": 1207.0,
            "view_count": 1043279,
            "uploader": "Sony SAB",
            "category": "yam_hain_hum",
            "thumbnail": "https://i.ytimg.com/vi/OmDZefDjxOA/hqdefault.jpg"
        },
        {
            "id": "AvOUOnfpmR0",
            "title": "हम है यम, यम है हम | Best of Comedy Scenes | Movie TAQDEERWALA | Kader Khan - Asrani",
            "url": "https://www.youtube.com/watch?v=AvOUOnfpmR0",
            "duration": 757.0,
            "view_count": 352456,
            "uploader": "Shemaroo Comedy",
            "category": "yam_hain_hum",
            "thumbnail": "https://i.ytimg.com/vi/AvOUOnfpmR0/hq720.jpg"
        },
        {
            "id": "Aaj2J8tqmcM",
            "title": "Yam Hain Hum - यम हैं हम - Episode 101 - 4th May 2015",
            "url": "https://www.youtube.com/watch?v=Aaj2J8tqmcM",
            "duration": 1230.0,
            "view_count": 8656686,
            "uploader": "Sony SAB",
            "category": "yam_hain_hum",
            "thumbnail": "https://i.ytimg.com/vi/Aaj2J8tqmcM/hqdefault.jpg"
        },
        {
            "id": "fglsRwFZuGk",
            "title": "बलदेव लेकर आया जब घर में नयी गाड़ी | यम है हम | Yam Hain Ham | Episode 209",
            "url": "https://www.youtube.com/watch?v=fglsRwFZuGk",
            "duration": 1168.0,
            "view_count": 350618,
            "uploader": "भोला भंडारी",
            "category": "yam_hain_hum",
            "thumbnail": "https://i.ytimg.com/vi/fglsRwFZuGk/hq720.jpg"
        },
        {
            "id": "RmX-Ll_0ncU",
            "title": "Yamraaj जी ने सिखाया अनिल को अच्छा सबक | Yam Hain Hum | यम है हम | Full Episode 85",
            "url": "https://www.youtube.com/watch?v=RmX-Ll_0ncU",
            "duration": 1074.0,
            "view_count": 1194079,
            "uploader": "Desi Drama",
            "category": "yam_hain_hum",
            "thumbnail": "https://i.ytimg.com/vi/RmX-Ll_0ncU/hq720.jpg"
        },
        {
            "id": "C0_3oUKS_cU",
            "title": "Yam Hain Hum - यम हैं हम  - Episode 63 -  31th October, 2017",
            "url": "https://www.youtube.com/watch?v=C0_3oUKS_cU",
            "duration": 1218.0,
            "view_count": 286588,
            "uploader": "Sony PAL",
            "category": "yam_hain_hum",
            "thumbnail": "https://i.ytimg.com/vi/C0_3oUKS_cU/hq720.jpg"
        },
        {
            "id": "ODpXgoPVyJY",
            "title": "Yam Hain Hum - यम हैं हम - Episode 63 - 11th March 2015",
            "url": "https://www.youtube.com/watch?v=ODpXgoPVyJY",
            "duration": 1197.0,
            "view_count": 316260,
            "uploader": "Sony SAB",
            "category": "yam_hain_hum",
            "thumbnail": "https://i.ytimg.com/vi/ODpXgoPVyJY/hqdefault.jpg"
        },
        {
            "id": "j-XC2EjUYdo",
            "title": "Yam Hain Hum - Full Episode 144 - 26th December, 2017",
            "url": "https://www.youtube.com/watch?v=j-XC2EjUYdo",
            "duration": 1225.0,
            "view_count": 118197,
            "uploader": "Sony PAL",
            "category": "yam_hain_hum",
            "thumbnail": "https://i.ytimg.com/vi/j-XC2EjUYdo/hq720.jpg"
        },
        {
            "id": "ANi8pQu04pM",
            "title": "Yam Hain Hum - यम हैं हम - Episode 81 - 13th November, 2017",
            "url": "https://www.youtube.com/watch?v=ANi8pQu04pM",
            "duration": 1211.0,
            "view_count": 356083,
            "uploader": "Sony PAL",
            "category": "yam_hain_hum",
            "thumbnail": "https://i.ytimg.com/vi/ANi8pQu04pM/hq720.jpg"
        },
        {
            "id": "kf8Xuj82OU0",
            "title": "Yam Hain Hum - यम हैं हम - Episode 16 - 5th January 2015",
            "url": "https://www.youtube.com/watch?v=kf8Xuj82OU0",
            "duration": 1227.0,
            "view_count": 609583,
            "uploader": "Sony SAB",
            "category": "yam_hain_hum",
            "thumbnail": "https://i.ytimg.com/vi/kf8Xuj82OU0/hqdefault.jpg"
        },
        {
            "id": "4LWiXGbIhs4",
            "title": "यमराज और चित्रगुप्त की पत्नियों से हुए बबलू पापा परेशान | यम है हम | Yam Hain Ham | Episode 202",
            "url": "https://www.youtube.com/watch?v=4LWiXGbIhs4",
            "duration": 1225.0,
            "view_count": 220060,
            "uploader": "भोला भंडारी",
            "category": "yam_hain_hum",
            "thumbnail": "https://i.ytimg.com/vi/4LWiXGbIhs4/hq720.jpg"
        },
        {
            "id": "8b4UswMTVGM",
            "title": "Yam Hain Hum - याम हैं हम - Episode 10 - 26th December 2014",
            "url": "https://www.youtube.com/watch?v=8b4UswMTVGM",
            "duration": 1201.0,
            "view_count": 1258895,
            "uploader": "Sony SAB",
            "category": "yam_hain_hum",
            "thumbnail": "https://i.ytimg.com/vi/8b4UswMTVGM/hqdefault.jpg"
        },
        {
            "id": "9t3pxYUwrv4",
            "title": "Yam Hain Hum - यम हैं हम - Episode 276 - 6th January, 2016",
            "url": "https://www.youtube.com/watch?v=9t3pxYUwrv4",
            "duration": 1179.0,
            "view_count": 400588,
            "uploader": "Sony SAB",
            "category": "yam_hain_hum",
            "thumbnail": "https://i.ytimg.com/vi/9t3pxYUwrv4/hqdefault.jpg?sqp=-oaymwEcCOADEI4CSFXyq4qpAw4IARUAAIhCGAFwAcABBg==&rs=AOn4CLBW_-QPmMF9m83_ky_5RZkba_Mc7w",
            "added_date": "2026-04-16T07:31:47.917266Z",
            "source": "youtube"
        },
        {
            "id": "fO9eBB66JRo",
            "title": "Yam Hain Hum - याम हैं हम - Episode 14 - 1st January 2015",
            "url": "https://www.youtube.com/watch?v=fO9eBB66JRo",
            "duration": 1221.0,
            "view_count": 599346,
            "uploader": "Sony SAB",
            "category": "yam_hain_hum",
            "thumbnail": "https://i.ytimg.com/vi/fO9eBB66JRo/hqdefault.jpg"
        },
        {
            "id": "E2RRbtb9xrQ",
            "title": "Yam Hain Hum - याम हैं हम - Episode 2 - 16th December 2014",
            "url": "https://www.youtube.com/watch?v=E2RRbtb9xrQ",
            "duration": 1224.0,
            "view_count": 3375629,
            "uploader": "Sony SAB",
            "category": "yam_hain_hum",
            "thumbnail": "https://i.ytimg.com/vi/E2RRbtb9xrQ/hqdefault.jpg?sqp=-oaymwEcCOADEI4CSFXyq4qpAw4IARUAAIhCGAFwAcABBg==&rs=AOn4CLAwBHBnPSB3Yn5Mv6ROa0cot_97YQ",
            "added_date": "2026-04-16T07:31:48.117641Z",
            "source": "youtube"
        },
        {
            "id": "Ol-d9MaE2jU",
            "title": "क्या Inspector कर पाएंगे यम को प्रसन्न ?| यम है हम | Yam Hain Hum | यम है हम | Full Episode 03",
            "url": "https://www.youtube.com/watch?v=Ol-d9MaE2jU",
            "duration": 1176.0,
            "view_count": 1202584,
            "uploader": "Show Buzz India",
            "category": "yam_hain_hum",
            "thumbnail": "https://i.ytimg.com/vi/Ol-d9MaE2jU/hq720.jpg"
        },
        {
            "id": "yZqlcCY1VpY",
            "title": "Yam Hain Hum - याम हैं हम - Episode 3 - 17th December 2014",
            "url": "https://www.youtube.com/watch?v=yZqlcCY1VpY",
            "duration": 1297.0,
            "view_count": 2336370,
            "uploader": "Sony SAB",
            "category": "yam_hain_hum",
            "thumbnail": "https://i.ytimg.com/vi/yZqlcCY1VpY/hqdefault.jpg"
        },
        {
            "id": "MUH7BtQnCHs",
            "title": "Yam Hain Hum -  यम हैं हम - Episode 85 - 10th April 2015",
            "url": "https://www.youtube.com/watch?v=MUH7BtQnCHs",
            "duration": 1178.0,
            "view_count": 1275722,
            "uploader": "Sony SAB",
            "category": "yam_hain_hum",
            "thumbnail": "https://i.ytimg.com/vi/MUH7BtQnCHs/hqdefault.jpg"
        },
        {
            "id": "eZbrNpsGzlI",
            "title": "यमराज क्यों हुए इस मानव पे इतने ज्यादा क्रोधित  | Yam hain Hum | यम हैं हम | Full Episode 86",
            "url": "https://www.youtube.com/watch?v=eZbrNpsGzlI",
            "duration": 1149.0,
            "view_count": 600306,
            "uploader": "Indian Drama",
            "category": "yam_hain_hum",
            "thumbnail": "https://i.ytimg.com/vi/eZbrNpsGzlI/hq720.jpg"
        },
        {
            "id": "hy-Q1tcM_4I",
            "title": "Yam Hain Hum - यम हैं हम - Episode 58 - 26th October, 2017",
            "url": "https://www.youtube.com/watch?v=hy-Q1tcM_4I",
            "duration": 1252.0,
            "view_count": 516533,
            "uploader": "Sony PAL",
            "category": "yam_hain_hum",
            "thumbnail": "https://i.ytimg.com/vi/hy-Q1tcM_4I/hq720.jpg"
        },
        {
            "id": "e5CHd0POJa0",
            "title": "Yam Hain Hum - यम हैं हम - Episode 117 - 7th December, 2017",
            "url": "https://www.youtube.com/watch?v=e5CHd0POJa0",
            "duration": 1224.0,
            "view_count": 303283,
            "uploader": "Sony PAL",
            "category": "yam_hain_hum",
            "thumbnail": "https://i.ytimg.com/vi/e5CHd0POJa0/hq720.jpg"
        },
        {
            "id": "VCzOpZRCaDs",
            "title": "Yam Hain Hum - यम हैं हम - Episode 49 - 20th October, 2017",
            "url": "https://www.youtube.com/watch?v=VCzOpZRCaDs",
            "duration": 1253.0,
            "view_count": 362357,
            "uploader": "Sony PAL",
            "category": "yam_hain_hum",
            "thumbnail": "https://i.ytimg.com/vi/VCzOpZRCaDs/hq720.jpg"
        },
        {
            "id": "POd4KxUAjkI",
            "title": "Yam Hain Hum - यम हैं हम - Episode 30 - 6th October, 2017",
            "url": "https://www.youtube.com/watch?v=POd4KxUAjkI",
            "duration": 1299.0,
            "view_count": 273210,
            "uploader": "Sony PAL",
            "category": "yam_hain_hum",
            "thumbnail": "https://i.ytimg.com/vi/POd4KxUAjkI/hq720.jpg"
        },
        {
            "id": "N3ofzAUgqr4",
            "title": "Yam Hain Hum - यम हैं हम - Episode 122 - 11th December, 2017",
            "url": "https://www.youtube.com/watch?v=N3ofzAUgqr4",
            "duration": 1219.0,
            "view_count": 363297,
            "uploader": "Sony PAL",
            "category": "yam_hain_hum",
            "thumbnail": "https://i.ytimg.com/vi/N3ofzAUgqr4/hq720.jpg"
        }
    ]
}