{
    "page": 56,
    "total_pages": 103,
    "total_items": 5125,
    "items": [
        {
            "id": "-vwoXG1jCu4",
            "title": "Chhota Bheem - Kalia Wakes the Sleeping Monster | Cartoons for Kids | Hindi Kahaniya for Children",
            "url": "https://www.youtube.com/watch?v=-vwoXG1jCu4",
            "duration": 1926.0,
            "view_count": 1247323,
            "uploader": "Green Gold TV - Official Channel",
            "category": "cartoons/chhota_bheem",
            "thumbnail": "https://i.ytimg.com/vi/-vwoXG1jCu4/hq720.jpg"
        },
        {
            "id": "jQJFyL0X-bw",
            "title": "Chhota Bheem - Angry Bull Attack | Cartoon Adventure for Kids | Funny Cartoon for Kids in Hindi",
            "url": "https://www.youtube.com/watch?v=jQJFyL0X-bw",
            "duration": 1872.0,
            "view_count": 1251259,
            "uploader": "Green Gold Kids",
            "category": "cartoons/chhota_bheem",
            "thumbnail": "https://i.ytimg.com/vi/jQJFyL0X-bw/hq720.jpg"
        },
        {
            "id": "zGYDhgoeGDE",
            "title": "Chhota Bheem - Asli Bhoot ki Kahani | Spooky Cartoons for Kids | Funny Kids Videos",
            "url": "https://www.youtube.com/watch?v=zGYDhgoeGDE",
            "duration": 1904.0,
            "view_count": 327683,
            "uploader": "Green Gold TV - Official Channel",
            "category": "cartoons/chhota_bheem",
            "thumbnail": "https://i.ytimg.com/vi/zGYDhgoeGDE/hq720.jpg"
        },
        {
            "id": "TRSk0cqXZdo",
            "title": "Chhota Bheem - Cycle Chor Ki Kahani | Kids fun Videos | Cartoons for Kids in Hindi",
            "url": "https://www.youtube.com/watch?v=TRSk0cqXZdo",
            "duration": 1857.0,
            "view_count": 1351044,
            "uploader": "Green Gold Kids",
            "category": "cartoons/chhota_bheem",
            "thumbnail": "https://i.ytimg.com/vi/TRSk0cqXZdo/hq720.jpg"
        },
        {
            "id": "1RSsA4Xcx60",
            "title": "Chhota Bheem - Penguin Friend in Ice Land | Winter Trip Adventures | Cartoons for Kids",
            "url": "https://www.youtube.com/watch?v=1RSsA4Xcx60",
            "duration": 1863.0,
            "view_count": 128396,
            "uploader": "Green Gold Kids",
            "category": "cartoons/chhota_bheem",
            "thumbnail": "https://i.ytimg.com/vi/1RSsA4Xcx60/hq720.jpg"
        },
        {
            "id": "S5g9npUtAHI",
            "title": "Chhota Bheem VS Mangal Singh | Kaun Jeetega? | Epic Battle Cartoons for Kids",
            "url": "https://www.youtube.com/watch?v=S5g9npUtAHI",
            "duration": 1971.0,
            "view_count": 149034,
            "uploader": "Green Gold TV - Official Channel",
            "category": "cartoons/super_bheem",
            "thumbnail": "https://i.ytimg.com/vi/S5g9npUtAHI/hq720.jpg"
        },
        {
            "id": "5ApP5O9tLU0",
            "title": "Chhota Bheem - Wild Cat Attack Dholakpur | Cartoons for Kids | Adventure Videos for Kids",
            "url": "https://www.youtube.com/watch?v=5ApP5O9tLU0",
            "duration": 1822.0,
            "view_count": 283525,
            "uploader": "Green Gold Kids",
            "category": "cartoons/chhota_bheem",
            "thumbnail": "https://i.ytimg.com/vi/5ApP5O9tLU0/hq720.jpg"
        },
        {
            "id": "5SqQEhVvHAE",
            "title": "Chhota Bheem - Dost Nahi Dushman | Cartoons for Kids | Funny Kids Videos",
            "url": "https://www.youtube.com/watch?v=5SqQEhVvHAE",
            "duration": 1813.0,
            "view_count": 491781,
            "uploader": "Green Gold Kids",
            "category": "cartoons/chhota_bheem",
            "thumbnail": "https://i.ytimg.com/vi/5SqQEhVvHAE/hq720.jpg"
        },
        {
            "id": "-KOPcW_ED3E",
            "title": "Chhota Bheem - Fruity Trouble Begins | Cartoons for Kids | Funny Kids Videos",
            "url": "https://www.youtube.com/watch?v=-KOPcW_ED3E",
            "duration": 1821.0,
            "view_count": 1108094,
            "uploader": "Green Gold TV - Official Channel",
            "category": "cartoons/chhota_bheem",
            "thumbnail": "https://i.ytimg.com/vi/-KOPcW_ED3E/hq720.jpg"
        },
        {
            "id": "KTIgqEOGDug",
            "title": "Chhota Bheem - Sone Ka Jadoo | Hidden Treasure Trouble | Cartoons for Kids in Hindi",
            "url": "https://www.youtube.com/watch?v=KTIgqEOGDug",
            "duration": 1964.0,
            "view_count": 224832,
            "uploader": "Green Gold TV - Official Channel",
            "category": "cartoons/super_bheem",
            "thumbnail": "https://i.ytimg.com/vi/KTIgqEOGDug/hq720.jpg"
        },
        {
            "id": "X1suA8C95xs",
            "title": "Chhota Bheem - Kalia Rani Ka Jadui Clone | Fun Cartoons for Kids | 4K Videos in Hindi",
            "url": "https://www.youtube.com/watch?v=X1suA8C95xs",
            "duration": 1836.0,
            "view_count": 435674,
            "uploader": "Green Gold TV - Official Channel",
            "category": "cartoons/chhota_bheem",
            "thumbnail": "https://i.ytimg.com/vi/X1suA8C95xs/hq720.jpg"
        },
        {
            "id": "zbF9Py5DapI",
            "title": "Chhota Bheem - Asur ka Venom | खतरे में छुटकी | Cartoons for Kids in Hindi",
            "url": "https://www.youtube.com/watch?v=zbF9Py5DapI",
            "duration": 1785.0,
            "view_count": 1684835,
            "uploader": "Green Gold Kids",
            "category": "cartoons/chhota_bheem",
            "thumbnail": "https://i.ytimg.com/vi/zbF9Py5DapI/hq720.jpg"
        },
        {
            "id": "g5oz5caNkAg",
            "title": "Chhota Bheem - Triangle Eyes | Cartoons for Kids | Fun Kids Videos",
            "url": "https://www.youtube.com/watch?v=g5oz5caNkAg",
            "duration": 1839.0,
            "view_count": 3518985,
            "uploader": "Green Gold TV - Official Channel",
            "category": "cartoons/chhota_bheem",
            "thumbnail": "https://i.ytimg.com/vi/g5oz5caNkAg/hq720.jpg"
        },
        {
            "id": "Qzo5AzFaMDw",
            "title": "Chhota Bheem - Rakshas Se Jung | Kaun Jeetega? | 4K Cartoons for Kids | Fun Kids Videos in Hindi",
            "url": "https://www.youtube.com/watch?v=Qzo5AzFaMDw",
            "duration": 1816.0,
            "view_count": 236239,
            "uploader": "Green Gold TV - Official Channel",
            "category": "cartoons/super_bheem",
            "thumbnail": "https://i.ytimg.com/vi/Qzo5AzFaMDw/hq720.jpg"
        },
        {
            "id": "Y_7MKo20aYA",
            "title": "Chhota Bheem - Laddoo Fight Begins | Cartoons for Kids | Fun Kids Videos",
            "url": "https://www.youtube.com/watch?v=Y_7MKo20aYA",
            "duration": 1838.0,
            "view_count": 707167,
            "uploader": "Green Gold TV - Official Channel",
            "category": "cartoons/chhota_bheem",
            "thumbnail": "https://i.ytimg.com/vi/Y_7MKo20aYA/hq720.jpg"
        },
        {
            "id": "OMJlw670VD0",
            "title": "Chutki - Raka Ka Jadoo | Sab Udne Lage | Chhota Bheem Episode | Hindi Magic Adventures",
            "url": "https://www.youtube.com/watch?v=OMJlw670VD0",
            "duration": 1914.0,
            "view_count": 18620,
            "uploader": "Chutki - Official Channel",
            "category": "cartoons/chhota_bheem",
            "thumbnail": "https://i.ytimg.com/vi/OMJlw670VD0/hq720.jpg"
        },
        {
            "id": "PkRPx5onwK8",
            "title": "Chhota Bheem VS Giant Elephant | Latest 4K Movies for Kids | Fun Kids Videos in Hindi",
            "url": "https://www.youtube.com/watch?v=PkRPx5onwK8",
            "duration": 1824.0,
            "view_count": 192361,
            "uploader": "Green Gold Kids",
            "category": "cartoons/super_bheem",
            "thumbnail": "https://i.ytimg.com/vi/PkRPx5onwK8/hq720.jpg"
        },
        {
            "id": "4L0p8ywfPGU",
            "title": "Chhota Bheem - Kingdom of Evil Leopards | Ultimate Battle | Cartoons for Kids in Hindi",
            "url": "https://www.youtube.com/watch?v=4L0p8ywfPGU",
            "duration": 1859.0,
            "view_count": 2144516,
            "uploader": "Green Gold Kids",
            "category": "cartoons/chhota_bheem",
            "thumbnail": "https://i.ytimg.com/vi/4L0p8ywfPGU/hq720.jpg"
        },
        {
            "id": "kKoESBvc-Oc",
            "title": "Chhota Bheem - Real VS Fake Indumati | Cartoons for Kids | Fun Kids Videos",
            "url": "https://www.youtube.com/watch?v=kKoESBvc-Oc",
            "duration": 1883.0,
            "view_count": 1490958,
            "uploader": "Green Gold Kids",
            "category": "cartoons/chhota_bheem",
            "thumbnail": "https://i.ytimg.com/vi/kKoESBvc-Oc/hq720.jpg"
        },
        {
            "id": "Ec8GS1-CYd4",
            "title": "Chhota Bheem ka Bura Sapna | Cartoons for Kids | Fun Kids Videos",
            "url": "https://www.youtube.com/watch?v=Ec8GS1-CYd4",
            "duration": 1926.0,
            "view_count": 1440138,
            "uploader": "Green Gold Kids",
            "category": "cartoons/super_bheem",
            "thumbnail": "https://i.ytimg.com/vi/Ec8GS1-CYd4/hq720.jpg"
        },
        {
            "id": "ECTYvYWrucs",
            "title": "Chhota Bheem - Trapped in Tsunami | Cartoons for Kids | Fun Kids Videos",
            "url": "https://www.youtube.com/watch?v=ECTYvYWrucs",
            "duration": 1817.0,
            "view_count": 456478,
            "uploader": "Green Gold Kids",
            "category": "cartoons/chhota_bheem",
            "thumbnail": "https://i.ytimg.com/vi/ECTYvYWrucs/hq720.jpg"
        },
        {
            "id": "QbbrnzbrUKk",
            "title": "Chutki - Dholakpur Food Challenge | Funny Cooking Battle | Cartoons for Kids in Hindi",
            "url": "https://www.youtube.com/watch?v=QbbrnzbrUKk",
            "duration": 1869.0,
            "view_count": 1194756,
            "uploader": "Chutki - Official Channel",
            "category": "cartoons/chhota_bheem",
            "thumbnail": "https://i.ytimg.com/vi/QbbrnzbrUKk/hq720.jpg"
        },
        {
            "id": "4CsgAsklbsM",
            "title": "Chhota Bheem - Hanuman Joins the Diwali Fun | Festive Cartoons for Kids | Happy Diwali",
            "url": "https://www.youtube.com/watch?v=4CsgAsklbsM",
            "duration": 1879.0,
            "view_count": 252516,
            "uploader": "Green Gold TV - Official Channel",
            "category": "cartoons/chhota_bheem",
            "thumbnail": "https://i.ytimg.com/vi/4CsgAsklbsM/hq720.jpg"
        },
        {
            "id": "YfZ4eKQBwgk",
            "title": "Chhota Bheem's Birthday Dhamaka | Cartoons for Kids | Happy Birthday Bheem",
            "url": "https://www.youtube.com/watch?v=YfZ4eKQBwgk",
            "duration": 1409.0,
            "view_count": 1931967,
            "uploader": "Green Gold Kids",
            "category": "cartoons/chhota_bheem",
            "thumbnail": "https://i.ytimg.com/vi/YfZ4eKQBwgk/hq720.jpg"
        },
        {
            "id": "eXfXKhIi3go",
            "title": "Chhota Bheem - Laddoo Loot | Cartoons for Kids | Funny Kids Videos",
            "url": "https://www.youtube.com/watch?v=eXfXKhIi3go",
            "duration": 1836.0,
            "view_count": 304383,
            "uploader": "Green Gold Kids",
            "category": "cartoons/chhota_bheem",
            "thumbnail": "https://i.ytimg.com/vi/eXfXKhIi3go/hq720.jpg"
        },
        {
            "id": "ADnnnjapCyw",
            "title": "Chhota Bheem & Little Singham - Dholu Bholu in Zombie World | Cartoons for Kids | Fun Kids Videos",
            "url": "https://www.youtube.com/watch?v=ADnnnjapCyw",
            "duration": 1875.0,
            "view_count": 130333,
            "uploader": "Green Gold TV - Official Channel",
            "category": "cartoons/super_bheem",
            "thumbnail": "https://i.ytimg.com/vi/ADnnnjapCyw/hq720.jpg"
        },
        {
            "id": "L64rCYNYNF4",
            "title": "Chhota Bheem - Multiverse Mein Bheemika | Epic Crossover | Latest Cartoons for Kids",
            "url": "https://www.youtube.com/watch?v=L64rCYNYNF4",
            "duration": 1866.0,
            "view_count": 156452,
            "uploader": "Green Gold Kids",
            "category": "cartoons/super_bheem",
            "thumbnail": "https://i.ytimg.com/vi/L64rCYNYNF4/hq720.jpg"
        },
        {
            "id": "BxKiKEBdtHk",
            "title": "Chhota Bheem - Vampire King Attack | Fun Kids Video | Cartoons for Kids in Hindi",
            "url": "https://www.youtube.com/watch?v=BxKiKEBdtHk",
            "duration": 1533.0,
            "view_count": 2348126,
            "uploader": "Green Gold Kids",
            "category": "cartoons/chhota_bheem",
            "thumbnail": "https://i.ytimg.com/vi/BxKiKEBdtHk/hq720.jpg"
        },
        {
            "id": "oeCjWVLpoSk",
            "title": "Chutki - Food Challenge | Dhaba VS Bakery | Cartoons for Kids in Hindi",
            "url": "https://www.youtube.com/watch?v=oeCjWVLpoSk",
            "duration": 1806.0,
            "view_count": 1499644,
            "uploader": "Chutki - Official Channel",
            "category": "cartoons/chhota_bheem",
            "thumbnail": "https://i.ytimg.com/vi/oeCjWVLpoSk/hq720.jpg"
        },
        {
            "id": "SzunTL6HiaA",
            "title": "Chhota Bheem Ki World Trip Adventure | Cartoons for Kids | Sea Animals Videos for Kids",
            "url": "https://www.youtube.com/watch?v=SzunTL6HiaA",
            "duration": 1971.0,
            "view_count": 561495,
            "uploader": "Green Gold TV - Official Channel",
            "category": "cartoons/chhota_bheem",
            "thumbnail": "https://i.ytimg.com/vi/SzunTL6HiaA/hq720.jpg"
        },
        {
            "id": "ggOg3MR4ppY",
            "title": "ADoraemon New Episode In Hindi | Doraemon Cartoon Today Full Episode | HD 1080p",
            "url": "https://www.youtube.com/watch?v=ggOg3MR4ppY",
            "duration": 2699.0,
            "view_count": 11574,
            "uploader": "DrivePedia",
            "category": "cartoons/doraemon",
            "thumbnail": "https://i.ytimg.com/vi/ggOg3MR4ppY/hqdefault.jpg"
        },
        {
            "id": "Hm4T9e_fuI8",
            "title": "Doraemon New Episode 25 11 2023   Episode 001   Doraemon Cartoon   Doraemon In Hindi & Urdu",
            "url": "https://www.youtube.com/watch?v=Hm4T9e_fuI8",
            "duration": 1558.0,
            "view_count": 912222,
            "uploader": "Art by Ahmed",
            "category": "cartoons/doraemon",
            "thumbnail": "https://i.ytimg.com/vi/Hm4T9e_fuI8/hq720.jpg"
        },
        {
            "id": "ov5Us4FHrTY",
            "title": "Doreamon Special Episode-02 | Doreamon Hindi Episode| Doreamon Hd | Doreamon Nobita| Doreamon-03",
            "url": "https://www.youtube.com/watch?v=ov5Us4FHrTY",
            "duration": 650.0,
            "view_count": 234928,
            "uploader": "Doraemon Hindi  ",
            "category": "cartoons/doraemon",
            "thumbnail": "https://i.ytimg.com/vi/ov5Us4FHrTY/hq720.jpg"
        },
        {
            "id": "q_QZ4GU0GG8",
            "title": "Doraemon New Episode 25-4-2024 - Episode 8- Doraemon Cartoon - Doraemon In Hindi Doraemon",
            "url": "https://www.youtube.com/watch?v=q_QZ4GU0GG8",
            "duration": 1430.0,
            "view_count": 103899,
            "uploader": "Ritik Raj Studio",
            "category": "cartoons/doraemon",
            "thumbnail": "https://i.ytimg.com/vi/q_QZ4GU0GG8/hqdefault.jpg"
        },
        {
            "id": "2rmGU1vAnvM",
            "title": "Doraemon Old Episode In Hindi Without Zoom Effect",
            "url": "https://www.youtube.com/watch?v=2rmGU1vAnvM",
            "duration": 1356.0,
            "view_count": 460246,
            "uploader": "Relaxing Corner",
            "category": "cartoons/doraemon",
            "thumbnail": "https://i.ytimg.com/vi/2rmGU1vAnvM/hq720.jpg"
        },
        {
            "id": "Z_8l7KKK1_g",
            "title": "Doraemon old episode in Hindi Doraemon season 8 Doraemon cartoon in Hindi dubbed",
            "url": "https://www.youtube.com/watch?v=Z_8l7KKK1_g",
            "duration": 1296.0,
            "view_count": 286469,
            "uploader": "Shali_ shaikh",
            "category": "cartoons/doraemon",
            "thumbnail": "https://i.ytimg.com/vi/Z_8l7KKK1_g/hq720.jpg"
        },
        {
            "id": "ff_Gk37ydK4",
            "title": "Doraemon hindi dubbed old special episode hum kharidne gaye ek bada ghar",
            "url": "https://www.youtube.com/watch?v=ff_Gk37ydK4",
            "duration": 1235.0,
            "view_count": 466552,
            "uploader": "Abrar Abrar",
            "category": "cartoons/doraemon",
            "thumbnail": "https://i.ytimg.com/vi/ff_Gk37ydK4/hqdefault.jpg"
        },
        {
            "id": "y9QT-G9SoHk",
            "title": "Doraemon Hindi episode- Hungry rice cakes",
            "url": "https://www.youtube.com/watch?v=y9QT-G9SoHk",
            "duration": 642.0,
            "view_count": 431017,
            "uploader": "Nostalgia Cartoons",
            "category": "cartoons/doraemon",
            "thumbnail": "https://i.ytimg.com/vi/y9QT-G9SoHk/hqdefault.jpg"
        },
        {
            "id": "bXHCxJo_z6g",
            "title": "Doraemon new episode in Hindi",
            "url": "https://www.youtube.com/watch?v=bXHCxJo_z6g",
            "duration": 1473.0,
            "view_count": 162443,
            "uploader": "Munni Akter",
            "category": "cartoons/doraemon",
            "thumbnail": "https://i.ytimg.com/vi/bXHCxJo_z6g/hqdefault.jpg"
        },
        {
            "id": "xLdBEd1-quw",
            "title": "Doraemon New Episode 11-03-2026 - Episode 01 - Doraemon Cartoon - Doraemon In Hindi - Doraemon Movie",
            "url": "https://www.youtube.com/watch?v=xLdBEd1-quw",
            "duration": 1078.0,
            "view_count": 240216,
            "uploader": "Dj BM Music Official",
            "category": "cartoons/doraemon",
            "thumbnail": "https://i.ytimg.com/vi/xLdBEd1-quw/hq720.jpg"
        },
        {
            "id": "g1BbUfEgjLw",
            "title": "doraemon new episode in Hindi without zoom effect I Jaco ne banai Black hole curry episode",
            "url": "https://www.youtube.com/watch?v=g1BbUfEgjLw",
            "duration": 1283.0,
            "view_count": 67135,
            "uploader": "DORARA",
            "category": "cartoons/doraemon",
            "thumbnail": "https://i.ytimg.com/vi/g1BbUfEgjLw/hqdefault.jpg"
        },
        {
            "id": "NQtN13HePVM",
            "title": "Doraemon Hindi New episode S08E12",
            "url": "https://www.youtube.com/watch?v=NQtN13HePVM",
            "duration": 1370.0,
            "view_count": 261939,
            "uploader": "Dost Doraemon",
            "category": "cartoons/doraemon",
            "thumbnail": "https://i.ytimg.com/vi/NQtN13HePVM/hq720.jpg"
        },
        {
            "id": "sRpmLnszS8g",
            "title": "Doraemon new episode 24-02-2024 - episode 1 | Doraemon cartoon | Doraemon in Hindi | #doraemon |",
            "url": "https://www.youtube.com/watch?v=sRpmLnszS8g",
            "duration": 735.0,
            "view_count": 1764210,
            "uploader": "Cartoon",
            "category": "cartoons/doraemon",
            "thumbnail": "https://i.ytimg.com/vi/sRpmLnszS8g/hq720.jpg"
        },
        {
            "id": "hXDkYisJiVE",
            "title": "Doraemon New Episode 08-01-2024 - Episode 05 - Doraemon Cartoon - Doraemon In Hindi - Season 21",
            "url": "https://www.youtube.com/watch?v=hXDkYisJiVE",
            "duration": 675.0,
            "view_count": 672832,
            "uploader": "Background Music",
            "category": "cartoons/doraemon",
            "thumbnail": "https://i.ytimg.com/vi/hXDkYisJiVE/hqdefault.jpg"
        },
        {
            "id": "FfudDwVJBA4",
            "title": "Doraemon New Episode In Hindi | Doraemon Cartoon Today Full Episode",
            "url": "https://www.youtube.com/watch?v=FfudDwVJBA4",
            "duration": 1567.0,
            "view_count": 4349957,
            "uploader": "Skelecore",
            "category": "cartoons/doraemon",
            "thumbnail": "https://i.ytimg.com/vi/FfudDwVJBA4/hqdefault.jpg"
        },
        {
            "id": "NGgEVJpU2TY",
            "title": "Doreamon Season 21 episode 18 in Hindi dubbed",
            "url": "https://www.youtube.com/watch?v=NGgEVJpU2TY",
            "duration": 1291.0,
            "view_count": 315526,
            "uploader": "ANIME CUP",
            "category": "cartoons/doraemon",
            "thumbnail": "https://i.ytimg.com/vi/NGgEVJpU2TY/hq720.jpg"
        },
        {
            "id": "59tCanO81bM",
            "title": "Doraemon new episode in hindi | Doraemon new episode 2025 in hindi | Doraemon in hindi",
            "url": "https://www.youtube.com/watch?v=59tCanO81bM",
            "duration": 902.0,
            "view_count": 2023122,
            "uploader": "Anime Manthan",
            "category": "cartoons/doraemon",
            "thumbnail": "https://i.ytimg.com/vi/59tCanO81bM/hq720.jpg"
        },
        {
            "id": "2dbk3IRK1Iw",
            "title": "Doraemon S15 Ep15 : Full Episode hindi Dubbed",
            "url": "https://www.youtube.com/watch?v=2dbk3IRK1Iw",
            "duration": 1323.0,
            "view_count": 247608,
            "uploader": "AniGuide",
            "category": "cartoons/doraemon",
            "thumbnail": "https://i.ytimg.com/vi/2dbk3IRK1Iw/hq720.jpg"
        },
        {
            "id": "9EAxB3oR3Ls",
            "title": "Doraemon old new episode in Hindi Doraemon season 10 new episode in Hindi dubbed Doraemon cartoon",
            "url": "https://www.youtube.com/watch?v=9EAxB3oR3Ls",
            "duration": 1263.0,
            "view_count": 276462,
            "uploader": "Shali_ shaikh",
            "category": "cartoons/doraemon",
            "thumbnail": "https://i.ytimg.com/vi/9EAxB3oR3Ls/hqdefault.jpg"
        },
        {
            "id": "TSm7a-nhBnw",
            "title": "Doraemon Old Picnic Episode In Hindi #doraemon",
            "url": "https://www.youtube.com/watch?v=TSm7a-nhBnw",
            "duration": 1144.0,
            "view_count": 419664,
            "uploader": "DESTRO_ENOUGH",
            "category": "cartoons/doraemon",
            "thumbnail": "https://i.ytimg.com/vi/TSm7a-nhBnw/hqdefault.jpg"
        }
    ]
}