{
    "page": 89,
    "total_pages": 103,
    "total_items": 5125,
    "items": [
        {
            "id": "1Z7saW4wwSk",
            "title": "The Pendant That Starts It All (Part 1 & 2) | TWO Full Episodes 📺 | Pokémon Horizons: Season 1",
            "url": "https://www.youtube.com/watch?v=1Z7saW4wwSk",
            "duration": 2829.0,
            "view_count": 274828,
            "uploader": "The Official Pokémon YouTube channel",
            "category": "cartoons/pokemon",
            "thumbnail": "https://i.ytimg.com/vi/1Z7saW4wwSk/hq720.jpg"
        },
        {
            "id": "ObtS79k2NM4",
            "title": "Ash Catches a Pokémon | FULL EPISODE 3 | Season 1",
            "url": "https://www.youtube.com/watch?v=ObtS79k2NM4",
            "duration": 1343.0,
            "view_count": 3913123,
            "uploader": "Pokémon TV",
            "category": "cartoons/pokemon",
            "thumbnail": "https://i.ytimg.com/vi/ObtS79k2NM4/hq720.jpg"
        },
        {
            "id": "JhhupHQlal8",
            "title": "Charmander—the Stray Pokémon | FULL EPISODE 11 | Season 1",
            "url": "https://www.youtube.com/watch?v=JhhupHQlal8",
            "duration": 1343.0,
            "view_count": 5403111,
            "uploader": "Pokémon TV",
            "category": "cartoons/pokemon",
            "thumbnail": "https://i.ytimg.com/vi/JhhupHQlal8/hq720.jpg"
        },
        {
            "id": "xTmgJ8-HCtI",
            "title": "The Battling Eevee Brothers | POKÉMON FULL EPISODE 37 | Season 1",
            "url": "https://www.youtube.com/watch?v=xTmgJ8-HCtI",
            "duration": 1343.0,
            "view_count": 4816724,
            "uploader": "Pokémon TV",
            "category": "cartoons/pokemon",
            "thumbnail": "https://i.ytimg.com/vi/xTmgJ8-HCtI/hq720.jpg"
        },
        {
            "id": "T23nJU-KwZo",
            "title": "Bye-Bye Butterfree | POKÉMON FULL EPISODE 20 | Season 1",
            "url": "https://www.youtube.com/watch?v=T23nJU-KwZo",
            "duration": 1343.0,
            "view_count": 2644586,
            "uploader": "Pokémon TV",
            "category": "cartoons/pokemon",
            "thumbnail": "https://i.ytimg.com/vi/T23nJU-KwZo/hq720.jpg"
        },
        {
            "id": "sTj8xUZfceg",
            "title": "Pokémon Double Trouble | FULL EPISODE 52 | Season 2",
            "url": "https://www.youtube.com/watch?v=sTj8xUZfceg",
            "duration": 1307.0,
            "view_count": 1375613,
            "uploader": "Pokémon TV",
            "category": "cartoons/pokemon",
            "thumbnail": "https://i.ytimg.com/vi/sTj8xUZfceg/hq720.jpg"
        },
        {
            "id": "eikfhPHmLLc",
            "title": "Chikorita's Big Upset! | POKÉMON FULL EPISODE 20 | Season 3",
            "url": "https://www.youtube.com/watch?v=eikfhPHmLLc",
            "duration": 1362.0,
            "view_count": 1080655,
            "uploader": "Pokémon TV",
            "category": "cartoons/pokemon",
            "thumbnail": "https://i.ytimg.com/vi/eikfhPHmLLc/hq720.jpg"
        },
        {
            "id": "x3Lo2lSdfq8",
            "title": "A Friend in Deed | POKÉMON FULL EPISODE 24 | Season 2",
            "url": "https://www.youtube.com/watch?v=x3Lo2lSdfq8",
            "duration": 1358.0,
            "view_count": 2582552,
            "uploader": "Pokémon TV",
            "category": "cartoons/pokemon",
            "thumbnail": "https://i.ytimg.com/vi/x3Lo2lSdfq8/hq720.jpg"
        },
        {
            "id": "OV0tkW0IIU8",
            "title": "Pokemon sun and moon: Episode 5-  (HINDI)",
            "url": "https://www.youtube.com/watch?v=OV0tkW0IIU8",
            "duration": 1248.0,
            "view_count": 118,
            "uploader": "Animatix",
            "category": "cartoons/pokemon",
            "thumbnail": "https://i.ytimg.com/vi/OV0tkW0IIU8/hq720.jpg"
        },
        {
            "id": "tNTLq_pevsQ",
            "title": "Pokemon Season 3 Episode 1 Jhoto Jorneys / Totodile ko Haath Mat Lagana",
            "url": "https://www.youtube.com/watch?v=tNTLq_pevsQ",
            "duration": 897.0,
            "view_count": 21418,
            "uploader": "Disney Anime TV",
            "category": "cartoons/pokemon",
            "thumbnail": "https://i.ytimg.com/vi/tNTLq_pevsQ/hqdefault.jpg"
        },
        {
            "id": "zN9Jz_qC2uY",
            "title": "Pokemon season hindi movie",
            "url": "https://www.youtube.com/watch?v=zN9Jz_qC2uY",
            "duration": 4535.0,
            "view_count": 78835,
            "uploader": "Hindi cartoon lover 24",
            "category": "cartoons/pokemon",
            "thumbnail": "https://i.ytimg.com/vi/zN9Jz_qC2uY/hqdefault.jpg"
        },
        {
            "id": "8Gr8rpuXE0Y",
            "title": "Snow Way Out! | POKÉMON FULL EPISODE 10 | Season 2",
            "url": "https://www.youtube.com/watch?v=8Gr8rpuXE0Y",
            "duration": 1292.0,
            "view_count": 2516385,
            "uploader": "Pokémon TV",
            "category": "cartoons/pokemon",
            "thumbnail": "https://i.ytimg.com/vi/8Gr8rpuXE0Y/hq720.jpg"
        },
        {
            "id": "PEUL-1_zGWI",
            "title": "Challenge of the Samurai | POKÉMON FULL EPISODE 4 | Season 1",
            "url": "https://www.youtube.com/watch?v=PEUL-1_zGWI",
            "duration": 1343.0,
            "view_count": 3111373,
            "uploader": "Pokémon TV",
            "category": "cartoons/pokemon",
            "thumbnail": "https://i.ytimg.com/vi/PEUL-1_zGWI/hq720.jpg"
        },
        {
            "id": "tuTr_cRGKds",
            "title": "Wake Up Snorlax! | POKÉMON FULL EPISODE 38 | Season 1",
            "url": "https://www.youtube.com/watch?v=tuTr_cRGKds",
            "duration": 1343.0,
            "view_count": 2803946,
            "uploader": "Pokémon TV",
            "category": "cartoons/pokemon",
            "thumbnail": "https://i.ytimg.com/vi/tuTr_cRGKds/hq720.jpg"
        },
        {
            "id": "h6LFdBPjbf4",
            "title": "Pokémon Emergency | FULL EPISODE 2 | Season 1",
            "url": "https://www.youtube.com/watch?v=h6LFdBPjbf4",
            "duration": 1343.0,
            "view_count": 5070171,
            "uploader": "Pokémon TV",
            "category": "cartoons/pokemon",
            "thumbnail": "https://i.ytimg.com/vi/h6LFdBPjbf4/hq720.jpg"
        },
        {
            "id": "oVm96zTiSl0",
            "title": "Alola to New Adventure!  [FULL EPISODE] 📺 | Pokémon the Series: Sun & Moon Episode 1",
            "url": "https://www.youtube.com/watch?v=oVm96zTiSl0",
            "duration": 1338.0,
            "view_count": 8247173,
            "uploader": "The Official Pokémon YouTube channel",
            "category": "cartoons/pokemon",
            "thumbnail": "https://i.ytimg.com/vi/oVm96zTiSl0/hq720.jpg"
        },
        {
            "id": "boY4QaYhBeM",
            "title": "The Ghost of Maiden’s Peak | POKÉMON FULL EPISODE 19 | Season 1",
            "url": "https://www.youtube.com/watch?v=boY4QaYhBeM",
            "duration": 1343.0,
            "view_count": 1815671,
            "uploader": "Pokémon TV",
            "category": "cartoons/pokemon",
            "thumbnail": "https://i.ytimg.com/vi/boY4QaYhBeM/hq720.jpg"
        },
        {
            "id": "inxZmZi0pEk",
            "title": "Play with Fire! | POKÉMON FULL EPISODE 61 | Season 5",
            "url": "https://www.youtube.com/watch?v=inxZmZi0pEk",
            "duration": 1274.0,
            "view_count": 1244010,
            "uploader": "Pokémon TV",
            "category": "cartoons/pokemon",
            "thumbnail": "https://i.ytimg.com/vi/inxZmZi0pEk/hq720.jpg"
        },
        {
            "id": "V3DmsG-_yi4",
            "title": "Ash Ketchum’s Great Battles 💥 | Pokémon the Series",
            "url": "https://www.youtube.com/watch?v=V3DmsG-_yi4",
            "duration": 815.0,
            "view_count": 3678246,
            "uploader": "The Official Pokémon YouTube channel",
            "category": "cartoons/pokemon",
            "thumbnail": "https://i.ytimg.com/vi/V3DmsG-_yi4/hq720.jpg"
        },
        {
            "id": "1n1qn4QcZSY",
            "title": "Kris Roll No 21 | Kanishq Ki Chalaki 😈 | Non-stop Masti 😆 | Full Episode | Only on Discovery Kids",
            "url": "https://www.youtube.com/watch?v=1n1qn4QcZSY",
            "duration": 3608.0,
            "view_count": 8753680,
            "uploader": "Discovery Kids In",
            "category": "cartoons/roll_no_21",
            "thumbnail": "https://i.ytimg.com/vi/1n1qn4QcZSY/hq720.jpg"
        },
        {
            "id": "CC0fU6OYVO4",
            "title": "Kris Roll No 21 🪈| Doctor J Aur Kanishk Ki Saazish! | Compilation 😍| @DiscoveryKidsIN",
            "url": "https://www.youtube.com/watch?v=CC0fU6OYVO4",
            "duration": 3478.0,
            "view_count": 122476,
            "uploader": "Discovery Kids In",
            "category": "cartoons/roll_no_21",
            "thumbnail": "https://i.ytimg.com/vi/CC0fU6OYVO4/hq720.jpg"
        },
        {
            "id": "XdUnIfvlxBg",
            "title": "Kris Roll No 21🪈| Madhu’s New Invention! | Full Episodes | Cartoon for Kids | @DiscoveryKidsIN",
            "url": "https://www.youtube.com/watch?v=XdUnIfvlxBg",
            "duration": 677.0,
            "view_count": 554369,
            "uploader": "Discovery Kids In",
            "category": "cartoons/roll_no_21",
            "thumbnail": "https://i.ytimg.com/vi/XdUnIfvlxBg/hq720.jpg"
        },
        {
            "id": "oOgX1xdnq_k",
            "title": "Kris Roll No 21🪈| Principal Aur Student Ka Epic Faceoff! 👊| Best Cartoon | @DiscoveryKidsIN",
            "url": "https://www.youtube.com/watch?v=oOgX1xdnq_k",
            "duration": 3725.0,
            "view_count": 288754,
            "uploader": "Discovery Kids In",
            "category": "cartoons/roll_no_21",
            "thumbnail": "https://i.ytimg.com/vi/oOgX1xdnq_k/hq720.jpg"
        },
        {
            "id": "bFXoVOWltCc",
            "title": "Kris Ki School Journey! 🏫| World Students Day🧑‍🎓| Cartoon for Kids | Compilation | @DiscoveryKidsIN",
            "url": "https://www.youtube.com/watch?v=bFXoVOWltCc",
            "duration": 3536.0,
            "view_count": 4238526,
            "uploader": "Discovery Kids In",
            "category": "cartoons/roll_no_21",
            "thumbnail": "https://i.ytimg.com/vi/bFXoVOWltCc/hq720.jpg"
        },
        {
            "id": "Pfx56AKKqAE",
            "title": "Roll no. 21| Part 1 | krish or barfila tuffan | krishna | cartoon | entertainment #viral #trending",
            "url": "https://www.youtube.com/watch?v=Pfx56AKKqAE",
            "duration": 1252.0,
            "view_count": 18422,
            "uploader": "Amit_._Kumar_",
            "category": "cartoons/roll_no_21",
            "thumbnail": "https://i.ytimg.com/vi/Pfx56AKKqAE/hqdefault.jpg"
        },
        {
            "id": "RWq0TxPwXcw",
            "title": "Jalebi Tai Ka Meetha Jaal! | Kris Roll No 21 | Cartoon Videos | Discovery Kids India | #diwali",
            "url": "https://www.youtube.com/watch?v=RWq0TxPwXcw",
            "duration": 3367.0,
            "view_count": 662946,
            "uploader": "Discovery Kids In",
            "category": "cartoons/roll_no_21",
            "thumbnail": "https://i.ytimg.com/vi/RWq0TxPwXcw/hq720.jpg"
        },
        {
            "id": "Cm_4FLF68Kg",
            "title": "Kris Roll No 21 🪈| Cleverness Ka Real Champion! 🏆 | Compilation | #krishna | @DiscoveryKidsIN",
            "url": "https://www.youtube.com/watch?v=Cm_4FLF68Kg",
            "duration": 3552.0,
            "view_count": 93604,
            "uploader": "Discovery Kids In",
            "category": "cartoons/roll_no_21",
            "thumbnail": "https://i.ytimg.com/vi/Cm_4FLF68Kg/hq720.jpg"
        },
        {
            "id": "x3OPioEZMV4",
            "title": "Kris Roll No 21 🪈| Kris Ke Dhamakedaar Strategies! | #krishna | Compilation | @DiscoveryKidsIN",
            "url": "https://www.youtube.com/watch?v=x3OPioEZMV4",
            "duration": 3508.0,
            "view_count": 75499,
            "uploader": "Discovery Kids In",
            "category": "cartoons/roll_no_21",
            "thumbnail": "https://i.ytimg.com/vi/x3OPioEZMV4/hq720.jpg"
        },
        {
            "id": "5mt0FF5Axi4",
            "title": "Roll No 21 Episode 39 Ticket to Japan Full HD",
            "url": "https://www.youtube.com/watch?v=5mt0FF5Axi4",
            "duration": 1255.0,
            "view_count": 798794,
            "uploader": "Dream Animation",
            "category": "cartoons/roll_no_21",
            "thumbnail": "https://i.ytimg.com/vi/5mt0FF5Axi4/hq720.jpg"
        },
        {
            "id": "Eg8CLpYnBjA",
            "title": "Kris Roll No 21 🪈| Kris Ka Winning Formula! 🥇 | Compilation | #krishna | @DiscoveryKidsIN",
            "url": "https://www.youtube.com/watch?v=Eg8CLpYnBjA",
            "duration": 3478.0,
            "view_count": 1384054,
            "uploader": "Discovery Kids In",
            "category": "cartoons/roll_no_21",
            "thumbnail": "https://i.ytimg.com/vi/Eg8CLpYnBjA/hq720.jpg"
        },
        {
            "id": "VEHXe0q1zio",
            "title": "Kris Roll No 21 🪈| Smart Student Ki Super Strategy Game | Compilation | #krishna | @DiscoveryKidsIN",
            "url": "https://www.youtube.com/watch?v=VEHXe0q1zio",
            "duration": 3552.0,
            "view_count": 50704,
            "uploader": "Discovery Kids In",
            "category": "cartoons/roll_no_21",
            "thumbnail": "https://i.ytimg.com/vi/VEHXe0q1zio/hq720.jpg"
        },
        {
            "id": "w0cssphVqQg",
            "title": "Kris Roll No 21🪈| Maharaj Ka Homework Trap! | Best Cartoon 😍| Cartoon for Kids ✨| @DiscoveryKidsIN",
            "url": "https://www.youtube.com/watch?v=w0cssphVqQg",
            "duration": 706.0,
            "view_count": 5644558,
            "uploader": "Discovery Kids In",
            "category": "cartoons/roll_no_21",
            "thumbnail": "https://i.ytimg.com/vi/w0cssphVqQg/hq720.jpg"
        },
        {
            "id": "hI6JijogAhs",
            "title": "Teacher's Day Ki Masti Party!📖| Kris Roll No 21🪈 and Fukrey Boyzzz🤩| #teachersday | @DiscoveryKidsIN",
            "url": "https://www.youtube.com/watch?v=hI6JijogAhs",
            "duration": 914.0,
            "view_count": 443456,
            "uploader": "Discovery Kids In",
            "category": "cartoons/roll_no_21",
            "thumbnail": "https://i.ytimg.com/vi/hI6JijogAhs/hq720.jpg"
        },
        {
            "id": "h2Ng5ie6XgE",
            "title": "Kris Roll No 21🪈| Doston Ka Protector! 🤗| Cartoon for Kids 🤩| #krishna | @DiscoveryKidsIN",
            "url": "https://www.youtube.com/watch?v=h2Ng5ie6XgE",
            "duration": 3604.0,
            "view_count": 135769,
            "uploader": "Discovery Kids In",
            "category": "cartoons/roll_no_21",
            "thumbnail": "https://i.ytimg.com/vi/h2Ng5ie6XgE/hq720.jpg"
        },
        {
            "id": "FefPIbTutNc",
            "title": "Kris Ka 'Jay Shree Krishna' Magic ✨ | Kris Roll No 21 🪈| #jaishreekrishna | #kris | @DiscoveryKidsIN",
            "url": "https://www.youtube.com/watch?v=FefPIbTutNc",
            "duration": 3550.0,
            "view_count": 312948,
            "uploader": "Discovery Kids In",
            "category": "cartoons/roll_no_21",
            "thumbnail": "https://i.ytimg.com/vi/FefPIbTutNc/hq720.jpg"
        },
        {
            "id": "ScrkcxxIjpY",
            "title": "Kris ka Masti Time | Kris Roll No 21 | Cartoons in Hindi | Discovery Kids India",
            "url": "https://www.youtube.com/watch?v=ScrkcxxIjpY",
            "duration": 919.0,
            "view_count": 1419738,
            "uploader": "Discovery Kids In",
            "category": "cartoons/roll_no_21",
            "thumbnail": "https://i.ytimg.com/vi/ScrkcxxIjpY/hq720.jpg"
        },
        {
            "id": "BLJbM8j_RLk",
            "title": "Kris Roll No 21 🪈| Dussehra Special 🔥| Kanishq Ki Shaatir Chaal! 😮 | Compilation | @DiscoveryKidsIN",
            "url": "https://www.youtube.com/watch?v=BLJbM8j_RLk",
            "duration": 3633.0,
            "view_count": 262142,
            "uploader": "Discovery Kids In",
            "category": "cartoons/roll_no_21",
            "thumbnail": "https://i.ytimg.com/vi/BLJbM8j_RLk/hq720.jpg"
        },
        {
            "id": "bEK8JXJfP_I",
            "title": "Kris Roll No 21 🪈| Brain Power vs. Villain Power! | Cartoon for Kids 😍| @DiscoveryKidsIN",
            "url": "https://www.youtube.com/watch?v=bEK8JXJfP_I",
            "duration": 3671.0,
            "view_count": 48904,
            "uploader": "Discovery Kids In",
            "category": "cartoons/roll_no_21",
            "thumbnail": "https://i.ytimg.com/vi/bEK8JXJfP_I/hq720.jpg"
        },
        {
            "id": "suQU5XV82MA",
            "title": "Teachers Day Ki Masti! 🏫 | Kris Roll No 21 🪈 | Fukrey Boyzzz | Teachers Day | @DiscoveryKidsIN",
            "url": "https://www.youtube.com/watch?v=suQU5XV82MA",
            "duration": 914.0,
            "view_count": 997172,
            "uploader": "Discovery Kids In",
            "category": "cartoons/roll_no_21",
            "thumbnail": "https://i.ytimg.com/vi/suQU5XV82MA/hq720.jpg"
        },
        {
            "id": "8cwQ_vTsgpg",
            "title": "Kris Roll No 21 🪈| Kris Ka Paatal Lok Mission! 😲 | Full Episode 😍| #krishna | @DiscoveryKidsIN",
            "url": "https://www.youtube.com/watch?v=8cwQ_vTsgpg",
            "duration": 707.0,
            "view_count": 227372,
            "uploader": "Discovery Kids In",
            "category": "cartoons/roll_no_21",
            "thumbnail": "https://i.ytimg.com/vi/8cwQ_vTsgpg/hq720.jpg"
        },
        {
            "id": "Y34GvbcaU5M",
            "title": "Kris Roll No 21🪈| Kris Aur Keval Ki Dangal! | Cartoon for Kids 😍| @DiscoveryKidsIN",
            "url": "https://www.youtube.com/watch?v=Y34GvbcaU5M",
            "duration": 3714.0,
            "view_count": 702775,
            "uploader": "Discovery Kids In",
            "category": "cartoons/roll_no_21",
            "thumbnail": "https://i.ytimg.com/vi/Y34GvbcaU5M/hq720.jpg"
        },
        {
            "id": "4JcO2wAORuQ",
            "title": "Roll no 21 Kris In Scuba Dooba Ajooba Full Movie",
            "url": "https://www.youtube.com/watch?v=4JcO2wAORuQ",
            "duration": 3895.0,
            "view_count": 54810,
            "uploader": "Indian Cartoon Movies",
            "category": "cartoons/roll_no_21",
            "thumbnail": "https://i.ytimg.com/vi/4JcO2wAORuQ/hqdefault.jpg"
        },
        {
            "id": "0azh9EzrswU",
            "title": "Kris ka Zabardast Adventure! 🤗 | Kris Roll No 21 🪈| #jaishreekrishna | #kris | #krishna",
            "url": "https://www.youtube.com/watch?v=0azh9EzrswU",
            "duration": 3488.0,
            "view_count": 229733,
            "uploader": "Discovery Kids In",
            "category": "cartoons/roll_no_21",
            "thumbnail": "https://i.ytimg.com/vi/0azh9EzrswU/hq720.jpg"
        },
        {
            "id": "RI4e34Hi3Go",
            "title": "Kris Roll No 21🪈| The Genius Kid Strikes Again! 🤔| Cartoon for Kids 😍| @DiscoveryKidsIN",
            "url": "https://www.youtube.com/watch?v=RI4e34Hi3Go",
            "duration": 3381.0,
            "view_count": 14007,
            "uploader": "Discovery Kids In",
            "category": "cartoons/roll_no_21",
            "thumbnail": "https://i.ytimg.com/vi/RI4e34Hi3Go/hq720.jpg"
        },
        {
            "id": "fjp-dA22pAQ",
            "title": "Kris Ke Mazedaar Adventures! 😁| Kris Roll No 21 🪈| #cartoon | #jayshreekrishna | @DiscoveryKidsIN",
            "url": "https://www.youtube.com/watch?v=fjp-dA22pAQ",
            "duration": 3488.0,
            "view_count": 125106,
            "uploader": "Discovery Kids In",
            "category": "cartoons/roll_no_21",
            "thumbnail": "https://i.ytimg.com/vi/fjp-dA22pAQ/hq720.jpg"
        },
        {
            "id": "g3wwfgGAduc",
            "title": "Kris Roll No 21 🪈| Kanishq ka magical sweater 😯| Full Episode | Hindi Cartoon | @DiscoveryKidsIN",
            "url": "https://www.youtube.com/watch?v=g3wwfgGAduc",
            "duration": 645.0,
            "view_count": 524369,
            "uploader": "Discovery Kids In",
            "category": "cartoons/roll_no_21",
            "thumbnail": "https://i.ytimg.com/vi/g3wwfgGAduc/hq720.jpg"
        },
        {
            "id": "aGyT_qBBW2E",
            "title": "Kris Roll No 21🪈| Magic Potion Leaves Kris Powerless! 🧪| Full Episode | #krishna | @DiscoveryKidsIN",
            "url": "https://www.youtube.com/watch?v=aGyT_qBBW2E",
            "duration": 727.0,
            "view_count": 25732,
            "uploader": "Discovery Kids In",
            "category": "cartoons/roll_no_21",
            "thumbnail": "https://i.ytimg.com/vi/aGyT_qBBW2E/hq720.jpg"
        },
        {
            "id": "D7MJl4M8MvM",
            "title": "Kris Roll No 21 🪈| Smartness Ka Magic! 😎🪄| Compilation | #krishna | Cartoon | @DiscoveryKidsIN",
            "url": "https://www.youtube.com/watch?v=D7MJl4M8MvM",
            "duration": 3552.0,
            "view_count": 405250,
            "uploader": "Discovery Kids In",
            "category": "cartoons/roll_no_21",
            "thumbnail": "https://i.ytimg.com/vi/D7MJl4M8MvM/hq720.jpg"
        },
        {
            "id": "TKKN90UrCqM",
            "title": "Kris Roll No 21 🪈| Kris Ka Cleverness! 🧠| Compilation  | #krishna | @DiscoveryKidsIN",
            "url": "https://www.youtube.com/watch?v=TKKN90UrCqM",
            "duration": 3610.0,
            "view_count": 265360,
            "uploader": "Discovery Kids In",
            "category": "cartoons/roll_no_21",
            "thumbnail": "https://i.ytimg.com/vi/TKKN90UrCqM/hq720.jpg"
        },
        {
            "id": "k6b4E8TqOI4",
            "title": "Karis roll number 21 move Daron gen",
            "url": "https://www.youtube.com/watch?v=k6b4E8TqOI4",
            "duration": 4034.0,
            "view_count": 342873,
            "uploader": "Cartoon channel Pakistan ",
            "category": "cartoons/roll_no_21",
            "thumbnail": "https://i.ytimg.com/vi/k6b4E8TqOI4/hqdefault.jpg"
        }
    ]
}