{
    "page": 59,
    "total_pages": 103,
    "total_items": 5125,
    "items": [
        {
            "id": "w7V9uqhYnbk",
            "title": "aj hum gaye zoo mien | new vlog 2026 | ANAS VLOG",
            "url": "https://www.youtube.com/watch?v=w7V9uqhYnbk",
            "duration": 1007.0,
            "view_count": 37753,
            "uploader": "Anas",
            "category": "cartoons/doraemon",
            "thumbnail": "https://i.ytimg.com/vi/w7V9uqhYnbk/hq720.jpg"
        },
        {
            "id": "kCUcZctLXUg",
            "title": "Doraemon New Episode In Hindi | Doraemon Cartoon Today Full Episode | HD 4K",
            "url": "https://www.youtube.com/watch?v=kCUcZctLXUg",
            "duration": 1842.0,
            "view_count": 2913,
            "uploader": "war_news",
            "category": "cartoons/doraemon",
            "thumbnail": "https://i.ytimg.com/vi/kCUcZctLXUg/hq720.jpg"
        },
        {
            "id": "fjyxk85LpsE",
            "title": "Doraemon New Episode 2023 - Episode Doraemon Cartoon Movie In Hindi Dubbed 2023",
            "url": "https://www.youtube.com/watch?v=fjyxk85LpsE",
            "duration": 1428.0,
            "view_count": 252359,
            "uploader": "my status ",
            "category": "cartoons/doraemon",
            "thumbnail": "https://i.ytimg.com/vi/fjyxk85LpsE/hqdefault.jpg"
        },
        {
            "id": "lrOxmmNdkfA",
            "title": "Doreaamon Latest Episode 2026 |Hindi Dubbed | No Zoom Effect Full Episode Hindi #doraemoninhindi",
            "url": "https://www.youtube.com/watch?v=lrOxmmNdkfA",
            "duration": 2627.0,
            "view_count": 17863,
            "uploader": "Zahra & Zuki World",
            "category": "cartoons/doraemon",
            "thumbnail": "https://i.ytimg.com/vi/lrOxmmNdkfA/hqdefault.jpg"
        },
        {
            "id": "qMqcKqhaKok",
            "title": "Doraemon New Episode 14- Doraemon Cartoon - Doraemon In Hindi - Doraemon Movie",
            "url": "https://www.youtube.com/watch?v=qMqcKqhaKok",
            "duration": 1570.0,
            "view_count": 225988,
            "uploader": "Gaming Rone 1M",
            "category": "cartoons/doraemon",
            "thumbnail": "https://i.ytimg.com/vi/qMqcKqhaKok/hqdefault.jpg"
        },
        {
            "id": "AJTPlCfQwyg",
            "title": "Doraemon New Episode In Hindi | Doraemon Cartoon Today Full Episode | Doraemon Cartoon Without Zoom",
            "url": "https://www.youtube.com/watch?v=AJTPlCfQwyg",
            "duration": 1375.0,
            "view_count": 288696,
            "uploader": "Mínǐ xiǎochī",
            "category": "cartoons/doraemon",
            "thumbnail": "https://i.ytimg.com/vi/AJTPlCfQwyg/hqdefault.jpg"
        },
        {
            "id": "5UHga2qusc4",
            "title": "Doraemon Latest Episode 2026 |Hindi Dubbed | No Zoom Effect Full Episode Hindi",
            "url": "https://www.youtube.com/watch?v=5UHga2qusc4",
            "duration": 1222.0,
            "view_count": 1149,
            "uploader": "Doreamon Lover",
            "category": "cartoons/doraemon",
            "thumbnail": "https://i.ytimg.com/vi/5UHga2qusc4/hqdefault.jpg"
        },
        {
            "id": "NrVTc8GGZ-Y",
            "title": "Doraemon New Episode 2026 | Doraemon Cartoon | Doraemon In Hindi | Doraemon Movie",
            "url": "https://www.youtube.com/watch?v=NrVTc8GGZ-Y",
            "duration": 2849.0,
            "view_count": 6236,
            "uploader": "bini team 1.6m",
            "category": "cartoons/doraemon",
            "thumbnail": "https://i.ytimg.com/vi/NrVTc8GGZ-Y/hqdefault.jpg"
        },
        {
            "id": "kbwuYrLtiR8",
            "title": "Doraemon New Episode in Hindi - Doremon New Ep Cartoon - Doraemon Movie 2026",
            "url": "https://www.youtube.com/watch?v=kbwuYrLtiR8",
            "duration": 1814.0,
            "view_count": 18438,
            "uploader": "loyal & loyal",
            "category": "cartoons/doraemon",
            "thumbnail": "https://i.ytimg.com/vi/kbwuYrLtiR8/hq720.jpg"
        },
        {
            "id": "6bHinzRXmUw",
            "title": "Doraemon New Episode In Hindi | Doraemon Cartoon Today Full Episode | Doraemon Cartoon Without Zoom",
            "url": "https://www.youtube.com/watch?v=6bHinzRXmUw",
            "duration": 1586.0,
            "view_count": 40930,
            "uploader": "Snap Soch",
            "category": "cartoons/doraemon",
            "thumbnail": "https://i.ytimg.com/vi/6bHinzRXmUw/hqdefault.jpg"
        },
        {
            "id": "bNPf-RUQA3A",
            "title": "Doraemon latest episode 2026| Hindi dubbed| without zoom effects| Doraemon cartoon today  episode",
            "url": "https://www.youtube.com/watch?v=bNPf-RUQA3A",
            "duration": 1891.0,
            "view_count": 30594,
            "uploader": "MINIATURE CARS . 11M views",
            "category": "cartoons/doraemon",
            "thumbnail": "https://i.ytimg.com/vi/bNPf-RUQA3A/hq720.jpg"
        },
        {
            "id": "aFbBWQBtNgQ",
            "title": "Doraemon New Episode In Hindi | Doraemon Cartoon Today Full Episode | Doraemon Cartoon Without Zoom",
            "url": "https://www.youtube.com/watch?v=aFbBWQBtNgQ",
            "duration": 1469.0,
            "view_count": 4109,
            "uploader": "Mínǐ xiǎochī",
            "category": "cartoons/doraemon",
            "thumbnail": "https://i.ytimg.com/vi/aFbBWQBtNgQ/hqdefault.jpg"
        },
        {
            "id": "Nzu4yVGGOvA",
            "title": "Doraemon Full Episode Hindi | Mini Dora with Dora Cakes",
            "url": "https://www.youtube.com/watch?v=Nzu4yVGGOvA",
            "duration": 642.0,
            "view_count": 146353,
            "uploader": "Kids World TV ",
            "category": "cartoons/doraemon",
            "thumbnail": "https://i.ytimg.com/vi/Nzu4yVGGOvA/hq720.jpg"
        },
        {
            "id": "GTf7rnfxWBs",
            "title": "Doraemon New Episodes In Hindi l Doraemon Latest Hindi Episodes l Like and Subscribe For More.",
            "url": "https://www.youtube.com/watch?v=GTf7rnfxWBs",
            "duration": 2328.0,
            "view_count": 10809,
            "uploader": "Tanvir Mughal  and Zumair",
            "category": "cartoons/doraemon",
            "thumbnail": "https://i.ytimg.com/vi/GTf7rnfxWBs/hqdefault.jpg"
        },
        {
            "id": "Yb5czra8nQo",
            "title": "Doraemon Old Is Gold Episode Hindi | Full HD | No Zoom Effect",
            "url": "https://www.youtube.com/watch?v=Yb5czra8nQo",
            "duration": 1272.0,
            "view_count": 21154,
            "uploader": "Cartoon Rizz",
            "category": "cartoons/doraemon",
            "thumbnail": "https://i.ytimg.com/vi/Yb5czra8nQo/hq720.jpg"
        },
        {
            "id": "VAVI3NQN8Us",
            "title": "Doraemon new episode 2025 in Hindi . #doraemon #doraemoninhindi ",
            "url": "https://www.youtube.com/watch?v=VAVI3NQN8Us",
            "duration": 1295.0,
            "view_count": 90793,
            "uploader": "9 STER GAMER",
            "category": "cartoons/doraemon",
            "thumbnail": "https://i.ytimg.com/vi/VAVI3NQN8Us/hq720.jpg"
        },
        {
            "id": "flBr4OVKheI",
            "title": "Doraemon Old episode ❤️❤️❤️",
            "url": "https://www.youtube.com/watch?v=flBr4OVKheI",
            "duration": 1437.0,
            "view_count": 170266,
            "uploader": "doreamo cartoon ",
            "category": "cartoons/doraemon",
            "thumbnail": "https://i.ytimg.com/vi/flBr4OVKheI/hqdefault.jpg"
        },
        {
            "id": "Ihq1TcIs5do",
            "title": "Doreaamon Latest Episode 2026 |Hindi Dubbed | No Zoom Effect Full Episode Hindi #doraemon",
            "url": "https://www.youtube.com/watch?v=Ihq1TcIs5do",
            "duration": 2146.0,
            "view_count": 28106,
            "uploader": "Moiez Hassan Vlogs",
            "category": "cartoons/doraemon",
            "thumbnail": "https://i.ytimg.com/vi/Ihq1TcIs5do/hqdefault.jpg"
        },
        {
            "id": "2dXZNXIbP2Y",
            "title": "Doraemon New Episode In Hindi  Doraemon Cartoon Today Full Episode  Doraemon Cartoon",
            "url": "https://www.youtube.com/watch?v=2dXZNXIbP2Y",
            "duration": 1219.0,
            "view_count": 150712,
            "uploader": "Batamez Pizza",
            "category": "cartoons/doraemon",
            "thumbnail": "https://i.ytimg.com/vi/2dXZNXIbP2Y/hq720.jpg"
        },
        {
            "id": "P9pPunBcCrA",
            "title": "Doraemon New Episodes In Hindi 2026 l Doraemon Latest Hindi Episodes l Like and Subscribe For More.",
            "url": "https://www.youtube.com/watch?v=P9pPunBcCrA",
            "duration": 2617.0,
            "view_count": 7019,
            "uploader": "soneka blog",
            "category": "cartoons/various_cartoons",
            "thumbnail": "https://i.ytimg.com/vi/P9pPunBcCrA/hqdefault.jpg"
        },
        {
            "id": "gav7ksM_f1U",
            "title": "Doraemon New Episode in Hindi | Doremon New Ep Cartoon | Doraemon Movie 2026",
            "url": "https://www.youtube.com/watch?v=gav7ksM_f1U",
            "duration": 2080.0,
            "view_count": 10952,
            "uploader": "HP Punjab",
            "category": "cartoons/doraemon",
            "thumbnail": "https://i.ytimg.com/vi/gav7ksM_f1U/hqdefault.jpg"
        },
        {
            "id": "braemRX_-V8",
            "title": "Doraemon new episode in hindi | doraemon 2026",
            "url": "https://www.youtube.com/watch?v=braemRX_-V8",
            "duration": 1022.0,
            "view_count": 10372,
            "uploader": "Kitty kraze",
            "category": "cartoons/doraemon",
            "thumbnail": "https://i.ytimg.com/vi/braemRX_-V8/hq720.jpg"
        },
        {
            "id": "cXh1zpCILgI",
            "title": "Yes Sensei!🥋 | Eena Meena Deeka | Full Episodes | Cartoons For Kids",
            "url": "https://www.youtube.com/watch?v=cXh1zpCILgI",
            "duration": 3393.0,
            "view_count": 12773,
            "uploader": "Eena Meena Deeka",
            "category": "cartoons/eena_meena_deeka",
            "thumbnail": "https://i.ytimg.com/vi/cXh1zpCILgI/hq720.jpg"
        },
        {
            "id": "v64Y61Th44w",
            "title": "Bollywood Dangal - Lost Island | Popcorn Factory - Eena Meena Deeka",
            "url": "https://www.youtube.com/watch?v=v64Y61Th44w",
            "duration": 929.0,
            "view_count": 1092524,
            "uploader": "WowKidz",
            "category": "cartoons/eena_meena_deeka",
            "thumbnail": "https://i.ytimg.com/vi/v64Y61Th44w/hq720.jpg"
        },
        {
            "id": "VsY7YreNGqg",
            "title": "Bollywood Dangal -  The Sewer | Clock Tower - Eena Meena Deeka",
            "url": "https://www.youtube.com/watch?v=VsY7YreNGqg",
            "duration": 933.0,
            "view_count": 666085,
            "uploader": "WowKidz",
            "category": "cartoons/eena_meena_deeka",
            "thumbnail": "https://i.ytimg.com/vi/VsY7YreNGqg/hq720.jpg"
        },
        {
            "id": "oeUrW82KY_E",
            "title": "Lunchbox Deliveryman | Eena Meena Deeka | Full Episodes | Cartoons For Kids",
            "url": "https://www.youtube.com/watch?v=oeUrW82KY_E",
            "duration": 5137.0,
            "view_count": 13752,
            "uploader": "Eena Meena Deeka",
            "category": "cartoons/eena_meena_deeka",
            "thumbnail": "https://i.ytimg.com/vi/oeUrW82KY_E/hq720.jpg"
        },
        {
            "id": "JXrBJoMCOKQ",
            "title": "Bollywood Dangal - Geela Geela Pani | Mummy O Mummy - Eena Meena Deeka",
            "url": "https://www.youtube.com/watch?v=JXrBJoMCOKQ",
            "duration": 909.0,
            "view_count": 1436294,
            "uploader": "WowKidz",
            "category": "cartoons/eena_meena_deeka",
            "thumbnail": "https://i.ytimg.com/vi/JXrBJoMCOKQ/hq720.jpg"
        },
        {
            "id": "Qce-evfmUZQ",
            "title": "Bollywood Dangal - Tree House | Science Lab - Eena Meena Deeka",
            "url": "https://www.youtube.com/watch?v=Qce-evfmUZQ",
            "duration": 878.0,
            "view_count": 2109195,
            "uploader": "WowKidz",
            "category": "cartoons/eena_meena_deeka",
            "thumbnail": "https://i.ytimg.com/vi/Qce-evfmUZQ/hq720.jpg"
        },
        {
            "id": "yG32RsrL9Zs",
            "title": "Bollywood Dangal - Khel Khel Mein | London Tour - Eena Meena Deeka",
            "url": "https://www.youtube.com/watch?v=yG32RsrL9Zs",
            "duration": 946.0,
            "view_count": 516288,
            "uploader": "WowKidz",
            "category": "cartoons/eena_meena_deeka",
            "thumbnail": "https://i.ytimg.com/vi/yG32RsrL9Zs/hq720.jpg"
        },
        {
            "id": "srX8s7v8oy4",
            "title": "Bollywood Dangal - Rain O Rain | Super Market - Eena Meena Deeka",
            "url": "https://www.youtube.com/watch?v=srX8s7v8oy4",
            "duration": 919.0,
            "view_count": 791129,
            "uploader": "WowKidz",
            "category": "cartoons/eena_meena_deeka",
            "thumbnail": "https://i.ytimg.com/vi/srX8s7v8oy4/hq720.jpg"
        },
        {
            "id": "g7krOGhwLQY",
            "title": "Bollywood Dangal - Beat The Heat | Up In The Air - Eena Meena Deeka",
            "url": "https://www.youtube.com/watch?v=g7krOGhwLQY",
            "duration": 919.0,
            "view_count": 248627,
            "uploader": "WowKidz",
            "category": "cartoons/eena_meena_deeka",
            "thumbnail": "https://i.ytimg.com/vi/g7krOGhwLQY/hq720.jpg"
        },
        {
            "id": "M1J7He8BTks",
            "title": "Bollywood Dangal - Wonderland | Doodh Doodh Doodh - Eena Meena Deeka",
            "url": "https://www.youtube.com/watch?v=M1J7He8BTks",
            "duration": 915.0,
            "view_count": 1242998,
            "uploader": "WowKidz",
            "category": "cartoons/eena_meena_deeka",
            "thumbnail": "https://i.ytimg.com/vi/M1J7He8BTks/hq720.jpg"
        },
        {
            "id": "O82i8Vh2ja8",
            "title": "Bollywood Dangal - Office Dhamaal | To The West - Eena Meena Deeka",
            "url": "https://www.youtube.com/watch?v=O82i8Vh2ja8",
            "duration": 939.0,
            "view_count": 760970,
            "uploader": "WowKidz",
            "category": "cartoons/eena_meena_deeka",
            "thumbnail": "https://i.ytimg.com/vi/O82i8Vh2ja8/hq720.jpg"
        },
        {
            "id": "1_j_Sf7XORg",
            "title": "Bollywood Dangal - BlockBuster Foxie | Gymnastic - Eena Meena Deeka",
            "url": "https://www.youtube.com/watch?v=1_j_Sf7XORg",
            "duration": 919.0,
            "view_count": 471943,
            "uploader": "WowKidz",
            "category": "cartoons/eena_meena_deeka",
            "thumbnail": "https://i.ytimg.com/vi/1_j_Sf7XORg/hq720.jpg"
        },
        {
            "id": "GjFwXDSGHCY",
            "title": "Bollywood Dangal - Happy Diwali | Cake Bhai Cake - Eena Meena Deeka",
            "url": "https://www.youtube.com/watch?v=GjFwXDSGHCY",
            "duration": 921.0,
            "view_count": 1997347,
            "uploader": "WowKidz",
            "category": "cartoons/eena_meena_deeka",
            "thumbnail": "https://i.ytimg.com/vi/GjFwXDSGHCY/hq720.jpg"
        },
        {
            "id": "hgC-5jIPHi4",
            "title": "Eena Meena Deeka 8 episodes in 1 hour | 3D Animation for kids | #2",
            "url": "https://www.youtube.com/watch?v=hgC-5jIPHi4",
            "duration": 3452.0,
            "view_count": 67343382,
            "uploader": "WowKidz",
            "category": "cartoons/eena_meena_deeka",
            "thumbnail": "https://i.ytimg.com/vi/hgC-5jIPHi4/hq720.jpg"
        },
        {
            "id": "adagVWRP0-k",
            "title": "A Royal Mess! 👑😲 | Eena Meena Deeka Compilation | Full Episodes",
            "url": "https://www.youtube.com/watch?v=adagVWRP0-k",
            "duration": 4282.0,
            "view_count": 659037,
            "uploader": "Eena Meena Deeka",
            "category": "cartoons/eena_meena_deeka",
            "thumbnail": "https://i.ytimg.com/vi/adagVWRP0-k/hq720.jpg"
        },
        {
            "id": "uo3Xwt0W8kA",
            "title": "Eena Meena Deeka In Hindi | Funny Animated Series | Compilation 03 | Wow Kidz",
            "url": "https://www.youtube.com/watch?v=uo3Xwt0W8kA",
            "duration": 845.0,
            "view_count": 3442559,
            "uploader": "WowKidz",
            "category": "cartoons/eena_meena_deeka",
            "thumbnail": "https://i.ytimg.com/vi/uo3Xwt0W8kA/hq720.jpg"
        },
        {
            "id": "CBZlnfWapvY",
            "title": "Bollywood Dangal - Vegetable Garden | Ghost House - Eena Meena Deeka",
            "url": "https://www.youtube.com/watch?v=CBZlnfWapvY",
            "duration": 888.0,
            "view_count": 854558,
            "uploader": "WowKidz",
            "category": "cartoons/eena_meena_deeka",
            "thumbnail": "https://i.ytimg.com/vi/CBZlnfWapvY/hq720.jpg"
        },
        {
            "id": "isgtQIxC6bo",
            "title": "Bollywood Dangal - Universal remote | Invisible Foxie - Eena Meena Deeka",
            "url": "https://www.youtube.com/watch?v=isgtQIxC6bo",
            "duration": 917.0,
            "view_count": 630015,
            "uploader": "WowKidz",
            "category": "cartoons/eena_meena_deeka",
            "thumbnail": "https://i.ytimg.com/vi/isgtQIxC6bo/hq720.jpg"
        },
        {
            "id": "qDfqS21W744",
            "title": "Bollywood Dangal - The Game Show | American Football - Eena Meena Deeka",
            "url": "https://www.youtube.com/watch?v=qDfqS21W744",
            "duration": 936.0,
            "view_count": 444356,
            "uploader": "WowKidz",
            "category": "cartoons/eena_meena_deeka",
            "thumbnail": "https://i.ytimg.com/vi/qDfqS21W744/hq720.jpg"
        },
        {
            "id": "h2Z9XlubZvA",
            "title": "Bollywood Dangal - Board Game | Clean Bowled - Eena Meena Deeka",
            "url": "https://www.youtube.com/watch?v=h2Z9XlubZvA",
            "duration": 938.0,
            "view_count": 1000152,
            "uploader": "WowKidz",
            "category": "cartoons/eena_meena_deeka",
            "thumbnail": "https://i.ytimg.com/vi/h2Z9XlubZvA/hq720.jpg"
        },
        {
            "id": "805bxKvnM5Y",
            "title": "Bollywood Dangal - The Flying Horse | Movie Mania - Eena Meena Deeka",
            "url": "https://www.youtube.com/watch?v=805bxKvnM5Y",
            "duration": 925.0,
            "view_count": 533220,
            "uploader": "WowKidz",
            "category": "cartoons/eena_meena_deeka",
            "thumbnail": "https://i.ytimg.com/vi/805bxKvnM5Y/hq720.jpg"
        },
        {
            "id": "mFzsV9_yPCs",
            "title": "Bollywood Dangal - Under the Khandar | Barbeque - Eeena Meena Deeka",
            "url": "https://www.youtube.com/watch?v=mFzsV9_yPCs",
            "duration": 926.0,
            "view_count": 446681,
            "uploader": "WowKidz",
            "category": "cartoons/eena_meena_deeka",
            "thumbnail": "https://i.ytimg.com/vi/mFzsV9_yPCs/hq720.jpg"
        },
        {
            "id": "YgWAmZx4WhQ",
            "title": "Bollywood Dangal - Dhobi Ghat | Merry Christmas | In the Park - Eena Meena Deeka",
            "url": "https://www.youtube.com/watch?v=YgWAmZx4WhQ",
            "duration": 1324.0,
            "view_count": 1018876,
            "uploader": "WowKidz",
            "category": "cartoons/eena_meena_deeka",
            "thumbnail": "https://i.ytimg.com/vi/YgWAmZx4WhQ/hq720.jpg"
        },
        {
            "id": "EBMJpckOcIg",
            "title": "Eena Meena Deeka 8 episodes in 1 hour | 3D Animation for kids | #5",
            "url": "https://www.youtube.com/watch?v=EBMJpckOcIg",
            "duration": 3843.0,
            "view_count": 47711083,
            "uploader": "WowKidz",
            "category": "cartoons/eena_meena_deeka",
            "thumbnail": "https://i.ytimg.com/vi/EBMJpckOcIg/hq720.jpg"
        },
        {
            "id": "vMZcma01-Zs",
            "title": "Bollywood Dangal - Pottery | Mithi Mithi Mithi - Eena Meena Deeka",
            "url": "https://www.youtube.com/watch?v=vMZcma01-Zs",
            "duration": 881.0,
            "view_count": 460534,
            "uploader": "WowKidz",
            "category": "cartoons/eena_meena_deeka",
            "thumbnail": "https://i.ytimg.com/vi/vMZcma01-Zs/hq720.jpg"
        },
        {
            "id": "hYUdd0gchRI",
            "title": "Bollywood Dangal - Computer World | Ninja Foxie - Eena Meena Deeka",
            "url": "https://www.youtube.com/watch?v=hYUdd0gchRI",
            "duration": 923.0,
            "view_count": 733114,
            "uploader": "WowKidz",
            "category": "cartoons/eena_meena_deeka",
            "thumbnail": "https://i.ytimg.com/vi/hYUdd0gchRI/hq720.jpg"
        },
        {
            "id": "8ak_SoDExC8",
            "title": "Bollywood Dangal - Ice Skating | Holi Hai Holi - Eena Meena Deeka",
            "url": "https://www.youtube.com/watch?v=8ak_SoDExC8",
            "duration": 895.0,
            "view_count": 538988,
            "uploader": "WowKidz",
            "category": "cartoons/eena_meena_deeka",
            "thumbnail": "https://i.ytimg.com/vi/8ak_SoDExC8/hq720.jpg"
        },
        {
            "id": "RXmn_6Hmkns",
            "title": "Bollywood Dangal - Museum | Foxie Ki Dhulai - Eena Meena Deeka",
            "url": "https://www.youtube.com/watch?v=RXmn_6Hmkns",
            "duration": 929.0,
            "view_count": 448063,
            "uploader": "WowKidz",
            "category": "cartoons/eena_meena_deeka",
            "thumbnail": "https://i.ytimg.com/vi/RXmn_6Hmkns/hq720.jpg"
        }
    ]
}