{
    "page": 92,
    "total_pages": 103,
    "total_items": 5125,
    "items": [
        {
            "id": "QkND3fKLoEA",
            "title": "Rudra + The Rise Of King Pharaoh | Rudra",
            "url": "https://www.youtube.com/watch?v=QkND3fKLoEA",
            "duration": 5464.0,
            "view_count": 3550413,
            "uploader": "Rudra",
            "category": "cartoons/rudra",
            "thumbnail": "https://i.ytimg.com/vi/QkND3fKLoEA/hq720.jpg"
        },
        {
            "id": "4ZDRyex3yKA",
            "title": "The Blockbuster Adventure  -   Dawn of the Dangerous Dongreela! | Rudra",
            "url": "https://www.youtube.com/watch?v=4ZDRyex3yKA",
            "duration": 5051.0,
            "view_count": 1110273,
            "uploader": "Rudra",
            "category": "cartoons/rudra",
            "thumbnail": "https://i.ytimg.com/vi/4ZDRyex3yKA/hq720.jpg"
        },
        {
            "id": "Hbdjg2QGJpY",
            "title": "షకల్ కా మాయాజల్ | Rudra: Boom Chik Chik Boom | Full Episode",
            "url": "https://www.youtube.com/watch?v=Hbdjg2QGJpY",
            "duration": 1367.0,
            "view_count": 3679,
            "uploader": "Sonic Gang Telugu",
            "category": "cartoons/rudra",
            "thumbnail": "https://i.ytimg.com/vi/Hbdjg2QGJpY/hq720.jpg"
        },
        {
            "id": "1lYcHfDMNA8",
            "title": "The Mystery Of Spider Magician | Rudra: Boom Chik Chik Boom| Full Episode",
            "url": "https://www.youtube.com/watch?v=1lYcHfDMNA8",
            "duration": 1276.0,
            "view_count": 310,
            "uploader": "Sonic Gang English",
            "category": "cartoons/rudra",
            "thumbnail": "https://i.ytimg.com/vi/1lYcHfDMNA8/hq720.jpg"
        },
        {
            "id": "NBslFP5ZvLU",
            "title": "Topper बनोगे तो Target भी बनोगे | Rudra | रुद्र",
            "url": "https://www.youtube.com/watch?v=NBslFP5ZvLU",
            "duration": 5005.0,
            "view_count": 11419,
            "uploader": "Sonic Gang",
            "category": "cartoons/rudra",
            "thumbnail": "https://i.ytimg.com/vi/NBslFP5ZvLU/hq720.jpg"
        },
        {
            "id": "nwIEnb_0lBM",
            "title": "Rudra - Season 1 - Full Episode 1",
            "url": "https://www.youtube.com/watch?v=nwIEnb_0lBM",
            "duration": 1403.0,
            "view_count": 129895264,
            "uploader": "JioHotstar Kids",
            "category": "cartoons/rudra",
            "thumbnail": "https://i.ytimg.com/vi/nwIEnb_0lBM/hq720.jpg"
        },
        {
            "id": "wdP7fL8OA8A",
            "title": "Rudra - Season 1 - Full Episode 13",
            "url": "https://www.youtube.com/watch?v=wdP7fL8OA8A",
            "duration": 1344.0,
            "view_count": 35384375,
            "uploader": "JioHotstar Kids",
            "category": "cartoons/rudra",
            "thumbnail": "https://i.ytimg.com/vi/wdP7fL8OA8A/hq720.jpg"
        },
        {
            "id": "yIbvOCvNeMk",
            "title": "Rudra | रुद्र | The Shape Shifter | Super Action Cartoon | Full Episode 23 | #Fun4Kids-Hindi",
            "url": "https://www.youtube.com/watch?v=yIbvOCvNeMk",
            "duration": 1333.0,
            "view_count": 11385958,
            "uploader": "Fun 4 Kids - Hindi",
            "category": "cartoons/rudra",
            "thumbnail": "https://i.ytimg.com/vi/yIbvOCvNeMk/hq720.jpg"
        },
        {
            "id": "z7ioPTNGq94",
            "title": "Jay Singh से बदला लेने आया Shape Shifter! | Rudra",
            "url": "https://www.youtube.com/watch?v=z7ioPTNGq94",
            "duration": 1373.0,
            "view_count": 584491,
            "uploader": "Rudra",
            "category": "cartoons/rudra",
            "thumbnail": "https://i.ytimg.com/vi/z7ioPTNGq94/hq720.jpg"
        },
        {
            "id": "TEt5q-hzvtQ",
            "title": "Shakleena made a cake that turned Varun and Mini evil! | Rudra",
            "url": "https://www.youtube.com/watch?v=TEt5q-hzvtQ",
            "duration": 1266.0,
            "view_count": 5919,
            "uploader": "Magic of Rudra",
            "category": "cartoons/rudra",
            "thumbnail": "https://i.ytimg.com/vi/TEt5q-hzvtQ/hq720.jpg"
        },
        {
            "id": "_XVXT_5kGLw",
            "title": "షకాల్ జిమ్మిక్కు | Rudra: Boom Chik Chik Boom | Full Episode",
            "url": "https://www.youtube.com/watch?v=_XVXT_5kGLw",
            "duration": 1385.0,
            "view_count": 10519,
            "uploader": "Sonic Gang Telugu",
            "category": "cartoons/rudra",
            "thumbnail": "https://i.ytimg.com/vi/_XVXT_5kGLw/hq720.jpg"
        },
        {
            "id": "LeUQtpRnBxk",
            "title": "Shakaal का बदला: Rudra फँसा Block City में | Rudra | रुद्र",
            "url": "https://www.youtube.com/watch?v=LeUQtpRnBxk",
            "duration": 3772.0,
            "view_count": 208134,
            "uploader": "Sonic Gang",
            "category": "cartoons/rudra",
            "thumbnail": "https://i.ytimg.com/vi/LeUQtpRnBxk/hq720.jpg"
        },
        {
            "id": "WvnXrb460ZQ",
            "title": "Today is Holi Festival in Advance Magic School 🫟🥮! Rudra",
            "url": "https://www.youtube.com/watch?v=WvnXrb460ZQ",
            "duration": 1299.0,
            "view_count": 65260,
            "uploader": "Rudra",
            "category": "cartoons/rudra",
            "thumbnail": "https://i.ytimg.com/vi/WvnXrb460ZQ/hq720.jpg"
        },
        {
            "id": "NYZKD3KTImA",
            "title": "The Rise Of King Pharaoh  Rudra",
            "url": "https://www.youtube.com/watch?v=NYZKD3KTImA",
            "duration": 5464.0,
            "view_count": 2746149,
            "uploader": "Rudra",
            "category": "cartoons/rudra",
            "thumbnail": "https://i.ytimg.com/vi/NYZKD3KTImA/hq720.jpg"
        },
        {
            "id": "c_YwJO3H4pc",
            "title": "Rudra Shiva Vs Pirates Of Universe | Full Movie #kids #animation",
            "url": "https://www.youtube.com/watch?v=c_YwJO3H4pc",
            "duration": 3614.0,
            "view_count": 32387595,
            "uploader": "JioHotstar Kids",
            "category": "cartoons/rudra",
            "thumbnail": "https://i.ytimg.com/vi/c_YwJO3H4pc/hq720.jpg"
        },
        {
            "id": "sj-4D1x-3Qk",
            "title": "Jay Singh और Shakaal है Magician के kabze में! | Rudra",
            "url": "https://www.youtube.com/watch?v=sj-4D1x-3Qk",
            "duration": 734.0,
            "view_count": 774734,
            "uploader": "Rudra",
            "category": "cartoons/rudra",
            "thumbnail": "https://i.ytimg.com/vi/sj-4D1x-3Qk/hq720.jpg"
        },
        {
            "id": "L5UXnYlAeOc",
            "title": "Shrunken Magicians | Rudra: Boom Chik Chik Boom | Full Episode",
            "url": "https://www.youtube.com/watch?v=L5UXnYlAeOc",
            "duration": 1226.0,
            "view_count": 2248,
            "uploader": "Sonic Gang English",
            "category": "cartoons/rudra",
            "thumbnail": "https://i.ytimg.com/vi/L5UXnYlAeOc/hq720.jpg"
        },
        {
            "id": "kegABiRwp0E",
            "title": "Magic fire Cracker ने मचाई 😂 Magic School में तबाही! | Rudra",
            "url": "https://www.youtube.com/watch?v=kegABiRwp0E",
            "duration": 1193.0,
            "view_count": 5337,
            "uploader": "Magic of Rudra",
            "category": "cartoons/rudra",
            "thumbnail": "https://i.ytimg.com/vi/kegABiRwp0E/hq720.jpg"
        },
        {
            "id": "MRoA1260vFw",
            "title": "Entire Story of RUDRA in 26 Minutes | ADI ANIME VERSE *HINDI |",
            "url": "https://www.youtube.com/watch?v=MRoA1260vFw",
            "duration": 1614.0,
            "view_count": 19586,
            "uploader": "ADI ANIME VERSE",
            "category": "cartoons/rudra",
            "thumbnail": "https://i.ytimg.com/vi/MRoA1260vFw/hqdefault.jpg"
        },
        {
            "id": "rHbpfWrhO5k",
            "title": "Rudra - Season 1 - Full Episode 5",
            "url": "https://www.youtube.com/watch?v=rHbpfWrhO5k",
            "duration": 1284.0,
            "view_count": 59218367,
            "uploader": "JioHotstar Kids",
            "category": "cartoons/rudra",
            "thumbnail": "https://i.ytimg.com/vi/rHbpfWrhO5k/hq720.jpg"
        },
        {
            "id": "pR4H5KfgvH0",
            "title": "Rudra - Season 1 - Full Episode 6",
            "url": "https://www.youtube.com/watch?v=pR4H5KfgvH0",
            "duration": 1425.0,
            "view_count": 64987797,
            "uploader": "JioHotstar Kids",
            "category": "cartoons/rudra",
            "thumbnail": "https://i.ytimg.com/vi/pR4H5KfgvH0/hq720.jpg"
        },
        {
            "id": "CDZ5Thood7A",
            "title": "Rudra | रुद्र | Season 3 | Full Episode | The Mysterious Horse",
            "url": "https://www.youtube.com/watch?v=CDZ5Thood7A",
            "duration": 1181.0,
            "view_count": 30976487,
            "uploader": "Sonic Gang",
            "category": "cartoons/rudra",
            "thumbnail": "https://i.ytimg.com/vi/CDZ5Thood7A/hq720.jpg"
        },
        {
            "id": "q5TppU7G_5A",
            "title": "Shakaal ने Rudra और दोस्तों को बनाया भूत! | Rudra | रुद्र",
            "url": "https://www.youtube.com/watch?v=q5TppU7G_5A",
            "duration": 3605.0,
            "view_count": 808071,
            "uploader": "Sonic Gang",
            "category": "cartoons/rudra",
            "thumbnail": "https://i.ytimg.com/vi/q5TppU7G_5A/hq720.jpg"
        },
        {
            "id": "6g4jkfx6QLs",
            "title": "Bambola का Challenge: कौन जीतेगा Mountain Race? | Rudra",
            "url": "https://www.youtube.com/watch?v=6g4jkfx6QLs",
            "duration": 2484.0,
            "view_count": 1190910,
            "uploader": "ToonTime TV",
            "category": "cartoons/rudra",
            "thumbnail": "https://i.ytimg.com/vi/6g4jkfx6QLs/hq720.jpg"
        },
        {
            "id": "NeNv4zmyVw8",
            "title": "Rudra का Unicorn Friend गायब… पीछे कौन है? | Rudra | रुद्र",
            "url": "https://www.youtube.com/watch?v=NeNv4zmyVw8",
            "duration": 1274.0,
            "view_count": 13156,
            "uploader": "Sonic Gang",
            "category": "cartoons/rudra",
            "thumbnail": "https://i.ytimg.com/vi/NeNv4zmyVw8/hq720.jpg"
        },
        {
            "id": "qPrQWd7eb8c",
            "title": "Rudra ka Unicorn: जो भी Pakdeगा, Barbaad होगा | Rudra | रुद्र",
            "url": "https://www.youtube.com/watch?v=qPrQWd7eb8c",
            "duration": 1274.0,
            "view_count": 890762,
            "uploader": "Sonic Gang",
            "category": "cartoons/rudra",
            "thumbnail": "https://i.ytimg.com/vi/qPrQWd7eb8c/hq720.jpg"
        },
        {
            "id": "pyB5newN58Y",
            "title": "Rudra | रुद्र | Season 4 | Full Episode | School Admission Conspiracy",
            "url": "https://www.youtube.com/watch?v=pyB5newN58Y",
            "duration": 2750.0,
            "view_count": 13838068,
            "uploader": "Sonic Gang",
            "category": "cartoons/rudra",
            "thumbnail": "https://i.ytimg.com/vi/pyB5newN58Y/hq720.jpg"
        },
        {
            "id": "36LCKaQlMOc",
            "title": "Rudra और उसके Dosto का Advanced Magic ✨ Academy में First day! | Rudra",
            "url": "https://www.youtube.com/watch?v=36LCKaQlMOc",
            "duration": 2813.0,
            "view_count": 4983306,
            "uploader": "Rudra",
            "category": "cartoons/rudra",
            "thumbnail": "https://i.ytimg.com/vi/36LCKaQlMOc/hq720.jpg"
        },
        {
            "id": "1UEtLjyJ89w",
            "title": "Rudra Aur Maira कर रहे है Varun के birthday ki taiyari! | Rudra",
            "url": "https://www.youtube.com/watch?v=1UEtLjyJ89w",
            "duration": 1268.0,
            "view_count": 3233947,
            "uploader": "Rudra",
            "category": "cartoons/rudra",
            "thumbnail": "https://i.ytimg.com/vi/1UEtLjyJ89w/hq720.jpg"
        },
        {
            "id": "WPfgc4DsQnA",
            "title": "The Magical Wings Of Shakal | Rudra: Boom Chik Chik Boom| Full Episode",
            "url": "https://www.youtube.com/watch?v=WPfgc4DsQnA",
            "duration": 1253.0,
            "view_count": 879,
            "uploader": "Sonic Gang English",
            "category": "cartoons/rudra",
            "thumbnail": "https://i.ytimg.com/vi/WPfgc4DsQnA/hq720.jpg"
        },
        {
            "id": "kFARQDyOie8",
            "title": "शक्ल पर बारह बजे है 🕛 और बनेंगे पैलेस के किंग! 👑 | Rudra | रुद्र | Full Episode 326",
            "url": "https://www.youtube.com/watch?v=kFARQDyOie8",
            "duration": 2751.0,
            "view_count": 3942881,
            "uploader": "JioHotstar Kids",
            "category": "cartoons/rudra",
            "thumbnail": "https://i.ytimg.com/vi/kFARQDyOie8/hq720.jpg"
        },
        {
            "id": "FovSopHm3r8",
            "title": "Mega Power Clash! Rudra Boom Chik Chik Boom 🔥 LIVE | Rudra | Live | @disneyindia",
            "url": "https://www.youtube.com/watch?v=FovSopHm3r8",
            "duration": 12677.0,
            "view_count": 11559,
            "uploader": "Disney India",
            "category": "cartoons/rudra",
            "thumbnail": "https://i.ytimg.com/vi/FovSopHm3r8/hq720.jpg"
        },
        {
            "id": "ee1LhabrTvc",
            "title": "Magician Bamboo ने किया Advance Magic ✨ School पर hamla! | Rudra",
            "url": "https://www.youtube.com/watch?v=ee1LhabrTvc",
            "duration": 2528.0,
            "view_count": 584595,
            "uploader": "Rudra",
            "category": "cartoons/rudra",
            "thumbnail": "https://i.ytimg.com/vi/ee1LhabrTvc/hq720.jpg"
        },
        {
            "id": "x1y7kxU8oT8",
            "title": "Aage बढ़ो नहीं तो बन jaoge patthar ! 🗿। Rudra | Rudra",
            "url": "https://www.youtube.com/watch?v=x1y7kxU8oT8",
            "duration": 1325.0,
            "view_count": 461719,
            "uploader": "Magic of Rudra",
            "category": "cartoons/rudra",
            "thumbnail": "https://i.ytimg.com/vi/x1y7kxU8oT8/hq720.jpg"
        },
        {
            "id": "vrnXPJqpI-0",
            "title": "Shakaal बना Magic School का Principal आखिर क्या है इसके पीछे का Raaz! | Rudra",
            "url": "https://www.youtube.com/watch?v=vrnXPJqpI-0",
            "duration": 1256.0,
            "view_count": 5064,
            "uploader": "Magic of Rudra",
            "category": "cartoons/rudra",
            "thumbnail": "https://i.ytimg.com/vi/vrnXPJqpI-0/hq720.jpg"
        },
        {
            "id": "S52Y66tVhG4",
            "title": "Rudra और दोस्तों की Diwali तैयारी | Rudra | रुद्र",
            "url": "https://www.youtube.com/watch?v=S52Y66tVhG4",
            "duration": 3672.0,
            "view_count": 804120,
            "uploader": "Sonic Gang",
            "category": "cartoons/rudra",
            "thumbnail": "https://i.ytimg.com/vi/S52Y66tVhG4/hq720.jpg"
        },
        {
            "id": "cKJdmsmjJGk",
            "title": "Rudra और Friends Busy, Academy में Diwali की तैयारी | Rudra | रुद्र",
            "url": "https://www.youtube.com/watch?v=cKJdmsmjJGk",
            "duration": 3672.0,
            "view_count": 27056,
            "uploader": "Sonic Gang",
            "category": "cartoons/rudra",
            "thumbnail": "https://i.ytimg.com/vi/cKJdmsmjJGk/hq720.jpg"
        },
        {
            "id": "tWY8XCPD3D8",
            "title": "Block City में क़ैद: Rudra और दोस्तों की जंग | Rudra | रुद्र",
            "url": "https://www.youtube.com/watch?v=tWY8XCPD3D8",
            "duration": 1287.0,
            "view_count": 5858,
            "uploader": "Sonic Gang",
            "category": "cartoons/rudra",
            "thumbnail": "https://i.ytimg.com/vi/tWY8XCPD3D8/hq720.jpg"
        },
        {
            "id": "4pOqe4lJZzc",
            "title": "Rudra के twisty adventures की शुरूआत! | Rudra",
            "url": "https://www.youtube.com/watch?v=4pOqe4lJZzc",
            "duration": 1815.0,
            "view_count": 71039,
            "uploader": "Rudra",
            "category": "cartoons/rudra",
            "thumbnail": "https://i.ytimg.com/vi/4pOqe4lJZzc/hq720.jpg"
        },
        {
            "id": "W-ib39TtkiQ",
            "title": "Who is behind the barrier? Rudra's path to Magic School blocked! | Rudra",
            "url": "https://www.youtube.com/watch?v=W-ib39TtkiQ",
            "duration": 2805.0,
            "view_count": 1348344,
            "uploader": "Rudra",
            "category": "cartoons/rudra",
            "thumbnail": "https://i.ytimg.com/vi/W-ib39TtkiQ/hq720.jpg"
        },
        {
            "id": "SXEecdR2D0s",
            "title": "Rudra | रुद्र | Season 3 | Full Episode | The Sea Lord",
            "url": "https://www.youtube.com/watch?v=SXEecdR2D0s",
            "duration": 1239.0,
            "view_count": 1093429,
            "uploader": "Sonic Gang",
            "category": "cartoons/rudra",
            "thumbnail": "https://i.ytimg.com/vi/SXEecdR2D0s/hq720.jpg"
        },
        {
            "id": "yw1UUT6lPAE",
            "title": "Suncity में हुई किसी की Toofani Entry 🌪! | Rudra",
            "url": "https://www.youtube.com/watch?v=yw1UUT6lPAE",
            "duration": 1346.0,
            "view_count": 2331918,
            "uploader": "Rudra",
            "category": "cartoons/rudra",
            "thumbnail": "https://i.ytimg.com/vi/yw1UUT6lPAE/hq720.jpg"
        },
        {
            "id": "HyOwXgTdxsk",
            "title": "“Badla लेने आया Jadugar: सब Phas गए Jooton के Andar! 🧙‍♂🥿! | Rudra",
            "url": "https://www.youtube.com/watch?v=HyOwXgTdxsk",
            "duration": 2543.0,
            "view_count": 462060,
            "uploader": "Rudra",
            "category": "cartoons/rudra",
            "thumbnail": "https://i.ytimg.com/vi/HyOwXgTdxsk/hq720.jpg"
        },
        {
            "id": "2Ads8Da8gOM",
            "title": "Shinchan in Hindi  | Fan of Cartoon | Episode 4",
            "url": "https://www.youtube.com/watch?v=2Ads8Da8gOM",
            "duration": 811.0,
            "view_count": 558592,
            "uploader": "FAN OF CARTOONS",
            "category": "cartoons/shinchan",
            "thumbnail": "https://i.ytimg.com/vi/2Ads8Da8gOM/hqdefault.jpg"
        },
        {
            "id": "x2juH8lbtgM",
            "title": "Shinchan in Hindi New Episode Without Zoom Effect | Shinchan Movie in Hindi | Shinchan Cartoon",
            "url": "https://www.youtube.com/watch?v=x2juH8lbtgM",
            "duration": 824.0,
            "view_count": 27335535,
            "uploader": "Surin K Fact and 2 more",
            "category": "cartoons/shinchan",
            "thumbnail": "https://i.ytimg.com/vi/x2juH8lbtgM/hq720.jpg"
        },
        {
            "id": "Gi8GCOHnT2M",
            "title": "Shinchan New Episode In Hindi | Fully End Watch | Brand New Shinchan Episode |#shinchan #fullepisode",
            "url": "https://www.youtube.com/watch?v=Gi8GCOHnT2M",
            "duration": 1683.0,
            "view_count": 1073821,
            "uploader": "暗い フェザー",
            "category": "cartoons/shinchan",
            "thumbnail": "https://i.ytimg.com/vi/Gi8GCOHnT2M/hq720.jpg"
        },
        {
            "id": "MFaJB884csk",
            "title": "(Morning walk) shin chan episode in hindi",
            "url": "https://www.youtube.com/watch?v=MFaJB884csk",
            "duration": 815.0,
            "view_count": 306059,
            "uploader": "My Shinchan TV",
            "category": "cartoons/shinchan",
            "thumbnail": "https://i.ytimg.com/vi/MFaJB884csk/hqdefault.jpg"
        },
        {
            "id": "yuoyJgAK1ss",
            "title": "Shinchan Hindi dubbed episode 120 ( without zoom in zoom out effect )",
            "url": "https://www.youtube.com/watch?v=yuoyJgAK1ss",
            "duration": 4442.0,
            "view_count": 3113839,
            "uploader": "A.to.Z .SHINCHAN 11",
            "category": "cartoons/shinchan",
            "thumbnail": "https://i.ytimg.com/vi/yuoyJgAK1ss/hqdefault.jpg"
        },
        {
            "id": "52VueMKRt44",
            "title": "shinchan in hindi",
            "url": "https://www.youtube.com/watch?v=52VueMKRt44",
            "duration": 4741.0,
            "view_count": 262704,
            "uploader": "Tech with Sumit and techop gamerz",
            "category": "cartoons/shinchan",
            "thumbnail": "https://i.ytimg.com/vi/52VueMKRt44/hq720.jpg"
        },
        {
            "id": "Y1x4rsY2SmU",
            "title": "Shinchan in Hindi | Shinchan latest episode in hindi | Shinchan cartoon ",
            "url": "https://www.youtube.com/watch?v=Y1x4rsY2SmU",
            "duration": 799.0,
            "view_count": 5972203,
            "uploader": "Surin K Fact and 2 more",
            "category": "cartoons/shinchan",
            "thumbnail": "https://i.ytimg.com/vi/Y1x4rsY2SmU/hq720.jpg"
        }
    ]
}