{
    "page": 10,
    "total_pages": 103,
    "total_items": 5125,
    "items": [
        {
            "id": "B-nP2zzX5s8",
            "title": "20 Days Later | SCIFI, HORROR | Full Movie in English",
            "url": "https://www.youtube.com/watch?v=B-nP2zzX5s8",
            "duration": 6290.0,
            "view_count": 13399,
            "uploader": "Boxoffice | SCI-FI | Full Movies",
            "category": "english",
            "thumbnail": "https://i.ytimg.com/vi/B-nP2zzX5s8/hq720.jpg"
        },
        {
            "id": "0Bx1fz7ho24",
            "title": "Your Heart Will Be Broken Full Movie | Veronika Zhuravleva | Daniel Vegas | HD Reviews & Facts ",
            "url": "https://www.youtube.com/watch?v=0Bx1fz7ho24",
            "duration": 7520.0,
            "view_count": 40420,
            "uploader": "The Cinema Rise",
            "category": "english",
            "thumbnail": "https://i.ytimg.com/vi/0Bx1fz7ho24/hq720.jpg"
        },
        {
            "id": "yP5ZS-s1Cmw",
            "title": "A Sunday Kind of Love | ROMANCE | Full Movie in English",
            "url": "https://www.youtube.com/watch?v=yP5ZS-s1Cmw",
            "duration": 5582.0,
            "view_count": 2281,
            "uploader": "Boxoffice | ROMANCE | Full Movies",
            "category": "english",
            "thumbnail": "https://i.ytimg.com/vi/yP5ZS-s1Cmw/hq720.jpg"
        },
        {
            "id": "CBc0TWZrNiw",
            "title": "THE JOGGER 🎬 Full Horror Movie 🎬 English HD",
            "url": "https://www.youtube.com/watch?v=CBc0TWZrNiw",
            "duration": 4042.0,
            "view_count": 11978,
            "uploader": "Watch Movies Now!",
            "category": "english",
            "thumbnail": "https://i.ytimg.com/vi/CBc0TWZrNiw/hq720.jpg"
        },
        {
            "id": "x2_7X0RSfYk",
            "title": "Fallen Empire (2026) Full English Movie | Rise of the Last Warrior | Epic Action Adventure Fantasy",
            "url": "https://www.youtube.com/watch?v=x2_7X0RSfYk",
            "duration": 8273.0,
            "view_count": 2028480,
            "uploader": "Ind Express ",
            "category": "english",
            "thumbnail": "https://i.ytimg.com/vi/x2_7X0RSfYk/hq720.jpg"
        },
        {
            "id": "Bl8rnbz6VE8",
            "title": "Final Prey | Tobin Bell (SAW) | HORROR | Full Movie in English",
            "url": "https://www.youtube.com/watch?v=Bl8rnbz6VE8",
            "duration": 5095.0,
            "view_count": 643,
            "uploader": "Boxoffice | HORROR | Full Movies",
            "category": "english",
            "thumbnail": "https://i.ytimg.com/vi/Bl8rnbz6VE8/hq720.jpg"
        },
        {
            "id": "lt1kl-8kZiU",
            "title": "THE HARD WAY : Angelina Jolie | New Action Movie 2026 | Full Movie 4K #actionmovies",
            "url": "https://www.youtube.com/watch?v=lt1kl-8kZiU",
            "duration": 6023.0,
            "view_count": 196847,
            "uploader": "Joy Drama",
            "category": "english",
            "thumbnail": "https://i.ytimg.com/vi/lt1kl-8kZiU/hq720.jpg"
        },
        {
            "id": "OkGBWbBoOSc",
            "title": "BASED ON TRUE STORY! She Smiled Through Tears While Living With Abuser! | Full Movie in English",
            "url": "https://www.youtube.com/watch?v=OkGBWbBoOSc",
            "duration": 5154.0,
            "view_count": 1650072,
            "uploader": "Epic Movie Chronicles",
            "category": "english",
            "thumbnail": "https://i.ytimg.com/vi/OkGBWbBoOSc/hq720.jpg"
        },
        {
            "id": "L6hsPKySYTo",
            "title": "SIREN'S TOMB The Cursed Temple Beneath the Sea | 2026 Full Movie | Dark Fantasy | Horror Thriller 4K",
            "url": "https://www.youtube.com/watch?v=L6hsPKySYTo",
            "duration": 3640.0,
            "view_count": 28530,
            "uploader": "Future Frame Movies",
            "category": "english",
            "thumbnail": "https://i.ytimg.com/vi/L6hsPKySYTo/hq720_custom_1.jpg"
        },
        {
            "id": "PVcMYRv38dI",
            "title": "CONCEALED | THRILLER | Full Movie in English",
            "url": "https://www.youtube.com/watch?v=PVcMYRv38dI",
            "duration": 5131.0,
            "view_count": 12396,
            "uploader": "Boxoffice | NEW Full Movies in English",
            "category": "english",
            "thumbnail": "https://i.ytimg.com/vi/PVcMYRv38dI/hq720.jpg"
        },
        {
            "id": "fky4KbKHCtY",
            "title": "🔥New 2026 Action Movie Full Movie English Hollywood Action Movies 2026",
            "url": "https://www.youtube.com/watch?v=fky4KbKHCtY",
            "duration": 5575.0,
            "view_count": 181339,
            "uploader": "Apex Action",
            "category": "english",
            "thumbnail": "https://i.ytimg.com/vi/fky4KbKHCtY/hq720.jpg"
        },
        {
            "id": "qwQN-xROdWo",
            "title": "Man of Vengeance | Eric Roberts (The Dark Knight) | THRILLER | Full Movie in English",
            "url": "https://www.youtube.com/watch?v=qwQN-xROdWo",
            "duration": 5418.0,
            "view_count": 6746,
            "uploader": "Boxoffice | TV Movies in English",
            "category": "english",
            "thumbnail": "https://i.ytimg.com/vi/qwQN-xROdWo/hq720.jpg"
        },
        {
            "id": "AnZQuZC6hps",
            "title": "Tears of the Sun (2026) | Bruce Willis × Monica Bellucci | Full Action Movie",
            "url": "https://www.youtube.com/watch?v=AnZQuZC6hps",
            "duration": 7111.0,
            "view_count": 1881556,
            "uploader": "Voltage Syndicate",
            "category": "english",
            "thumbnail": "https://i.ytimg.com/vi/AnZQuZC6hps/hq720.jpg"
        },
        {
            "id": "GDLmQ6UAYwA",
            "title": "PLANET OF THE BEASTS - Hollywood Action Adventure Movie | English Movie | Steve, Laura | Free Movies",
            "url": "https://www.youtube.com/watch?v=GDLmQ6UAYwA",
            "duration": 4906.0,
            "view_count": 491514,
            "uploader": "Majestic Movies",
            "category": "english",
            "thumbnail": "https://i.ytimg.com/vi/GDLmQ6UAYwA/hq720.jpg"
        },
        {
            "id": "iuUt3Ja9Dfc",
            "title": "THE LEGEND :: (2026) Donnie Yen | Full Action Movie - Thriller - Adventure | 4K HDR #actionmovies",
            "url": "https://www.youtube.com/watch?v=iuUt3Ja9Dfc",
            "duration": 6077.0,
            "view_count": 103046,
            "uploader": "ZED Drama",
            "category": "english",
            "thumbnail": "https://i.ytimg.com/vi/iuUt3Ja9Dfc/hq720.jpg"
        },
        {
            "id": "kLW5vHggXDs",
            "title": "JAGUAR : Angelina Jolie | New Action Movie 2026 | Full Movie 4K #actionmovies",
            "url": "https://www.youtube.com/watch?v=kLW5vHggXDs",
            "duration": 6023.0,
            "view_count": 415681,
            "uploader": "Joy Drama",
            "category": "english",
            "thumbnail": "https://i.ytimg.com/vi/kLW5vHggXDs/hq720.jpg"
        },
        {
            "id": "fYY5Y573W6k",
            "title": "🔥New 2026 Action Movie Full Movie English Hollywood Action Movies 2026",
            "url": "https://www.youtube.com/watch?v=fYY5Y573W6k",
            "duration": 6486.0,
            "view_count": 3279,
            "uploader": "Apex Action",
            "category": "english",
            "thumbnail": "https://i.ytimg.com/vi/fYY5Y573W6k/hq720.jpg"
        },
        {
            "id": "ZZCWbl4m6CU",
            "title": "A Match In Manhattan (2024) Full Movie | Romantic Comedy",
            "url": "https://www.youtube.com/watch?v=ZZCWbl4m6CU",
            "duration": 5365.0,
            "view_count": 416334,
            "uploader": "Movie Vault",
            "category": "english",
            "thumbnail": "https://i.ytimg.com/vi/ZZCWbl4m6CU/hq720.jpg"
        },
        {
            "id": "nT5HdJap26s",
            "title": "SHADOW FIGHT (2026) Jackie Chan | New Action Movie | 4K HDR #actionmovies",
            "url": "https://www.youtube.com/watch?v=nT5HdJap26s",
            "duration": 6700.0,
            "view_count": 14681,
            "uploader": "ZED Drama",
            "category": "english",
            "thumbnail": "https://i.ytimg.com/vi/nT5HdJap26s/hq720.jpg"
        },
        {
            "id": "1glT-58dMaY",
            "title": "BONES - New Action Movie 2026 | Jason Statham | Full Movie | 4K Ultra #actionmovies",
            "url": "https://www.youtube.com/watch?v=1glT-58dMaY",
            "duration": 4817.0,
            "view_count": 320224,
            "uploader": "Romántica Canción",
            "category": "english",
            "thumbnail": "https://i.ytimg.com/vi/1glT-58dMaY/hq720.jpg"
        },
        {
            "id": "dGH3Y2SLUSU",
            "title": "September 30, 1955 | English Full Movie | Drama",
            "url": "https://www.youtube.com/watch?v=dGH3Y2SLUSU",
            "duration": 5884.0,
            "view_count": 828,
            "uploader": "GEM: Film Library",
            "category": "english",
            "thumbnail": "https://i.ytimg.com/vi/dGH3Y2SLUSU/hq720.jpg"
        },
        {
            "id": "x4d6iyYrWZA",
            "title": "We highly recommend everyone watch this film! | Animation | Full Movie to Watch 🎬",
            "url": "https://www.youtube.com/watch?v=x4d6iyYrWZA",
            "duration": 6539.0,
            "view_count": 594047,
            "uploader": "Finetime media",
            "category": "english",
            "thumbnail": "https://i.ytimg.com/vi/x4d6iyYrWZA/hq720.jpg"
        },
        {
            "id": "0Sm7Xv6D4KU",
            "title": "Hollywood 2026 Latest Full Action Movie | Hollywood Blockbuster Action Thriller Trending Movie 2026",
            "url": "https://www.youtube.com/watch?v=0Sm7Xv6D4KU",
            "duration": 8392.0,
            "view_count": 411163,
            "uploader": " Roy Cinema and 3 more",
            "category": "english",
            "thumbnail": "https://i.ytimg.com/vi/0Sm7Xv6D4KU/hqdefault.jpg?sqp=-oaymwEcCOADEI4CSFXyq4qpAw4IARUAAIhCGAFwAcABBg==&rs=AOn4CLBeSbh059ob6lp5indfTFhtG0FsUg",
            "added_date": "2026-04-16T07:31:02.233561Z",
            "source": "youtube"
        },
        {
            "id": "RUhfTpUQ8eo",
            "title": "The Sharks Return to Finish | Best horror movie | Free full movies on youtube in English 4K",
            "url": "https://www.youtube.com/watch?v=RUhfTpUQ8eo",
            "duration": 4552.0,
            "view_count": 18557039,
            "uploader": "Deep Direct Dive",
            "category": "english",
            "thumbnail": "https://i.ytimg.com/vi/RUhfTpUQ8eo/hq720.jpg"
        },
        {
            "id": "BPQOf-aPa0A",
            "title": "The Choice That Changed His Life Forever - Born Again - Free Full Movies in English",
            "url": "https://www.youtube.com/watch?v=BPQOf-aPa0A",
            "duration": 6088.0,
            "view_count": 1927087,
            "uploader": "Lightright group",
            "category": "english",
            "thumbnail": "https://i.ytimg.com/vi/BPQOf-aPa0A/hq720.jpg"
        },
        {
            "id": "N1AoOMVEt00",
            "title": "TRANSPORTER 7 || New Released Jason Statham x Angelina Jolie Action Movie 2026 | English Movies HD",
            "url": "https://www.youtube.com/watch?v=N1AoOMVEt00",
            "duration": 5258.0,
            "view_count": 92216,
            "uploader": "CineVerse",
            "category": "english",
            "thumbnail": "https://i.ytimg.com/vi/N1AoOMVEt00/hq720.jpg"
        },
        {
            "id": "vEMId4GUEVQ",
            "title": "Beauty & the Billionaire: Bali | Full Movie | Charlotte Hemmings | Samuel Whitten",
            "url": "https://www.youtube.com/watch?v=vEMId4GUEVQ",
            "duration": 5386.0,
            "view_count": 13088099,
            "uploader": "SparkTV",
            "category": "english",
            "thumbnail": "https://i.ytimg.com/vi/vEMId4GUEVQ/hq720.jpg?sqp=-oaymwEcCNAFEJQDSFXyq4qpAw4IARUAAIhCGAFwAcABBg==&rs=AOn4CLCDyy1RiZIoazDZ3i_Mr_zD9qLeOQ",
            "added_date": "2026-04-16T07:31:02.634283Z",
            "source": "youtube"
        },
        {
            "id": "35VTbozkY-o",
            "title": "The Substitute | THRILLER | Full Movie",
            "url": "https://www.youtube.com/watch?v=35VTbozkY-o",
            "duration": 6646.0,
            "view_count": 4010649,
            "uploader": "Boxoffice | NEW Full Movies in English",
            "category": "english",
            "thumbnail": "https://i.ytimg.com/vi/35VTbozkY-o/hq720.jpg"
        },
        {
            "id": "xHgL6eEF_rU",
            "title": "Delusion Island | HORROR | Full Movie in English",
            "url": "https://www.youtube.com/watch?v=xHgL6eEF_rU",
            "duration": 4969.0,
            "view_count": 731,
            "uploader": "Boxoffice | HORROR | Full Movies",
            "category": "english",
            "thumbnail": "https://i.ytimg.com/vi/xHgL6eEF_rU/hq720.jpg"
        },
        {
            "id": "JIWARBvn8qU",
            "title": "Jason Statham Is THE OPERATOR - Fast Action Free English Movie | Hollywood Blockbuster English Movie",
            "url": "https://www.youtube.com/watch?v=JIWARBvn8qU",
            "duration": 4948.0,
            "view_count": 10530318,
            "uploader": "Hollywood Action",
            "category": "english",
            "thumbnail": "https://i.ytimg.com/vi/JIWARBvn8qU/hq720.jpg"
        },
        {
            "id": "_CoDAFSNeTc",
            "title": "Bangkok Dangerous | Nicolas Cage (Ghost Rider) | ACTION, THRILLER | Full Movie in English",
            "url": "https://www.youtube.com/watch?v=_CoDAFSNeTc",
            "duration": 5935.0,
            "view_count": 5127183,
            "uploader": "Boxoffice | NEW Full Movies in English",
            "category": "english",
            "thumbnail": "https://i.ytimg.com/vi/_CoDAFSNeTc/hq720.jpg"
        },
        {
            "id": "CkCDehO2xtg",
            "title": "DIABLO Full Movie 2025: Dragon | Action Movies 2025 in English (Game Movie)",
            "url": "https://www.youtube.com/watch?v=CkCDehO2xtg",
            "duration": 5776.0,
            "view_count": 5677450,
            "uploader": "Ghetto The NPC",
            "category": "english",
            "thumbnail": "https://i.ytimg.com/vi/CkCDehO2xtg/hq720.jpg"
        },
        {
            "id": "Bi8cS_0fkU8",
            "title": "This Movie Will Take Your Breath Away! An Incredible Drama Western | Full Movie",
            "url": "https://www.youtube.com/watch?v=Bi8cS_0fkU8",
            "duration": 5462.0,
            "view_count": 353329,
            "uploader": "PlayFlicks",
            "category": "english",
            "thumbnail": "https://i.ytimg.com/vi/Bi8cS_0fkU8/hqdefault.jpg"
        },
        {
            "id": "fV2UpPbS0og",
            "title": "CREEPER IN THE WOODS 🎬 Full Horror Movie 🎬 English HD",
            "url": "https://www.youtube.com/watch?v=fV2UpPbS0og",
            "duration": 4228.0,
            "view_count": 2012,
            "uploader": "Watch Movies Now!",
            "category": "english",
            "thumbnail": "https://i.ytimg.com/vi/fV2UpPbS0og/hq720.jpg"
        },
        {
            "id": "EDApCIF19wE",
            "title": "👉 A HORROR Movie That Stunned Everyone | Viewers Were Shaken | Full English Movies",
            "url": "https://www.youtube.com/watch?v=EDApCIF19wE",
            "duration": 5685.0,
            "view_count": 12089,
            "uploader": "Epic Movie Nexus",
            "category": "english",
            "thumbnail": "https://i.ytimg.com/vi/EDApCIF19wE/hq720.jpg"
        },
        {
            "id": "OoDcbOG07RQ",
            "title": "Forgotten City FULL MOVIE | Robert Patrick | Action Adventure Movies | The Midnight Screening",
            "url": "https://www.youtube.com/watch?v=OoDcbOG07RQ",
            "duration": 5720.0,
            "view_count": 99326,
            "uploader": "The Midnight Screening",
            "category": "english",
            "thumbnail": "https://i.ytimg.com/vi/OoDcbOG07RQ/hq720.jpg"
        },
        {
            "id": "Yh39A9Xij-I",
            "title": "🔥New 2026 Action Movie Full Movie English Hollywood Action Movies 2026",
            "url": "https://www.youtube.com/watch?v=Yh39A9Xij-I",
            "duration": 5575.0,
            "view_count": 2404,
            "uploader": "Action Empire",
            "category": "english",
            "thumbnail": "https://i.ytimg.com/vi/Yh39A9Xij-I/hq720.jpg"
        },
        {
            "id": "uGk5ZN7u6S0",
            "title": "Comedy romantic movies Best Romantic Movies Full Movie English Comedy For Free Full",
            "url": "https://www.youtube.com/watch?v=uGk5ZN7u6S0",
            "duration": 7235.0,
            "view_count": 14860,
            "uploader": "Henrietta J. Andrews",
            "category": "english",
            "thumbnail": "https://i.ytimg.com/vi/uGk5ZN7u6S0/hq720.jpg"
        },
        {
            "id": "iDW_W6993v4",
            "title": "A One Man Army |New Hollywood Action Movie 2025 || Full Movie English Action Movies 2025",
            "url": "https://www.youtube.com/watch?v=iDW_W6993v4",
            "duration": 4523.0,
            "view_count": 6514339,
            "uploader": "ZƏFƏR 44 MUSIC",
            "category": "english",
            "thumbnail": "https://i.ytimg.com/vi/iDW_W6993v4/hq720.jpg"
        },
        {
            "id": "DonnYp4SEbw",
            "title": "A missing girl returns... changed 🎬 Full Horror Movie 🎬 English 4K",
            "url": "https://www.youtube.com/watch?v=DonnYp4SEbw",
            "duration": 5004.0,
            "view_count": 2990416,
            "uploader": "FullFlicks Central",
            "category": "english",
            "thumbnail": "https://i.ytimg.com/vi/DonnYp4SEbw/hq720.jpg"
        },
        {
            "id": "P00CVJ4NCO4",
            "title": "🔥New 2026 Action Movie Full Movie English Hollywood Action Movies 2026",
            "url": "https://www.youtube.com/watch?v=P00CVJ4NCO4",
            "duration": 5361.0,
            "view_count": 1574281,
            "uploader": "Apex Action",
            "category": "english",
            "thumbnail": "https://i.ytimg.com/vi/P00CVJ4NCO4/hq720.jpg"
        },
        {
            "id": "sFXyzHohgFQ",
            "title": "Helpless | ACTION | Full Movie in English",
            "url": "https://www.youtube.com/watch?v=sFXyzHohgFQ",
            "duration": 5334.0,
            "view_count": 2162032,
            "uploader": "Full Movies in English HD",
            "category": "english",
            "thumbnail": "https://i.ytimg.com/vi/sFXyzHohgFQ/hq720.jpg"
        },
        {
            "id": "W35Wj64O1K4",
            "title": "A True Story That Shocked Millions of Viewers | A Secret Life | Watch Online",
            "url": "https://www.youtube.com/watch?v=W35Wj64O1K4",
            "duration": 4898.0,
            "view_count": 3993259,
            "uploader": "FILMDOMINION",
            "category": "english",
            "thumbnail": "https://i.ytimg.com/vi/W35Wj64O1K4/hq720.jpg"
        },
        {
            "id": "mKWfEmYYV9g",
            "title": "ADVENTURES OF ALADDIN | ACTION ADVENTURE MOVIE | FULL FREE THRILLER FILM IN ENGLISH | REVO MOVIES",
            "url": "https://www.youtube.com/watch?v=mKWfEmYYV9g",
            "duration": 5260.0,
            "view_count": 6438813,
            "uploader": "V Wild West",
            "category": "english",
            "thumbnail": "https://i.ytimg.com/vi/mKWfEmYYV9g/hq720.jpg"
        },
        {
            "id": "U7NXSP2W-jE",
            "title": "Clive Boomer's Success FULL MOVIE | Thriller Movies | Lili Simmons | The Midnight Screening",
            "url": "https://www.youtube.com/watch?v=U7NXSP2W-jE",
            "duration": 6380.0,
            "view_count": 1946,
            "uploader": "The Midnight Screening",
            "category": "english",
            "thumbnail": "https://i.ytimg.com/vi/U7NXSP2W-jE/hq720.jpg"
        },
        {
            "id": "9LlMCV_bssk",
            "title": "🔥New 2026 Action Movie Full Movie English Hollywood Action Movies 2026",
            "url": "https://www.youtube.com/watch?v=9LlMCV_bssk",
            "duration": 5361.0,
            "view_count": 3743,
            "uploader": "Apex Action",
            "category": "english",
            "thumbnail": "https://i.ytimg.com/vi/9LlMCV_bssk/hq720.jpg"
        },
        {
            "id": "inF5vSTBRo0",
            "title": "INVASION: WRATH OF GOD | Full Movie | English | Sci-Fi | Disaster |  Horror Thriller | 4K",
            "url": "https://www.youtube.com/watch?v=inF5vSTBRo0",
            "duration": 3688.0,
            "view_count": 99545,
            "uploader": "Epic AI Films",
            "category": "english",
            "thumbnail": "https://i.ytimg.com/vi/inF5vSTBRo0/hq720.jpg"
        },
        {
            "id": "8bDw4MX7RAA",
            "title": "THE LORD OF THE RINGS Full Movie 2026: Gollum | Superhero FXL Movies 2026 in English (Game Movie)",
            "url": "https://www.youtube.com/watch?v=8bDw4MX7RAA",
            "duration": 7264.0,
            "view_count": 47094,
            "uploader": "Superhero FXL Games",
            "category": "english",
            "thumbnail": "https://i.ytimg.com/vi/8bDw4MX7RAA/hq720.jpg"
        },
        {
            "id": "rO87JqnZshQ",
            "title": "⚡ After This Movie, You’ll Never Trust People Again! 🚨 A Tense Thriller to See | Full Movie HD",
            "url": "https://www.youtube.com/watch?v=rO87JqnZshQ",
            "duration": 5269.0,
            "view_count": 1711970,
            "uploader": "Movies Anytime",
            "category": "english",
            "thumbnail": "https://i.ytimg.com/vi/rO87JqnZshQ/hq720.jpg"
        },
        {
            "id": "kES9siE84Og",
            "title": "HECTOR :: (2026) Dwayne Johnson | NEW Action Movie - Fantasy - Adventure | 4K HDR #actionmovies",
            "url": "https://www.youtube.com/watch?v=kES9siE84Og",
            "duration": 6077.0,
            "view_count": 262097,
            "uploader": "ZED Drama",
            "category": "english",
            "thumbnail": "https://i.ytimg.com/vi/kES9siE84Og/hq720.jpg?sqp=-oaymwEcCNAFEJQDSFXyq4qpAw4IARUAAIhCGAFwAcABBg==&rs=AOn4CLAu8OatJ1nq4U23CmCU-vNt_mR9bA",
            "added_date": "2026-04-16T07:31:03.836484Z",
            "source": "youtube"
        }
    ]
}