{
    "page": 75,
    "total_pages": 103,
    "total_items": 5125,
    "items": [
        {
            "id": "FVojXCn8z6I",
            "title": "माशा एंड द बेयर 💥 2023 का नया एपिसोड💥 ड्रामा ने मचाया हंगामा! 🎭 (एपिसोड 76) 👱‍♀️🐻 Masha and the Bear",
            "url": "https://www.youtube.com/watch?v=FVojXCn8z6I",
            "duration": 895.0,
            "view_count": 30795973,
            "uploader": "माशा एंड द बेयर",
            "category": "cartoons/masha_and_the_bear",
            "thumbnail": "https://i.ytimg.com/vi/FVojXCn8z6I/hq720.jpg"
        },
        {
            "id": "KNKAdmEBwEA",
            "title": "Mighty Raju - Garmi Ka Raaj | Cartoons for Kids in Hindi | Summer Special Videos",
            "url": "https://www.youtube.com/watch?v=KNKAdmEBwEA",
            "duration": 1932.0,
            "view_count": 1368520,
            "uploader": "Mighty Raju - Official Channel",
            "category": "cartoons/mighty_raju",
            "thumbnail": "https://i.ytimg.com/vi/KNKAdmEBwEA/hq720.jpg"
        },
        {
            "id": "I9Q530kp_qU",
            "title": "Mighty Raju - 1st Day Of School | Cartoons for Kids in YouTube | Moral Hindi Stories",
            "url": "https://www.youtube.com/watch?v=I9Q530kp_qU",
            "duration": 601.0,
            "view_count": 8892279,
            "uploader": "Mighty Raju - Official Channel",
            "category": "cartoons/mighty_raju",
            "thumbnail": "https://i.ytimg.com/vi/I9Q530kp_qU/hq720.jpg"
        },
        {
            "id": "8SGDwlw7OTY",
            "title": "Mighty Raju - Sack Racing Fun |  Hindi cartoons for kids  | Adventure videos for kids",
            "url": "https://www.youtube.com/watch?v=8SGDwlw7OTY",
            "duration": 1822.0,
            "view_count": 1716717,
            "uploader": "Mighty Raju - Official Channel",
            "category": "cartoons/mighty_raju",
            "thumbnail": "https://i.ytimg.com/vi/8SGDwlw7OTY/hq720.jpg"
        },
        {
            "id": "F4jz-cEkvbU",
            "title": "Mighty Raju - Student Of The Year | School Funny Videos | Cartoons for Kids in Hindi",
            "url": "https://www.youtube.com/watch?v=F4jz-cEkvbU",
            "duration": 1923.0,
            "view_count": 1676256,
            "uploader": "Mighty Raju - Official Channel",
            "category": "cartoons/mighty_raju",
            "thumbnail": "https://i.ytimg.com/vi/F4jz-cEkvbU/hq720.jpg"
        },
        {
            "id": "mIwBSCGl_l0",
            "title": "Mighty Raju - Karati Strikes Back | Animated Videos For Kids | Hindi Cartoons For Kids",
            "url": "https://www.youtube.com/watch?v=mIwBSCGl_l0",
            "duration": 1946.0,
            "view_count": 124550,
            "uploader": "Mighty Raju - Official Channel",
            "category": "cartoons/mighty_raju",
            "thumbnail": "https://i.ytimg.com/vi/mIwBSCGl_l0/hq720.jpg"
        },
        {
            "id": "K8o1dLv0Mzg",
            "title": "Mighty Raju - The Mushroom Lord | Cartoons for Kids in Hindi | Animated Stories",
            "url": "https://www.youtube.com/watch?v=K8o1dLv0Mzg",
            "duration": 637.0,
            "view_count": 360459,
            "uploader": "Mighty Raju - Official Channel",
            "category": "cartoons/mighty_raju",
            "thumbnail": "https://i.ytimg.com/vi/K8o1dLv0Mzg/hq720.jpg"
        },
        {
            "id": "Er-VnbzNXTY",
            "title": "Mighty Raju Ka Mission – Mom Ko Bachao! | Hindi Cartoons For Kids | Adventures Videos For Kids",
            "url": "https://www.youtube.com/watch?v=Er-VnbzNXTY",
            "duration": 1868.0,
            "view_count": 120549,
            "uploader": "Mighty Raju - Official Channel",
            "category": "cartoons/mighty_raju",
            "thumbnail": "https://i.ytimg.com/vi/Er-VnbzNXTY/hq720.jpg"
        },
        {
            "id": "0fLiYpZe_6g",
            "title": "Mighty Raju - Mother's Day Special | Happy Mothers Day | Cartoon for kids",
            "url": "https://www.youtube.com/watch?v=0fLiYpZe_6g",
            "duration": 1791.0,
            "view_count": 4002107,
            "uploader": "Mighty Raju - Official Channel",
            "category": "cartoons/mighty_raju",
            "thumbnail": "https://i.ytimg.com/vi/0fLiYpZe_6g/hq720.jpg"
        },
        {
            "id": "eTyXiHVFEOs",
            "title": "Mighty Raju - Gompa Ka Rakshak! Best Hindi Cartoon for Kids",
            "url": "https://www.youtube.com/watch?v=eTyXiHVFEOs",
            "duration": 650.0,
            "view_count": 1096831,
            "uploader": "Green Gold Kids",
            "category": "cartoons/mighty_raju",
            "thumbnail": "https://i.ytimg.com/vi/eTyXiHVFEOs/hq720.jpg"
        },
        {
            "id": "bQTKWNFzYQ8",
            "title": "Mighty Raju - The Running Train🛑 | Hindi Cartoon for Kids | Train Rescue Adventure",
            "url": "https://www.youtube.com/watch?v=bQTKWNFzYQ8",
            "duration": 1921.0,
            "view_count": 1061954,
            "uploader": "Mighty Raju - Official Channel",
            "category": "cartoons/mighty_raju",
            "thumbnail": "https://i.ytimg.com/vi/bQTKWNFzYQ8/hq720.jpg"
        },
        {
            "id": "UGF01FOh1C0",
            "title": "Mighty Raju - Mighty Mystery | Cartoons for Kids in Hindi | Adventure Videos",
            "url": "https://www.youtube.com/watch?v=UGF01FOh1C0",
            "duration": 1877.0,
            "view_count": 299483,
            "uploader": "Mighty Raju - Official Channel",
            "category": "cartoons/mighty_raju",
            "thumbnail": "https://i.ytimg.com/vi/UGF01FOh1C0/hq720.jpg"
        },
        {
            "id": "akEddYP_Ris",
            "title": "Mighty Raju - Hospital Mystery ⚡| Dr Swamy Big Experiment | Funny Videos for Kids in Hindi",
            "url": "https://www.youtube.com/watch?v=akEddYP_Ris",
            "duration": 627.0,
            "view_count": 1075459,
            "uploader": "Mighty Raju - Official Channel",
            "category": "cartoons/mighty_raju",
            "thumbnail": "https://i.ytimg.com/vi/akEddYP_Ris/hq720.jpg"
        },
        {
            "id": "MuD8kKxcm7E",
            "title": "Mighty Raju - Aryanagar's Saviour in Danger | Cartoons for Kids in Hindi | Adventure Videos",
            "url": "https://www.youtube.com/watch?v=MuD8kKxcm7E",
            "duration": 1804.0,
            "view_count": 2350692,
            "uploader": "Mighty Raju - Official Channel",
            "category": "cartoons/mighty_raju",
            "thumbnail": "https://i.ytimg.com/vi/MuD8kKxcm7E/hq720.jpg"
        },
        {
            "id": "5eLoVq8T0Zo",
            "title": "Mighty Raju - Mom's Fitness Challenge | Cartoon for Kids in Hindi",
            "url": "https://www.youtube.com/watch?v=5eLoVq8T0Zo",
            "duration": 677.0,
            "view_count": 26175139,
            "uploader": "Green Gold TV - Official Channel",
            "category": "cartoons/mighty_raju",
            "thumbnail": "https://i.ytimg.com/vi/5eLoVq8T0Zo/hq720.jpg"
        },
        {
            "id": "yjW45VbFAXE",
            "title": "Mighty Raju & Kimmi - Bachpan ka Hungama | Hindi Cartoon for Kids | Fun Kids Cartoon Videos",
            "url": "https://www.youtube.com/watch?v=yjW45VbFAXE",
            "duration": 1837.0,
            "view_count": 221413,
            "uploader": "Mighty Raju - Official Channel",
            "category": "cartoons/mighty_raju",
            "thumbnail": "https://i.ytimg.com/vi/yjW45VbFAXE/hq720.jpg"
        },
        {
            "id": "EBh2JTGaqLs",
            "title": "Mighty Raju - Summer Trouble | Family Vacation Special Video | YouTube Cartoons for Kids",
            "url": "https://www.youtube.com/watch?v=EBh2JTGaqLs",
            "duration": 1841.0,
            "view_count": 5671404,
            "uploader": "Mighty Raju - Official Channel",
            "category": "cartoons/mighty_raju",
            "thumbnail": "https://i.ytimg.com/vi/EBh2JTGaqLs/hq720.jpg"
        },
        {
            "id": "2d_pfSq1N9c",
            "title": "Mighty Raju - Mobile Trouble | Cartoons for Kids | Fun videos for kids",
            "url": "https://www.youtube.com/watch?v=2d_pfSq1N9c",
            "duration": 1811.0,
            "view_count": 6165891,
            "uploader": "Mighty Raju - Official Channel",
            "category": "cartoons/mighty_raju",
            "thumbnail": "https://i.ytimg.com/vi/2d_pfSq1N9c/hq720.jpg"
        },
        {
            "id": "cA7d0yJUVHs",
            "title": "Mighty Raju Fails Exam | Dad My Progress Card | Cartoons for Kids in Hindi | Fun Stories",
            "url": "https://www.youtube.com/watch?v=cA7d0yJUVHs",
            "duration": 656.0,
            "view_count": 410298,
            "uploader": "Mighty Raju - Official Channel",
            "category": "cartoons/mighty_raju",
            "thumbnail": "https://i.ytimg.com/vi/cA7d0yJUVHs/hq720.jpg"
        },
        {
            "id": "n5malyhPoy4",
            "title": "Mighty Raju - Duplicate Police | Cartoon for kids | Fun video for kids",
            "url": "https://www.youtube.com/watch?v=n5malyhPoy4",
            "duration": 1895.0,
            "view_count": 5329019,
            "uploader": "Mighty Raju - Official Channel",
            "category": "cartoons/mighty_raju",
            "thumbnail": "https://i.ytimg.com/vi/n5malyhPoy4/hq720.jpg"
        },
        {
            "id": "FxVbyO72jOg",
            "title": "Mighty Raju and The Ultimate Magical Book of Spells | Cartoon for kids | Adventure videos for kids",
            "url": "https://www.youtube.com/watch?v=FxVbyO72jOg",
            "duration": 1813.0,
            "view_count": 1708199,
            "uploader": "Mighty Raju - Official Channel",
            "category": "cartoons/mighty_raju",
            "thumbnail": "https://i.ytimg.com/vi/FxVbyO72jOg/hq720.jpg"
        },
        {
            "id": "KvhsiKiNf7k",
            "title": "Mighty Raju - Julie Ko Kyon Aaya Gussa? | Funny Cartoons For Kids | Adventures Videos For Kids",
            "url": "https://www.youtube.com/watch?v=KvhsiKiNf7k",
            "duration": 656.0,
            "view_count": 688605,
            "uploader": "Mighty Raju - Official Channel",
            "category": "cartoons/mighty_raju",
            "thumbnail": "https://i.ytimg.com/vi/KvhsiKiNf7k/hq720.jpg"
        },
        {
            "id": "4UVjOeknfPs",
            "title": "Mighty Raju ka Naya Robot Creeky | Adventure videos for kids | hindi cartoons for kids",
            "url": "https://www.youtube.com/watch?v=4UVjOeknfPs",
            "duration": 1852.0,
            "view_count": 43775679,
            "uploader": "Mighty Raju - Official Channel",
            "category": "cartoons/mighty_raju",
            "thumbnail": "https://i.ytimg.com/vi/4UVjOeknfPs/hq720.jpg"
        },
        {
            "id": "K0Rdr-8JrVQ",
            "title": "Mighty Raju - Kaun Hai Asli Chorr? | Mighty Raju Solves the Big Mystery | Funny Videos in Hindi",
            "url": "https://www.youtube.com/watch?v=K0Rdr-8JrVQ",
            "duration": 629.0,
            "view_count": 124265,
            "uploader": "Mighty Raju - Official Channel",
            "category": "cartoons/mighty_raju",
            "thumbnail": "https://i.ytimg.com/vi/K0Rdr-8JrVQ/hq720.jpg"
        },
        {
            "id": "cp4ovD__nzg",
            "title": "Mighty Raju - Haunted House Mystery 🏚️👀 | Ghost Attack in Aryanagar 👻🔥 | Cartoons for Kids in Hindi",
            "url": "https://www.youtube.com/watch?v=cp4ovD__nzg",
            "duration": 661.0,
            "view_count": 99585,
            "uploader": "Mighty Raju - Official Channel",
            "category": "cartoons/mighty_raju",
            "thumbnail": "https://i.ytimg.com/vi/cp4ovD__nzg/hq720.jpg"
        },
        {
            "id": "VEXiDGqQDts",
            "title": "Mighty Raju - Jadui Cycle Ki Sawari! 🚴‍♂️ | Animated Fun Videos | Cartoons for Kids in Hindi",
            "url": "https://www.youtube.com/watch?v=VEXiDGqQDts",
            "duration": 684.0,
            "view_count": 74622,
            "uploader": "Mighty Raju - Official Channel",
            "category": "cartoons/mighty_raju",
            "thumbnail": "https://i.ytimg.com/vi/VEXiDGqQDts/hq720.jpg"
        },
        {
            "id": "C-QI5p-8EWg",
            "title": "Mighty Raju - Charlie's Gadget Prank | Cartoons for Kids | Fun Kids Videos",
            "url": "https://www.youtube.com/watch?v=C-QI5p-8EWg",
            "duration": 1815.0,
            "view_count": 822711,
            "uploader": "Mighty Raju - Official Channel",
            "category": "cartoons/mighty_raju",
            "thumbnail": "https://i.ytimg.com/vi/C-QI5p-8EWg/hq720.jpg"
        },
        {
            "id": "vkTTYd98r9Y",
            "title": "Mighty Raju - Super Moon & Super Trouble | Adventures Videos For Kids | Cartoons For Kids",
            "url": "https://www.youtube.com/watch?v=vkTTYd98r9Y",
            "duration": 1927.0,
            "view_count": 210536,
            "uploader": "Mighty Raju - Official Channel",
            "category": "cartoons/mighty_raju",
            "thumbnail": "https://i.ytimg.com/vi/vkTTYd98r9Y/hq720.jpg"
        },
        {
            "id": "AiUJuYwircU",
            "title": "Mighty Raju - Best Chef Challenge | Cartoon Stories for Kids | Best Chef Cartoon in Hindi",
            "url": "https://www.youtube.com/watch?v=AiUJuYwircU",
            "duration": 1805.0,
            "view_count": 233129,
            "uploader": "Mighty Raju - Official Channel",
            "category": "cartoons/mighty_raju",
            "thumbnail": "https://i.ytimg.com/vi/AiUJuYwircU/hqdefault.jpg"
        },
        {
            "id": "Y-ATw7fS584",
            "title": "Mighty Raju - Happy Holi | Holi Special | Cartoon for kids",
            "url": "https://www.youtube.com/watch?v=Y-ATw7fS584",
            "duration": 1841.0,
            "view_count": 4937149,
            "uploader": "Mighty Raju - Official Channel",
            "category": "cartoons/mighty_raju",
            "thumbnail": "https://i.ytimg.com/vi/Y-ATw7fS584/hq720.jpg"
        },
        {
            "id": "4CSzbZrdiBQ",
            "title": "Mighty Raju - Rafting ka Maza | Winter Trip | Cartoons for Kids | Hindi Kahaniya",
            "url": "https://www.youtube.com/watch?v=4CSzbZrdiBQ",
            "duration": 1840.0,
            "view_count": 502717,
            "uploader": "Mighty Raju - Official Channel",
            "category": "cartoons/mighty_raju",
            "thumbnail": "https://i.ytimg.com/vi/4CSzbZrdiBQ/hq720.jpg"
        },
        {
            "id": "TjMwqJxR0MY",
            "title": "Mighty Raju - Dr Swamy Bekasoor Hai! 😱 | Funny Cartoon Hindi | Full 4K Cartoon",
            "url": "https://www.youtube.com/watch?v=TjMwqJxR0MY",
            "duration": 706.0,
            "view_count": 105485,
            "uploader": "Mighty Raju - Official Channel",
            "category": "cartoons/mighty_raju",
            "thumbnail": "https://i.ytimg.com/vi/TjMwqJxR0MY/hq720.jpg"
        },
        {
            "id": "rgqtskvBf8E",
            "title": "Mighty Raju : My Superhero Dad Father's Day Celebration | Super Dad's Day | Cartoon for kids",
            "url": "https://www.youtube.com/watch?v=rgqtskvBf8E",
            "duration": 1820.0,
            "view_count": 3775711,
            "uploader": "Mighty Raju - Official Channel",
            "category": "cartoons/mighty_raju",
            "thumbnail": "https://i.ytimg.com/vi/rgqtskvBf8E/hq720.jpg"
        },
        {
            "id": "5QzLEBaXCqI",
            "title": "Mighty Raju - Chocolate Pani Puri | Cartoons for Kids | YouTube Video | Hindi Kahaniya",
            "url": "https://www.youtube.com/watch?v=5QzLEBaXCqI",
            "duration": 637.0,
            "view_count": 4152764,
            "uploader": "Mighty Raju - Official Channel",
            "category": "cartoons/mighty_raju",
            "thumbnail": "https://i.ytimg.com/vi/5QzLEBaXCqI/hq720.jpg"
        },
        {
            "id": "_MqnLDvnt7A",
            "title": "Mighty Raju - Naino Lab Par Hamla | Cartoon For Kids | Adventures Cartoon For Kids",
            "url": "https://www.youtube.com/watch?v=_MqnLDvnt7A",
            "duration": 1811.0,
            "view_count": 2151591,
            "uploader": "Mighty Raju - Official Channel",
            "category": "cartoons/mighty_raju",
            "thumbnail": "https://i.ytimg.com/vi/_MqnLDvnt7A/hq720.jpg"
        },
        {
            "id": "fDSaFKfCSyA",
            "title": "Mighty Raju - Kangaroo Se Dosti Ya Dangal? | Cartoons For Kids | Funny Videos For Kids",
            "url": "https://www.youtube.com/watch?v=fDSaFKfCSyA",
            "duration": 1844.0,
            "view_count": 51867,
            "uploader": "Mighty Raju - Official Channel",
            "category": "cartoons/mighty_raju",
            "thumbnail": "https://i.ytimg.com/vi/fDSaFKfCSyA/hq720.jpg"
        },
        {
            "id": "KStqGxrMyK8",
            "title": "Mighty Raju - A Tale of Mischief | Cartoons For Kids | Adventures Videos For Kids",
            "url": "https://www.youtube.com/watch?v=KStqGxrMyK8",
            "duration": 1870.0,
            "view_count": 586348,
            "uploader": "Mighty Raju - Official Channel",
            "category": "cartoons/mighty_raju",
            "thumbnail": "https://i.ytimg.com/vi/KStqGxrMyK8/hq720.jpg"
        },
        {
            "id": "DNA3MMfUcRs",
            "title": "Chutki VS Raju - Boxing Championship | कौन जीतेगा? | Cartoons for Kids",
            "url": "https://www.youtube.com/watch?v=DNA3MMfUcRs",
            "duration": 1965.0,
            "view_count": 3590129,
            "uploader": "Chutki - Official Channel",
            "category": "cartoons/mighty_raju",
            "thumbnail": "https://i.ytimg.com/vi/DNA3MMfUcRs/hq720.jpg"
        },
        {
            "id": "mJSti1r1FqA",
            "title": "Mighty Raju - Arya Nagar's First AI Teacher | Cartoon For Kids | Adventures Video for Kids",
            "url": "https://www.youtube.com/watch?v=mJSti1r1FqA",
            "duration": 620.0,
            "view_count": 1751609,
            "uploader": "Mighty Raju - Official Channel",
            "category": "cartoons/mighty_raju",
            "thumbnail": "https://i.ytimg.com/vi/mJSti1r1FqA/hq720.jpg"
        },
        {
            "id": "-EtKT-zvhaA",
            "title": "Mighty Raju - Robot Cat Makes Moby Jealous 😭 | Cartoons for Kids | Pet Friendship Cartoon",
            "url": "https://www.youtube.com/watch?v=-EtKT-zvhaA",
            "duration": 621.0,
            "view_count": 544771,
            "uploader": "Mighty Raju - Official Channel",
            "category": "cartoons/mighty_raju",
            "thumbnail": "https://i.ytimg.com/vi/-EtKT-zvhaA/hq720.jpg"
        },
        {
            "id": "cBo4rA7jEYs",
            "title": "Mighty Raju - Cruise Ship Adventures | Cartoons for Kids in Hindi | Funny Videos in YouTube",
            "url": "https://www.youtube.com/watch?v=cBo4rA7jEYs",
            "duration": 1845.0,
            "view_count": 164322,
            "uploader": "Mighty Raju - Official Channel",
            "category": "cartoons/mighty_raju",
            "thumbnail": "https://i.ytimg.com/vi/cBo4rA7jEYs/hq720.jpg"
        },
        {
            "id": "-Da4Y9_HDkI",
            "title": "Mighty Raju - Happy Onam A Feast of Smiles | Cartoon for kids | Festival Special",
            "url": "https://www.youtube.com/watch?v=-Da4Y9_HDkI",
            "duration": 1854.0,
            "view_count": 874665,
            "uploader": "Mighty Raju - Official Channel",
            "category": "cartoons/mighty_raju",
            "thumbnail": "https://i.ytimg.com/vi/-Da4Y9_HDkI/hq720.jpg"
        },
        {
            "id": "rhm6Spa6jiY",
            "title": "Mighty Raju - Raju's Epic Birthday Bash | Cartoon for kids | Birthday Special Video",
            "url": "https://www.youtube.com/watch?v=rhm6Spa6jiY",
            "duration": 1862.0,
            "view_count": 1236837,
            "uploader": "Mighty Raju - Official Channel",
            "category": "cartoons/mighty_raju",
            "thumbnail": "https://i.ytimg.com/vi/rhm6Spa6jiY/hq720.jpg"
        },
        {
            "id": "wUU1AxhysHQ",
            "title": "Mighty Raju - Robo Kite | Hindi Cartoons for Kids | Animated Cartoons for Kids",
            "url": "https://www.youtube.com/watch?v=wUU1AxhysHQ",
            "duration": 1845.0,
            "view_count": 7460218,
            "uploader": "Mighty Raju - Official Channel",
            "category": "cartoons/mighty_raju",
            "thumbnail": "https://i.ytimg.com/vi/wUU1AxhysHQ/hq720.jpg"
        },
        {
            "id": "d_S-gipF9Qg",
            "title": "Mighty Raju - Classroom Dreams | Cartoon for kids | Classroom Comedy",
            "url": "https://www.youtube.com/watch?v=d_S-gipF9Qg",
            "duration": 1851.0,
            "view_count": 8029145,
            "uploader": "Mighty Raju - Official Channel",
            "category": "cartoons/mighty_raju",
            "thumbnail": "https://i.ytimg.com/vi/d_S-gipF9Qg/hq720.jpg"
        },
        {
            "id": "TIidWxHZoik",
            "title": "Mighty Raju - Heat Wave in Aryanagar! 😱☀️| Cartoon for Kids in Hindi | Summer Special Episodes",
            "url": "https://www.youtube.com/watch?v=TIidWxHZoik",
            "duration": 707.0,
            "view_count": 4267,
            "uploader": "Mighty Raju - Official Channel",
            "category": "cartoons/mighty_raju",
            "thumbnail": "https://i.ytimg.com/vi/TIidWxHZoik/hq720.jpg"
        },
        {
            "id": "5r6Ua9zjTWM",
            "title": "Mighty Raju - Mama Aur Raju Ki Masti 🤣| Kids Entertainment Cartoon | Cartoon Comedy for Kids",
            "url": "https://www.youtube.com/watch?v=5r6Ua9zjTWM",
            "duration": 1893.0,
            "view_count": 34759,
            "uploader": "Mighty Raju - Official Channel",
            "category": "cartoons/mighty_raju",
            "thumbnail": "https://i.ytimg.com/vi/5r6Ua9zjTWM/hq720.jpg"
        },
        {
            "id": "jE78V2kTFJo",
            "title": "Mighty Raju - Khel Khilone Ka Din | Animated cartoons | Adventure Videos for Kids",
            "url": "https://www.youtube.com/watch?v=jE78V2kTFJo",
            "duration": 1832.0,
            "view_count": 8160167,
            "uploader": "Mighty Raju - Official Channel",
            "category": "cartoons/mighty_raju",
            "thumbnail": "https://i.ytimg.com/vi/jE78V2kTFJo/hq720.jpg"
        },
        {
            "id": "lTQH_CdlPgg",
            "title": "Mighty Raju - Mighty Secret | Cartoon for kids | Fun videos for kids",
            "url": "https://www.youtube.com/watch?v=lTQH_CdlPgg",
            "duration": 627.0,
            "view_count": 4226087,
            "uploader": "Mighty Raju - Official Channel",
            "category": "cartoons/mighty_raju",
            "thumbnail": "https://i.ytimg.com/vi/lTQH_CdlPgg/hq720.jpg"
        },
        {
            "id": "a0ZF9gc8atM",
            "title": "Mighty Raju - Neutrino Power | Cartoon For Kids | Adventures Cartoon For Kids",
            "url": "https://www.youtube.com/watch?v=a0ZF9gc8atM",
            "duration": 612.0,
            "view_count": 2239259,
            "uploader": "Mighty Raju - Official Channel",
            "category": "cartoons/mighty_raju",
            "thumbnail": "https://i.ytimg.com/vi/a0ZF9gc8atM/hq720.jpg"
        }
    ]
}