{
    "page": 7,
    "total_pages": 7,
    "total_items": 302,
    "items": [
        {
            "id": "-NzY35V_QVU",
            "title": "Oxygen FULL MOVIE | Adrien Brody & Maura Tierney | Thriller Movies | The Midnight Screening",
            "url": "https://www.youtube.com/watch?v=-NzY35V_QVU",
            "duration": 5124.0,
            "view_count": 518278,
            "uploader": "The Midnight Screening",
            "category": "action",
            "channel_tags": [
                "action",
                "thriller",
                "scifi"
            ],
            "channel_name": "The Midnight Screening",
            "thumbnail": "https://i.ytimg.com/vi/-NzY35V_QVU/hqdefault.jpg?sqp=-oaymwEcCNACELwBSFXyq4qpAw4IARUAAIhCGAFwAcABBg==&rs=AOn4CLCFysU5v7W0db5lrq91fh2x_BNumA",
            "source": "youtube",
            "added_date": "2026-04-16T16:27:30.410052Z"
        },
        {
            "id": "IQ8L-Uu4B9k",
            "title": "Remote Viewing FULL MOVIE | Thriller Movie | Sarah Agor & Kammy Burnett | The Midnight Screening",
            "url": "https://www.youtube.com/watch?v=IQ8L-Uu4B9k",
            "duration": 5427.0,
            "view_count": 6548,
            "uploader": "The Midnight Screening",
            "category": "action",
            "channel_tags": [
                "action",
                "thriller",
                "scifi"
            ],
            "channel_name": "The Midnight Screening",
            "thumbnail": "https://i.ytimg.com/vi/IQ8L-Uu4B9k/hqdefault.jpg?sqp=-oaymwEcCNACELwBSFXyq4qpAw4IARUAAIhCGAFwAcABBg==&rs=AOn4CLD6rHhqDf9tzbSfoXcQM9_dZnlasA",
            "source": "youtube",
            "added_date": "2026-04-16T16:27:30.612004Z"
        }
    ]
}