{
    "page": 31,
    "total_pages": 103,
    "total_items": 5125,
    "items": [
        {
            "id": "8jc055lVh7I",
            "title": "Daya ne Mara Jethalal ke Face pe Dryer! | FULL MOVIE | Taarak Mehta Ka Ooltah Chashmah",
            "url": "https://www.youtube.com/watch?v=8jc055lVh7I",
            "duration": 3305.0,
            "view_count": 2297335,
            "uploader": "Taarak Mehta Ka Ooltah Chashmah",
            "category": "taarak_mehta",
            "thumbnail": "https://i.ytimg.com/vi/8jc055lVh7I/hq720.jpg"
        },
        {
            "id": "pggjHgz4O54",
            "title": "Team Jethalal's Search | Taarak Mehta Ka Ooltah Chashmah | Full Ep 4653 | 9 Mar 2026 | New Episode",
            "url": "https://www.youtube.com/watch?v=pggjHgz4O54",
            "duration": 1238.0,
            "view_count": 1065510,
            "uploader": "Taarak Mehta Ka Ooltah Chashmah Episodes",
            "category": "taarak_mehta",
            "thumbnail": "https://i.ytimg.com/vi/pggjHgz4O54/hq720.jpg"
        },
        {
            "id": "qnyCp518WQM",
            "title": "Popatlal Loses The Ring | Taarak Mehta Ka Ooltah Chashmah | Full Ep 4649 | 4 Mar 2026 | New Episode",
            "url": "https://www.youtube.com/watch?v=qnyCp518WQM",
            "duration": 1232.0,
            "view_count": 795601,
            "uploader": "Taarak Mehta Ka Ooltah Chashmah Episodes",
            "category": "taarak_mehta",
            "thumbnail": "https://i.ytimg.com/vi/qnyCp518WQM/hq720.jpg"
        },
        {
            "id": "1pKOjh82OUs",
            "title": "Meeting में Late आनेसे Jetha पर लगी Fine | Taarak Mehta Ka Ooltah Chashmah | Society Ki Samasya",
            "url": "https://www.youtube.com/watch?v=1pKOjh82OUs",
            "duration": 2408.0,
            "view_count": 422846,
            "uploader": "Taarak Mehta Ka Ooltah Chashmah Episodes",
            "category": "taarak_mehta",
            "thumbnail": "https://i.ytimg.com/vi/1pKOjh82OUs/hq720.jpg"
        },
        {
            "id": "Yiegne0_udc",
            "title": "Bhide’s Towel Falls at the Worst Moment! 😱 | FULL MOVIE | The Most Embarrassing Day for Bhide!",
            "url": "https://www.youtube.com/watch?v=Yiegne0_udc",
            "duration": 3429.0,
            "view_count": 25483,
            "uploader": "Taarak Mehta Ka Ooltah Chashmah Episodes",
            "category": "taarak_mehta",
            "thumbnail": "https://i.ytimg.com/vi/Yiegne0_udc/hq720.jpg"
        },
        {
            "id": "LrVTmIf9040",
            "title": "Cricket Practice In Gokuldham | Taarak Mehta Ka Ooltah Chashmah | Jetha Bapuji Special",
            "url": "https://www.youtube.com/watch?v=LrVTmIf9040",
            "duration": 1152.0,
            "view_count": 2084,
            "uploader": "Taarak Mehta Ka Ooltah Chashmah Episodes",
            "category": "taarak_mehta",
            "thumbnail": "https://i.ytimg.com/vi/LrVTmIf9040/hq720.jpg"
        },
        {
            "id": "sw0fCehdgXk",
            "title": "Purush mandli ne kiya popatal ka beijjati! | FULL MOVIE | Taarak Mehta Ka Ooltah Chashmah",
            "url": "https://www.youtube.com/watch?v=sw0fCehdgXk",
            "duration": 2230.0,
            "view_count": 27015,
            "uploader": "Taarak Mehta Ka Ooltah Chashmah",
            "category": "taarak_mehta",
            "thumbnail": "https://i.ytimg.com/vi/sw0fCehdgXk/hq720.jpg"
        },
        {
            "id": "xhZf8CFPmVM",
            "title": "Bhide Turns the House into Scrap?! 😱 | FULL MOVIE | Bhide’s Bhangar Chaos | Hindi Movies",
            "url": "https://www.youtube.com/watch?v=xhZf8CFPmVM",
            "duration": 2987.0,
            "view_count": 43792,
            "uploader": "Taarak Mehta Ka Ooltah Chashmah Episodes",
            "category": "taarak_mehta",
            "thumbnail": "https://i.ytimg.com/vi/xhZf8CFPmVM/hq720.jpg"
        },
        {
            "id": "T8lRv-rxFEc",
            "title": "'Dhokla' खाते पकड़े गए Jetha | Taarak Mehta Ka Ooltah Chashmah | Unknown Guest",
            "url": "https://www.youtube.com/watch?v=T8lRv-rxFEc",
            "duration": 2518.0,
            "view_count": 200245,
            "uploader": "Taarak Mehta Ka Ooltah Chashmah Episodes",
            "category": "taarak_mehta",
            "thumbnail": "https://i.ytimg.com/vi/T8lRv-rxFEc/hq720.jpg"
        },
        {
            "id": "e183wrShDQg",
            "title": "Chocolate Pack करते समय हुई Jetha-Iyer के बीच बहस | Taarak Mehta Ka Ooltah Chashmah| Sonu's Business",
            "url": "https://www.youtube.com/watch?v=e183wrShDQg",
            "duration": 3490.0,
            "view_count": 274245,
            "uploader": "Taarak Mehta Ka Ooltah Chashmah Episodes",
            "category": "taarak_mehta",
            "thumbnail": "https://i.ytimg.com/vi/e183wrShDQg/hq720.jpg"
        },
        {
            "id": "OeBOYFlUep4",
            "title": "Jethalal ne Diya Business Related Idea! | FULL MOVIE | Taarak Mehta Ka Ooltah Chashmah",
            "url": "https://www.youtube.com/watch?v=OeBOYFlUep4",
            "duration": 3425.0,
            "view_count": 2360495,
            "uploader": "Taarak Mehta Ka Ooltah Chashmah",
            "category": "taarak_mehta",
            "thumbnail": "https://i.ytimg.com/vi/OeBOYFlUep4/hq720.jpg"
        },
        {
            "id": "uR40NCdjS30",
            "title": "Kaise Jala Bhide ka Kurta?| FULL MOVIE | Taarak Mehta Ka Ooltah Chashmah | तारक मेहता का उल्टा चश्मा",
            "url": "https://www.youtube.com/watch?v=uR40NCdjS30",
            "duration": 3211.0,
            "view_count": 7944171,
            "uploader": "Taarak Mehta Ka Ooltah Chashmah",
            "category": "taarak_mehta",
            "thumbnail": "https://i.ytimg.com/vi/uR40NCdjS30/hq720.jpg"
        },
        {
            "id": "lEvkweQOzDQ",
            "title": "A Surprise For Gokuldham Members | Taarak Mehta Ka Ooltah Chashmah | Jetha Bapuji Special",
            "url": "https://www.youtube.com/watch?v=lEvkweQOzDQ",
            "duration": 1232.0,
            "view_count": 623,
            "uploader": "Taarak Mehta Ka Ooltah Chashmah Episodes",
            "category": "taarak_mehta",
            "thumbnail": "https://i.ytimg.com/vi/lEvkweQOzDQ/hq720.jpg"
        },
        {
            "id": "0izj5SdYskk",
            "title": "The Search For Babita | Taarak Mehta Ka Ooltah Chashmah | Full Ep 4654 | 10 Mar 2026 | New Episode",
            "url": "https://www.youtube.com/watch?v=0izj5SdYskk",
            "duration": 1282.0,
            "view_count": 975901,
            "uploader": "Taarak Mehta Ka Ooltah Chashmah Episodes",
            "category": "taarak_mehta",
            "thumbnail": "https://i.ytimg.com/vi/0izj5SdYskk/hq720.jpg"
        },
        {
            "id": "OYcsHXWUTYI",
            "title": "Jethalal Ne Liya Garam Garam Jalebi Fafda Ke Maje | FULL MOVIE | Taarak Mehta Ka Ooltah Chashmah",
            "url": "https://www.youtube.com/watch?v=OYcsHXWUTYI",
            "duration": 2227.0,
            "view_count": 9095469,
            "uploader": "Taarak Mehta Ka Ooltah Chashmah",
            "category": "taarak_mehta",
            "thumbnail": "https://i.ytimg.com/vi/OYcsHXWUTYI/hq720.jpg"
        },
        {
            "id": "7FbaeimP-Qg",
            "title": "Taarak Mehta Ka Ooltah Chashmah - Episode 932 - Full Episode",
            "url": "https://www.youtube.com/watch?v=7FbaeimP-Qg",
            "duration": 1306.0,
            "view_count": 1815595,
            "uploader": "Taarak Mehta Ka Ooltah Chashmah Episodes",
            "category": "taarak_mehta",
            "thumbnail": "https://i.ytimg.com/vi/7FbaeimP-Qg/hq720.jpg"
        },
        {
            "id": "w41o-kUknik",
            "title": "Anjali vs Babita Badminton Showdown! 🏸 | FULL MOVIE | Gokuldham Ladies Sports Challenge!",
            "url": "https://www.youtube.com/watch?v=w41o-kUknik",
            "duration": 2668.0,
            "view_count": 3496,
            "uploader": "Taarak Mehta Ka Ooltah Chashmah Episodes",
            "category": "taarak_mehta",
            "thumbnail": "https://i.ytimg.com/vi/w41o-kUknik/hq720.jpg"
        },
        {
            "id": "-sUFROpjtoQ",
            "title": "Bapuji in Big Trouble in Goa! 😱 | FULL MOVIE | Jethalal & Tapu Rush to Help Bapuji | Hindi Movies",
            "url": "https://www.youtube.com/watch?v=-sUFROpjtoQ",
            "duration": 5627.0,
            "view_count": 9736,
            "uploader": "Taarak Mehta Ka Ooltah Chashmah Episodes",
            "category": "taarak_mehta",
            "thumbnail": "https://i.ytimg.com/vi/-sUFROpjtoQ/hq720.jpg"
        },
        {
            "id": "Ro33nKVHd8c",
            "title": "Bhide को क्यों हुआ Tapu के ऊपर शक? | Taarak Mehta Ka Ooltah Chashmah | Sakharam Ki Adla Badli",
            "url": "https://www.youtube.com/watch?v=Ro33nKVHd8c",
            "duration": 3993.0,
            "view_count": 67139,
            "uploader": "Taarak Mehta Ka Ooltah Chashmah Episodes",
            "category": "taarak_mehta",
            "thumbnail": "https://i.ytimg.com/vi/Ro33nKVHd8c/hq720.jpg"
        },
        {
            "id": "69npLYsT-Gs",
            "title": "Society ने किसे देखकर Shock हुए Daya और Jetha? | Taarak Mehta Ka Ooltah Chashmah | Sonu's Business",
            "url": "https://www.youtube.com/watch?v=69npLYsT-Gs",
            "duration": 4657.0,
            "view_count": 12320,
            "uploader": "Taarak Mehta Ka Ooltah Chashmah Episodes",
            "category": "taarak_mehta",
            "thumbnail": "https://i.ytimg.com/vi/69npLYsT-Gs/hq720.jpg"
        },
        {
            "id": "KE_jS2sQHqE",
            "title": "Society Mein Hungama!! Jethalal vs Bhide  ! | FULL MOVIE | Taarak Mehta Ka Ooltah Chashmah",
            "url": "https://www.youtube.com/watch?v=KE_jS2sQHqE",
            "duration": 2879.0,
            "view_count": 2841605,
            "uploader": "Taarak Mehta Ka Ooltah Chashmah",
            "category": "taarak_mehta",
            "thumbnail": "https://i.ytimg.com/vi/KE_jS2sQHqE/hq720.jpg"
        },
        {
            "id": "tn6LhUwkhhs",
            "title": "Taarak Mehta Ka Ooltah Chashmah - Episode 297 - Full Episode",
            "url": "https://www.youtube.com/watch?v=tn6LhUwkhhs",
            "duration": 1256.0,
            "view_count": 4508171,
            "uploader": "Taarak Mehta Ka Ooltah Chashmah Episodes",
            "category": "taarak_mehta",
            "thumbnail": "https://i.ytimg.com/vi/tn6LhUwkhhs/hq720.jpg"
        },
        {
            "id": "0iW-9C1Of3E",
            "title": "Jethalal Sikhne Gaya Swimming! |FULL MOVIE| Fan Favourite | Part 2 | Taarak Mehta Ka Ooltah Chashmah",
            "url": "https://www.youtube.com/watch?v=0iW-9C1Of3E",
            "duration": 5909.0,
            "view_count": 896998,
            "uploader": "Taarak Mehta Ka Ooltah Chashmah",
            "category": "taarak_mehta",
            "thumbnail": "https://i.ytimg.com/vi/0iW-9C1Of3E/hq720.jpg"
        },
        {
            "id": "aQJCKXIwHSE",
            "title": "Bhide ऐसे क्यों घूर रहा है Popatlal को? | Taarak Mehta Ka Ooltah Chashmah | Diwali Ki Safai",
            "url": "https://www.youtube.com/watch?v=aQJCKXIwHSE",
            "duration": 2415.0,
            "view_count": 508922,
            "uploader": "Taarak Mehta Ka Ooltah Chashmah Episodes",
            "category": "taarak_mehta",
            "thumbnail": "https://i.ytimg.com/vi/aQJCKXIwHSE/hqdefault.jpg"
        },
        {
            "id": "A0Owixm1BCs",
            "title": "7 Variety का Breakfast देख Emotional हुआ Jethalal | Taarak Mehta Ka Ooltah Chashmah | New Year Jalsa",
            "url": "https://www.youtube.com/watch?v=A0Owixm1BCs",
            "duration": 3766.0,
            "view_count": 2581764,
            "uploader": "Taarak Mehta Ka Ooltah Chashmah Episodes",
            "category": "taarak_mehta",
            "thumbnail": "https://i.ytimg.com/vi/A0Owixm1BCs/hqdefault.jpg"
        },
        {
            "id": "O-QGMuXayQg",
            "title": "Tubelight Repair करते वक़्त Jetha को लगा Shock | Taarak Mehta Ka Ooltah Chashmah| Jetha Ko Laga Shock",
            "url": "https://www.youtube.com/watch?v=O-QGMuXayQg",
            "duration": 3439.0,
            "view_count": 42335,
            "uploader": "Taarak Mehta Ka Ooltah Chashmah Episodes",
            "category": "taarak_mehta",
            "thumbnail": "https://i.ytimg.com/vi/O-QGMuXayQg/hq720.jpg"
        },
        {
            "id": "c0ZKIpJAhkA",
            "title": "Daya और Jetha गए Terrace पर सोने! | Taarak Mehta Ka Ooltah Chashmah | Exam Results",
            "url": "https://www.youtube.com/watch?v=c0ZKIpJAhkA",
            "duration": 2293.0,
            "view_count": 120015,
            "uploader": "Taarak Mehta Ka Ooltah Chashmah Episodes",
            "category": "taarak_mehta",
            "thumbnail": "https://i.ytimg.com/vi/c0ZKIpJAhkA/hq720.jpg"
        },
        {
            "id": "cRaDLf0cRqs",
            "title": "Episode 891 - Taarak Mehta Ka Ooltah Chashmah - Full Episode | तारक मेहता का उल्टा चश्मा",
            "url": "https://www.youtube.com/watch?v=cRaDLf0cRqs",
            "duration": 1211.0,
            "view_count": 44805711,
            "uploader": "Taarak Mehta Ka Ooltah Chashmah",
            "category": "taarak_mehta",
            "thumbnail": "https://i.ytimg.com/vi/cRaDLf0cRqs/hq720.jpg"
        },
        {
            "id": "ppdd37TQJuI",
            "title": "Society वालों ने उठाए Tasty नाश्ते का लुत्फ़ |Taarak Mehta Ka Ooltah Chashmah |Sakharam Ki Adla Badli",
            "url": "https://www.youtube.com/watch?v=ppdd37TQJuI",
            "duration": 3741.0,
            "view_count": 93735,
            "uploader": "Taarak Mehta Ka Ooltah Chashmah Episodes",
            "category": "taarak_mehta",
            "thumbnail": "https://i.ytimg.com/vi/ppdd37TQJuI/hq720.jpg"
        },
        {
            "id": "gB0vsLp2xMk",
            "title": "Jetha's Intense Search | Taarak Mehta Ka Ooltah Chashmah | Full Ep 4655 | 11 Mar 2026 | New Episode",
            "url": "https://www.youtube.com/watch?v=gB0vsLp2xMk",
            "duration": 1306.0,
            "view_count": 850130,
            "uploader": "Taarak Mehta Ka Ooltah Chashmah Episodes",
            "category": "taarak_mehta",
            "thumbnail": "https://i.ytimg.com/vi/gB0vsLp2xMk/hq720.jpg"
        },
        {
            "id": "AdrPe0sV7c0",
            "title": "Holika Dahan Celebration | Taarak Mehta Ka Ooltah Chashmah | Full Ep 4650 | 5 Mar 2026 | New Episode",
            "url": "https://www.youtube.com/watch?v=AdrPe0sV7c0",
            "duration": 1335.0,
            "view_count": 750297,
            "uploader": "Taarak Mehta Ka Ooltah Chashmah Episodes",
            "category": "taarak_mehta",
            "thumbnail": "https://i.ytimg.com/vi/AdrPe0sV7c0/hq720.jpg"
        },
        {
            "id": "EyUns8wPZco",
            "title": "Jethalal ने क्यों बोला Popatlal को 'Patli Kamar'? | Taarak Mehta Ka Ooltah Chashmah | Bank Story",
            "url": "https://www.youtube.com/watch?v=EyUns8wPZco",
            "duration": 3617.0,
            "view_count": 637143,
            "uploader": "Taarak Mehta Ka Ooltah Chashmah Episodes",
            "category": "taarak_mehta",
            "thumbnail": "https://i.ytimg.com/vi/EyUns8wPZco/hq720.jpg"
        },
        {
            "id": "abOKjrBp9ck",
            "title": "कौन करना चाहता है Gokuldham का Garba Cancel? | Taarak Mehta Ka Ooltah Chashmah | Navratri Special",
            "url": "https://www.youtube.com/watch?v=abOKjrBp9ck",
            "duration": 3568.0,
            "view_count": 4460,
            "uploader": "Taarak Mehta Ka Ooltah Chashmah Episodes",
            "category": "taarak_mehta",
            "thumbnail": "https://i.ytimg.com/vi/abOKjrBp9ck/hq720.jpg"
        },
        {
            "id": "NgHHXvt32lI",
            "title": "Bapuji ne Maara Jethya ko Chaata ! | FULL MOVIE | Taarak Mehta Ka Ooltah Chashmah",
            "url": "https://www.youtube.com/watch?v=NgHHXvt32lI",
            "duration": 3173.0,
            "view_count": 7984,
            "uploader": "Taarak Mehta Ka Ooltah Chashmah",
            "category": "taarak_mehta",
            "thumbnail": "https://i.ytimg.com/vi/NgHHXvt32lI/hq720.jpg"
        },
        {
            "id": "WdJiv2W-u5g",
            "title": "NEW! Ep 4656 - Kaha Chupi thi Babita ji? | Taarak Mehta ka Ooltah  Chashmah",
            "url": "https://www.youtube.com/watch?v=WdJiv2W-u5g",
            "duration": 610.0,
            "view_count": 3229797,
            "uploader": "Taarak Mehta Ka Ooltah Chashmah",
            "category": "taarak_mehta",
            "thumbnail": "https://i.ytimg.com/vi/WdJiv2W-u5g/hq720.jpg"
        },
        {
            "id": "kYN7rVBehHA",
            "title": "NEW! Ep 4656 - Jethalal’s Crazy Hunt for Babita Ji! 🌈 | Taarak Mehta Ka Ooltah Chashmah",
            "url": "https://www.youtube.com/watch?v=kYN7rVBehHA",
            "duration": 610.0,
            "view_count": 68675,
            "uploader": "Taarak Mehta Ka Ooltah Chashmah Episodes",
            "category": "taarak_mehta",
            "thumbnail": "https://i.ytimg.com/vi/kYN7rVBehHA/hq720_custom_2.jpg"
        },
        {
            "id": "_4Iq8hxaSqo",
            "title": "क्या Bhide ने Jetha को कहा 'Mota'? | Taarak Mehta Ka Ooltah Chashmah | Iyer's laptop",
            "url": "https://www.youtube.com/watch?v=_4Iq8hxaSqo",
            "duration": 2506.0,
            "view_count": 253393,
            "uploader": "Taarak Mehta Ka Ooltah Chashmah Episodes",
            "category": "taarak_mehta",
            "thumbnail": "https://i.ytimg.com/vi/_4Iq8hxaSqo/hq720.jpg"
        },
        {
            "id": "z8e733jVv5c",
            "title": "किसकी बातों ने किया Taarak को Irritate? |Taarak Mehta Ka Ooltah Chashmah | Ganesh Utsav In Gokuldham",
            "url": "https://www.youtube.com/watch?v=z8e733jVv5c",
            "duration": 3575.0,
            "view_count": 12557,
            "uploader": "Taarak Mehta Ka Ooltah Chashmah Episodes",
            "category": "taarak_mehta",
            "thumbnail": "https://i.ytimg.com/vi/z8e733jVv5c/hq720.jpg"
        },
        {
            "id": "jMGj9mevGZg",
            "title": "Why Did Bhide Get Angry at Madhvi? 😳| FULL MOVIE | A Big Argument | Hindi Comedy",
            "url": "https://www.youtube.com/watch?v=jMGj9mevGZg",
            "duration": 3713.0,
            "view_count": 38336,
            "uploader": "Taarak Mehta Ka Ooltah Chashmah Episodes",
            "category": "taarak_mehta",
            "thumbnail": "https://i.ytimg.com/vi/jMGj9mevGZg/hq720.jpg"
        },
        {
            "id": "gzpdwYnLUfU",
            "title": "Will Team Jetha Win? | Taarak Mehta Ka Ooltah Chashmah | Full Ep 4656 | 12 Mar 2026 | New Episode",
            "url": "https://www.youtube.com/watch?v=gzpdwYnLUfU",
            "duration": 1312.0,
            "view_count": 902337,
            "uploader": "Taarak Mehta Ka Ooltah Chashmah Episodes",
            "category": "taarak_mehta",
            "thumbnail": "https://i.ytimg.com/vi/gzpdwYnLUfU/hq720.jpg"
        },
        {
            "id": "iDaf9JyA-ig",
            "title": "Jetha की Reaction देखकर डर गए Bhide और Iyer | Taarak Mehta Ka Ooltah Chashmah | Cricket Chaos",
            "url": "https://www.youtube.com/watch?v=iDaf9JyA-ig",
            "duration": 3633.0,
            "view_count": 14294,
            "uploader": "Taarak Mehta Ka Ooltah Chashmah Episodes",
            "category": "taarak_mehta",
            "thumbnail": "https://i.ytimg.com/vi/iDaf9JyA-ig/hq720.jpg"
        },
        {
            "id": "pVOZvrw-f2k",
            "title": "Iyer ko Kyu Marne Laga Jethalal! | FULL MOVIE | Taarak Mehta Ka Ooltah Chashmah",
            "url": "https://www.youtube.com/watch?v=pVOZvrw-f2k",
            "duration": 2301.0,
            "view_count": 21178,
            "uploader": "Taarak Mehta Ka Ooltah Chashmah",
            "category": "taarak_mehta",
            "thumbnail": "https://i.ytimg.com/vi/pVOZvrw-f2k/hq720.jpg"
        },
        {
            "id": "ZP9YHXQYWls",
            "title": "Bhide aur Jetha ne Milkar Banaya Soda | FULL MOVIE | Taarak Mehta Ka Ooltah Chashmah",
            "url": "https://www.youtube.com/watch?v=ZP9YHXQYWls",
            "duration": 2358.0,
            "view_count": 209304,
            "uploader": "Taarak Mehta Ka Ooltah Chashmah",
            "category": "taarak_mehta",
            "thumbnail": "https://i.ytimg.com/vi/ZP9YHXQYWls/hq720.jpg"
        },
        {
            "id": "pHvT56FuDSc",
            "title": "Gundo Ne Ki Bhide Ki Pitaai | FULL MOVIE | Taarak Mehta Ka Ooltah Chashmah",
            "url": "https://www.youtube.com/watch?v=pHvT56FuDSc",
            "duration": 2869.0,
            "view_count": 30924,
            "uploader": "Taarak Mehta Ka Ooltah Chashmah",
            "category": "taarak_mehta",
            "thumbnail": "https://i.ytimg.com/vi/pHvT56FuDSc/hq720.jpg"
        },
        {
            "id": "BFKTYKnPW-g",
            "title": "Popatlal Kyu Chada Ped par ! | FULL MOVIE | Taarak Mehta Ka Ooltah Chashmah",
            "url": "https://www.youtube.com/watch?v=BFKTYKnPW-g",
            "duration": 2884.0,
            "view_count": 1563,
            "uploader": "Taarak Mehta Ka Ooltah Chashmah",
            "category": "taarak_mehta",
            "thumbnail": "https://i.ytimg.com/vi/BFKTYKnPW-g/hq720.jpg"
        },
        {
            "id": "dmoLSZdT9LM",
            "title": "Why Did Bhide Do a Dangerous Stunt? 😱 | FULL MOVIE | Society in Big Trouble! | Hindi Movie",
            "url": "https://www.youtube.com/watch?v=dmoLSZdT9LM",
            "duration": 3460.0,
            "view_count": 6239,
            "uploader": "Taarak Mehta Ka Ooltah Chashmah Episodes",
            "category": "taarak_mehta",
            "thumbnail": "https://i.ytimg.com/vi/dmoLSZdT9LM/hq720.jpg"
        },
        {
            "id": "YifXkjlvDY8",
            "title": "Health Check Up In Gokuldham | Taarak Mehta Ka Ooltah Chashmah | Full Episode 135",
            "url": "https://www.youtube.com/watch?v=YifXkjlvDY8",
            "duration": 1152.0,
            "view_count": 17994,
            "uploader": "Taarak Mehta Ka Ooltah Chashmah Episodes",
            "category": "taarak_mehta",
            "thumbnail": "https://i.ytimg.com/vi/YifXkjlvDY8/hq720.jpg"
        },
        {
            "id": "LZMNTGgGGxc",
            "title": "Kaise Hui Society me Pani ki Problem ! | FULL MOVIE | Taarak Mehta Ka Ooltah Chashmah",
            "url": "https://www.youtube.com/watch?v=LZMNTGgGGxc",
            "duration": 3431.0,
            "view_count": 56652,
            "uploader": "Taarak Mehta Ka Ooltah Chashmah",
            "category": "taarak_mehta",
            "thumbnail": "https://i.ytimg.com/vi/LZMNTGgGGxc/hq720.jpg"
        },
        {
            "id": "hcoGqgCQJ-E",
            "title": "Bhide Aur Uska 5 Star Scooter!! | FULL MOVIE | Taarak Mehta Ka Ooltah Chashmah",
            "url": "https://www.youtube.com/watch?v=hcoGqgCQJ-E",
            "duration": 3139.0,
            "view_count": 32695,
            "uploader": "Taarak Mehta Ka Ooltah Chashmah",
            "category": "taarak_mehta",
            "thumbnail": "https://i.ytimg.com/vi/hcoGqgCQJ-E/hq720.jpg"
        },
        {
            "id": "7lVQc_lY_jI",
            "title": "What Promise Did Jethalal Make? 😳| FULLMOVIE | Jethalal’s Promise Leads to Chaos! Hindi Comedy",
            "url": "https://www.youtube.com/watch?v=7lVQc_lY_jI",
            "duration": 3499.0,
            "view_count": 3715,
            "uploader": "Taarak Mehta Ka Ooltah Chashmah Episodes",
            "category": "taarak_mehta",
            "thumbnail": "https://i.ytimg.com/vi/7lVQc_lY_jI/hq720.jpg"
        }
    ]
}