{
    "page": 55,
    "total_pages": 103,
    "total_items": 5125,
    "items": [
        {
            "id": "vV8P6oOslj0",
            "title": "Chacha Bhatija Cartoon in Hindi |Chacha's Boxing Competition| Ep 86 | New Cartoons | Wow Kidz Comedy",
            "url": "https://www.youtube.com/watch?v=vV8P6oOslj0",
            "duration": 748.0,
            "view_count": 6181006,
            "uploader": "Wow Kidz Comedy",
            "category": "cartoons/chacha_bhatija",
            "thumbnail": "https://i.ytimg.com/vi/vV8P6oOslj0/hq720.jpg"
        },
        {
            "id": "wuryj9ZwUqk",
            "title": "Chacha Bhatija Cartoon in Hindi | Sabse Lambee Mooche | Ep 57 | New Cartoons | Wow Kidz Comedy",
            "url": "https://www.youtube.com/watch?v=wuryj9ZwUqk",
            "duration": 734.0,
            "view_count": 8138990,
            "uploader": "Wow Kidz Comedy",
            "category": "cartoons/chacha_bhatija",
            "thumbnail": "https://i.ytimg.com/vi/wuryj9ZwUqk/hq720.jpg"
        },
        {
            "id": "-E9cviwuxZs",
            "title": "Chacha Bhatija Cartoon in Hindi | New Compilation - 46 | New Cartoons | Wow Kidz Comedy",
            "url": "https://www.youtube.com/watch?v=-E9cviwuxZs",
            "duration": 1354.0,
            "view_count": 3037981,
            "uploader": "Wow Kidz Comedy",
            "category": "cartoons/chacha_bhatija",
            "thumbnail": "https://i.ytimg.com/vi/-E9cviwuxZs/hq720.jpg"
        },
        {
            "id": "9TpNKieNgNg",
            "title": "Chacha Bhatija Cartoon in Hindi | Duplicate Chacha | New Cartoons | Wow Kidz Comedy",
            "url": "https://www.youtube.com/watch?v=9TpNKieNgNg",
            "duration": 755.0,
            "view_count": 7914138,
            "uploader": "Wow Kidz Comedy",
            "category": "cartoons/chacha_bhatija",
            "thumbnail": "https://i.ytimg.com/vi/9TpNKieNgNg/hq720.jpg"
        },
        {
            "id": "CfJk05ff9yU",
            "title": "Chacha Bhatija Cartoon in Hindi | Bhatija Sikhaye | Ep 91 | New Cartoons | Wow Kidz Comedy",
            "url": "https://www.youtube.com/watch?v=CfJk05ff9yU",
            "duration": 737.0,
            "view_count": 3126020,
            "uploader": "Wow Kidz Comedy",
            "category": "cartoons/chacha_bhatija",
            "thumbnail": "https://i.ytimg.com/vi/CfJk05ff9yU/hq720.jpg"
        },
        {
            "id": "itP--_RL9LE",
            "title": "Chacha Bhatija | Bandookini Ka Bhanja | Animated Stories | Wow Kidz Comedy",
            "url": "https://www.youtube.com/watch?v=itP--_RL9LE",
            "duration": 745.0,
            "view_count": 4734008,
            "uploader": "Wow Kidz Comedy",
            "category": "cartoons/chacha_bhatija",
            "thumbnail": "https://i.ytimg.com/vi/itP--_RL9LE/hq720.jpg"
        },
        {
            "id": "5iUqs7cmRUE",
            "title": "Chacha Bhatija Cartoon in Hindi | New Compilation - 26 | New Cartoons | Wow Kidz Comedy",
            "url": "https://www.youtube.com/watch?v=5iUqs7cmRUE",
            "duration": 1254.0,
            "view_count": 6559840,
            "uploader": "Wow Kidz Comedy",
            "category": "cartoons/chacha_bhatija",
            "thumbnail": "https://i.ytimg.com/vi/5iUqs7cmRUE/hq720.jpg"
        },
        {
            "id": "bnfueML8MQE",
            "title": "Dr Koji ka Naya Invention  | Chacha Bhatija Ki Jodi | Cartoons for Kids | Wow Kidz Comedy #spot",
            "url": "https://www.youtube.com/watch?v=bnfueML8MQE",
            "duration": 685.0,
            "view_count": 173194,
            "uploader": "Wow Kidz Comedy",
            "category": "cartoons/chacha_bhatija",
            "thumbnail": "https://i.ytimg.com/vi/bnfueML8MQE/hq720.jpg"
        },
        {
            "id": "AmOAQXBeC8g",
            "title": "Chhota Bheem - Dholakpur ki Buri Kismat | Cartoons for Kids | YouTube Kids Videos in Hindi",
            "url": "https://www.youtube.com/watch?v=AmOAQXBeC8g",
            "duration": 1936.0,
            "view_count": 4577500,
            "uploader": "Green Gold TV - Official Channel",
            "category": "cartoons/chhota_bheem",
            "thumbnail": "https://i.ytimg.com/vi/AmOAQXBeC8g/hq720.jpg"
        },
        {
            "id": "y45wjCijf5o",
            "title": "Kalia Ustaad - पिकनिक की खुशी | Holiday Vibes | Chhota Bheem Cartoon for Kids | Hindi Kahaniya",
            "url": "https://www.youtube.com/watch?v=y45wjCijf5o",
            "duration": 1858.0,
            "view_count": 4666046,
            "uploader": "Kalia Ustaad - Official Channel",
            "category": "cartoons/chhota_bheem",
            "thumbnail": "https://i.ytimg.com/vi/y45wjCijf5o/hq720.jpg"
        },
        {
            "id": "qpMaC5mTbrA",
            "title": "Kalia Ustaad - Gol Gappe Wale😋 | Spicy Fun Challenge | Fun Cartoon Episode | Kids Funny Cartoon",
            "url": "https://www.youtube.com/watch?v=qpMaC5mTbrA",
            "duration": 1814.0,
            "view_count": 3269343,
            "uploader": "Kalia Ustaad - Official Channel",
            "category": "cartoons/chhota_bheem",
            "thumbnail": "https://i.ytimg.com/vi/qpMaC5mTbrA/hq720.jpg"
        },
        {
            "id": "IGli01kZD14",
            "title": "Chhota Bheem - Trip to Rajasthan | Cartoons for Kids | Fun Kids Videos",
            "url": "https://www.youtube.com/watch?v=IGli01kZD14",
            "duration": 1809.0,
            "view_count": 4759914,
            "uploader": "Green Gold TV - Official Channel",
            "category": "cartoons/chhota_bheem",
            "thumbnail": "https://i.ytimg.com/vi/IGli01kZD14/hq720.jpg"
        },
        {
            "id": "lX3VsosZA70",
            "title": "Chhota Bheem - Yummy Noodles | Chowmein Trouble | Cooking Cartoons for Kids | Fun Videos in Hindi",
            "url": "https://www.youtube.com/watch?v=lX3VsosZA70",
            "duration": 1822.0,
            "view_count": 4695611,
            "uploader": "Green Gold Kids",
            "category": "cartoons/super_bheem",
            "thumbnail": "https://i.ytimg.com/vi/lX3VsosZA70/hq720.jpg"
        },
        {
            "id": "yUD0uPHFD4A",
            "title": "Chhota Bheem - Talking Tree Mystery | Adventure Cartoons for Kids | Funny Kids Videos",
            "url": "https://www.youtube.com/watch?v=yUD0uPHFD4A",
            "duration": 1842.0,
            "view_count": 12774966,
            "uploader": "Green Gold Kids",
            "category": "cartoons/chhota_bheem",
            "thumbnail": "https://i.ytimg.com/vi/yUD0uPHFD4A/hq720.jpg"
        },
        {
            "id": "vizynGz5Mg8",
            "title": "Chhota Bheem - Alibaba 40 Chor | Cartoons for Kids | Fun Kids Videos in Hindi",
            "url": "https://www.youtube.com/watch?v=vizynGz5Mg8",
            "duration": 1916.0,
            "view_count": 2955184,
            "uploader": "Green Gold Kids",
            "category": "cartoons/super_bheem",
            "thumbnail": "https://i.ytimg.com/vi/vizynGz5Mg8/hq720.jpg"
        },
        {
            "id": "8Px0djonn8s",
            "title": "Chhota Bheem - A Trip to Kashmir | Hindi Cartoons for Kids | Fun Kids Videos",
            "url": "https://www.youtube.com/watch?v=8Px0djonn8s",
            "duration": 1821.0,
            "view_count": 24834839,
            "uploader": "Green Gold TV - Official Channel",
            "category": "cartoons/chhota_bheem",
            "thumbnail": "https://i.ytimg.com/vi/8Px0djonn8s/hq720.jpg"
        },
        {
            "id": "zIWPb7MOf1c",
            "title": "Chhota Bheem and Krishna - Journey to Dwaraka | Cartoons for Kids in Hindi | Adventure Videos",
            "url": "https://www.youtube.com/watch?v=zIWPb7MOf1c",
            "duration": 668.0,
            "view_count": 1828259,
            "uploader": "Krishna, Balram & Chhota Bheem - Official Channel and Green Gold TV - Official Channel",
            "category": "cartoons/chhota_bheem",
            "thumbnail": "https://i.ytimg.com/vi/zIWPb7MOf1c/hq720.jpg"
        },
        {
            "id": "ffPi9m14IVY",
            "title": "Chhota Bheem - Shaadi Mein Suspense | Cartoons for Kids | Funny Kids Videos",
            "url": "https://www.youtube.com/watch?v=ffPi9m14IVY",
            "duration": 1805.0,
            "view_count": 2961051,
            "uploader": "Green Gold TV - Official Channel",
            "category": "cartoons/chhota_bheem",
            "thumbnail": "https://i.ytimg.com/vi/ffPi9m14IVY/hq720.jpg"
        },
        {
            "id": "EzNUvHTj-3I",
            "title": "Chhota Bheem - Dholakpur Mein Bhoot Trouble | ढोलकपुर हुआ भुत से परेशन | Cartoon for Kids in Hindi",
            "url": "https://www.youtube.com/watch?v=EzNUvHTj-3I",
            "duration": 677.0,
            "view_count": 26877967,
            "uploader": "Green Gold TV - Official Channel",
            "category": "cartoons/chhota_bheem",
            "thumbnail": "https://i.ytimg.com/vi/EzNUvHTj-3I/hq720.jpg"
        },
        {
            "id": "CVWV_VJdkjw",
            "title": "Chhota Bheem - Paani se Sona | Adventure Cartoons for Kids | Fun Kids Videos",
            "url": "https://www.youtube.com/watch?v=CVWV_VJdkjw",
            "duration": 1856.0,
            "view_count": 3519554,
            "uploader": "Green Gold Kids",
            "category": "cartoons/super_bheem",
            "thumbnail": "https://i.ytimg.com/vi/CVWV_VJdkjw/hq720.jpg"
        },
        {
            "id": "Zs9CIvXkIjk",
            "title": "Chhota Bheem - Raja Beemar Ho Gaye | Funny Cartoons for Kids | Adventure Videos in Hindi",
            "url": "https://www.youtube.com/watch?v=Zs9CIvXkIjk",
            "duration": 1800.0,
            "view_count": 176531,
            "uploader": "Green Gold Kids",
            "category": "cartoons/chhota_bheem",
            "thumbnail": "https://i.ytimg.com/vi/Zs9CIvXkIjk/hq720.jpg"
        },
        {
            "id": "vRDajPveYN0",
            "title": "Chhota Bheem - Dholakpur's Food Fest | Cartoons for Kids | Fun Kids Videos",
            "url": "https://www.youtube.com/watch?v=vRDajPveYN0",
            "duration": 1802.0,
            "view_count": 798318,
            "uploader": "Green Gold TV - Official Channel",
            "category": "cartoons/chhota_bheem",
            "thumbnail": "https://i.ytimg.com/vi/vRDajPveYN0/hq720.jpg"
        },
        {
            "id": "8Yu6NuOPQ7g",
            "title": "Chhota Bheem - Summer Fun | Adventure Videos for Kids | Summer Cartoons in Hindi",
            "url": "https://www.youtube.com/watch?v=8Yu6NuOPQ7g",
            "duration": 1824.0,
            "view_count": 2686575,
            "uploader": "Green Gold Kids",
            "category": "cartoons/chhota_bheem",
            "thumbnail": "https://i.ytimg.com/vi/8Yu6NuOPQ7g/hq720.jpg"
        },
        {
            "id": "hVoxSdJ_fyA",
            "title": "Chhota Bheem - Floating Island Mystery | Cartoons for Kids | Funny Kids Videos",
            "url": "https://www.youtube.com/watch?v=hVoxSdJ_fyA",
            "duration": 1830.0,
            "view_count": 306471,
            "uploader": "Green Gold TV - Official Channel",
            "category": "cartoons/super_bheem",
            "thumbnail": "https://i.ytimg.com/vi/hVoxSdJ_fyA/hq720.jpg"
        },
        {
            "id": "YgrJTb3EEB4",
            "title": "Chutki - Raju Turns Into a Golgappa | Fun Cartoons for Kids | Chhota Bheem Videos in Hindi",
            "url": "https://www.youtube.com/watch?v=YgrJTb3EEB4",
            "duration": 1885.0,
            "view_count": 10856751,
            "uploader": "Chutki - Official Channel",
            "category": "cartoons/chhota_bheem",
            "thumbnail": "https://i.ytimg.com/vi/YgrJTb3EEB4/hq720.jpg"
        },
        {
            "id": "AJQpoZfS5IY",
            "title": "Chhota Bheem - Romeo Ke Rasgulle! | Cartoon for Kids in Hindi",
            "url": "https://www.youtube.com/watch?v=AJQpoZfS5IY",
            "duration": 619.0,
            "view_count": 9386295,
            "uploader": "Green Gold Kids",
            "category": "cartoons/chhota_bheem",
            "thumbnail": "https://i.ytimg.com/vi/AJQpoZfS5IY/hq720.jpg"
        },
        {
            "id": "UbNf4MWcua0",
            "title": "Chhota Bheem - Kirmada Ka Bhayanak War | Cartoons for Kids | Fun Kids Videos",
            "url": "https://www.youtube.com/watch?v=UbNf4MWcua0",
            "duration": 1817.0,
            "view_count": 13712269,
            "uploader": "Green Gold Kids",
            "category": "cartoons/chhota_bheem",
            "thumbnail": "https://i.ytimg.com/vi/UbNf4MWcua0/hq720.jpg"
        },
        {
            "id": "6ydn-_RTs3g",
            "title": "Mighty Little Bheem FULL EPISODES 9-12 💪 Season 1 Compilation 💪 Netflix Jr",
            "url": "https://www.youtube.com/watch?v=6ydn-_RTs3g",
            "duration": 1328.0,
            "view_count": 312189470,
            "uploader": "Netflix Jr.",
            "category": "cartoons/super_bheem",
            "thumbnail": "https://i.ytimg.com/vi/6ydn-_RTs3g/hq720.jpg"
        },
        {
            "id": "2-47ws_--bk",
            "title": "Chhota Bheem - Raju is Missing from Dholakpur | Jungle Trouble | Cartoons for Kids in Hindi",
            "url": "https://www.youtube.com/watch?v=2-47ws_--bk",
            "duration": 1846.0,
            "view_count": 3627663,
            "uploader": "Green Gold Kids",
            "category": "cartoons/chhota_bheem",
            "thumbnail": "https://i.ytimg.com/vi/2-47ws_--bk/hq720.jpg"
        },
        {
            "id": "GZZ_wxEFt3o",
            "title": "Chhota Bheem - छुटकी की गलती | Secret of the Old Box | Cartoons for Kids in Hindi",
            "url": "https://www.youtube.com/watch?v=GZZ_wxEFt3o",
            "duration": 1284.0,
            "view_count": 1500615,
            "uploader": "Green Gold Kids",
            "category": "cartoons/chhota_bheem",
            "thumbnail": "https://i.ytimg.com/vi/GZZ_wxEFt3o/hq720.jpg"
        },
        {
            "id": "EV9nsRE2UW4",
            "title": "Chhota Bheem - Holi Celebrations in Dholakpur | Cartoons for Kids | Special Video",
            "url": "https://www.youtube.com/watch?v=EV9nsRE2UW4",
            "duration": 1858.0,
            "view_count": 21489670,
            "uploader": "Green Gold Kids",
            "category": "cartoons/chhota_bheem",
            "thumbnail": "https://i.ytimg.com/vi/EV9nsRE2UW4/hq720.jpg"
        },
        {
            "id": "K_-_tWQVtQE",
            "title": "Chhota Bheem - Skeleton Tiger Awakens | Cartoons for Kids | Adventure Videos for Children in Hindi",
            "url": "https://www.youtube.com/watch?v=K_-_tWQVtQE",
            "duration": 1806.0,
            "view_count": 200229,
            "uploader": "Green Gold Kids",
            "category": "cartoons/chhota_bheem",
            "thumbnail": "https://i.ytimg.com/vi/K_-_tWQVtQE/hqdefault.jpg"
        },
        {
            "id": "3j9mtnlrrMI",
            "title": "Chhota Bheem - जादुई केला | Banana Trouble in Dholakpur | Cartoons for Kids in Hindi",
            "url": "https://www.youtube.com/watch?v=3j9mtnlrrMI",
            "duration": 1874.0,
            "view_count": 403974,
            "uploader": "Green Gold Kids",
            "category": "cartoons/chhota_bheem",
            "thumbnail": "https://i.ytimg.com/vi/3j9mtnlrrMI/hq720.jpg"
        },
        {
            "id": "yvSLP8PqBa0",
            "title": "Chhota Bheem - Attack of the Monster Dragon | Cartoons for Kids | Fun Kids Videos",
            "url": "https://www.youtube.com/watch?v=yvSLP8PqBa0",
            "duration": 1877.0,
            "view_count": 103198,
            "uploader": "Green Gold TV - Official Channel",
            "category": "cartoons/chhota_bheem",
            "thumbnail": "https://i.ytimg.com/vi/yvSLP8PqBa0/hq720.jpg"
        },
        {
            "id": "Hk2_jx-Ad2A",
            "title": "Chutki - Taj Mahal Ka Safar | Fun Kids Cartoons | Cartoons for Kids in Hindi",
            "url": "https://www.youtube.com/watch?v=Hk2_jx-Ad2A",
            "duration": 1836.0,
            "view_count": 21173599,
            "uploader": "Chutki - Official Channel",
            "category": "cartoons/chhota_bheem",
            "thumbnail": "https://i.ytimg.com/vi/Hk2_jx-Ad2A/hq720.jpg"
        },
        {
            "id": "ftjSHZzrmZ0",
            "title": "Chhota Bheem - Magic Potion | Tun Tun's New Look | Fun Cartoons for Kids",
            "url": "https://www.youtube.com/watch?v=ftjSHZzrmZ0",
            "duration": 1868.0,
            "view_count": 1716889,
            "uploader": "Green Gold TV - Official Channel",
            "category": "cartoons/chhota_bheem",
            "thumbnail": "https://i.ytimg.com/vi/ftjSHZzrmZ0/hq720.jpg"
        },
        {
            "id": "EHFOFiD7Tk8",
            "title": "Chhota Bheem - Heavy Rains in Dholakpur | Cartoons for Kids | Funny Kids Videos",
            "url": "https://www.youtube.com/watch?v=EHFOFiD7Tk8",
            "duration": 1298.0,
            "view_count": 19714304,
            "uploader": "Green Gold Kids",
            "category": "cartoons/chhota_bheem",
            "thumbnail": "https://i.ytimg.com/vi/EHFOFiD7Tk8/hq720.jpg"
        },
        {
            "id": "cqya9HC8eL0",
            "title": "Chhota Bheem - Dholakpur School | स्कूल खुल गया | Cartoons for Kids",
            "url": "https://www.youtube.com/watch?v=cqya9HC8eL0",
            "duration": 1287.0,
            "view_count": 30165823,
            "uploader": "Green Gold TV - Official Channel",
            "category": "cartoons/chhota_bheem",
            "thumbnail": "https://i.ytimg.com/vi/cqya9HC8eL0/hq720.jpg"
        },
        {
            "id": "-AcWY9RtbwM",
            "title": "Chhota Bheem - Star Chutki | Kids Fun Videos | Cartoons for Kids in Hindi",
            "url": "https://www.youtube.com/watch?v=-AcWY9RtbwM",
            "duration": 1410.0,
            "view_count": 707551,
            "uploader": "Green Gold Kids",
            "category": "cartoons/chhota_bheem",
            "thumbnail": "https://i.ytimg.com/vi/-AcWY9RtbwM/hq720.jpg"
        },
        {
            "id": "4-IPk4LH5CM",
            "title": "Chhota Bheem - Royal Moustache Chorr | ढोलकपुर में मूंछ चोर | Cartoons for Kids in Hindi",
            "url": "https://www.youtube.com/watch?v=4-IPk4LH5CM",
            "duration": 1860.0,
            "view_count": 262336,
            "uploader": "Green Gold TV - Official Channel",
            "category": "cartoons/chhota_bheem",
            "thumbnail": "https://i.ytimg.com/vi/4-IPk4LH5CM/hq720.jpg"
        },
        {
            "id": "D4o0RO-0oqs",
            "title": "Chhota Bheem - Keeda Ustaad | Cartoons for Kids | Funny Kids Videos",
            "url": "https://www.youtube.com/watch?v=D4o0RO-0oqs",
            "duration": 1889.0,
            "view_count": 242136,
            "uploader": "Green Gold Kids",
            "category": "cartoons/chhota_bheem",
            "thumbnail": "https://i.ytimg.com/vi/D4o0RO-0oqs/hq720.jpg"
        },
        {
            "id": "XfTFjBkgpIU",
            "title": "Chhota Bheem - Kathputli Khilone | अनोखा खेल | Cartoons for Kids in Hindi",
            "url": "https://www.youtube.com/watch?v=XfTFjBkgpIU",
            "duration": 1839.0,
            "view_count": 1545114,
            "uploader": "Green Gold Kids",
            "category": "cartoons/chhota_bheem",
            "thumbnail": "https://i.ytimg.com/vi/XfTFjBkgpIU/hq720.jpg"
        },
        {
            "id": "ZOAOle-1XHM",
            "title": "Chhota Bheem - War | Dholakpur Girls Vs Girls | Kids Fun Videos | Cartoons in Hindi",
            "url": "https://www.youtube.com/watch?v=ZOAOle-1XHM",
            "duration": 1830.0,
            "view_count": 1126618,
            "uploader": "Green Gold Kids",
            "category": "cartoons/chhota_bheem",
            "thumbnail": "https://i.ytimg.com/vi/ZOAOle-1XHM/hq720.jpg"
        },
        {
            "id": "PJFKt0mtPDI",
            "title": "Chhota Bheem VS Keechak - Dholakpur's Cricket Final | Cartoons for Kids | Fun Kids Videos",
            "url": "https://www.youtube.com/watch?v=PJFKt0mtPDI",
            "duration": 1847.0,
            "view_count": 1645929,
            "uploader": "Green Gold TV - Official Channel",
            "category": "cartoons/chhota_bheem",
            "thumbnail": "https://i.ytimg.com/vi/PJFKt0mtPDI/hq720.jpg"
        },
        {
            "id": "J4hilzeX1Tc",
            "title": "Chhota Bheem - Crystal Mahal | Mysterious Cartoons for Kids | Fun Kids Videos",
            "url": "https://www.youtube.com/watch?v=J4hilzeX1Tc",
            "duration": 1843.0,
            "view_count": 416933,
            "uploader": "Green Gold Kids",
            "category": "cartoons/chhota_bheem",
            "thumbnail": "https://i.ytimg.com/vi/J4hilzeX1Tc/hq720.jpg"
        },
        {
            "id": "efB-B_cZzf0",
            "title": "Chhota Bheem - Dholakpur mein Fire Monster Attack | Cartoons for Kids | Fun Kids Videos",
            "url": "https://www.youtube.com/watch?v=efB-B_cZzf0",
            "duration": 1841.0,
            "view_count": 1477230,
            "uploader": "Green Gold TV - Official Channel",
            "category": "cartoons/chhota_bheem",
            "thumbnail": "https://i.ytimg.com/vi/efB-B_cZzf0/hq720.jpg"
        },
        {
            "id": "90NFh6-Pnhc",
            "title": "Chhota Bheem - Diwali ka Special Patakha | Cartoons for Kids | Festive Videos in Hindi",
            "url": "https://www.youtube.com/watch?v=90NFh6-Pnhc",
            "duration": 1843.0,
            "view_count": 428283,
            "uploader": "Green Gold Kids",
            "category": "cartoons/super_bheem",
            "thumbnail": "https://i.ytimg.com/vi/90NFh6-Pnhc/hq720.jpg"
        },
        {
            "id": "pOMCUIDKLKg",
            "title": "Chhota Bheem - Raju aur Jaggu ki Tamasha | Cartoons for Kids in Hindi | Funny Kids Videos",
            "url": "https://www.youtube.com/watch?v=pOMCUIDKLKg",
            "duration": 1861.0,
            "view_count": 13721508,
            "uploader": "Green Gold TV - Official Channel",
            "category": "cartoons/chhota_bheem",
            "thumbnail": "https://i.ytimg.com/vi/pOMCUIDKLKg/hq720.jpg"
        },
        {
            "id": "_zp2HBKmivM",
            "title": "Chutki - Raju ka Papa | Father's Day Special | Chhota Bheem Cartoons for Kids",
            "url": "https://www.youtube.com/watch?v=_zp2HBKmivM",
            "duration": 1917.0,
            "view_count": 870194,
            "uploader": "Chutki - Official Channel",
            "category": "cartoons/chhota_bheem",
            "thumbnail": "https://i.ytimg.com/vi/_zp2HBKmivM/hq720.jpg"
        },
        {
            "id": "1c0YbAqUcTY",
            "title": "Chhota Bheem - Land of Scarecrows | Cartoons for Kids | Fun Kids Videos",
            "url": "https://www.youtube.com/watch?v=1c0YbAqUcTY",
            "duration": 1864.0,
            "view_count": 275307,
            "uploader": "Green Gold TV - Official Channel",
            "category": "cartoons/chhota_bheem",
            "thumbnail": "https://i.ytimg.com/vi/1c0YbAqUcTY/hq720.jpg"
        }
    ]
}