{
    "page": 73,
    "total_pages": 103,
    "total_items": 5125,
    "items": [
        {
            "id": "uET0wC1pQTE",
            "title": "Chikki Chikorilla 🐒🔥 | Little Singham vs Monkey Mayhem Begins! | Pogo TV | Kids Cartoon",
            "url": "https://www.youtube.com/watch?v=uET0wC1pQTE",
            "duration": 636.0,
            "view_count": 10466699,
            "uploader": "Big Animation",
            "category": "cartoons/little_singham",
            "thumbnail": "https://i.ytimg.com/vi/uET0wC1pQTE/hq720.jpg"
        },
        {
            "id": "s6cqwfcoQT8",
            "title": "Little Singham - Shambhali MusibatWali | New Maha Blockbuster Little Singham | Full Movie In Hindi ",
            "url": "https://www.youtube.com/watch?v=s6cqwfcoQT8",
            "duration": 2628.0,
            "view_count": 79305,
            "uploader": "Zombie Singham - Official Channel and Aktoons_2",
            "category": "cartoons/little_singham",
            "thumbnail": "https://i.ytimg.com/vi/s6cqwfcoQT8/hqdefault.jpg"
        },
        {
            "id": "9sxBIOiwdbU",
            "title": "Little Singham Shambhali Musibatwali Full Movie in Hindi | Little singham | @CartoonGuruji-777 |",
            "url": "https://www.youtube.com/watch?v=9sxBIOiwdbU",
            "duration": 2628.0,
            "view_count": 2311,
            "uploader": "Cartoon Guruji Sai",
            "category": "cartoons/little_singham",
            "thumbnail": "https://i.ytimg.com/vi/9sxBIOiwdbU/hq720.jpg"
        },
        {
            "id": "QDTuO0SPjLQ",
            "title": "Little singham Shambhali Musibat wali 🔥 Full Movie 🔥 || #viral #viralvideo",
            "url": "https://www.youtube.com/watch?v=QDTuO0SPjLQ",
            "duration": 2628.0,
            "view_count": 19012,
            "uploader": "ANIME_DON",
            "category": "cartoons/little_singham",
            "thumbnail": "https://i.ytimg.com/vi/QDTuO0SPjLQ/hqdefault.jpg"
        },
        {
            "id": "LFbE_wB3rOg",
            "title": "King Cobra Sabko Dhassega 🐍⚡ | Little Singham vs King Cobra Battle | Pogo TV | Kids Cartoon",
            "url": "https://www.youtube.com/watch?v=LFbE_wB3rOg",
            "duration": 2645.0,
            "view_count": 871592,
            "uploader": "Big Animation",
            "category": "cartoons/little_singham",
            "thumbnail": "https://i.ytimg.com/vi/LFbE_wB3rOg/hq720.jpg"
        },
        {
            "id": "JTDvyOp8oHY",
            "title": "Little Singham 🦁 | Super Cop Ka Super Action! 🦁 | Compilation | Cartoon for Kids | @PogoChannel",
            "url": "https://www.youtube.com/watch?v=JTDvyOp8oHY",
            "duration": 1257.0,
            "view_count": 4581205,
            "uploader": "Pogo",
            "category": "cartoons/little_singham",
            "thumbnail": "https://i.ytimg.com/vi/JTDvyOp8oHY/hq720.jpg"
        },
        {
            "id": "foklAsxHOPI",
            "title": "KAAL'S DARK TRAP! 👿 Singham's Powers STOLEN & Sent to Pataal! | Little Singham",
            "url": "https://www.youtube.com/watch?v=foklAsxHOPI",
            "duration": 2765.0,
            "view_count": 154659,
            "uploader": "Big Animation",
            "category": "cartoons/super_bheem",
            "thumbnail": "https://i.ytimg.com/vi/foklAsxHOPI/hq720.jpg"
        },
        {
            "id": "Wi5tzCg40_s",
            "title": "Little Singham vs Mahashark in Sri Lanka! | Lion Totem Power Battle |  Pogo TV | Kids Cartoon",
            "url": "https://www.youtube.com/watch?v=Wi5tzCg40_s",
            "duration": 642.0,
            "view_count": 1341468,
            "uploader": "Big Animation",
            "category": "cartoons/little_singham",
            "thumbnail": "https://i.ytimg.com/vi/Wi5tzCg40_s/hq720.jpg"
        },
        {
            "id": "4aAn8mvjXxM",
            "title": "Kalari Warrior ⚔️🔥 | Little Singham Trains in Kalari War Art | Pogo TV | Kids Cartoon",
            "url": "https://www.youtube.com/watch?v=4aAn8mvjXxM",
            "duration": 640.0,
            "view_count": 4878468,
            "uploader": "Big Animation",
            "category": "cartoons/little_singham",
            "thumbnail": "https://i.ytimg.com/vi/4aAn8mvjXxM/hq720.jpg"
        },
        {
            "id": "bhycF2U7cO8",
            "title": "माशा एंड द बेयर 👱‍♀️🐻 💥2025 का नया एपिसोड💥 नींबू पानी का जादू 🍋😁 (एपिसोड 132)",
            "url": "https://www.youtube.com/watch?v=bhycF2U7cO8",
            "duration": 1981.0,
            "view_count": 45055885,
            "uploader": "माशा एंड द बेयर",
            "category": "cartoons/masha_and_the_bear",
            "thumbnail": "https://i.ytimg.com/vi/bhycF2U7cO8/hq720.jpg"
        },
        {
            "id": "l0iZEDbN73M",
            "title": "माशा एंड द बेयर 👱‍♀️🐻 केक बॉस 🧁 Masha and the Bear in Hindi",
            "url": "https://www.youtube.com/watch?v=l0iZEDbN73M",
            "duration": 2014.0,
            "view_count": 69997033,
            "uploader": "माशा एंड द बेयर",
            "category": "cartoons/masha_and_the_bear",
            "thumbnail": "https://i.ytimg.com/vi/l0iZEDbN73M/hq720.jpg"
        },
        {
            "id": "Hi8V1TkeaKw",
            "title": "माशा एंड द बेयर 💥 नया एपिसोड 2024 👱‍♀️🐻 बच्चे मन के सच्चे! 🍼🐺 (एपिसोड 69)  कार्टून का कलेक्शन",
            "url": "https://www.youtube.com/watch?v=Hi8V1TkeaKw",
            "duration": 3969.0,
            "view_count": 10023896,
            "uploader": "माशा एंड द बेयर",
            "category": "cartoons/masha_and_the_bear",
            "thumbnail": "https://i.ytimg.com/vi/Hi8V1TkeaKw/hq720.jpg"
        },
        {
            "id": "jYpu3JZpFFE",
            "title": "माशा एंड द बेयर 👱‍♀️ एपिसोड का संग्रह 🖌अपने जीवन में रंग भरे 🖌Masha and the Bear",
            "url": "https://www.youtube.com/watch?v=jYpu3JZpFFE",
            "duration": 1918.0,
            "view_count": 37871976,
            "uploader": "माशा एंड द बेयर",
            "category": "cartoons/masha_and_the_bear",
            "thumbnail": "https://i.ytimg.com/vi/jYpu3JZpFFE/hq720.jpg"
        },
        {
            "id": "PeJo8AJJzNo",
            "title": "माशा एंड द बेयर 👱‍♀️🐻 हार्वेस्ट फेस्टिवल 🧑‍🌾🥕 Masha and the Bear in Hindi 2025",
            "url": "https://www.youtube.com/watch?v=PeJo8AJJzNo",
            "duration": 3953.0,
            "view_count": 2388929,
            "uploader": "माशा एंड द बेयर",
            "category": "cartoons/masha_and_the_bear",
            "thumbnail": "https://i.ytimg.com/vi/PeJo8AJJzNo/hq720.jpg"
        },
        {
            "id": "oPpiXogTFzQ",
            "title": "माशा एंड द बेयर 👱‍♀️🐻 🍬 मीठी सी ज़िन्दगी 👄 पसंदीदा एपिसोड 🩷 Masha and the Bear in Hindi 2025",
            "url": "https://www.youtube.com/watch?v=oPpiXogTFzQ",
            "duration": 3912.0,
            "view_count": 3586103,
            "uploader": "माशा एंड द बेयर",
            "category": "cartoons/masha_and_the_bear",
            "thumbnail": "https://i.ytimg.com/vi/oPpiXogTFzQ/hq720.jpg"
        },
        {
            "id": "0KA74lzkiZU",
            "title": "सारा परिवार एक साथ | All family together ❤️✨ Masha and the Bear in Hindi 2025 👱‍♀️🐻 माशा एंड द बेयर",
            "url": "https://www.youtube.com/watch?v=0KA74lzkiZU",
            "duration": 7956.0,
            "view_count": 3398599,
            "uploader": "माशा एंड द बेयर",
            "category": "cartoons/masha_and_the_bear",
            "thumbnail": "https://i.ytimg.com/vi/0KA74lzkiZU/hq720.jpg"
        },
        {
            "id": "sr_byfSPM9A",
            "title": "आपके लिए ✨🌸 Masha and the Bear in Hindi 2025 👱‍♀️🐻 माशा एंड द बेयर",
            "url": "https://www.youtube.com/watch?v=sr_byfSPM9A",
            "duration": 4100.0,
            "view_count": 7107280,
            "uploader": "माशा एंड द बेयर",
            "category": "cartoons/masha_and_the_bear",
            "thumbnail": "https://i.ytimg.com/vi/sr_byfSPM9A/hq720.jpg"
        },
        {
            "id": "FxgKbkyct8Y",
            "title": "माशा एंड द बेयर 👱‍♀️🐻 💥2026 का नया एपिसोड💥 इतना भी आसान नहीं  🤨🦜 (एपिसोड 125)",
            "url": "https://www.youtube.com/watch?v=FxgKbkyct8Y",
            "duration": 808.0,
            "view_count": 2645545,
            "uploader": "माशा एंड द बेयर",
            "category": "cartoons/masha_and_the_bear",
            "thumbnail": "https://i.ytimg.com/vi/FxgKbkyct8Y/hq720.jpg"
        },
        {
            "id": "i0ZoN99JOyo",
            "title": "माशा एंड द बेयर 👱‍♀️🐻 नयी शुरुआत 🌸 Masha and the Bear in Hindi",
            "url": "https://www.youtube.com/watch?v=i0ZoN99JOyo",
            "duration": 1920.0,
            "view_count": 3732685,
            "uploader": "माशा एंड द बेयर",
            "category": "cartoons/masha_and_the_bear",
            "thumbnail": "https://i.ytimg.com/vi/i0ZoN99JOyo/hq720.jpg"
        },
        {
            "id": "OMK98vp9Yns",
            "title": "आपके लिए ✨🌸 Masha and the Bear in Hindi 2026 👱‍♀️🐻 माशा एंड द बेयर",
            "url": "https://www.youtube.com/watch?v=OMK98vp9Yns",
            "duration": 3748.0,
            "view_count": 1550194,
            "uploader": "माशा एंड द बेयर",
            "category": "cartoons/masha_and_the_bear",
            "thumbnail": "https://i.ytimg.com/vi/OMK98vp9Yns/hq720.jpg"
        },
        {
            "id": "R3XiSevgJ9c",
            "title": "किस्मत की टोकरी 🐟🎣🐱 नया एपिसोड 2025 👱‍♀️🐻 कार्टून का कलेक्शन 💥 माशा एंड द बेयर",
            "url": "https://www.youtube.com/watch?v=R3XiSevgJ9c",
            "duration": 4079.0,
            "view_count": 1859548,
            "uploader": "माशा एंड द बेयर",
            "category": "cartoons/masha_and_the_bear",
            "thumbnail": "https://i.ytimg.com/vi/R3XiSevgJ9c/hq720.jpg"
        },
        {
            "id": "7g-uyx-nuA8",
            "title": "आपके लिए ✨🌸 Masha and the Bear in Hindi 2025 👱‍♀️🐻 माशा एंड द बेयर",
            "url": "https://www.youtube.com/watch?v=7g-uyx-nuA8",
            "duration": 4292.0,
            "view_count": 3150576,
            "uploader": "माशा एंड द बेयर",
            "category": "cartoons/masha_and_the_bear",
            "thumbnail": "https://i.ytimg.com/vi/7g-uyx-nuA8/hq720.jpg"
        },
        {
            "id": "1DozlgDllBA",
            "title": "माशा एंड द बेयर 💥 नया एपिसोड 2024 👱‍♀️🐻 पास्ता का नाश्ता 🍝 ⛵ (एपिसोड 92)  कार्टून का कलेक्शन",
            "url": "https://www.youtube.com/watch?v=1DozlgDllBA",
            "duration": 4102.0,
            "view_count": 8458659,
            "uploader": "माशा एंड द बेयर",
            "category": "cartoons/masha_and_the_bear",
            "thumbnail": "https://i.ytimg.com/vi/1DozlgDllBA/hq720.jpg"
        },
        {
            "id": "RZw-yY9xq4Q",
            "title": "🔴 LIVE STREAM! TV 📺 माशा एंड द बेयर ✨ आपके लिए 🌸 Masha and the Bear in Hindi",
            "url": "https://www.youtube.com/watch?v=RZw-yY9xq4Q",
            "duration": 40455.0,
            "view_count": 254440,
            "uploader": "माशा एंड द बेयर",
            "category": "cartoons/masha_and_the_bear",
            "thumbnail": "https://i.ytimg.com/vi/RZw-yY9xq4Q/hq720.jpg"
        },
        {
            "id": "30VzH7nGBaw",
            "title": "माशा एंड द बेयर 👱‍♀️🐻 💥2025 का नया एपिसोड💥 नन्हा भेड़ 🐏 🤗 (एपिसोड 129)",
            "url": "https://www.youtube.com/watch?v=30VzH7nGBaw",
            "duration": 1969.0,
            "view_count": 8801042,
            "uploader": "माशा एंड द बेयर",
            "category": "cartoons/masha_and_the_bear",
            "thumbnail": "https://i.ytimg.com/vi/30VzH7nGBaw/hq720.jpg"
        },
        {
            "id": "YDhoIHgYYwo",
            "title": "Masha and the Bear 2025 🥄😋 Why Should We Eat Porridge? 🥣🍓 Best episodes cartoon collection 🎬",
            "url": "https://www.youtube.com/watch?v=YDhoIHgYYwo",
            "duration": 1219.0,
            "view_count": 89244116,
            "uploader": "Masha and The Bear",
            "category": "cartoons/masha_and_the_bear",
            "thumbnail": "https://i.ytimg.com/vi/YDhoIHgYYwo/hq720.jpg"
        },
        {
            "id": "igBkOMPYC-U",
            "title": "माशा एंड द बेयर 💥 2025 का नया एपिसोड💥 होली बूम! 🎨🎊 14 मार्च को आ रहा है!",
            "url": "https://www.youtube.com/watch?v=igBkOMPYC-U",
            "duration": 2667.0,
            "view_count": 7753003,
            "uploader": "माशा एंड द बेयर",
            "category": "cartoons/masha_and_the_bear",
            "thumbnail": "https://i.ytimg.com/vi/igBkOMPYC-U/hq720.jpg"
        },
        {
            "id": "iqwN3xzStJw",
            "title": "माशा एंड द बेयर 👱‍♀️🐻 💥2025 का नया एपिसोड💥 आग बुझाओ कमाल दिखाओ 🚒🔥 (एपिसोड 95)",
            "url": "https://www.youtube.com/watch?v=iqwN3xzStJw",
            "duration": 791.0,
            "view_count": 4252737,
            "uploader": "माशा एंड द बेयर",
            "category": "cartoons/masha_and_the_bear",
            "thumbnail": "https://i.ytimg.com/vi/iqwN3xzStJw/hq720.jpg"
        },
        {
            "id": "JWz-S2ZrWeQ",
            "title": "🔴 LIVE STREAM! माशा एंड द बेयर 🆕 नया एपिसोड 🐟 कला से बना कलाकार 🎨 Masha and the Bear in Hindi",
            "url": "https://www.youtube.com/watch?v=JWz-S2ZrWeQ",
            "duration": 40484.0,
            "view_count": 1745641,
            "uploader": "माशा एंड द बेयर",
            "category": "cartoons/masha_and_the_bear",
            "thumbnail": "https://i.ytimg.com/vi/JWz-S2ZrWeQ/hq720.jpg"
        },
        {
            "id": "9ZXaXJeo2nQ",
            "title": "माशा एंड द बेयर 👱‍♀️🐻 जीत का जोश🎾 संग्रह 45 ⏱ 30 मिनट Masha and the Bear in Hindi 2023",
            "url": "https://www.youtube.com/watch?v=9ZXaXJeo2nQ",
            "duration": 1967.0,
            "view_count": 24038266,
            "uploader": "माशा एंड द बेयर",
            "category": "cartoons/masha_and_the_bear",
            "thumbnail": "https://i.ytimg.com/vi/9ZXaXJeo2nQ/hq720.jpg"
        },
        {
            "id": "qHXBw0KYCWc",
            "title": "माशा एंड द बेयर 💥 पूरा एपिसोड 2025 👱‍♀️🐻 🎄 स्पेशल एपिसोड! ❄️कहानी बारह महीनो की 💙💥कार्टून का कलेक्शन",
            "url": "https://www.youtube.com/watch?v=qHXBw0KYCWc",
            "duration": 3256.0,
            "view_count": 18707254,
            "uploader": "माशा एंड द बेयर",
            "category": "cartoons/masha_and_the_bear",
            "thumbnail": "https://i.ytimg.com/vi/qHXBw0KYCWc/hq720.jpg"
        },
        {
            "id": "h2l3crdr6LU",
            "title": "माशा एंड द बेयर 👱‍♀️🐻 माशा की सबसे बढ़िया शरारतें 🎭😂 Masha and the Bear in Hindi 2025",
            "url": "https://www.youtube.com/watch?v=h2l3crdr6LU",
            "duration": 2726.0,
            "view_count": 7696693,
            "uploader": "माशा एंड द बेयर",
            "category": "cartoons/masha_and_the_bear",
            "thumbnail": "https://i.ytimg.com/vi/h2l3crdr6LU/hq720.jpg"
        },
        {
            "id": "_Ev8VHY2Eao",
            "title": "माशा एंड द बेयर 💥 नया एपिसोड 👱‍♀️🐻 खा लो, मज़ा आएगा! 📟🤪 कार्टून का कलेक्शन",
            "url": "https://www.youtube.com/watch?v=_Ev8VHY2Eao",
            "duration": 3842.0,
            "view_count": 53380880,
            "uploader": "माशा एंड द बेयर",
            "category": "cartoons/masha_and_the_bear",
            "thumbnail": "https://i.ytimg.com/vi/_Ev8VHY2Eao/hq720.jpg"
        },
        {
            "id": "eVlqdk5MZEU",
            "title": "माशा एंड द बेयर 💥 नया एपिसोड 2023 👱‍♀️🐻 बन जा निंजा 🐼🐱‍👤📺 कार्टून का कलेक्शन",
            "url": "https://www.youtube.com/watch?v=eVlqdk5MZEU",
            "duration": 3821.0,
            "view_count": 11871100,
            "uploader": "माशा एंड द बेयर",
            "category": "cartoons/masha_and_the_bear",
            "thumbnail": "https://i.ytimg.com/vi/eVlqdk5MZEU/hq720.jpg"
        },
        {
            "id": "gEbbHlMXE9Y",
            "title": "Masha and the Bear 2024 🎬 NEW EPISODE! 🎬 Best cartoon collection 🥔 Soup Pursuit 🥕🍲",
            "url": "https://www.youtube.com/watch?v=gEbbHlMXE9Y",
            "duration": 3965.0,
            "view_count": 214188452,
            "uploader": "Masha and The Bear",
            "category": "cartoons",
            "thumbnail": "https://i.ytimg.com/vi/gEbbHlMXE9Y/hq720.jpg"
        },
        {
            "id": "UUw3_3CwL3c",
            "title": "माशा एंड द बेयर 👱‍♀️🐻 माशा के पसंदीदा एपिसोड 🎀 ‍💕 Masha and the Bear in Hindi 2025",
            "url": "https://www.youtube.com/watch?v=UUw3_3CwL3c",
            "duration": 4033.0,
            "view_count": 10581969,
            "uploader": "माशा एंड द बेयर",
            "category": "cartoons/masha_and_the_bear",
            "thumbnail": "https://i.ytimg.com/vi/UUw3_3CwL3c/hq720.jpg"
        },
        {
            "id": "wLFJsrqIa0A",
            "title": "माशा एंड द बेयर 👱‍♀️🐻 💥2025 का नया एपिसोड💥 मिल बाट कर खाओ 🍍🐺 (एपिसोड 123)",
            "url": "https://www.youtube.com/watch?v=wLFJsrqIa0A",
            "duration": 1605.0,
            "view_count": 10911688,
            "uploader": "माशा एंड द बेयर",
            "category": "cartoons/masha_and_the_bear",
            "thumbnail": "https://i.ytimg.com/vi/wLFJsrqIa0A/hq720.jpg"
        },
        {
            "id": "eST3IoHOwBg",
            "title": "माशा एंड द बेयर 💥 नया एपिसोड 2025 👱‍♀️🐻 जैसी माँ, वैसी बेटी 👶🍼 कार्टून का कलेक्शन",
            "url": "https://www.youtube.com/watch?v=eST3IoHOwBg",
            "duration": 3984.0,
            "view_count": 4180174,
            "uploader": "माशा एंड द बेयर",
            "category": "cartoons/masha_and_the_bear",
            "thumbnail": "https://i.ytimg.com/vi/eST3IoHOwBg/hq720.jpg"
        },
        {
            "id": "eguEydMIbNY",
            "title": "माशा एंड द बेयर 😆🏠🤪घर के अंदर मस्ती🌞Masha and the Bear",
            "url": "https://www.youtube.com/watch?v=eguEydMIbNY",
            "duration": 1879.0,
            "view_count": 269244879,
            "uploader": "माशा एंड द बेयर",
            "category": "cartoons/masha_and_the_bear",
            "thumbnail": "https://i.ytimg.com/vi/eguEydMIbNY/hq720.jpg"
        },
        {
            "id": "FOYXNG8Qrp8",
            "title": "माशा एंड द बेयर 👱‍♀️🐻 💥2025 का नया एपिसोड💥 कुछ हटकर सोचो 📦 🎠 (एपिसोड 109)",
            "url": "https://www.youtube.com/watch?v=FOYXNG8Qrp8",
            "duration": 831.0,
            "view_count": 4934276,
            "uploader": "माशा एंड द बेयर",
            "category": "cartoons/masha_and_the_bear",
            "thumbnail": "https://i.ytimg.com/vi/FOYXNG8Qrp8/hq720.jpg"
        },
        {
            "id": "vOwpuS9Hx_Y",
            "title": "कलेक्शन बना पैशन  🍅😁 नया एपिसोड 2026 👱‍♀️🐻 कार्टून का कलेक्शन 💥 माशा एंड द बेयर",
            "url": "https://www.youtube.com/watch?v=vOwpuS9Hx_Y",
            "duration": 3947.0,
            "view_count": 1107683,
            "uploader": "माशा एंड द बेयर",
            "category": "cartoons/masha_and_the_bear",
            "thumbnail": "https://i.ytimg.com/vi/vOwpuS9Hx_Y/hq720.jpg"
        },
        {
            "id": "tu3bJOvwooY",
            "title": "⭐ TOP-10 2025 💥🔝 Masha and the Bear in Hindi 2025 👱‍♀️🐻 माशा एंड द बेयर",
            "url": "https://www.youtube.com/watch?v=tu3bJOvwooY",
            "duration": 4255.0,
            "view_count": 1011665,
            "uploader": "माशा एंड द बेयर",
            "category": "cartoons/masha_and_the_bear",
            "thumbnail": "https://i.ytimg.com/vi/tu3bJOvwooY/hq720.jpg"
        },
        {
            "id": "mn4iRP3--yw",
            "title": "माशा एंड द बेयर 🛬👱‍♀️ माशा के लिए एक आम दिन 🌞 संग्रह 11 ⏱ 1 घंटा Masha and the Bear",
            "url": "https://www.youtube.com/watch?v=mn4iRP3--yw",
            "duration": 3883.0,
            "view_count": 6474537,
            "uploader": "माशा एंड द बेयर",
            "category": "cartoons/masha_and_the_bear",
            "thumbnail": "https://i.ytimg.com/vi/mn4iRP3--yw/hq720.jpg"
        },
        {
            "id": "UvCLxK6TfOE",
            "title": "माशा एंड द बेयर 👱‍♀️🐻 सुंदरता या आतंक? 😜😈 Masha and the Bear in Hindi 2024",
            "url": "https://www.youtube.com/watch?v=UvCLxK6TfOE",
            "duration": 1934.0,
            "view_count": 9984318,
            "uploader": "माशा एंड द बेयर",
            "category": "cartoons/masha_and_the_bear",
            "thumbnail": "https://i.ytimg.com/vi/UvCLxK6TfOE/hq720.jpg"
        },
        {
            "id": "OixM_1vwP3E",
            "title": "माशा एंड द बेयर 💥जैम बनाने का दन🍓🍒संग्रह 3⏱ 30 मिनट",
            "url": "https://www.youtube.com/watch?v=OixM_1vwP3E",
            "duration": 1878.0,
            "view_count": 279170003,
            "uploader": "माशा एंड द बेयर",
            "category": "cartoons/masha_and_the_bear",
            "thumbnail": "https://i.ytimg.com/vi/OixM_1vwP3E/hq720.jpg"
        },
        {
            "id": "ngOkW26yOBw",
            "title": "माशा एंड द बेयर 👱‍♀️🐻 टीम बिल्डिंग👍 Masha and the Bear in Hindi",
            "url": "https://www.youtube.com/watch?v=ngOkW26yOBw",
            "duration": 2011.0,
            "view_count": 12171191,
            "uploader": "माशा एंड द बेयर",
            "category": "cartoons/masha_and_the_bear",
            "thumbnail": "https://i.ytimg.com/vi/ngOkW26yOBw/hq720.jpg"
        },
        {
            "id": "48jurJOLLxE",
            "title": "माशा एंड द बेयर 💥 पूरा एपिसोड 2024 👱‍♀️🐻 💐 स्पेशल एपिसोड! 👱🏻‍♀️ कहो चीज़! 📸 💥 कार्टून का कलेक्शन",
            "url": "https://www.youtube.com/watch?v=48jurJOLLxE",
            "duration": 3564.0,
            "view_count": 14939917,
            "uploader": "माशा एंड द बेयर",
            "category": "cartoons/masha_and_the_bear",
            "thumbnail": "https://i.ytimg.com/vi/48jurJOLLxE/hq720.jpg"
        },
        {
            "id": "mWXrM-OKBNQ",
            "title": "Masha and the Bear 🎉 NEW EPISODE 2025 😊 La-La-Lamb 🐑🥰 (Episode 129)",
            "url": "https://www.youtube.com/watch?v=mWXrM-OKBNQ",
            "duration": 816.0,
            "view_count": 175592670,
            "uploader": "Masha and The Bear",
            "category": "cartoons/masha_and_the_bear",
            "thumbnail": "https://i.ytimg.com/vi/mWXrM-OKBNQ/hq720.jpg"
        },
        {
            "id": "WUYWMLpvTEo",
            "title": "Masha and the Bear 🎬 NEW EPISODE! 🎬 Best cartoon collection 🤝🥰  Mind your manners",
            "url": "https://www.youtube.com/watch?v=WUYWMLpvTEo",
            "duration": 3908.0,
            "view_count": 138596592,
            "uploader": "Masha and The Bear",
            "category": "cartoons/masha_and_the_bear",
            "thumbnail": "https://i.ytimg.com/vi/WUYWMLpvTEo/hq720.jpg"
        },
        {
            "id": "9PM8dlphkrc",
            "title": "माशा एंड द बेयर 👱‍♀️🐻 💥2026 का नया एपिसोड💥 खुल जा सिम सिम 😅❌ (एपिसोड 144)",
            "url": "https://www.youtube.com/watch?v=9PM8dlphkrc",
            "duration": 2004.0,
            "view_count": 4868072,
            "uploader": "माशा एंड द बेयर",
            "category": "cartoons/masha_and_the_bear",
            "thumbnail": "https://i.ytimg.com/vi/9PM8dlphkrc/hq720.jpg"
        }
    ]
}