{
    "page": 103,
    "total_pages": 103,
    "total_items": 5125,
    "items": [
        {
            "id": "FHZaUVSYSXQ",
            "title": "Thumbelina | English Full Movie | Animation Adventure Family",
            "url": "https://www.youtube.com/watch?v=FHZaUVSYSXQ",
            "duration": 4760.0,
            "view_count": 2168252,
            "uploader": "GEM: Film Library",
            "category": "cartoons",
            "thumbnail": "https://i.ytimg.com/vi/FHZaUVSYSXQ/hq720.jpg"
        },
        {
            "id": "pzKJ-yhg9JY",
            "title": "Curious George 🐵 A Monkey's Duckling 🐵 Kids Cartoon 🐵 Kids Movies | Videos for Kids",
            "url": "https://www.youtube.com/watch?v=pzKJ-yhg9JY",
            "duration": 2413.0,
            "view_count": 25201603,
            "uploader": "Curious George Official",
            "category": "cartoons",
            "thumbnail": "https://i.ytimg.com/vi/pzKJ-yhg9JY/hq720.jpg"
        },
        {
            "id": "rzEKtgn67wg",
            "title": "Unicorn Academy FULL MOVIE❗ | Unicorn Academy 🦄 | Kids Movies 🎥",
            "url": "https://www.youtube.com/watch?v=rzEKtgn67wg",
            "duration": 4319.0,
            "view_count": 10420983,
            "uploader": "Unicorn Academy - Official Channel",
            "category": "cartoons",
            "thumbnail": "https://i.ytimg.com/vi/rzEKtgn67wg/hq720.jpg"
        },
        {
            "id": "Ik_QP4oA_Hg",
            "title": "Curious George 🐵 Maple Monkey Madness 🥞 Pancake Day! 🐵Kids Cartoon 🐵",
            "url": "https://www.youtube.com/watch?v=Ik_QP4oA_Hg",
            "duration": 1472.0,
            "view_count": 30525160,
            "uploader": "Curious George Official",
            "category": "cartoons",
            "thumbnail": "https://i.ytimg.com/vi/Ik_QP4oA_Hg/hq720.jpg"
        },
        {
            "id": "UebFEH3CBI8",
            "title": "The BFG (1989) | Full Movie for Kids | English | Remastered",
            "url": "https://www.youtube.com/watch?v=UebFEH3CBI8",
            "duration": 5266.0,
            "view_count": 3225002,
            "uploader": "Little Boat",
            "category": "cartoons",
            "thumbnail": "https://i.ytimg.com/vi/UebFEH3CBI8/hq720.jpg"
        },
        {
            "id": "e3EtgCCBjJ8",
            "title": "The Little Alien | FULL MOVIE | Alien Animation Family Action Adventure",
            "url": "https://www.youtube.com/watch?v=e3EtgCCBjJ8",
            "duration": 4838.0,
            "view_count": 58629,
            "uploader": "Shout! Studios",
            "category": "cartoons",
            "thumbnail": "https://i.ytimg.com/vi/e3EtgCCBjJ8/hq720.jpg"
        },
        {
            "id": "Aqk-5gvyHCM",
            "title": "Joseph: Beloved Son, Rejected Slave, Exalted Ruler (2015) | Full Movie",
            "url": "https://www.youtube.com/watch?v=Aqk-5gvyHCM",
            "duration": 5456.0,
            "view_count": 18058293,
            "uploader": "Vision Video",
            "category": "cartoons",
            "thumbnail": "https://i.ytimg.com/vi/Aqk-5gvyHCM/hq720.jpg"
        },
        {
            "id": "NIxmzVli_aY",
            "title": "The Land Before Time Full Episodes | The Great Egg Adventure | Kids Cartoon | Videos For Kids",
            "url": "https://www.youtube.com/watch?v=NIxmzVli_aY",
            "duration": 4079.0,
            "view_count": 6568434,
            "uploader": "The Land Before Time",
            "category": "cartoons",
            "thumbnail": "https://i.ytimg.com/vi/NIxmzVli_aY/hq720.jpg"
        },
        {
            "id": "GQLvRuN6Vb0",
            "title": "The GREAT Ant Flu | Antiks 🐜 | Action Cartoons For Kids",
            "url": "https://www.youtube.com/watch?v=GQLvRuN6Vb0",
            "duration": 6938.0,
            "view_count": 14407024,
            "uploader": "School of Action",
            "category": "cartoons",
            "thumbnail": "https://i.ytimg.com/vi/GQLvRuN6Vb0/hq720.jpg"
        },
        {
            "id": "72PGLvfJ7yQ",
            "title": "Inspector Rishi Full movie in Hindi 2026 top South movie ",
            "url": "https://www.youtube.com/watch?v=72PGLvfJ7yQ",
            "duration": 27237.0,
            "view_count": 1608,
            "uploader": "Snapgram",
            "category": "hindi",
            "thumbnail": "https://i.ytimg.com/vi/72PGLvfJ7yQ/hqdefault.jpg?sqp=-oaymwEcCOADEI4CSFXyq4qpAw4IARUAAIhCGAFwAcABBg==&rs=AOn4CLAVf2zk6Mo-Z4NWTo5zwkbwo11ADw",
            "added_date": "2026-04-16T07:30:57.603228Z",
            "source": "youtube"
        },
        {
            "id": "MKOj6nHOC0I",
            "title": "प्रिया बापट अभय महाजन सुपरहिट रोमँटिक मराठी मूवी \"लक-पती\" | New Marathi Romantic Movie",
            "url": "https://www.youtube.com/watch?v=MKOj6nHOC0I",
            "duration": 5649.0,
            "view_count": 46927,
            "uploader": "Dhamaal Marathi",
            "category": "marathi",
            "thumbnail": "https://i.ytimg.com/vi/MKOj6nHOC0I/hq720.jpg?sqp=-oaymwEcCNAFEJQDSFXyq4qpAw4IARUAAIhCGAFwAcABBg==&rs=AOn4CLBNwrENK8Ltl1M0CoF3aqtAwcoBbQ",
            "added_date": "2026-04-16T07:31:28.037633Z",
            "source": "youtube"
        },
        {
            "id": "KA4-3W9WXYA",
            "title": "100 FUNNIEST Videos of 2026 😂 Try Not To Laugh Challenge",
            "url": "https://www.youtube.com/watch?v=KA4-3W9WXYA",
            "duration": 1238.0,
            "view_count": 91164,
            "uploader": "Life Awesome",
            "category": "comedy",
            "thumbnail": "https://i.ytimg.com/vi/KA4-3W9WXYA/hq720.jpg?sqp=-oaymwEcCNAFEJQDSFXyq4qpAw4IARUAAIhCGAFwAcABBg==&rs=AOn4CLBoHHXr4a1ui_gEXAZLFYBRD0uGlA",
            "added_date": "2026-04-16T07:31:34.687861Z",
            "source": "youtube"
        },
        {
            "id": "iESzf2IPhFg",
            "title": "Try Not To Laugh 🤣 Top 100 Funniest Videos Ever 😂 | Funny Videos Compilation 2026 #114",
            "url": "https://www.youtube.com/watch?v=iESzf2IPhFg",
            "duration": 4201.0,
            "view_count": 66076,
            "uploader": "FMW - Funny Moments",
            "category": "comedy",
            "thumbnail": "https://i.ytimg.com/vi/iESzf2IPhFg/hq720.jpg?sqp=-oaymwEcCNAFEJQDSFXyq4qpAw4IARUAAIhCGAFwAcABBg==&rs=AOn4CLBshr63a-qgOAeYzS5fmSa1sYP2oA",
            "added_date": "2026-04-16T07:31:34.888186Z",
            "source": "youtube"
        },
        {
            "id": "EmQp0MbcCbQ",
            "title": "घर आये साले | Ghar Aaye Sale | Deepak Anish full Comedy 😂 ",
            "url": "https://www.youtube.com/watch?v=EmQp0MbcCbQ",
            "duration": 1302.0,
            "view_count": 636102,
            "uploader": "Deepak  Anish Comedy ",
            "category": "comedy",
            "thumbnail": "https://i.ytimg.com/vi/EmQp0MbcCbQ/hq720.jpg?sqp=-oaymwEcCNAFEJQDSFXyq4qpAw4IARUAAIhCGAFwAcABBg==&rs=AOn4CLD00dA9kAT54qgNEBHEwiglDajnVg",
            "added_date": "2026-04-16T07:31:35.088548Z",
            "source": "youtube"
        },
        {
            "id": "wHHJlJN4C4k",
            "title": "Very Special Trending Funny Comedy Video 2025 Amazing Injection Wala Doctor Comedy Video",
            "url": "https://www.youtube.com/watch?v=wHHJlJN4C4k",
            "duration": 0,
            "view_count": 0,
            "uploader": "Fun Tv 22",
            "category": "comedy",
            "thumbnail": "https://i.ytimg.com/vi/wHHJlJN4C4k/hq720.jpg?v=69e066d1&sqp=-oaymwEcCNAFEJQDSFXyq4qpAw4IARUAAIhCGAFwAcABBg==&rs=AOn4CLClH9IAcz--RtFBnMWePRlWKTt1yg",
            "added_date": "2026-04-16T07:31:35.288927Z",
            "source": "youtube"
        },
        {
            "id": "NomnkhcBchs",
            "title": "Brahmanandam As \"AAKU BHAI\" || Back 2 Back Hilarious Comedy Scenes || Volga Videos",
            "url": "https://www.youtube.com/watch?v=NomnkhcBchs",
            "duration": 1478.0,
            "view_count": 13010353,
            "uploader": "Volga Video",
            "category": "comedy",
            "thumbnail": "https://i.ytimg.com/vi/NomnkhcBchs/hq720.jpg?sqp=-oaymwEcCNAFEJQDSFXyq4qpAw4IARUAAIhCGAFwAcABBg==&rs=AOn4CLDxU4RZFxlvqfQYxu8iS5iUYlZgrg",
            "added_date": "2026-04-16T07:31:35.489269Z",
            "source": "youtube"
        },
        {
            "id": "bkI7Y9P3MV8",
            "title": "Try Not To Laugh 🤣 Top 100 Funniest Videos Ever 😂 | Funny Videos Compilation 2026 #111",
            "url": "https://www.youtube.com/watch?v=bkI7Y9P3MV8",
            "duration": 4197.0,
            "view_count": 109239,
            "uploader": "FMW - Funny Moments",
            "category": "comedy",
            "thumbnail": "https://i.ytimg.com/vi/bkI7Y9P3MV8/hq720.jpg?sqp=-oaymwEcCNAFEJQDSFXyq4qpAw4IARUAAIhCGAFwAcABBg==&rs=AOn4CLCBx5GA_I1hX_xdzn16Sd4JXBRvSg",
            "added_date": "2026-04-16T07:31:35.889957Z",
            "source": "youtube"
        },
        {
            "id": "Og49lNO29Vw",
            "title": "FUNNY VIDEOS🤣 Try Not To Laugh Challenge (IMPOSSIBLE 🥹) - You Laugh You Lose Part 130!!",
            "url": "https://www.youtube.com/watch?v=Og49lNO29Vw",
            "duration": 1345.0,
            "view_count": 223659,
            "uploader": "Laugh Trapped",
            "category": "comedy",
            "thumbnail": "https://i.ytimg.com/vi/Og49lNO29Vw/hq720.jpg?sqp=-oaymwEcCNAFEJQDSFXyq4qpAw4IARUAAIhCGAFwAcABBg==&rs=AOn4CLCQqkF1ZHhIQ5qTRtX8VDABtDKQKg",
            "added_date": "2026-04-16T07:31:36.290678Z",
            "source": "youtube"
        },
        {
            "id": "bkuAMSBwrMQ",
            "title": "VELLAM |Fun Da |Malayalam Comedy |",
            "url": "https://www.youtube.com/watch?v=bkuAMSBwrMQ",
            "duration": 995.0,
            "view_count": 656463,
            "uploader": "Fun Da.",
            "category": "comedy",
            "thumbnail": "https://i.ytimg.com/vi/bkuAMSBwrMQ/hq720.jpg?sqp=-oaymwEcCNAFEJQDSFXyq4qpAw4IARUAAIhCGAFwAcABBg==&rs=AOn4CLDfNSKen-XesNmgU66Mu36ruH7Rrg",
            "added_date": "2026-04-16T07:31:36.491022Z",
            "source": "youtube"
        },
        {
            "id": "fYEpal78eSc",
            "title": "Brahmi Timing Peaks 😂 Surekha Vani Fun Moments | Sarrainodu Highlights Comedy Scenes | Telugu Comedy",
            "url": "https://www.youtube.com/watch?v=fYEpal78eSc",
            "duration": 814.0,
            "view_count": 829599,
            "uploader": "Sun Gemini Comedy",
            "category": "comedy",
            "thumbnail": "https://i.ytimg.com/vi/fYEpal78eSc/hq720.jpg?sqp=-oaymwEcCNAFEJQDSFXyq4qpAw4IARUAAIhCGAFwAcABBg==&rs=AOn4CLCK39_QXhvWoezi1pvT4G7zYIU8Vg",
            "added_date": "2026-04-16T07:31:36.691398Z",
            "source": "youtube"
        },
        {
            "id": "Pm_BRinhvUU",
            "title": "Theeradha Vilaiyattu Pillai - Back to Back Comedy Scenes 😂 | Vishal | Tamil Comedy | Adithya TV",
            "url": "https://www.youtube.com/watch?v=Pm_BRinhvUU",
            "duration": 1360.0,
            "view_count": 209442,
            "uploader": "Adithya TV",
            "category": "comedy",
            "thumbnail": "https://i.ytimg.com/vi/Pm_BRinhvUU/hq720.jpg?sqp=-oaymwEcCNAFEJQDSFXyq4qpAw4IARUAAIhCGAFwAcABBg==&rs=AOn4CLAwT1a0z0nMv0xnFQDBqW1YGKE2eg",
            "added_date": "2026-04-16T07:31:36.891745Z",
            "source": "youtube"
        },
        {
            "id": "ZyCYfyDXN4g",
            "title": "GIRAFFE MAAVA KANNADA SHORT MOVIE  FULL VIDEO OUT NOW | ಜಿರಾಫೆಮಾವ | jiraffe mava  | PNG STUDIOS ",
            "url": "https://www.youtube.com/watch?v=ZyCYfyDXN4g",
            "duration": 1090.0,
            "view_count": 2784019,
            "uploader": "PNG Studios Kannada",
            "category": "comedy",
            "thumbnail": "https://i.ytimg.com/vi/ZyCYfyDXN4g/hq720.jpg?sqp=-oaymwEcCNAFEJQDSFXyq4qpAw4IARUAAIhCGAFwAcABBg==&rs=AOn4CLCXT4fQDATgt9-aZiXeHrNlJyHu1Q",
            "added_date": "2026-04-16T07:31:37.092115Z",
            "source": "youtube"
        },
        {
            "id": "m9deiDv8hik",
            "title": "Anniversary Preparations | Taarak Mehta Ka Ooltah Chashmah| Full Ep 4685 | 15 Apr 2026 | New Episode",
            "url": "https://www.youtube.com/watch?v=m9deiDv8hik",
            "duration": 1225.0,
            "view_count": 422904,
            "uploader": "Taarak Mehta Ka Ooltah Chashmah Episodes",
            "category": "taarak_mehta",
            "thumbnail": "https://i.ytimg.com/vi/m9deiDv8hik/hq720.jpg?sqp=-oaymwEcCNAFEJQDSFXyq4qpAw4IARUAAIhCGAFwAcABBg==&rs=AOn4CLBAR4sn3Gw8Zw82Ebmh_rReKwU8UQ",
            "added_date": "2026-04-16T07:31:40.167198Z",
            "source": "youtube"
        },
        {
            "id": "XxvRRlS1GXE",
            "title": "कविता लिखने के लिए Bhide डूबा गहरी सोच में | Taarak Mehta Ka Ooltah Chashmah | Pyar Ki Pariksha",
            "url": "https://www.youtube.com/watch?v=XxvRRlS1GXE",
            "duration": 3390.0,
            "view_count": 13513,
            "uploader": "Taarak Mehta Ka Ooltah Chashmah Episodes",
            "category": "taarak_mehta",
            "thumbnail": "https://i.ytimg.com/vi/XxvRRlS1GXE/hq720.jpg?sqp=-oaymwEcCNAFEJQDSFXyq4qpAw4IARUAAIhCGAFwAcABBg==&rs=AOn4CLBrHv6gg9HY4WGczvJpz3yTz2iNtA",
            "added_date": "2026-04-16T07:31:40.367498Z",
            "source": "youtube"
        },
        {
            "id": "eDHf35LPe5Q",
            "title": "Sodhi Calls For A Meeting | Taarak Mehta Ka Ooltah Chashmah | Full Episode",
            "url": "https://www.youtube.com/watch?v=eDHf35LPe5Q",
            "duration": 1208.0,
            "view_count": 1262,
            "uploader": "Taarak Mehta Ka Ooltah Chashmah Episodes",
            "category": "taarak_mehta",
            "thumbnail": "https://i.ytimg.com/vi/eDHf35LPe5Q/hq720.jpg?sqp=-oaymwEcCNAFEJQDSFXyq4qpAw4IARUAAIhCGAFwAcABBg==&rs=AOn4CLCq-CJfxqeVgfNDhU_L1iTnUsdWUQ",
            "added_date": "2026-04-16T07:31:42.571638Z",
            "source": "youtube"
        }
    ]
}