{
    "page": 50,
    "total_pages": 103,
    "total_items": 5125,
    "items": [
        {
            "id": "5sahh6qaaTs",
            "title": "Yam Hain Hum - याम हैं हम - Episode 6 - 22nd December 2014",
            "url": "https://www.youtube.com/watch?v=5sahh6qaaTs",
            "duration": 1201.0,
            "view_count": 1446459,
            "uploader": "Sony SAB",
            "category": "yam_hain_hum",
            "thumbnail": "https://i.ytimg.com/vi/5sahh6qaaTs/hqdefault.jpg"
        },
        {
            "id": "6UW9dXlbAZ4",
            "title": "क्यों होना पड़ा यमराज को अस्पताल में दाखिल | यम है हम | Yam Hain Ham | Ep 158",
            "url": "https://www.youtube.com/watch?v=6UW9dXlbAZ4",
            "duration": 1164.0,
            "view_count": 211300,
            "uploader": "भोला भंडारी",
            "category": "yam_hain_hum",
            "thumbnail": "https://i.ytimg.com/vi/6UW9dXlbAZ4/hq720.jpg"
        },
        {
            "id": "-vKZKot7v84",
            "title": "यमराज ने करवाई जब श्रीदेवी को यमलोक की सैर | यम है हम | Yam Hain Ham | Episode 40",
            "url": "https://www.youtube.com/watch?v=-vKZKot7v84",
            "duration": 1107.0,
            "view_count": 247070,
            "uploader": "भोला भंडारी",
            "category": "yam_hain_hum",
            "thumbnail": "https://i.ytimg.com/vi/-vKZKot7v84/hq720.jpg"
        },
        {
            "id": "KmDQVNGPkgA",
            "title": "यमराज के सामने आया पृथ्वीलोक का नकली यमराज | Yam Hain Hum | यम हैं हम | Full Episode 32",
            "url": "https://www.youtube.com/watch?v=KmDQVNGPkgA",
            "duration": 1173.0,
            "view_count": 1873679,
            "uploader": "Indian Drama",
            "category": "yam_hain_hum",
            "thumbnail": "https://i.ytimg.com/vi/KmDQVNGPkgA/hq720.jpg"
        },
        {
            "id": "l8U56UeK4hM",
            "title": "कैसे मिलेगी चित्रगुप्त जी को उड़ते हुए Airoplane में Entry? | Yam Hain Hum | यम है हम | Full Ep 84",
            "url": "https://www.youtube.com/watch?v=l8U56UeK4hM",
            "duration": 1212.0,
            "view_count": 2763602,
            "uploader": "Desi Drama",
            "category": "yam_hain_hum",
            "thumbnail": "https://i.ytimg.com/vi/l8U56UeK4hM/hq720.jpg"
        },
        {
            "id": "-mU-tj4S7Js",
            "title": "Yam Hain Hum - यम हैं हम - Episode 31 - 9th October, 2017",
            "url": "https://www.youtube.com/watch?v=-mU-tj4S7Js",
            "duration": 1226.0,
            "view_count": 294031,
            "uploader": "Sony PAL",
            "category": "yam_hain_hum",
            "thumbnail": "https://i.ytimg.com/vi/-mU-tj4S7Js/hq720.jpg"
        },
        {
            "id": "hzl_9eRNeYY",
            "title": "Avatar: The Last Airbender S1 | All Episodes | Back to Back",
            "url": "https://www.youtube.com/watch?v=hzl_9eRNeYY",
            "duration": 27196.0,
            "view_count": 5703382,
            "uploader": "Sonic Gang",
            "category": "cartoons/avatar",
            "thumbnail": "https://i.ytimg.com/vi/hzl_9eRNeYY/hq720.jpg"
        },
        {
            "id": "-pSqebZsBzs",
            "title": "Avatar: The Last Airbender S2 | 🔴 Live Stream | All Episodes | Back to Back",
            "url": "https://www.youtube.com/watch?v=-pSqebZsBzs",
            "duration": 34732.0,
            "view_count": 3721606,
            "uploader": "Sonic Gang",
            "category": "cartoons/avatar",
            "thumbnail": "https://i.ytimg.com/vi/-pSqebZsBzs/hq720.jpg"
        },
        {
            "id": "7HCpeObcXME",
            "title": "Shikshik Diwas - Bandbudh Aur Budbak New Episode - Funny Hindi Cartoon For Kids",
            "url": "https://www.youtube.com/watch?v=7HCpeObcXME",
            "duration": 607.0,
            "view_count": 23460522,
            "uploader": "KidZ",
            "category": "cartoons/bandbudh_aur_budbak",
            "thumbnail": "https://i.ytimg.com/vi/7HCpeObcXME/hq720.jpg"
        },
        {
            "id": "uJXNupHFKwQ",
            "title": "Baarish Lallantap - Bandbudh Aur Budbak New Episode - Funny Hindi Cartoon For Kids",
            "url": "https://www.youtube.com/watch?v=uJXNupHFKwQ",
            "duration": 609.0,
            "view_count": 232610644,
            "uploader": "KidZ",
            "category": "cartoons/bandbudh_aur_budbak",
            "thumbnail": "https://i.ytimg.com/vi/uJXNupHFKwQ/hq720.jpg"
        },
        {
            "id": "9zSRUDDjEgU",
            "title": "EP - 18 / 26 - Bandbudh Aur Budbak - Lallantop Memories - Funny Hindi Kids Cartoon - Zee Kids",
            "url": "https://www.youtube.com/watch?v=9zSRUDDjEgU",
            "duration": 3711.0,
            "view_count": 8469831,
            "uploader": "KidZ",
            "category": "cartoons/bandbudh_aur_budbak",
            "thumbnail": "https://i.ytimg.com/vi/9zSRUDDjEgU/hq720.jpg"
        },
        {
            "id": "Q6Wb0NKskJE",
            "title": "Bandbudh Aur Budbak - New Epi - 64 - Sher Pe Savasher Funny Hindi Cartoon For Kids - Zee Kids",
            "url": "https://www.youtube.com/watch?v=Q6Wb0NKskJE",
            "duration": 621.0,
            "view_count": 13709916,
            "uploader": "KidZ",
            "category": "cartoons/bandbudh_aur_budbak",
            "thumbnail": "https://i.ytimg.com/vi/Q6Wb0NKskJE/hq720.jpg"
        },
        {
            "id": "1SnCWu3XzD0",
            "title": "Kala Akshar Bhains Barabar - Bandbudh Aur Budbak New Episode - Funny Hindi Cartoon For Kids",
            "url": "https://www.youtube.com/watch?v=1SnCWu3XzD0",
            "duration": 609.0,
            "view_count": 20492663,
            "uploader": "KidZ",
            "category": "cartoons/bandbudh_aur_budbak",
            "thumbnail": "https://i.ytimg.com/vi/1SnCWu3XzD0/hq720.jpg"
        },
        {
            "id": "nSsF3I2rnFA",
            "title": "Kuda Bhojan - Bandbudh Aur Budbak New Episode - Funny Hindi Cartoon For Kids",
            "url": "https://www.youtube.com/watch?v=nSsF3I2rnFA",
            "duration": 618.0,
            "view_count": 33735654,
            "uploader": "KidZ",
            "category": "cartoons/bandbudh_aur_budbak",
            "thumbnail": "https://i.ytimg.com/vi/nSsF3I2rnFA/hq720.jpg"
        },
        {
            "id": "s9NOCkY99hk",
            "title": "Angrezi Ka Aakraman - Bandbudh Aur Budbak New Episode - Funny Hindi Cartoon For Kids",
            "url": "https://www.youtube.com/watch?v=s9NOCkY99hk",
            "duration": 602.0,
            "view_count": 2819859,
            "uploader": "KidZ",
            "category": "cartoons/bandbudh_aur_budbak",
            "thumbnail": "https://i.ytimg.com/vi/s9NOCkY99hk/hq720.jpg"
        },
        {
            "id": "Y-MBfu02DKQ",
            "title": "Project Newton - Bandbudh Aur Budbak New Episode - Funny Hindi Cartoon For Kids",
            "url": "https://www.youtube.com/watch?v=Y-MBfu02DKQ",
            "duration": 640.0,
            "view_count": 24203872,
            "uploader": "KidZ",
            "category": "cartoons/bandbudh_aur_budbak",
            "thumbnail": "https://i.ytimg.com/vi/Y-MBfu02DKQ/hq720.jpg"
        },
        {
            "id": "PQB4XAPbuhk",
            "title": "Khazane Ki Paheli - Bandbudh Aur Budbak New Episode - Funny Hindi Cartoon For Kids",
            "url": "https://www.youtube.com/watch?v=PQB4XAPbuhk",
            "duration": 613.0,
            "view_count": 9243997,
            "uploader": "KidZ",
            "category": "cartoons/bandbudh_aur_budbak",
            "thumbnail": "https://i.ytimg.com/vi/PQB4XAPbuhk/hq720.jpg"
        },
        {
            "id": "7HI_zX7LfdY",
            "title": "Maalamaal Kangaal - Bandbudh Aur Budbak New Episode - Funny Hindi Cartoon For Kids",
            "url": "https://www.youtube.com/watch?v=7HI_zX7LfdY",
            "duration": 628.0,
            "view_count": 21226623,
            "uploader": "KidZ",
            "category": "cartoons/bandbudh_aur_budbak",
            "thumbnail": "https://i.ytimg.com/vi/7HI_zX7LfdY/hq720.jpg"
        },
        {
            "id": "dwVvV4hfa88",
            "title": "Christmas Tree - Bandbudh Aur Budbak New Episode - Funny Hindi Cartoon For Kids",
            "url": "https://www.youtube.com/watch?v=dwVvV4hfa88",
            "duration": 627.0,
            "view_count": 18074985,
            "uploader": "KidZ",
            "category": "cartoons/bandbudh_aur_budbak",
            "thumbnail": "https://i.ytimg.com/vi/dwVvV4hfa88/hq720.jpg"
        },
        {
            "id": "HYEOILg14M0",
            "title": "Churan Ka Chakkar - Bandbudh Aur Budbak New Episode - Funny Hindi Cartoon For Kids",
            "url": "https://www.youtube.com/watch?v=HYEOILg14M0",
            "duration": 635.0,
            "view_count": 21301343,
            "uploader": "KidZ",
            "category": "cartoons/bapu",
            "thumbnail": "https://i.ytimg.com/vi/HYEOILg14M0/hq720.jpg"
        },
        {
            "id": "o9esTmzx7Y8",
            "title": "Apna Sapna Funny Funny - Bandbudh Aur Budbak New Episode - Funny Hindi Cartoon For Kids",
            "url": "https://www.youtube.com/watch?v=o9esTmzx7Y8",
            "duration": 663.0,
            "view_count": 11421822,
            "uploader": "KidZ",
            "category": "cartoons/bandbudh_aur_budbak",
            "thumbnail": "https://i.ytimg.com/vi/o9esTmzx7Y8/hqdefault.jpg"
        },
        {
            "id": "F0GOyxwrijo",
            "title": "Bandbudh Aur Budbak - New Epi - 138 - Ac Ki Aisi Ki Taisi Funny Hindi Cartoon For Kids - Zee Kids",
            "url": "https://www.youtube.com/watch?v=F0GOyxwrijo",
            "duration": 612.0,
            "view_count": 43609954,
            "uploader": "KidZ",
            "category": "cartoons/bandbudh_aur_budbak",
            "thumbnail": "https://i.ytimg.com/vi/F0GOyxwrijo/hq720.jpg"
        },
        {
            "id": "vdqpfTRzwdU",
            "title": "Main Yahan, Tu Wahan - Bandbudh Aur Budbak New Episode - Funny Hindi Cartoon For Kids",
            "url": "https://www.youtube.com/watch?v=vdqpfTRzwdU",
            "duration": 625.0,
            "view_count": 13153044,
            "uploader": "KidZ",
            "category": "cartoons/bapu",
            "thumbnail": "https://i.ytimg.com/vi/vdqpfTRzwdU/hq720.jpg"
        },
        {
            "id": "ZA20HZZMkis",
            "title": "EP - 1 / 26 - Bandbudh Aur Budbak - Lallantop Memories - Funny Hindi Kids Cartoon - Zee Kids",
            "url": "https://www.youtube.com/watch?v=ZA20HZZMkis",
            "duration": 3719.0,
            "view_count": 36902557,
            "uploader": "KidZ",
            "category": "cartoons/bandbudh_aur_budbak",
            "thumbnail": "https://i.ytimg.com/vi/ZA20HZZMkis/hq720.jpg"
        },
        {
            "id": "EiY32XFYku8",
            "title": "Chashma Ka Karishma - Bandbudh Aur Budbak New Episode - Funny Hindi Cartoon For Kids",
            "url": "https://www.youtube.com/watch?v=EiY32XFYku8",
            "duration": 603.0,
            "view_count": 17696246,
            "uploader": "KidZ",
            "category": "cartoons/bandbudh_aur_budbak",
            "thumbnail": "https://i.ytimg.com/vi/EiY32XFYku8/hq720.jpg"
        },
        {
            "id": "dUzBhsTmxss",
            "title": "Bandbudh Aur Budbak - New Epi - 14 - Chor Ki Zubaan Kaali Funny Hindi Cartoon For Kids - KidZ",
            "url": "https://www.youtube.com/watch?v=dUzBhsTmxss",
            "duration": 634.0,
            "view_count": 16262455,
            "uploader": "KidZ",
            "category": "cartoons/bandbudh_aur_budbak",
            "thumbnail": "https://i.ytimg.com/vi/dUzBhsTmxss/hq720.jpg"
        },
        {
            "id": "wKzf4WaZwXs",
            "title": "Jhingalala Tera Mooh Kala - Bandbudh Aur Budbak New Episode - Funny Hindi Cartoon For Kids",
            "url": "https://www.youtube.com/watch?v=wKzf4WaZwXs",
            "duration": 624.0,
            "view_count": 13958571,
            "uploader": "KidZ",
            "category": "cartoons/bandbudh_aur_budbak",
            "thumbnail": "https://i.ytimg.com/vi/wKzf4WaZwXs/hq720.jpg"
        },
        {
            "id": "2TZIsgYybKA",
            "title": "EP - 14 / 26 - Bandbudh Aur Budbak - Lallantop Memories - Funny Hindi Kids Cartoon - Zee Kids",
            "url": "https://www.youtube.com/watch?v=2TZIsgYybKA",
            "duration": 3703.0,
            "view_count": 14055154,
            "uploader": "KidZ",
            "category": "cartoons/bandbudh_aur_budbak",
            "thumbnail": "https://i.ytimg.com/vi/2TZIsgYybKA/hq720.jpg"
        },
        {
            "id": "5QaYtjMBEwI",
            "title": "Tod Mod Ke Jod - Bandbudh Aur Budbak New Episode - Funny Hindi Cartoon For Kids",
            "url": "https://www.youtube.com/watch?v=5QaYtjMBEwI",
            "duration": 611.0,
            "view_count": 10458945,
            "uploader": "KidZ",
            "category": "cartoons/bandbudh_aur_budbak",
            "thumbnail": "https://i.ytimg.com/vi/5QaYtjMBEwI/hq720.jpg"
        },
        {
            "id": "Dc0QLSnFawA",
            "title": "EP - 3 / 26 - Bandbudh Aur Budbak - Lallantop Memories - Funny Hindi Kids Cartoon - Zee Kids",
            "url": "https://www.youtube.com/watch?v=Dc0QLSnFawA",
            "duration": 3760.0,
            "view_count": 8666022,
            "uploader": "KidZ",
            "category": "cartoons/bandbudh_aur_budbak",
            "thumbnail": "https://i.ytimg.com/vi/Dc0QLSnFawA/hq720.jpg"
        },
        {
            "id": "r3wGaduKrx4",
            "title": "Kuk-Doo-Koo - Bandbudh Aur Budbak New Episode - Funny Hindi Cartoon For Kids",
            "url": "https://www.youtube.com/watch?v=r3wGaduKrx4",
            "duration": 625.0,
            "view_count": 7682281,
            "uploader": "KidZ",
            "category": "cartoons/bandbudh_aur_budbak",
            "thumbnail": "https://i.ytimg.com/vi/r3wGaduKrx4/hq720.jpg"
        },
        {
            "id": "LIwiXBBa9WI",
            "title": "Bandbudh Aur Budbak - Hindi Comedy Stories - Cartoons for Kids - Funny Kids Videos - KidZ",
            "url": "https://www.youtube.com/watch?v=LIwiXBBa9WI",
            "duration": 1232.0,
            "view_count": 4705176,
            "uploader": "KidZ",
            "category": "cartoons/bandbudh_aur_budbak",
            "thumbnail": "https://i.ytimg.com/vi/LIwiXBBa9WI/hq720.jpg"
        },
        {
            "id": "0_U5JER1izA",
            "title": "Chhoona Matt - Bandbudh Aur Budbak New Episode - Funny Hindi Cartoon For Kids",
            "url": "https://www.youtube.com/watch?v=0_U5JER1izA",
            "duration": 616.0,
            "view_count": 9668463,
            "uploader": "KidZ",
            "category": "cartoons/bandbudh_aur_budbak",
            "thumbnail": "https://i.ytimg.com/vi/0_U5JER1izA/hq720.jpg"
        },
        {
            "id": "P3udWgiz6dc",
            "title": "Sachai Ka Pedh - Bandbudh Aur Budbak New Episode - Funny Hindi Cartoon For Kids",
            "url": "https://www.youtube.com/watch?v=P3udWgiz6dc",
            "duration": 613.0,
            "view_count": 21499475,
            "uploader": "KidZ",
            "category": "cartoons/bandbudh_aur_budbak",
            "thumbnail": "https://i.ytimg.com/vi/P3udWgiz6dc/hq720.jpg"
        },
        {
            "id": "WZAOYVRDrCI",
            "title": "Yantra-Tantra Ka Satyanaash - Bandbudh Aur Budbak New Episode - Funny Hindi Cartoon For Kids",
            "url": "https://www.youtube.com/watch?v=WZAOYVRDrCI",
            "duration": 629.0,
            "view_count": 21555692,
            "uploader": "KidZ",
            "category": "cartoons/bandbudh_aur_budbak",
            "thumbnail": "https://i.ytimg.com/vi/WZAOYVRDrCI/hq720.jpg"
        },
        {
            "id": "l2iAXp6KvTU",
            "title": "Bandbudh Aur Budbak - New Epi - 130 - Pol Khol Funny Hindi Cartoon For Kids - Zee Kids",
            "url": "https://www.youtube.com/watch?v=l2iAXp6KvTU",
            "duration": 626.0,
            "view_count": 33336568,
            "uploader": "KidZ",
            "category": "cartoons/bandbudh_aur_budbak",
            "thumbnail": "https://i.ytimg.com/vi/l2iAXp6KvTU/hq720.jpg"
        },
        {
            "id": "Jd5HOlkjzS8",
            "title": "Bandbudh Aur Budbak - New Epi - 15 - Gyan Ki Jaasusi Funny Hindi Cartoon For Kids - KidZ",
            "url": "https://www.youtube.com/watch?v=Jd5HOlkjzS8",
            "duration": 631.0,
            "view_count": 12707628,
            "uploader": "KidZ",
            "category": "cartoons/bandbudh_aur_budbak",
            "thumbnail": "https://i.ytimg.com/vi/Jd5HOlkjzS8/hq720.jpg"
        },
        {
            "id": "iMwOESb8ipc",
            "title": "Note Main Khot - Bandbudh Aur Budbak New Episode - Funny Hindi Cartoon For Kids",
            "url": "https://www.youtube.com/watch?v=iMwOESb8ipc",
            "duration": 620.0,
            "view_count": 11413345,
            "uploader": "KidZ",
            "category": "cartoons/bandbudh_aur_budbak",
            "thumbnail": "https://i.ytimg.com/vi/iMwOESb8ipc/hq720.jpg"
        },
        {
            "id": "VC8vu1ero4o",
            "title": "Do Bandar School Ke Andar - Bandbudh Aur Budbak New Episode - Funny Hindi Cartoon For Kids",
            "url": "https://www.youtube.com/watch?v=VC8vu1ero4o",
            "duration": 609.0,
            "view_count": 3964192,
            "uploader": "KidZ",
            "category": "cartoons/bapu",
            "thumbnail": "https://i.ytimg.com/vi/VC8vu1ero4o/hq720.jpg"
        },
        {
            "id": "4NQW4zJQfn4",
            "title": "Dramebaazi - Bandbudh Aur Budbak New Episode - Funny Hindi Cartoon For Kids",
            "url": "https://www.youtube.com/watch?v=4NQW4zJQfn4",
            "duration": 624.0,
            "view_count": 8302832,
            "uploader": "KidZ",
            "category": "cartoons/bandbudh_aur_budbak",
            "thumbnail": "https://i.ytimg.com/vi/4NQW4zJQfn4/hq720.jpg"
        },
        {
            "id": "emp3RSDk2a4",
            "title": "Kalam Ka Kamaal - Bandbudh Aur Budbak New Episode - Funny Hindi Cartoon For Kids",
            "url": "https://www.youtube.com/watch?v=emp3RSDk2a4",
            "duration": 607.0,
            "view_count": 54378902,
            "uploader": "KidZ",
            "category": "cartoons/bapu",
            "thumbnail": "https://i.ytimg.com/vi/emp3RSDk2a4/hq720.jpg"
        },
        {
            "id": "C9Y8I2oBRvs",
            "title": "EP - 26 / 26 - Bandbudh Aur Budbak - Lallantop Memories - Funny Hindi Kids Cartoon - Zee Kids",
            "url": "https://www.youtube.com/watch?v=C9Y8I2oBRvs",
            "duration": 3207.0,
            "view_count": 14835229,
            "uploader": "KidZ",
            "category": "cartoons/bandbudh_aur_budbak",
            "thumbnail": "https://i.ytimg.com/vi/C9Y8I2oBRvs/hq720.jpg"
        },
        {
            "id": "cvwUQBwXd6I",
            "title": "Haddi Pe Hungama - Bandbudh Aur Budbak New Episode - Funny Hindi Cartoon For Kids",
            "url": "https://www.youtube.com/watch?v=cvwUQBwXd6I",
            "duration": 622.0,
            "view_count": 31040682,
            "uploader": "KidZ",
            "category": "cartoons/bandbudh_aur_budbak",
            "thumbnail": "https://i.ytimg.com/vi/cvwUQBwXd6I/hq720.jpg"
        },
        {
            "id": "FB2AlFPLjEQ",
            "title": "Dadi Maa Ke Nuskhe - Bandbudh Aur Budbak New Episode - Funny Hindi Cartoon For Kids",
            "url": "https://www.youtube.com/watch?v=FB2AlFPLjEQ",
            "duration": 669.0,
            "view_count": 36313221,
            "uploader": "KidZ",
            "category": "cartoons/bandbudh_aur_budbak",
            "thumbnail": "https://i.ytimg.com/vi/FB2AlFPLjEQ/hq720.jpg"
        },
        {
            "id": "ygOmsVfZ9Hg",
            "title": "Mann Ki Baat - Bandbudh Aur Budbak New Episode - Funny Hindi Cartoon For Kids",
            "url": "https://www.youtube.com/watch?v=ygOmsVfZ9Hg",
            "duration": 624.0,
            "view_count": 12930915,
            "uploader": "KidZ",
            "category": "cartoons/bandbudh_aur_budbak",
            "thumbnail": "https://i.ytimg.com/vi/ygOmsVfZ9Hg/hq720.jpg"
        },
        {
            "id": "yDvpnqqB-5Q",
            "title": "Jeeva Bana Monitor - Bandbudh Aur Budbak New Episode - Funny Hindi Cartoon For Kids",
            "url": "https://www.youtube.com/watch?v=yDvpnqqB-5Q",
            "duration": 610.0,
            "view_count": 17740610,
            "uploader": "KidZ",
            "category": "cartoons/bandbudh_aur_budbak",
            "thumbnail": "https://i.ytimg.com/vi/yDvpnqqB-5Q/hq720.jpg"
        },
        {
            "id": "z1wPypha1B8",
            "title": "Jaadui Chirag - Bandbudh Aur Budbak New Episode - Funny Hindi Cartoon For Kids",
            "url": "https://www.youtube.com/watch?v=z1wPypha1B8",
            "duration": 623.0,
            "view_count": 15663153,
            "uploader": "KidZ",
            "category": "cartoons/bandbudh_aur_budbak",
            "thumbnail": "https://i.ytimg.com/vi/z1wPypha1B8/hq720.jpg"
        },
        {
            "id": "q-bcqTAMy6s",
            "title": "EP - 17 / 26 - Bandbudh Aur Budbak - Lallantop Memories - Funny Hindi Kids Cartoon - Zee Kids",
            "url": "https://www.youtube.com/watch?v=q-bcqTAMy6s",
            "duration": 3752.0,
            "view_count": 9541953,
            "uploader": "KidZ",
            "category": "cartoons/bandbudh_aur_budbak",
            "thumbnail": "https://i.ytimg.com/vi/q-bcqTAMy6s/hq720.jpg"
        },
        {
            "id": "9RarEiwklcw",
            "title": "Bandbudh Aur Budbak - New Epi - 143 - Do Bawarchi Funny Hindi Cartoon For Kids - Zee Kids",
            "url": "https://www.youtube.com/watch?v=9RarEiwklcw",
            "duration": 621.0,
            "view_count": 46239512,
            "uploader": "KidZ",
            "category": "cartoons/bandbudh_aur_budbak",
            "thumbnail": "https://i.ytimg.com/vi/9RarEiwklcw/hq720.jpg"
        },
        {
            "id": "vAFvVvGOOOM",
            "title": "EP - 13 / 26 - Bandbudh Aur Budbak - Lallantop Memories - Funny Hindi Kids Cartoon - Zee Kids",
            "url": "https://www.youtube.com/watch?v=vAFvVvGOOOM",
            "duration": 3768.0,
            "view_count": 34189684,
            "uploader": "KidZ",
            "category": "cartoons/bandbudh_aur_budbak",
            "thumbnail": "https://i.ytimg.com/vi/vAFvVvGOOOM/hq720.jpg"
        }
    ]
}