{
    "page": 54,
    "total_pages": 103,
    "total_items": 5125,
    "items": [
        {
            "id": "c8NNVdhomgM",
            "title": "क्या है इस गंजा City की Story? | Chacha Bhatija | Hindi Cartoon | Cartoons For Kids | #spot",
            "url": "https://www.youtube.com/watch?v=c8NNVdhomgM",
            "duration": 1292.0,
            "view_count": 1955710,
            "uploader": "Wow Cartoons",
            "category": "cartoons/chacha_bhatija",
            "thumbnail": "https://i.ytimg.com/vi/c8NNVdhomgM/hq720.jpg"
        },
        {
            "id": "ppktzUAfZmQ",
            "title": "Chacha Bhatija | Sona Chor | Hindi Cartoons for Kids | Wow Kidz Comedy",
            "url": "https://www.youtube.com/watch?v=ppktzUAfZmQ",
            "duration": 689.0,
            "view_count": 3157888,
            "uploader": "Wow Kidz Comedy",
            "category": "cartoons/chacha_bhatija",
            "thumbnail": "https://i.ytimg.com/vi/ppktzUAfZmQ/hq720.jpg"
        },
        {
            "id": "k5CqR8MU6cY",
            "title": "Chacha Bhatija | Invisible Thieves | Hindi Cartoons for Kids | Wow Kidz Comedy",
            "url": "https://www.youtube.com/watch?v=k5CqR8MU6cY",
            "duration": 669.0,
            "view_count": 2338816,
            "uploader": "Wow Kidz Comedy",
            "category": "cartoons/chacha_bhatija",
            "thumbnail": "https://i.ytimg.com/vi/k5CqR8MU6cY/hq720.jpg"
        },
        {
            "id": "-vRm32ZBYKw",
            "title": "Train में कैसे हुई चोरी? | Chacha Bhatija | Hindi Cartoon | Cartoons For Kids | #spot",
            "url": "https://www.youtube.com/watch?v=-vRm32ZBYKw",
            "duration": 1370.0,
            "view_count": 3524498,
            "uploader": "Wow Cartoons",
            "category": "cartoons/chacha_bhatija",
            "thumbnail": "https://i.ytimg.com/vi/-vRm32ZBYKw/hq720.jpg"
        },
        {
            "id": "pD4TrI8xCFg",
            "title": "Diwar Ke Arpar Goli 🧱😲 | Chacha Bhatija New Episode | Kids Cartoons | Wow Kidz Comedy",
            "url": "https://www.youtube.com/watch?v=pD4TrI8xCFg",
            "duration": 680.0,
            "view_count": 22490,
            "uploader": "Wow Kidz Comedy",
            "category": "cartoons/chacha_bhatija",
            "thumbnail": "https://i.ytimg.com/vi/pD4TrI8xCFg/hq720.jpg"
        },
        {
            "id": "pfwCqp_rqBM",
            "title": "Chacha Bhatija Cartoon in Hindi | Hogaye Buddhe |Ep 77| New Cartoons | Wow Kidz Comedy",
            "url": "https://www.youtube.com/watch?v=pfwCqp_rqBM",
            "duration": 704.0,
            "view_count": 3959459,
            "uploader": "Wow Kidz Comedy",
            "category": "cartoons/chacha_bhatija",
            "thumbnail": "https://i.ytimg.com/vi/pfwCqp_rqBM/hq720.jpg"
        },
        {
            "id": "PaF6Ty71vTo",
            "title": "Chacha Bhatija In Hindi- EP46 | Hunger Apple | Funny Videos For Kids | Wow Kidz Comedy",
            "url": "https://www.youtube.com/watch?v=PaF6Ty71vTo",
            "duration": 686.0,
            "view_count": 3225534,
            "uploader": "Wow Kidz Comedy",
            "category": "cartoons/chacha_bhatija",
            "thumbnail": "https://i.ytimg.com/vi/PaF6Ty71vTo/hq720.jpg"
        },
        {
            "id": "fFmNy0QvAVw",
            "title": "Chacha Bhatija Cartoon in Hindi | New Compilation - 45 | New Cartoons | Wow Kidz Comedy",
            "url": "https://www.youtube.com/watch?v=fFmNy0QvAVw",
            "duration": 1367.0,
            "view_count": 9315949,
            "uploader": "Wow Kidz Comedy",
            "category": "cartoons/chacha_bhatija",
            "thumbnail": "https://i.ytimg.com/vi/fFmNy0QvAVw/hq720.jpg"
        },
        {
            "id": "YXObPguqvmw",
            "title": "Chacha Bhatija Cartoon in Hindi | New Compilation - 10 | New Cartoons | Wow Kidz Comedy",
            "url": "https://www.youtube.com/watch?v=YXObPguqvmw",
            "duration": 1298.0,
            "view_count": 8788837,
            "uploader": "Wow Kidz Comedy",
            "category": "cartoons/chacha_bhatija",
            "thumbnail": "https://i.ytimg.com/vi/YXObPguqvmw/hq720.jpg"
        },
        {
            "id": "LP_Xd0xtSzs",
            "title": "Chacha Bhatija Cartoon in Hindi | Roti Sabzi Pizza Corner |Ep 70| New Cartoons | Wow Kidz Comedy",
            "url": "https://www.youtube.com/watch?v=LP_Xd0xtSzs",
            "duration": 710.0,
            "view_count": 11192186,
            "uploader": "Wow Kidz Comedy",
            "category": "cartoons/chacha_bhatija",
            "thumbnail": "https://i.ytimg.com/vi/LP_Xd0xtSzs/hq720.jpg"
        },
        {
            "id": "Mxg68fIbnOM",
            "title": "Furfurinagar में आई चूहों की बारात | Chacha Bhatija | Hindi Cartoon | Cartoons For Kids | #spot",
            "url": "https://www.youtube.com/watch?v=Mxg68fIbnOM",
            "duration": 1312.0,
            "view_count": 1004988,
            "uploader": "Wow Cartoons",
            "category": "cartoons/chacha_bhatija",
            "thumbnail": "https://i.ytimg.com/vi/Mxg68fIbnOM/hq720.jpg"
        },
        {
            "id": "ndgt-nLJIlQ",
            "title": "Petrol का Tank hogaya चोरी! | Cartoons for Kids | Bandookni Ki Comedy | Wow Kidz Comedy | #spot",
            "url": "https://www.youtube.com/watch?v=ndgt-nLJIlQ",
            "duration": 1356.0,
            "view_count": 1213876,
            "uploader": "Wow Kidz Comedy",
            "category": "cartoons/chacha_bhatija",
            "thumbnail": "https://i.ytimg.com/vi/ndgt-nLJIlQ/hq720.jpg"
        },
        {
            "id": "qZ6jackvX-g",
            "title": "Chacha Bhatija | Kisi Ke Haath Na Aayega Phislu Chor | Hindi Cartoons for Kids | Wow Kidz Comedy",
            "url": "https://www.youtube.com/watch?v=qZ6jackvX-g",
            "duration": 1162.0,
            "view_count": 2610200,
            "uploader": "Wow Kidz Comedy",
            "category": "cartoons/chacha_bhatija",
            "thumbnail": "https://i.ytimg.com/vi/qZ6jackvX-g/hq720.jpg"
        },
        {
            "id": "Olvo4A_L61o",
            "title": "Chacha Bhatija | Compilation 44 | Funny Animated Stories | Wow Kidz",
            "url": "https://www.youtube.com/watch?v=Olvo4A_L61o",
            "duration": 1379.0,
            "view_count": 9844133,
            "uploader": "WowKidz",
            "category": "cartoons/chacha_bhatija",
            "thumbnail": "https://i.ytimg.com/vi/Olvo4A_L61o/hq720.jpg"
        },
        {
            "id": "SbKOtKd08b0",
            "title": "Chacha Bhatija Double Dhamaka (Full Movie) | Cartoons For Kids | Movie | WowKidz Movies | #spot",
            "url": "https://www.youtube.com/watch?v=SbKOtKd08b0",
            "duration": 3232.0,
            "view_count": 7114930,
            "uploader": "Wow Kidz Movie",
            "category": "cartoons/chacha_bhatija",
            "thumbnail": "https://i.ytimg.com/vi/SbKOtKd08b0/hq720.jpg"
        },
        {
            "id": "e3fBUXfc6Cc",
            "title": "Chacha Bhatija In Hindi- EP24 |Special Pencil| Funny Videos For Kids | Wow Kidz Comedy",
            "url": "https://www.youtube.com/watch?v=e3fBUXfc6Cc",
            "duration": 724.0,
            "view_count": 25360730,
            "uploader": "Wow Kidz Comedy",
            "category": "cartoons/chacha_bhatija",
            "thumbnail": "https://i.ytimg.com/vi/e3fBUXfc6Cc/hq720.jpg"
        },
        {
            "id": "J6MiHJ2I8NU",
            "title": "Chacha Bhatija Cartoon in Hindi | Duplicate Agency | Ep 84 | New Cartoons | Wow Kidz Comedy",
            "url": "https://www.youtube.com/watch?v=J6MiHJ2I8NU",
            "duration": 719.0,
            "view_count": 5104328,
            "uploader": "Wow Kidz Comedy",
            "category": "cartoons/chacha_bhatija",
            "thumbnail": "https://i.ytimg.com/vi/J6MiHJ2I8NU/hq720.jpg"
        },
        {
            "id": "_jQQAhvLkdY",
            "title": "Chalakh चोर पकड़ा जाएगा? | Chacha Bhatija | Hindi Cartoon For Kids | Funny Cartoon | #spot",
            "url": "https://www.youtube.com/watch?v=_jQQAhvLkdY",
            "duration": 1378.0,
            "view_count": 1843356,
            "uploader": "Wow Cartoons",
            "category": "cartoons/chacha_bhatija",
            "thumbnail": "https://i.ytimg.com/vi/_jQQAhvLkdY/hq720.jpg"
        },
        {
            "id": "fi2-8YabBj4",
            "title": "Chacha Bhatija In Hindi- EP16 | Jaanwaron Ki Bhasha | Funny Videos For Kids | Wow Kidz Comedy",
            "url": "https://www.youtube.com/watch?v=fi2-8YabBj4",
            "duration": 716.0,
            "view_count": 3087753,
            "uploader": "Wow Kidz Comedy",
            "category": "cartoons/chacha_bhatija",
            "thumbnail": "https://i.ytimg.com/vi/fi2-8YabBj4/hq720.jpg"
        },
        {
            "id": "nB52-0YXQNA",
            "title": "Chacha Bhatija | Nakli Minister | Hindi Cartoons for Kids | Wow Kidz Comedy",
            "url": "https://www.youtube.com/watch?v=nB52-0YXQNA",
            "duration": 675.0,
            "view_count": 512522,
            "uploader": "Wow Kidz Comedy",
            "category": "cartoons/chacha_bhatija",
            "thumbnail": "https://i.ytimg.com/vi/nB52-0YXQNA/hq720.jpg"
        },
        {
            "id": "7FBQuaJzVCM",
            "title": "Chacha Bhatija | Kanjoos Number 01 | Animated Stories | Wow Kidz Comedy",
            "url": "https://www.youtube.com/watch?v=7FBQuaJzVCM",
            "duration": 680.0,
            "view_count": 1541024,
            "uploader": "Wow Kidz Comedy",
            "category": "cartoons/chacha_bhatija",
            "thumbnail": "https://i.ytimg.com/vi/7FBQuaJzVCM/hq720.jpg"
        },
        {
            "id": "Wi6IJxlU-BY",
            "title": "Chacha Bhatija Cartoon in Hindi | New Compilation - 32 | New Cartoons | Wow Kidz Comedy",
            "url": "https://www.youtube.com/watch?v=Wi6IJxlU-BY",
            "duration": 1272.0,
            "view_count": 2508657,
            "uploader": "Wow Kidz Comedy",
            "category": "cartoons/chacha_bhatija",
            "thumbnail": "https://i.ytimg.com/vi/Wi6IJxlU-BY/hq720.jpg"
        },
        {
            "id": "avpEK79mxoo",
            "title": "Chacha Bhatija Cartoon in Hindi | New Compilation - 47 | New Cartoons | Wow Kidz Comedy",
            "url": "https://www.youtube.com/watch?v=avpEK79mxoo",
            "duration": 1392.0,
            "view_count": 5909099,
            "uploader": "Wow Kidz Comedy",
            "category": "cartoons/chacha_bhatija",
            "thumbnail": "https://i.ytimg.com/vi/avpEK79mxoo/hq720.jpg"
        },
        {
            "id": "UmEfywlh_Bc",
            "title": "Pani Ki Chori - Chacha Bhatija - Wowkidz - 3D Animation Cartoon for Kids - As seen on Hungama TV",
            "url": "https://www.youtube.com/watch?v=UmEfywlh_Bc",
            "duration": 804.0,
            "view_count": 2633637,
            "uploader": "WowKidz",
            "category": "cartoons/chacha_bhatija",
            "thumbnail": "https://i.ytimg.com/vi/UmEfywlh_Bc/hq720.jpg"
        },
        {
            "id": "3JTlZROYvzo",
            "title": "Jogawar बना Rubber Man | Chacha Bhatija | Hindi Cartoon For Kids | Funny Cartoon | #spot",
            "url": "https://www.youtube.com/watch?v=3JTlZROYvzo",
            "duration": 1348.0,
            "view_count": 823912,
            "uploader": "Wow Cartoons",
            "category": "cartoons/chacha_bhatija",
            "thumbnail": "https://i.ytimg.com/vi/3JTlZROYvzo/hq720.jpg"
        },
        {
            "id": "567Dzno24a8",
            "title": "Danka ओर Dholki का Saboot | Cartoons for Kids | Bandookni Ki Comedy | Wow Kidz Comedy | #spot",
            "url": "https://www.youtube.com/watch?v=567Dzno24a8",
            "duration": 1384.0,
            "view_count": 1216116,
            "uploader": "Wow Kidz Comedy",
            "category": "cartoons/chacha_bhatija",
            "thumbnail": "https://i.ytimg.com/vi/567Dzno24a8/hq720.jpg"
        },
        {
            "id": "eVZZCrmllpo",
            "title": "Chacha Bhatija Cartoon in Hindi | New Compilation - 18 | New Cartoons | Wow Kidz Comedy",
            "url": "https://www.youtube.com/watch?v=eVZZCrmllpo",
            "duration": 1320.0,
            "view_count": 3018719,
            "uploader": "Wow Kidz Comedy",
            "category": "cartoons/chacha_bhatija",
            "thumbnail": "https://i.ytimg.com/vi/eVZZCrmllpo/hq720.jpg"
        },
        {
            "id": "Aw2949HJv60",
            "title": "New Cartoon Show | Chacha Bhatija | Wow Kidz | Hindi Cartoons For Kids | Roti Sabzi Pizza Corner",
            "url": "https://www.youtube.com/watch?v=Aw2949HJv60",
            "duration": 710.0,
            "view_count": 30514327,
            "uploader": "WowKidz",
            "category": "cartoons/chacha_bhatija",
            "thumbnail": "https://i.ytimg.com/vi/Aw2949HJv60/hq720.jpg"
        },
        {
            "id": "a-xxKWBA_YE",
            "title": "Chacha Bhatija Cartoon in Hindi | New Compilation - 21 | New Cartoons | Wow Kidz Comedy",
            "url": "https://www.youtube.com/watch?v=a-xxKWBA_YE",
            "duration": 1349.0,
            "view_count": 1050309,
            "uploader": "Wow Kidz Comedy",
            "category": "cartoons/chacha_bhatija",
            "thumbnail": "https://i.ytimg.com/vi/a-xxKWBA_YE/hq720.jpg"
        },
        {
            "id": "fvS_HG_jvdo",
            "title": "Chacha Bhatija Cartoon in Hindi | New Compilation - 01 | New Cartoons | Wow Kidz Comedy",
            "url": "https://www.youtube.com/watch?v=fvS_HG_jvdo",
            "duration": 1250.0,
            "view_count": 3846437,
            "uploader": "Wow Kidz Comedy",
            "category": "cartoons/chacha_bhatija",
            "thumbnail": "https://i.ytimg.com/vi/fvS_HG_jvdo/hq720.jpg"
        },
        {
            "id": "yH0_nBmri6M",
            "title": "Chacha Bhatija In Hindi- EP34 | Chacha Bana Scientist | Funny Videos For Kids | Wow Kidz Comedy",
            "url": "https://www.youtube.com/watch?v=yH0_nBmri6M",
            "duration": 729.0,
            "view_count": 4114682,
            "uploader": "Wow Kidz Comedy",
            "category": "cartoons/chacha_bhatija",
            "thumbnail": "https://i.ytimg.com/vi/yH0_nBmri6M/hq720.jpg"
        },
        {
            "id": "Qsg1_qk4bu0",
            "title": "Chacha Bhatija In Hindi- EP15 | Surprise Party | Funny Videos For Kids | Wow Kidz Comedy",
            "url": "https://www.youtube.com/watch?v=Qsg1_qk4bu0",
            "duration": 708.0,
            "view_count": 5093620,
            "uploader": "Wow Kidz Comedy",
            "category": "cartoons/chacha_bhatija",
            "thumbnail": "https://i.ytimg.com/vi/Qsg1_qk4bu0/hq720.jpg"
        },
        {
            "id": "JkqLq1qmcTw",
            "title": "Bhatija सबसे बड़ा Khiladi! | Cartoons for Kids | Bandookni Ki Comedy | Wow Kidz Comedy | #spot",
            "url": "https://www.youtube.com/watch?v=JkqLq1qmcTw",
            "duration": 1285.0,
            "view_count": 2407792,
            "uploader": "Wow Kidz Comedy",
            "category": "cartoons/chacha_bhatija",
            "thumbnail": "https://i.ytimg.com/vi/JkqLq1qmcTw/hq720.jpg"
        },
        {
            "id": "J9KZg6SgbNg",
            "title": "Chacha Bhatija Cartoon in Hindi | New Compilation - 19 | New Cartoons | Wow Kidz Comedy",
            "url": "https://www.youtube.com/watch?v=J9KZg6SgbNg",
            "duration": 1255.0,
            "view_count": 3519178,
            "uploader": "Wow Kidz Comedy",
            "category": "cartoons/chacha_bhatija",
            "thumbnail": "https://i.ytimg.com/vi/J9KZg6SgbNg/hq720.jpg"
        },
        {
            "id": "eWAF9noftCU",
            "title": "Chacha Bhatija Cartoon in Hindi | Bottle Mein Jinn |Ep 73| New Cartoons | Wow Kidz Comedy",
            "url": "https://www.youtube.com/watch?v=eWAF9noftCU",
            "duration": 737.0,
            "view_count": 6874024,
            "uploader": "Wow Kidz Comedy",
            "category": "cartoons/chacha_bhatija",
            "thumbnail": "https://i.ytimg.com/vi/eWAF9noftCU/hq720.jpg"
        },
        {
            "id": "SozUM5138Qg",
            "title": "Chacha Bhatija | Compilation 28 | Funny Animated Stories | Wow Kidz",
            "url": "https://www.youtube.com/watch?v=SozUM5138Qg",
            "duration": 1349.0,
            "view_count": 2081621,
            "uploader": "WowKidz",
            "category": "cartoons/chacha_bhatija",
            "thumbnail": "https://i.ytimg.com/vi/SozUM5138Qg/hq720.jpg"
        },
        {
            "id": "hqmQzH984AY",
            "title": "Chacha Bhatija Cartoon in Hindi | Yamraj Ki Dharti Yatra | Ep 68 | New Cartoons | Wow Kidz Comedy",
            "url": "https://www.youtube.com/watch?v=hqmQzH984AY",
            "duration": 745.0,
            "view_count": 6688479,
            "uploader": "Wow Kidz Comedy",
            "category": "cartoons/chacha_bhatija",
            "thumbnail": "https://i.ytimg.com/vi/hqmQzH984AY/hq720.jpg"
        },
        {
            "id": "BkqEIs9QlBc",
            "title": "Chacha Bhatija | New Compilation - 23 | Cartoons For Kids | Hindi Cartoons | #spot",
            "url": "https://www.youtube.com/watch?v=BkqEIs9QlBc",
            "duration": 911.0,
            "view_count": 1064310,
            "uploader": "Wow Cartoons",
            "category": "cartoons/chacha_bhatija",
            "thumbnail": "https://i.ytimg.com/vi/BkqEIs9QlBc/hq720.jpg"
        },
        {
            "id": "ogB-MeeiVNI",
            "title": "Chacha और Bhatija का Bhangda Competition | Chacha Bhatija | Hindi Cartoon | Funny Cartoon | #spot",
            "url": "https://www.youtube.com/watch?v=ogB-MeeiVNI",
            "duration": 1325.0,
            "view_count": 405563,
            "uploader": "Wow Cartoons",
            "category": "cartoons/chacha_bhatija",
            "thumbnail": "https://i.ytimg.com/vi/ogB-MeeiVNI/hq720.jpg"
        },
        {
            "id": "yljlMqkhvRw",
            "title": "Chacha Bhatija | Chacha Don | Comedy Cartoons for Kids | Wow Kidz Comedy | #spot",
            "url": "https://www.youtube.com/watch?v=yljlMqkhvRw",
            "duration": 682.0,
            "view_count": 638494,
            "uploader": "Wow Kidz Comedy",
            "category": "cartoons/chacha_bhatija",
            "thumbnail": "https://i.ytimg.com/vi/yljlMqkhvRw/hq720.jpg"
        },
        {
            "id": "_eYEkzgHZzE",
            "title": "Sone Ka Mukut (Full Movie) | Chacha Bhatija Movies | Cartoons For Kids | Movie | WowKidz Movies",
            "url": "https://www.youtube.com/watch?v=_eYEkzgHZzE",
            "duration": 3232.0,
            "view_count": 2613648,
            "uploader": "Wow Kidz Movie",
            "category": "cartoons/chacha_bhatija",
            "thumbnail": "https://i.ytimg.com/vi/_eYEkzgHZzE/hq720.jpg"
        },
        {
            "id": "3duEkH2AVqQ",
            "title": "Chacha Bhatija In Hindi- EP42 | Chacha's New Business | Funny Videos For Kids | Wow Kidz Comedy",
            "url": "https://www.youtube.com/watch?v=3duEkH2AVqQ",
            "duration": 761.0,
            "view_count": 9248351,
            "uploader": "Wow Kidz Comedy",
            "category": "cartoons/chacha_bhatija",
            "thumbnail": "https://i.ytimg.com/vi/3duEkH2AVqQ/hq720.jpg"
        },
        {
            "id": "DnGSCAEHLkI",
            "title": "Rock Climbing Ka Game | Cartoon Chacha Bhatija | Cartoons For Kids | Kahaniya | #spot",
            "url": "https://www.youtube.com/watch?v=DnGSCAEHLkI",
            "duration": 1146.0,
            "view_count": 1985636,
            "uploader": "Wow Cartoons",
            "category": "cartoons/chacha_bhatija",
            "thumbnail": "https://i.ytimg.com/vi/DnGSCAEHLkI/hq720.jpg"
        },
        {
            "id": "Th4Q4YYmVI4",
            "title": "Chacha Bhatija Cartoon in Hindi | New Compilation - 15 | New Cartoons | Wow Kidz Comedy",
            "url": "https://www.youtube.com/watch?v=Th4Q4YYmVI4",
            "duration": 1285.0,
            "view_count": 9958135,
            "uploader": "Wow Kidz Comedy",
            "category": "cartoons/chacha_bhatija",
            "thumbnail": "https://i.ytimg.com/vi/Th4Q4YYmVI4/hq720.jpg"
        },
        {
            "id": "0x-96YxfvRo",
            "title": "Chacha और Bhatija Khau चोर को पकड़ Paenge? | Chacha Bhatija | Hindi Cartoon | Funny Cartoon | #spot",
            "url": "https://www.youtube.com/watch?v=0x-96YxfvRo",
            "duration": 1233.0,
            "view_count": 1569004,
            "uploader": "Wow Cartoons",
            "category": "cartoons/chacha_bhatija",
            "thumbnail": "https://i.ytimg.com/vi/0x-96YxfvRo/hq720.jpg"
        },
        {
            "id": "YBvwOk6MRqA",
            "title": "Chacha Bhatija (1977) Full Hindi Movie | Dharmendra, Hema Malini, Randhir Kapoor",
            "url": "https://www.youtube.com/watch?v=YBvwOk6MRqA",
            "duration": 9915.0,
            "view_count": 14756039,
            "uploader": "Hindi Movies",
            "category": "cartoons/chacha_bhatija",
            "thumbnail": "https://i.ytimg.com/vi/YBvwOk6MRqA/hq720.jpg"
        },
        {
            "id": "rqGrUo70cNs",
            "title": "कौन हैं ये Dildaar Chor? | Cartoons for Kids | Bandookni Ki Comedy | Wow Kidz Comedy | #spot",
            "url": "https://www.youtube.com/watch?v=rqGrUo70cNs",
            "duration": 1333.0,
            "view_count": 1361096,
            "uploader": "Wow Kidz Comedy",
            "category": "cartoons/chacha_bhatija",
            "thumbnail": "https://i.ytimg.com/vi/rqGrUo70cNs/hq720.jpg"
        },
        {
            "id": "XMrj5W1Qki4",
            "title": "Chacha का Happy Birthday!  | Cartoons for Kids | Bandookni Ki Comedy | Wow Kidz Comedy | #spot",
            "url": "https://www.youtube.com/watch?v=XMrj5W1Qki4",
            "duration": 1274.0,
            "view_count": 2380107,
            "uploader": "Wow Kidz Comedy",
            "category": "cartoons/chacha_bhatija",
            "thumbnail": "https://i.ytimg.com/vi/XMrj5W1Qki4/hq720.jpg"
        },
        {
            "id": "W0b-7WfOuq0",
            "title": "Chacha Bhatija Cartoon in Hindi | Baccha Number One | New Cartoons | Wow Kidz Comedy",
            "url": "https://www.youtube.com/watch?v=W0b-7WfOuq0",
            "duration": 691.0,
            "view_count": 3029964,
            "uploader": "Wow Kidz Comedy",
            "category": "cartoons/chacha_bhatija",
            "thumbnail": "https://i.ytimg.com/vi/W0b-7WfOuq0/hq720.jpg"
        },
        {
            "id": "gpl68cS_B3k",
            "title": "Chacha Bhatija Cartoon in Hindi | Kabbadi Pratiyogita | Ep 59 | New Cartoons | Wow Kidz Comedy",
            "url": "https://www.youtube.com/watch?v=gpl68cS_B3k",
            "duration": 744.0,
            "view_count": 5628986,
            "uploader": "Wow Kidz Comedy",
            "category": "cartoons/chacha_bhatija",
            "thumbnail": "https://i.ytimg.com/vi/gpl68cS_B3k/hq720.jpg"
        }
    ]
}