{
    "page": 38,
    "total_pages": 103,
    "total_items": 5125,
    "items": [
        {
            "id": "w0r2CGovQJw",
            "title": "Seeru Full Movie (Tamil) | Jiiva | Riya Suman |  Varun | #trending #movie #vijay",
            "url": "https://www.youtube.com/watch?v=w0r2CGovQJw",
            "duration": 6176.0,
            "view_count": 319217,
            "uploader": "AandP Groups",
            "category": "tamil",
            "thumbnail": "https://i.ytimg.com/vi/w0r2CGovQJw/hq720.jpg"
        },
        {
            "id": "v38WPJ2eP4w",
            "title": "Chennai 600028 | Full Movie In Tamil [HD] | Jai | Shiva | Premji | Premgi Amaren | redcarpet",
            "url": "https://www.youtube.com/watch?v=v38WPJ2eP4w",
            "duration": 8490.0,
            "view_count": 637839,
            "uploader": "Red Carpet Tamil Movies",
            "category": "tamil",
            "thumbnail": "https://i.ytimg.com/vi/v38WPJ2eP4w/hq720.jpg"
        },
        {
            "id": "E13LdbFn8-8",
            "title": "Vaashi new tamil movies 2022 | Keerthy Suresh | Tamil Full Movie 2022",
            "url": "https://www.youtube.com/watch?v=E13LdbFn8-8",
            "duration": 6517.0,
            "view_count": 147918,
            "uploader": "RED HIRO MOVIES",
            "category": "tamil",
            "thumbnail": "https://i.ytimg.com/vi/E13LdbFn8-8/hq720.jpg"
        },
        {
            "id": "aq4BpUPcHFY",
            "title": "Ghilli | 4K Mega Action Full Movie | கில்லி  | Vijay | Trisha | Prakashraj | Dharani | Ayngaran",
            "url": "https://www.youtube.com/watch?v=aq4BpUPcHFY",
            "duration": 9540.0,
            "view_count": 3035391,
            "uploader": "Ayngaran",
            "category": "tamil",
            "thumbnail": "https://i.ytimg.com/vi/aq4BpUPcHFY/hq720.jpg?sqp=-oaymwEcCNAFEJQDSFXyq4qpAw4IARUAAIhCGAFwAcABBg==&rs=AOn4CLDwm1Zog7622Bc3p_gYtLgtlwWlLA",
            "added_date": "2026-04-16T07:31:08.369142Z",
            "source": "youtube"
        },
        {
            "id": "rojhDI5Me-I",
            "title": "Nirangal Moondru | Exclusive 4K FULL Movie | நிறங்கள் மூன்று | Atharvaa | Sarathkumar | Rahman",
            "url": "https://www.youtube.com/watch?v=rojhDI5Me-I",
            "duration": 7165.0,
            "view_count": 3743169,
            "uploader": "Ayngaran",
            "category": "tamil",
            "thumbnail": "https://i.ytimg.com/vi/rojhDI5Me-I/hq720.jpg?sqp=-oaymwEcCNAFEJQDSFXyq4qpAw4IARUAAIhCGAFwAcABBg==&rs=AOn4CLAO78h57z_wAfUeXrWlXArC7xutsQ",
            "added_date": "2026-04-16T07:31:08.569532Z",
            "source": "youtube"
        },
        {
            "id": "Mkag_Sd6Pro",
            "title": "Vijay Deverakonda & Rashmika Mandanna Tamil Super Hit Full Movie || Nithya Menon || Kollywood Films",
            "url": "https://www.youtube.com/watch?v=Mkag_Sd6Pro",
            "duration": 6987.0,
            "view_count": 3666936,
            "uploader": "Kollywood Films",
            "category": "tamil",
            "thumbnail": "https://i.ytimg.com/vi/Mkag_Sd6Pro/hq720.jpg"
        },
        {
            "id": "nGUXS3MWvs0",
            "title": "Mercury Pookkal - Tamil Full Movie 🎬 | Lovers Day Special | Srikanth | Meera Jasmine",
            "url": "https://www.youtube.com/watch?v=nGUXS3MWvs0",
            "duration": 8214.0,
            "view_count": 476316,
            "uploader": "SPS Cinemas",
            "category": "tamil",
            "thumbnail": "https://i.ytimg.com/vi/nGUXS3MWvs0/hq720.jpg?sqp=-oaymwEcCNAFEJQDSFXyq4qpAw4IARUAAIhCGAFwAcABBg==&rs=AOn4CLCenwXdAnN1mtfT0VaLwTcbtzMl5w",
            "added_date": "2026-04-16T07:31:10.973910Z",
            "source": "youtube"
        },
        {
            "id": "fTKzjiyAtfw",
            "title": "PT SIR - Exclusive 4K Full Movie | பி டி சார்| Aadhi |  Kashmira | Anikha  | Venugopalan | Ayngaran",
            "url": "https://www.youtube.com/watch?v=fTKzjiyAtfw",
            "duration": 7769.0,
            "view_count": 2341350,
            "uploader": "Ayngaran",
            "category": "tamil",
            "thumbnail": "https://i.ytimg.com/vi/fTKzjiyAtfw/hq720.jpg"
        },
        {
            "id": "TXKc2vJ0RY0",
            "title": "Romeo - Tamil Full Movie | Vijay Antony | Mirnalini | Vinayak Vaithianathan | Fatima Vijay Antony",
            "url": "https://www.youtube.com/watch?v=TXKc2vJ0RY0",
            "duration": 8658.0,
            "view_count": 1899760,
            "uploader": "Vijay Antony",
            "category": "tamil",
            "thumbnail": "https://i.ytimg.com/vi/TXKc2vJ0RY0/hq720.jpg?sqp=-oaymwEcCNAFEJQDSFXyq4qpAw4IARUAAIhCGAFwAcABBg==&rs=AOn4CLAcuXDRS97aFPjLYG-GoXinM9u60A",
            "added_date": "2026-04-16T07:31:09.170682Z",
            "source": "youtube"
        },
        {
            "id": "9zMxcklGsI8",
            "title": "Rajini Murugan Tamil Full Movie - Sivakarthikeyan | Keerthy Suresh | D.Imman | UIE Movies",
            "url": "https://www.youtube.com/watch?v=9zMxcklGsI8",
            "duration": 8934.0,
            "view_count": 21462791,
            "uploader": "United India Exporters",
            "category": "tamil",
            "thumbnail": "https://i.ytimg.com/vi/9zMxcklGsI8/hq720.jpg"
        },
        {
            "id": "mCxA5nnqWPo",
            "title": "Dulquer Salmaan Tamil Super Hit Full Movie || Diana Penty || Tamil Full Movies || Kollywood Films",
            "url": "https://www.youtube.com/watch?v=mCxA5nnqWPo",
            "duration": 7905.0,
            "view_count": 2101301,
            "uploader": "Kollywood Films",
            "category": "tamil",
            "thumbnail": "https://i.ytimg.com/vi/mCxA5nnqWPo/hq720.jpg"
        },
        {
            "id": "AtK3a2aDPJI",
            "title": "Kalyanam Dum Dum Dum | Tamil Full Movie | Ft Sidhu, Deepika Damu | Tentkotta Originals",
            "url": "https://www.youtube.com/watch?v=AtK3a2aDPJI",
            "duration": 7472.0,
            "view_count": 679208,
            "uploader": "Tentkotta",
            "category": "tamil",
            "thumbnail": "https://i.ytimg.com/vi/AtK3a2aDPJI/hq720.jpg"
        },
        {
            "id": "fyuAgQFUtNg",
            "title": "Anjathe | அஞ்சாதே | Tamil Action Movie |  Narain, Prasanna, Vijayalakshmi | Tamil Full Movies",
            "url": "https://www.youtube.com/watch?v=fyuAgQFUtNg",
            "duration": 11041.0,
            "view_count": 519958,
            "uploader": "Eros Universe Tamil",
            "category": "tamil",
            "thumbnail": "https://i.ytimg.com/vi/fyuAgQFUtNg/hq720.jpg"
        },
        {
            "id": "KaHn2zyw5UA",
            "title": "Rhythm ( 2000 ) | Rhythm Tamil Full Movie | Arjun | Meena | A.R.Rahman | Pyramid Talkies",
            "url": "https://www.youtube.com/watch?v=KaHn2zyw5UA",
            "duration": 8499.0,
            "view_count": 2157151,
            "uploader": "Pyramid Talkies",
            "category": "tamil",
            "thumbnail": "https://i.ytimg.com/vi/KaHn2zyw5UA/hq720.jpg"
        },
        {
            "id": "TJo8V0Gl2ns",
            "title": "Phoenix Full Movie in Tamil [HD] | Surya vijay Sethupathi | Varalakshmi | Tamil Movie | Tentkotta",
            "url": "https://www.youtube.com/watch?v=TJo8V0Gl2ns",
            "duration": 7101.0,
            "view_count": 1234701,
            "uploader": "Tentkotta",
            "category": "tamil",
            "thumbnail": "https://i.ytimg.com/vi/TJo8V0Gl2ns/hq720.jpg?sqp=-oaymwEcCNAFEJQDSFXyq4qpAw4IARUAAIhCGAFwAcABBg==&rs=AOn4CLBNBepWMFCFFwHCmkRqn6BzDyLe6w",
            "added_date": "2026-04-16T07:31:10.773551Z",
            "source": "youtube"
        },
        {
            "id": "Wb4kgKYAC8M",
            "title": "Shakthi Thirumagan - Tamil Full Movie | Vijay Antony | Arun Prabu | Fatima Vijay Antony",
            "url": "https://www.youtube.com/watch?v=Wb4kgKYAC8M",
            "duration": 9301.0,
            "view_count": 2205834,
            "uploader": "Vijay Antony",
            "category": "tamil",
            "thumbnail": "https://i.ytimg.com/vi/Wb4kgKYAC8M/hq720.jpg?sqp=-oaymwEcCNAFEJQDSFXyq4qpAw4IARUAAIhCGAFwAcABBg==&rs=AOn4CLBPSqtMcD0cxvOyopgPsnkMavaKuA",
            "added_date": "2026-04-16T07:31:09.371045Z",
            "source": "youtube"
        },
        {
            "id": "i3ae2uRxBTc",
            "title": "தில்லு முல்லு | Thillu Mullu Full Movie Tamil | Shiva | Isha Talwar | Prakash Raj | Suara Cinemas",
            "url": "https://www.youtube.com/watch?v=i3ae2uRxBTc",
            "duration": 8343.0,
            "view_count": 686047,
            "uploader": "Suara Cinemas",
            "category": "tamil",
            "thumbnail": "https://i.ytimg.com/vi/i3ae2uRxBTc/hq720.jpg"
        },
        {
            "id": "K5nSfn85_h0",
            "title": "அதிரடி வேட்டை (Dookudu) Tamil Dubbed Full Movie 4K HD | Mahesh Babu | Samantha | Athiradi Vettai HD",
            "url": "https://www.youtube.com/watch?v=K5nSfn85_h0",
            "duration": 9864.0,
            "view_count": 811165,
            "uploader": "RJS Movies",
            "category": "tamil",
            "thumbnail": "https://i.ytimg.com/vi/K5nSfn85_h0/hq720.jpg"
        },
        {
            "id": "GZV4WYBacbg",
            "title": "Lover Tamil Full Movie | Manikandan | Sri Gouri Priya | Sean Roldan | Prabhuram Vyas",
            "url": "https://www.youtube.com/watch?v=GZV4WYBacbg",
            "duration": 8676.0,
            "view_count": 2486833,
            "uploader": "Tentkotta",
            "category": "tamil",
            "thumbnail": "https://i.ytimg.com/vi/GZV4WYBacbg/hq720.jpg"
        },
        {
            "id": "zhOub5ziSRg",
            "title": "DNA (Full Movie) : Atharvaa | Nimisha Sajayan | Ramesh Tilak | M Zeeshan Ayyub | Balaji Sakthivel",
            "url": "https://www.youtube.com/watch?v=zhOub5ziSRg",
            "duration": 8181.0,
            "view_count": 2812663,
            "uploader": "United India Exporters",
            "category": "tamil",
            "thumbnail": "https://i.ytimg.com/vi/zhOub5ziSRg/hq720.jpg"
        },
        {
            "id": "C5l7JozGIjs",
            "title": "G.V. Prakash Kumar ,Gautham Menon Superhit Tamil College Crime Thriller Full HD movie",
            "url": "https://www.youtube.com/watch?v=C5l7JozGIjs",
            "duration": 7033.0,
            "view_count": 624434,
            "uploader": "Crush Entertainments",
            "category": "tamil",
            "thumbnail": "https://i.ytimg.com/vi/C5l7JozGIjs/hq720.jpg"
        },
        {
            "id": "g1ynF6eeF8I",
            "title": "Thimiru - Full Movie |  Vishal, Sriya Reddy, Reema Sen, Vadivelu | Action Movie",
            "url": "https://www.youtube.com/watch?v=g1ynF6eeF8I",
            "duration": 8463.0,
            "view_count": 351852,
            "uploader": "Seyons Cinemax",
            "category": "tamil",
            "thumbnail": "https://i.ytimg.com/vi/g1ynF6eeF8I/hq720.jpg"
        },
        {
            "id": "M0ikxbk5aes",
            "title": "Diesel (4K Full Movie) | Harish Kalyan | Karunas | Athulya Ravi | Blockbuster Action Thriller",
            "url": "https://www.youtube.com/watch?v=M0ikxbk5aes",
            "duration": 8467.0,
            "view_count": 752682,
            "uploader": "United India Exporters",
            "category": "tamil",
            "thumbnail": "https://i.ytimg.com/vi/M0ikxbk5aes/hq720.jpg"
        },
        {
            "id": "BXEN7Zuv4hM",
            "title": "Meaghamann Full Movie In Tamil [ HD ] | Arya | Hansika Motwani | Ashutosh Rana | Sudhanshu Pandey",
            "url": "https://www.youtube.com/watch?v=BXEN7Zuv4hM",
            "duration": 8228.0,
            "view_count": 1081,
            "uploader": "Jabak Movies",
            "category": "tamil",
            "thumbnail": "https://i.ytimg.com/vi/BXEN7Zuv4hM/hq720.jpg"
        },
        {
            "id": "7Joxikgjmbs",
            "title": "Taanakkaran Full Length Movie Tamil | Vikram Prabhu | MS Bhaskar | Anjali Nair | Usilai Ram Cinemas",
            "url": "https://www.youtube.com/watch?v=7Joxikgjmbs",
            "duration": 7947.0,
            "view_count": 567582,
            "uploader": "Usilai Ram Cinemas",
            "category": "tamil",
            "thumbnail": "https://i.ytimg.com/vi/7Joxikgjmbs/hq720.jpg"
        },
        {
            "id": "9O9l3It2yMY",
            "title": "Kavan (2019) 4K Full Movie Tamil | Vijay Sethupathi | Madonna Sebastian | T. Rajendar | KV Anandh",
            "url": "https://www.youtube.com/watch?v=9O9l3It2yMY",
            "duration": 8953.0,
            "view_count": 284727,
            "uploader": "United India Exporters",
            "category": "tamil",
            "thumbnail": "https://i.ytimg.com/vi/9O9l3It2yMY/hq720.jpg"
        },
        {
            "id": "rCg7p9vgh00",
            "title": "Anandham Vilayadum Veedu | Tamil Full Movie | Gautham Karthik, Shivathmika",
            "url": "https://www.youtube.com/watch?v=rCg7p9vgh00",
            "duration": 8827.0,
            "view_count": 1228092,
            "uploader": "Ultra Kollywood Talkies",
            "category": "tamil",
            "thumbnail": "https://i.ytimg.com/vi/rCg7p9vgh00/hq720.jpg"
        },
        {
            "id": "UMphtt8Yn5o",
            "title": "Kaappaan - Tamil Full Movie HD | Suriya | Arya | Mohanlal | Sayyeshaa | KV Anand | Lyca Productions",
            "url": "https://www.youtube.com/watch?v=UMphtt8Yn5o",
            "duration": 9125.0,
            "view_count": 769673,
            "uploader": "Lyca Productions",
            "category": "tamil",
            "thumbnail": "https://i.ytimg.com/vi/UMphtt8Yn5o/hq720.jpg"
        },
        {
            "id": "kC28CzvAsFI",
            "title": "Lets's Get Married (4K Full Movie) : Harish Kalyan | Ivana | Nadhiya | Srinath | VTV Ganesh | Janaki",
            "url": "https://www.youtube.com/watch?v=kC28CzvAsFI",
            "duration": 8215.0,
            "view_count": 727147,
            "uploader": "United India Exporters",
            "category": "tamil",
            "thumbnail": "https://i.ytimg.com/vi/kC28CzvAsFI/hq720.jpg?sqp=-oaymwEcCNAFEJQDSFXyq4qpAw4IARUAAIhCGAFwAcABBg==&rs=AOn4CLAiRexItcHU_xm3thugEm3LT30uDw",
            "added_date": "2026-04-16T07:31:08.769962Z",
            "source": "youtube"
        },
        {
            "id": "vXcPIjwUNbQ",
            "title": "Arrambam - ஆரம்பம் | Ajith Kumar & Nayanthara | Tamil Action Thriller | Full Movie (HD)",
            "url": "https://www.youtube.com/watch?v=vXcPIjwUNbQ",
            "duration": 9000.0,
            "view_count": 215297,
            "uploader": "Eros Universe Tamil",
            "category": "tamil",
            "thumbnail": "https://i.ytimg.com/vi/vXcPIjwUNbQ/hq720.jpg"
        },
        {
            "id": "fVAhHwFp3DY",
            "title": "Ippadai Vellum Full Movie(Tamil) | Udhayanidhi | Manjima Mohan | Gaurav Narayanan | D Imman | Lyca",
            "url": "https://www.youtube.com/watch?v=fVAhHwFp3DY",
            "duration": 8340.0,
            "view_count": 4347310,
            "uploader": "Lyca Productions",
            "category": "tamil",
            "thumbnail": "https://i.ytimg.com/vi/fVAhHwFp3DY/hq720.jpg"
        },
        {
            "id": "hbqYJeYT0Jo",
            "title": "Tourist Family (2025) | Tamil Comedy-Drama | Sasikumar, Simran | Full Movie",
            "url": "https://www.youtube.com/watch?v=hbqYJeYT0Jo",
            "duration": 7587.0,
            "view_count": 735653,
            "uploader": "White Devil",
            "category": "tamil",
            "thumbnail": "https://i.ytimg.com/vi/hbqYJeYT0Jo/hqdefault.jpg?sqp=-oaymwEcCOADEI4CSFXyq4qpAw4IARUAAIhCGAFwAcABBg==&rs=AOn4CLAFYgP28FWdbkHE193Gh3vWx6eFmA",
            "added_date": "2026-04-16T07:31:08.168821Z",
            "source": "youtube"
        },
        {
            "id": "jknwBpxYli0",
            "title": "Maargan - Tamil Full Movie | 4K | Vijay Antony | Leo John Paul | Fatima Vijay Antony",
            "url": "https://www.youtube.com/watch?v=jknwBpxYli0",
            "duration": 7800.0,
            "view_count": 932209,
            "uploader": "Vijay Antony",
            "category": "tamil",
            "thumbnail": "https://i.ytimg.com/vi/jknwBpxYli0/hq720.jpg"
        },
        {
            "id": "c87kLVI9Z1c",
            "title": "J Baby (4K Full Movie) | Urvashi | Attakathi Dinesh | Ismath Banu A | Maaran | Suresh Mari",
            "url": "https://www.youtube.com/watch?v=c87kLVI9Z1c",
            "duration": 8261.0,
            "view_count": 427200,
            "uploader": "United India Exporters",
            "category": "tamil",
            "thumbnail": "https://i.ytimg.com/vi/c87kLVI9Z1c/hq720.jpg"
        },
        {
            "id": "9fwsbpjGKN8",
            "title": "Vettaiyaadu Vilaiyaadu - HD Tamil Full Movie | Kamal Haasan-Jyothika | GVM-Harris Jayaraj",
            "url": "https://www.youtube.com/watch?v=9fwsbpjGKN8",
            "duration": 9616.0,
            "view_count": 2178829,
            "uploader": "7th Channel Movies",
            "category": "tamil",
            "thumbnail": "https://i.ytimg.com/vi/9fwsbpjGKN8/hq720.jpg"
        },
        {
            "id": "nnNxt829RYs",
            "title": "Theerkadarishi Tamil Full Movie | Sathyaraj | Ajmal Ameer | Sriman | Devadarsini Comedy Action Thril",
            "url": "https://www.youtube.com/watch?v=nnNxt829RYs",
            "duration": 5247.0,
            "view_count": 461824,
            "uploader": "SRI SARAVANAA FILMS OPC MALAYALAM and 5 more",
            "category": "tamil",
            "thumbnail": "https://i.ytimg.com/vi/nnNxt829RYs/hq720.jpg"
        },
        {
            "id": "GPy19K42lbA",
            "title": "Aranmanai Full Movie In Tamil [HD] | Aranmanai | SundarC | Hansika Motwani | Andrea",
            "url": "https://www.youtube.com/watch?v=GPy19K42lbA",
            "duration": 9082.0,
            "view_count": 1332424,
            "uploader": "Red Carpet Tamil Movies",
            "category": "tamil",
            "thumbnail": "https://i.ytimg.com/vi/GPy19K42lbA/hq720.jpg"
        },
        {
            "id": "pzyG1Jml33M",
            "title": "Rajini Murugan 4K Full Movie | Sivakarthikeyan | Keerthi Suresh | Soori | Blockbuster Comedy Film",
            "url": "https://www.youtube.com/watch?v=pzyG1Jml33M",
            "duration": 8502.0,
            "view_count": 143686,
            "uploader": "United India Exporters",
            "category": "tamil",
            "thumbnail": "https://i.ytimg.com/vi/pzyG1Jml33M/hq720.jpg"
        },
        {
            "id": "9LqGq5t3dqQ",
            "title": "Ramleela Tamil Full Movie | 2022 Tamil Full Movies | Ram Charan | Kajal Agarwal",
            "url": "https://www.youtube.com/watch?v=9LqGq5t3dqQ",
            "duration": 8369.0,
            "view_count": 769284,
            "uploader": "NiharikaMovies",
            "category": "tamil",
            "thumbnail": "https://i.ytimg.com/vi/9LqGq5t3dqQ/hq720.jpg"
        },
        {
            "id": "E5_L6EoqH_c",
            "title": "Vantha Rajavathaan Varuven Full Movie (Tamil) | STR | Megha Akash | Hiphop Tamizha | Sundar C | Lyca",
            "url": "https://www.youtube.com/watch?v=E5_L6EoqH_c",
            "duration": 9278.0,
            "view_count": 1163934,
            "uploader": "Lyca Productions",
            "category": "tamil",
            "thumbnail": "https://i.ytimg.com/vi/E5_L6EoqH_c/hq720.jpg"
        },
        {
            "id": "8hIoEWBt7yg",
            "title": "Rajinikanth & Shriya Saran Tamil Blockbuster Full Action/Comedy Movie || Tamil Full Movie || Full HD",
            "url": "https://www.youtube.com/watch?v=8hIoEWBt7yg",
            "duration": 8881.0,
            "view_count": 1600706,
            "uploader": "Comedy One",
            "category": "tamil",
            "thumbnail": "https://i.ytimg.com/vi/8hIoEWBt7yg/hq720.jpg"
        },
        {
            "id": "OA-bwcEwwZ4",
            "title": "Niram Marum Ulagil Full Movie  [4k] | Bharathiraja | Natty Subramaniam | Rio Raj | Sandy | Yogi Babu",
            "url": "https://www.youtube.com/watch?v=OA-bwcEwwZ4",
            "duration": 8491.0,
            "view_count": 215465,
            "uploader": "MASK STUDIOS",
            "category": "tamil",
            "thumbnail": "https://i.ytimg.com/vi/OA-bwcEwwZ4/hq720.jpg"
        },
        {
            "id": "y5j7lRW3Si0",
            "title": "Master (Tamil) - Full Movie | 4K [with English & Arabic Subtitles]",
            "url": "https://www.youtube.com/watch?v=y5j7lRW3Si0",
            "duration": 10648.0,
            "view_count": 29696590,
            "uploader": "United India Exporters",
            "category": "tamil",
            "thumbnail": "https://i.ytimg.com/vi/y5j7lRW3Si0/hq720.jpg"
        },
        {
            "id": "i_7e175eHqo",
            "title": "New Tamil movie 🎥",
            "url": "https://www.youtube.com/watch?v=i_7e175eHqo",
            "duration": 8575.0,
            "view_count": 90882,
            "uploader": "indianflim",
            "category": "tamil",
            "thumbnail": "https://i.ytimg.com/vi/i_7e175eHqo/hq720.jpg"
        },
        {
            "id": "_2n4pW__3io",
            "title": "Rangasthalam Movie HD New Tamil Dubbed Full Movie Watch Online | Ramcharan | Samantha Pls Subscribe🙏",
            "url": "https://www.youtube.com/watch?v=_2n4pW__3io",
            "duration": 8559.0,
            "view_count": 319745,
            "uploader": "Cinema Siri HD",
            "category": "tamil",
            "thumbnail": "https://i.ytimg.com/vi/_2n4pW__3io/hq720.jpg"
        },
        {
            "id": "Tl_5tHclIAo",
            "title": "Kaithi (2019) - Tamil Full Action Movie | Karthi, Narain, Sam CS, Lokesh Kanagaraj, Arjun Das",
            "url": "https://www.youtube.com/watch?v=Tl_5tHclIAo",
            "duration": 8694.0,
            "view_count": 12330,
            "uploader": "This is Absolute Cinema",
            "category": "tamil",
            "thumbnail": "https://i.ytimg.com/vi/Tl_5tHclIAo/hqdefault.jpg"
        },
        {
            "id": "uOeXPbyhChc",
            "title": "Veetula Raman Veliyila Krishnan - Tamil Full Movie HD | Sivakumar | Radhika |Manivannan",
            "url": "https://www.youtube.com/watch?v=uOeXPbyhChc",
            "duration": 8376.0,
            "view_count": 250112,
            "uploader": "Thenappan P - Shree Raajalakshmi Films",
            "category": "tamil",
            "thumbnail": "https://i.ytimg.com/vi/uOeXPbyhChc/hq720.jpg"
        },
        {
            "id": "mmPvs5IM5vs",
            "title": "Family Entertaining Tamil Full Movie | Anandham Vilayadum Veedu | Gautham Karthik, Shivathmika",
            "url": "https://www.youtube.com/watch?v=mmPvs5IM5vs",
            "duration": 8827.0,
            "view_count": 1080999,
            "uploader": "Tamil Movieplex",
            "category": "tamil",
            "thumbnail": "https://i.ytimg.com/vi/mmPvs5IM5vs/hq720.jpg"
        },
        {
            "id": "sLf3KWtWa_8",
            "title": "Panni Kutty - Tamil Full Movie HD | Yogi Babu | Karunakaran | Anucharan | Lyca",
            "url": "https://www.youtube.com/watch?v=sLf3KWtWa_8",
            "duration": 7196.0,
            "view_count": 640009,
            "uploader": "Lyca Productions",
            "category": "tamil",
            "thumbnail": "https://i.ytimg.com/vi/sLf3KWtWa_8/hq720.jpg"
        },
        {
            "id": "BKvBZUEbq7c",
            "title": "Ayan tamil 2009 action thriller full movie ",
            "url": "https://www.youtube.com/watch?v=BKvBZUEbq7c",
            "duration": 9743.0,
            "view_count": 4376,
            "uploader": "_MR_LUTTAPPII_X_",
            "category": "tamil",
            "thumbnail": "https://i.ytimg.com/vi/BKvBZUEbq7c/hqdefault.jpg"
        }
    ]
}