{
    "page": 93,
    "total_pages": 103,
    "total_items": 5125,
    "items": [
        {
            "id": "BTU2wERbfS4",
            "title": "Shinchan Full Episode in Hindi | New Episode 14-01-2026 |Latest Shinchan In HD Without Zoom In Hindi",
            "url": "https://www.youtube.com/watch?v=BTU2wERbfS4",
            "duration": 831.0,
            "view_count": 521063,
            "uploader": "Night Blitz",
            "category": "cartoons/shinchan",
            "thumbnail": "https://i.ytimg.com/vi/BTU2wERbfS4/hqdefault.jpg"
        },
        {
            "id": "UVeL-d1Sn9c",
            "title": "0074  Shin Chan In Hindi Full HD New Episode S02E87 TV stops working  naughty shinchan1",
            "url": "https://www.youtube.com/watch?v=UVeL-d1Sn9c",
            "duration": 1187.0,
            "view_count": 445487,
            "uploader": "shin chan Cartoon",
            "category": "cartoons/shinchan",
            "thumbnail": "https://i.ytimg.com/vi/UVeL-d1Sn9c/hqdefault.jpg"
        },
        {
            "id": "R_xao0VOZDk",
            "title": "Shinchan in Hindi - shinchan new episode in Hindi Without Zoom Effect ",
            "url": "https://www.youtube.com/watch?v=R_xao0VOZDk",
            "duration": 642.0,
            "view_count": 118701,
            "uploader": "All Cartoon's",
            "category": "cartoons/shinchan",
            "thumbnail": "https://i.ytimg.com/vi/R_xao0VOZDk/hq720.jpg"
        },
        {
            "id": "aG4XtK9Rdj8",
            "title": "Shinchan in Hindi | Shinchan new Episode in Hindi | Shinchan new movie",
            "url": "https://www.youtube.com/watch?v=aG4XtK9Rdj8",
            "duration": 2469.0,
            "view_count": 453734,
            "uploader": "Deen Ki Roshni",
            "category": "cartoons/shinchan",
            "thumbnail": "https://i.ytimg.com/vi/aG4XtK9Rdj8/hqdefault.jpg"
        },
        {
            "id": "BC9_3ZKcjME",
            "title": "Shinchan New episode  | Shinchan in Hindi 🗿 | without zoom effect | #shinchan #viral #edit #without",
            "url": "https://www.youtube.com/watch?v=BC9_3ZKcjME",
            "duration": 1254.0,
            "view_count": 682248,
            "uploader": "Shinchan 🙂",
            "category": "cartoons/shinchan",
            "thumbnail": "https://i.ytimg.com/vi/BC9_3ZKcjME/hqdefault.jpg"
        },
        {
            "id": "1v7uQs41e8Y",
            "title": "Shinchan in hindi |Shinchan new latest episode inhindi |Shinchan cartoon #sinchan ",
            "url": "https://www.youtube.com/watch?v=1v7uQs41e8Y",
            "duration": 834.0,
            "view_count": 1335714,
            "uploader": "Skyline officially",
            "category": "cartoons/shinchan",
            "thumbnail": "https://i.ytimg.com/vi/1v7uQs41e8Y/hq720.jpg"
        },
        {
            "id": "Ae70qpPJXbA",
            "title": "shinchan latest episode 2021 in hindi #shinchanhindi",
            "url": "https://www.youtube.com/watch?v=Ae70qpPJXbA",
            "duration": 903.0,
            "view_count": 16935,
            "uploader": "shinchan episodes collection",
            "category": "cartoons/shinchan",
            "thumbnail": "https://i.ytimg.com/vi/Ae70qpPJXbA/hqdefault.jpg"
        },
        {
            "id": "5dlrOosqSb8",
            "title": "SHINCHAN CARTOON IN HINDI NEW EPISODE",
            "url": "https://www.youtube.com/watch?v=5dlrOosqSb8",
            "duration": 1255.0,
            "view_count": 327074,
            "uploader": "TAS OFFICIAL ",
            "category": "cartoons/shinchan",
            "thumbnail": "https://i.ytimg.com/vi/5dlrOosqSb8/hq720.jpg"
        },
        {
            "id": "pxQkKyQp28E",
            "title": "shinchan new episode.4-8-2028, shinchan cartoon, shinchan in Hindi",
            "url": "https://www.youtube.com/watch?v=pxQkKyQp28E",
            "duration": 637.0,
            "view_count": 864579,
            "uploader": "Anjali",
            "category": "cartoons/shinchan",
            "thumbnail": "https://i.ytimg.com/vi/pxQkKyQp28E/hq720.jpg"
        },
        {
            "id": "vOW8zknbOEI",
            "title": "shinchan hindi shinchan  new episode in hindi without zoom effect #260101",
            "url": "https://www.youtube.com/watch?v=vOW8zknbOEI",
            "duration": 4653.0,
            "view_count": 4713,
            "uploader": "Kainat Ali",
            "category": "cartoons/shinchan",
            "thumbnail": "https://i.ytimg.com/vi/vOW8zknbOEI/hq720.jpg"
        },
        {
            "id": "c6urMYTvUlw",
            "title": "Shin chain episode-3 in Hindi",
            "url": "https://www.youtube.com/watch?v=c6urMYTvUlw",
            "duration": 813.0,
            "view_count": 684689,
            "uploader": "Ram",
            "category": "cartoons/shinchan",
            "thumbnail": "https://i.ytimg.com/vi/c6urMYTvUlw/hqdefault.jpg"
        },
        {
            "id": "gr45dUrLW0c",
            "title": "Shinchan in Hindi | Shinchan Today new episodes | Shinchan new episodes in hindi #shinchan",
            "url": "https://www.youtube.com/watch?v=gr45dUrLW0c",
            "duration": 918.0,
            "view_count": 42821,
            "uploader": "GAMING SHORT",
            "category": "cartoons/shinchan",
            "thumbnail": "https://i.ytimg.com/vi/gr45dUrLW0c/hq720.jpg"
        },
        {
            "id": "xxjPMqwyt7c",
            "title": "Shinchin in hindi || Shinchin Without zoom effect|| Shinchin hindi cartoon",
            "url": "https://www.youtube.com/watch?v=xxjPMqwyt7c",
            "duration": 1103.0,
            "view_count": 467678,
            "uploader": "NDSN Hindi stories",
            "category": "cartoons/shinchan",
            "thumbnail": "https://i.ytimg.com/vi/xxjPMqwyt7c/hqdefault.jpg"
        },
        {
            "id": "hXrtikVdiL8",
            "title": "Shinchan new episode 5/5/2025 hindi. #doraemon #shinchan #shinchanewep #trend #trending",
            "url": "https://www.youtube.com/watch?v=hXrtikVdiL8",
            "duration": 849.0,
            "view_count": 236921,
            "uploader": "india pakistan waar",
            "category": "cartoons/shinchan",
            "thumbnail": "https://i.ytimg.com/vi/hXrtikVdiL8/hq720.jpg"
        },
        {
            "id": "Mlg0H5r5Z6g",
            "title": "Shinchan  New episode  in hindi 2021 || Shinchan latest episode in hindi | shinchan in hindi",
            "url": "https://www.youtube.com/watch?v=Mlg0H5r5Z6g",
            "duration": 803.0,
            "view_count": 653577,
            "uploader": "Cartoon X",
            "category": "cartoons/shinchan",
            "thumbnail": "https://i.ytimg.com/vi/Mlg0H5r5Z6g/hq720.jpg"
        },
        {
            "id": "_CItAiaDGrM",
            "title": "shinchan without zooming effect in hindi|| new episode old episode|| #shinchain #shinchancartoon ",
            "url": "https://www.youtube.com/watch?v=_CItAiaDGrM",
            "duration": 1150.0,
            "view_count": 69811,
            "uploader": "Mehak sharma",
            "category": "cartoons/shinchan",
            "thumbnail": "https://i.ytimg.com/vi/_CItAiaDGrM/hq720.jpg"
        },
        {
            "id": "eMX56gZSyxw",
            "title": "Shinchan in Hindi New Episode Without Zoom Effect | Shinchan Movie in Hindi | Shinchan Cartoon #23",
            "url": "https://www.youtube.com/watch?v=eMX56gZSyxw",
            "duration": 2299.0,
            "view_count": 35424,
            "uploader": "techop gamerz",
            "category": "cartoons/shinchan",
            "thumbnail": "https://i.ytimg.com/vi/eMX56gZSyxw/hq720.jpg"
        },
        {
            "id": "xDcP5nFjyUA",
            "title": "Shinchan Hindi dubbed episode 120 ( without zoom in hindi)",
            "url": "https://www.youtube.com/watch?v=xDcP5nFjyUA",
            "duration": 3600.0,
            "view_count": 223703,
            "uploader": "ShinMon",
            "category": "cartoons/shinchan",
            "thumbnail": "https://i.ytimg.com/vi/xDcP5nFjyUA/hqdefault.jpg"
        },
        {
            "id": "pxvZvbl-ku8",
            "title": "Shinchan in Hindi | Shinchan new Episode in Hindi | Shinchan new movie",
            "url": "https://www.youtube.com/watch?v=pxvZvbl-ku8",
            "duration": 828.0,
            "view_count": 9123014,
            "uploader": "Surin K Fact and 2 more",
            "category": "cartoons/shinchan",
            "thumbnail": "https://i.ytimg.com/vi/pxvZvbl-ku8/hqdefault.jpg"
        },
        {
            "id": "Q7G6dq4F7MQ",
            "title": "Shinchan ki sabse funny shararat 🤣new episode in Hindi ",
            "url": "https://www.youtube.com/watch?v=Q7G6dq4F7MQ",
            "duration": 709.0,
            "view_count": 171002,
            "uploader": "@QueenISHWARI786",
            "category": "cartoons/shinchan",
            "thumbnail": "https://i.ytimg.com/vi/Q7G6dq4F7MQ/hq720.jpg"
        },
        {
            "id": "UnFSVEYRcbM",
            "title": "Shinchan in hindi without zoom effect | Latest episode in hindi #shinchan #shinchanhindi #newepisode",
            "url": "https://www.youtube.com/watch?v=UnFSVEYRcbM",
            "duration": 3450.0,
            "view_count": 9797,
            "uploader": "PUPPYTIES",
            "category": "cartoons/shinchan",
            "thumbnail": "https://i.ytimg.com/vi/UnFSVEYRcbM/hqdefault.jpg"
        },
        {
            "id": "JlIKODyKEAc",
            "title": "Shinchan cartoon new episode 27-03-2025 shinchan without zoom effect-shinchan new episode in hindi",
            "url": "https://www.youtube.com/watch?v=JlIKODyKEAc",
            "duration": 702.0,
            "view_count": 51814,
            "uploader": "Horror Explainer Girl",
            "category": "cartoons/shinchan",
            "thumbnail": "https://i.ytimg.com/vi/JlIKODyKEAc/hqdefault.jpg"
        },
        {
            "id": "Ll32Oub9As0",
            "title": "Shinchan New Episode In Hindi | Shinchan New Episode Without Zoom Effect 2026 | #shinchan",
            "url": "https://www.youtube.com/watch?v=Ll32Oub9As0",
            "duration": 1720.0,
            "view_count": 210069,
            "uploader": "NDSN Hindi stories",
            "category": "cartoons/shinchan",
            "thumbnail": "https://i.ytimg.com/vi/Ll32Oub9As0/hqdefault.jpg"
        },
        {
            "id": "YMHUJCAQtvo",
            "title": "Shinchan Full Episode 405 In Hindi ",
            "url": "https://www.youtube.com/watch?v=YMHUJCAQtvo",
            "duration": 1153.0,
            "view_count": 7508,
            "uploader": "Shinchan Vibes",
            "category": "cartoons/shinchan",
            "thumbnail": "https://i.ytimg.com/vi/YMHUJCAQtvo/hqdefault.jpg"
        },
        {
            "id": "R26q-UPv198",
            "title": "Shinchan full episode in hindi hd 4k",
            "url": "https://www.youtube.com/watch?v=R26q-UPv198",
            "duration": 809.0,
            "view_count": 0,
            "uploader": "𝑻𝑨𝑼ᔕ𝑬𝑬𝑸",
            "category": "cartoons/shinchan",
            "thumbnail": "https://i.ytimg.com/vi/R26q-UPv198/hq720.jpg"
        },
        {
            "id": "yL_IeUeK5IU",
            "title": "Shinchan New episode in Hindi || Without zoom effect || credit -@Apnacartoonns",
            "url": "https://www.youtube.com/watch?v=yL_IeUeK5IU",
            "duration": 782.0,
            "view_count": 29487,
            "uploader": "Apna Cartoon ",
            "category": "cartoons/shinchan",
            "thumbnail": "https://i.ytimg.com/vi/yL_IeUeK5IU/hq720.jpg"
        },
        {
            "id": "XNwHZPhY8Lw",
            "title": "Shinchan_all_new_episode_in_hindi_without_zoom_effect___shinchan_funny_videos_#shinchan_#old_cartoon",
            "url": "https://www.youtube.com/watch?v=XNwHZPhY8Lw",
            "duration": 810.0,
            "view_count": 71697,
            "uploader": "neerajkumar 950",
            "category": "cartoons/shinchan",
            "thumbnail": "https://i.ytimg.com/vi/XNwHZPhY8Lw/hq720.jpg"
        },
        {
            "id": "7A55P_ir0NA",
            "title": "Shinchan 2025 NEW Episode in Hindi #sinchan",
            "url": "https://www.youtube.com/watch?v=7A55P_ir0NA",
            "duration": 616.0,
            "view_count": 143260,
            "uploader": "PhiloFacta",
            "category": "cartoons/shinchan",
            "thumbnail": "https://i.ytimg.com/vi/7A55P_ir0NA/hq720.jpg"
        },
        {
            "id": "710JUkb1iiI",
            "title": "Shinchan new episode in Hindi without zoom effect 😱💯 | Shin-Chan latest episode Hindi 2025 #viral ",
            "url": "https://www.youtube.com/watch?v=710JUkb1iiI",
            "duration": 1232.0,
            "view_count": 471602,
            "uploader": "Free4U  and Tahir Gaming",
            "category": "cartoons/shinchan",
            "thumbnail": "https://i.ytimg.com/vi/710JUkb1iiI/hq720.jpg"
        },
        {
            "id": "BaA2SDPU9yk",
            "title": "Shinchan New Episode In Hindi | Shinchan Cartoon Latest Episode| Shinchan 2021",
            "url": "https://www.youtube.com/watch?v=BaA2SDPU9yk",
            "duration": 1123.0,
            "view_count": 109553,
            "uploader": "All Cartoons",
            "category": "cartoons/shinchan",
            "thumbnail": "https://i.ytimg.com/vi/BaA2SDPU9yk/hqdefault.jpg"
        },
        {
            "id": "WOOwshETWiQ",
            "title": "Shinchan Full Episode in Hindi New Episode 2025 ||shinchan Cartoon latest Episode",
            "url": "https://www.youtube.com/watch?v=WOOwshETWiQ",
            "duration": 807.0,
            "view_count": 30023,
            "uploader": "SATYAM YT 010",
            "category": "cartoons/shinchan",
            "thumbnail": "https://i.ytimg.com/vi/WOOwshETWiQ/hq720.jpg"
        },
        {
            "id": "i6Ww7qXOQqk",
            "title": "shinchan new episode in hindi without zoom effect 2307 #shinchan 1080p60",
            "url": "https://www.youtube.com/watch?v=i6Ww7qXOQqk",
            "duration": 905.0,
            "view_count": 834680,
            "uploader": "LOTUS TV",
            "category": "cartoons/shinchan",
            "thumbnail": "https://i.ytimg.com/vi/i6Ww7qXOQqk/hq720.jpg"
        },
        {
            "id": "33TT1V4nz6A",
            "title": "Shinchan new episode in Hindi without zoom effect HD | shinchan | funny cartoon| new shinchan ep",
            "url": "https://www.youtube.com/watch?v=33TT1V4nz6A",
            "duration": 1591.0,
            "view_count": 201767,
            "uploader": "Magic stories",
            "category": "cartoons/shinchan",
            "thumbnail": "https://i.ytimg.com/vi/33TT1V4nz6A/hq720.jpg"
        },
        {
            "id": "Hj0y0femfy0",
            "title": "Shinchan Full Episode in Hindi | New Episode 22-03-2026 |Latest Shinchan In HD Without Zoom In Hindi",
            "url": "https://www.youtube.com/watch?v=Hj0y0femfy0",
            "duration": 1103.0,
            "view_count": 13591,
            "uploader": "Vikash Dhiman00",
            "category": "cartoons/shinchan",
            "thumbnail": "https://i.ytimg.com/vi/Hj0y0femfy0/hq720.jpg"
        },
        {
            "id": "k5K3_k8bTPA",
            "title": "Shinchan New Episode in Hindi | Funny Shinchan Cartoon | Shinchan Full Episode Hindi",
            "url": "https://www.youtube.com/watch?v=k5K3_k8bTPA",
            "duration": 1167.0,
            "view_count": 10818,
            "uploader": "Shinchan Vibes",
            "category": "cartoons/shinchan",
            "thumbnail": "https://i.ytimg.com/vi/k5K3_k8bTPA/hqdefault.jpg"
        },
        {
            "id": "zgPt69jeDQ8",
            "title": "Shinchan new episode 2026 ",
            "url": "https://www.youtube.com/watch?v=zgPt69jeDQ8",
            "duration": 2118.0,
            "view_count": 246552,
            "uploader": "1234jatin",
            "category": "cartoons/shinchan",
            "thumbnail": "https://i.ytimg.com/vi/zgPt69jeDQ8/hqdefault.jpg"
        },
        {
            "id": "Jis1R5mrwJg",
            "title": "Shinchan in hindi without zoom effect | Shinchan new episode in hindi #shinchan ",
            "url": "https://www.youtube.com/watch?v=Jis1R5mrwJg",
            "duration": 3795.0,
            "view_count": 502,
            "uploader": "PUPPYTIES",
            "category": "cartoons/shinchan",
            "thumbnail": "https://i.ytimg.com/vi/Jis1R5mrwJg/hqdefault.jpg"
        },
        {
            "id": "mHcUSOPAS00",
            "title": "Shinchan New Episode - Episode 05 Shinchan Cartoon-Shinchan Hindi - Shinchan Old episode",
            "url": "https://www.youtube.com/watch?v=mHcUSOPAS00",
            "duration": 1456.0,
            "view_count": 119188,
            "uploader": "DORAEMON EPISODE'S RK ",
            "category": "cartoons/shinchan",
            "thumbnail": "https://i.ytimg.com/vi/mHcUSOPAS00/hqdefault.jpg"
        },
        {
            "id": "i8HW6U6IQNo",
            "title": "Shinchan In Hindi New Episode 09-03-2024 Episode 11 | Shinchan Funniest Episode | Shinchan Hindi",
            "url": "https://www.youtube.com/watch?v=i8HW6U6IQNo",
            "duration": 1093.0,
            "view_count": 149174,
            "uploader": "Indian Cantoons",
            "category": "cartoons/shinchan",
            "thumbnail": "https://i.ytimg.com/vi/i8HW6U6IQNo/hq720.jpg"
        },
        {
            "id": "qvzKVOSZFoc",
            "title": "Shinchan new hindi dubbed episode without zoom effect HD | shinchan | funny cartoon| new shinchan",
            "url": "https://www.youtube.com/watch?v=qvzKVOSZFoc",
            "duration": 1218.0,
            "view_count": 713206,
            "uploader": "Magic stories",
            "category": "cartoons/shinchan",
            "thumbnail": "https://i.ytimg.com/vi/qvzKVOSZFoc/hq720.jpg"
        },
        {
            "id": "oJ9627BgJSg",
            "title": "Shinchan Episode 384 In Hindi 😱 | Big Trouble 😂",
            "url": "https://www.youtube.com/watch?v=oJ9627BgJSg",
            "duration": 715.0,
            "view_count": 131051,
            "uploader": "Shinchan Vibes",
            "category": "cartoons/shinchan",
            "thumbnail": "https://i.ytimg.com/vi/oJ9627BgJSg/hq720.jpg"
        },
        {
            "id": "V1dWOFFz_qk",
            "title": "shinchan hindi shinchan  new episode in hindi without zoom effect #26227",
            "url": "https://www.youtube.com/watch?v=V1dWOFFz_qk",
            "duration": 3607.0,
            "view_count": 224590,
            "uploader": "gerrad clifford",
            "category": "cartoons/shinchan",
            "thumbnail": "https://i.ytimg.com/vi/V1dWOFFz_qk/hq720.jpg"
        },
        {
            "id": "hEM_M8qcrOc",
            "title": "Shinchan In Hindi Shinchan New Episode In Hindi 2026 Shinchan In Hindi Without Zoom Effect #shinchan",
            "url": "https://www.youtube.com/watch?v=hEM_M8qcrOc",
            "duration": 1035.0,
            "view_count": 23185,
            "uploader": "film studiyo dhurander ",
            "category": "cartoons/shinchan",
            "thumbnail": "https://i.ytimg.com/vi/hEM_M8qcrOc/hqdefault.jpg"
        },
        {
            "id": "gtrTTOwjqoQ",
            "title": "Shinchan New Episode In Hindi 🥰  Without zoom effects✨Shinchan_edits❤️",
            "url": "https://www.youtube.com/watch?v=gtrTTOwjqoQ",
            "duration": 1255.0,
            "view_count": 46848,
            "uploader": "Shinchan_edits",
            "category": "cartoons/shinchan",
            "thumbnail": "https://i.ytimg.com/vi/gtrTTOwjqoQ/hqdefault.jpg"
        },
        {
            "id": "dSX_7Jr368c",
            "title": "Shinchan New Episode In Hindi | Shinchan New Episode | Shinchan in hindi |#cartoon#shinchan#doraemon",
            "url": "https://www.youtube.com/watch?v=dSX_7Jr368c",
            "duration": 810.0,
            "view_count": 18313,
            "uploader": "Shinchan Official",
            "category": "cartoons/shinchan",
            "thumbnail": "https://i.ytimg.com/vi/dSX_7Jr368c/hq720.jpg"
        },
        {
            "id": "1MVotM_5QIU",
            "title": "Shinchan New Episode In Hindi Without Zoom 4k 🚀",
            "url": "https://www.youtube.com/watch?v=1MVotM_5QIU",
            "duration": 2469.0,
            "view_count": 25231,
            "uploader": "CRONO DURDARSAN ",
            "category": "cartoons/shinchan",
            "thumbnail": "https://i.ytimg.com/vi/1MVotM_5QIU/hqdefault.jpg"
        },
        {
            "id": "NJhSV4ArZO8",
            "title": "Shark In Town | शहर में आई शार्क मछली | शिवा | Ep 167 | Action Cartoon | Shiva TV Show 2025 Hindi",
            "url": "https://www.youtube.com/watch?v=NJhSV4ArZO8",
            "duration": 1093.0,
            "view_count": 10335158,
            "uploader": "Shiva TV Show Hindi",
            "category": "cartoons/shiva",
            "thumbnail": "https://i.ytimg.com/vi/NJhSV4ArZO8/hq720.jpg"
        },
        {
            "id": "ihR8BNiY8FQ",
            "title": "Laddoo Singh और Pedaram के खिलाफ कौन बुन रहा है चाल? | Shiva | शिवा",
            "url": "https://www.youtube.com/watch?v=ihR8BNiY8FQ",
            "duration": 1256.0,
            "view_count": 610840,
            "uploader": "Sonic Gang",
            "category": "cartoons/shiva",
            "thumbnail": "https://i.ytimg.com/vi/ihR8BNiY8FQ/hq720.jpg"
        },
        {
            "id": "uWtuNs0h26w",
            "title": "Night Classes | रात्रि की पढ़ाई | शिवा | Ep 184 | Super Action Cartoon | Shiva TV Show 2025 Hindi",
            "url": "https://www.youtube.com/watch?v=uWtuNs0h26w",
            "duration": 1077.0,
            "view_count": 523421,
            "uploader": "Shiva TV Show Hindi",
            "category": "cartoons/shiva",
            "thumbnail": "https://i.ytimg.com/vi/uWtuNs0h26w/hq720.jpg"
        },
        {
            "id": "RFLepq2Mvp0",
            "title": "Shiva vs Snake Man... असली लड़ाई अब शुरू | Shiva: The Snake Man",
            "url": "https://www.youtube.com/watch?v=RFLepq2Mvp0",
            "duration": 2651.0,
            "view_count": 993869,
            "uploader": "Sonic Gang Hindi Movies",
            "category": "cartoons/shiva",
            "thumbnail": "https://i.ytimg.com/vi/RFLepq2Mvp0/hq720.jpg"
        }
    ]
}