{
    "page": 14,
    "total_pages": 103,
    "total_items": 5125,
    "items": [
        {
            "id": "BQ7qwFkvIMQ",
            "title": "READY 4K Full Movie | Salman Khan | Asin | Comedy Hindi Movie | Anees Bazmee | Bhushan Kumar",
            "url": "https://www.youtube.com/watch?v=BQ7qwFkvIMQ",
            "duration": 8706.0,
            "view_count": 2252448,
            "uploader": "T-Series",
            "category": "hindi",
            "thumbnail": "https://i.ytimg.com/vi/BQ7qwFkvIMQ/hq720.jpg"
        },
        {
            "id": "YHx7Up0pMqw",
            "title": "कैसे एक पोलिसवाले की गलती पड़ेगी सबपे भारी? - Kooman The Night Watchman - Hindi Dubbed Full Movie",
            "url": "https://www.youtube.com/watch?v=YHx7Up0pMqw",
            "duration": 9216.0,
            "view_count": 45918,
            "uploader": "Bollywood Premium",
            "category": "hindi",
            "thumbnail": "https://i.ytimg.com/vi/YHx7Up0pMqw/hq720.jpg"
        },
        {
            "id": "-yL9B3w_FHU",
            "title": "THE TAJ STORY (Full Movie) Paresh Rawal, Zakir Hussain, Amruta Khanvilkar | New Bollywood Movie",
            "url": "https://www.youtube.com/watch?v=-yL9B3w_FHU",
            "duration": 9427.0,
            "view_count": 1587101,
            "uploader": "Lionsgate Play - Hindi ",
            "category": "hindi",
            "thumbnail": "https://i.ytimg.com/vi/-yL9B3w_FHU/hq720.jpg?sqp=-oaymwEcCNAFEJQDSFXyq4qpAw4IARUAAIhCGAFwAcABBg==&rs=AOn4CLAsKJx29YqixlXlin27AlsaR_2LWg",
            "added_date": "2026-04-16T07:30:56.000266Z",
            "source": "youtube"
        },
        {
            "id": "ml8udIBdpGc",
            "title": "The Kerala Story 2 Full Movie Hindi Dubbed 2026 | New Bollywood Movie | New Bollywood HD Movie 2026",
            "url": "https://www.youtube.com/watch?v=ml8udIBdpGc",
            "duration": 7234.0,
            "view_count": 4295,
            "uploader": "Plastic Cinema",
            "category": "hindi",
            "thumbnail": "https://i.ytimg.com/vi/ml8udIBdpGc/hq720.jpg"
        },
        {
            "id": "HuOf1g_PiTo",
            "title": "ऐतराज़ - Aitraaz (2004) - Superhit Hindi Movie | Akshay Kumar, Priyanka Chopra, Kareena Kapoor",
            "url": "https://www.youtube.com/watch?v=HuOf1g_PiTo",
            "duration": 9990.0,
            "view_count": 611502,
            "uploader": "Filmy Drama",
            "category": "hindi",
            "thumbnail": "https://i.ytimg.com/vi/HuOf1g_PiTo/hq720.jpg"
        },
        {
            "id": "Cxope-BXxgI",
            "title": "BABY (Full Movie) Akshay Kumar | Rana Daggubati | Aupam Kher | New Hindi Movie",
            "url": "https://www.youtube.com/watch?v=Cxope-BXxgI",
            "duration": 9202.0,
            "view_count": 137182,
            "uploader": "Dhamaka 4k Movies",
            "category": "hindi",
            "thumbnail": "https://i.ytimg.com/vi/Cxope-BXxgI/hq720.jpg"
        },
        {
            "id": "5QDKX5ExXqM",
            "title": "Hulchul | Hindi Movies 2016 Full Movie | Akshaye Khanna | Kareena Kapoor | Bollywood Comedy Movies",
            "url": "https://www.youtube.com/watch?v=5QDKX5ExXqM",
            "duration": 8906.0,
            "view_count": 125662352,
            "uploader": "Venus Movies",
            "category": "hindi",
            "thumbnail": "https://i.ytimg.com/vi/5QDKX5ExXqM/hq720.jpg"
        },
        {
            "id": "mLgG7fDuEDE",
            "title": "Enthiran | Robot Full Movie in Hindi HD | Full Action Movie | Aishwarya Rai, Rajnikanth",
            "url": "https://www.youtube.com/watch?v=mLgG7fDuEDE",
            "duration": 10437.0,
            "view_count": 24926168,
            "uploader": "MK Media",
            "category": "hindi",
            "thumbnail": "https://i.ytimg.com/vi/mLgG7fDuEDE/hq720.jpg"
        },
        {
            "id": "wIyEWhHMgcM",
            "title": "The Family Star Full Movie In Hindi Dubbed | Vijay Devarakonda, Mrunal Thakur The Family Star (2025)",
            "url": "https://www.youtube.com/watch?v=wIyEWhHMgcM",
            "duration": 9346.0,
            "view_count": 1343907,
            "uploader": "erravi",
            "category": "hindi",
            "thumbnail": "https://i.ytimg.com/vi/wIyEWhHMgcM/hqdefault.jpg"
        },
        {
            "id": "-0KfWti9IIM",
            "title": "Drishyam 2 | Ajay Devgn Akshaye Khanna Tabu  Hindi Full Movie | Crime Thriller Mystery HD \"",
            "url": "https://www.youtube.com/watch?v=-0KfWti9IIM",
            "duration": 7360.0,
            "view_count": 1087192,
            "uploader": "Arvind akela kallu",
            "category": "hindi",
            "thumbnail": "https://i.ytimg.com/vi/-0KfWti9IIM/hq720.jpg"
        },
        {
            "id": "rr4WE82VtL0",
            "title": "Raajneeti Full Movie | Ranbir Kapoor, Katrina Kaif, Ajay Devgn | Political Thriller Hindi Movie HD",
            "url": "https://www.youtube.com/watch?v=rr4WE82VtL0",
            "duration": 10189.0,
            "view_count": 199784,
            "uploader": "Tanvi Rao",
            "category": "hindi",
            "thumbnail": "https://i.ytimg.com/vi/rr4WE82VtL0/hq720.jpg"
        },
        {
            "id": "ipk36X8UUPI",
            "title": "Shaadi Ke Side Effects (2014) Full Hindi Movie (4K) Farhan Akhtar & Vidya Balan | Bollywood Movie",
            "url": "https://www.youtube.com/watch?v=ipk36X8UUPI",
            "duration": 8555.0,
            "view_count": 319663,
            "uploader": "Ultra Movie Parlour",
            "category": "hindi",
            "thumbnail": "https://i.ytimg.com/vi/ipk36X8UUPI/hq720.jpg"
        },
        {
            "id": "VnA3gRs7OFE",
            "title": "Super Lover | South Hindi Dubbed Action Romantic Movie Full Love Story | NagaShourya & Rashikhanna",
            "url": "https://www.youtube.com/watch?v=VnA3gRs7OFE",
            "duration": 6857.0,
            "view_count": 198359,
            "uploader": "Sur Movis World",
            "category": "hindi",
            "thumbnail": "https://i.ytimg.com/vi/VnA3gRs7OFE/hq720.jpg"
        },
        {
            "id": "QjV744ybi9o",
            "title": "Beverly Hills Ninja | Full Hindi-Dubbed Movie | Starring Chris Farley, Nicollette Sheridan",
            "url": "https://www.youtube.com/watch?v=QjV744ybi9o",
            "duration": 5314.0,
            "view_count": 3993,
            "uploader": "Sony Pictures Entertainment India",
            "category": "hindi",
            "thumbnail": "https://i.ytimg.com/vi/QjV744ybi9o/hq720.jpg"
        },
        {
            "id": "2YkuQjdSKEI",
            "title": "#MB29​ Full Movie Hindi Dubbed | Mahesh Babu | Tamannaah Bhatia | Latest South Indian Movie 2026",
            "url": "https://www.youtube.com/watch?v=2YkuQjdSKEI",
            "duration": 8487.0,
            "view_count": 3398512,
            "uploader": "Story Unlocked Cinema",
            "category": "hindi",
            "thumbnail": "https://i.ytimg.com/vi/2YkuQjdSKEI/hqdefault.jpg"
        },
        {
            "id": "yorw6RUHas4",
            "title": "Allu Arjun (HD) - New Released Full Hindi Dubbed Movies | New South Blockbuster Action Movie",
            "url": "https://www.youtube.com/watch?v=yorw6RUHas4",
            "duration": 10307.0,
            "view_count": 1083821,
            "uploader": "DRJ Records GenY",
            "category": "hindi",
            "thumbnail": "https://i.ytimg.com/vi/yorw6RUHas4/hq720.jpg"
        },
        {
            "id": "6b7uCyun7kQ",
            "title": "Superhit (HD) Blockbuster Superhit South Indian Hindi Dubbed Action Movie | Mohanlal,Amala New Movie",
            "url": "https://www.youtube.com/watch?v=6b7uCyun7kQ",
            "duration": 7475.0,
            "view_count": 14097,
            "uploader": "Dumdar HD Movies",
            "category": "hindi",
            "thumbnail": "https://i.ytimg.com/vi/6b7uCyun7kQ/hq720.jpg"
        },
        {
            "id": "2GvqMsZeqzc",
            "title": "DADDY Nagarjuna (2026) New South Hindi Dubbed Movie | 2026 South Latest Release Action Full Movie",
            "url": "https://www.youtube.com/watch?v=2GvqMsZeqzc",
            "duration": 7804.0,
            "view_count": 81746,
            "uploader": "Story Unlocked Cinema",
            "category": "hindi",
            "thumbnail": "https://i.ytimg.com/vi/2GvqMsZeqzc/hqdefault.jpg"
        },
        {
            "id": "YhIEZNoCy5k",
            "title": "The Mafia Boss’s Regret Full Movie 2026 | New Short Drama Full Episode Story Explain & Review Facts",
            "url": "https://www.youtube.com/watch?v=YhIEZNoCy5k",
            "duration": 6505.0,
            "view_count": 6746,
            "uploader": "CageX ",
            "category": "hindi",
            "thumbnail": "https://i.ytimg.com/vi/YhIEZNoCy5k/hq720.jpg"
        },
        {
            "id": "nQYYgGL4JyE",
            "title": "U ME AUR HUM - Hindi Comedy Romantic Full HD Movie | Ajay Devgn, Kajol | Latest Bollywood Movies",
            "url": "https://www.youtube.com/watch?v=nQYYgGL4JyE",
            "duration": 7986.0,
            "view_count": 308232,
            "uploader": "Big Screen Entertainment",
            "category": "hindi",
            "thumbnail": "https://i.ytimg.com/vi/nQYYgGL4JyE/hq720.jpg"
        },
        {
            "id": "cO8CZlZUM2I",
            "title": "Paanch Minar 2026 Latest Hindi Crime Thriller Full Movie | Raj Tarun | New South Dubbed Movies",
            "url": "https://www.youtube.com/watch?v=cO8CZlZUM2I",
            "duration": 7758.0,
            "view_count": 1390774,
            "uploader": "Sri Balaji Hindi Movies",
            "category": "hindi",
            "thumbnail": "https://i.ytimg.com/vi/cO8CZlZUM2I/hq720.jpg"
        },
        {
            "id": "7u-6OIlS5wY",
            "title": "Ek Villain (2014) - Hindi Movie With English Subtitles | Sidharth Malhotra, Shraddha & Riteish",
            "url": "https://www.youtube.com/watch?v=7u-6OIlS5wY",
            "duration": 7840.0,
            "view_count": 1606201,
            "uploader": "Bollywood Premium",
            "category": "hindi",
            "thumbnail": "https://i.ytimg.com/vi/7u-6OIlS5wY/hq720.jpg"
        },
        {
            "id": "F7kX1Gbkirc",
            "title": "#TT60 POWERFUL K - Hindi Dubbed Full Movie | Tovino Thomas, Samyuktha | Action Thriller Movie",
            "url": "https://www.youtube.com/watch?v=F7kX1Gbkirc",
            "duration": 7273.0,
            "view_count": 716,
            "uploader": "दमदार साउथ मूव्हीस",
            "category": "hindi",
            "thumbnail": "https://i.ytimg.com/vi/F7kX1Gbkirc/hq720.jpg"
        },
        {
            "id": "LmNZodLh0eo",
            "title": "Ajith Kumar South Hindi Full Hd Movie | South Action Movie",
            "url": "https://www.youtube.com/watch?v=LmNZodLh0eo",
            "duration": 8045.0,
            "view_count": 3307443,
            "uploader": "Regular Movies",
            "category": "hindi",
            "thumbnail": "https://i.ytimg.com/vi/LmNZodLh0eo/hq720.jpg"
        },
        {
            "id": "puWAGtVCFAU",
            "title": "AGNI FORCE  |  Surya | South Hindi Dubbed Full Movie | Action Blockbuster",
            "url": "https://www.youtube.com/watch?v=puWAGtVCFAU",
            "duration": 8619.0,
            "view_count": 556709,
            "uploader": "Screen Movies",
            "category": "hindi",
            "thumbnail": "https://i.ytimg.com/vi/puWAGtVCFAU/hq720.jpg"
        },
        {
            "id": "JVVjv7V3HnY",
            "title": "Sardar Hindi Dubbed Full Movie #Sardar #Karthi",
            "url": "https://www.youtube.com/watch?v=JVVjv7V3HnY",
            "duration": 9859.0,
            "view_count": 4239,
            "uploader": "TraVeLlinG DiAriEs",
            "category": "hindi",
            "thumbnail": "https://i.ytimg.com/vi/JVVjv7V3HnY/hq720.jpg"
        },
        {
            "id": "rDUOyskVN04",
            "title": "Superhit (Comedy Movie) Full HD Hindi Movie | Ajay Devgn & Kajol New Bollywood Love Story Movie",
            "url": "https://www.youtube.com/watch?v=rDUOyskVN04",
            "duration": 7753.0,
            "view_count": 976987,
            "uploader": "RDC Bollywood Buzz",
            "category": "hindi",
            "thumbnail": "https://i.ytimg.com/vi/rDUOyskVN04/hq720.jpg"
        },
        {
            "id": "WPYPgHMO_O0",
            "title": "Partner (2007) Full Movie in 8K/4K Ultra HD | Salman Khan | Govinda | Katrina Kaif | Comedy Movie",
            "url": "https://www.youtube.com/watch?v=WPYPgHMO_O0",
            "duration": 8566.0,
            "view_count": 2192443,
            "uploader": "Eros Universe and Eros Universe Bioscope",
            "category": "hindi",
            "thumbnail": "https://i.ytimg.com/vi/WPYPgHMO_O0/hq720.jpg"
        },
        {
            "id": "yPwmul8GfRg",
            "title": "The Kerala Story 2 Full Movie Hindi Dubbed 2026 | New Bollywood Movie | New Movie 2026",
            "url": "https://www.youtube.com/watch?v=yPwmul8GfRg",
            "duration": 7234.0,
            "view_count": 37654,
            "uploader": "Plastic Cinema",
            "category": "hindi",
            "thumbnail": "https://i.ytimg.com/vi/yPwmul8GfRg/hq720.jpg"
        },
        {
            "id": "SqxoQVKwrug",
            "title": "Stuart Little 2 | Full Hindi-Dubbed Movie | Starring Michael J. Fox, Geena Davis",
            "url": "https://www.youtube.com/watch?v=SqxoQVKwrug",
            "duration": 4660.0,
            "view_count": 1675279,
            "uploader": "Sony Pictures Entertainment India",
            "category": "cartoons",
            "thumbnail": "https://i.ytimg.com/vi/SqxoQVKwrug/hq720.jpg"
        },
        {
            "id": "HtTuBMospf8",
            "title": "Banjo (2016) Bollywood Full Hindi Movie | बैंजो | Riteish Deshmukh | Nargis Fakhri | Dharmesh",
            "url": "https://www.youtube.com/watch?v=HtTuBMospf8",
            "duration": 6173.0,
            "view_count": 438512,
            "uploader": "Big Screen Entertainment",
            "category": "hindi",
            "thumbnail": "https://i.ytimg.com/vi/HtTuBMospf8/hq720.jpg"
        },
        {
            "id": "-hsJlra8_KU",
            "title": "BRAHMASTRA Full Horror Movie | Prabhas | Rashi Khanna | Garuda Ram | Latest South Indian Movie 2026",
            "url": "https://www.youtube.com/watch?v=-hsJlra8_KU",
            "duration": 8592.0,
            "view_count": 75140,
            "uploader": "Moviewood Cinema",
            "category": "hindi",
            "thumbnail": "https://i.ytimg.com/vi/-hsJlra8_KU/hq720.jpg"
        },
        {
            "id": "QCFPjkTARkM",
            "title": "The TAJ Story Official Hindi Movie 2026 | Paresh Rawal, Zakir Hussain, Amruta | New Bollywood Movie",
            "url": "https://www.youtube.com/watch?v=QCFPjkTARkM",
            "duration": 6207.0,
            "view_count": 3430681,
            "uploader": "Bollwood Cinema Hindi",
            "category": "hindi",
            "thumbnail": "https://i.ytimg.com/vi/QCFPjkTARkM/hq720.jpg"
        },
        {
            "id": "lAWeM7MnhH8",
            "title": "DRISHYAM 3 Full Thriller Movie | Ajay Devgn | Tabu | Akshaye Khanna | New Bollywood Hindi Movie 2025",
            "url": "https://www.youtube.com/watch?v=lAWeM7MnhH8",
            "duration": 8860.0,
            "view_count": 1725995,
            "uploader": "Bollywood World",
            "category": "hindi",
            "thumbnail": "https://i.ytimg.com/vi/lAWeM7MnhH8/hq720.jpg"
        },
        {
            "id": "_NhqjtkdJ2Y",
            "title": "Maaya Full Movie | Thalapathy Vijay | Sai Pallavi | New Released South Indian Action Hd Movies 2026",
            "url": "https://www.youtube.com/watch?v=_NhqjtkdJ2Y",
            "duration": 8845.0,
            "view_count": 7289,
            "uploader": "Movies University",
            "category": "hindi",
            "thumbnail": "https://i.ytimg.com/vi/_NhqjtkdJ2Y/hq720.jpg"
        },
        {
            "id": "9lcGB0bdpCY",
            "title": "BHIKHARI | New Hindi Movie 2026 - Hrithik Roshan & Kajol Devgan | New Bollywood Full Action Movies",
            "url": "https://www.youtube.com/watch?v=9lcGB0bdpCY",
            "duration": 8773.0,
            "view_count": 801402,
            "uploader": "South Tube Pictures",
            "category": "hindi",
            "thumbnail": "https://i.ytimg.com/vi/9lcGB0bdpCY/hq720.jpg"
        },
        {
            "id": "3dtZsC5LZYg",
            "title": "The Kerala Story 2 Full Movie Hindi Dubbed 2026 | New Bollywood Movie | New Movie 2026",
            "url": "https://www.youtube.com/watch?v=3dtZsC5LZYg",
            "duration": 8860.0,
            "view_count": 503869,
            "uploader": "21 Pictures",
            "category": "hindi",
            "thumbnail": "https://i.ytimg.com/vi/3dtZsC5LZYg/hq720.jpg"
        },
        {
            "id": "tbJhoOU5XRQ",
            "title": "Qarib Qarib Singlle (2017) Full Hindi Movie 4K | Irrfan Khan | Parvathy Thiruvothu | Bollywood Movie",
            "url": "https://www.youtube.com/watch?v=tbJhoOU5XRQ",
            "duration": 7229.0,
            "view_count": 3398159,
            "uploader": "Ultra Bollywood",
            "category": "hindi",
            "thumbnail": "https://i.ytimg.com/vi/tbJhoOU5XRQ/hq720.jpg"
        },
        {
            "id": "9OhM9Tox-5s",
            "title": "Mahesh Babu New Action Movie 2026 | Saaheb | South Indian Blockbuster | Hindi Dubbed HD",
            "url": "https://www.youtube.com/watch?v=9OhM9Tox-5s",
            "duration": 6178.0,
            "view_count": 27809,
            "uploader": "MovieMindset",
            "category": "hindi",
            "thumbnail": "https://i.ytimg.com/vi/9OhM9Tox-5s/hq720.jpg"
        },
        {
            "id": "FRIk-YyB3m4",
            "title": "Rudraksh (2026) Full Movie Hindi Dubbed | Dhanush & Rashmika New Action Thriller | South Movie",
            "url": "https://www.youtube.com/watch?v=FRIk-YyB3m4",
            "duration": 7084.0,
            "view_count": 207373,
            "uploader": "Movie Record South",
            "category": "hindi",
            "thumbnail": "https://i.ytimg.com/vi/FRIk-YyB3m4/hq720.jpg"
        },
        {
            "id": "PBD9BiG3TsM",
            "title": "APMAAN - Full Movie 2026 | Shahid Kapoor | Kriti Sanon | New Bollywood Hindi Action Full Movie 2026",
            "url": "https://www.youtube.com/watch?v=PBD9BiG3TsM",
            "duration": 6448.0,
            "view_count": 3483,
            "uploader": "Santra Cinema",
            "category": "hindi",
            "thumbnail": "https://i.ytimg.com/vi/PBD9BiG3TsM/hq720.jpg"
        },
        {
            "id": "7LLW0Qs5HwA",
            "title": "TAARZAN 2: The Wonder Car | Shahid Kapoor | Sanjay Dutt | Kriti Sanon | Latest Bollywood Movie",
            "url": "https://www.youtube.com/watch?v=7LLW0Qs5HwA",
            "duration": 6277.0,
            "view_count": 2161593,
            "uploader": "Bilo New Movies",
            "category": "hindi",
            "thumbnail": "https://i.ytimg.com/vi/7LLW0Qs5HwA/hq720.jpg"
        },
        {
            "id": "LtJl49qZULo",
            "title": "BHIKHARI Full HD Movie | Hrithik Roshan, Kajol Devgn | Bollywood Latest Superhit Action Movies 2026",
            "url": "https://www.youtube.com/watch?v=LtJl49qZULo",
            "duration": 8700.0,
            "view_count": 1520618,
            "uploader": "Santra Cinema",
            "category": "hindi",
            "thumbnail": "https://i.ytimg.com/vi/LtJl49qZULo/hq720.jpg"
        },
        {
            "id": "2rimJYGU5iI",
            "title": "HINDU MUSLIM Full Movie | Akshay Kumar | Paresh Rawal | Latest Bollywood Religious Movie 2026",
            "url": "https://www.youtube.com/watch?v=2rimJYGU5iI",
            "duration": 6207.0,
            "view_count": 2140545,
            "uploader": "Cine South Cinema",
            "category": "hindi",
            "thumbnail": "https://i.ytimg.com/vi/2rimJYGU5iI/hq720.jpg"
        },
        {
            "id": "0oW1pxGk3G4",
            "title": "Tanu Weds Manu - Full Movie | R. Madhavan | Kangana Ranaut | Aanand L. Rai | 8K/4K Ultra HD",
            "url": "https://www.youtube.com/watch?v=0oW1pxGk3G4",
            "duration": 6882.0,
            "view_count": 406451,
            "uploader": "Eros Universe",
            "category": "hindi",
            "thumbnail": "https://i.ytimg.com/vi/0oW1pxGk3G4/hq720.jpg"
        },
        {
            "id": "NiEkmLG9kLo",
            "title": "The Kerala Story 2 Full Movie Hindi Dubbed 2026 | New Bollywood Movie | New Movie 2026",
            "url": "https://www.youtube.com/watch?v=NiEkmLG9kLo",
            "duration": 8907.0,
            "view_count": 1810,
            "uploader": "Cinezaar Cinema",
            "category": "hindi",
            "thumbnail": "https://i.ytimg.com/vi/NiEkmLG9kLo/hq720.jpg"
        },
        {
            "id": "aMqfyM2SfaM",
            "title": "#DQ41 Full Movie Hindi Dubbed | Dulquer Salmaan | Sreeleela | Latest South Indian Action Movie 2026",
            "url": "https://www.youtube.com/watch?v=aMqfyM2SfaM",
            "duration": 8120.0,
            "view_count": 132919,
            "uploader": "Moviewood Cinema",
            "category": "hindi",
            "thumbnail": "https://i.ytimg.com/vi/aMqfyM2SfaM/hq720.jpg"
        },
        {
            "id": "qlOCMrcOchY",
            "title": "Rolex (2026) Full Hindi Dubbed Movie | Suriya, Vijay Sethupathi, Kamal Haasan | South Action HD",
            "url": "https://www.youtube.com/watch?v=qlOCMrcOchY",
            "duration": 9630.0,
            "view_count": 60929,
            "uploader": "PlayNation",
            "category": "hindi",
            "thumbnail": "https://i.ytimg.com/vi/qlOCMrcOchY/hq720.jpg"
        },
        {
            "id": "sCkc0Tv9BMg",
            "title": "The Kerala Story 2 Full Movie Hindi Dubbed 2026 | New Bollywood Movie | New Movie 2026",
            "url": "https://www.youtube.com/watch?v=sCkc0Tv9BMg",
            "duration": 6690.0,
            "view_count": 13727,
            "uploader": "Movietel",
            "category": "hindi",
            "thumbnail": "https://i.ytimg.com/vi/sCkc0Tv9BMg/hq720.jpg"
        },
        {
            "id": "kxAbTN2Afr4",
            "title": "The Kerala Story 2 Full Movie Hindi Dubbed 2026 | New Bollywood Movie | New Movie 2026",
            "url": "https://www.youtube.com/watch?v=kxAbTN2Afr4",
            "duration": 6690.0,
            "view_count": 5210,
            "uploader": "Entertainment Hub",
            "category": "hindi",
            "thumbnail": "https://i.ytimg.com/vi/kxAbTN2Afr4/hq720.jpg"
        }
    ]
}