{
    "page": 79,
    "total_pages": 103,
    "total_items": 5125,
    "items": [
        {
            "id": "V5dmfRJOdoM",
            "title": "Motu बना Fighter और Tiger Chang हुआ परेशान | Motu Patlu Kung Fu Kings | Motu-Patlu | Motu-Patlu",
            "url": "https://www.youtube.com/watch?v=V5dmfRJOdoM",
            "duration": 5775.0,
            "view_count": 20185129,
            "uploader": "Sonic Gang Motu Patlu ",
            "category": "cartoons/motu_patlu",
            "thumbnail": "https://i.ytimg.com/vi/V5dmfRJOdoM/hq720.jpg"
        },
        {
            "id": "OKtmelR754Y",
            "title": "Motu Patlu Cartoons In Hindi | Animated cartoon | Motu Patlu ki deewar| Wow Kidz",
            "url": "https://www.youtube.com/watch?v=OKtmelR754Y",
            "duration": 677.0,
            "view_count": 15109900,
            "uploader": "WowKidz",
            "category": "cartoons/motu_patlu",
            "thumbnail": "https://i.ytimg.com/vi/OKtmelR754Y/hq720.jpg"
        },
        {
            "id": "1wltEpdht6Y",
            "title": "🔴Live : Motu Patlu & The Rise of Zombies | Motu Patlu Hindi Full Movies",
            "url": "https://www.youtube.com/watch?v=1wltEpdht6Y",
            "duration": 0,
            "view_count": 0,
            "uploader": "WowKidz",
            "category": "cartoons/motu_patlu",
            "thumbnail": "https://i.ytimg.com/vi/1wltEpdht6Y/hq720.jpg"
        },
        {
            "id": "qltAaEDB8aU",
            "title": "Motu Patlu in Hindi |  मोटू पतलू  | Hindi Cartoon | Motu The Chef",
            "url": "https://www.youtube.com/watch?v=qltAaEDB8aU",
            "duration": 663.0,
            "view_count": 20628418,
            "uploader": "Motu Patlu",
            "category": "cartoons/motu_patlu",
            "thumbnail": "https://i.ytimg.com/vi/qltAaEDB8aU/hq720.jpg"
        },
        {
            "id": "NMBR2ZyPtpU",
            "title": "Motu का Parking Plan हो गया Out of Control | Motu Patlu | मोटू पतलू",
            "url": "https://www.youtube.com/watch?v=NMBR2ZyPtpU",
            "duration": 3826.0,
            "view_count": 541021,
            "uploader": "Sonic Gang",
            "category": "cartoons/motu_patlu",
            "thumbnail": "https://i.ytimg.com/vi/NMBR2ZyPtpU/hq720.jpg"
        },
        {
            "id": "HjkmvUTxqk8",
            "title": "Motu हुआ परेशान अपना Wallet देख कर | Motu-Patlu",
            "url": "https://www.youtube.com/watch?v=HjkmvUTxqk8",
            "duration": 1356.0,
            "view_count": 2626625,
            "uploader": "Sonic Gang Motu Patlu ",
            "category": "cartoons/motu_patlu",
            "thumbnail": "https://i.ytimg.com/vi/HjkmvUTxqk8/hq720.jpg"
        },
        {
            "id": "yYuZ5r3MLYU",
            "title": "Motu Patlu's first case in which they search for Mrs. Leo 🦜! | Motu Patlu",
            "url": "https://www.youtube.com/watch?v=yYuZ5r3MLYU",
            "duration": 728.0,
            "view_count": 153456,
            "uploader": "ToonTime TV",
            "category": "cartoons/motu_patlu",
            "thumbnail": "https://i.ytimg.com/vi/yYuZ5r3MLYU/hq720.jpg"
        },
        {
            "id": "cOJzZlba86Q",
            "title": "John का Disguise Game... Motu Patlu बने Target | Motu Patlu | मोटू पतलू",
            "url": "https://www.youtube.com/watch?v=cOJzZlba86Q",
            "duration": 3806.0,
            "view_count": 2895189,
            "uploader": "Sonic Gang",
            "category": "cartoons/motu_patlu",
            "thumbnail": "https://i.ytimg.com/vi/cOJzZlba86Q/hq720.jpg"
        },
        {
            "id": "UEbCB3sqcX8",
            "title": "Motu Patlu | Full Episode | Meals on wheel | Bahasa",
            "url": "https://www.youtube.com/watch?v=UEbCB3sqcX8",
            "duration": 650.0,
            "view_count": 209,
            "uploader": "Sonic Gang Bahasa",
            "category": "cartoons/motu_patlu",
            "thumbnail": "https://i.ytimg.com/vi/UEbCB3sqcX8/hq720.jpg"
        },
        {
            "id": "QxNQxxu4BuE",
            "title": "Motu Patlu | मोटू पतलू | Full Episode | John बना Motu का Guardian Angel!",
            "url": "https://www.youtube.com/watch?v=QxNQxxu4BuE",
            "duration": 650.0,
            "view_count": 12182254,
            "uploader": "Sonic Gang",
            "category": "cartoons/motu_patlu",
            "thumbnail": "https://i.ytimg.com/vi/QxNQxxu4BuE/hq720.jpg"
        },
        {
            "id": "Ko-LjoCROxw",
            "title": "Motu बना Fighter... Tiger Chang परेशान | Motu Patlu Kung Fu Kings | Full Movie",
            "url": "https://www.youtube.com/watch?v=Ko-LjoCROxw",
            "duration": 5774.0,
            "view_count": 18416921,
            "uploader": "Sonic Gang Hindi Movies",
            "category": "cartoons/motu_patlu",
            "thumbnail": "https://i.ytimg.com/vi/Ko-LjoCROxw/hq720.jpg"
        },
        {
            "id": "8apGerMKrUc",
            "title": "Motu Patlu's Funny Gags | season 13 Compilation | 158 | Hindi Cartoon For Kids | Animated Series",
            "url": "https://www.youtube.com/watch?v=8apGerMKrUc",
            "duration": 1992.0,
            "view_count": 4811,
            "uploader": "Wow Kidz Gags",
            "category": "cartoons/motu_patlu",
            "thumbnail": "https://i.ytimg.com/vi/8apGerMKrUc/hq720.jpg"
        },
        {
            "id": "dv29Wo1x5Pw",
            "title": "Motu Patlu | Season 1 | मोटू पतलू S1 | Jaadoogarni Ka Jhaadu | Episode 220 Part 1 | Voot Kids",
            "url": "https://www.youtube.com/watch?v=dv29Wo1x5Pw",
            "duration": 687.0,
            "view_count": 24585677,
            "uploader": "JioHotstar Kids",
            "category": "cartoons/motu_patlu",
            "thumbnail": "https://i.ytimg.com/vi/dv29Wo1x5Pw/hq720.jpg"
        },
        {
            "id": "MddsqWvZlkA",
            "title": "Motu Patlu's Funny Gags | season 13 Compilation | 159 | Hindi Cartoon For Kids | Animated Series",
            "url": "https://www.youtube.com/watch?v=MddsqWvZlkA",
            "duration": 1954.0,
            "view_count": 23873,
            "uploader": "Wow Kidz Gags",
            "category": "cartoons/motu_patlu",
            "thumbnail": "https://i.ytimg.com/vi/MddsqWvZlkA/hq720.jpg"
        },
        {
            "id": "Sh4NpHi_J68",
            "title": "Motu पर John के Samosas का खतरनाक असर | Motu Patlu | मोटू पतलू",
            "url": "https://www.youtube.com/watch?v=Sh4NpHi_J68",
            "duration": 3797.0,
            "view_count": 961632,
            "uploader": "Sonic Gang",
            "category": "cartoons/motu_patlu",
            "thumbnail": "https://i.ytimg.com/vi/Sh4NpHi_J68/hq720.jpg"
        },
        {
            "id": "g2NiFpca88c",
            "title": "Motu Patlu took on the painting case of Mr. Peter Picasso, now the secret of the fake painting wi...",
            "url": "https://www.youtube.com/watch?v=g2NiFpca88c",
            "duration": 742.0,
            "view_count": 239339,
            "uploader": "ToonTime TV",
            "category": "cartoons/motu_patlu",
            "thumbnail": "https://i.ytimg.com/vi/g2NiFpca88c/hq720.jpg"
        },
        {
            "id": "gFlTJPQBypc",
            "title": "Motu Patlu : Motu Patlu Khatra Hai Motu Ki Help Karo | Winter Special | Hindi Cartoon Motu Patlu",
            "url": "https://www.youtube.com/watch?v=gFlTJPQBypc",
            "duration": 1268.0,
            "view_count": 20950,
            "uploader": "Motu Patlu",
            "category": "cartoons/motu_patlu",
            "thumbnail": "https://i.ytimg.com/vi/gFlTJPQBypc/hq720.jpg"
        },
        {
            "id": "h1dwi9oTFLE",
            "title": "Motu Patlu Rajasthan special | John ने चुरा लिया Dr. Jhatka का Alien Device! | मोटू पतलू",
            "url": "https://www.youtube.com/watch?v=h1dwi9oTFLE",
            "duration": 1351.0,
            "view_count": 2920305,
            "uploader": "Sonic Gang",
            "category": "cartoons/motu_patlu",
            "thumbnail": "https://i.ytimg.com/vi/h1dwi9oTFLE/hq720.jpg"
        },
        {
            "id": "-kqtJ0bG0Ck",
            "title": "ओये Plate साफ करना फर्ज़ है…पापे दा ढाबा| Motu Patlu Punjab Special | Motu Patlu | मोटू पतलू",
            "url": "https://www.youtube.com/watch?v=-kqtJ0bG0Ck",
            "duration": 3976.0,
            "view_count": 1211417,
            "uploader": "Sonic Gang",
            "category": "cartoons/motu_patlu",
            "thumbnail": "https://i.ytimg.com/vi/-kqtJ0bG0Ck/hq720.jpg"
        },
        {
            "id": "BQkgNLOaiYk",
            "title": "Motu को समोसे वाले ने दिया Golden Samosa | Motu-Patlu",
            "url": "https://www.youtube.com/watch?v=BQkgNLOaiYk",
            "duration": 629.0,
            "view_count": 5011057,
            "uploader": "Sonic Gang Motu Patlu ",
            "category": "cartoons/motu_patlu",
            "thumbnail": "https://i.ytimg.com/vi/BQkgNLOaiYk/hq720.jpg"
        },
        {
            "id": "-pe06yCVQwo",
            "title": "Motu Patlu : Kung Fu In The Museum | Season 15 Full Episode | Cartoons For Kids",
            "url": "https://www.youtube.com/watch?v=-pe06yCVQwo",
            "duration": 724.0,
            "view_count": 2149,
            "uploader": "Motu Patlu",
            "category": "cartoons/motu_patlu",
            "thumbnail": "https://i.ytimg.com/vi/-pe06yCVQwo/hq720.jpg"
        },
        {
            "id": "yBTZmd3hwwc",
            "title": "Bean Books a Holiday! | Mr Bean Animated Full Episodes | Mr Bean World",
            "url": "https://www.youtube.com/watch?v=yBTZmd3hwwc",
            "duration": 2642.0,
            "view_count": 2728855,
            "uploader": "Mr Bean World",
            "category": "cartoons/mr_bean",
            "thumbnail": "https://i.ytimg.com/vi/yBTZmd3hwwc/hq720.jpg"
        },
        {
            "id": "J324nu1vjVg",
            "title": "Camping | Funny Episodes | Mr Bean Animated | Cartoons for Kids",
            "url": "https://www.youtube.com/watch?v=J324nu1vjVg",
            "duration": 2584.0,
            "view_count": 5643627,
            "uploader": "Cartoons for Kids - Mr Bean",
            "category": "cartoons/mr_bean",
            "thumbnail": "https://i.ytimg.com/vi/J324nu1vjVg/hq720.jpg"
        },
        {
            "id": "XeltZ_MOIik",
            "title": "Farmer Bean! | Mr Bean Animated season 1 | Mr Bean Full Episodes | Mr Bean",
            "url": "https://www.youtube.com/watch?v=XeltZ_MOIik",
            "duration": 3230.0,
            "view_count": 6596156,
            "uploader": "Mr Bean World",
            "category": "cartoons/mr_bean",
            "thumbnail": "https://i.ytimg.com/vi/XeltZ_MOIik/hq720.jpg"
        },
        {
            "id": "j1fYTtD-uhk",
            "title": "Good Dog | Jungle Beat: Munki & Trunk | Full Episodes | Kids Cartoon 2024",
            "url": "https://www.youtube.com/watch?v=j1fYTtD-uhk",
            "duration": 10103.0,
            "view_count": 1523771,
            "uploader": "Jungle Beat",
            "category": "cartoons/mr_bean",
            "thumbnail": "https://i.ytimg.com/vi/j1fYTtD-uhk/hq720.jpg"
        },
        {
            "id": "AsakezBU3SQ",
            "title": "Mr Bean In The Snow & Cold | Mr Bean Cartoon World",
            "url": "https://www.youtube.com/watch?v=AsakezBU3SQ",
            "duration": 2674.0,
            "view_count": 103118255,
            "uploader": "Mr Bean World",
            "category": "cartoons/mr_bean",
            "thumbnail": "https://i.ytimg.com/vi/AsakezBU3SQ/hq720.jpg"
        },
        {
            "id": "nONJU-c8ZQY",
            "title": "Teddy Hotel | Mr Bean Cartoon Season 1 | Full Episodes | Mr Bean Official",
            "url": "https://www.youtube.com/watch?v=nONJU-c8ZQY",
            "duration": 2584.0,
            "view_count": 8255050,
            "uploader": "Mr Bean",
            "category": "cartoons/mr_bean",
            "thumbnail": "https://i.ytimg.com/vi/nONJU-c8ZQY/hq720.jpg"
        },
        {
            "id": "HOYpAgWPTps",
            "title": "Ice Cream | Funny Episodes | Mr Bean Cartoon World",
            "url": "https://www.youtube.com/watch?v=HOYpAgWPTps",
            "duration": 2452.0,
            "view_count": 117471682,
            "uploader": "Mr Bean World",
            "category": "cartoons/mr_bean",
            "thumbnail": "https://i.ytimg.com/vi/HOYpAgWPTps/hq720.jpg"
        },
        {
            "id": "ze3cICcTM_E",
            "title": "| Mr Bean Animated Season 1 | Full Episodes | Mr Bean Official",
            "url": "https://www.youtube.com/watch?v=ze3cICcTM_E",
            "duration": 5166.0,
            "view_count": 4795362,
            "uploader": "Mr Bean",
            "category": "cartoons/mr_bean",
            "thumbnail": "https://i.ytimg.com/vi/ze3cICcTM_E/hq720.jpg"
        },
        {
            "id": "6qD6-zSsmy8",
            "title": "Scientist Bean! | Mr Bean Animated Season 1 | Full Episodes | Mr Bean Official",
            "url": "https://www.youtube.com/watch?v=6qD6-zSsmy8",
            "duration": 5167.0,
            "view_count": 3573309,
            "uploader": "Mr Bean",
            "category": "cartoons/mr_bean",
            "thumbnail": "https://i.ytimg.com/vi/6qD6-zSsmy8/hq720.jpg"
        },
        {
            "id": "LBvgXBClClY",
            "title": "Mr Bean's Portly House Guest | Mr Bean Animated Season 1 | Full Episodes | Mr Bean World",
            "url": "https://www.youtube.com/watch?v=LBvgXBClClY",
            "duration": 3230.0,
            "view_count": 1664202,
            "uploader": "Mr Bean World",
            "category": "cartoons/mr_bean",
            "thumbnail": "https://i.ytimg.com/vi/LBvgXBClClY/hq720.jpg"
        },
        {
            "id": "4yvxC57NnPE",
            "title": "Bean's Big Adventure! | Mr. Bean | Cartoons for Kids | WildBrain Kids",
            "url": "https://www.youtube.com/watch?v=4yvxC57NnPE",
            "duration": 9458.0,
            "view_count": 12807466,
            "uploader": "WildBrain Kids",
            "category": "cartoons/mr_bean",
            "thumbnail": "https://i.ytimg.com/vi/4yvxC57NnPE/hq720.jpg"
        },
        {
            "id": "R0OD5F-WO9A",
            "title": "Egg & Bean 🍳| Mr Bean Cartoon Season 1 | Full Episodes | Cartoons for Kids",
            "url": "https://www.youtube.com/watch?v=R0OD5F-WO9A",
            "duration": 2599.0,
            "view_count": 6558043,
            "uploader": "Cartoons for Kids - Mr Bean",
            "category": "cartoons/mr_bean",
            "thumbnail": "https://i.ytimg.com/vi/R0OD5F-WO9A/hq720.jpg"
        },
        {
            "id": "6DQrfYYnwi4",
            "title": "Pizza Bean! | Mr Bean Cartoon Season 2 | Full Episodes | Mr Bean Official",
            "url": "https://www.youtube.com/watch?v=6DQrfYYnwi4",
            "duration": 3302.0,
            "view_count": 32044827,
            "uploader": "Mr Bean",
            "category": "cartoons/mr_bean",
            "thumbnail": "https://i.ytimg.com/vi/6DQrfYYnwi4/hq720.jpg"
        },
        {
            "id": "0p78BJDCT9U",
            "title": "Mr Bean new episode in Hindi pray 3(1)",
            "url": "https://www.youtube.com/watch?v=0p78BJDCT9U",
            "duration": 630.0,
            "view_count": 7446488,
            "uploader": "Cartoons for Kids - Mr Bean",
            "category": "cartoons/mr_bean",
            "thumbnail": "https://i.ytimg.com/vi/0p78BJDCT9U/hqdefault.jpg"
        },
        {
            "id": "I4GyOjpf0Ts",
            "title": "Bean's New Flat-Screen TV! | Mr Bean Animated | Full Episode Compilation | Mr Bean World",
            "url": "https://www.youtube.com/watch?v=I4GyOjpf0Ts",
            "duration": 3231.0,
            "view_count": 4128653,
            "uploader": "Mr Bean World",
            "category": "cartoons/mr_bean",
            "thumbnail": "https://i.ytimg.com/vi/I4GyOjpf0Ts/hq720.jpg"
        },
        {
            "id": "LN_7UC1kfcA",
            "title": "Mr Bean Enjoys Jail! | Mr Bean Animated Season 1 | Full Episodes | Mr Bean Official",
            "url": "https://www.youtube.com/watch?v=LN_7UC1kfcA",
            "duration": 5168.0,
            "view_count": 21158150,
            "uploader": "Mr Bean",
            "category": "cartoons/mr_bean",
            "thumbnail": "https://i.ytimg.com/vi/LN_7UC1kfcA/hq720.jpg"
        },
        {
            "id": "eLgxBaiwuA8",
            "title": "Watermelon Winner 🍉 | Funny Episodes | Mr Bean Cartoon World",
            "url": "https://www.youtube.com/watch?v=eLgxBaiwuA8",
            "duration": 3194.0,
            "view_count": 109932307,
            "uploader": "Mr Bean World",
            "category": "cartoons/mr_bean",
            "thumbnail": "https://i.ytimg.com/vi/eLgxBaiwuA8/hq720.jpg"
        },
        {
            "id": "J-X2GwBIj0M",
            "title": "Jingle Bean , Jingle Bean! 🎄| Mr Bean Animated Season 2 | Mr Bean World",
            "url": "https://www.youtube.com/watch?v=J-X2GwBIj0M",
            "duration": 2674.0,
            "view_count": 538221,
            "uploader": "Mr Bean World",
            "category": "cartoons/mr_bean",
            "thumbnail": "https://i.ytimg.com/vi/J-X2GwBIj0M/hq720.jpg"
        },
        {
            "id": "aryCScSrDa0",
            "title": "Mr Bean Is HOMELESS! | Mr Bean Animated Season 1 | Full Episodes | Mr Bean World",
            "url": "https://www.youtube.com/watch?v=aryCScSrDa0",
            "duration": 3228.0,
            "view_count": 18700416,
            "uploader": "Mr Bean World",
            "category": "cartoons/mr_bean",
            "thumbnail": "https://i.ytimg.com/vi/aryCScSrDa0/hq720.jpg"
        },
        {
            "id": "FIX7cSCEqfQ",
            "title": "A New Car For Christmas? | Mr Bean Animated Season 3 | Full Episodes | Cartoons For Kids",
            "url": "https://www.youtube.com/watch?v=FIX7cSCEqfQ",
            "duration": 3302.0,
            "view_count": 1612212,
            "uploader": "Cartoons for Kids - Mr Bean",
            "category": "cartoons/various_cartoons",
            "thumbnail": "https://i.ytimg.com/vi/FIX7cSCEqfQ/hq720.jpg"
        },
        {
            "id": "sJ7QikIf0fQ",
            "title": "Mr bean season 1 episode 2 in hindi",
            "url": "https://www.youtube.com/watch?v=sJ7QikIf0fQ",
            "duration": 630.0,
            "view_count": 67067,
            "uploader": "mr bean topic",
            "category": "cartoons/mr_bean",
            "thumbnail": "https://i.ytimg.com/vi/sJ7QikIf0fQ/hqdefault.jpg"
        },
        {
            "id": "fzymK2GyAtU",
            "title": "What Did Mr Bean Hatch!? | Mr Bean Animated Season 1 | Full Episodes | Mr Bean Official",
            "url": "https://www.youtube.com/watch?v=fzymK2GyAtU",
            "duration": 5166.0,
            "view_count": 5688171,
            "uploader": "Mr Bean",
            "category": "cartoons/mr_bean",
            "thumbnail": "https://i.ytimg.com/vi/fzymK2GyAtU/hq720.jpg"
        },
        {
            "id": "VUwObyvSzRY",
            "title": "Mr Bean new episode in Hindi pray 3(3)",
            "url": "https://www.youtube.com/watch?v=VUwObyvSzRY",
            "duration": 631.0,
            "view_count": 2116234,
            "uploader": "Cartoons for Kids - Mr Bean",
            "category": "cartoons/mr_bean",
            "thumbnail": "https://i.ytimg.com/vi/VUwObyvSzRY/hqdefault.jpg"
        },
        {
            "id": "1tVh6C6PwsQ",
            "title": "Mr Bean Turns His House into Soft Play! | Mr Bean Animated Season 1 | Full Episodes | Mr Bean World",
            "url": "https://www.youtube.com/watch?v=1tVh6C6PwsQ",
            "duration": 3300.0,
            "view_count": 15402512,
            "uploader": "Mr Bean World",
            "category": "cartoons/mr_bean",
            "thumbnail": "https://i.ytimg.com/vi/1tVh6C6PwsQ/hq720.jpg"
        },
        {
            "id": "v4SD0YKxUKI",
            "title": "Mr Bean Becomes a Celebrity 🤳 | Mr Bean Animated Season 2 | Full Episodes | Cartoons for Kids",
            "url": "https://www.youtube.com/watch?v=v4SD0YKxUKI",
            "duration": 2657.0,
            "view_count": 6589436,
            "uploader": "Cartoons for Kids - Mr Bean",
            "category": "cartoons/mr_bean",
            "thumbnail": "https://i.ytimg.com/vi/v4SD0YKxUKI/hq720.jpg"
        },
        {
            "id": "lxCpkno_hd4",
            "title": "Hamburger Day With Mr Bean and Teddy! 🍔| Mr Bean Animated Season 1 | Funny Clips | Mr Bean",
            "url": "https://www.youtube.com/watch?v=lxCpkno_hd4",
            "duration": 2583.0,
            "view_count": 20805578,
            "uploader": "Mr Bean",
            "category": "cartoons/mr_bean",
            "thumbnail": "https://i.ytimg.com/vi/lxCpkno_hd4/hq720.jpg"
        },
        {
            "id": "0hYs01K3nd8",
            "title": "Mr Bean's Mansion Visit! | Mr Bean Animated Season 1 | Full Episodes | Mr Bean Official",
            "url": "https://www.youtube.com/watch?v=0hYs01K3nd8",
            "duration": 5167.0,
            "view_count": 1247501,
            "uploader": "Mr Bean",
            "category": "cartoons/mr_bean",
            "thumbnail": "https://i.ytimg.com/vi/0hYs01K3nd8/hq720.jpg"
        },
        {
            "id": "IdnnTf2GWjA",
            "title": "Mr Bean's AMAZING New Perfume! | Mr Bean Animated season 3 | Full Episodes | Mr Bean",
            "url": "https://www.youtube.com/watch?v=IdnnTf2GWjA",
            "duration": 5283.0,
            "view_count": 4337989,
            "uploader": "Mr Bean",
            "category": "cartoons/mr_bean",
            "thumbnail": "https://i.ytimg.com/vi/IdnnTf2GWjA/hq720.jpg"
        },
        {
            "id": "kZWBWB0P-m8",
            "title": "Mr Bean Cartoon Full Episodes | Mr Bean the Animated Series New Collection #26",
            "url": "https://www.youtube.com/watch?v=kZWBWB0P-m8",
            "duration": 1260.0,
            "view_count": 11293632,
            "uploader": "Mr Bean Hindi",
            "category": "cartoons/mr_bean",
            "thumbnail": "https://i.ytimg.com/vi/kZWBWB0P-m8/hqdefault.jpg"
        }
    ]
}