{
    "page": 1,
    "total_pages": 6,
    "total_items": 255,
    "items": [
        {
            "id": "MTjjOdnWF5Y",
            "title": "Samajavaragamana Comedy Drama Telugu Full Film | Reba Monica John | Sree Vishnu @tfcmaacinemalu",
            "url": "https://www.youtube.com/watch?v=MTjjOdnWF5Y",
            "duration": 7033.0,
            "view_count": 3662887,
            "uploader": "Maa Cinemalu",
            "category": "telugu",
            "thumbnail": "https://i.ytimg.com/vi/MTjjOdnWF5Y/hq720.jpg?sqp=-oaymwEcCNAFEJQDSFXyq4qpAw4IARUAAIhCGAFwAcABBg==&rs=AOn4CLCraSxlLoYC2GhOJL4ZBtu1FJT3gQ",
            "added_date": "2026-04-16T07:31:14.222214Z",
            "source": "youtube"
        },
        {
            "id": "Xo84bb0qz5E",
            "title": "Latest Telugu Suspense Thriller Full Movie | A(Ad Infinitum) | Ugandar Muni |New South Action Movies",
            "url": "https://www.youtube.com/watch?v=Xo84bb0qz5E",
            "duration": 8855.0,
            "view_count": 1322880,
            "uploader": "SriBalajiMovies",
            "category": "telugu",
            "thumbnail": "https://i.ytimg.com/vi/Xo84bb0qz5E/hq720.jpg"
        },
        {
            "id": "DlIMEKLN_xc",
            "title": "Manchi Kutumbam Telugu Full Movie | Krishna | Radha | Sharada | Gollapudi Maruthi Rao | Giri Babu",
            "url": "https://www.youtube.com/watch?v=DlIMEKLN_xc",
            "duration": 7673.0,
            "view_count": 32103,
            "uploader": "Telugu Movie Bazaar",
            "category": "telugu",
            "thumbnail": "https://i.ytimg.com/vi/DlIMEKLN_xc/hq720.jpg"
        },
        {
            "id": "sEu1b7YXqVE",
            "title": "Shakuni  Telugu Full Movie | Karthi And Pranitha Recent Blockbuster Political Movie | TFC Hit Scenes",
            "url": "https://www.youtube.com/watch?v=sEu1b7YXqVE",
            "duration": 7799.0,
            "view_count": 186887,
            "uploader": "TFC Hit Scenes",
            "category": "telugu",
            "thumbnail": "https://i.ytimg.com/vi/sEu1b7YXqVE/hq720.jpg"
        },
        {
            "id": "pkb5wzXnCn0",
            "title": "Vishal,Keerthy Suresh,Varalaxmi Superhit Telugu Full Length HD movie | @tollywoodboxoffice",
            "url": "https://www.youtube.com/watch?v=pkb5wzXnCn0",
            "duration": 8056.0,
            "view_count": 1290259,
            "uploader": "Tollywood Box Office",
            "category": "telugu",
            "thumbnail": "https://i.ytimg.com/vi/pkb5wzXnCn0/hq720.jpg"
        },
        {
            "id": "kXRTlTBr7lE",
            "title": "English Vinglish (2012) | Telugu Dubbed Full Movie | Sridevi, Adil Hussain | Emotional, Drama (HD)",
            "url": "https://www.youtube.com/watch?v=kXRTlTBr7lE",
            "duration": 7694.0,
            "view_count": 933730,
            "uploader": "Eros Universe South",
            "category": "telugu",
            "thumbnail": "https://i.ytimg.com/vi/kXRTlTBr7lE/hq720.jpg"
        },
        {
            "id": "BGOU5rHf_GM",
            "title": "Dulquer Salman Sobhita Dhulipala Crima Thriller Telugu Full Movie HD | Tovino Thomas | 90ml movies",
            "url": "https://www.youtube.com/watch?v=BGOU5rHf_GM",
            "duration": 8279.0,
            "view_count": 1533847,
            "uploader": "90 ML Movies",
            "category": "telugu",
            "thumbnail": "https://i.ytimg.com/vi/BGOU5rHf_GM/hq720.jpg"
        },
        {
            "id": "i7V5x-YFpPU",
            "title": "Hey Balwanth (2026) HDTelugu Full Movie super Hit movie in telugu",
            "url": "https://www.youtube.com/watch?v=i7V5x-YFpPU",
            "duration": 7917.0,
            "view_count": 1285791,
            "uploader": "venu for you 18",
            "category": "telugu",
            "thumbnail": "https://i.ytimg.com/vi/i7V5x-YFpPU/hq720.jpg"
        },
        {
            "id": "dt8cVYusapQ",
            "title": "Allu Sirish And Lavanya Tripathi  Telugu Full Movie  | Recent Telugu Movies | Telugu Hits",
            "url": "https://www.youtube.com/watch?v=dt8cVYusapQ",
            "duration": 8091.0,
            "view_count": 312411,
            "uploader": "Telugu Hits",
            "category": "telugu",
            "thumbnail": "https://i.ytimg.com/vi/dt8cVYusapQ/hq720.jpg"
        },
        {
            "id": "nVsJLEIMnmE",
            "title": "Govindudu Andarivadele Latest Telugu Full Movie | Ram Charan, Kajal Agarwal @SriBalajiMovies",
            "url": "https://www.youtube.com/watch?v=nVsJLEIMnmE",
            "duration": 8746.0,
            "view_count": 82184460,
            "uploader": "SriBalajiMovies",
            "category": "telugu",
            "thumbnail": "https://i.ytimg.com/vi/nVsJLEIMnmE/hq720.jpg?sqp=-oaymwEcCNAFEJQDSFXyq4qpAw4IARUAAIhCGAFwAcABBg==&rs=AOn4CLAESzrxhAFlVDWoVlHD1uW2A5OY4Q",
            "added_date": "2026-04-16T07:31:15.424291Z",
            "source": "youtube"
        },
        {
            "id": "c_diMSAaojU",
            "title": "Nuvvostanante Nenoddantana Telugu Full Movie | Siddharth, Trisha, Srihari | Sri Balaji Video",
            "url": "https://www.youtube.com/watch?v=c_diMSAaojU",
            "duration": 9665.0,
            "view_count": 100269468,
            "uploader": "Sri Balaji Full Movies",
            "category": "telugu",
            "thumbnail": "https://i.ytimg.com/vi/c_diMSAaojU/hq720.jpg?sqp=-oaymwEcCNAFEJQDSFXyq4qpAw4IARUAAIhCGAFwAcABBg==&rs=AOn4CLB8lmUw7mIpZdsgHgKBEznbF4J2kA",
            "added_date": "2026-04-16T07:31:15.624553Z",
            "source": "youtube"
        },
        {
            "id": "glbn3fzBL8U",
            "title": "Nuvvu Naaku Nachav Full Movie 4K | Venkatesh | Aarthi Agarwal | Trivikram | K Vijaya Bhaskar | Koti",
            "url": "https://www.youtube.com/watch?v=glbn3fzBL8U",
            "duration": 11249.0,
            "view_count": 3279556,
            "uploader": "Sri Sravanthi Movies",
            "category": "telugu",
            "thumbnail": "https://i.ytimg.com/vi/glbn3fzBL8U/hq720.jpg"
        },
        {
            "id": "r12IbJpdG58",
            "title": "7th Sense Telugu Full Movie | Suriya, Shruti Haasan | AR Murugadoss | Telugu Movies | Delugu Movies",
            "url": "https://www.youtube.com/watch?v=r12IbJpdG58",
            "duration": 9249.0,
            "view_count": 362314,
            "uploader": "Delugu Movies",
            "category": "telugu",
            "thumbnail": "https://i.ytimg.com/vi/r12IbJpdG58/hq720.jpg"
        },
        {
            "id": "RqQNnn5ccZs",
            "title": "Temper Full Movie Telugu | Jr NTR | Kajal Aggarwal | Puri Jagannadh | Action Thriller | Dolby Cinema",
            "url": "https://www.youtube.com/watch?v=RqQNnn5ccZs",
            "duration": 8418.0,
            "view_count": 177283,
            "uploader": "Dolby Cinema Vault",
            "category": "telugu",
            "thumbnail": "https://i.ytimg.com/vi/RqQNnn5ccZs/hq720.jpg"
        },
        {
            "id": "8gp9ZjrNWzs",
            "title": "Bahubali - The Epic (telugu) | prabhas,Rana |SS Rajamouli Telugu Full HD movie Dolby Atmos sound ",
            "url": "https://www.youtube.com/watch?v=8gp9ZjrNWzs",
            "duration": 13431.0,
            "view_count": 875132,
            "uploader": "Telugu new movies",
            "category": "telugu",
            "thumbnail": "https://i.ytimg.com/vi/8gp9ZjrNWzs/hqdefault.jpg"
        },
        {
            "id": "KSNRxNv7omM",
            "title": "Ready Telugu Full Movie 4K | Ram Pothineni | Genelia | Brahmanandam | Sunil | Srinu Vaitla | DSP",
            "url": "https://www.youtube.com/watch?v=KSNRxNv7omM",
            "duration": 10372.0,
            "view_count": 7176269,
            "uploader": "Telugu Filmnagar",
            "category": "telugu",
            "thumbnail": "https://i.ytimg.com/vi/KSNRxNv7omM/hq720.jpg?sqp=-oaymwEcCNAFEJQDSFXyq4qpAw4IARUAAIhCGAFwAcABBg==&rs=AOn4CLCNrXRDSGjDhlsJCKVrHvYsGYzwDQ",
            "added_date": "2026-04-16T07:31:15.824955Z",
            "source": "youtube"
        },
        {
            "id": "ZkuXn1tUWXI",
            "title": "Saaho Latest Telugu Full Movie 4K | Prabhas | Shraddha Kapoor | Sujith | Prabhas New Movie 2026",
            "url": "https://www.youtube.com/watch?v=ZkuXn1tUWXI",
            "duration": 10181.0,
            "view_count": 1063254,
            "uploader": "Telugu Filmnagar",
            "category": "telugu",
            "thumbnail": "https://i.ytimg.com/vi/ZkuXn1tUWXI/hq720.jpg"
        },
        {
            "id": "JQYtgRF_SiI",
            "title": "Bheeshma Recent Super Hit Telugu Full Length HD Movie || Nithin || Rashmika Mandanna || Matinee Show",
            "url": "https://www.youtube.com/watch?v=JQYtgRF_SiI",
            "duration": 7397.0,
            "view_count": 12406799,
            "uploader": "Matinee Show",
            "category": "telugu",
            "thumbnail": "https://i.ytimg.com/vi/JQYtgRF_SiI/hq720.jpg"
        },
        {
            "id": "HoylISiCay8",
            "title": "CASE NO. 108 (కేసు నం. 108) | Vennela Kishore, Ananya Nagalla New Telugu Crime Thriller | Full Movie",
            "url": "https://www.youtube.com/watch?v=HoylISiCay8",
            "duration": 6295.0,
            "view_count": 588595,
            "uploader": "Andhra Talkies",
            "category": "telugu",
            "thumbnail": "https://i.ytimg.com/vi/HoylISiCay8/hq720.jpg"
        },
        {
            "id": "lll2R5Ysp_I",
            "title": "Just Married Full Movie | Telugu Full Movies | Sheetal Gauthaman | Rishi Narayan | Infinitum Media",
            "url": "https://www.youtube.com/watch?v=lll2R5Ysp_I",
            "duration": 16471.0,
            "view_count": 3311557,
            "uploader": "Sheetal Gauthaman",
            "category": "telugu",
            "thumbnail": "https://i.ytimg.com/vi/lll2R5Ysp_I/hq720.jpg"
        },
        {
            "id": "j7QAlBfA0gY",
            "title": "Khaidi Kathik Blockbuster Hit Telugu Full Action Thriller HD Movie || Full Movies || Matinee Show",
            "url": "https://www.youtube.com/watch?v=j7QAlBfA0gY",
            "duration": 8117.0,
            "view_count": 2417537,
            "uploader": "Matinee Show",
            "category": "telugu",
            "thumbnail": "https://i.ytimg.com/vi/j7QAlBfA0gY/hq720.jpg"
        },
        {
            "id": "5s0hqn5TooM",
            "title": "Lucky Bhaskar Black Comedy-Crime Telugu Full HD Film | Dulquer Salmaan And  Meenakshi Chaudhary",
            "url": "https://www.youtube.com/watch?v=5s0hqn5TooM",
            "duration": 8028.0,
            "view_count": 2913544,
            "uploader": "Maa Cinemalu",
            "category": "telugu",
            "thumbnail": "https://i.ytimg.com/vi/5s0hqn5TooM/hq720.jpg"
        },
        {
            "id": "wP6VwHKve4k",
            "title": "Aravinda Sametha Veera Raghava Telugu Full Movie | Jr NTR | Pooja Hegde @skyvideostelugu",
            "url": "https://www.youtube.com/watch?v=wP6VwHKve4k",
            "duration": 7895.0,
            "view_count": 3770297,
            "uploader": "SkyVideos Telugu",
            "category": "telugu",
            "thumbnail": "https://i.ytimg.com/vi/wP6VwHKve4k/hq720.jpg"
        },
        {
            "id": "0b8OvRCrLms",
            "title": "Sarrainodu Blockbuster Hit Telugu Full Movie || Allu arjun || Aadhi Pinisetty || Cinema Theatre",
            "url": "https://www.youtube.com/watch?v=0b8OvRCrLms",
            "duration": 7348.0,
            "view_count": 12968686,
            "uploader": "Cinema Theatre",
            "category": "telugu",
            "thumbnail": "https://i.ytimg.com/vi/0b8OvRCrLms/hq720.jpg"
        },
        {
            "id": "tSYHaEEE27U",
            "title": "Rang De - Telugu Full Movie - Nithiin, Keerthy Suresh, Gayathri Raghuram, Raghuvaran",
            "url": "https://www.youtube.com/watch?v=tSYHaEEE27U",
            "duration": 7499.0,
            "view_count": 17419568,
            "uploader": "Zee Movies Telugu",
            "category": "telugu",
            "thumbnail": "https://i.ytimg.com/vi/tSYHaEEE27U/hqdefault.jpg?sqp=-oaymwEcCOADEI4CSFXyq4qpAw4IARUAAIhCGAFwAcABBg==&rs=AOn4CLDkphBaREatWhBdSBaQXT4pXZgmfQ",
            "added_date": "2026-04-16T07:31:14.622876Z",
            "source": "youtube"
        },
        {
            "id": "LS6XiINMc2s",
            "title": "Srimanthudu Telugu Full Movie | Mahesh Babu | Shruti Haasan | Jagapathi Babu | Latest Telugu Movies",
            "url": "https://www.youtube.com/watch?v=LS6XiINMc2s",
            "duration": 9719.0,
            "view_count": 238911647,
            "uploader": "Mythri Movie Makers",
            "category": "telugu",
            "thumbnail": "https://i.ytimg.com/vi/LS6XiINMc2s/hq720.jpg?sqp=-oaymwEcCNAFEJQDSFXyq4qpAw4IARUAAIhCGAFwAcABBg==&rs=AOn4CLC0hp5VZTXMF31VCaeKd0gaCnOo2A",
            "added_date": "2026-04-16T07:31:16.025321Z",
            "source": "youtube"
        },
        {
            "id": "b8dvhBPrGtw",
            "title": "Mirchi Telugu Full Movie | Prabhas, Anushka Shetty, Richa Gangopadhyay@SriBalajiMovies",
            "url": "https://www.youtube.com/watch?v=b8dvhBPrGtw",
            "duration": 9588.0,
            "view_count": 55084378,
            "uploader": "SriBalajiMovies",
            "category": "telugu",
            "thumbnail": "https://i.ytimg.com/vi/b8dvhBPrGtw/hq720.jpg"
        },
        {
            "id": "G5ZNbNxs9Os",
            "title": "Dookudu Telugu Full Movie 4K | Mahesh Babu | Samantha | Sonu Sood | Thaman S | Telugu New Movies",
            "url": "https://www.youtube.com/watch?v=G5ZNbNxs9Os",
            "duration": 10496.0,
            "view_count": 775759,
            "uploader": "Telugu Filmnagar",
            "category": "telugu",
            "thumbnail": "https://i.ytimg.com/vi/G5ZNbNxs9Os/hq720.jpg"
        },
        {
            "id": "iK4RBmP3jR4",
            "title": "Dear Comrade 2026 Indian Telugu Romantic Action Drama  Movie | @ManaChitraalu",
            "url": "https://www.youtube.com/watch?v=iK4RBmP3jR4",
            "duration": 8815.0,
            "view_count": 370651,
            "uploader": "Mana Chitraalu",
            "category": "telugu",
            "thumbnail": "https://i.ytimg.com/vi/iK4RBmP3jR4/hq720.jpg"
        },
        {
            "id": "jGUvk424TMY",
            "title": "Mukhachitram Telugu Suspense Thriller Full Movie | Vishwak Sen, Ayesha Khan | 2025 New South Movies",
            "url": "https://www.youtube.com/watch?v=jGUvk424TMY",
            "duration": 7364.0,
            "view_count": 3772222,
            "uploader": "SriBalajiMovies",
            "category": "telugu",
            "thumbnail": "https://i.ytimg.com/vi/jGUvk424TMY/hq720.jpg"
        },
        {
            "id": "q_yGYcixvuo",
            "title": "The Family Star Telugu Full Movie 4K | Vijay Deverakonda | Mrunal Thakur | Parasuram | Dil Raju",
            "url": "https://www.youtube.com/watch?v=q_yGYcixvuo",
            "duration": 9350.0,
            "view_count": 3634762,
            "uploader": "Telugu Filmnagar",
            "category": "telugu",
            "thumbnail": "https://i.ytimg.com/vi/q_yGYcixvuo/hq720.jpg?sqp=-oaymwEcCNAFEJQDSFXyq4qpAw4IARUAAIhCGAFwAcABBg==&rs=AOn4CLATSakjk93ddoY_rqaRIKsTJ6Juyw",
            "added_date": "2026-04-16T07:31:16.426036Z",
            "source": "youtube"
        },
        {
            "id": "1RfjMwhWMeY",
            "title": "Leharaayi Super Hit Telugu Full Movie | Ranjith Sommi | Sowmyaa Menon | Naresh | Rao Ramesh | Ali",
            "url": "https://www.youtube.com/watch?v=1RfjMwhWMeY",
            "duration": 8365.0,
            "view_count": 1655106,
            "uploader": "BhavaniHD Movies",
            "category": "telugu",
            "thumbnail": "https://i.ytimg.com/vi/1RfjMwhWMeY/hq720.jpg"
        },
        {
            "id": "8tExVqjkE4E",
            "title": "Jabilamma Niku Anta Kopama Coming-Of-Age Rom-Com Telugu Film | Anikha Surendran @tfcmaacinemalu",
            "url": "https://www.youtube.com/watch?v=8tExVqjkE4E",
            "duration": 7320.0,
            "view_count": 2858517,
            "uploader": "Maa Cinemalu",
            "category": "telugu",
            "thumbnail": "https://i.ytimg.com/vi/8tExVqjkE4E/hq720.jpg"
        },
        {
            "id": "P9Qh4DRjcXo",
            "title": "Kismath Latest Telugu Full Movie 4K | Abhinav Gomatam | Naresh Agastya | Srinivas Avasarala | TFN",
            "url": "https://www.youtube.com/watch?v=P9Qh4DRjcXo",
            "duration": 7590.0,
            "view_count": 520582,
            "uploader": "Telugu Filmnagar",
            "category": "telugu",
            "thumbnail": "https://i.ytimg.com/vi/P9Qh4DRjcXo/hq720.jpg"
        },
        {
            "id": "HoFBZZFwPQQ",
            "title": "Mayanathi Telugu Dubbed Full Movie | Mayanadhi | Love Romance Comedy |#telugumovie #romantic #family",
            "url": "https://www.youtube.com/watch?v=HoFBZZFwPQQ",
            "duration": 5874.0,
            "view_count": 185375,
            "uploader": "SRI SARAVANAA FILMS OPC TELUGU",
            "category": "telugu",
            "thumbnail": "https://i.ytimg.com/vi/HoFBZZFwPQQ/hq720.jpg"
        },
        {
            "id": "soe6Uxbtlxk",
            "title": "Ishq | Telugu Full Movie | Blu-ray Version Ultra HD | Nithiin | Nithya Menen | Romantic Drama",
            "url": "https://www.youtube.com/watch?v=soe6Uxbtlxk",
            "duration": 9210.0,
            "view_count": 73359,
            "uploader": "G Entertainment Channel",
            "category": "telugu",
            "thumbnail": "https://i.ytimg.com/vi/soe6Uxbtlxk/hqdefault.jpg"
        },
        {
            "id": "pokILk6s1q8",
            "title": "Dhruva Telugu Full Movie | Ram Charan | Rakul Preet Singh | Arvind Swami | Delugu Movies",
            "url": "https://www.youtube.com/watch?v=pokILk6s1q8",
            "duration": 9279.0,
            "view_count": 454531,
            "uploader": "Delugu Movies",
            "category": "telugu",
            "thumbnail": "https://i.ytimg.com/vi/pokILk6s1q8/hq720.jpg"
        },
        {
            "id": "8IEvpD4XISs",
            "title": "Parinayam Superhit Telugu Full Length HD Movie | Suresh Gopi | Dulquer Salmaan | Shobana | TBO |",
            "url": "https://www.youtube.com/watch?v=8IEvpD4XISs",
            "duration": 8522.0,
            "view_count": 3864626,
            "uploader": "Tollywood Box Office",
            "category": "telugu",
            "thumbnail": "https://i.ytimg.com/vi/8IEvpD4XISs/hq720.jpg"
        },
        {
            "id": "bdqZttmi-pk",
            "title": "Ala Vaikunthapurramuloo Telugu Full HD Movie | Allu Arjun | Pooja Hegde | Trivikram",
            "url": "https://www.youtube.com/watch?v=bdqZttmi-pk",
            "duration": 9664.0,
            "view_count": 7282569,
            "uploader": "Tollywood Box Office",
            "category": "telugu",
            "thumbnail": "https://i.ytimg.com/vi/bdqZttmi-pk/hq720.jpg"
        },
        {
            "id": "lcWLYBj7Jhc",
            "title": "Attarintiki Daredi Telugu Full Movie | Pawan Kalyan | Samantha | Trivikram | DSP | Telugu FilmNagar",
            "url": "https://www.youtube.com/watch?v=lcWLYBj7Jhc",
            "duration": 10247.0,
            "view_count": 4058682,
            "uploader": "Telugu Filmnagar",
            "category": "telugu",
            "thumbnail": "https://i.ytimg.com/vi/lcWLYBj7Jhc/hq720.jpg"
        },
        {
            "id": "A77rGW61mFI",
            "title": "Dhruva Super Hit Telugu Action Thriller Full Movie || Ram Charan || Rakul Preet Singh || MatineeShow",
            "url": "https://www.youtube.com/watch?v=A77rGW61mFI",
            "duration": 8305.0,
            "view_count": 10697776,
            "uploader": "Matinee Show",
            "category": "telugu",
            "thumbnail": "https://i.ytimg.com/vi/A77rGW61mFI/hq720.jpg"
        },
        {
            "id": "rPDBgyb6eeQ",
            "title": "Shambhala Telugu Full Movie|Telugu New Movie|Aadi,Shambhavi|New Telugu Movie|Latest Telugu Movie ",
            "url": "https://www.youtube.com/watch?v=rPDBgyb6eeQ",
            "duration": 8664.0,
            "view_count": 145389,
            "uploader": "Aha Cinemas ",
            "category": "telugu",
            "thumbnail": "https://i.ytimg.com/vi/rPDBgyb6eeQ/hq720.jpg"
        },
        {
            "id": "liLYl4GOQwI",
            "title": "Rangam Telugu Full Movie | Jiiva, Karthika, Piaa | Sri Balaji Video",
            "url": "https://www.youtube.com/watch?v=liLYl4GOQwI",
            "duration": 9533.0,
            "view_count": 4136309,
            "uploader": "Sri Balaji Full Movies",
            "category": "telugu",
            "thumbnail": "https://i.ytimg.com/vi/liLYl4GOQwI/hq720.jpg"
        },
        {
            "id": "xAFCq81EteQ",
            "title": "Karthikeya 2 Superhit Telugu Action Full HD Movie | Nikhil Siddhartha | Anupama Parameswaran | TBO",
            "url": "https://www.youtube.com/watch?v=xAFCq81EteQ",
            "duration": 7645.0,
            "view_count": 1534492,
            "uploader": "Tollywood Box Office",
            "category": "telugu",
            "thumbnail": "https://i.ytimg.com/vi/xAFCq81EteQ/hq720.jpg"
        },
        {
            "id": "YZjbJof-Czw",
            "title": "Gudachari No.1 Super Hit Telugu Full Movie | Chiranjeevi | Radhika | Bhanuchander | iDream HD Movies",
            "url": "https://www.youtube.com/watch?v=YZjbJof-Czw",
            "duration": 6889.0,
            "view_count": 47618,
            "uploader": "iDream HD Movies",
            "category": "telugu",
            "thumbnail": "https://i.ytimg.com/vi/YZjbJof-Czw/hq720.jpg"
        },
        {
            "id": "EX0CijNGQPA",
            "title": "Family Circus Telugu Full HD Movie | Jagapathi Babu | Roja | Rajendra Prasad | Jhansi | GaneshVideos",
            "url": "https://www.youtube.com/watch?v=EX0CijNGQPA",
            "duration": 7843.0,
            "view_count": 510657,
            "uploader": "Ganesh Videos",
            "category": "telugu",
            "thumbnail": "https://i.ytimg.com/vi/EX0CijNGQPA/hq720.jpg"
        },
        {
            "id": "UDTT7LESiUA",
            "title": "Mithai Telugu Full Movie | Rahul Ramakrishna | Priyadarshi | Silly Monks Tollywood",
            "url": "https://www.youtube.com/watch?v=UDTT7LESiUA",
            "duration": 8290.0,
            "view_count": 11435903,
            "uploader": "Silly Monks Tollywood",
            "category": "telugu",
            "thumbnail": "https://i.ytimg.com/vi/UDTT7LESiUA/hq720.jpg"
        },
        {
            "id": "k_-PvLgr1c0",
            "title": "Godavari Full Length Movie || Sumanth || Kamalini Mukharjee - TeluguOne",
            "url": "https://www.youtube.com/watch?v=k_-PvLgr1c0",
            "duration": 9191.0,
            "view_count": 26363373,
            "uploader": "TeluguOne",
            "category": "telugu",
            "thumbnail": "https://i.ytimg.com/vi/k_-PvLgr1c0/hq720.jpg"
        },
        {
            "id": "2my1KwuOb9I",
            "title": "Vinaro Bhagyamu Vishnu Katha Telugu Blockbuster Hit Action/Romance Drama Full HD Movie | MatineeShow",
            "url": "https://www.youtube.com/watch?v=2my1KwuOb9I",
            "duration": 6123.0,
            "view_count": 1815742,
            "uploader": "Matinee Show",
            "category": "telugu",
            "thumbnail": "https://i.ytimg.com/vi/2my1KwuOb9I/hq720.jpg"
        },
        {
            "id": "bqONXgABU2c",
            "title": "Josh Telugu Full Movie 4K | Naga Chaitanya | Karthika Nair | Siddhu Jonnalagadda | Dil Raju | TFN",
            "url": "https://www.youtube.com/watch?v=bqONXgABU2c",
            "duration": 10146.0,
            "view_count": 1361470,
            "uploader": "Telugu Filmnagar",
            "category": "telugu",
            "thumbnail": "https://i.ytimg.com/vi/bqONXgABU2c/hq720.jpg"
        }
    ]
}