{
    "page": 2,
    "total_pages": 6,
    "total_items": 255,
    "items": [
        {
            "id": "PEGwBV5Ados",
            "title": "GOOGLE (గూగుల్) | Santhanam, Namita Krishnamurthy New Telugu Road Action Comedy | Full HD Movie",
            "url": "https://www.youtube.com/watch?v=PEGwBV5Ados",
            "duration": 8298.0,
            "view_count": 220443,
            "uploader": "Andhra Talkies",
            "category": "telugu",
            "thumbnail": "https://i.ytimg.com/vi/PEGwBV5Ados/hq720.jpg"
        },
        {
            "id": "0HGv4eqQOyw",
            "title": "Golkonda High School - Telugu Full Movie - Sumanth, Swathi, TanikellaBharani",
            "url": "https://www.youtube.com/watch?v=0HGv4eqQOyw",
            "duration": 7660.0,
            "view_count": 4146630,
            "uploader": "Zee Cinemalu",
            "category": "telugu",
            "thumbnail": "https://i.ytimg.com/vi/0HGv4eqQOyw/hqdefault.jpg"
        },
        {
            "id": "SI55KI4Sr3I",
            "title": "Laggam Telugu Family Drama Full Movie | Sai Ronak, Pragya, Rajendra Prasad | 2025 New South Movies",
            "url": "https://www.youtube.com/watch?v=SI55KI4Sr3I",
            "duration": 7657.0,
            "view_count": 4568651,
            "uploader": "SriBalajiMovies",
            "category": "telugu",
            "thumbnail": "https://i.ytimg.com/vi/SI55KI4Sr3I/hq720.jpg"
        },
        {
            "id": "nE8n_-8yBZw",
            "title": "Telisinavaallu Telugu Suspense Thriller Full Movie | Hebah Patel, Naresh | 2025 New South Movies",
            "url": "https://www.youtube.com/watch?v=nE8n_-8yBZw",
            "duration": 8779.0,
            "view_count": 1588887,
            "uploader": "SriBalajiMovies and 4 more",
            "category": "telugu",
            "thumbnail": "https://i.ytimg.com/vi/nE8n_-8yBZw/hq720.jpg"
        },
        {
            "id": "Ls_BClSdOpE",
            "title": "Jayamma Panchayathi Telugu Full Movie 4k | Suma Kanakala | MM Keeravani | Telugu New Movies | TFN",
            "url": "https://www.youtube.com/watch?v=Ls_BClSdOpE",
            "duration": 7322.0,
            "view_count": 1571957,
            "uploader": "Telugu Filmnagar",
            "category": "telugu",
            "thumbnail": "https://i.ytimg.com/vi/Ls_BClSdOpE/hq720.jpg"
        },
        {
            "id": "Eqs-bYvfj7o",
            "title": "Naga Shaurya & Ritu Varma Telugu Super Hit Full Movie || Telugu Movies || Kotha Cinema",
            "url": "https://www.youtube.com/watch?v=Eqs-bYvfj7o",
            "duration": 5971.0,
            "view_count": 2131886,
            "uploader": "Kotha Cinema",
            "category": "telugu",
            "thumbnail": "https://i.ytimg.com/vi/Eqs-bYvfj7o/hq720.jpg"
        },
        {
            "id": "u2n_9l_ooFc",
            "title": "Nithiin And Sreeleela Robinhood Telugu Full HD Action Comedy Movie || @JordaarMovies ​",
            "url": "https://www.youtube.com/watch?v=u2n_9l_ooFc",
            "duration": 8050.0,
            "view_count": 348183,
            "uploader": "Jordaar Movies",
            "category": "telugu",
            "thumbnail": "https://i.ytimg.com/vi/u2n_9l_ooFc/hq720.jpg"
        },
        {
            "id": "aRzmZJOE_dA",
            "title": "AMMADI అమ్మాడి - Full Movie | Based on Real Life incidents",
            "url": "https://www.youtube.com/watch?v=aRzmZJOE_dA",
            "duration": 3973.0,
            "view_count": 19555,
            "uploader": "PANCHAMUKHA PRODUCTIONS ",
            "category": "telugu",
            "thumbnail": "https://i.ytimg.com/vi/aRzmZJOE_dA/hq720.jpg"
        },
        {
            "id": "gBkL9foQxBk",
            "title": "Chatrapathi Full Movie With Songs | Chatrapathi | Telugu Full Movie  @ManaChitraalu",
            "url": "https://www.youtube.com/watch?v=gBkL9foQxBk",
            "duration": 9707.0,
            "view_count": 9732940,
            "uploader": "Mana Chitraalu",
            "category": "telugu",
            "thumbnail": "https://i.ytimg.com/vi/gBkL9foQxBk/hq720.jpg"
        },
        {
            "id": "n7Cp-wlLk-Y",
            "title": "Nene Ambani Telugu Full Length Movie || Arya, Nayantara, Jiiva || Sri Venkateswara Movies",
            "url": "https://www.youtube.com/watch?v=n7Cp-wlLk-Y",
            "duration": 9136.0,
            "view_count": 7329581,
            "uploader": "Sri Venkateswara Movies",
            "category": "telugu",
            "thumbnail": "https://i.ytimg.com/vi/n7Cp-wlLk-Y/hqdefault.jpg"
        },
        {
            "id": "WXbatTzYqSI",
            "title": "Jeevana Chadarangam Telugu Full Movie | Suresh | Sitara | Gollapudi Maruthi Rao | Shivaji Raja",
            "url": "https://www.youtube.com/watch?v=WXbatTzYqSI",
            "duration": 5668.0,
            "view_count": 41274,
            "uploader": "Telugu Movie Bazaar",
            "category": "telugu",
            "thumbnail": "https://i.ytimg.com/vi/WXbatTzYqSI/hq720.jpg"
        },
        {
            "id": "6b-Tk5JlsR0",
            "title": "WARRIOR (వారియర్) | Vishal, Keerthy Suresh New Telugu MASS Action Drama | Full HD Movie",
            "url": "https://www.youtube.com/watch?v=6b-Tk5JlsR0",
            "duration": 8482.0,
            "view_count": 2554592,
            "uploader": "Andhra Talkies",
            "category": "telugu",
            "thumbnail": "https://i.ytimg.com/vi/6b-Tk5JlsR0/hq720.jpg"
        },
        {
            "id": "ioOaxuuVj0w",
            "title": "Santhosham Telugu Full HD Movie | Nagarjuna | Gracy Singh | Shriya Saran | PrabhuDeva | GaneshVideos",
            "url": "https://www.youtube.com/watch?v=ioOaxuuVj0w",
            "duration": 7068.0,
            "view_count": 1488040,
            "uploader": "Ganesh Videos",
            "category": "telugu",
            "thumbnail": "https://i.ytimg.com/vi/ioOaxuuVj0w/hq720.jpg"
        },
        {
            "id": "WMdsEdZado8",
            "title": "Sagileti Katha Telugu Full Movie 4K | Ravi Mahadasyam | Vishika Laxman | Telugu New Movies | TFN",
            "url": "https://www.youtube.com/watch?v=WMdsEdZado8",
            "duration": 6783.0,
            "view_count": 57862,
            "uploader": "Telugu Filmnagar",
            "category": "telugu",
            "thumbnail": "https://i.ytimg.com/vi/WMdsEdZado8/hq720.jpg"
        },
        {
            "id": "lLprduOdjUM",
            "title": "SHADOW HUNT (షాడో హంట్) | Viswant Duddumpudi New Telugu Action Crime Thriller | Full HD Movie",
            "url": "https://www.youtube.com/watch?v=lLprduOdjUM",
            "duration": 6279.0,
            "view_count": 15860,
            "uploader": "Andhra Talkies",
            "category": "telugu",
            "thumbnail": "https://i.ytimg.com/vi/lLprduOdjUM/hq720.jpg"
        },
        {
            "id": "XIpf1TDD68o",
            "title": "Latest Super Hit Crime Comedy Full Movie | Parijatha Parvam | Chaithanya Rao | Shraddha Das | Sunil",
            "url": "https://www.youtube.com/watch?v=XIpf1TDD68o",
            "duration": 7877.0,
            "view_count": 770476,
            "uploader": "BhavaniHD Movies",
            "category": "telugu",
            "thumbnail": "https://i.ytimg.com/vi/XIpf1TDD68o/hq720.jpg"
        },
        {
            "id": "8ulwkIB4UWE",
            "title": "గాడ్ ! Nayanthara And Jayam Ravi Full Length Telugu FULL HD Thriller Movie ||  @JordaarMovies ​",
            "url": "https://www.youtube.com/watch?v=8ulwkIB4UWE",
            "duration": 7839.0,
            "view_count": 77619,
            "uploader": "Jordaar Movies",
            "category": "telugu",
            "thumbnail": "https://i.ytimg.com/vi/8ulwkIB4UWE/hq720.jpg"
        },
        {
            "id": "n2MSS3qbyQs",
            "title": "Sivaji As Nandu Father Super Hit Telugu Movie | @ManaChitraalu",
            "url": "https://www.youtube.com/watch?v=n2MSS3qbyQs",
            "duration": 6989.0,
            "view_count": 171713,
            "uploader": "Mana Chitraalu",
            "category": "telugu",
            "thumbnail": "https://i.ytimg.com/vi/n2MSS3qbyQs/hq720.jpg"
        },
        {
            "id": "o7SW1TMrTGc",
            "title": "Constable Full Movie | Constable Telugu Full Movie | Constable Movie | 2026 Telugu Full Movies ",
            "url": "https://www.youtube.com/watch?v=o7SW1TMrTGc",
            "duration": 7678.0,
            "view_count": 17160,
            "uploader": "Prasad Production ",
            "category": "telugu",
            "thumbnail": "https://i.ytimg.com/vi/o7SW1TMrTGc/hq720.jpg"
        },
        {
            "id": "R5fTTSJ81AA",
            "title": "Ongole Githa Telugu Full Movie || Ram Pothineni, Kriti Kharbanda || Ganesh Videos",
            "url": "https://www.youtube.com/watch?v=R5fTTSJ81AA",
            "duration": 9427.0,
            "view_count": 7241329,
            "uploader": "Ganesh Videos",
            "category": "telugu",
            "thumbnail": "https://i.ytimg.com/vi/R5fTTSJ81AA/hq720.jpg"
        },
        {
            "id": "zgcMwsKCgKs",
            "title": "Mad Square [MAD 2] Comedy Telugu Full Movie | Sangeeth shobhan | Narne Nithin | Ram Nithin | Kalyan",
            "url": "https://www.youtube.com/watch?v=zgcMwsKCgKs",
            "duration": 6722.0,
            "view_count": 993871,
            "uploader": "Pixeld Stories",
            "category": "telugu",
            "thumbnail": "https://i.ytimg.com/vi/zgcMwsKCgKs/hq720.jpg"
        },
        {
            "id": "lmK37srs2KU",
            "title": "Maharshi Action Drama Telugu Full Film | Mahesh Babu | Allari Naresh, Pooja Hegde @tfcmaacinemalu",
            "url": "https://www.youtube.com/watch?v=lmK37srs2KU",
            "duration": 8663.0,
            "view_count": 515422,
            "uploader": "Maa Cinemalu",
            "category": "telugu",
            "thumbnail": "https://i.ytimg.com/vi/lmK37srs2KU/hq720.jpg"
        },
        {
            "id": "bE--kxiHkaQ",
            "title": "Narasimha Telugu Full Movie | Rajnikanth, Soundarya, Ramya Krishna | #TeluguMovies | TeluguOne",
            "url": "https://www.youtube.com/watch?v=bE--kxiHkaQ",
            "duration": 10325.0,
            "view_count": 40860348,
            "uploader": "TeluguOne",
            "category": "telugu",
            "thumbnail": "https://i.ytimg.com/vi/bE--kxiHkaQ/hq720.jpg"
        },
        {
            "id": "IrjtOOkJd80",
            "title": "Jigri Full Movie  | Telugu Friendship Movie | Emotional Drama   #Jigiri#TeluguCinema",
            "url": "https://www.youtube.com/watch?v=IrjtOOkJd80",
            "duration": 7977.0,
            "view_count": 321,
            "uploader": "MovieAdda",
            "category": "telugu",
            "thumbnail": "https://i.ytimg.com/vi/IrjtOOkJd80/hq720.jpg"
        },
        {
            "id": "S-Ub6qjwFgg",
            "title": "COMMAND (కమాండ్) | Ashwin Babu, Digangana Suryavanshi New Telugu Action Thriller | Full HD Movie",
            "url": "https://www.youtube.com/watch?v=S-Ub6qjwFgg",
            "duration": 6606.0,
            "view_count": 91133,
            "uploader": "Andhra Talkies",
            "category": "telugu",
            "thumbnail": "https://i.ytimg.com/vi/S-Ub6qjwFgg/hq720.jpg"
        },
        {
            "id": "iMerfZ1GxOc",
            "title": "Nagavalli Telugu Full Movie | Venkatesh | Anushka Shetty | Latest Telugu Movies | Aditya Cinemalu",
            "url": "https://www.youtube.com/watch?v=iMerfZ1GxOc",
            "duration": 9359.0,
            "view_count": 1172257,
            "uploader": "Aditya Cinemalu",
            "category": "telugu",
            "thumbnail": "https://i.ytimg.com/vi/iMerfZ1GxOc/hqdefault.jpg"
        },
        {
            "id": "LJ026JWUOzk",
            "title": "Om Shanti Shanti Shanti 2026 Full Telugu Movie 🍿🎥#telugumovie #omshantishantishanti",
            "url": "https://www.youtube.com/watch?v=LJ026JWUOzk",
            "duration": 7773.0,
            "view_count": 662,
            "uploader": "Mahendra Rock",
            "category": "telugu",
            "thumbnail": "https://i.ytimg.com/vi/LJ026JWUOzk/hqdefault.jpg"
        },
        {
            "id": "mf7sk4IydGo",
            "title": "Manmadhudu Telugu Full Movie || Nagarjuna, Sonali Bendre, Anshu",
            "url": "https://www.youtube.com/watch?v=mf7sk4IydGo",
            "duration": 8549.0,
            "view_count": 27086319,
            "uploader": "Annapurna Studios",
            "category": "telugu",
            "thumbnail": "https://i.ytimg.com/vi/mf7sk4IydGo/hq720.jpg"
        },
        {
            "id": "z3Rj4y4wSME",
            "title": "7 Pages Full Movie || Varsha Dsouza || Latest Telugu Full Movies || Infinitum Media",
            "url": "https://www.youtube.com/watch?v=z3Rj4y4wSME",
            "duration": 10531.0,
            "view_count": 570266,
            "uploader": "Varsha Dsouza",
            "category": "telugu",
            "thumbnail": "https://i.ytimg.com/vi/z3Rj4y4wSME/hq720.jpg"
        },
        {
            "id": "v6z6A0u0RZA",
            "title": "Mahanubhavudu Telugu OCD Comedy Full Length Movie | Sharwanand & Mehreen Pirzada Movie | Cine Square",
            "url": "https://www.youtube.com/watch?v=v6z6A0u0RZA",
            "duration": 7010.0,
            "view_count": 1223877,
            "uploader": "Cine Square",
            "category": "telugu",
            "thumbnail": "https://i.ytimg.com/vi/v6z6A0u0RZA/hq720.jpg"
        },
        {
            "id": "1p7NmlTW5qo",
            "title": "Subramanyam For Sale | Telugu Full Movie 2015 | English Subtitles | Harish Shankar, Sai Dharam Tej",
            "url": "https://www.youtube.com/watch?v=1p7NmlTW5qo",
            "duration": 9107.0,
            "view_count": 45527968,
            "uploader": "Dil Raju",
            "category": "telugu",
            "thumbnail": "https://i.ytimg.com/vi/1p7NmlTW5qo/hq720.jpg"
        },
        {
            "id": "MmPXj0BZA6I",
            "title": "Bhartha Mahasayulaku Wignyapthi telugu full movie 2026 | Ravi Teja | Storyline Review & Explanation",
            "url": "https://www.youtube.com/watch?v=MmPXj0BZA6I",
            "duration": 8406.0,
            "view_count": 297997,
            "uploader": "CINE Stellar ",
            "category": "telugu",
            "thumbnail": "https://i.ytimg.com/vi/MmPXj0BZA6I/hq720.jpg"
        },
        {
            "id": "52EhdLVlLdA",
            "title": "Vaarasudu Latest Telugu Full Movie 4K | Thalapathy Vijay | Rashmika | Yogi Babu | Thaman S | TFN",
            "url": "https://www.youtube.com/watch?v=52EhdLVlLdA",
            "duration": 10146.0,
            "view_count": 4514916,
            "uploader": "Telugu Filmnagar",
            "category": "telugu",
            "thumbnail": "https://i.ytimg.com/vi/52EhdLVlLdA/hq720.jpg"
        },
        {
            "id": "2_55ne2sj4Q",
            "title": "Vinayukuda - Telugu Full Movie - Krishnudu, Sonia Deepti, Poonam Kaur, Samrat Reddy",
            "url": "https://www.youtube.com/watch?v=2_55ne2sj4Q",
            "duration": 7685.0,
            "view_count": 1069860,
            "uploader": "Zee Movies Telugu",
            "category": "telugu",
            "thumbnail": "https://i.ytimg.com/vi/2_55ne2sj4Q/hq720.jpg"
        },
        {
            "id": "uhnMw8ioNVc",
            "title": "Hebah Patel Latest Movie | MARIO | Action Thriller l Hebah Patel |Kalpika Ganesh",
            "url": "https://www.youtube.com/watch?v=uhnMw8ioNVc",
            "duration": 8332.0,
            "view_count": 76094,
            "uploader": "BhavaniHD Movies",
            "category": "telugu",
            "thumbnail": "https://i.ytimg.com/vi/uhnMw8ioNVc/hq720.jpg"
        },
        {
            "id": "D06awr4iZMw",
            "title": "100% Love Telugu Full Movie | Naga Chaitanya, Tamannah | Sukumar | Geetha Arts",
            "url": "https://www.youtube.com/watch?v=D06awr4iZMw",
            "duration": 8101.0,
            "view_count": 43759409,
            "uploader": "Geetha Arts ",
            "category": "telugu",
            "thumbnail": "https://i.ytimg.com/vi/D06awr4iZMw/hq720.jpg"
        },
        {
            "id": "ChVQraBKAsQ",
            "title": "Rebel Star Prabhas, Kajal Aggarwal Taapsee Comedy Family Entertainment Full Movie || Matinee Show",
            "url": "https://www.youtube.com/watch?v=ChVQraBKAsQ",
            "duration": 6455.0,
            "view_count": 4463788,
            "uploader": "Matinee Show",
            "category": "telugu",
            "thumbnail": "https://i.ytimg.com/vi/ChVQraBKAsQ/hq720.jpg"
        },
        {
            "id": "sqW95LOMrBU",
            "title": "Nenu Local | Telugu Full Movie 2017 | Nani, Keerthy Suresh",
            "url": "https://www.youtube.com/watch?v=sqW95LOMrBU",
            "duration": 8312.0,
            "view_count": 127386563,
            "uploader": "Dil Raju",
            "category": "telugu",
            "thumbnail": "https://i.ytimg.com/vi/sqW95LOMrBU/hq720.jpg"
        },
        {
            "id": "Zz_r2f7aqMo",
            "title": "Satyam Ranam Veeragamanam Full Movie | Telugu Film 2026 | Action Thriller | SriSnap Studio",
            "url": "https://www.youtube.com/watch?v=Zz_r2f7aqMo",
            "duration": 5960.0,
            "view_count": 3254,
            "uploader": "SriSnap Studios",
            "category": "telugu",
            "thumbnail": "https://i.ytimg.com/vi/Zz_r2f7aqMo/hq720.jpg"
        },
        {
            "id": "ejyvDFhRw8g",
            "title": "Funky (2026) | Latest Telugu Blockbuster Full Length Movies | New Telugu Movies 2026 Full Movie",
            "url": "https://www.youtube.com/watch?v=ejyvDFhRw8g",
            "duration": 7379.0,
            "view_count": 1479,
            "uploader": "Single Screen Cinema",
            "category": "telugu",
            "thumbnail": "https://i.ytimg.com/vi/ejyvDFhRw8g/hq720.jpg"
        },
        {
            "id": "nO8X7uLlPY0",
            "title": "MISSION 21 (మిషన్ 21) Full Movie In Telugu | Ravi Teja New Telugu Mass Action Thriller | 1080P HD",
            "url": "https://www.youtube.com/watch?v=nO8X7uLlPY0",
            "duration": 7581.0,
            "view_count": 1629326,
            "uploader": "Andhra Talkies",
            "category": "telugu",
            "thumbnail": "https://i.ytimg.com/vi/nO8X7uLlPY0/hq720.jpg"
        },
        {
            "id": "B_zOZAKkamI",
            "title": "Trishulam (త్రిశూలం) Full Movie In Telugu | Gopichand | Keerthy Suresh | Action Crime Thriller HD",
            "url": "https://www.youtube.com/watch?v=B_zOZAKkamI",
            "duration": 7665.0,
            "view_count": 2531157,
            "uploader": "Andhra Talkies",
            "category": "telugu",
            "thumbnail": "https://i.ytimg.com/vi/B_zOZAKkamI/hq720.jpg"
        },
        {
            "id": "-L6wRyORpw0",
            "title": "Kingdom Spy Action Thriller Telugu Full Film | Bhagyashri Borse | Vijay Deverakonda@tfcmaacinemalu",
            "url": "https://www.youtube.com/watch?v=-L6wRyORpw0",
            "duration": 8469.0,
            "view_count": 2183001,
            "uploader": "Maa Cinemalu",
            "category": "telugu",
            "thumbnail": "https://i.ytimg.com/vi/-L6wRyORpw0/hq720.jpg"
        },
        {
            "id": "wgvgVcrMQ_Q",
            "title": "24 Superhit Telugu Dubbed Action Full Length HD Movie | Suriya | Samantha | Nithya Menen | TBO |",
            "url": "https://www.youtube.com/watch?v=wgvgVcrMQ_Q",
            "duration": 9306.0,
            "view_count": 370284,
            "uploader": "Tollywood Box Office",
            "category": "telugu",
            "thumbnail": "https://i.ytimg.com/vi/wgvgVcrMQ_Q/hq720.jpg"
        },
        {
            "id": "n5LYWoLupkI",
            "title": "Pandaga Chesko Telugu Family/Action Full HD Movie | Ram Pothineni | Rakul Preet Singh | Matinee Show",
            "url": "https://www.youtube.com/watch?v=n5LYWoLupkI",
            "duration": 8038.0,
            "view_count": 304094,
            "uploader": "Matinee Show",
            "category": "telugu",
            "thumbnail": "https://i.ytimg.com/vi/n5LYWoLupkI/hq720.jpg"
        },
        {
            "id": "4m7kwABtrSQ",
            "title": "Shailaja Reddy Alludu Rom/Com Telugu Full Film | Naga Chaitanya, Anu Emmanuel @southcinemahall",
            "url": "https://www.youtube.com/watch?v=4m7kwABtrSQ",
            "duration": 7152.0,
            "view_count": 50177,
            "uploader": "South Cinema Hall",
            "category": "telugu",
            "thumbnail": "https://i.ytimg.com/vi/4m7kwABtrSQ/hq720.jpg"
        },
        {
            "id": "886SZm_A8wE",
            "title": "Seethamma Vakitlo Sirimalle Chettu Full Movie | Mahesh Babu | Venkatesh | Samantha | Mango Videos",
            "url": "https://www.youtube.com/watch?v=886SZm_A8wE",
            "duration": 9552.0,
            "view_count": 8568415,
            "uploader": "Mango Videos",
            "category": "telugu",
            "thumbnail": "https://i.ytimg.com/vi/886SZm_A8wE/hq720.jpg"
        },
        {
            "id": "_V-SxfvjQig",
            "title": "Pandem Kodi 2 Action-Drama Telugu Full Film | Vishal And Keerthy Suresh | Varalaxmi@tfcmaacinemalu",
            "url": "https://www.youtube.com/watch?v=_V-SxfvjQig",
            "duration": 7937.0,
            "view_count": 176282,
            "uploader": "Maa Cinemalu",
            "category": "telugu",
            "thumbnail": "https://i.ytimg.com/vi/_V-SxfvjQig/hq720.jpg"
        },
        {
            "id": "1oQSmBJXQko",
            "title": "Village Series Full Movie | Funmoji | Telugu Full Movies | MCA | Comedy Movie | Infinitum Movies",
            "url": "https://www.youtube.com/watch?v=1oQSmBJXQko",
            "duration": 37614.0,
            "view_count": 3078,
            "uploader": "Infinitum Movies",
            "category": "telugu",
            "thumbnail": "https://i.ytimg.com/vi/1oQSmBJXQko/hq720.jpg"
        },
        {
            "id": "NW03LRreinU",
            "title": "OMG (O Manchi Ghost) 2026 Latest Telugu Horror Comedy Full Movie | Vennela Kishore, Nandita Swetha",
            "url": "https://www.youtube.com/watch?v=NW03LRreinU",
            "duration": 7158.0,
            "view_count": 3479741,
            "uploader": "SriBalajiMovies and 4 more",
            "category": "telugu",
            "thumbnail": "https://i.ytimg.com/vi/NW03LRreinU/hq720.jpg"
        }
    ]
}