{
    "page": 4,
    "total_pages": 6,
    "total_items": 255,
    "items": [
        {
            "id": "xIPOUCKzW8A",
            "title": "Love Today (Telugu) Full Movie | HD Romantic Comedy | Comedy Movie  | Delugu Movies",
            "url": "https://www.youtube.com/watch?v=xIPOUCKzW8A",
            "duration": 9150.0,
            "view_count": 117588,
            "uploader": "Delugu Movies",
            "category": "telugu",
            "thumbnail": "https://i.ytimg.com/vi/xIPOUCKzW8A/hq720.jpg?sqp=-oaymwEcCNAFEJQDSFXyq4qpAw4IARUAAIhCGAFwAcABBg==&rs=AOn4CLBAySJm_TM2qflaqsRpPOrjfBUnxw",
            "added_date": "2026-04-16T07:31:16.626369Z",
            "source": "youtube"
        },
        {
            "id": "3BFheth3O70",
            "title": "Thappu Ledu Premalo Full Movie || Telugu Movies 2026 || Madhan || Nikki || Madhumathi || Infinitum",
            "url": "https://www.youtube.com/watch?v=3BFheth3O70",
            "duration": 7750.0,
            "view_count": 18796,
            "uploader": "Infinitum Talkies",
            "category": "telugu",
            "thumbnail": "https://i.ytimg.com/vi/3BFheth3O70/hq720.jpg"
        },
        {
            "id": "iO1kjtcaRMI",
            "title": "Joruga Husharuga Telugu Full Movie | 4K | Viraj Ashwin | Pujita Ponnada | New Telugu Movies |3 Media",
            "url": "https://www.youtube.com/watch?v=iO1kjtcaRMI",
            "duration": 7996.0,
            "view_count": 114292,
            "uploader": "3 Media Telugu Movies",
            "category": "telugu",
            "thumbnail": "https://i.ytimg.com/vi/iO1kjtcaRMI/hq720.jpg"
        },
        {
            "id": "aWxoMxlqm_I",
            "title": "NGK Telugu Blockbuster Hit Action/Thriller Drama Full Length HD Movie || Suriya || Matinee Show",
            "url": "https://www.youtube.com/watch?v=aWxoMxlqm_I",
            "duration": 7853.0,
            "view_count": 46709,
            "uploader": "Matinee Show",
            "category": "telugu",
            "thumbnail": "https://i.ytimg.com/vi/aWxoMxlqm_I/hq720.jpg"
        },
        {
            "id": "IbiQv8356Xo",
            "title": "Veeran Superhero Action-Drama Telugu Movie | Hiphop Tamizha | Athira Raj @tfcmaacinemalu",
            "url": "https://www.youtube.com/watch?v=IbiQv8356Xo",
            "duration": 8757.0,
            "view_count": 145410,
            "uploader": "Maa Cinemalu",
            "category": "telugu",
            "thumbnail": "https://i.ytimg.com/vi/IbiQv8356Xo/hq720.jpg"
        },
        {
            "id": "zDHLCDysTGA",
            "title": "URI Telugu Full Movie | Aditya Dhar (Dhurandhar Movie Director) | Vicky Kaushal | Yami Gautam ",
            "url": "https://www.youtube.com/watch?v=zDHLCDysTGA",
            "duration": 7771.0,
            "view_count": 1237,
            "uploader": "Zing Clips",
            "category": "telugu",
            "thumbnail": "https://i.ytimg.com/vi/zDHLCDysTGA/hq720.jpg"
        },
        {
            "id": "W9koIsyBuVk",
            "title": "Hero Heroine Latest Telugu Full Movie 4K | Naveen Chandra | Pooja Jhaveri | Telugu New Movies | TFN",
            "url": "https://www.youtube.com/watch?v=W9koIsyBuVk",
            "duration": 7407.0,
            "view_count": 168898,
            "uploader": "Telugu Filmnagar",
            "category": "telugu",
            "thumbnail": "https://i.ytimg.com/vi/W9koIsyBuVk/hq720.jpg"
        },
        {
            "id": "9z2-hA5Amuc",
            "title": "Gharshana (HD) Telugu Full Movie | Venkatesh, Asin | South Indian Action Movies‪ @SriBalajiMovies",
            "url": "https://www.youtube.com/watch?v=9z2-hA5Amuc",
            "duration": 9487.0,
            "view_count": 811637,
            "uploader": "SriBalajiMovies",
            "category": "telugu",
            "thumbnail": "https://i.ytimg.com/vi/9z2-hA5Amuc/hq720.jpg"
        },
        {
            "id": "sTfrk4tASUY",
            "title": "Brahmachari Telugu Full Movie | Kamal Hassan, Simran, Sneha, Abbas | Sri Balaji Video",
            "url": "https://www.youtube.com/watch?v=sTfrk4tASUY",
            "duration": 9211.0,
            "view_count": 4033640,
            "uploader": "Sri Balaji Full Movies",
            "category": "telugu",
            "thumbnail": "https://i.ytimg.com/vi/sTfrk4tASUY/hq720.jpg"
        },
        {
            "id": "KF1D-ee-b7Y",
            "title": "35 Chinna Katha Kaadu Telugu Movie | Priyadarshi | Nivetha Thomas | Vishwadev ",
            "url": "https://www.youtube.com/watch?v=KF1D-ee-b7Y",
            "duration": 7896.0,
            "view_count": 528760,
            "uploader": "Telugu Cineplex",
            "category": "telugu",
            "thumbnail": "https://i.ytimg.com/vi/KF1D-ee-b7Y/hq720.jpg"
        },
        {
            "id": "1DIrsAOkx1c",
            "title": "Magadheera Telugu Full Movie | 4K | Dolby Audio | Ram Charan, Kajal Aggarwal, Dev Gill | SSRajamouli",
            "url": "https://www.youtube.com/watch?v=1DIrsAOkx1c",
            "duration": 9517.0,
            "view_count": 8883273,
            "uploader": "Geetha Arts ",
            "category": "telugu",
            "thumbnail": "https://i.ytimg.com/vi/1DIrsAOkx1c/hq720.jpg"
        },
        {
            "id": "gTVLCCCAN1U",
            "title": "Swagatham Telugu Full Movie 4K | Jagapathi Babu | Anushka Shetty | Arjun Sarja | Telugu FilmNagar",
            "url": "https://www.youtube.com/watch?v=gTVLCCCAN1U",
            "duration": 9509.0,
            "view_count": 122253,
            "uploader": "Telugu Filmnagar",
            "category": "telugu",
            "thumbnail": "https://i.ytimg.com/vi/gTVLCCCAN1U/hq720.jpg"
        },
        {
            "id": "OZaDOlNw8xc",
            "title": "Arunachalam Full Movie | Rajinikanth Soundarya Rambha | Raghuvaran  @skyvideostelugu",
            "url": "https://www.youtube.com/watch?v=OZaDOlNw8xc",
            "duration": 9352.0,
            "view_count": 4040684,
            "uploader": "SkyVideos Telugu",
            "category": "telugu",
            "thumbnail": "https://i.ytimg.com/vi/OZaDOlNw8xc/hq720.jpg"
        },
        {
            "id": "mSxNEzZLnOw",
            "title": "Andala Rakshasi Full Movie 4K | Naveen Chandra | Lavanya Tripathi | RahulRavindran | HanuRaghavapudi",
            "url": "https://www.youtube.com/watch?v=mSxNEzZLnOw",
            "duration": 8748.0,
            "view_count": 6553311,
            "uploader": "Telugu Filmnagar",
            "category": "telugu",
            "thumbnail": "https://i.ytimg.com/vi/mSxNEzZLnOw/hq720.jpg"
        },
        {
            "id": "ZpsaXOP8H64",
            "title": "Ee Nagaraniki Emaindhi Superhit Telugu Comedy Full Length HD Movie | Vishwak Sen | Simran Choudhary",
            "url": "https://www.youtube.com/watch?v=ZpsaXOP8H64",
            "duration": 6450.0,
            "view_count": 962867,
            "uploader": "Tollywood Box Office",
            "category": "telugu",
            "thumbnail": "https://i.ytimg.com/vi/ZpsaXOP8H64/hq720.jpg"
        },
        {
            "id": "lgHQ-u765HA",
            "title": "Brahmachari Telugu Full Movie | Kamal Hassan, Simran, Abbas, Sneha | Sri Balaji Video",
            "url": "https://www.youtube.com/watch?v=lgHQ-u765HA",
            "duration": 9211.0,
            "view_count": 9187212,
            "uploader": "SriBalajiMovies",
            "category": "telugu",
            "thumbnail": "https://i.ytimg.com/vi/lgHQ-u765HA/hq720.jpg"
        },
        {
            "id": "ITx2Gf0kpT0",
            "title": "Dear Comrade Telugu Full Length HD Movie || Vijay Deverakonda || Rashmika Mandanna || Matinee Show",
            "url": "https://www.youtube.com/watch?v=ITx2Gf0kpT0",
            "duration": 7996.0,
            "view_count": 6118059,
            "uploader": "Matinee Show",
            "category": "telugu",
            "thumbnail": "https://i.ytimg.com/vi/ITx2Gf0kpT0/hq720.jpg"
        },
        {
            "id": "IY4z_18-syA",
            "title": "Thiruguleni Manishi Super Hit Telugu Full Movie | NTR, Chiranjeevi | Rati Agnihotri",
            "url": "https://www.youtube.com/watch?v=IY4z_18-syA",
            "duration": 6903.0,
            "view_count": 1503,
            "uploader": "iDream HD Movies",
            "category": "telugu",
            "thumbnail": "https://i.ytimg.com/vi/IY4z_18-syA/hq720.jpg"
        },
        {
            "id": "iD86LNzMqSI",
            "title": "Aadivaram Adavallaku Selavu Telugu Full Movie 4K | Sivaji | Brahmanandam | Suhasini | Kovai Sarala",
            "url": "https://www.youtube.com/watch?v=iD86LNzMqSI",
            "duration": 8217.0,
            "view_count": 2657,
            "uploader": "Telugu Filmnagar",
            "category": "telugu",
            "thumbnail": "https://i.ytimg.com/vi/iD86LNzMqSI/hq720.jpg"
        },
        {
            "id": "6KIkGhuzbLU",
            "title": "Athadu Full Movie | Mahesh Babu | Trisha | Trivikram | iDream Media",
            "url": "https://www.youtube.com/watch?v=6KIkGhuzbLU",
            "duration": 10363.0,
            "view_count": 1800333,
            "uploader": "iDream Media",
            "category": "telugu",
            "thumbnail": "https://i.ytimg.com/vi/6KIkGhuzbLU/hq720.jpg"
        },
        {
            "id": "TQz-xYseOMY",
            "title": "Skanda Action-Thriller Telugu Film | Sreeleela, Saiee Manjrekar | Ram Pothineni @tfcmaacinemalu",
            "url": "https://www.youtube.com/watch?v=TQz-xYseOMY",
            "duration": 6984.0,
            "view_count": 2936304,
            "uploader": "Maa Cinemalu",
            "category": "telugu",
            "thumbnail": "https://i.ytimg.com/vi/TQz-xYseOMY/hq720.jpg"
        },
        {
            "id": "dtw25FNcm6Y",
            "title": "Baladoor Telugu Full HD Movie | Ravi Teja | Anushka Shetty | Sunil | Suresh Productions",
            "url": "https://www.youtube.com/watch?v=dtw25FNcm6Y",
            "duration": 8632.0,
            "view_count": 30822281,
            "uploader": "SureshProductions",
            "category": "telugu",
            "thumbnail": "https://i.ytimg.com/vi/dtw25FNcm6Y/hq720.jpg"
        },
        {
            "id": "csrSf15UdZ0",
            "title": "Viswam Telugu Full Length Movie | Gopichand | Kavya Thappar",
            "url": "https://www.youtube.com/watch?v=csrSf15UdZ0",
            "duration": 7667.0,
            "view_count": 216611,
            "uploader": "cinema tv South",
            "category": "telugu",
            "thumbnail": "https://i.ytimg.com/vi/csrSf15UdZ0/hqdefault.jpg"
        },
        {
            "id": "I_Mszo0iCP0",
            "title": "Macho Star Gopichand & Kavya Thapar's Latest Telugu Full Movie HD | Icon Videos",
            "url": "https://www.youtube.com/watch?v=I_Mszo0iCP0",
            "duration": 7820.0,
            "view_count": 753132,
            "uploader": "ICON VIDEOS",
            "category": "telugu",
            "thumbnail": "https://i.ytimg.com/vi/I_Mszo0iCP0/hq720.jpg"
        },
        {
            "id": "Aq59cET9SJo",
            "title": "Eleven  Bengali  Dubbed Full  Movie - 2025 |  এগারো  | Naveen Chandra | Reyaa Hari | Abhirami",
            "url": "https://www.youtube.com/watch?v=Aq59cET9SJo",
            "duration": 7942.0,
            "view_count": 26596,
            "uploader": "API Indian Movie Hub",
            "category": "telugu",
            "thumbnail": "https://i.ytimg.com/vi/Aq59cET9SJo/hq720.jpg"
        },
        {
            "id": "gsOFlTucnjs",
            "title": "Dubai Seenu Telugu Full HD Movie | 4K | RaviTeja | Nayanathara | Ganesh Videos",
            "url": "https://www.youtube.com/watch?v=gsOFlTucnjs",
            "duration": 8862.0,
            "view_count": 1910654,
            "uploader": "Ganesh Videos",
            "category": "telugu",
            "thumbnail": "https://i.ytimg.com/vi/gsOFlTucnjs/hq720.jpg"
        },
        {
            "id": "ymjCGiugeHI",
            "title": "Mukunda - Telugu Full Movie - Sai Varun Tej, Pooja Hegde, Rao Ramesh",
            "url": "https://www.youtube.com/watch?v=ymjCGiugeHI",
            "duration": 7961.0,
            "view_count": 6056744,
            "uploader": "Zee Cinemalu",
            "category": "telugu",
            "thumbnail": "https://i.ytimg.com/vi/ymjCGiugeHI/hqdefault.jpg"
        },
        {
            "id": "BN8lc6sbX70",
            "title": "Chitti Premaayanam Full Movie | Latest Telugu Movies 2026 | MCA | Funmoji | Infinitum Movies",
            "url": "https://www.youtube.com/watch?v=BN8lc6sbX70",
            "duration": 17736.0,
            "view_count": 3441,
            "uploader": "Infinitum Movies",
            "category": "telugu",
            "thumbnail": "https://i.ytimg.com/vi/BN8lc6sbX70/hq720.jpg"
        },
        {
            "id": "KfM5FkxSswo",
            "title": "Pelli Sandadi Telugu Comedy Full Length HD Movie | Roshan | Sreeleela | Raghavendra rao",
            "url": "https://www.youtube.com/watch?v=KfM5FkxSswo",
            "duration": 7753.0,
            "view_count": 3325112,
            "uploader": "Tollywood Box Office",
            "category": "telugu",
            "thumbnail": "https://i.ytimg.com/vi/KfM5FkxSswo/hq720.jpg"
        },
        {
            "id": "Vm-oqYb18KY",
            "title": "Akash Puri & Ketika Sharma Telugu Super Hit Full Movie || Ramya Krishnan || Kotha Cinema",
            "url": "https://www.youtube.com/watch?v=Vm-oqYb18KY",
            "duration": 6057.0,
            "view_count": 287753,
            "uploader": "Kotha Cinema",
            "category": "telugu",
            "thumbnail": "https://i.ytimg.com/vi/Vm-oqYb18KY/hq720.jpg"
        },
        {
            "id": "JJSrthcbMlU",
            "title": "Darling Telugu Full Movie | Prabhas, Kajal Agarwal | Sri Balaji Video",
            "url": "https://www.youtube.com/watch?v=JJSrthcbMlU",
            "duration": 9128.0,
            "view_count": 879636,
            "uploader": "SriBalajiMovies",
            "category": "telugu",
            "thumbnail": "https://i.ytimg.com/vi/JJSrthcbMlU/hq720.jpg"
        },
        {
            "id": "oZFU0NyL8gk",
            "title": "Punya Dampathulu Full HD Telugu Movie | Sobhan Babu | Suhasini | Nuthan Prasad | Jayamalini",
            "url": "https://www.youtube.com/watch?v=oZFU0NyL8gk",
            "duration": 6071.0,
            "view_count": 18970,
            "uploader": "Rose Telugu Movies",
            "category": "telugu",
            "thumbnail": "https://i.ytimg.com/vi/oZFU0NyL8gk/hq720.jpg"
        },
        {
            "id": "E8mCRIE3cU0",
            "title": "Venky Telugu Full Movie | Mass Maharaja Ravi Teja | Sneha | Evergreen Telugu Blockbuster Movies",
            "url": "https://www.youtube.com/watch?v=E8mCRIE3cU0",
            "duration": 9627.0,
            "view_count": 169169,
            "uploader": "Superscreen Cinema",
            "category": "telugu",
            "thumbnail": "https://i.ytimg.com/vi/E8mCRIE3cU0/hq720.jpg?sqp=-oaymwEcCNAFEJQDSFXyq4qpAw4IARUAAIhCGAFwAcABBg==&rs=AOn4CLCuU2getGS5WBVdHNu1tIxPK9Ivdw",
            "added_date": "2026-04-16T07:31:14.823260Z",
            "source": "youtube"
        },
        {
            "id": "lnqLnXimUu8",
            "title": "Gopala Gopala Telugu Satirical/Comedy/Drama Full Movie || Pawan Kalyan || Venkatesh || Matinee Show",
            "url": "https://www.youtube.com/watch?v=lnqLnXimUu8",
            "duration": 7353.0,
            "view_count": 1029552,
            "uploader": "Matinee Show",
            "category": "telugu",
            "thumbnail": "https://i.ytimg.com/vi/lnqLnXimUu8/hq720.jpg"
        },
        {
            "id": "lNYXufsDBFM",
            "title": "Couple Goals | Full Movie | Telugu Movies 2026 | Sushma Gopal | Mohit Pedada | Infinitum Media",
            "url": "https://www.youtube.com/watch?v=lNYXufsDBFM",
            "duration": 11650.0,
            "view_count": 35850,
            "uploader": "Infinitum Movies",
            "category": "telugu",
            "thumbnail": "https://i.ytimg.com/vi/lNYXufsDBFM/hq720.jpg"
        },
        {
            "id": "lWGmGDQjiIk",
            "title": "Vajra Kavachadhara Govinda Comedy Full Movie | Latest Telugu Full Movies | Saptagiri | VaibhaviJoshi",
            "url": "https://www.youtube.com/watch?v=lWGmGDQjiIk",
            "duration": 8445.0,
            "view_count": 4409243,
            "uploader": "NiharikaMovies",
            "category": "telugu",
            "thumbnail": "https://i.ytimg.com/vi/lWGmGDQjiIk/hq720.jpg"
        },
        {
            "id": "ifsMzBZgJuc",
            "title": "Nenu Sailaja Telugu Full HD Movie | Ram Pothineni Keerthy Suresh Comedy/Love Movie | Matinee Show",
            "url": "https://www.youtube.com/watch?v=ifsMzBZgJuc",
            "duration": 6627.0,
            "view_count": 4205901,
            "uploader": "Matinee Show",
            "category": "telugu",
            "thumbnail": "https://i.ytimg.com/vi/ifsMzBZgJuc/hq720.jpg"
        },
        {
            "id": "6IKX9FHyhV8",
            "title": "Sangeeth Shobhan Mystery Thriller Movie | Gamblers | Sangeeth Shobhan | Prashanthi charuolingah",
            "url": "https://www.youtube.com/watch?v=6IKX9FHyhV8",
            "duration": 6010.0,
            "view_count": 509816,
            "uploader": "BhavaniHD Movies",
            "category": "telugu",
            "thumbnail": "https://i.ytimg.com/vi/6IKX9FHyhV8/hq720.jpg"
        },
        {
            "id": "uSCny3eXPl8",
            "title": "Oka Ronaldo Cinema | ఒక రోనాల్డో సినిమా | Telugu Full Movie 4K | Latest hit Movie #maheshbabu",
            "url": "https://www.youtube.com/watch?v=uSCny3eXPl8",
            "duration": 9581.0,
            "view_count": 1674,
            "uploader": "Cinema Villa Telugu",
            "category": "telugu",
            "thumbnail": "https://i.ytimg.com/vi/uSCny3eXPl8/hq720.jpg"
        },
        {
            "id": "w4Hfeq2_X8c",
            "title": "Hushaaru Telugu Full Movie 4K | Rahul Ramakrishna | Priya Vadlamani | Tejus Kancherla | Dinesh Tej",
            "url": "https://www.youtube.com/watch?v=w4Hfeq2_X8c",
            "duration": 8550.0,
            "view_count": 3474835,
            "uploader": "Telugu Filmnagar",
            "category": "telugu",
            "thumbnail": "https://i.ytimg.com/vi/w4Hfeq2_X8c/hq720.jpg"
        },
        {
            "id": "U4Fp8BDDQF4",
            "title": "Srimathi Vellostha - శ్రీమతీ వెళ్ళొస్తా Full Telugu Movie | Jagapathi Babu | Devyani | Brahmanandam",
            "url": "https://www.youtube.com/watch?v=U4Fp8BDDQF4",
            "duration": 7683.0,
            "view_count": 1846278,
            "uploader": "Rajshri Telugu",
            "category": "telugu",
            "thumbnail": "https://i.ytimg.com/vi/U4Fp8BDDQF4/hq720.jpg"
        },
        {
            "id": "I1WGKjAK9JY",
            "title": "Telangana Mardal US Bava Full Movie || Latest Telugu Movies ||Aishwarya Vandhana || Shiva Charan",
            "url": "https://www.youtube.com/watch?v=I1WGKjAK9JY",
            "duration": 5217.0,
            "view_count": 393134,
            "uploader": "Infinitum Movies",
            "category": "telugu",
            "thumbnail": "https://i.ytimg.com/vi/I1WGKjAK9JY/hq720.jpg"
        },
        {
            "id": "tQwr4Tywk1o",
            "title": "Pandaga Chesko Telugu Family/Action Drama Full Length HD Movie || Ram Pothineni || Matinee Show",
            "url": "https://www.youtube.com/watch?v=tQwr4Tywk1o",
            "duration": 8038.0,
            "view_count": 349782,
            "uploader": "Matinee Show",
            "category": "telugu",
            "thumbnail": "https://i.ytimg.com/vi/tQwr4Tywk1o/hq720.jpg"
        },
        {
            "id": "h0dybrN-8Ys",
            "title": "Bujjigadu Telugu Full Movie 4K | Prabhas | Mohan Babu | Trisha | Puri Jagannadh | Telugu New Movies",
            "url": "https://www.youtube.com/watch?v=h0dybrN-8Ys",
            "duration": 8718.0,
            "view_count": 1550672,
            "uploader": "Telugu Filmnagar",
            "category": "telugu",
            "thumbnail": "https://i.ytimg.com/vi/h0dybrN-8Ys/hq720.jpg"
        },
        {
            "id": "LMvBql5UV5M",
            "title": "Month Of Madhu Latest Telugu Full Movie 4K | Naveen Chandra | Swathi Reddy | Telugu New Movies",
            "url": "https://www.youtube.com/watch?v=LMvBql5UV5M",
            "duration": 8290.0,
            "view_count": 990556,
            "uploader": "Telugu Filmnagar",
            "category": "telugu",
            "thumbnail": "https://i.ytimg.com/vi/LMvBql5UV5M/hq720.jpg"
        },
        {
            "id": "F-QQfhwnsrQ",
            "title": "Chilakapacha Kapuram Telugu Full Movie | Jagapathi Babu | Soundarya | Meena | Charan Raj",
            "url": "https://www.youtube.com/watch?v=F-QQfhwnsrQ",
            "duration": 7729.0,
            "view_count": 283973,
            "uploader": "Telugu Movie Bazaar",
            "category": "telugu",
            "thumbnail": "https://i.ytimg.com/vi/F-QQfhwnsrQ/hq720.jpg"
        },
        {
            "id": "RKo4GMc4f6w",
            "title": "MCA Telugu Full Movie 4K | Nani | Sai Pallavi | Bhumika | DSP | Dil Raju | Telugu New Movies | TFN",
            "url": "https://www.youtube.com/watch?v=RKo4GMc4f6w",
            "duration": 8295.0,
            "view_count": 7090550,
            "uploader": "Telugu Filmnagar",
            "category": "telugu",
            "thumbnail": "https://i.ytimg.com/vi/RKo4GMc4f6w/hq720.jpg"
        },
        {
            "id": "NsDQf83cNnk",
            "title": "Suhas And Shivani Nagaram Recent BlockbusterHit Social Drama Telugu Full Length Movie | Matinee Show",
            "url": "https://www.youtube.com/watch?v=NsDQf83cNnk",
            "duration": 6269.0,
            "view_count": 17004,
            "uploader": "Matinee Show",
            "category": "telugu",
            "thumbnail": "https://i.ytimg.com/vi/NsDQf83cNnk/hq720.jpg"
        },
        {
            "id": "mcjoryRbilI",
            "title": "Businessman Mahesh Babu All Time Blockbuster Hit Action/Crime Drama Telugu Full Movie | Matinee Show",
            "url": "https://www.youtube.com/watch?v=mcjoryRbilI",
            "duration": 5906.0,
            "view_count": 2312066,
            "uploader": "Matinee Show",
            "category": "telugu",
            "thumbnail": "https://i.ytimg.com/vi/mcjoryRbilI/hq720.jpg"
        },
        {
            "id": "DDWPxs8zTzg",
            "title": "Dwaraka Full Movie - 2018 Telugu Full Movies - Vijay Devarakonda, Pooja Jhaveri",
            "url": "https://www.youtube.com/watch?v=DDWPxs8zTzg",
            "duration": 8242.0,
            "view_count": 34124684,
            "uploader": "BhavaniHD Movies",
            "category": "telugu",
            "thumbnail": "https://i.ytimg.com/vi/DDWPxs8zTzg/hq720.jpg"
        }
    ]
}