{
    "page": 5,
    "total_pages": 6,
    "total_items": 255,
    "items": [
        {
            "id": "2O1NqCBxMeA",
            "title": "Dhurandhar full movie telugu (2026) | Ranveer Singh | Sara Arjun | Akshaye Khanna | Sanjay Dutt ",
            "url": "https://www.youtube.com/watch?v=2O1NqCBxMeA",
            "duration": 13064.0,
            "view_count": 588,
            "uploader": "Filmi Flash Malayalam",
            "category": "telugu",
            "thumbnail": "https://i.ytimg.com/vi/2O1NqCBxMeA/hqdefault.jpg"
        },
        {
            "id": "MVBVqEgXDHg",
            "title": "Happy Telugu Full Movie | 4K | Allu Arjun, Genelia, ManojBajpayee | Karunakaran | Yuvan Shankar Raja",
            "url": "https://www.youtube.com/watch?v=MVBVqEgXDHg",
            "duration": 9086.0,
            "view_count": 4290501,
            "uploader": "Geetha Arts ",
            "category": "telugu",
            "thumbnail": "https://i.ytimg.com/vi/MVBVqEgXDHg/hq720.jpg"
        },
        {
            "id": "IOaSamu9BbE",
            "title": "Ranga Ranga Vaibhavanga Telugu Super Hit Romance/Comedy Drama Full Length HD Movie || Matinee Show",
            "url": "https://www.youtube.com/watch?v=IOaSamu9BbE",
            "duration": 7328.0,
            "view_count": 5474765,
            "uploader": "Matinee Show",
            "category": "telugu",
            "thumbnail": "https://i.ytimg.com/vi/IOaSamu9BbE/hq720.jpg"
        },
        {
            "id": "-54YPdwSEe0",
            "title": "Saindhav || Venkatesh Crime Action Full HD Movie || Shraddha Srinath || @JordaarMovies ​",
            "url": "https://www.youtube.com/watch?v=-54YPdwSEe0",
            "duration": 7526.0,
            "view_count": 1469274,
            "uploader": "Jordaar Movies",
            "category": "telugu",
            "thumbnail": "https://i.ytimg.com/vi/-54YPdwSEe0/hq720.jpg"
        },
        {
            "id": "tVLu60NDjZY",
            "title": "Ramayya Vasthavayya Telugu Full Movie | NTR, Samantha | Shruti Haasan | Harish Shankar",
            "url": "https://www.youtube.com/watch?v=tVLu60NDjZY",
            "duration": 9346.0,
            "view_count": 11836397,
            "uploader": "Aditya Cinemalu",
            "category": "telugu",
            "thumbnail": "https://i.ytimg.com/vi/tVLu60NDjZY/hq720.jpg"
        },
        {
            "id": "EJKHikFl-T0",
            "title": "Annaatthe Full Movie (Telugu) | Rajinikanth | Action Family Drama | HD Telugu Dubbed Movie",
            "url": "https://www.youtube.com/watch?v=EJKHikFl-T0",
            "duration": 9641.0,
            "view_count": 83933,
            "uploader": "Delugu Movies",
            "category": "telugu",
            "thumbnail": "https://i.ytimg.com/vi/EJKHikFl-T0/hq720.jpg"
        },
        {
            "id": "EvI2dtdUS_A",
            "title": "#Youth full movie 🎥 in telugu ",
            "url": "https://www.youtube.com/watch?v=EvI2dtdUS_A",
            "duration": 7971.0,
            "view_count": 145,
            "uploader": "Navya entertainment Hud",
            "category": "telugu",
            "thumbnail": "https://i.ytimg.com/vi/EvI2dtdUS_A/hqdefault.jpg"
        },
        {
            "id": "kI-WhiGfHa8",
            "title": "KALISI NADUDDAM | EXCLUSIVE TELUGU FULL MOVIE | SRIKANTH | SOUNDARYA | TELUGU CINE CAFE",
            "url": "https://www.youtube.com/watch?v=kI-WhiGfHa8",
            "duration": 8632.0,
            "view_count": 2550537,
            "uploader": "Telugu Cine Cafe",
            "category": "telugu",
            "thumbnail": "https://i.ytimg.com/vi/kI-WhiGfHa8/hq720.jpg"
        },
        {
            "id": "ycoeUXCRA0M",
            "title": "Sarrainodu Telugu Full HD Movie | Allu Arjun Mass Action Blockbuster | Telugu Hit Movies ",
            "url": "https://www.youtube.com/watch?v=ycoeUXCRA0M",
            "duration": 7348.0,
            "view_count": 408350,
            "uploader": "TELUGU HIT MOVIES ",
            "category": "telugu",
            "thumbnail": "https://i.ytimg.com/vi/ycoeUXCRA0M/hq720.jpg"
        },
        {
            "id": "8qLPiAkjPR0",
            "title": "OG ||Pavan Kalyan||2025||Full Movie in Telugu ",
            "url": "https://www.youtube.com/watch?v=8qLPiAkjPR0",
            "duration": 9044.0,
            "view_count": 1774722,
            "uploader": "M.M.L.Movies Telugu ",
            "category": "telugu",
            "thumbnail": "https://i.ytimg.com/vi/8qLPiAkjPR0/hqdefault.jpg"
        },
        {
            "id": "9pFHtnzVHdM",
            "title": "Boss I Love You Telugu Full Movie 4K | Nagarjuna | Nayanthara | Poonam Bajwa | Telugu New Movies",
            "url": "https://www.youtube.com/watch?v=9pFHtnzVHdM",
            "duration": 9256.0,
            "view_count": 1113477,
            "uploader": "Mango Videos",
            "category": "telugu",
            "thumbnail": "https://i.ytimg.com/vi/9pFHtnzVHdM/hq720.jpg"
        },
        {
            "id": "k0G5WcKSdRA",
            "title": "Mystery Case File Telugu investigative thriller Full Length HD Movie | Kiran Abbavaram | Nuveksha",
            "url": "https://www.youtube.com/watch?v=k0G5WcKSdRA",
            "duration": 6532.0,
            "view_count": 764698,
            "uploader": "Tollywood Box Office",
            "category": "telugu",
            "thumbnail": "https://i.ytimg.com/vi/k0G5WcKSdRA/hq720.jpg"
        },
        {
            "id": "oVsA6B1cweo",
            "title": "Race Gurram Telugu Full Movie HD | Allu Arjun | Shruti Hassan | Brahmanandam | Mango Indian Films",
            "url": "https://www.youtube.com/watch?v=oVsA6B1cweo",
            "duration": 9793.0,
            "view_count": 81323797,
            "uploader": "Mango Indian Films",
            "category": "telugu",
            "thumbnail": "https://i.ytimg.com/vi/oVsA6B1cweo/hq720.jpg"
        },
        {
            "id": "LorbrQ-8RUg",
            "title": "Indra (2002) Full Movie Telugu Chiranjeevi, Aarti Agarwal, Sonali Bendre, B Gopal,  Manisharma",
            "url": "https://www.youtube.com/watch?v=LorbrQ-8RUg",
            "duration": 10414.0,
            "view_count": 5851804,
            "uploader": "Someshwar Nath Sriramoju",
            "category": "telugu",
            "thumbnail": "https://i.ytimg.com/vi/LorbrQ-8RUg/hqdefault.jpg"
        },
        {
            "id": "7g03KXHEZtU",
            "title": "Punyam Koddi Purushudu Full HD Telugu Movie | Sobhan Babu | Radhika | Jayasudha | Rao Gopal Rao",
            "url": "https://www.youtube.com/watch?v=7g03KXHEZtU",
            "duration": 8271.0,
            "view_count": 23893,
            "uploader": "Telugu Movie Center",
            "category": "telugu",
            "thumbnail": "https://i.ytimg.com/vi/7g03KXHEZtU/hq720.jpg"
        },
        {
            "id": "TINVex2bWfw",
            "title": "RULE BREAKER (రూల్ బ్రేకర్) | Ram Pothineni, Raashi Khanna New Telugu Action Thriller |Full HD Movie",
            "url": "https://www.youtube.com/watch?v=TINVex2bWfw",
            "duration": 7289.0,
            "view_count": 625988,
            "uploader": "Andhra Talkies",
            "category": "telugu",
            "thumbnail": "https://i.ytimg.com/vi/TINVex2bWfw/hq720.jpg"
        },
        {
            "id": "Jm60552aTNk",
            "title": "Nithiin Recent Super Hit Telugu Blockbuster Full Hd Movie | Nithiin , Sreeleela | @Localtalkiess",
            "url": "https://www.youtube.com/watch?v=Jm60552aTNk",
            "duration": 8056.0,
            "view_count": 3988493,
            "uploader": "Local Talkiess",
            "category": "telugu",
            "thumbnail": "https://i.ytimg.com/vi/Jm60552aTNk/hq720.jpg"
        },
        {
            "id": "qFQKHg2F14o",
            "title": "Khakee Telugu Full Movie | Karthi | Rakul Preet Singh | Telugu New Movie 2026 | Aditya Cinemalu",
            "url": "https://www.youtube.com/watch?v=qFQKHg2F14o",
            "duration": 6575.0,
            "view_count": 394128,
            "uploader": "Aditya Cinemalu",
            "category": "telugu",
            "thumbnail": "https://i.ytimg.com/vi/qFQKHg2F14o/hq720.jpg"
        },
        {
            "id": "HG-bmTnuO3E",
            "title": "Prema Vimanam Telugu Comedy Full HD Movie | Sangeeth Sobhan | Saaveee Megghana | Anasuya Bharadwaj",
            "url": "https://www.youtube.com/watch?v=HG-bmTnuO3E",
            "duration": 8561.0,
            "view_count": 407195,
            "uploader": "Tollywood Box Office",
            "category": "telugu",
            "thumbnail": "https://i.ytimg.com/vi/HG-bmTnuO3E/hq720.jpg"
        },
        {
            "id": "TSixQEV96G0",
            "title": "STRIKER (స్ట్రైకర్) | Vijay Thalapathy, Samantha New Telugu Action Crime Thriller | Full HD Movie",
            "url": "https://www.youtube.com/watch?v=TSixQEV96G0",
            "duration": 8445.0,
            "view_count": 463553,
            "uploader": "Andhra Talkies",
            "category": "telugu",
            "thumbnail": "https://i.ytimg.com/vi/TSixQEV96G0/hq720.jpg"
        },
        {
            "id": "QQrHA9q86gA",
            "title": "Priyuralu Pilichindi Full Movie Telugu | Ajith, Tabu, Aishwarya Rai, Mammootty, Abbas | TeluguOne",
            "url": "https://www.youtube.com/watch?v=QQrHA9q86gA",
            "duration": 9413.0,
            "view_count": 398599,
            "uploader": "TeluguOne",
            "category": "telugu",
            "thumbnail": "https://i.ytimg.com/vi/QQrHA9q86gA/hq720.jpg"
        },
        {
            "id": "YdeuLQ7U5ak",
            "title": "MAD Full 1080p HD Movie In Telugu | Telugu Best Comedy Movie | 2025 New Comedy Movies In Telugu |",
            "url": "https://www.youtube.com/watch?v=YdeuLQ7U5ak",
            "duration": 6418.0,
            "view_count": 6292914,
            "uploader": "T Facts Telugu",
            "category": "telugu",
            "thumbnail": "https://i.ytimg.com/vi/YdeuLQ7U5ak/hqdefault.jpg"
        },
        {
            "id": "FAs0k7FjjX8",
            "title": "Sye Telugu Full Movie | Nitin,Genilia, SS Rajamouli | Sri Balaji Video",
            "url": "https://www.youtube.com/watch?v=FAs0k7FjjX8",
            "duration": 9801.0,
            "view_count": 34412534,
            "uploader": "Sri Balaji Full Movies",
            "category": "telugu",
            "thumbnail": "https://i.ytimg.com/vi/FAs0k7FjjX8/hq720.jpg"
        },
        {
            "id": "57aRCU25oDo",
            "title": "Lakshyam Telugu Full HD Movie | Gopichand | Anushka Shetty | Ganesh Videos",
            "url": "https://www.youtube.com/watch?v=57aRCU25oDo",
            "duration": 9480.0,
            "view_count": 93553,
            "uploader": "Ganesh Videos",
            "category": "telugu",
            "thumbnail": "https://i.ytimg.com/vi/57aRCU25oDo/hq720.jpg"
        },
        {
            "id": "zPvlNwPoL1c",
            "title": "Aadivaram Adavallaku Selavu Telugu Full Movie 4K | Sivaji | Brahmanandam | Suhasini | Kovai Sarala",
            "url": "https://www.youtube.com/watch?v=zPvlNwPoL1c",
            "duration": 7906.0,
            "view_count": 1018001,
            "uploader": "Mango Telugu Cinema",
            "category": "telugu",
            "thumbnail": "https://i.ytimg.com/vi/zPvlNwPoL1c/hq720.jpg"
        },
        {
            "id": "BKbpwgTCLnY",
            "title": "Aarya 2 Telugu Full Movie | 4K | Allu Arjun | Kajal Agarwal | Navadeep | Ganesh Videos",
            "url": "https://www.youtube.com/watch?v=BKbpwgTCLnY",
            "duration": 7303.0,
            "view_count": 3927217,
            "uploader": "Ganesh Videos",
            "category": "telugu",
            "thumbnail": "https://i.ytimg.com/vi/BKbpwgTCLnY/hq720.jpg"
        },
        {
            "id": "NLop_vrkTrw",
            "title": "Policeodu Telugu Full Movie | Thalapathy Vijay | Samantha | Amy Jackson | GV Prakash | Atlee | TFN",
            "url": "https://www.youtube.com/watch?v=NLop_vrkTrw",
            "duration": 9443.0,
            "view_count": 5942254,
            "uploader": "Telugu Filmnagar",
            "category": "telugu",
            "thumbnail": "https://i.ytimg.com/vi/NLop_vrkTrw/hq720.jpg"
        },
        {
            "id": "7gGVflvsjVk",
            "title": "Akhil Akkineni Blockbuster Spy Action Thriller HD Telugu Movie || Mammootty || @JordaarMovies ​",
            "url": "https://www.youtube.com/watch?v=7gGVflvsjVk",
            "duration": 8214.0,
            "view_count": 546324,
            "uploader": "Jordaar Movies",
            "category": "telugu",
            "thumbnail": "https://i.ytimg.com/vi/7gGVflvsjVk/hq720.jpg"
        },
        {
            "id": "cPARx8XRal4",
            "title": "Love Guru Telugu Full Movie |Vijay Antony | Mirnalini Ravi | Vinayak Vaithianathan",
            "url": "https://www.youtube.com/watch?v=cPARx8XRal4",
            "duration": 8647.0,
            "view_count": 4544893,
            "uploader": "Vijay Antony",
            "category": "telugu",
            "thumbnail": "https://i.ytimg.com/vi/cPARx8XRal4/hq720.jpg"
        },
        {
            "id": "i3bE_hqrLCc",
            "title": "VIP 2 Telugu Full Movie 4K | Dhanush | Amala Paul | Anirudh Ravichander | Telugu Action Comedy",
            "url": "https://www.youtube.com/watch?v=i3bE_hqrLCc",
            "duration": 7870.0,
            "view_count": 2074861,
            "uploader": "Mango Telugu Cinema",
            "category": "telugu",
            "thumbnail": "https://i.ytimg.com/vi/i3bE_hqrLCc/hq720.jpg"
        },
        {
            "id": "Df7STZvA9pI",
            "title": "Taxiwaala - Telugu Full Movie - Vijay Deverakonda, Priyanka Jawalkar, Malavika Nair, Madhunandan",
            "url": "https://www.youtube.com/watch?v=Df7STZvA9pI",
            "duration": 7894.0,
            "view_count": 4970982,
            "uploader": "Zee Movies Telugu",
            "category": "telugu",
            "thumbnail": "https://i.ytimg.com/vi/Df7STZvA9pI/hqdefault.jpg"
        },
        {
            "id": "nUKVN1bTcQQ",
            "title": "Naga Shaurya & Yukti Thareja Super Hit Telugu Full Movie || Kotha Cinema",
            "url": "https://www.youtube.com/watch?v=nUKVN1bTcQQ",
            "duration": 6283.0,
            "view_count": 1165677,
            "uploader": "Kotha Cinema",
            "category": "telugu",
            "thumbnail": "https://i.ytimg.com/vi/nUKVN1bTcQQ/hq720.jpg"
        },
        {
            "id": "k72-yfLzOGI",
            "title": "Jaya Janaki Nayaka Full Movie - Bellamkonda Sai Srinivas ll Rakul Preet Singh ll Boyapati Srinu",
            "url": "https://www.youtube.com/watch?v=k72-yfLzOGI",
            "duration": 8842.0,
            "view_count": 39091837,
            "uploader": "BhavaniHD Movies",
            "category": "telugu",
            "thumbnail": "https://i.ytimg.com/vi/k72-yfLzOGI/hq720.jpg"
        },
        {
            "id": "wYHSMTx6beA",
            "title": "Gautam SSC Telugu Full Movie | Telugu Full Movies | Navadeep, Sindhu Tolani, Madhu Sharma",
            "url": "https://www.youtube.com/watch?v=wYHSMTx6beA",
            "duration": 8809.0,
            "view_count": 7738559,
            "uploader": "Sri Balaji Full Movies",
            "category": "telugu",
            "thumbnail": "https://i.ytimg.com/vi/wYHSMTx6beA/hq720.jpg"
        },
        {
            "id": "wtUd8c11Zgg",
            "title": "Marakathamani Telugu Full Movie | Aadhi Pinisetty Old Super Hit Comedy/Thriller Movie | Matinee Show",
            "url": "https://www.youtube.com/watch?v=wtUd8c11Zgg",
            "duration": 7656.0,
            "view_count": 71984,
            "uploader": "Matinee Show",
            "category": "telugu",
            "thumbnail": "https://i.ytimg.com/vi/wtUd8c11Zgg/hq720.jpg"
        },
        {
            "id": "OhzRnSR-VMo",
            "title": "Raja Telugu Full HD Movie | Venkatesh | Soundarya | Ganesh Videos",
            "url": "https://www.youtube.com/watch?v=OhzRnSR-VMo",
            "duration": 9857.0,
            "view_count": 5479602,
            "uploader": "Ganesh Videos",
            "category": "telugu",
            "thumbnail": "https://i.ytimg.com/vi/OhzRnSR-VMo/hq720.jpg"
        },
        {
            "id": "hUfWXkN9Ung",
            "title": "Achari America Yatra - Telugu Full Movie - Manchu Vishnu, Pragya Jaiswal, Brahmanandam",
            "url": "https://www.youtube.com/watch?v=hUfWXkN9Ung",
            "duration": 6930.0,
            "view_count": 2053473,
            "uploader": "Zee Movies Telugu",
            "category": "telugu",
            "thumbnail": "https://i.ytimg.com/vi/hUfWXkN9Ung/hqdefault.jpg"
        },
        {
            "id": "_VfT8vhF-VY",
            "title": "Rangasthalam Telugu Full Movie | Ram Charan | Samantha | Aadhi Pinisetty",
            "url": "https://www.youtube.com/watch?v=_VfT8vhF-VY",
            "duration": 10421.0,
            "view_count": 281930,
            "uploader": "Silver Screen Films ",
            "category": "telugu",
            "thumbnail": "https://i.ytimg.com/vi/_VfT8vhF-VY/hqdefault.jpg?sqp=-oaymwEcCOADEI4CSFXyq4qpAw4IARUAAIhCGAFwAcABBg==&rs=AOn4CLCtUjV5s7RCTllF0HourkonaFmPCQ",
            "added_date": "2026-04-16T07:31:15.023612Z",
            "source": "youtube"
        },
        {
            "id": "exCSfzrQfqw",
            "title": "MOKSHAPATAM Full Movie Telugu 🔥 | Mind-Blowing Thriller | Climax Twist You Won’t Expect 😱",
            "url": "https://www.youtube.com/watch?v=exCSfzrQfqw",
            "duration": 7675.0,
            "view_count": 158114,
            "uploader": "Tollywood Box Office",
            "category": "telugu",
            "thumbnail": "https://i.ytimg.com/vi/exCSfzrQfqw/hq720.jpg?sqp=-oaymwEcCNAFEJQDSFXyq4qpAw4IARUAAIhCGAFwAcABBg==&rs=AOn4CLANr37G3TXzRp1ADXcpPo_HF9p8qg",
            "added_date": "2026-04-16T07:31:16.826702Z",
            "source": "youtube"
        },
        {
            "id": "7zg1OwMpE_0",
            "title": "Pressure Cooker Latest Telugu Full Movie 4K | Sai Ronak | Preethi Asrani | Rahul Ramakrishna | TFN",
            "url": "https://www.youtube.com/watch?v=7zg1OwMpE_0",
            "duration": 7443.0,
            "view_count": 78838,
            "uploader": "Telugu Filmnagar",
            "category": "telugu",
            "thumbnail": "https://i.ytimg.com/vi/7zg1OwMpE_0/hq720.jpg"
        },
        {
            "id": "PWSeiOBCah0",
            "title": "Ayyo Devuda Telugu Full Movie 4K | Ashok Selvan | Vijay Sethupathi | Ritika Singh | Vani Bhojan",
            "url": "https://www.youtube.com/watch?v=PWSeiOBCah0",
            "duration": 9164.0,
            "view_count": 173536,
            "uploader": "Telugu Filmnagar",
            "category": "telugu",
            "thumbnail": "https://i.ytimg.com/vi/PWSeiOBCah0/hq720.jpg"
        },
        {
            "id": "3iQtnZsgtn8",
            "title": "రిటర్న్ ఆఫ్ ది డ్రాగన్ ! Pradeep Ranganathan Telugu Full HD Comedy/Drama Movie || @JordaarMovies ​",
            "url": "https://www.youtube.com/watch?v=3iQtnZsgtn8",
            "duration": 7541.0,
            "view_count": 2076758,
            "uploader": "Jordaar Movies",
            "category": "telugu",
            "thumbnail": "https://i.ytimg.com/vi/3iQtnZsgtn8/hq720.jpg"
        },
        {
            "id": "BY4cAFBEaOU",
            "title": "Vijay Thalapathy And Ileana Full Movie | Telugu Movies | Tollywood Prime Cinema",
            "url": "https://www.youtube.com/watch?v=BY4cAFBEaOU",
            "duration": 9315.0,
            "view_count": 88065,
            "uploader": "Tollywood Prime Cinema",
            "category": "telugu",
            "thumbnail": "https://i.ytimg.com/vi/BY4cAFBEaOU/hq720.jpg"
        },
        {
            "id": "Aaq3AQ7aot4",
            "title": "Manasantha Nuvve Telugu Full HD Movie | Uday Kiran | Reema Sen | @ThappakaChudandi9",
            "url": "https://www.youtube.com/watch?v=Aaq3AQ7aot4",
            "duration": 9314.0,
            "view_count": 1257830,
            "uploader": "Thappaka Chudandi",
            "category": "telugu",
            "thumbnail": "https://i.ytimg.com/vi/Aaq3AQ7aot4/hq720.jpg"
        },
        {
            "id": "rnkQ9BYCSJY",
            "title": "Viswasam Ajith Kumar Super Hit Action/Crime Drama Telugu Full HD Movie || Nayanthara || Matinee Show",
            "url": "https://www.youtube.com/watch?v=rnkQ9BYCSJY",
            "duration": 7454.0,
            "view_count": 4930665,
            "uploader": "Matinee Show",
            "category": "telugu",
            "thumbnail": "https://i.ytimg.com/vi/rnkQ9BYCSJY/hq720.jpg"
        },
        {
            "id": "aacmLpcnASs",
            "title": "Rewind (2024) Telugu Full Movie | Unpredictable Climax | A Film by Kalyan Chakravarthy",
            "url": "https://www.youtube.com/watch?v=aacmLpcnASs",
            "duration": 8004.0,
            "view_count": 151217,
            "uploader": "NRI Dreamz",
            "category": "telugu",
            "thumbnail": "https://i.ytimg.com/vi/aacmLpcnASs/hq720.jpg?sqp=-oaymwEcCNAFEJQDSFXyq4qpAw4IARUAAIhCGAFwAcABBg==&rs=AOn4CLCzhxLFsU1yOkt-ssyCcC7p71sphg",
            "added_date": "2026-04-16T07:31:14.422518Z",
            "source": "youtube"
        },
        {
            "id": "BPzMIHgxKkc",
            "title": "Akhil Akkineni Sakshi Vaidya & Mammootty's Spy Action Entertainer Telugu Full Movie HD",
            "url": "https://www.youtube.com/watch?v=BPzMIHgxKkc",
            "duration": 8277.0,
            "view_count": 32455,
            "uploader": "ICON ENTERTAINMENTS",
            "category": "telugu",
            "thumbnail": "https://i.ytimg.com/vi/BPzMIHgxKkc/hq720.jpg"
        },
        {
            "id": "K08KrKTGb5A",
            "title": "Vishwak Sen Telugu HD Action Thriller Movie | Mechanic Rocky | Meenakshi Chaudhary |@JordaarMovies ​",
            "url": "https://www.youtube.com/watch?v=K08KrKTGb5A",
            "duration": 7949.0,
            "view_count": 527250,
            "uploader": "Jordaar Movies",
            "category": "telugu",
            "thumbnail": "https://i.ytimg.com/vi/K08KrKTGb5A/hq720.jpg"
        },
        {
            "id": "aZf3bVeAlQ4",
            "title": "Padmavat Historical Telugu dubbed Full Length HD Movie | Ranveer Singh | Deepika | Shahid Kapoor",
            "url": "https://www.youtube.com/watch?v=aZf3bVeAlQ4",
            "duration": 9205.0,
            "view_count": 88967,
            "uploader": "Tollywood Box Office",
            "category": "telugu",
            "thumbnail": "https://i.ytimg.com/vi/aZf3bVeAlQ4/hq720.jpg?sqp=-oaymwEcCNAFEJQDSFXyq4qpAw4IARUAAIhCGAFwAcABBg==&rs=AOn4CLBc7pKRu_U8OYCgNhLeQHsgMWzupQ",
            "added_date": "2026-04-16T07:31:15.223945Z",
            "source": "youtube"
        },
        {
            "id": "HTjU85ythqU",
            "title": "OG Full Movie (Telugu) 4K Ultra HD | Pawan Kalyan | Emraan Hashmi | Action Gangster Movie | Telugu",
            "url": "https://www.youtube.com/watch?v=HTjU85ythqU",
            "duration": 9044.0,
            "view_count": 10251,
            "uploader": "HRKTALKS",
            "category": "telugu",
            "thumbnail": "https://i.ytimg.com/vi/HTjU85ythqU/hq720.jpg"
        }
    ]
}