{
    "page": 3,
    "total_pages": 6,
    "total_items": 255,
    "items": [
        {
            "id": "C-CRRVpoZqM",
            "title": "Baadshah Telugu Full Movie | 4K | Jr NTR | Kajal Aggarwal | Ganesh Videos",
            "url": "https://www.youtube.com/watch?v=C-CRRVpoZqM",
            "duration": 9642.0,
            "view_count": 456648,
            "uploader": "Ganesh Videos",
            "category": "telugu",
            "thumbnail": "https://i.ytimg.com/vi/C-CRRVpoZqM/hq720.jpg"
        },
        {
            "id": "K5yyGmi0OSY",
            "title": "They Call Him OG (2025) HD Telugu Full Movie Pawan Kalyan telugu full movie",
            "url": "https://www.youtube.com/watch?v=K5yyGmi0OSY",
            "duration": 9044.0,
            "view_count": 844942,
            "uploader": "venu for you 18",
            "category": "telugu",
            "thumbnail": "https://i.ytimg.com/vi/K5yyGmi0OSY/hqdefault.jpg"
        },
        {
            "id": "14d3052AHuQ",
            "title": "A Beautiful Journey of Love: Andamaina Jeevitham Full Movie | Dulquer & Anupama Chemistry",
            "url": "https://www.youtube.com/watch?v=14d3052AHuQ",
            "duration": 8331.0,
            "view_count": 305352,
            "uploader": "Bhavani Movies",
            "category": "telugu",
            "thumbnail": "https://i.ytimg.com/vi/14d3052AHuQ/hq720.jpg"
        },
        {
            "id": "PYpBvVKnwfs",
            "title": "Superstar Rajinikanth Jailer Telugu Superhit  Full HD Film | Mohanlal | Tamanna | Shivraj Kumar",
            "url": "https://www.youtube.com/watch?v=PYpBvVKnwfs",
            "duration": 9264.0,
            "view_count": 3139682,
            "uploader": "Tollywood Box Office",
            "category": "telugu",
            "thumbnail": "https://i.ytimg.com/vi/PYpBvVKnwfs/hq720.jpg"
        },
        {
            "id": "7klngMnIdgY",
            "title": "K-Ramp | Full movie | Telugu | kiran Abbavaram | ",
            "url": "https://www.youtube.com/watch?v=7klngMnIdgY",
            "duration": 8264.0,
            "view_count": 88,
            "uploader": "Telugu movies show",
            "category": "telugu",
            "thumbnail": "https://i.ytimg.com/vi/7klngMnIdgY/hqdefault.jpg"
        },
        {
            "id": "fZfDNO-Tb5U",
            "title": "Kalaga Thalaivan Telugu SuperHit Action/Thriller Drama Full Movie | Udhayanidhi Stalin | MatineeShow",
            "url": "https://www.youtube.com/watch?v=fZfDNO-Tb5U",
            "duration": 7558.0,
            "view_count": 110624,
            "uploader": "Matinee Show",
            "category": "telugu",
            "thumbnail": "https://i.ytimg.com/vi/fZfDNO-Tb5U/hq720.jpg"
        },
        {
            "id": "KBAD0iJyWHE",
            "title": "ప్రతీకారం 🔥 Telugu Superhit Full Length HD Movie | Amala Paul | @tollywoodboxoffice",
            "url": "https://www.youtube.com/watch?v=KBAD0iJyWHE",
            "duration": 6225.0,
            "view_count": 33596,
            "uploader": "Tollywood Box Office",
            "category": "telugu",
            "thumbnail": "https://i.ytimg.com/vi/KBAD0iJyWHE/hq720.jpg"
        },
        {
            "id": "OAu6FscKQg0",
            "title": "Pelli Kani Prasad Telugu Full Movie | Sapthagiri, Priyanka | Abhilash Reddy | Volga Videos",
            "url": "https://www.youtube.com/watch?v=OAu6FscKQg0",
            "duration": 6951.0,
            "view_count": 1855125,
            "uploader": "Volga Video",
            "category": "telugu",
            "thumbnail": "https://i.ytimg.com/vi/OAu6FscKQg0/hq720.jpg"
        },
        {
            "id": "xky7dJVOelc",
            "title": "PLAN B (ప్లాన్ బీ) | Sree Vishnu, Reba Monica John New Telugu Comedy Drama | Full HD Movie",
            "url": "https://www.youtube.com/watch?v=xky7dJVOelc",
            "duration": 7049.0,
            "view_count": 70185,
            "uploader": "Andhra Talkies",
            "category": "telugu",
            "thumbnail": "https://i.ytimg.com/vi/xky7dJVOelc/hq720.jpg"
        },
        {
            "id": "wzCBMIv3fn8",
            "title": "Rashmika Devarakonda, Sharwanand, Khushbu Sundar & Radhika Sarathkumar 2026 Telugu Full 4K Movie ",
            "url": "https://www.youtube.com/watch?v=wzCBMIv3fn8",
            "duration": 7115.0,
            "view_count": 1686075,
            "uploader": "Mana Chitraalu",
            "category": "telugu",
            "thumbnail": "https://i.ytimg.com/vi/wzCBMIv3fn8/hqdefault.jpg"
        },
        {
            "id": "kAdsI_z-z8k",
            "title": "Manchi Rojulochaie Superhit Telugu Full HD Movie | Santosh Sobhan | Mehreen Pirzada | Ajay Ghosh",
            "url": "https://www.youtube.com/watch?v=kAdsI_z-z8k",
            "duration": 7367.0,
            "view_count": 105065,
            "uploader": "Tollywood Box Office",
            "category": "telugu",
            "thumbnail": "https://i.ytimg.com/vi/kAdsI_z-z8k/hq720.jpg"
        },
        {
            "id": "zsKmBxS_26E",
            "title": "Rakshit Shetty & Sangeetha Sringeri's Adventure Drama Telugu Full Movie HD | Icon Videos",
            "url": "https://www.youtube.com/watch?v=zsKmBxS_26E",
            "duration": 8432.0,
            "view_count": 378059,
            "uploader": "ICON VIDEOS",
            "category": "telugu",
            "thumbnail": "https://i.ytimg.com/vi/zsKmBxS_26E/hq720.jpg"
        },
        {
            "id": "j7AaUF3XcRo",
            "title": "Aparichitudu Vikram Super Hit Action/Thriller Drama Telugu Full Length HD Movie || Matinee Show",
            "url": "https://www.youtube.com/watch?v=j7AaUF3XcRo",
            "duration": 8856.0,
            "view_count": 61113,
            "uploader": "Matinee Show",
            "category": "telugu",
            "thumbnail": "https://i.ytimg.com/vi/j7AaUF3XcRo/hq720.jpg"
        },
        {
            "id": "5ArNt8YCgMQ",
            "title": "New Telugu Movie|Telugu Movie|Telugu New Movie|Latest Telugu Movie|New Telugu Movie|Movie Scenes ",
            "url": "https://www.youtube.com/watch?v=5ArNt8YCgMQ",
            "duration": 8664.0,
            "view_count": 140412,
            "uploader": "Aha Telugu New Movies ",
            "category": "telugu",
            "thumbnail": "https://i.ytimg.com/vi/5ArNt8YCgMQ/hq720.jpg"
        },
        {
            "id": "HxvuK6K6aB4",
            "title": "పెళ్లి చేసుకుందాం| LET'S GET MARRIED TELUGU 4K Full Movie | Harish Kalyan | Nadhiya | Yogi Babu",
            "url": "https://www.youtube.com/watch?v=HxvuK6K6aB4",
            "duration": 8190.0,
            "view_count": 213387,
            "uploader": "API Indian Movie Hub",
            "category": "telugu",
            "thumbnail": "https://i.ytimg.com/vi/HxvuK6K6aB4/hq720.jpg"
        },
        {
            "id": "HCbcXjSRat4",
            "title": "Vikram Telugu Dubbed Action Thriller Full HD Movie | Kamal Haasan | Vijay Sethupathi | Fahadh Faasil",
            "url": "https://www.youtube.com/watch?v=HCbcXjSRat4",
            "duration": 9552.0,
            "view_count": 474917,
            "uploader": "Tollywood Box Office",
            "category": "telugu",
            "thumbnail": "https://i.ytimg.com/vi/HCbcXjSRat4/hq720.jpg"
        },
        {
            "id": "pG4_xm-UilM",
            "title": "Venky Telugu Full Movie | Ravi Teja, Sneha, Ashutosh Rana | AR Entertainments",
            "url": "https://www.youtube.com/watch?v=pG4_xm-UilM",
            "duration": 10155.0,
            "view_count": 10567927,
            "uploader": "AR Entertainments Movies",
            "category": "telugu",
            "thumbnail": "https://i.ytimg.com/vi/pG4_xm-UilM/hq720.jpg"
        },
        {
            "id": "wYHs_oEMIWA",
            "title": "Ala Vaikunthapurramuloo Action Drama Telugu HD Film | Allu Arjun | Pooja Hegde @tfcmaacinemalu",
            "url": "https://www.youtube.com/watch?v=wYHs_oEMIWA",
            "duration": 8376.0,
            "view_count": 9905580,
            "uploader": "Maa Cinemalu",
            "category": "telugu",
            "thumbnail": "https://i.ytimg.com/vi/wYHs_oEMIWA/hq720.jpg"
        },
        {
            "id": "a069DahGBqg",
            "title": "TARGET (టార్గెట్) | Ravi Teja, Rajisha Vijayan New Telugu Action Thriller | Full HD Movie",
            "url": "https://www.youtube.com/watch?v=a069DahGBqg",
            "duration": 7581.0,
            "view_count": 549081,
            "uploader": "Andhra Talkies",
            "category": "telugu",
            "thumbnail": "https://i.ytimg.com/vi/a069DahGBqg/hq720.jpg"
        },
        {
            "id": "GBgOsM95RiQ",
            "title": "Sabari Latest Telugu Suspense Thriller Full Movie | Varalaxmi Sarathkumar | 2026 New South Movies",
            "url": "https://www.youtube.com/watch?v=GBgOsM95RiQ",
            "duration": 7606.0,
            "view_count": 1602934,
            "uploader": "SriBalajiMovies and 4 more",
            "category": "telugu",
            "thumbnail": "https://i.ytimg.com/vi/GBgOsM95RiQ/hq720.jpg"
        },
        {
            "id": "y99RZSBoh-w",
            "title": "Maharshi Action Drama Telugu Full Movie | Mahesh Babu | Allari Naresh, Pooja Hegde@southcinemahall",
            "url": "https://www.youtube.com/watch?v=y99RZSBoh-w",
            "duration": 8683.0,
            "view_count": 264813,
            "uploader": "South Cinema Hall and 3 more",
            "category": "telugu",
            "thumbnail": "https://i.ytimg.com/vi/y99RZSBoh-w/hq720.jpg"
        },
        {
            "id": "rfupCVQzQQA",
            "title": "Trauma Telugu Full Movie | Crime Thriller | Vivek Prasanna | Chandini Tamilarasan | Ananth Nag",
            "url": "https://www.youtube.com/watch?v=rfupCVQzQQA",
            "duration": 6584.0,
            "view_count": 484714,
            "uploader": "BhavaniHD Movies",
            "category": "telugu",
            "thumbnail": "https://i.ytimg.com/vi/rfupCVQzQQA/hq720.jpg"
        },
        {
            "id": "n6cvc_vJ-_4",
            "title": "🎬 Kanulu Kanulanu Dochayante Telugu Full Movie | Dulquer Salmaan, Ritu Varma | Thriller Romance 💥",
            "url": "https://www.youtube.com/watch?v=n6cvc_vJ-_4",
            "duration": 8518.0,
            "view_count": 393095,
            "uploader": "Delugu Movies",
            "category": "telugu",
            "thumbnail": "https://i.ytimg.com/vi/n6cvc_vJ-_4/hq720.jpg"
        },
        {
            "id": "uPdXi6xIBlc",
            "title": "Balu ABCDEFG Telugu Full Length Movie || Pawan Kalyan,Shriya Saran",
            "url": "https://www.youtube.com/watch?v=uPdXi6xIBlc",
            "duration": 9676.0,
            "view_count": 9365907,
            "uploader": "Shalimar Telugu & Hindi Movies",
            "category": "telugu",
            "thumbnail": "https://i.ytimg.com/vi/uPdXi6xIBlc/hq720.jpg"
        },
        {
            "id": "XBFkIUfz5VA",
            "title": "Spy Action-Spy Telugu Full HD Film | Nikhil Siddhartha And Iswarya Menon | Abhinav Gomatam",
            "url": "https://www.youtube.com/watch?v=XBFkIUfz5VA",
            "duration": 7081.0,
            "view_count": 118458,
            "uploader": "Maa Cinemalu",
            "category": "telugu",
            "thumbnail": "https://i.ytimg.com/vi/XBFkIUfz5VA/hq720.jpg"
        },
        {
            "id": "n9U4hYytViQ",
            "title": "Nagarjuna And Karthi Super Hit Telugu Comedy Full Length Movie | Tamannaah Bhatia | Icon Videos",
            "url": "https://www.youtube.com/watch?v=n9U4hYytViQ",
            "duration": 7466.0,
            "view_count": 10965472,
            "uploader": "ICON VIDEOS",
            "category": "telugu",
            "thumbnail": "https://i.ytimg.com/vi/n9U4hYytViQ/hq720.jpg"
        },
        {
            "id": "lCX2Hy-Wfy0",
            "title": "Allari Naresh Latest Comedy Movie | Latest New Telugu Movies | Ganesh Videos",
            "url": "https://www.youtube.com/watch?v=lCX2Hy-Wfy0",
            "duration": 8601.0,
            "view_count": 8053669,
            "uploader": "Ganesh Videos",
            "category": "telugu",
            "thumbnail": "https://i.ytimg.com/vi/lCX2Hy-Wfy0/hq720.jpg"
        },
        {
            "id": "FCacbCPeV5c",
            "title": "COUPLE FRIENDLY full movie 2026 (telugu) | Romantic Love Story | Santhosh shoban | Latest new movie ",
            "url": "https://www.youtube.com/watch?v=FCacbCPeV5c",
            "duration": 6116.0,
            "view_count": 15131,
            "uploader": "Z Seriez",
            "category": "telugu",
            "thumbnail": "https://i.ytimg.com/vi/FCacbCPeV5c/hqdefault.jpg"
        },
        {
            "id": "DRoyjBDVYyw",
            "title": "ZERO HOUR (జీరో అవర్) | Chiyaan Vikram New Telugu Dubbed MASS Action PSYCHO Thriller | Full HD Movie",
            "url": "https://www.youtube.com/watch?v=DRoyjBDVYyw",
            "duration": 10616.0,
            "view_count": 848493,
            "uploader": "Andhra Talkies",
            "category": "telugu",
            "thumbnail": "https://i.ytimg.com/vi/DRoyjBDVYyw/hq720.jpg"
        },
        {
            "id": "SWEdcExye3I",
            "title": "Gulebakavali Katha Full Movie Telugu | NTR, Jamuna, Nagarathna | గులేబకావళి కథ.. TeluguOne",
            "url": "https://www.youtube.com/watch?v=SWEdcExye3I",
            "duration": 10013.0,
            "view_count": 0,
            "uploader": "TeluguOne",
            "category": "telugu",
            "thumbnail": "https://i.ytimg.com/vi/SWEdcExye3I/hq720.jpg"
        },
        {
            "id": "lBgef6ZPVog",
            "title": "Bhartha Mahasayulaku Wignyapthi telugu full movie 2026 Reaction &facts | Ravi Teja | Ashika | Dimple",
            "url": "https://www.youtube.com/watch?v=lBgef6ZPVog",
            "duration": 8303.0,
            "view_count": 32604,
            "uploader": "XpTV",
            "category": "telugu",
            "thumbnail": "https://i.ytimg.com/vi/lBgef6ZPVog/hq720.jpg"
        },
        {
            "id": "DGJhzUcpeo8",
            "title": "Leo Full Movie (Telugu) | Vijay | Lokesh Kanagaraj | Anirudh | Telugu Action Movie | Delugu Movies",
            "url": "https://www.youtube.com/watch?v=DGJhzUcpeo8",
            "duration": 8317.0,
            "view_count": 444390,
            "uploader": "Delugu Movies",
            "category": "telugu",
            "thumbnail": "https://i.ytimg.com/vi/DGJhzUcpeo8/hq720.jpg?sqp=-oaymwEcCNAFEJQDSFXyq4qpAw4IARUAAIhCGAFwAcABBg==&rs=AOn4CLAOq5SXGHisAYh1XZkpdPvy0jlzBw",
            "added_date": "2026-04-16T07:31:16.225653Z",
            "source": "youtube"
        },
        {
            "id": "zqgfNNbfTuk",
            "title": "Maska Full Movie Telugu | Ram, Hansika Motwani, Sheela Kaur, Sunil | TeluguOne",
            "url": "https://www.youtube.com/watch?v=zqgfNNbfTuk",
            "duration": 9346.0,
            "view_count": 1293132,
            "uploader": "TeluguOne",
            "category": "telugu",
            "thumbnail": "https://i.ytimg.com/vi/zqgfNNbfTuk/hq720.jpg?sqp=-oaymwEcCNAFEJQDSFXyq4qpAw4IARUAAIhCGAFwAcABBg==&rs=AOn4CLCRjiKBt-oyrST8tMLOY8kybXX0mQ",
            "added_date": "2026-04-16T07:31:17.027063Z",
            "source": "youtube"
        },
        {
            "id": "UUkEGyXn2pI",
            "title": "Chandi Chamundi Full Movie | Kavitha, Vijayalalitha, NuthanPrasad, Jeeva | ETV Cinema",
            "url": "https://www.youtube.com/watch?v=UUkEGyXn2pI",
            "duration": 8240.0,
            "view_count": 4222,
            "uploader": "ETV Cinema",
            "category": "telugu",
            "thumbnail": "https://i.ytimg.com/vi/UUkEGyXn2pI/hq720.jpg"
        },
        {
            "id": "M6RTMGhCGps",
            "title": "Dasavatharam (2008) Telugu Full Movie | Kamal Haasan in 10 Roles | Action Thriller | HD Cinema",
            "url": "https://www.youtube.com/watch?v=M6RTMGhCGps",
            "duration": 10527.0,
            "view_count": 630008,
            "uploader": "Delugu Movies",
            "category": "telugu",
            "thumbnail": "https://i.ytimg.com/vi/M6RTMGhCGps/hq720.jpg"
        },
        {
            "id": "ARDKlNep8r0",
            "title": "Varaprasad Ku Vadhuvu Kavalenu Full Movie || Telugu Full Movies || Jdv Prasad || Aiswarya || Soniya",
            "url": "https://www.youtube.com/watch?v=ARDKlNep8r0",
            "duration": 7371.0,
            "view_count": 28184,
            "uploader": "JDV Prasad ",
            "category": "telugu",
            "thumbnail": "https://i.ytimg.com/vi/ARDKlNep8r0/hq720.jpg"
        },
        {
            "id": "NQ8RteRUTJU",
            "title": "3 Telugu Full Movie 4K | Dhanush | Shruti Haasan | Siva Karthikeyan | Anirudh | Telugu New Movies",
            "url": "https://www.youtube.com/watch?v=NQ8RteRUTJU",
            "duration": 8861.0,
            "view_count": 4840511,
            "uploader": "Telugu Filmnagar",
            "category": "telugu",
            "thumbnail": "https://i.ytimg.com/vi/NQ8RteRUTJU/hq720.jpg"
        },
        {
            "id": "hyViXFdl5lY",
            "title": "Vikram Telugu Full Movie | Kamal Haasan | Vijay Sethupathi | Fahadh Faasil | LCU | Delugu Cinemas",
            "url": "https://www.youtube.com/watch?v=hyViXFdl5lY",
            "duration": 10260.0,
            "view_count": 473141,
            "uploader": "Delugu Movies",
            "category": "telugu",
            "thumbnail": "https://i.ytimg.com/vi/hyViXFdl5lY/hq720.jpg"
        },
        {
            "id": "PfJ8a58lWGc",
            "title": "SHADOW (షాడో) | Ajay, Vamsi & Swathi New Telugu Action Rivalry Drama | Full HD Movie",
            "url": "https://www.youtube.com/watch?v=PfJ8a58lWGc",
            "duration": 6089.0,
            "view_count": 16099,
            "uploader": "Andhra Talkies",
            "category": "telugu",
            "thumbnail": "https://i.ytimg.com/vi/PfJ8a58lWGc/hq720.jpg"
        },
        {
            "id": "qMeUSzc5C80",
            "title": "Varun Doctor (Telugu) Full Movie | Sivakarthikeyan | Anirudh Blockbuster Hit Action Thriller Movie",
            "url": "https://www.youtube.com/watch?v=qMeUSzc5C80",
            "duration": 9013.0,
            "view_count": 576966,
            "uploader": "Delugu Movies",
            "category": "telugu",
            "thumbnail": "https://i.ytimg.com/vi/qMeUSzc5C80/hq720.jpg"
        },
        {
            "id": "FTzgHa3Dz4M",
            "title": "Watch Maruthi Nagar Subramanyam Telugu Full Length Comedy Movie | Rao Ramesh | Anjana Productions |",
            "url": "https://www.youtube.com/watch?v=FTzgHa3Dz4M",
            "duration": 8607.0,
            "view_count": 255824,
            "uploader": "Anjana Productions",
            "category": "telugu",
            "thumbnail": "https://i.ytimg.com/vi/FTzgHa3Dz4M/hq720.jpg"
        },
        {
            "id": "ZKbydYg8R-E",
            "title": "Mahesh Babu's Brahmotsavam Telugu Full Movie | Samantha | Kajal Aggarwal | Pranitha | PVP Cinema",
            "url": "https://www.youtube.com/watch?v=ZKbydYg8R-E",
            "duration": 9239.0,
            "view_count": 48439264,
            "uploader": "PVP Cinema",
            "category": "telugu",
            "thumbnail": "https://i.ytimg.com/vi/ZKbydYg8R-E/hq720.jpg"
        },
        {
            "id": "6k0pvfZ0wuY",
            "title": "Dasara Superhit Telugu Action Full Length HD Movie | Nani | Keerthy Suresh | Tollywood Box Office |",
            "url": "https://www.youtube.com/watch?v=6k0pvfZ0wuY",
            "duration": 8059.0,
            "view_count": 3308100,
            "uploader": "Tollywood Box Office",
            "category": "telugu",
            "thumbnail": "https://i.ytimg.com/vi/6k0pvfZ0wuY/hq720.jpg"
        },
        {
            "id": "DK5ZHbgF2VE",
            "title": "Bellamkonda Sai Sreenivas Full HD Fantasy/Action Movie || Pooja Hegde || @JordaarMovies ​",
            "url": "https://www.youtube.com/watch?v=DK5ZHbgF2VE",
            "duration": 7933.0,
            "view_count": 164669,
            "uploader": "Jordaar Movies",
            "category": "telugu",
            "thumbnail": "https://i.ytimg.com/vi/DK5ZHbgF2VE/hq720.jpg"
        },
        {
            "id": "RXB7cxcZU2w",
            "title": "HATE (హేట్) | Subbu Mudhunuri, Seelam Srivalli New Telugu Action Drama | Full HD Movie",
            "url": "https://www.youtube.com/watch?v=RXB7cxcZU2w",
            "duration": 7684.0,
            "view_count": 15373,
            "uploader": "Andhra Talkies",
            "category": "telugu",
            "thumbnail": "https://i.ytimg.com/vi/RXB7cxcZU2w/hq720.jpg"
        },
        {
            "id": "pKUGLAAsILE",
            "title": "Yakshini \" The Villa \" Full movie HDR | Bharrathaneynenu | Thriller Film | 2026",
            "url": "https://www.youtube.com/watch?v=pKUGLAAsILE",
            "duration": 4061.0,
            "view_count": 7665,
            "uploader": "Bharrath Aney Nenu",
            "category": "telugu",
            "thumbnail": "https://i.ytimg.com/vi/pKUGLAAsILE/hq720.jpg"
        },
        {
            "id": "1VzFwLos1DE",
            "title": "Kathanayika Molla Telugu Full Movie | Padmanabham | Vanisri | Harinath | Gummadi | Sobhan Babu",
            "url": "https://www.youtube.com/watch?v=1VzFwLos1DE",
            "duration": 7998.0,
            "view_count": 1873,
            "uploader": "Telugu Movie Center",
            "category": "telugu",
            "thumbnail": "https://i.ytimg.com/vi/1VzFwLos1DE/hq720.jpg"
        },
        {
            "id": "xIQ-wtbxDfQ",
            "title": "Pushpaka Vimanam Telugu Full Length Movie | Anand Deverakonda Thriller/Suspense Movie | Matinee Show",
            "url": "https://www.youtube.com/watch?v=xIQ-wtbxDfQ",
            "duration": 7276.0,
            "view_count": 188149,
            "uploader": "Matinee Show",
            "category": "telugu",
            "thumbnail": "https://i.ytimg.com/vi/xIQ-wtbxDfQ/hq720.jpg"
        },
        {
            "id": "l_wA5a4mc-0",
            "title": "Dhurandhar telugu full movie 2026 | Ranveer Singh,Akshaye | Best Story Breakdown and Detailed Review",
            "url": "https://www.youtube.com/watch?v=l_wA5a4mc-0",
            "duration": 12056.0,
            "view_count": 19516,
            "uploader": "C Max",
            "category": "telugu",
            "thumbnail": "https://i.ytimg.com/vi/l_wA5a4mc-0/hq720.jpg"
        },
        {
            "id": "-v1STwpvDZQ",
            "title": "Dookudu Telugu Full Movie - Mahesh Babu, Samantha, Prakash Raj, Brahmanandam - Srinu Vaitla",
            "url": "https://www.youtube.com/watch?v=-v1STwpvDZQ",
            "duration": 10484.0,
            "view_count": 13979663,
            "uploader": "14reels",
            "category": "telugu",
            "thumbnail": "https://i.ytimg.com/vi/-v1STwpvDZQ/hq720.jpg"
        }
    ]
}