{
    "page": 6,
    "total_pages": 6,
    "total_items": 255,
    "items": [
        {
            "id": "Q0n2W7sy-qw",
            "title": "బాంబ్ | 4K FULL MOVIE  | BOMB 4K FULL MOVIE TELUGU | Arjun Das|  Shivathmika | Kaali Venkat | Nassar",
            "url": "https://www.youtube.com/watch?v=Q0n2W7sy-qw",
            "duration": 7857.0,
            "view_count": 34811,
            "uploader": "API Indian Movie Hub",
            "category": "telugu",
            "thumbnail": "https://i.ytimg.com/vi/Q0n2W7sy-qw/hq720.jpg"
        },
        {
            "id": "S72jxRKRYAw",
            "title": "Jakkanna Telugu Full Movie 4K | Sunil | Mannara Chopra | Sapthagiri | Telugu New Movies | TFN",
            "url": "https://www.youtube.com/watch?v=S72jxRKRYAw",
            "duration": 8195.0,
            "view_count": 2724252,
            "uploader": "Telugu Filmnagar",
            "category": "telugu",
            "thumbnail": "https://i.ytimg.com/vi/S72jxRKRYAw/hq720.jpg"
        },
        {
            "id": "6BpDlDhX3go",
            "title": "Race Gurram Telugu Full Movie 4K | Allu Arjun | Shruti Hassan | Brahmanandam | Mango Telugu Cinema",
            "url": "https://www.youtube.com/watch?v=6BpDlDhX3go",
            "duration": 9719.0,
            "view_count": 2468002,
            "uploader": "Mango Telugu Cinema",
            "category": "telugu",
            "thumbnail": "https://i.ytimg.com/vi/6BpDlDhX3go/hq720.jpg"
        },
        {
            "id": "ea6XMV6ET4U",
            "title": "Psychological Thriller Telugu Full Movie | Kali | Prince Cecil | Naresh Agastya | Neha Krishnan",
            "url": "https://www.youtube.com/watch?v=ea6XMV6ET4U",
            "duration": 5231.0,
            "view_count": 819700,
            "uploader": "BhavaniHD Movies",
            "category": "telugu",
            "thumbnail": "https://i.ytimg.com/vi/ea6XMV6ET4U/hq720.jpg"
        },
        {
            "id": "T_B8WkaLf-w",
            "title": "Naga Chaitanya, Krithi Shetty & Nagarjuna Telugu Super Hit Full Movie | Telugu Movies | Kotha Cinema",
            "url": "https://www.youtube.com/watch?v=T_B8WkaLf-w",
            "duration": 7085.0,
            "view_count": 7329437,
            "uploader": "Kotha Cinema",
            "category": "telugu",
            "thumbnail": "https://i.ytimg.com/vi/T_B8WkaLf-w/hq720.jpg"
        }
    ]
}