{
    "page": 1,
    "total_pages": 3,
    "total_items": 120,
    "items": [
        {
            "id": "D3_T4Yks7Ns",
            "title": "Yam Hain Hum - याम हैं हम - Episode 1 - 15th December 2014",
            "url": "https://www.youtube.com/watch?v=D3_T4Yks7Ns",
            "duration": 1327.0,
            "view_count": 2900677,
            "uploader": "Sony SAB",
            "category": "yam_hain_hum",
            "thumbnail": "https://i.ytimg.com/vi/D3_T4Yks7Ns/hqdefault.jpg?sqp=-oaymwEcCOADEI4CSFXyq4qpAw4IARUAAIhCGAFwAcABBg==&rs=AOn4CLA4i2dXZwZvQYQOhFrQ1LJZY4qShQ",
            "added_date": "2026-04-16T07:31:45.913666Z",
            "source": "youtube"
        },
        {
            "id": "Dq3ziLcBao4",
            "title": "पृथ्वी लोक पर आकर यमराज बने बावर्ची | यम है हम | Yam Hain Ham | Episode 18",
            "url": "https://www.youtube.com/watch?v=Dq3ziLcBao4",
            "duration": 1152.0,
            "view_count": 114586,
            "uploader": "भोला भंडारी",
            "category": "yam_hain_hum",
            "thumbnail": "https://i.ytimg.com/vi/Dq3ziLcBao4/hq720.jpg"
        },
        {
            "id": "WBBgMxCjy0s",
            "title": "यमराज जी ने Cylinder के अंदर की Gas क्यों निकाल ली ? | Yam hain Hum | यम है हम | Latest Episode",
            "url": "https://www.youtube.com/watch?v=WBBgMxCjy0s",
            "duration": 2330.0,
            "view_count": 132138,
            "uploader": "Classic TV Serials",
            "category": "yam_hain_hum",
            "thumbnail": "https://i.ytimg.com/vi/WBBgMxCjy0s/hq720.jpg"
        },
        {
            "id": "xIBXMEsyb1Y",
            "title": "बब्लू ने लिया यमराज का गदा उठाने का चैलेंज | Yam Hain Hum | यम हैं हम | Full Episode 17",
            "url": "https://www.youtube.com/watch?v=xIBXMEsyb1Y",
            "duration": 1210.0,
            "view_count": 977823,
            "uploader": "Indian Drama",
            "category": "yam_hain_hum",
            "thumbnail": "https://i.ytimg.com/vi/xIBXMEsyb1Y/hq720.jpg?sqp=-oaymwEcCNAFEJQDSFXyq4qpAw4IARUAAIhCGAFwAcABBg==&rs=AOn4CLC2mCp14k4lBJ3bSuRFzQfWD0v8Kw",
            "added_date": "2026-04-16T07:31:46.915429Z",
            "source": "youtube"
        },
        {
            "id": "luHqHAciBEw",
            "title": "सड़क पर छोले भटूरे देखकर चित्रगुप्त के मुँह में आ गया पानी | यम हैं हम | Yam Hain Ham | Episode 262",
            "url": "https://www.youtube.com/watch?v=luHqHAciBEw",
            "duration": 1219.0,
            "view_count": 669285,
            "uploader": "भोला भंडारी",
            "category": "yam_hain_hum",
            "thumbnail": "https://i.ytimg.com/vi/luHqHAciBEw/hq720.jpg"
        },
        {
            "id": "9CNhT43WsXE",
            "title": "चोरों की बेहोशी की दवाई को पानी की तरह पी गए यमराज | यम है हम | Yam Hain Ham | Episode 5",
            "url": "https://www.youtube.com/watch?v=9CNhT43WsXE",
            "duration": 1220.0,
            "view_count": 595001,
            "uploader": "भोला भंडारी",
            "category": "yam_hain_hum",
            "thumbnail": "https://i.ytimg.com/vi/9CNhT43WsXE/hq720.jpg"
        },
        {
            "id": "XE3dHkr0zEo",
            "title": "What did Yamraj come to buy at the electronics shop? | Yam Hai Hum | Yam Hain Ham | Episode 76",
            "url": "https://www.youtube.com/watch?v=XE3dHkr0zEo",
            "duration": 1214.0,
            "view_count": 71159,
            "uploader": "भोला भंडारी",
            "category": "yam_hain_hum",
            "thumbnail": "https://i.ytimg.com/vi/XE3dHkr0zEo/hq720.jpg"
        },
        {
            "id": "C_v05M1W0v8",
            "title": "यम है हम हम है यम | वेंकटेश कादर खान असरानी रवीना टंडन की सुपरहिट कॉमेडी फिल्म | TAQDEERWALA (1995)",
            "url": "https://www.youtube.com/watch?v=C_v05M1W0v8",
            "duration": 9115.0,
            "view_count": 90789,
            "uploader": "Deewana Films",
            "category": "yam_hain_hum",
            "thumbnail": "https://i.ytimg.com/vi/C_v05M1W0v8/hq720.jpg?sqp=-oaymwEcCNAFEJQDSFXyq4qpAw4IARUAAIhCGAFwAcABBg==&rs=AOn4CLAdMvYwBOipw4C7qNuCdDARBb0UCQ",
            "added_date": "2026-04-16T07:31:45.713339Z",
            "source": "youtube"
        },
        {
            "id": "WJsW9DFVjBc",
            "title": "यमराज के साथ पहली बार किसी इंसान ने देखी यमलोक की सैर | Yam Hain Hum | Best Comedy | New Episode",
            "url": "https://www.youtube.com/watch?v=WJsW9DFVjBc",
            "duration": 3465.0,
            "view_count": 87044,
            "uploader": "Desi Drama",
            "category": "yam_hain_hum",
            "thumbnail": "https://i.ytimg.com/vi/WJsW9DFVjBc/hq720.jpg"
        },
        {
            "id": "p4zD2GEZF7k",
            "title": "Yam Hain Hum - यम हैं हम - Episode 18 - 28th September, 2017",
            "url": "https://www.youtube.com/watch?v=p4zD2GEZF7k",
            "duration": 1297.0,
            "view_count": 400920,
            "uploader": "Sony PAL",
            "category": "yam_hain_hum",
            "thumbnail": "https://i.ytimg.com/vi/p4zD2GEZF7k/hq720.jpg"
        },
        {
            "id": "INXAOEUONYQ",
            "title": "Yam Hain Hum - यम हैं हम - Episode 17 - 28th September, 2017",
            "url": "https://www.youtube.com/watch?v=INXAOEUONYQ",
            "duration": 1299.0,
            "view_count": 332814,
            "uploader": "Sony PAL",
            "category": "yam_hain_hum",
            "thumbnail": "https://i.ytimg.com/vi/INXAOEUONYQ/hq720.jpg"
        },
        {
            "id": "6dPMLuJBfM4",
            "title": "Yamraj and Chitragupta set out to sell Bablu Papa on the road. We are Yam. Episode 276",
            "url": "https://www.youtube.com/watch?v=6dPMLuJBfM4",
            "duration": 1166.0,
            "view_count": 306065,
            "uploader": "भोला भंडारी",
            "category": "yam_hain_hum",
            "thumbnail": "https://i.ytimg.com/vi/6dPMLuJBfM4/hq720.jpg?sqp=-oaymwEcCNAFEJQDSFXyq4qpAw4IARUAAIhCGAFwAcABBg==&rs=AOn4CLDTK6-Bl8WFiDJhvC8MNBk97N-lxg",
            "added_date": "2026-04-16T07:31:46.314323Z",
            "source": "youtube"
        },
        {
            "id": "F_vNWbVXY94",
            "title": "Yam Hain Hum - यम हैं हम - Episode 76 - 8th November, 2017",
            "url": "https://www.youtube.com/watch?v=F_vNWbVXY94",
            "duration": 1262.0,
            "view_count": 453958,
            "uploader": "Sony PAL",
            "category": "yam_hain_hum",
            "thumbnail": "https://i.ytimg.com/vi/F_vNWbVXY94/hq720.jpg"
        },
        {
            "id": "Vhf3xG9QsuY",
            "title": "जब Yamraj और Chitragupt ने पहिली बार बनाया खाना  | Yam Hai Ham | Full Episode HD | Episode 45",
            "url": "https://www.youtube.com/watch?v=Vhf3xG9QsuY",
            "duration": 1236.0,
            "view_count": 276562,
            "uploader": "Classic TV Serials",
            "category": "yam_hain_hum",
            "thumbnail": "https://i.ytimg.com/vi/Vhf3xG9QsuY/hq720.jpg?sqp=-oaymwEcCNAFEJQDSFXyq4qpAw4IARUAAIhCGAFwAcABBg==&rs=AOn4CLAguC3zC9PgwK9UpKLPVGVHhWUlCQ",
            "added_date": "2026-04-16T07:31:46.113995Z",
            "source": "youtube"
        },
        {
            "id": "xtiXgj7IaJU",
            "title": "जब गार्ड ने पकड़ लिया यमराज को कपल पार्क में क्या करते हुए | यम है हम | Yam Hain Ham | Episode 233",
            "url": "https://www.youtube.com/watch?v=xtiXgj7IaJU",
            "duration": 1192.0,
            "view_count": 268684,
            "uploader": "भोला भंडारी",
            "category": "yam_hain_hum",
            "thumbnail": "https://i.ytimg.com/vi/xtiXgj7IaJU/hq720.jpg"
        },
        {
            "id": "nodGMP2Ayp4",
            "title": "यमराज ने खोला चाइनीस खाना बेचने का काम | यम है हम | Yam Hain Ham | Episode 218",
            "url": "https://www.youtube.com/watch?v=nodGMP2Ayp4",
            "duration": 1218.0,
            "view_count": 223106,
            "uploader": "भोला भंडारी",
            "category": "yam_hain_hum",
            "thumbnail": "https://i.ytimg.com/vi/nodGMP2Ayp4/hq720.jpg"
        },
        {
            "id": "P1hjlUqODw4",
            "title": "बिंदिया को दिया साक्षात् नारदमुनि ने दर्शन  | Yam Hain Hum | यम हैं हम | Full Episode 53",
            "url": "https://www.youtube.com/watch?v=P1hjlUqODw4",
            "duration": 1180.0,
            "view_count": 315126,
            "uploader": "Desi Drama",
            "category": "yam_hain_hum",
            "thumbnail": "https://i.ytimg.com/vi/P1hjlUqODw4/hqdefault.jpg"
        },
        {
            "id": "DTJSzzEgMNo",
            "title": "यमराज ने रोक दी एक हाथ से गाड़ी | यम है हम | Yam Hain Ham | Episode 106",
            "url": "https://www.youtube.com/watch?v=DTJSzzEgMNo",
            "duration": 1150.0,
            "view_count": 1017001,
            "uploader": "भोला भंडारी",
            "category": "yam_hain_hum",
            "thumbnail": "https://i.ytimg.com/vi/DTJSzzEgMNo/hq720.jpg"
        },
        {
            "id": "tXvy-ZgPQso",
            "title": "यमराज जी ने पृथ्वीलोक पर जब गिरवी रखा अपना बेष कीमती मुकुट ! | यम हैं हम | Yam Hain Hum",
            "url": "https://www.youtube.com/watch?v=tXvy-ZgPQso",
            "duration": 3267.0,
            "view_count": 1539971,
            "uploader": "यमराज धरती पर",
            "category": "yam_hain_hum",
            "thumbnail": "https://i.ytimg.com/vi/tXvy-ZgPQso/hq720.jpg?sqp=-oaymwEcCNAFEJQDSFXyq4qpAw4IARUAAIhCGAFwAcABBg==&rs=AOn4CLAofuFKyI122yzJAo44j-sfzYfUVA",
            "added_date": "2026-04-16T07:31:47.316137Z",
            "source": "youtube"
        },
        {
            "id": "EmDQXH1wxdg",
            "title": "Yam Hain Hum - यम हैं हम - Episode 218 - 15th October, 2015",
            "url": "https://www.youtube.com/watch?v=EmDQXH1wxdg",
            "duration": 1232.0,
            "view_count": 414343,
            "uploader": "Sony SAB",
            "category": "yam_hain_hum",
            "thumbnail": "https://i.ytimg.com/vi/EmDQXH1wxdg/hqdefault.jpg"
        },
        {
            "id": "8aye0fqs02M",
            "title": "Yam Hain Hum - यम हैं हम - Episode 17 - 6th January 2015",
            "url": "https://www.youtube.com/watch?v=8aye0fqs02M",
            "duration": 1231.0,
            "view_count": 651594,
            "uploader": "Sony SAB",
            "category": "yam_hain_hum",
            "thumbnail": "https://i.ytimg.com/vi/8aye0fqs02M/hqdefault.jpg?sqp=-oaymwEcCOADEI4CSFXyq4qpAw4IARUAAIhCGAFwAcABBg==&rs=AOn4CLB0fyj9mLOqjB3kFbcujvLmNppjZw",
            "added_date": "2026-04-16T07:31:48.318005Z",
            "source": "youtube"
        },
        {
            "id": "tlzLVycR_FU",
            "title": "मरने के बाद बलदेव आया जब यमलोक में यमराज के पास | यम हैं हम | Yam Hain Ham | Episode 280",
            "url": "https://www.youtube.com/watch?v=tlzLVycR_FU",
            "duration": 1181.0,
            "view_count": 1389398,
            "uploader": "भोला भंडारी",
            "category": "yam_hain_hum",
            "thumbnail": "https://i.ytimg.com/vi/tlzLVycR_FU/hq720.jpg?sqp=-oaymwEcCNAFEJQDSFXyq4qpAw4IARUAAIhCGAFwAcABBg==&rs=AOn4CLBID92d8ObjpL-EqfxaBO88Gfofug",
            "added_date": "2026-04-16T07:31:48.518389Z",
            "source": "youtube"
        },
        {
            "id": "ovlLZ1aujFY",
            "title": "यमराज ने क्यों बनाया सारी महिलाओं को भूत | यम है हम | Yam Hain Ham | Episode 140",
            "url": "https://www.youtube.com/watch?v=ovlLZ1aujFY",
            "duration": 1218.0,
            "view_count": 142010,
            "uploader": "भोला भंडारी",
            "category": "yam_hain_hum",
            "thumbnail": "https://i.ytimg.com/vi/ovlLZ1aujFY/hq720.jpg"
        },
        {
            "id": "5uhumudt_D4",
            "title": "Yam Hain Hum - यम हैं हम -  Episode 62 - 30th October, 2017",
            "url": "https://www.youtube.com/watch?v=5uhumudt_D4",
            "duration": 1142.0,
            "view_count": 326442,
            "uploader": "Sony PAL",
            "category": "yam_hain_hum",
            "thumbnail": "https://i.ytimg.com/vi/5uhumudt_D4/hq720.jpg"
        },
        {
            "id": "lS-dcSwHA7I",
            "title": "Yam Hain Hum - यम हैं हम - Episode 124 - 12th December, 2017",
            "url": "https://www.youtube.com/watch?v=lS-dcSwHA7I",
            "duration": 1229.0,
            "view_count": 341237,
            "uploader": "Sony PAL",
            "category": "yam_hain_hum",
            "thumbnail": "https://i.ytimg.com/vi/lS-dcSwHA7I/hq720.jpg"
        },
        {
            "id": "YQc5oIysggA",
            "title": "Yam Hain Hum - याम हैं हम - Episode 5 - 19th December 2014",
            "url": "https://www.youtube.com/watch?v=YQc5oIysggA",
            "duration": 1235.0,
            "view_count": 1600056,
            "uploader": "Sony SAB",
            "category": "yam_hain_hum",
            "thumbnail": "https://i.ytimg.com/vi/YQc5oIysggA/hqdefault.jpg"
        },
        {
            "id": "eMjGzfaZN6E",
            "title": "Why did Chitragupta sit on the ground? We are Yama. Episode 101",
            "url": "https://www.youtube.com/watch?v=eMjGzfaZN6E",
            "duration": 1214.0,
            "view_count": 3278979,
            "uploader": "भोला भंडारी",
            "category": "yam_hain_hum",
            "thumbnail": "https://i.ytimg.com/vi/eMjGzfaZN6E/hq720.jpg"
        },
        {
            "id": "sZTFeqlmi1g",
            "title": "क्या यम अपने महिस की शादी रोक पाएग ? | Yam Hain Hum | New Full Episode 56",
            "url": "https://www.youtube.com/watch?v=sZTFeqlmi1g",
            "duration": 1144.0,
            "view_count": 140,
            "uploader": "Show Buzz India",
            "category": "yam_hain_hum",
            "thumbnail": "https://i.ytimg.com/vi/sZTFeqlmi1g/hq720.jpg"
        },
        {
            "id": "kdSHSIdU_DE",
            "title": "बर्फ की सिल्ली पर लिटाकर पुलिस ने दी यमराज को सजा | यम है हम | Yam Hain Ham | Episode 2",
            "url": "https://www.youtube.com/watch?v=kdSHSIdU_DE",
            "duration": 1206.0,
            "view_count": 6641065,
            "uploader": "भोला भंडारी",
            "category": "yam_hain_hum",
            "thumbnail": "https://i.ytimg.com/vi/kdSHSIdU_DE/hq720.jpg?sqp=-oaymwEcCNAFEJQDSFXyq4qpAw4IARUAAIhCGAFwAcABBg==&rs=AOn4CLBeuBRmR0Yaold-oNQ3RoJejWmstA",
            "added_date": "2026-04-16T07:31:46.514673Z",
            "source": "youtube"
        },
        {
            "id": "uDkpQTckTdg",
            "title": "Yam Hain Hum -  यम हैं हम -  Episode 53 - 24th October, 2017",
            "url": "https://www.youtube.com/watch?v=uDkpQTckTdg",
            "duration": 1248.0,
            "view_count": 302590,
            "uploader": "Sony PAL",
            "category": "yam_hain_hum",
            "thumbnail": "https://i.ytimg.com/vi/uDkpQTckTdg/hq720.jpg"
        },
        {
            "id": "UGMngdRbqAg",
            "title": "Yam Hain Hum - याम हैं हम - Episode 8 - 24th December 2014",
            "url": "https://www.youtube.com/watch?v=UGMngdRbqAg",
            "duration": 1192.0,
            "view_count": 1031298,
            "uploader": "Sony SAB",
            "category": "yam_hain_hum",
            "thumbnail": "https://i.ytimg.com/vi/UGMngdRbqAg/hqdefault.jpg"
        },
        {
            "id": "6cPHXaO1cN0",
            "title": "Yam Hain Hum - Full Episode 150 - 29th December, 2017",
            "url": "https://www.youtube.com/watch?v=6cPHXaO1cN0",
            "duration": 1185.0,
            "view_count": 161609,
            "uploader": "Sony PAL",
            "category": "yam_hain_hum",
            "thumbnail": "https://i.ytimg.com/vi/6cPHXaO1cN0/hq720.jpg"
        },
        {
            "id": "Op3bnnuNuPw",
            "title": "यमराज जी ने बचायी कॉलेज के स्टूडेंट्स की जान ! | यम हैं हम | Yam Hain Hum",
            "url": "https://www.youtube.com/watch?v=Op3bnnuNuPw",
            "duration": 3188.0,
            "view_count": 245236,
            "uploader": "यमराज धरती पर",
            "category": "yam_hain_hum",
            "thumbnail": "https://i.ytimg.com/vi/Op3bnnuNuPw/hq720.jpg"
        },
        {
            "id": "F__-uak_zRw",
            "title": "Yam Hain Hum - Full Episode 133 - 19th December, 2017",
            "url": "https://www.youtube.com/watch?v=F__-uak_zRw",
            "duration": 1232.0,
            "view_count": 211183,
            "uploader": "Sony PAL",
            "category": "yam_hain_hum",
            "thumbnail": "https://i.ytimg.com/vi/F__-uak_zRw/hq720.jpg"
        },
        {
            "id": "4UNobwTtCkg",
            "title": "Yam Hai Hum (Full Movie) | Raveena Tandon Venkatesh Kadar Khan | Bollywood Comedy Movies",
            "url": "https://www.youtube.com/watch?v=4UNobwTtCkg",
            "duration": 9713.0,
            "view_count": 351830,
            "uploader": "Masaledaar Movies",
            "category": "yam_hain_hum",
            "thumbnail": "https://i.ytimg.com/vi/4UNobwTtCkg/hq720.jpg"
        },
        {
            "id": "mNaSmgq6FsQ",
            "title": "Yam Hain Hum - यम हैं हम - Episode 280 - 12th January, 2016",
            "url": "https://www.youtube.com/watch?v=mNaSmgq6FsQ",
            "duration": 1196.0,
            "view_count": 1653766,
            "uploader": "Sony SAB",
            "category": "yam_hain_hum",
            "thumbnail": "https://i.ytimg.com/vi/mNaSmgq6FsQ/hqdefault.jpg?sqp=-oaymwEcCOADEI4CSFXyq4qpAw4IARUAAIhCGAFwAcABBg==&rs=AOn4CLAYhJc6an1ZZrnh3c2EDF63RCkZrw",
            "added_date": "2026-04-16T07:31:47.115803Z",
            "source": "youtube"
        },
        {
            "id": "0NEIuatCUIM",
            "title": "Yam Hain Hum - यम हैं हम - Episode 45 - 13th February 2015",
            "url": "https://www.youtube.com/watch?v=0NEIuatCUIM",
            "duration": 1253.0,
            "view_count": 411002,
            "uploader": "Sony SAB",
            "category": "yam_hain_hum",
            "thumbnail": "https://i.ytimg.com/vi/0NEIuatCUIM/hqdefault.jpg?sqp=-oaymwEcCOADEI4CSFXyq4qpAw4IARUAAIhCGAFwAcABBg==&rs=AOn4CLAavjR424b1QhoEt5SImqi0DWw0oA",
            "added_date": "2026-04-16T07:31:47.516495Z",
            "source": "youtube"
        },
        {
            "id": "HNfmuQWJgrU",
            "title": "Yam Hain Hum - यम हैं हम - Episode 28 - 5th October, 2017",
            "url": "https://www.youtube.com/watch?v=HNfmuQWJgrU",
            "duration": 1256.0,
            "view_count": 362685,
            "uploader": "Sony PAL",
            "category": "yam_hain_hum",
            "thumbnail": "https://i.ytimg.com/vi/HNfmuQWJgrU/hq720.jpg"
        },
        {
            "id": "LinFSDJwSCs",
            "title": "Yam Hain Hum - याम हैं हम - Episode 4 - 18th December 2014",
            "url": "https://www.youtube.com/watch?v=LinFSDJwSCs",
            "duration": 1256.0,
            "view_count": 1778108,
            "uploader": "Sony SAB",
            "category": "yam_hain_hum",
            "thumbnail": "https://i.ytimg.com/vi/LinFSDJwSCs/hqdefault.jpg"
        },
        {
            "id": "VCMh6PHV0io",
            "title": "Yam Hain Hum - याम हैं हम - Episode 11 - 29th December 2014",
            "url": "https://www.youtube.com/watch?v=VCMh6PHV0io",
            "duration": 1242.0,
            "view_count": 1079534,
            "uploader": "Sony SAB",
            "category": "yam_hain_hum",
            "thumbnail": "https://i.ytimg.com/vi/VCMh6PHV0io/hqdefault.jpg"
        },
        {
            "id": "OmDZefDjxOA",
            "title": "Yam Hain Hum - याम हैं हम - Episode 12 - 30th December 2014",
            "url": "https://www.youtube.com/watch?v=OmDZefDjxOA",
            "duration": 1207.0,
            "view_count": 1043279,
            "uploader": "Sony SAB",
            "category": "yam_hain_hum",
            "thumbnail": "https://i.ytimg.com/vi/OmDZefDjxOA/hqdefault.jpg"
        },
        {
            "id": "AvOUOnfpmR0",
            "title": "हम है यम, यम है हम | Best of Comedy Scenes | Movie TAQDEERWALA | Kader Khan - Asrani",
            "url": "https://www.youtube.com/watch?v=AvOUOnfpmR0",
            "duration": 757.0,
            "view_count": 352456,
            "uploader": "Shemaroo Comedy",
            "category": "yam_hain_hum",
            "thumbnail": "https://i.ytimg.com/vi/AvOUOnfpmR0/hq720.jpg"
        },
        {
            "id": "Aaj2J8tqmcM",
            "title": "Yam Hain Hum - यम हैं हम - Episode 101 - 4th May 2015",
            "url": "https://www.youtube.com/watch?v=Aaj2J8tqmcM",
            "duration": 1230.0,
            "view_count": 8656686,
            "uploader": "Sony SAB",
            "category": "yam_hain_hum",
            "thumbnail": "https://i.ytimg.com/vi/Aaj2J8tqmcM/hqdefault.jpg"
        },
        {
            "id": "fglsRwFZuGk",
            "title": "बलदेव लेकर आया जब घर में नयी गाड़ी | यम है हम | Yam Hain Ham | Episode 209",
            "url": "https://www.youtube.com/watch?v=fglsRwFZuGk",
            "duration": 1168.0,
            "view_count": 350618,
            "uploader": "भोला भंडारी",
            "category": "yam_hain_hum",
            "thumbnail": "https://i.ytimg.com/vi/fglsRwFZuGk/hq720.jpg"
        },
        {
            "id": "RmX-Ll_0ncU",
            "title": "Yamraaj जी ने सिखाया अनिल को अच्छा सबक | Yam Hain Hum | यम है हम | Full Episode 85",
            "url": "https://www.youtube.com/watch?v=RmX-Ll_0ncU",
            "duration": 1074.0,
            "view_count": 1194079,
            "uploader": "Desi Drama",
            "category": "yam_hain_hum",
            "thumbnail": "https://i.ytimg.com/vi/RmX-Ll_0ncU/hq720.jpg"
        },
        {
            "id": "C0_3oUKS_cU",
            "title": "Yam Hain Hum - यम हैं हम  - Episode 63 -  31th October, 2017",
            "url": "https://www.youtube.com/watch?v=C0_3oUKS_cU",
            "duration": 1218.0,
            "view_count": 286588,
            "uploader": "Sony PAL",
            "category": "yam_hain_hum",
            "thumbnail": "https://i.ytimg.com/vi/C0_3oUKS_cU/hq720.jpg"
        },
        {
            "id": "ODpXgoPVyJY",
            "title": "Yam Hain Hum - यम हैं हम - Episode 63 - 11th March 2015",
            "url": "https://www.youtube.com/watch?v=ODpXgoPVyJY",
            "duration": 1197.0,
            "view_count": 316260,
            "uploader": "Sony SAB",
            "category": "yam_hain_hum",
            "thumbnail": "https://i.ytimg.com/vi/ODpXgoPVyJY/hqdefault.jpg"
        },
        {
            "id": "j-XC2EjUYdo",
            "title": "Yam Hain Hum - Full Episode 144 - 26th December, 2017",
            "url": "https://www.youtube.com/watch?v=j-XC2EjUYdo",
            "duration": 1225.0,
            "view_count": 118197,
            "uploader": "Sony PAL",
            "category": "yam_hain_hum",
            "thumbnail": "https://i.ytimg.com/vi/j-XC2EjUYdo/hq720.jpg"
        },
        {
            "id": "ANi8pQu04pM",
            "title": "Yam Hain Hum - यम हैं हम - Episode 81 - 13th November, 2017",
            "url": "https://www.youtube.com/watch?v=ANi8pQu04pM",
            "duration": 1211.0,
            "view_count": 356083,
            "uploader": "Sony PAL",
            "category": "yam_hain_hum",
            "thumbnail": "https://i.ytimg.com/vi/ANi8pQu04pM/hq720.jpg"
        },
        {
            "id": "kf8Xuj82OU0",
            "title": "Yam Hain Hum - यम हैं हम - Episode 16 - 5th January 2015",
            "url": "https://www.youtube.com/watch?v=kf8Xuj82OU0",
            "duration": 1227.0,
            "view_count": 609583,
            "uploader": "Sony SAB",
            "category": "yam_hain_hum",
            "thumbnail": "https://i.ytimg.com/vi/kf8Xuj82OU0/hqdefault.jpg"
        }
    ]
}