{
    "page": 2,
    "total_pages": 3,
    "total_items": 120,
    "items": [
        {
            "id": "4LWiXGbIhs4",
            "title": "यमराज और चित्रगुप्त की पत्नियों से हुए बबलू पापा परेशान | यम है हम | Yam Hain Ham | Episode 202",
            "url": "https://www.youtube.com/watch?v=4LWiXGbIhs4",
            "duration": 1225.0,
            "view_count": 220060,
            "uploader": "भोला भंडारी",
            "category": "yam_hain_hum",
            "thumbnail": "https://i.ytimg.com/vi/4LWiXGbIhs4/hq720.jpg"
        },
        {
            "id": "8b4UswMTVGM",
            "title": "Yam Hain Hum - याम हैं हम - Episode 10 - 26th December 2014",
            "url": "https://www.youtube.com/watch?v=8b4UswMTVGM",
            "duration": 1201.0,
            "view_count": 1258895,
            "uploader": "Sony SAB",
            "category": "yam_hain_hum",
            "thumbnail": "https://i.ytimg.com/vi/8b4UswMTVGM/hqdefault.jpg"
        },
        {
            "id": "9t3pxYUwrv4",
            "title": "Yam Hain Hum - यम हैं हम - Episode 276 - 6th January, 2016",
            "url": "https://www.youtube.com/watch?v=9t3pxYUwrv4",
            "duration": 1179.0,
            "view_count": 400588,
            "uploader": "Sony SAB",
            "category": "yam_hain_hum",
            "thumbnail": "https://i.ytimg.com/vi/9t3pxYUwrv4/hqdefault.jpg?sqp=-oaymwEcCOADEI4CSFXyq4qpAw4IARUAAIhCGAFwAcABBg==&rs=AOn4CLBW_-QPmMF9m83_ky_5RZkba_Mc7w",
            "added_date": "2026-04-16T07:31:47.917266Z",
            "source": "youtube"
        },
        {
            "id": "fO9eBB66JRo",
            "title": "Yam Hain Hum - याम हैं हम - Episode 14 - 1st January 2015",
            "url": "https://www.youtube.com/watch?v=fO9eBB66JRo",
            "duration": 1221.0,
            "view_count": 599346,
            "uploader": "Sony SAB",
            "category": "yam_hain_hum",
            "thumbnail": "https://i.ytimg.com/vi/fO9eBB66JRo/hqdefault.jpg"
        },
        {
            "id": "E2RRbtb9xrQ",
            "title": "Yam Hain Hum - याम हैं हम - Episode 2 - 16th December 2014",
            "url": "https://www.youtube.com/watch?v=E2RRbtb9xrQ",
            "duration": 1224.0,
            "view_count": 3375629,
            "uploader": "Sony SAB",
            "category": "yam_hain_hum",
            "thumbnail": "https://i.ytimg.com/vi/E2RRbtb9xrQ/hqdefault.jpg?sqp=-oaymwEcCOADEI4CSFXyq4qpAw4IARUAAIhCGAFwAcABBg==&rs=AOn4CLAwBHBnPSB3Yn5Mv6ROa0cot_97YQ",
            "added_date": "2026-04-16T07:31:48.117641Z",
            "source": "youtube"
        },
        {
            "id": "Ol-d9MaE2jU",
            "title": "क्या Inspector कर पाएंगे यम को प्रसन्न ?| यम है हम | Yam Hain Hum | यम है हम | Full Episode 03",
            "url": "https://www.youtube.com/watch?v=Ol-d9MaE2jU",
            "duration": 1176.0,
            "view_count": 1202584,
            "uploader": "Show Buzz India",
            "category": "yam_hain_hum",
            "thumbnail": "https://i.ytimg.com/vi/Ol-d9MaE2jU/hq720.jpg"
        },
        {
            "id": "yZqlcCY1VpY",
            "title": "Yam Hain Hum - याम हैं हम - Episode 3 - 17th December 2014",
            "url": "https://www.youtube.com/watch?v=yZqlcCY1VpY",
            "duration": 1297.0,
            "view_count": 2336370,
            "uploader": "Sony SAB",
            "category": "yam_hain_hum",
            "thumbnail": "https://i.ytimg.com/vi/yZqlcCY1VpY/hqdefault.jpg"
        },
        {
            "id": "MUH7BtQnCHs",
            "title": "Yam Hain Hum -  यम हैं हम - Episode 85 - 10th April 2015",
            "url": "https://www.youtube.com/watch?v=MUH7BtQnCHs",
            "duration": 1178.0,
            "view_count": 1275722,
            "uploader": "Sony SAB",
            "category": "yam_hain_hum",
            "thumbnail": "https://i.ytimg.com/vi/MUH7BtQnCHs/hqdefault.jpg"
        },
        {
            "id": "eZbrNpsGzlI",
            "title": "यमराज क्यों हुए इस मानव पे इतने ज्यादा क्रोधित  | Yam hain Hum | यम हैं हम | Full Episode 86",
            "url": "https://www.youtube.com/watch?v=eZbrNpsGzlI",
            "duration": 1149.0,
            "view_count": 600306,
            "uploader": "Indian Drama",
            "category": "yam_hain_hum",
            "thumbnail": "https://i.ytimg.com/vi/eZbrNpsGzlI/hq720.jpg"
        },
        {
            "id": "hy-Q1tcM_4I",
            "title": "Yam Hain Hum - यम हैं हम - Episode 58 - 26th October, 2017",
            "url": "https://www.youtube.com/watch?v=hy-Q1tcM_4I",
            "duration": 1252.0,
            "view_count": 516533,
            "uploader": "Sony PAL",
            "category": "yam_hain_hum",
            "thumbnail": "https://i.ytimg.com/vi/hy-Q1tcM_4I/hq720.jpg"
        },
        {
            "id": "e5CHd0POJa0",
            "title": "Yam Hain Hum - यम हैं हम - Episode 117 - 7th December, 2017",
            "url": "https://www.youtube.com/watch?v=e5CHd0POJa0",
            "duration": 1224.0,
            "view_count": 303283,
            "uploader": "Sony PAL",
            "category": "yam_hain_hum",
            "thumbnail": "https://i.ytimg.com/vi/e5CHd0POJa0/hq720.jpg"
        },
        {
            "id": "VCzOpZRCaDs",
            "title": "Yam Hain Hum - यम हैं हम - Episode 49 - 20th October, 2017",
            "url": "https://www.youtube.com/watch?v=VCzOpZRCaDs",
            "duration": 1253.0,
            "view_count": 362357,
            "uploader": "Sony PAL",
            "category": "yam_hain_hum",
            "thumbnail": "https://i.ytimg.com/vi/VCzOpZRCaDs/hq720.jpg"
        },
        {
            "id": "POd4KxUAjkI",
            "title": "Yam Hain Hum - यम हैं हम - Episode 30 - 6th October, 2017",
            "url": "https://www.youtube.com/watch?v=POd4KxUAjkI",
            "duration": 1299.0,
            "view_count": 273210,
            "uploader": "Sony PAL",
            "category": "yam_hain_hum",
            "thumbnail": "https://i.ytimg.com/vi/POd4KxUAjkI/hq720.jpg"
        },
        {
            "id": "N3ofzAUgqr4",
            "title": "Yam Hain Hum - यम हैं हम - Episode 122 - 11th December, 2017",
            "url": "https://www.youtube.com/watch?v=N3ofzAUgqr4",
            "duration": 1219.0,
            "view_count": 363297,
            "uploader": "Sony PAL",
            "category": "yam_hain_hum",
            "thumbnail": "https://i.ytimg.com/vi/N3ofzAUgqr4/hq720.jpg"
        },
        {
            "id": "loGkePDpJ-s",
            "title": "Yam Hain Hum -  यम हैं हम  - Episode 54 -  24th October, 2017",
            "url": "https://www.youtube.com/watch?v=loGkePDpJ-s",
            "duration": 1235.0,
            "view_count": 280779,
            "uploader": "Sony PAL",
            "category": "yam_hain_hum",
            "thumbnail": "https://i.ytimg.com/vi/loGkePDpJ-s/hq720.jpg"
        },
        {
            "id": "xx0MWOYEKVk",
            "title": "Yam Hain Hum - यम हैं हम - Episode 75 - 27th March 2015",
            "url": "https://www.youtube.com/watch?v=xx0MWOYEKVk",
            "duration": 1166.0,
            "view_count": 652297,
            "uploader": "Sony SAB",
            "category": "yam_hain_hum",
            "thumbnail": "https://i.ytimg.com/vi/xx0MWOYEKVk/hqdefault.jpg"
        },
        {
            "id": "bKRMhVaTuDk",
            "title": "क्या हुआ जब यमराज बैठ गए धर्मराज की खुर्सी पर | Yam Hai Ham | यम है हम | Full Episode 152",
            "url": "https://www.youtube.com/watch?v=bKRMhVaTuDk",
            "duration": 1162.0,
            "view_count": 816252,
            "uploader": "Serial Masala",
            "category": "yam_hain_hum",
            "thumbnail": "https://i.ytimg.com/vi/bKRMhVaTuDk/hq720.jpg?sqp=-oaymwEcCNAFEJQDSFXyq4qpAw4IARUAAIhCGAFwAcABBg==&rs=AOn4CLBY3V-jhO2S_FhfraCcmpH82y8vBA",
            "added_date": "2026-04-16T07:31:47.716904Z",
            "source": "youtube"
        },
        {
            "id": "U-z7rlpXpBA",
            "title": "क्या भैयाजी आपने नए मिशन में कामयाब होंगे ? | Yam Hain Hum | Comedy Drama | New Full Episode",
            "url": "https://www.youtube.com/watch?v=U-z7rlpXpBA",
            "duration": 2304.0,
            "view_count": 0,
            "uploader": "Desi Drama",
            "category": "yam_hain_hum",
            "thumbnail": "https://i.ytimg.com/vi/U-z7rlpXpBA/hq720.jpg"
        },
        {
            "id": "Wz4XzDhfldA",
            "title": "जब एक ढोंगी बाबा ने यमराज का हाथ देखकर बताई उनकी तकदीर | यम हैं हम | Yam Hain Ham | Episode 240",
            "url": "https://www.youtube.com/watch?v=Wz4XzDhfldA",
            "duration": 1112.0,
            "view_count": 527432,
            "uploader": "भोला भंडारी",
            "category": "yam_hain_hum",
            "thumbnail": "https://i.ytimg.com/vi/Wz4XzDhfldA/hq720.jpg"
        },
        {
            "id": "tJ0rvBbnu14",
            "title": "Yam Hain Hum - यम हैं हम - Episode 20 - 29th September, 2017",
            "url": "https://www.youtube.com/watch?v=tJ0rvBbnu14",
            "duration": 1277.0,
            "view_count": 239649,
            "uploader": "Sony PAL",
            "category": "yam_hain_hum",
            "thumbnail": "https://i.ytimg.com/vi/tJ0rvBbnu14/hq720.jpg"
        },
        {
            "id": "Fv-Y74Wi1Tk",
            "title": "कैसे बचाई Yamraaj जी ने Baldev की जान? | Yam Hain Hum | यम है हम | Full Episode 94",
            "url": "https://www.youtube.com/watch?v=Fv-Y74Wi1Tk",
            "duration": 1065.0,
            "view_count": 349848,
            "uploader": "Desi Drama",
            "category": "yam_hain_hum",
            "thumbnail": "https://i.ytimg.com/vi/Fv-Y74Wi1Tk/hq720.jpg"
        },
        {
            "id": "RvqjPDjbt9Y",
            "title": "Yam Hain Hum - यम हैं हम - Episode 38 -12th October, 2017",
            "url": "https://www.youtube.com/watch?v=RvqjPDjbt9Y",
            "duration": 1218.0,
            "view_count": 318181,
            "uploader": "Sony PAL",
            "category": "yam_hain_hum",
            "thumbnail": "https://i.ytimg.com/vi/RvqjPDjbt9Y/hq720.jpg"
        },
        {
            "id": "d96VyUjVUzU",
            "title": "When Bablu Papa snatched the Modak from Ganesh Ji's hand | Yam Hain Ham | Episode 206",
            "url": "https://www.youtube.com/watch?v=d96VyUjVUzU",
            "duration": 1064.0,
            "view_count": 231453,
            "uploader": "भोला भंडारी",
            "category": "yam_hain_hum",
            "thumbnail": "https://i.ytimg.com/vi/d96VyUjVUzU/hq720.jpg"
        },
        {
            "id": "_zBcCfBreUc",
            "title": "Yam Hain Hum - यम हैं हम - Episode 151 - 13th July, 2015",
            "url": "https://www.youtube.com/watch?v=_zBcCfBreUc",
            "duration": 1181.0,
            "view_count": 639681,
            "uploader": "Sony SAB",
            "category": "yam_hain_hum",
            "thumbnail": "https://i.ytimg.com/vi/_zBcCfBreUc/hqdefault.jpg"
        },
        {
            "id": "kIl7V7XwahA",
            "title": "यमुना माता से आखिर क्या माँगा यमराज ने | यम हैं हम | Yam Hain Ham | Episode 252",
            "url": "https://www.youtube.com/watch?v=kIl7V7XwahA",
            "duration": 1187.0,
            "view_count": 175776,
            "uploader": "भोला भंडारी",
            "category": "yam_hain_hum",
            "thumbnail": "https://i.ytimg.com/vi/kIl7V7XwahA/hq720.jpg"
        },
        {
            "id": "9JWH8ilQkaY",
            "title": "Yam Hain Hum - यम हैं हम -  Episode 61 -  30th October, 2017",
            "url": "https://www.youtube.com/watch?v=9JWH8ilQkaY",
            "duration": 1227.0,
            "view_count": 399145,
            "uploader": "Sony PAL",
            "category": "yam_hain_hum",
            "thumbnail": "https://i.ytimg.com/vi/9JWH8ilQkaY/hq720.jpg"
        },
        {
            "id": "crbZ4QRvHeg",
            "title": "पुलिस यमराज को गाड़ी में बैठाकर कहाँ ले जा रही थी | Yam hain Hum | यम हैं हम | Full EP 152+153+154",
            "url": "https://www.youtube.com/watch?v=crbZ4QRvHeg",
            "duration": 3439.0,
            "view_count": 166831,
            "uploader": "Indian Drama",
            "category": "yam_hain_hum",
            "thumbnail": "https://i.ytimg.com/vi/crbZ4QRvHeg/hq720.jpg"
        },
        {
            "id": "HR8xbJAANts",
            "title": "Yam Hain Hum - Full Episode 135 - 20th December, 2017",
            "url": "https://www.youtube.com/watch?v=HR8xbJAANts",
            "duration": 1201.0,
            "view_count": 83083,
            "uploader": "Sony PAL",
            "category": "yam_hain_hum",
            "thumbnail": "https://i.ytimg.com/vi/HR8xbJAANts/hq720.jpg"
        },
        {
            "id": "BU20i81GtME",
            "title": "यमराज के सांप को जब टाई समझकर बबलू पापा ने पहन लिया गले में | यम है हम | Yam Hain Ham | Episode 191",
            "url": "https://www.youtube.com/watch?v=BU20i81GtME",
            "duration": 1195.0,
            "view_count": 759210,
            "uploader": "भोला भंडारी",
            "category": "yam_hain_hum",
            "thumbnail": "https://i.ytimg.com/vi/BU20i81GtME/hq720.jpg"
        },
        {
            "id": "JNMczJzsPeg",
            "title": "Yam Hain Hum - यम हैं हम - Episode 42 -16th October, 2017",
            "url": "https://www.youtube.com/watch?v=JNMczJzsPeg",
            "duration": 1267.0,
            "view_count": 406638,
            "uploader": "Sony PAL",
            "category": "yam_hain_hum",
            "thumbnail": "https://i.ytimg.com/vi/JNMczJzsPeg/hq720.jpg"
        },
        {
            "id": "xFXEPDagPzs",
            "title": "Yam Hain Hum - यम हैं हम - Episode 15 - 2nd January 2015",
            "url": "https://www.youtube.com/watch?v=xFXEPDagPzs",
            "duration": 1243.0,
            "view_count": 647310,
            "uploader": "Sony SAB",
            "category": "yam_hain_hum",
            "thumbnail": "https://i.ytimg.com/vi/xFXEPDagPzs/hqdefault.jpg"
        },
        {
            "id": "ccL8ZnNNMAE",
            "title": "क्या चोर चुरा लेंगे \"यमराज\" का \"जादुई सोने का मुकुट\"? | Yam Hain Hum | यम है हम | Full Episode 05",
            "url": "https://www.youtube.com/watch?v=ccL8ZnNNMAE",
            "duration": 1209.0,
            "view_count": 641034,
            "uploader": "Show Buzz India",
            "category": "yam_hain_hum",
            "thumbnail": "https://i.ytimg.com/vi/ccL8ZnNNMAE/hq720.jpg"
        },
        {
            "id": "6mHA6VXDLuE",
            "title": "Yam Hain Hum - यम हैं हम - Episode 155 - 17th July, 2015",
            "url": "https://www.youtube.com/watch?v=6mHA6VXDLuE",
            "duration": 1228.0,
            "view_count": 946656,
            "uploader": "Sony SAB",
            "category": "yam_hain_hum",
            "thumbnail": "https://i.ytimg.com/vi/6mHA6VXDLuE/hqdefault.jpg"
        },
        {
            "id": "fYo2wyM5J7A",
            "title": "Yam Hain Hum - यम हैं हम - Episode 43 - 17th October, 2017",
            "url": "https://www.youtube.com/watch?v=fYo2wyM5J7A",
            "duration": 1229.0,
            "view_count": 338096,
            "uploader": "Sony PAL",
            "category": "yam_hain_hum",
            "thumbnail": "https://i.ytimg.com/vi/fYo2wyM5J7A/hq720.jpg"
        },
        {
            "id": "Tu0coG9a0BI",
            "title": "College में आए नए सर क्या होगी Yam की परीक्षा ? | Yam Hai Ham | Best Comedy | New Full Episode 2026",
            "url": "https://www.youtube.com/watch?v=Tu0coG9a0BI",
            "duration": 3530.0,
            "view_count": 0,
            "uploader": "Serial Masala",
            "category": "yam_hain_hum",
            "thumbnail": "https://i.ytimg.com/vi/Tu0coG9a0BI/hq720.jpg"
        },
        {
            "id": "GK3rX_HQDEc",
            "title": "Yam Hain Hum - यम हैं हम - Episode 188 - 3rd September, 2015",
            "url": "https://www.youtube.com/watch?v=GK3rX_HQDEc",
            "duration": 1242.0,
            "view_count": 457714,
            "uploader": "Sony SAB",
            "category": "yam_hain_hum",
            "thumbnail": "https://i.ytimg.com/vi/GK3rX_HQDEc/hqdefault.jpg"
        },
        {
            "id": "mLGMFflWLxY",
            "title": "यमुना में आई बाढ़ को कैसे रोक पाएंगे यमराज | यम हैं हम | Yam Hain Ham | Episode 253",
            "url": "https://www.youtube.com/watch?v=mLGMFflWLxY",
            "duration": 1208.0,
            "view_count": 330071,
            "uploader": "भोला भंडारी",
            "category": "yam_hain_hum",
            "thumbnail": "https://i.ytimg.com/vi/mLGMFflWLxY/hq720.jpg"
        },
        {
            "id": "_GEiYQSJ3mI",
            "title": "बिंदिया के लिए सबका प्यार देख पिघल गए यमराज | Yam Hain Hum | यम हैं हम | Latest Full Epiosde 2026",
            "url": "https://www.youtube.com/watch?v=_GEiYQSJ3mI",
            "duration": 3469.0,
            "view_count": 0,
            "uploader": "Fun Factory",
            "category": "yam_hain_hum",
            "thumbnail": "https://i.ytimg.com/vi/_GEiYQSJ3mI/hq720.jpg"
        },
        {
            "id": "asmon1NEUc8",
            "title": "क्या हो जाएगी कोमल प्रीत और यमराज की शादी | यम है हम | Yam Hain Ham | Episode 169",
            "url": "https://www.youtube.com/watch?v=asmon1NEUc8",
            "duration": 1048.0,
            "view_count": 188420,
            "uploader": "भोला भंडारी",
            "category": "yam_hain_hum",
            "thumbnail": "https://i.ytimg.com/vi/asmon1NEUc8/hq720.jpg"
        },
        {
            "id": "pYfTBskn1xE",
            "title": "Yam Hain Hum - यम हैं हम - Episode 45 - 18th October, 2017",
            "url": "https://www.youtube.com/watch?v=pYfTBskn1xE",
            "duration": 1295.0,
            "view_count": 328927,
            "uploader": "Sony PAL",
            "category": "yam_hain_hum",
            "thumbnail": "https://i.ytimg.com/vi/pYfTBskn1xE/hq720.jpg"
        },
        {
            "id": "oiGfuSjsesw",
            "title": "क्या Yam बचा पाएंगे बिंदु मैडम की बेटी को गुंडों से | Yam Hai Ham | Best Comedy | New Full Episode",
            "url": "https://www.youtube.com/watch?v=oiGfuSjsesw",
            "duration": 3498.0,
            "view_count": 4,
            "uploader": "Serial Masala",
            "category": "yam_hain_hum",
            "thumbnail": "https://i.ytimg.com/vi/oiGfuSjsesw/hq720.jpg"
        },
        {
            "id": "BYHwOmnhr9I",
            "title": "यमराज को जब ट्रैफिक पुलिस ने पकड़ा | Yamraj Comedy @minitv86",
            "url": "https://www.youtube.com/watch?v=BYHwOmnhr9I",
            "duration": 1196.0,
            "view_count": 1288,
            "uploader": "Mini TV",
            "category": "yam_hain_hum",
            "thumbnail": "https://i.ytimg.com/vi/BYHwOmnhr9I/hq720.jpg"
        },
        {
            "id": "jgmF3V3uAQo",
            "title": "भिखारी समझकर लोगों ने दी यमराज के हाथों में भीख | यम है हम | Yam Hain Ham | Ep 151",
            "url": "https://www.youtube.com/watch?v=jgmF3V3uAQo",
            "duration": 1167.0,
            "view_count": 223719,
            "uploader": "भोला भंडारी",
            "category": "yam_hain_hum",
            "thumbnail": "https://i.ytimg.com/vi/jgmF3V3uAQo/hq720.jpg"
        },
        {
            "id": "TG-V3fIz-iM",
            "title": "मंगलू पुत्र से क्या यमराज रक्षा करेंगे बलदेव की ?  | Yam Hain Hum | Comedy Drama | New Full Episode",
            "url": "https://www.youtube.com/watch?v=TG-V3fIz-iM",
            "duration": 2423.0,
            "view_count": 3,
            "uploader": "Desi Drama",
            "category": "yam_hain_hum",
            "thumbnail": "https://i.ytimg.com/vi/TG-V3fIz-iM/hq720.jpg"
        },
        {
            "id": "ezFMWBjBBFM",
            "title": "देखिये क्यों पकड़ा ट्रैफिक पुलिस ने यमराज को | Yam Hain Hum | यम हैं हम | Full Episode 62",
            "url": "https://www.youtube.com/watch?v=ezFMWBjBBFM",
            "duration": 1095.0,
            "view_count": 7592756,
            "uploader": "Indian Drama",
            "category": "yam_hain_hum",
            "thumbnail": "https://i.ytimg.com/vi/ezFMWBjBBFM/hq720.jpg"
        },
        {
            "id": "zvxUZdElqIA",
            "title": "जब स्वर्ग में बब्लू के पापा और यम मिले एक सुन्दर अपसरा से | Yam hain Hum | Full Episode",
            "url": "https://www.youtube.com/watch?v=zvxUZdElqIA",
            "duration": 2362.0,
            "view_count": 35669,
            "uploader": "Indian Drama",
            "category": "yam_hain_hum",
            "thumbnail": "https://i.ytimg.com/vi/zvxUZdElqIA/hq720.jpg?sqp=-oaymwEcCNAFEJQDSFXyq4qpAw4IARUAAIhCGAFwAcABBg==&rs=AOn4CLDZU8MVprgtj-h9nbytxu7I9LRqIw",
            "added_date": "2026-04-16T07:31:46.715064Z",
            "source": "youtube"
        },
        {
            "id": "e29uMdfSB3M",
            "title": "Yam Hain Hum - यम हैं हम - Episode 29 - 6th October, 2017",
            "url": "https://www.youtube.com/watch?v=e29uMdfSB3M",
            "duration": 1299.0,
            "view_count": 288683,
            "uploader": "Sony PAL",
            "category": "yam_hain_hum",
            "thumbnail": "https://i.ytimg.com/vi/e29uMdfSB3M/hq720.jpg"
        },
        {
            "id": "nyTMZAsN0n0",
            "title": "यम की वजह से बदली एक गुंडे की जिंदगी | Yam Hain Hum | Comedy Drama | New Full Episode",
            "url": "https://www.youtube.com/watch?v=nyTMZAsN0n0",
            "duration": 2343.0,
            "view_count": 0,
            "uploader": "Desi Drama",
            "category": "yam_hain_hum",
            "thumbnail": "https://i.ytimg.com/vi/nyTMZAsN0n0/hq720.jpg"
        },
        {
            "id": "DsdQhy_1REc",
            "title": "Yam Hain Hum - यम हैं हम - Episode 14 - 26th September, 2017",
            "url": "https://www.youtube.com/watch?v=DsdQhy_1REc",
            "duration": 1298.0,
            "view_count": 286071,
            "uploader": "Sony PAL",
            "category": "yam_hain_hum",
            "thumbnail": "https://i.ytimg.com/vi/DsdQhy_1REc/hq720.jpg"
        },
        {
            "id": "lp63vgVGNaA",
            "title": "Seeing the bad condition of the earth, Yamraj left Yamlok and came to earth. Yam Darbar Episode 1",
            "url": "https://www.youtube.com/watch?v=lp63vgVGNaA",
            "duration": 1302.0,
            "view_count": 210,
            "uploader": "Reel Legends - Garudpuran Bhakti",
            "category": "yam_hain_hum",
            "thumbnail": "https://i.ytimg.com/vi/lp63vgVGNaA/hq720.jpg"
        }
    ]
}