{
    "page": 3,
    "total_pages": 3,
    "total_items": 120,
    "items": [
        {
            "id": "v4U_YMhPa_k",
            "title": "Yam Hain Hum - यम हैं हम - Episode 22 - 2nd October, 2017",
            "url": "https://www.youtube.com/watch?v=v4U_YMhPa_k",
            "duration": 1216.0,
            "view_count": 424319,
            "uploader": "Sony PAL",
            "category": "yam_hain_hum",
            "thumbnail": "https://i.ytimg.com/vi/v4U_YMhPa_k/hq720.jpg"
        },
        {
            "id": "ryRdYHdicfU",
            "title": "Yam Hain Hum - यम हैं हम - Episode 1 - 18th September, 2017",
            "url": "https://www.youtube.com/watch?v=ryRdYHdicfU",
            "duration": 1333.0,
            "view_count": 51478,
            "uploader": "Sony PAL",
            "category": "yam_hain_hum",
            "thumbnail": "https://i.ytimg.com/vi/ryRdYHdicfU/hq720.jpg"
        },
        {
            "id": "ET2erDEns6Y",
            "title": "Yam Hain Hum - यम हैं हम - Episode 80 - 10th November, 2017",
            "url": "https://www.youtube.com/watch?v=ET2erDEns6Y",
            "duration": 1262.0,
            "view_count": 357374,
            "uploader": "Sony PAL",
            "category": "yam_hain_hum",
            "thumbnail": "https://i.ytimg.com/vi/ET2erDEns6Y/hq720.jpg"
        },
        {
            "id": "Iihn68SbiNg",
            "title": "Yam Hain Hum - यम हैं हम - Episode 94 - 23rd April 2015",
            "url": "https://www.youtube.com/watch?v=Iihn68SbiNg",
            "duration": 1168.0,
            "view_count": 441170,
            "uploader": "Sony SAB",
            "category": "yam_hain_hum",
            "thumbnail": "https://i.ytimg.com/vi/Iihn68SbiNg/hqdefault.jpg"
        },
        {
            "id": "sc_g75yFRwI",
            "title": "Yam Hain Hum - यम हैं हम - Episode 114 - 5th December, 2017",
            "url": "https://www.youtube.com/watch?v=sc_g75yFRwI",
            "duration": 1156.0,
            "view_count": 438514,
            "uploader": "Sony PAL",
            "category": "yam_hain_hum",
            "thumbnail": "https://i.ytimg.com/vi/sc_g75yFRwI/hq720.jpg"
        },
        {
            "id": "N4xtcJk_rBQ",
            "title": "Yam Hain Hum - यम हैं हम - Episode 74 - 7th November, 2017",
            "url": "https://www.youtube.com/watch?v=N4xtcJk_rBQ",
            "duration": 1191.0,
            "view_count": 403602,
            "uploader": "Sony PAL",
            "category": "yam_hain_hum",
            "thumbnail": "https://i.ytimg.com/vi/N4xtcJk_rBQ/hq720.jpg"
        },
        {
            "id": "7oD0Stj97Xc",
            "title": "बलदेव बना जब बल्लू दादा और करने लगा गुंडा गर्दी | यम है हम | Yam Hain Ham | Episode 187",
            "url": "https://www.youtube.com/watch?v=7oD0Stj97Xc",
            "duration": 1248.0,
            "view_count": 164373,
            "uploader": "भोला भंडारी",
            "category": "yam_hain_hum",
            "thumbnail": "https://i.ytimg.com/vi/7oD0Stj97Xc/hq720.jpg"
        },
        {
            "id": "eNLygpXdpZY",
            "title": "जब यमराज लेकर आये माता के लिए जंगल से असली शेर को | यम है हम | Yam Hain Ham | Episode 226",
            "url": "https://www.youtube.com/watch?v=eNLygpXdpZY",
            "duration": 1105.0,
            "view_count": 555327,
            "uploader": "भोला भंडारी",
            "category": "yam_hain_hum",
            "thumbnail": "https://i.ytimg.com/vi/eNLygpXdpZY/hq720.jpg"
        },
        {
            "id": "U_4Il3FDOE8",
            "title": "बलदेव की यमलोक में हुई पेशी, क्या होने वाला है बड़ा फैसला? | Yam hain Hum | Full EP 278+279+280",
            "url": "https://www.youtube.com/watch?v=U_4Il3FDOE8",
            "duration": 3455.0,
            "view_count": 19650,
            "uploader": "Indian Drama",
            "category": "yam_hain_hum",
            "thumbnail": "https://i.ytimg.com/vi/U_4Il3FDOE8/hq720.jpg"
        },
        {
            "id": "EOWfilgnuuk",
            "title": "Yam Hain Hum - Full Episode 130 - 15th December, 2017",
            "url": "https://www.youtube.com/watch?v=EOWfilgnuuk",
            "duration": 1244.0,
            "view_count": 289461,
            "uploader": "Sony PAL",
            "category": "yam_hain_hum",
            "thumbnail": "https://i.ytimg.com/vi/EOWfilgnuuk/hq720.jpg"
        },
        {
            "id": "oNJyJwifNKg",
            "title": "माता को करनी है शेर की सवारी | यम है हम | Yam Hain Ham | Episode 225",
            "url": "https://www.youtube.com/watch?v=oNJyJwifNKg",
            "duration": 1214.0,
            "view_count": 198397,
            "uploader": "भोला भंडारी",
            "category": "yam_hain_hum",
            "thumbnail": "https://i.ytimg.com/vi/oNJyJwifNKg/hq720.jpg"
        },
        {
            "id": "tgQgHOaBgNc",
            "title": "जीजा सलाखों के पीछे और यमराज का गुस्सा बाहर! आगे क्या होगा? | Yam hain Hum | Full EP 155+156+157",
            "url": "https://www.youtube.com/watch?v=tgQgHOaBgNc",
            "duration": 3297.0,
            "view_count": 61560,
            "uploader": "Indian Drama",
            "category": "yam_hain_hum",
            "thumbnail": "https://i.ytimg.com/vi/tgQgHOaBgNc/hq720.jpg"
        },
        {
            "id": "CXcnebE6icc",
            "title": "Yam Hain Hum - यम हैं हम - Episode 133 - 17th June, 2015",
            "url": "https://www.youtube.com/watch?v=CXcnebE6icc",
            "duration": 1222.0,
            "view_count": 294962,
            "uploader": "Sony SAB",
            "category": "yam_hain_hum",
            "thumbnail": "https://i.ytimg.com/vi/CXcnebE6icc/hqdefault.jpg"
        },
        {
            "id": "orK6TEtgXb4",
            "title": "Yam Hain Hum - यम हैं हम - Episode 240 - 17th November, 2015",
            "url": "https://www.youtube.com/watch?v=orK6TEtgXb4",
            "duration": 1170.0,
            "view_count": 590614,
            "uploader": "Sony SAB",
            "category": "yam_hain_hum",
            "thumbnail": "https://i.ytimg.com/vi/orK6TEtgXb4/hqdefault.jpg"
        },
        {
            "id": "5sahh6qaaTs",
            "title": "Yam Hain Hum - याम हैं हम - Episode 6 - 22nd December 2014",
            "url": "https://www.youtube.com/watch?v=5sahh6qaaTs",
            "duration": 1201.0,
            "view_count": 1446459,
            "uploader": "Sony SAB",
            "category": "yam_hain_hum",
            "thumbnail": "https://i.ytimg.com/vi/5sahh6qaaTs/hqdefault.jpg"
        },
        {
            "id": "6UW9dXlbAZ4",
            "title": "क्यों होना पड़ा यमराज को अस्पताल में दाखिल | यम है हम | Yam Hain Ham | Ep 158",
            "url": "https://www.youtube.com/watch?v=6UW9dXlbAZ4",
            "duration": 1164.0,
            "view_count": 211300,
            "uploader": "भोला भंडारी",
            "category": "yam_hain_hum",
            "thumbnail": "https://i.ytimg.com/vi/6UW9dXlbAZ4/hq720.jpg"
        },
        {
            "id": "-vKZKot7v84",
            "title": "यमराज ने करवाई जब श्रीदेवी को यमलोक की सैर | यम है हम | Yam Hain Ham | Episode 40",
            "url": "https://www.youtube.com/watch?v=-vKZKot7v84",
            "duration": 1107.0,
            "view_count": 247070,
            "uploader": "भोला भंडारी",
            "category": "yam_hain_hum",
            "thumbnail": "https://i.ytimg.com/vi/-vKZKot7v84/hq720.jpg"
        },
        {
            "id": "KmDQVNGPkgA",
            "title": "यमराज के सामने आया पृथ्वीलोक का नकली यमराज | Yam Hain Hum | यम हैं हम | Full Episode 32",
            "url": "https://www.youtube.com/watch?v=KmDQVNGPkgA",
            "duration": 1173.0,
            "view_count": 1873679,
            "uploader": "Indian Drama",
            "category": "yam_hain_hum",
            "thumbnail": "https://i.ytimg.com/vi/KmDQVNGPkgA/hq720.jpg"
        },
        {
            "id": "l8U56UeK4hM",
            "title": "कैसे मिलेगी चित्रगुप्त जी को उड़ते हुए Airoplane में Entry? | Yam Hain Hum | यम है हम | Full Ep 84",
            "url": "https://www.youtube.com/watch?v=l8U56UeK4hM",
            "duration": 1212.0,
            "view_count": 2763602,
            "uploader": "Desi Drama",
            "category": "yam_hain_hum",
            "thumbnail": "https://i.ytimg.com/vi/l8U56UeK4hM/hq720.jpg"
        },
        {
            "id": "-mU-tj4S7Js",
            "title": "Yam Hain Hum - यम हैं हम - Episode 31 - 9th October, 2017",
            "url": "https://www.youtube.com/watch?v=-mU-tj4S7Js",
            "duration": 1226.0,
            "view_count": 294031,
            "uploader": "Sony PAL",
            "category": "yam_hain_hum",
            "thumbnail": "https://i.ytimg.com/vi/-mU-tj4S7Js/hq720.jpg"
        }
    ]
}