{
    "page": 2,
    "total_pages": 2,
    "total_items": 92,
    "items": [
        {
            "id": "j-lrAbSFuXs",
            "title": "मस्तानी की शादी 😆| Mastani ki Shadi | The Mridul | Nitin Funny video #comedy #funny #themridul",
            "url": "https://www.youtube.com/watch?v=j-lrAbSFuXs",
            "duration": 1065.0,
            "view_count": 13364123,
            "uploader": "Dhamaka Comedy",
            "category": "comedy",
            "thumbnail": "https://i.ytimg.com/vi/j-lrAbSFuXs/hq720.jpg"
        },
        {
            "id": "24E4YPFzrBo",
            "title": "Private Hospital | प्राइवेट हॉस्पिटल | Ramesh Sahni | New Comedy Video | Fun 2 Eg Team |",
            "url": "https://www.youtube.com/watch?v=24E4YPFzrBo",
            "duration": 1382.0,
            "view_count": 1661904,
            "uploader": "Fun 2 Eg Team",
            "category": "comedy",
            "thumbnail": "https://i.ytimg.com/vi/24E4YPFzrBo/hq720.jpg"
        },
        {
            "id": "4EgxZXDLSpA",
            "title": "हम भारत के सबसे सुरक्षित जगह पर खड़े हैं | Dhamaal - Part 1 | Riteish Deshmukh",
            "url": "https://www.youtube.com/watch?v=4EgxZXDLSpA",
            "duration": 1838.0,
            "view_count": 4018777,
            "uploader": "Shemaroo Movie in Parts",
            "category": "comedy",
            "thumbnail": "https://i.ytimg.com/vi/4EgxZXDLSpA/hq720.jpg"
        },
        {
            "id": "Gu8Rb-1_LrE",
            "title": "New Funny Video😂। Trending Funny Video🤣। New Instagram Funny Video😃। New Comedy Video😁। Viral Video😂",
            "url": "https://www.youtube.com/watch?v=Gu8Rb-1_LrE",
            "duration": 2011.0,
            "view_count": 3876,
            "uploader": "FACTAXE",
            "category": "comedy",
            "thumbnail": "https://i.ytimg.com/vi/Gu8Rb-1_LrE/hq720.jpg"
        },
        {
            "id": "FXg52HQXwmQ",
            "title": "Sala Bhikariyon K Sath Soneka Din Agaya Hai😂| Vijay Raaz Comedy Scene | Run",
            "url": "https://www.youtube.com/watch?v=FXg52HQXwmQ",
            "duration": 1424.0,
            "view_count": 12540324,
            "uploader": "Bolly Shorts",
            "category": "comedy",
            "thumbnail": "https://i.ytimg.com/vi/FXg52HQXwmQ/hq720.jpg"
        },
        {
            "id": "uHHISG31DXQ",
            "title": "Rajpal Yadav Comedy - तू कागज पे ऊँगली चला मेरे मामले में ऊँगली मत कर | Comedy - लोटपोट कॉमेडी सीन्स",
            "url": "https://www.youtube.com/watch?v=uHHISG31DXQ",
            "duration": 1439.0,
            "view_count": 7289972,
            "uploader": "Shemaroo Comedy",
            "category": "comedy",
            "thumbnail": "https://i.ytimg.com/vi/uHHISG31DXQ/hq720.jpg"
        },
        {
            "id": "c21o1HvIZNs",
            "title": "Comedy Meme Ke Badshah | हँसी का तड़का | Comedy Club | कॉमेडी का दरबार | मीम बादशाह की पेशकश",
            "url": "https://www.youtube.com/watch?v=c21o1HvIZNs",
            "duration": 1482.0,
            "view_count": 115472,
            "uploader": "Bollywood Comedy ",
            "category": "comedy",
            "thumbnail": "https://i.ytimg.com/vi/c21o1HvIZNs/hq720.jpg"
        },
        {
            "id": "6AJ78kCEz80",
            "title": "Kisan Ka Bamboo Chicken Biryani Street Food Hindi Kahani Moral Stories Funny Comedy Video",
            "url": "https://www.youtube.com/watch?v=6AJ78kCEz80",
            "duration": 690.0,
            "view_count": 28942,
            "uploader": "Khushi - Hindi Stories Super Comedy Videos",
            "category": "comedy",
            "thumbnail": "https://i.ytimg.com/vi/6AJ78kCEz80/hq720.jpg"
        },
        {
            "id": "t29-duhiSzY",
            "title": "Best Bollywood Comedy Scenes|Baap of Comedians | Mujhse Shaadi Karogi - Dhamaal - Dhol - Bhagam Bhag",
            "url": "https://www.youtube.com/watch?v=t29-duhiSzY",
            "duration": 2296.0,
            "view_count": 963266,
            "uploader": "Shemaroo Comedy",
            "category": "comedy",
            "thumbnail": "https://i.ytimg.com/vi/t29-duhiSzY/hq720.jpg"
        },
        {
            "id": "fcC_Rm3zsCc",
            "title": "सिलिंडर | Cylinder | Akhji Bhojpuri Comedy | @DileepVines | New Comedy Video",
            "url": "https://www.youtube.com/watch?v=fcC_Rm3zsCc",
            "duration": 1474.0,
            "view_count": 687936,
            "uploader": "Akhiji Bhojpuri Comedy",
            "category": "comedy",
            "thumbnail": "https://i.ytimg.com/vi/fcC_Rm3zsCc/hq720.jpg"
        },
        {
            "id": "HrlrYB5LYu0",
            "title": "अगुआई-4 || #Mani Meraj Comedey || #funny Comedy Video || 2026",
            "url": "https://www.youtube.com/watch?v=HrlrYB5LYu0",
            "duration": 1079.0,
            "view_count": 27096,
            "uploader": "Rockstar Saif Official",
            "category": "comedy",
            "thumbnail": "https://i.ytimg.com/vi/HrlrYB5LYu0/hq720.jpg"
        },
        {
            "id": "LJX37o9UDHs",
            "title": "New Funny Video😂। Trending Funny Video🤣। New Instagram Funny Video😃। New Comedy Video😁। Viral Video😂",
            "url": "https://www.youtube.com/watch?v=LJX37o9UDHs",
            "duration": 2065.0,
            "view_count": 9539,
            "uploader": "FACTAXE",
            "category": "comedy",
            "thumbnail": "https://i.ytimg.com/vi/LJX37o9UDHs/hq720.jpg"
        },
        {
            "id": "uMKwTVU1kvc",
            "title": "Cricket Dhaba Watching Rooftop Cricket Eating Dhaba Food Hindi Kahani Moral Stories New Comedy Video",
            "url": "https://www.youtube.com/watch?v=uMKwTVU1kvc",
            "duration": 608.0,
            "view_count": 26351,
            "uploader": "Golden TV - Funny Hindi Comedy Videos",
            "category": "comedy",
            "thumbnail": "https://i.ytimg.com/vi/uMKwTVU1kvc/hq720_custom_2.jpg"
        },
        {
            "id": "QKBJXjChDHw",
            "title": "Cricket Gully Gully Ki | Ashish Chanchlani",
            "url": "https://www.youtube.com/watch?v=QKBJXjChDHw",
            "duration": 770.0,
            "view_count": 82279880,
            "uploader": "ashish chanchlani vines",
            "category": "comedy",
            "thumbnail": "https://i.ytimg.com/vi/QKBJXjChDHw/hq720.jpg"
        },
        {
            "id": "Wpp7O4ddRVs",
            "title": "गांम में शादी - WEDDING IN THE VILLAGE COMEDY | DESI COMEDY | FUNNY CARTOON | MJO ‪@MakeJokeOf‬",
            "url": "https://www.youtube.com/watch?v=Wpp7O4ddRVs",
            "duration": 671.0,
            "view_count": 45087,
            "uploader": "CPM joke of",
            "category": "comedy",
            "thumbnail": "https://i.ytimg.com/vi/Wpp7O4ddRVs/hq720.jpg"
        },
        {
            "id": "Pil-0VaBEF8",
            "title": "Noor Bhai Aur Bhoot Ka Khauff | Hyderabadi Horror Comedy | Family Drama | Shehbaaz Khan And Team",
            "url": "https://www.youtube.com/watch?v=Pil-0VaBEF8",
            "duration": 719.0,
            "view_count": 165832,
            "uploader": "Shehbaaz khan ",
            "category": "comedy",
            "thumbnail": "https://i.ytimg.com/vi/Pil-0VaBEF8/hq720.jpg?sqp=-oaymwEcCNAFEJQDSFXyq4qpAw4IARUAAIhCGAFwAcABBg==&rs=AOn4CLBpnKXTza31zRmmbnOfwcy0u2ZoCQ",
            "added_date": "2026-04-16T07:31:35.689630Z",
            "source": "youtube"
        },
        {
            "id": "XmSmR0QW2hI",
            "title": "Best Reaction Funny Pranks Compilation 2024 - 2025 Comedy Video @ThatWasCrazy",
            "url": "https://www.youtube.com/watch?v=XmSmR0QW2hI",
            "duration": 929.0,
            "view_count": 298208,
            "uploader": "That Was Crazy",
            "category": "comedy",
            "thumbnail": "https://i.ytimg.com/vi/XmSmR0QW2hI/hq720.jpg"
        },
        {
            "id": "Ke8-EV4mjbc",
            "title": "साउथ फिल्मो के कॉमेडी के महानायक ब्रह्मानंदम की बेहतरीन टॉप 5 बेस्ट कॉमेडी सीन",
            "url": "https://www.youtube.com/watch?v=Ke8-EV4mjbc",
            "duration": 1957.0,
            "view_count": 57504036,
            "uploader": "Goldmines Great Indian Comedy",
            "category": "comedy",
            "thumbnail": "https://i.ytimg.com/vi/Ke8-EV4mjbc/hq720.jpg"
        },
        {
            "id": "603jcjeb1nM",
            "title": "New Funny Video🤣। Trending Funny Video😂। New Instagram Funny Video🤪। New Comedy Video😆। part - 96",
            "url": "https://www.youtube.com/watch?v=603jcjeb1nM",
            "duration": 1406.0,
            "view_count": 1117350,
            "uploader": "techteasures",
            "category": "comedy",
            "thumbnail": "https://i.ytimg.com/vi/603jcjeb1nM/hq720.jpg"
        },
        {
            "id": "5gvigxqHZW4",
            "title": "LAFANGA 2 || Lafanga 2 || The Comedy Kingdom",
            "url": "https://www.youtube.com/watch?v=5gvigxqHZW4",
            "duration": 994.0,
            "view_count": 31245856,
            "uploader": "The Comedy Kingdom",
            "category": "comedy",
            "thumbnail": "https://i.ytimg.com/vi/5gvigxqHZW4/hq720.jpg"
        },
        {
            "id": "RwQ24JpDzL4",
            "title": "Love Poison | Pranit More | Stand-up Comedy | Crowd Work Special",
            "url": "https://www.youtube.com/watch?v=RwQ24JpDzL4",
            "duration": 3431.0,
            "view_count": 4048499,
            "uploader": "Pranit More Official",
            "category": "comedy",
            "thumbnail": "https://i.ytimg.com/vi/RwQ24JpDzL4/hq720.jpg?sqp=-oaymwEcCNAFEJQDSFXyq4qpAw4IARUAAIhCGAFwAcABBg==&rs=AOn4CLCz2PkTJOIzdjvO_AV1fos9uUaTAg",
            "added_date": "2026-04-16T07:31:36.090325Z",
            "source": "youtube"
        },
        {
            "id": "bNohEDLUiPs",
            "title": "New Funny Video🤣I Trending Funny Video😂I New Instagram Funny Video😅I New Comedy Video😁l Viral video😆",
            "url": "https://www.youtube.com/watch?v=bNohEDLUiPs",
            "duration": 1416.0,
            "view_count": 2025707,
            "uploader": "Ayan Reacts",
            "category": "comedy",
            "thumbnail": "https://i.ytimg.com/vi/bNohEDLUiPs/hq720.jpg"
        },
        {
            "id": "p-j6sN1n84I",
            "title": "Dhongi Baba | Deepak Anish full Comedy 😂",
            "url": "https://www.youtube.com/watch?v=p-j6sN1n84I",
            "duration": 1367.0,
            "view_count": 524654,
            "uploader": "Deepak  Anish Comedy ",
            "category": "comedy",
            "thumbnail": "https://i.ytimg.com/vi/p-j6sN1n84I/hq720.jpg"
        },
        {
            "id": "m-zbIfF-RYA",
            "title": "Rajpal Yadav Comedy Scenes  {HD} - Top Comedy Scenes - Weekend Comedy Special -  Indian Comedy",
            "url": "https://www.youtube.com/watch?v=m-zbIfF-RYA",
            "duration": 633.0,
            "view_count": 36174573,
            "uploader": "Shemaroo Comedy",
            "category": "comedy",
            "thumbnail": "https://i.ytimg.com/vi/m-zbIfF-RYA/hq720.jpg"
        },
        {
            "id": "4cL-TZbokMg",
            "title": "Rakshak || रक्षक || The Comedy Kingdom",
            "url": "https://www.youtube.com/watch?v=4cL-TZbokMg",
            "duration": 1119.0,
            "view_count": 2182955,
            "uploader": "The Comedy Kingdom",
            "category": "comedy",
            "thumbnail": "https://i.ytimg.com/vi/4cL-TZbokMg/hq720.jpg"
        },
        {
            "id": "2lyHi0TGQF4",
            "title": "Begum Season 4 Full Movie Ramzan Special Comedy Video | Hyderabadi comedy | Golden Hyderabadiz",
            "url": "https://www.youtube.com/watch?v=2lyHi0TGQF4",
            "duration": 6697.0,
            "view_count": 841811,
            "uploader": "Golden Hyderabadiz",
            "category": "comedy",
            "thumbnail": "https://i.ytimg.com/vi/2lyHi0TGQF4/hq720.jpg"
        },
        {
            "id": "zJsNp7_1N7g",
            "title": "Top 10 Hilarious Bollywood Comedy Scenes | Rajpal Yadav, Johnny Lever & Sanjay Mishra",
            "url": "https://www.youtube.com/watch?v=zJsNp7_1N7g",
            "duration": 1614.0,
            "view_count": 1250489,
            "uploader": "Bollywood Comedy ",
            "category": "comedy",
            "thumbnail": "https://i.ytimg.com/vi/zJsNp7_1N7g/hq720.jpg"
        },
        {
            "id": "fjqhLH63g-c",
            "title": "शोक सभा में कॉमेडी | Movie Dhamaal | Best Comedy Scenes | Vijay Raaz - Asrani  -Javed Jaffery",
            "url": "https://www.youtube.com/watch?v=fjqhLH63g-c",
            "duration": 1903.0,
            "view_count": 5464837,
            "uploader": "Shemaroo Comedy",
            "category": "comedy",
            "thumbnail": "https://i.ytimg.com/vi/fjqhLH63g-c/hq720.jpg"
        },
        {
            "id": "ew5h5rbVV3I",
            "title": "Bank chor | Harsh beniwal",
            "url": "https://www.youtube.com/watch?v=ew5h5rbVV3I",
            "duration": 2347.0,
            "view_count": 7130985,
            "uploader": "Harsh Beniwal",
            "category": "comedy",
            "thumbnail": "https://i.ytimg.com/vi/ew5h5rbVV3I/hq720.jpg"
        },
        {
            "id": "rnMg8ffttAc",
            "title": "चोर गांव देहात के | Gav ke Chor | Mani Meraj | Rustic Fun ",
            "url": "https://www.youtube.com/watch?v=rnMg8ffttAc",
            "duration": 1167.0,
            "view_count": 1021655,
            "uploader": "Rustic fun",
            "category": "comedy",
            "thumbnail": "https://i.ytimg.com/vi/rnMg8ffttAc/hq720.jpg"
        },
        {
            "id": "XCQ3mLV3WRI",
            "title": "वेटर Waiter Restaurant Hindi  Funny Comedy Video",
            "url": "https://www.youtube.com/watch?v=XCQ3mLV3WRI",
            "duration": 649.0,
            "view_count": 37205215,
            "uploader": "Jalsa Tv - Hindi Stories",
            "category": "comedy",
            "thumbnail": "https://i.ytimg.com/vi/XCQ3mLV3WRI/hq720.jpg"
        },
        {
            "id": "KA4-3W9WXYA",
            "title": "100 FUNNIEST Videos of 2026 😂 Try Not To Laugh Challenge",
            "url": "https://www.youtube.com/watch?v=KA4-3W9WXYA",
            "duration": 1238.0,
            "view_count": 91164,
            "uploader": "Life Awesome",
            "category": "comedy",
            "thumbnail": "https://i.ytimg.com/vi/KA4-3W9WXYA/hq720.jpg?sqp=-oaymwEcCNAFEJQDSFXyq4qpAw4IARUAAIhCGAFwAcABBg==&rs=AOn4CLBoHHXr4a1ui_gEXAZLFYBRD0uGlA",
            "added_date": "2026-04-16T07:31:34.687861Z",
            "source": "youtube"
        },
        {
            "id": "iESzf2IPhFg",
            "title": "Try Not To Laugh 🤣 Top 100 Funniest Videos Ever 😂 | Funny Videos Compilation 2026 #114",
            "url": "https://www.youtube.com/watch?v=iESzf2IPhFg",
            "duration": 4201.0,
            "view_count": 66076,
            "uploader": "FMW - Funny Moments",
            "category": "comedy",
            "thumbnail": "https://i.ytimg.com/vi/iESzf2IPhFg/hq720.jpg?sqp=-oaymwEcCNAFEJQDSFXyq4qpAw4IARUAAIhCGAFwAcABBg==&rs=AOn4CLBshr63a-qgOAeYzS5fmSa1sYP2oA",
            "added_date": "2026-04-16T07:31:34.888186Z",
            "source": "youtube"
        },
        {
            "id": "EmQp0MbcCbQ",
            "title": "घर आये साले | Ghar Aaye Sale | Deepak Anish full Comedy 😂 ",
            "url": "https://www.youtube.com/watch?v=EmQp0MbcCbQ",
            "duration": 1302.0,
            "view_count": 636102,
            "uploader": "Deepak  Anish Comedy ",
            "category": "comedy",
            "thumbnail": "https://i.ytimg.com/vi/EmQp0MbcCbQ/hq720.jpg?sqp=-oaymwEcCNAFEJQDSFXyq4qpAw4IARUAAIhCGAFwAcABBg==&rs=AOn4CLD00dA9kAT54qgNEBHEwiglDajnVg",
            "added_date": "2026-04-16T07:31:35.088548Z",
            "source": "youtube"
        },
        {
            "id": "wHHJlJN4C4k",
            "title": "Very Special Trending Funny Comedy Video 2025 Amazing Injection Wala Doctor Comedy Video",
            "url": "https://www.youtube.com/watch?v=wHHJlJN4C4k",
            "duration": 0,
            "view_count": 0,
            "uploader": "Fun Tv 22",
            "category": "comedy",
            "thumbnail": "https://i.ytimg.com/vi/wHHJlJN4C4k/hq720.jpg?v=69e066d1&sqp=-oaymwEcCNAFEJQDSFXyq4qpAw4IARUAAIhCGAFwAcABBg==&rs=AOn4CLClH9IAcz--RtFBnMWePRlWKTt1yg",
            "added_date": "2026-04-16T07:31:35.288927Z",
            "source": "youtube"
        },
        {
            "id": "NomnkhcBchs",
            "title": "Brahmanandam As \"AAKU BHAI\" || Back 2 Back Hilarious Comedy Scenes || Volga Videos",
            "url": "https://www.youtube.com/watch?v=NomnkhcBchs",
            "duration": 1478.0,
            "view_count": 13010353,
            "uploader": "Volga Video",
            "category": "comedy",
            "thumbnail": "https://i.ytimg.com/vi/NomnkhcBchs/hq720.jpg?sqp=-oaymwEcCNAFEJQDSFXyq4qpAw4IARUAAIhCGAFwAcABBg==&rs=AOn4CLDxU4RZFxlvqfQYxu8iS5iUYlZgrg",
            "added_date": "2026-04-16T07:31:35.489269Z",
            "source": "youtube"
        },
        {
            "id": "bkI7Y9P3MV8",
            "title": "Try Not To Laugh 🤣 Top 100 Funniest Videos Ever 😂 | Funny Videos Compilation 2026 #111",
            "url": "https://www.youtube.com/watch?v=bkI7Y9P3MV8",
            "duration": 4197.0,
            "view_count": 109239,
            "uploader": "FMW - Funny Moments",
            "category": "comedy",
            "thumbnail": "https://i.ytimg.com/vi/bkI7Y9P3MV8/hq720.jpg?sqp=-oaymwEcCNAFEJQDSFXyq4qpAw4IARUAAIhCGAFwAcABBg==&rs=AOn4CLCBx5GA_I1hX_xdzn16Sd4JXBRvSg",
            "added_date": "2026-04-16T07:31:35.889957Z",
            "source": "youtube"
        },
        {
            "id": "Og49lNO29Vw",
            "title": "FUNNY VIDEOS🤣 Try Not To Laugh Challenge (IMPOSSIBLE 🥹) - You Laugh You Lose Part 130!!",
            "url": "https://www.youtube.com/watch?v=Og49lNO29Vw",
            "duration": 1345.0,
            "view_count": 223659,
            "uploader": "Laugh Trapped",
            "category": "comedy",
            "thumbnail": "https://i.ytimg.com/vi/Og49lNO29Vw/hq720.jpg?sqp=-oaymwEcCNAFEJQDSFXyq4qpAw4IARUAAIhCGAFwAcABBg==&rs=AOn4CLCQqkF1ZHhIQ5qTRtX8VDABtDKQKg",
            "added_date": "2026-04-16T07:31:36.290678Z",
            "source": "youtube"
        },
        {
            "id": "bkuAMSBwrMQ",
            "title": "VELLAM |Fun Da |Malayalam Comedy |",
            "url": "https://www.youtube.com/watch?v=bkuAMSBwrMQ",
            "duration": 995.0,
            "view_count": 656463,
            "uploader": "Fun Da.",
            "category": "comedy",
            "thumbnail": "https://i.ytimg.com/vi/bkuAMSBwrMQ/hq720.jpg?sqp=-oaymwEcCNAFEJQDSFXyq4qpAw4IARUAAIhCGAFwAcABBg==&rs=AOn4CLDfNSKen-XesNmgU66Mu36ruH7Rrg",
            "added_date": "2026-04-16T07:31:36.491022Z",
            "source": "youtube"
        },
        {
            "id": "fYEpal78eSc",
            "title": "Brahmi Timing Peaks 😂 Surekha Vani Fun Moments | Sarrainodu Highlights Comedy Scenes | Telugu Comedy",
            "url": "https://www.youtube.com/watch?v=fYEpal78eSc",
            "duration": 814.0,
            "view_count": 829599,
            "uploader": "Sun Gemini Comedy",
            "category": "comedy",
            "thumbnail": "https://i.ytimg.com/vi/fYEpal78eSc/hq720.jpg?sqp=-oaymwEcCNAFEJQDSFXyq4qpAw4IARUAAIhCGAFwAcABBg==&rs=AOn4CLCK39_QXhvWoezi1pvT4G7zYIU8Vg",
            "added_date": "2026-04-16T07:31:36.691398Z",
            "source": "youtube"
        },
        {
            "id": "Pm_BRinhvUU",
            "title": "Theeradha Vilaiyattu Pillai - Back to Back Comedy Scenes 😂 | Vishal | Tamil Comedy | Adithya TV",
            "url": "https://www.youtube.com/watch?v=Pm_BRinhvUU",
            "duration": 1360.0,
            "view_count": 209442,
            "uploader": "Adithya TV",
            "category": "comedy",
            "thumbnail": "https://i.ytimg.com/vi/Pm_BRinhvUU/hq720.jpg?sqp=-oaymwEcCNAFEJQDSFXyq4qpAw4IARUAAIhCGAFwAcABBg==&rs=AOn4CLAwT1a0z0nMv0xnFQDBqW1YGKE2eg",
            "added_date": "2026-04-16T07:31:36.891745Z",
            "source": "youtube"
        },
        {
            "id": "ZyCYfyDXN4g",
            "title": "GIRAFFE MAAVA KANNADA SHORT MOVIE  FULL VIDEO OUT NOW | ಜಿರಾಫೆಮಾವ | jiraffe mava  | PNG STUDIOS ",
            "url": "https://www.youtube.com/watch?v=ZyCYfyDXN4g",
            "duration": 1090.0,
            "view_count": 2784019,
            "uploader": "PNG Studios Kannada",
            "category": "comedy",
            "thumbnail": "https://i.ytimg.com/vi/ZyCYfyDXN4g/hq720.jpg?sqp=-oaymwEcCNAFEJQDSFXyq4qpAw4IARUAAIhCGAFwAcABBg==&rs=AOn4CLCXT4fQDATgt9-aZiXeHrNlJyHu1Q",
            "added_date": "2026-04-16T07:31:37.092115Z",
            "source": "youtube"
        }
    ]
}