{
    "page": 2,
    "total_pages": 2,
    "total_items": 57,
    "items": [
        {
            "id": "PP6xZGMYoKU",
            "title": "Cold Fusion FULL MOVIE | Adrian Paul & Sarah Brown | Disaster Movies | The Midnight Screening",
            "url": "https://www.youtube.com/watch?v=PP6xZGMYoKU",
            "duration": 5176.0,
            "view_count": 24428,
            "uploader": "The Midnight Screening",
            "category": "action",
            "channel_tags": [
                "action",
                "thriller",
                "scifi"
            ],
            "channel_name": "The Midnight Screening",
            "thumbnail": "https://i.ytimg.com/vi/PP6xZGMYoKU/hqdefault.jpg?sqp=-oaymwEcCNACELwBSFXyq4qpAw4IARUAAIhCGAFwAcABBg==&rs=AOn4CLD5NzFJaBLSLW_9QG_eSZObqQEoJA",
            "source": "youtube",
            "added_date": "2026-04-16T16:52:58.119125Z"
        },
        {
            "id": "ui8L7Nd8j08",
            "title": "Banshee!!! FULL MOVIE | Monster Movies & Creature Features | David McCarthy | The Midnight Screening",
            "url": "https://www.youtube.com/watch?v=ui8L7Nd8j08",
            "duration": 5092.0,
            "view_count": 8864,
            "uploader": "The Midnight Screening",
            "category": "action",
            "channel_tags": [
                "action",
                "thriller",
                "scifi"
            ],
            "channel_name": "The Midnight Screening",
            "thumbnail": "https://i.ytimg.com/vi/ui8L7Nd8j08/hqdefault.jpg?sqp=-oaymwEcCNACELwBSFXyq4qpAw4IARUAAIhCGAFwAcABBg==&rs=AOn4CLAqNc80BfHZIFHNCA2W_ZSVDBYtrA",
            "source": "youtube",
            "added_date": "2026-04-16T16:52:58.320495Z"
        },
        {
            "id": "yySX8oDfQFk",
            "title": "Brace For Impact FULL MOVIE | Kerry Condon | Disaster Movies | The Midnight Screening",
            "url": "https://www.youtube.com/watch?v=yySX8oDfQFk",
            "duration": 5393.0,
            "view_count": 49130,
            "uploader": "The Midnight Screening and Movies to Watch",
            "category": "action",
            "channel_tags": [
                "action",
                "thriller",
                "scifi"
            ],
            "channel_name": "The Midnight Screening",
            "thumbnail": "https://i.ytimg.com/vi/yySX8oDfQFk/hqdefault.jpg?sqp=-oaymwEcCNACELwBSFXyq4qpAw4IARUAAIhCGAFwAcABBg==&rs=AOn4CLB2OeegwEeE6K3A4JBNtEwDc0nmNQ",
            "source": "youtube",
            "added_date": "2026-04-16T16:52:58.932216Z"
        },
        {
            "id": "Jyq8ut4PO2M",
            "title": "Aqua League FULL MOVIE | Fantasy Action Movies | Yao Xin Qian & Wang Mian | The Midnight Screening",
            "url": "https://www.youtube.com/watch?v=Jyq8ut4PO2M",
            "duration": 5051.0,
            "view_count": 19120,
            "uploader": "The Midnight Screening",
            "category": "action",
            "channel_tags": [
                "action",
                "thriller",
                "scifi"
            ],
            "channel_name": "The Midnight Screening",
            "thumbnail": "https://i.ytimg.com/vi/Jyq8ut4PO2M/hqdefault.jpg?sqp=-oaymwEcCNACELwBSFXyq4qpAw4IARUAAIhCGAFwAcABBg==&rs=AOn4CLDPRt4BG0yBKTrIHModiAryPQHkXA",
            "source": "youtube",
            "added_date": "2026-04-16T16:52:59.134622Z"
        },
        {
            "id": "TDrML1LUDrA",
            "title": "War Wolves FULL MOVIE | Monster Movies & Creature Features | Tim Thomerson | The Midnight Screening",
            "url": "https://www.youtube.com/watch?v=TDrML1LUDrA",
            "duration": 5967.0,
            "view_count": 37255,
            "uploader": "The Midnight Screening",
            "category": "action",
            "channel_tags": [
                "action",
                "thriller",
                "scifi"
            ],
            "channel_name": "The Midnight Screening",
            "thumbnail": "https://i.ytimg.com/vi/TDrML1LUDrA/hqdefault.jpg?sqp=-oaymwEcCNACELwBSFXyq4qpAw4IARUAAIhCGAFwAcABBg==&rs=AOn4CLD0nP8F9c8MOtso2wzT6vwaIAzHEA",
            "source": "youtube",
            "added_date": "2026-04-16T16:53:00.152522Z"
        },
        {
            "id": "qGc_sRntIE4",
            "title": "Devil On The Mountain FULL MOVIE | Monster Movies & Creature Features | The Midnight Screening",
            "url": "https://www.youtube.com/watch?v=qGc_sRntIE4",
            "duration": 5324.0,
            "view_count": 31248,
            "uploader": "The Midnight Screening",
            "category": "action",
            "channel_tags": [
                "action",
                "thriller",
                "scifi"
            ],
            "channel_name": "The Midnight Screening",
            "thumbnail": "https://i.ytimg.com/vi/qGc_sRntIE4/hqdefault.jpg?sqp=-oaymwEcCNACELwBSFXyq4qpAw4IARUAAIhCGAFwAcABBg==&rs=AOn4CLCHFPje4GwfM94Is9z6QmMLuN-5Sw",
            "source": "youtube",
            "added_date": "2026-04-16T16:53:00.559868Z"
        },
        {
            "id": "lm4QSp1BLVs",
            "title": "Thousand Yard Stare FULL MOVIE | War Movies | Adam Munro | The Midnight Screening",
            "url": "https://www.youtube.com/watch?v=lm4QSp1BLVs",
            "duration": 5477.0,
            "view_count": 98614,
            "uploader": "The Midnight Screening",
            "category": "action",
            "channel_tags": [
                "action",
                "thriller",
                "scifi"
            ],
            "channel_name": "The Midnight Screening",
            "thumbnail": "https://i.ytimg.com/vi/lm4QSp1BLVs/hqdefault.jpg?sqp=-oaymwEcCNACELwBSFXyq4qpAw4IARUAAIhCGAFwAcABBg==&rs=AOn4CLClYqovrhjGgi3UFngjfxnl5cL1xg",
            "source": "youtube",
            "added_date": "2026-04-16T16:53:01.783439Z"
        }
    ]
}